
2.51679,0.0332527,-9.44356,6.50237,-6.86695,-11.7643,6.51348,-6.49798,-10.3216,6.63315,-6.86521,-11.9573,6.59015,-6.57552
0.278345,0.0884776,-4.16773,29.5283,-4.23832,-3.65796,30.0028,-4.16456,-3.78346,30.0072,-4.13904,-3.6619,29.9148,-4.214
2.58652,0.124053,15.0875,3.10147,3.84816,15.1131,3.50532,4.21478,14.4344,2.63632,3.90592,16.1,3.07904,3.71273
1.30758,0.0146263,-6.25823,3.23921,-5.67721,-5.90596,2.34437,-5.3776,-6.01723,2.85257,-5.54461,-6.15762,2.35316,-5.36461
0.787001,0.306732,-13.4326,3.87298,-5.83134,-14.0486,4.14164,-5.89988,-14.1243,3.83289,-5.82567,-14.1945,3.7685,-5.83983
15.5205,0.614731,16.0158,7.45899,-4.69411,15.4594,7.78163,-5.89653,18.5118,7.67004,-4.72108,16.5687,8.67242,-6.1129
14.887,0.358453,-21.317,16.1206,4.88669,-21.705,13.6144,5.66118,-19.6948,16.8204,6.45374,-21.4885,17.0091,4.99813
10.6581,1.20123,10.1055,30.7307,2.77523,9.33714,31.0724,0.90975,10.6968,31.1019,0.130068,10.0754,30.8223,0.780894
11.5594,0.41532,-16.8921,7.56033,4.9494,-17.3062,9.30518,6.6274,-14.7321,7.31743,5.9376,-17.4108,7.16738,5.03835
8.79264,0.330933,-5.02134,27.3455,-4.7154,-4.56835,26.5388,-5.53752,-5.08704,26.1863,-6.1597,-3.94532,26.3054,-6.00516
1.54187,0.172879,11.8262,31.1226,-0.654852,11.1048,31.0522,-0.0122161,11.0838,31.0818,0.240208,11.0753,31.0689,0.122871
2.38057,0.99122,12.3755,30.7131,2.73783,11.0957,30.7293,1.626,11.3377,30.6555,1.61351,11.5967,30.7612,1.36818
3.17922,0.196496,-16.6541,30.1293,2.87638,-16.1344,31.2417,0.985186,-16.0511,31.247,1.00573,-16.2265,30.264,3.23651
4.69443,0.24067,-12.642,16.4569,-7.3767,-11.32,14.7629,-8.08256,-11.1896,14.8844,-8.08171,-11.6902,14.9529,-7.99934
4.43025,0.418009,14.1841,13.2419,-6.30774,13.9262,13.8378,-7.16941,13.6964,12.3764,-6.849,15.0153,13.6023,-6.41249
6.38364,0.336712,16.4125,18.2071,6.19253,16.4425,17.6277,6.37238,17.9448,18.6579,6.38606,15.9627,19.2257,6.93833
4.37548,0.349265,11.7928,8.52734,6.35318,11.6696,7.78231,6.3075,11.5237,9.10083,7.22565,13.1926,8.81675,6.66676
4.22038,0.0291635,1.51242,8.85492,7.24347,1.55825,9.46327,7.87768,2.60905,8.72363,7.35149,3.04136,8.74475,7.49115
0.738274,0.033547,6.61963,0.941855,0.30802,7.24219,0.614799,0.0366239,7.14054,0.671033,0.29047,7.24924,0.62759,0.414567
2.3416,0.115099,13.9432,7.58303,-5.89706,14.271,8.34789,-6.46077,14.9917,7.73402,-6.07407,13.9942,8.28184,-6.43399
1.33382,0.457589,12.251,5.68857,-4.89329,12.1607,6.74566,-5.56206,12.2086,6.69471,-5.5269,12.5096,6.49506,-5.50989
0.187787,6.06662e-05,-16.219,0.626934,-0.405889,-16.475,0.647736,-0.0618805,-16.3378,0.660097,-0.0560859,-16.2141,0.654768,-0.184265
5.02016,0.198179,13.1403,27.0207,4.69227,14.9313,26.8523,4.57566,13.5595,27.2465,4.57666,12.7,26.948,5.28199
1.48596,0.394188,-24.3242,6.64378,-3.99683,-24.2736,8.53316,-3.53812,-24.2461,8.65828,-3.6613,-24.2448,8.65823,-3.58589
17.869,0.0724982,-8.74207,22.8679,-6.64401,-6.96684,20.2843,-8.13222,-7.2727,23.8252,-7.07054,-6.73586,20.9538,-8.07981
11.9149,0.164388,0.514973,16.9972,8.07302,1.26224,16.5929,8.34864,2.12794,19.5885,8.60706,1.75537,16.0724,8.67684
3.90545,0.6546,-9.27445,27.3204,-4.74672,-8.4456,26.7837,-4.7184,-9.203,26.4665,-5.75844,-8.19075,26.834,-4.66706
4.32785,0.256957,-23.8683,22.9695,-3.06161,-24.0239,21.7625,-3.592,-24.1612,23.9106,-2.92991,-24.2504,22.9051,-2.38201
2.10655,0.587292,22.4206,14.3348,-2.61704,21.8088,13.8592,-3.10908,21.7063,13.8617,-3.44012,21.8632,13.7301,-3.11011
5.0353,0.033077,-18.369,1.09201,-1.70333,-19.4861,2.27585,-3.05034,-18.2966,1.58036,-2.47703,-19.4898,1.91209,-2.53483
2.75217,0.0641551,23.2403,14.933,-1.12622,24.6402,15.9363,-0.131522,23.7472,15.2769,-0.875214,24.7456,16.0848,0.068925
1.45443,0.0298814,10.4457,9.45837,-7.02801,10.743,10.3362,-6.67037,10.6165,10.2145,-6.7219,11.1161,10.1971,-6.69071
3.85505,0.177668,8.86539,6.91258,-6.25419,8.73681,7.12803,-6.66418,8.06272,6.64749,-6.23375,7.59695,6.39916,-6.35571
1.54021,0.158235,1.26704,26.109,6.39189,0.804214,26.0305,6.5725,1.53553,26.587,6.25525,1.98478,26.3763,6.52247
11.9564,0.213575,17.5641,26.7401,4.52883,20.1864,25.7712,4.5355,19.9054,25.1422,4.78644,15.91,25.5639,5.45013
0.970662,0.161834,5.83529,7.35566,-7.35726,5.69235,6.6208,-6.85251,5.56337,6.86678,-7.1097,5.81969,6.68472,-6.90929
3.1723,0.271091,13.1454,2.0118,3.13152,14.211,1.83416,3.12596,12.4518,1.75652,3.41724,13.102,2.5067,3.89745
0.441672,0.132185,-10.2425,3.4234,4.08317,-10.1378,2.99646,3.70987,-10.2585,3.12675,3.75892,-10.0115,2.99205,3.73282
0.897764,0.468417,14.9931,20.0207,-6.66936,15.7043,19.1115,-6.86622,16.2131,18.9706,-6.74928,15.9604,18.9794,-6.79683
2.19653,0.416258,18.4196,4.60617,3.91162,20.061,4.56306,4.12018,20.0548,4.44243,4.00588,20.175,4.21788,3.86167
1.1461,0.0526891,-6.80982,1.16225,-4.22723,-7.68635,1.23147,-4.01383,-8.4763,1.36464,-3.90585,-8.56246,1.39847,-3.97185
1.155,0.0687274,-19.2676,30.5647,3.43502,-19.1356,30.1346,4.04669,-19.4076,30.153,3.93327,-19.2667,30.1933,3.91037
29.042,1.69852,-0.232307,14.6208,-8.13605,1.98253,16.1735,-7.32986,4.64019,16.9792,-8.38869,2.19528,14.9309,-7.2212
3.06579,0.026389,-12.756,24.9476,-5.19922,-13.566,24.5843,-6.16922,-13.6048,24.3328,-6.42528,-13.7197,24.5892,-6.29572
11.5452,1.38399,-11.5253,4.36252,3.96298,-9.56227,5.43573,6.44418,-9.51328,3.92124,4.80354,-10.8475,1.49709,2.72884
15.1624,0.725452,2.2659,30.6167,1.03548,2.67375,31.1537,2.29497,4.94422,31.5816,1.48179,2.28912,31.4332,0.695485
2.5929,0.0475569,-15.7161,7.09964,-6.21507,-16.6066,6.88756,-5.99674,-16.2331,6.61338,-5.96497,-16.6102,6.62655,-5.92264
0.73684,0.145429,-4.18992,8.97842,7.63977,-3.80837,9.0442,7.4694,-3.54987,9.20517,7.5084,-3.56081,8.94455,7.40313
2.36045,0.194096,-24.4472,12.5737,0.43169,-24.5531,13.2276,0.724978,-24.9453,11.5825,-0.129178,-24.4032,12.4431,0.838531
3.70684,0.175731,-17.3553,27.2852,-3.25124,-17.501,26.9186,-3.6409,-16.4195,27.2331,-3.75571,-17.078,27.9499,-3.14129
0.669455,0.189869,14.4233,6.41168,5.88903,15.098,6.02359,5.82651,15.2322,6.27105,5.79872,15.2277,6.14514,5.7907
1.87992,0.0284107,-16.5485,11.6675,6.45031,-16.8489,11.678,6.4087,-16.5619,12.5505,6.6569,-17.207,12.1948,6.52938
7.87242,0.164093,9.21491,13.7089,7.38848,9.71176,13.5241,7.32691,8.7323,14.0678,7.79331,9.50843,11.0097,7.93205
2.24536,0.170268,-4.76126,11.1395,-7.85535,-4.10086,10.6266,-7.89087,-3.86909,11.4768,-8.09052,-3.75468,11.0946,-7.99552
4.0255,0.275314,-17.3092,12.9548,6.37914,-18.0751,12.6033,6.55037,-16.6652,12.9427,6.66174,-17.6334,14.1372,7.11362
5.55585,0.0434718,8.00463,18.9939,7.63191,8.363,17.8578,8.07399,9.73949,19.0705,7.75896,9.65712,18.9473,7.79449
2.44406,0.038178,17.7244,5.67972,5.28033,15.6051,6.26566,5.73404,16.3761,6.60934,5.64135,15.3689,6.25464,5.77711
10.5723,0.445403,-21.0778,17.6252,5.07788,-22.3069,18.3795,5.39676,-20.0397,17.8411,6.32719,-20.6365,18.722,6.49555
10.2925,0.484155,9.70592,15.3532,-7.49556,9.83216,17.557,-8.21219,12.6587,15.0602,-7.50743,9.61766,14.7915,-7.93959
2.95547,0.385479,-16.5089,29.569,-2.67339,-17.1271,28.4068,-3.10944,-17.1945,28.0695,-3.13743,-16.9527,27.9455,-3.18333
3.19977,0.367259,-13.7714,16.6265,6.85098,-14.7979,16.5135,6.97204,-14.2347,17.5123,7.24861,-14.1766,17.797,7.39769
3.71348,0.378629,12.1175,5.24513,-4.42905,13.1878,5.41107,-4.65228,12.0779,4.35961,-4.5348,11.3839,5.14467,-4.97382
19.7743,0.510317,-21.7174,28.3596,-2.46575,-20.3997,29.9036,-2.30445,-22.622,29.9695,-2.50701,-21.8941,27.3749,-3.39647
3.69564,0.252728,-9.63085,27.3564,5.69079,-8.47537,27.909,6.06936,-8.22162,27.8959,6.16252,-9.51355,26.9353,6.27324
12.0418,0.306561,-12.5939,27.7385,5.63583,-12.1377,27.4949,6.27905,-11.5237,29.521,5.61745,-13.3974,27.8578,5.62479
1.52348,0.0112716,-6.22881,11.4378,8.3119,-5.5938,11.9511,7.7269,-5.71875,12.0116,7.67124,-5.85193,11.5823,8.12425
2.67196,0.186972,-12.3255,22.6365,7.63044,-12.2161,22.2804,7.87758,-11.8002,23.2953,7.86988,-12.9659,23.0945,7.64763
7.3492,1.09943,-21.4185,8.55954,-5.33718,-17.6037,8.33436,-6.39864,-17.6594,8.17611,-6.3905,-19.1747,8.99552,-6.44564
21.1891,1.14508,-23.9524,28.9776,1.28357,-21.5209,30.5446,0.484483,-21.5391,30.4711,0.556884,-23.7931,30.0062,1.91001
1.56229,0.0272128,7.79538,31.2734,-0.710465,6.88008,30.7724,-1.57694,6.7574,30.8147,-1.46594,6.89174,30.94,-1.24431
2.574,0.173187,-3.0567,30.788,-2.28572,-3.07317,31.1462,-1.89928,-3.35486,30.7704,-2.78461,-2.088,30.8243,-2.55464
12.1944,0.451699,-0.688383,18.7042,7.95836,-0.717059,17.5445,8.16335,1.0805,18.6165,8.33617,-1.35787,19.2746,8.5739
13.487,0.430411,-23.6872,21.4482,-4.12404,-23.7471,19.9878,-4.63315,-24.2509,19.4628,-3.72802,-24.3336,20.0341,-2.46603
1.9531,0.241425,4.43476,11.4046,7.96201,4.5756,10.4347,8.33093,5.2288,11.4122,8.19384,5.86115,11.1371,8.22144
2.5521,0.0267347,-9.50068,19.861,-7.7564,-9.58006,20.4687,-7.76794,-9.11625,20.6115,-7.90144,-8.75401,19.5903,-7.99389
10.3739,0.0762159,-24.1591,5.78462,1.0484,-24.016,5.54489,2.19681,-24.2915,7.50664,2.10314,-24.0146,6.50689,2.97984
5.84863,0.299419,13.6896,5.39171,-4.28267,13.7765,5.9401,-4.86246,13.4451,4.44231,-4.18216,15.6925,4.58644,-4.18526
0.74921,0.0135851,-8.33207,28.5388,5.9244,-8.30294,28.9103,5.91136,-7.89445,28.9511,6.06313,-7.80904,28.7609,6.11561
6.16337,0.220272,10.9717,2.08446,-0.303492,10.3953,1.77031,-0.512422,11.3469,0.802065,1.04425,12.0806,2.07078,-0.197275
0.867909,0.531792,13.5169,3.24973,4.3989,13.3158,2.55519,3.87833,13.8404,2.58607,3.90031,13.4891,2.64726,3.88315
5.77687,0.303776,14.8044,29.6457,-2.39042,16.2959,29.9211,-2.24579,15.2329,29.1399,-3.78627,14.1586,30.0141,-2.48433
0.704885,0.00770962,-18.3174,4.53173,-5.99498,-17.9123,5.41125,-5.84801,-18.0384,5.41566,-5.85798,-18.3095,4.92082,-5.94868
4.61595,0.310784,0.672177,31.0979,3.32028,2.07955,31.3139,4.05198,0.00787547,31.4585,3.50048,0.918928,31.3854,2.43402
27.9548,0.71386,-1.11778,26.0532,6.29664,-2.2237,26.3811,7.11458,-0.925895,27.5119,5.62802,3.51851,25.623,7.57203
13.1143,0.342898,5.80874,30.6223,-1.63164,6.75959,30.8461,-1.40295,6.03021,31.2033,-0.560208,6.82799,30.2889,-3.59263
13.2095,0.642862,-18.6497,18.0337,5.95227,-19.8633,18.5577,6.48741,-18.8094,17.0416,6.17012,-16.656,17.9751,7.4538
8.66094,0.568548,-1.99378,1.77982,3.15394,-1.95431,2.4138,4.14639,-0.502551,1.10545,3.24735,-2.94423,1.10626,3.55959
12.2264,1.79877,-19.1078,14.8799,-6.59358,-21.549,12.7222,-5.28431,-21.5513,12.8508,-5.26646,-21.7941,13.1114,-5.25082
3.15111,0.19134,16.6765,25.3183,5.23652,18.6511,25.0632,5.14444,19.1501,24.7961,5.13402,17.6514,25.3589,5.12231
6.23777,0.0894531,17.4991,29.9464,-1.0548,19.3193,29.7938,-2.15423,19.1932,29.7895,-2.14841,17.784,30.1997,-0.570755
12.2026,0.555749,15.6157,27.5002,-4.0617,14.7571,28.3511,-4.30017,17.2732,28.1822,-3.83398,15.8417,26.0003,-5.97302
0.647774,0.0507313,1.01551,3.52963,5.90103,0.673332,3.70968,6.11394,1.0286,3.75696,6.19585,0.777537,3.78722,6.20025
3.54352,0.206107,7.4635,4.47654,4.98654,7.41835,3.65214,4.34081,7.82881,4.2463,4.7037,6.9667,4.32965,5.71456
12.1976,0.530418,-11.6143,10.2836,-6.74403,-12.3062,9.5676,-7.36841,-9.84559,9.66832,-7.33698,-11.5857,11.6202,-7.11971
5.94458,0.0304067,2.03045,18.2051,-8.6482,4.18747,18.634,-8.7391,4.05037,19.1049,-8.77077,3.01738,17.5797,-8.64776
1.38645,0.101852,-22.201,30.3397,0.0642737,-21.3629,30.4101,-0.706419,-21.3032,30.432,-0.529357,-21.4892,30.403,-0.70422
6.19674,0.246505,11.8541,6.9033,6.05333,13.2528,7.23092,6.28513,11.7471,5.88845,6.31225,11.533,7.63117,6.29411
0.794027,0.15387,-6.19528,23.7445,-6.94518,-6.43973,24.0482,-7.13643,-6.7004,23.8052,-7.13618,-6.69615,23.9311,-7.14466
8.25382,0.899147,17.8663,29.6703,1.53322,18.8859,29.5629,2.37152,19.6561,29.8665,0.69605,19.2547,29.6081,1.73502
3.51304,0.160402,-23.7785,12.1237,1.84496,-24.1361,12.0585,1.35531,-24.1848,10.9108,1.96552,-24.1197,10.7972,2.22817
19.5044,0.077564,-22.4067,17.9237,-5.02267,-21.2386,18.2562,-5.43435,-24.1582,17.4806,-4.20175,-21.6351,20.8908,-5.55241
3.06641,0.178474,-17.5894,3.95825,2.64348,-17.8806,4.58125,4.84862,-17.5151,4.21351,3.84245,-17.753,4.60049,4.89551
0.697822,0.00542083,-23.0864,26.9297,4.53705,-23.4028,26.6563,4.11505,-23.3761,26.783,4.07,-23.2083,26.658,4.49457
10.7945,0.689295,6.21554,14.3264,7.69596,6.25453,10.1147,8.18389,6.1011,11.1188,8.15593,5.66152,14.619,8.3167
4.0359,0.649019,-12.1396,12.27,-6.70756,-10.0131,12.1253,-7.40284,-10.6361,12.3155,-7.35193,-10.1416,12.0673,-7.42297
2.73396,0.0382111,-23.8792,24.6572,0.673493,-23.9088,25.2886,0.721085,-24.2241,26.186,0.469164,-24.2835,24.5453,-0.0475946
8.61966,0.303491,13.1603,30.1872,-1.81287,13.51,30.0016,-3.07927,14.0649,30.621,-1.0826,12.0174,30.7152,-1.79154
11.4393,0.455993,0.983838,28.3278,5.04417,3.08819,28.4595,5.60975,0.929397,27.4746,5.63534,0.544482,28.9322,5.3869
0.362989,0.0988993,-3.52806,6.42167,-7.55876,-3.7797,6.55956,-7.58067,-3.86895,6.50731,-7.5026,-3.95058,6.36733,-7.39303
25.3252,0.956763,6.18077,31.3977,0.45195,2.03893,31.4833,-1.29069,4.11045,31.1989,0.109886,3.95512,31.632,0.359335
10.6833,0.329661,3.20523,1.28177,-1.40478,5.0841,1.00114,-1.56374,4.43928,0.963041,-2.30863,2.31507,0.933601,-1.13742
5.36064,0.245584,-11.9246,30.0643,-1.74178,-11.3379,29.8122,-3.02801,-12.6445,30.1235,-1.92513,-11.1497,30.6934,-1.30612
4.81514,0.363182,11.8694,13.9531,7.27035,13.2657,14.0304,7.64383,11.976,13.2897,7.48271,11.5798,14.2719,7.72464
0.475062,0.0207655,7.67257,0.778139,2.92642,7.48028,0.809694,2.9742,7.67172,0.618587,2.6826,7.42586,0.607614,2.72049
2.88582,0.213914,20.1249,29.2334,1.77208,20.9702,29.6015,0.696938,19.6345,29.603,1.3481,20.7631,29.2012,2.58516
0.0963338,0.0148267,21.6154,3.85921,-2.28562,21.6546,4.19547,-2.43406,21.8265,4.17542,-2.31458,21.7408,4.24197,-2.40012
1.88663,0.30147,-19.923,29.4279,4.28387,-18.549,29.6772,4.58332,-19.0632,29.8113,4.31248,-18.8014,29.6793,4.45938
8.33522,0.0411441,1.54933,31.4516,2.29704,0.267796,31.7152,2.06752,0.535634,31.9153,1.08789,-0.186678,32.0822,0.982009
11.6829,0.283514,-20.4384,30.2697,-0.39999,-18.147,31.3097,1.12832,-21.1091,30.4037,-0.603023,-20.0865,30.2651,-1.93988
2.05708,0.186371,-2.30328,3.07202,4.50895,-1.95834,2.91171,4.40858,-2.73657,3.18361,5.18158,-2.2093,2.34208,4.11443
8.47891,1.20646,-11.2454,10.4055,7.48297,-11.9143,11.8736,6.98383,-11.7977,11.8905,6.97904,-12.9602,11.6682,7.14677
0.0728552,0.0201603,-20.9184,29.9733,3.69569,-20.9286,29.6983,3.92482,-20.7569,29.7977,3.89411,-20.7961,29.7146,3.94637
11.1072,0.424714,15.8499,29.6548,1.80123,16.264,29.8457,3.29957,15.4269,30.2896,0.74048,16.3551,30.0981,0.792986
0.612527,0.0252815,24.2561,17.8094,1.13705,24.8959,17.7854,0.3593,24.8967,17.6587,0.38441,24.7057,17.9175,0.577038
1.57387,0.649968,14.3981,17.8992,6.99036,15.7564,17.9779,7.02779,15.7895,17.7356,7.04815,15.8386,17.7833,7.01606
8.71633,0.0275862,5.75496,27.789,4.69717,5.86597,27.0463,5.36276,5.04292,28.564,5.36448,5.73171,26.0237,6.7702
7.81689,0.365447,-6.65017,21.0174,7.86584,-6.35427,22.5323,8.00693,-4.89553,20.8356,8.36238,-7.57811,20.9361,8.1989
0.763657,0.0766008,8.78485,26.4163,-6.54354,8.05809,25.7284,-7.07066,9.03464,26.1639,-6.75688,8.26451,26.067,-6.8651
4.8899,0.339147,-1.20381,28.2781,-4.596,-0.557992,30.2802,-4.1114,-0.709312,28.109,-4.82429,-1.65983,27.8658,-5.28696
3.25744,0.314,5.58035,28.8541,-4.26091,4.87591,28.7237,-4.57014,6.78966,29.6101,-4.43003,6.79237,29.673,-4.4006
0.459857,0.0762042,24.1545,26.7729,0.525191,24.108,27.2755,0.629596,24.0248,26.8928,0.894041,24.0315,27.0771,0.828759
12.8241,0.279987,20.16,5.92011,-3.52399,17.4508,6.19358,-4.19133,21.6123,6.93079,-3.31126,17.5034,5.64031,-3.86056
0.739278,0.302483,12.0175,4.60597,6.08989,12.0693,5.75112,6.2387,11.9478,5.88144,6.23821,11.818,5.7599,6.27228
6.94253,0.0450954,24.179,20.2489,0.462892,24.5466,18.5535,0.647185,23.9704,19.0779,1.06644,24.5944,19.3395,0.295324
2.32014,0.052539,-11.0493,30.246,-1.88479,-10.7301,30.0498,-2.78241,-10.1905,30.7886,-1.83175,-10.5229,30.0603,-2.98898
3.48117,0.290266,-12.4259,30.9971,0.342435,-11.585,31.6197,0.794846,-12.2116,30.9999,-0.288263,-13.3278,31.1506,0.111541
10.6227,0.355416,19.2591,17.7377,5.38682,21.5674,19.8552,3.78901,20.1651,16.8536,5.28172,21.6429,19.6635,3.76015
0.937277,0.295779,-5.93846,20.8788,-8.19747,-5.55703,20.3612,-8.27343,-5.71916,20.2527,-8.14665,-5.70383,20.1078,-8.19713
4.19176,0.271724,10.2818,27.755,4.64485,9.53717,27.7769,4.93201,11.8738,27.8784,4.9479,11.9317,27.6525,5.10449
0.913109,0.12504,6.88124,22.5744,7.66105,5.60365,22.5199,7.51018,6.11903,22.4019,7.68308,5.74507,22.6141,7.50671
2.86593,0.022669,21.3191,21.0616,-4.69101,22.1527,23.0498,-4.19315,22.198,22.796,-4.12936,21.8368,21.4218,-4.30836
0.768807,0.475844,-14.5882,18.7854,-6.70362,-15.0763,18.5503,-6.91385,-15.0584,19.054,-6.89671,-15.0625,18.928,-6.88402
1.12195,0.00298042,-7.28763,24.9604,-6.96966,-7.8118,24.3483,-6.87852,-8.32133,24.1139,-6.70473,-8.18878,24.1049,-6.76585
0.396727,0.381285,0.268596,7.04575,-7.79537,0.0279961,7.42733,-7.85203,0.158555,7.5539,-7.89209,0.288531,7.70976,-7.98159
5.65723,0.108447,21.6475,14.4833,3.96071,20.1486,14.6726,5.47012,20.3824,14.7905,4.94649,21.9574,14.275,3.61869
0.207852,0.172368,-0.852833,2.70635,-5.56963,-0.862469,2.28264,-5.27415,-0.739091,2.17308,-5.21073,-1.05306,2.5083,-5.45517
2.7856,0.148224,-24.4091,13.4549,-2.42788,-24.563,13.6394,-2.24227,-24.6309,12.5801,-2.1725,-24.5016,13.332,-3.18245
14.4334,0.68842,-21.0482,11.4464,4.68873,-21.9669,9.8354,5.16292,-20.0236,11.1584,5.40178,-21.7416,12.8497,5.49869
9.57103,0.572156,-1.03639,22.2754,7.81063,-1.95856,21.7495,8.4946,-1.38304,23.8716,8.39153,0.324761,22.2991,8.24085
4.08014,0.184472,-7.80931,1.744,2.36029,-7.52698,2.15888,2.84502,-6.91843,0.92017,2.37177,-8.43183,1.90146,2.5017
6.72325,0.300779,-24.0283,24.5364,-1.54563,-24.4982,23.292,-1.16014,-24.3761,24.1581,-0.897758,-24.3325,24.4209,-0.280205
5.41956,0.199051,-18.825,22.3374,-5.31273,-18.6727,23.0886,-5.31089,-17.2076,22.0288,-5.94605,-18.8595,21.5769,-5.76698
12.7266,0.375964,-24.122,11.5523,-3.05805,-25.0457,10.3252,-1.01247,-24.3095,10.7379,-3.75654,-25.0001,11.8365,-1.27
4.71305,0.270454,10.1703,3.14626,3.79355,11.767,1.92708,3.79593,10.9736,3.85448,5.05216,10.5935,3.87009,4.91478
6.96172,0.312851,-3.916,16.7717,8.01136,-3.36739,17.3834,8.2487,-4.67934,16.6743,8.28147,-2.53719,15.9691,8.64812
9.57181,0.267031,-10.0506,1.59867,-2.93761,-8.10414,1.07588,-3.15127,-8.48597,1.10672,-1.78599,-10.0102,1.30286,-1.45695
2.73611,0.184225,-24.2332,10.2968,1.92975,-24.4143,9.28778,1.35708,-24.0002,10.3517,3.17095,-24.4462,9.42173,1.35089
3.25215,0.189174,-1.8843,16.2509,-8.29728,-1.43858,15.9422,-8.30552,-1.29619,16.8137,-8.29245,-2.57344,15.9704,-8.76598
0.300703,0.138363,-17.8573,30.0559,3.82849,-18.2239,30.1761,3.90139,-18.1291,30.1094,4.01924,-18.1316,30.1019,3.89325
0.605867,0.0381871,8.54008,15.4562,8.57572,8.57921,16.3265,8.52109,8.67909,15.8296,8.56853,8.45001,16.3488,8.52477
0.432339,0.0687795,1.08432,24.7422,-7.7178,0.876121,24.4575,-7.82422,1.25778,24.5359,-7.78793,1.12771,24.4309,-7.80594
1.82923,0.0354643,-0.829638,30.8288,-2.56648,-1.4307,31.262,-1.89401,-1.83696,30.7936,-2.55903,-1.95868,30.8603,-2.44191
9.94695,0.462739,6.68717,22.8031,-7.40294,7.103,22.1885,-7.74901,5.9718,22.4801,-8.12208,8.41753,23.5119,-7.32787
4.31465,1.50836,8.78937,26.5157,-6.48303,8.10144,28.2115,-5.45234,7.43582,27.5981,-5.57653,7.89982,27.7793,-5.43882
0.594107,0.20044,-17.1192,3.87064,-5.54016,-17.0686,4.38069,-5.70509,-17.1296,4.57565,-5.89505,-16.8117,4.27449,-5.5396
4.52537,0.224608,-20.5241,22.5165,5.74315,-20.6747,21.5195,5.93229,-20.8719,23.0342,5.93776,-19.8775,22.6263,6.04877
2.0181,0.234855,-21.0701,27.6485,3.50832,-21.6451,28.3264,4.01189,-21.1489,27.2137,3.71452,-20.7231,27.5728,3.64666
6.58979,0.36454,-16.3828,2.24925,1.41168,-15.9771,2.71742,2.04272,-15.1537,1.28545,1.46732,-17.4018,1.73048,1.51615
7.11005,0.584161,-22.967,11.6395,-4.48119,-23.1842,12.9249,-5.05175,-22.6094,9.56811,-5.42114,-23.9354,10.9863,-4.51676
5.70188,0.384117,4.32184,14.2239,8.17971,5.58935,13.9315,8.19064,4.2465,15.2297,8.8717,3.73474,13.6881,8.59671
2.453,0.998568,-6.89116,31.4266,4.08252,-7.64816,31.2257,3.17925,-8.15055,31.0724,3.60019,-7.87751,31.1014,3.4256
5.04295,0.428379,-15.5546,23.3579,6.62618,-14.7903,23.4573,6.86936,-16.2093,24.331,7.32423,-15.7085,22.3547,7.03845
0.180199,0.00331123,-9.5239,30.7466,5.03624,-9.27168,30.6558,5.21903,-9.39093,30.6067,5.2487,-9.27635,30.7254,5.12806
2.71613,0.254283,4.28594,12.2798,-7.7753,4.86337,12.2926,-7.89895,3.46416,12.1033,-8.21656,3.41982,12.3989,-8.27453
6.80541,0.349564,-12.2359,4.31115,3.69211,-12.7705,4.53198,4.51283,-12.2747,1.75686,2.5774,-11.7326,4.29581,3.89324
4.16478,0.344381,-14.7084,30.5498,4.59641,-15.8667,30.2291,3.89691,-16.1287,30.2797,3.23481,-15.8762,30.2882,3.23041
0.955958,0.0135676,22.2093,15.1049,3.22108,21.9782,15.7434,3.33239,21.777,15.7504,3.64948,22.1644,15.4847,3.15065
8.4108,0.288204,20.0199,16.6586,-4.14326,21.5206,16.1917,-3.41089,19.8185,15.9411,-4.83383,21.4729,16.1465,-3.45895
25.8952,0.421993,-16.807,2.53796,-4.7714,-15.6794,3.34729,-5.4318,-15.1517,4.81945,-5.8291,-15.8375,5.29671,-5.95266
3.70955,0.82287,14.623,21.0433,-6.21118,16.6646,20.8459,-6.30964,15.1204,20.0981,-6.58951,16.5342,20.7244,-6.31025
1.29512,0.102998,-3.54438,20.8673,-8.27438,-3.21106,19.8304,-8.77594,-3.50332,20.2428,-8.61787,-3.01129,19.8254,-8.78074
8.58712,0.500405,-14.6001,6.44369,-5.98203,-13.7898,4.35462,-5.94711,-15.5171,5.20362,-5.91227,-13.6534,6.84018,-6.84038
0.347463,0.00932022,12.4448,0.965395,1.20627,12.1965,0.8239,1.71459,12.0817,0.792725,1.71658,12.1656,0.878408,1.33711
0.939152,0.24818,13.4605,2.68568,-1.83486,13.8306,2.89369,-2.72332,13.3485,2.76136,-2.46295,13.4536,2.80366,-2.46476
0.144138,0.0303706,-24.3076,14.4647,-3.829,-24.3453,14.083,-4.06686,-24.3651,14.2098,-3.8144,-24.3576,13.9574,-4.06672
10.0086,0.423906,-12.8643,7.12585,5.76484,-14.6129,7.31327,5.98414,-11.135,5.67889,6.2325,-12.3164,7.98051,6.38948
4.52499,0.346044,3.03594,4.8058,-5.46974,2.6547,3.87448,-5.61519,3.02819,5.5528,-6.03963,4.62671,4.32416,-5.51716
15.4408,0.046063,-7.6843,26.623,-4.84136,-6.74377,27.1585,-4.69715,-6.33612,27.112,-5.15815,-7.38149,25.7023,-6.60714
3.22031,0.267295,7.44456,30.9124,1.58409,6.77705,31.2266,1.70164,7.57361,31.3351,0.908346,8.21362,30.9715,2.1805
20.6866,0.212957,-2.40766,26.1082,7.46208,-5.91553,26.3668,7.27986,-2.54426,25.0621,8.20393,-4.93685,27.652,6.72858
2.35159,0.0936314,-24.41,9.09416,1.16941,-24.3968,8.68489,1.34958,-24.7697,8.04618,0.851618,-24.3433,8.40952,1.85255
5.44235,0.244044,3.70807,28.1596,5.46626,4.7621,27.7438,5.94722,4.60052,28.7688,5.47606,3.10927,28.3796,5.62112
17.7365,0.279942,-6.76038,30.4124,-2.12164,-5.54472,30.1071,-3.7561,-3.87451,30.7413,-2.91382,-4.33982,31.0888,-2.05772
4.37714,0.067891,10.483,4.11144,5.32651,8.20658,4.24701,4.67296,8.13706,4.31732,4.74411,8.34849,4.50588,5.06046
2.05235,0.0839532,5.27925,5.73608,7.36251,5.57094,6.97003,7.15691,5.82069,6.85186,7.25335,5.16936,6.24422,7.27434
8.49454,0.486189,5.70508,1.24677,0.759043,4.40406,0.696531,1.06303,6.75565,0.662043,1.29709,3.96552,1.06315,-1.04154
4.47512,0.0810459,17.7435,17.7824,-5.21383,17.3847,17.7396,-5.60377,17.2613,18.1234,-6.1083,19.1637,18.5706,-4.98907
6.26662,0.281197,13.3718,3.56233,4.51129,12.6807,3.50046,5.06688,14.6043,3.43427,4.39843,13.671,4.80466,5.9805
0.0865562,0.00555159,0.141613,31.4464,4.52812,0.453426,31.3602,4.71047,0.579128,31.4046,4.59918,0.488636,31.439,4.52904
5.10551,0.0341459,22.5263,25.3061,-3.86524,23.5238,23.3171,-2.77739,22.6288,23.7896,-3.76761,23.2213,23.2646,-3.12182
1.5715,0.0474599,10.0801,24.2038,-7.37559,8.76915,23.7216,-7.3415,8.63111,23.4461,-7.34111,8.53705,23.5342,-7.33076
3.83736,0.760374,-18.7331,22.7124,6.42048,-19.7512,22.6219,6.06669,-19.4436,21.2838,6.48602,-19.5113,22.2506,6.10374
1.84359,0.77135,-5.93418,7.6015,-7.84753,-5.927,6.25188,-6.91497,-6.0476,6.27269,-6.90245,-6.17272,6.33205,-6.96477
2.88777,0.23053,-4.77122,31.3237,1.65111,-5.22888,31.8665,0.947877,-4.88492,31.3795,2.24901,-4.06826,31.5922,1.3223
10.7604,0.440405,12.2073,11.1037,6.95008,11.9734,13.193,7.52545,11.1303,11.3313,7.6364,13.3765,10.2442,7.12225
13.8525,0.494212,17.0236,4.52282,3.56777,16.5941,3.10177,3.47513,15.845,4.67586,4.48185,18.2937,4.61445,3.9058
3.97365,0.238546,-24.11,29.2432,-0.911246,-24.1952,29.7113,-1.53957,-24.5477,28.344,-0.5351,-24.3399,29.7164,-0.443293
3.79296,0.225674,-5.08757,12.4019,6.9314,-5.03962,12.9653,6.88841,-5.88389,12.1776,7.66157,-4.56005,12.3572,7.00169
5.37834,0.269532,10.1766,29.1352,-4.04661,10.4172,28.767,-4.42144,11.4855,30.0859,-3.64757,9.59224,29.2879,-4.43424
6.87031,0.380137,6.64611,3.32115,4.02709,6.79752,3.66198,4.58293,5.41347,2.5211,4.41471,7.6668,3.39079,4.21577
0.353477,0.00223009,7.69571,24.2244,7.67666,7.54484,23.5599,7.58713,7.43618,23.6897,7.6457,7.74955,23.8668,7.58679
18.1487,0.978764,15.7098,11.1702,-5.86017,15.1691,12.0187,-6.21011,18.075,12.7236,-5.57229,19.7376,13.2769,-4.88034
3.0527,0.082489,20.8767,4.37259,-2.90789,21.6742,4.4332,-2.5627,21.7962,5.74278,-3.04299,21.9469,5.69974,-2.93547
4.02034,0.30675,7.06773,9.94073,-6.93943,7.68868,9.6864,-6.97658,7.01669,11.4405,-7.68914,6.5656,9.30472,-7.29916
5.53355,0.496444,-17.1049,17.7386,-5.92469,-16.0031,17.3291,-6.58537,-17.7885,17.2294,-6.40094,-17.063,19.124,-6.29784
1.37648,0.0913601,-2.65527,8.08757,-8.03879,-3.32361,8.88785,-7.78078,-3.43729,9.19239,-7.67886,-3.18647,9.18363,-7.73984
9.05311,0.551051,-15.8423,20.7894,6.6872,-16.6614,20.125,7.37905,-15.987,21.6156,6.9387,-13.4953,19.8706,8.12649
3.8433,0.0992479,-11.384,30.8654,-0.628178,-10.3305,31.5955,-0.147565,-11.1357,30.7951,-1.12835,-11.9933,31.1402,0.0378681
5.91475,0.358858,-22.5992,26.3333,-3.1488,-23.6512,27.549,-3.2682,-22.8332,25.9567,-3.79048,-22.0539,26.4023,-3.38062
2.45767,0.187908,16.3481,15.0641,-5.95632,17.0873,15.4445,-5.85493,16.7008,14.6462,-6.2776,16.0539,15.3199,-6.11048
7.75852,1.0072,-2.71846,0.558446,0.202645,-4.85002,0.809947,0.116331,-5.24471,0.92375,-0.36714,-4.88905,0.587742,0.417934
22.1396,0.571509,-4.98046,13.0651,6.93323,-3.44377,12.2119,7.53908,-0.745319,12.0873,8.17776,-4.23332,14.4024,8.52356
1.02987,0.34849,-9.72907,25.3749,-6.5222,-10.4055,25.0692,-6.27847,-10.3955,25.195,-6.27259,-10.2809,24.4727,-6.52254
0.29539,0.0728757,-22.798,28.9749,3.92187,-22.9657,29.2902,3.61822,-22.8988,29.4781,3.54193,-22.984,29.4494,3.5294
1.2353,0.110886,-21.9745,2.59766,0.857123,-21.6568,2.97121,1.22513,-21.7825,2.99235,1.20899,-21.3815,2.06415,0.852626
2.03364,0.18973,13.9246,6.39103,5.77877,13.8632,6.72532,5.92358,14.4752,6.21385,5.89085,13.2751,6.14313,6.16895
12.8231,0.408426,-20.0291,25.3273,4.61539,-19.959,23.7639,6.32339,-20.0259,26.4138,4.41671,-17.4251,26.3945,6.09329
10.1567,0.416514,15.8814,3.72412,-2.13322,14.581,3.04658,-2.35826,15.7537,3.15922,-1.43999,17.2569,3.75458,-3.2017
1.22566,0.544555,2.91051,31.0273,1.22777,3.45211,31.1342,1.75958,3.22733,30.8291,1.70753,3.36343,30.934,1.63499
16.9141,0.299003,-19.5889,18.5818,-5.44082,-17.735,17.8867,-6.19963,-19.5431,19.9763,-5.43206,-20.5564,19.372,-5.41735
9.54252,0.210353,-18.7672,30.3403,-0.304226,-17.3861,31.0404,0.0583981,-17.7453,30.1395,-2.40794,-19.3002,30.3211,-0.641892
11.3493,0.509585,-18.228,22.8187,6.33042,-18.268,21.3185,6.74238,-17.5971,24.1255,7.09853,-16.5503,23.3927,7.3005
4.99365,0.356422,6.0222,28.404,4.57811,5.93766,29.295,4.89174,7.82211,29.0976,5.17047,7.87876,28.9065,5.18603
2.14323,0.0839395,-24.4263,4.63011,0.485556,-24.1401,5.67691,1.17579,-24.2617,5.24707,0.977929,-24.2121,5.75426,0.96852
0.737851,0.111001,12.8364,2.48251,-0.434865,12.1107,2.16479,-0.342186,12.2169,2.09557,-0.201608,12.4613,2.15768,-0.232325
2.04587,0.165429,3.19642,7.44781,7.42139,2.4656,7.15814,7.12941,3.81881,7.17392,7.50557,3.29764,6.68782,7.51648
6.18732,0.483316,12.8646,23.4028,-6.39494,13.3067,22.5933,-6.69535,11.944,23.6584,-7.17722,15.2884,24.8024,-6.37399
1.85624,0.408713,13.1682,28.1566,-4.42949,14.0748,28.7377,-4.31065,13.775,27.6618,-4.88823,13.7088,27.599,-4.94009
5.03561,0.3355,-14.0803,28.141,-3.39958,-15.5114,28.0836,-3.7709,-15.0424,28.5092,-3.50286,-12.9016,28.5931,-3.55852
10.0085,0.667861,-8.45856,16.428,8.02474,-11.5746,16.4108,7.48779,-10.4955,15.8688,8.03374,-11.9363,16.3595,7.62647
3.00719,0.033005,-16.7698,29.9366,3.7489,-17.5098,29.9538,4.01013,-16.7646,30.1168,3.2458,-17.7586,30.0411,3.77772
7.93941,0.310678,22.7117,14.575,-1.38161,23.1352,14.8205,-1.15451,23.174,12.2117,-1.79387,22.4895,14.4052,-2.61532
11.1942,0.0150588,-5.49503,30.0669,6.03963,-7.65161,27.1739,6.42272,-6.67772,27.6884,6.81649,-7.32191,27.8739,6.1863
6.50209,0.166329,-20.6335,3.36298,1.27661,-19.8986,1.78486,0.927456,-20.1349,3.46252,1.3582,-19.1758,1.77658,1.27538
7.03778,0.491933,2.68096,23.6575,7.49882,4.11716,23.767,7.85402,2.63996,21.8614,8.36835,2.43502,24.4622,7.86187
18.0293,0.689496,12.6063,20.6129,-7.45665,14.2591,19.8412,-7.18068,14.5338,21.1725,-6.22378,13.6758,22.3257,-6.53463
2.78615,0.10857,1.52196,16.8005,-7.58664,1.99003,16.4414,-7.43592,1.63596,17.4853,-8.13662,1.05025,16.9209,-7.84471
3.19212,0.243215,-10.8189,31.0974,2.38657,-10.1873,31.2973,2.04924,-11.3138,31.5098,1.77064,-10.677,31.2344,3.01427
0.828209,0.437201,21.5283,20.8022,3.85993,21.2869,21.4513,3.92521,21.499,21.4336,3.79299,21.7815,21.4237,3.59651
3.89211,0.226244,-12.7995,17.0238,-7.22653,-12.6862,16.5064,-7.35435,-13.7587,16.8653,-7.52339,-12.6139,17.4438,-7.51376
1.25857,0.0233742,-15.4737,29.8962,-1.81762,-16.0022,29.5791,-2.56471,-15.9406,29.7231,-2.2419,-15.8761,29.5811,-2.56691
5.81196,0.288474,16.4229,22.3673,5.69072,17.034,22.0847,5.71219,16.8759,24.2426,6.22127,15.9272,22.3846,6.19934
4.16591,0.329446,-9.15832,30.7497,3.86175,-8.44506,30.9866,4.43787,-10.03,31.1543,3.64067,-8.40321,31.0567,3.60459
5.46451,0.290084,3.25987,1.09434,0.0746838,4.4776,1.02446,-0.164321,3.34372,0.300713,1.26622,2.57949,0.781906,-0.133974
6.41129,0.256693,14.0242,13.3179,6.91537,13.3017,13.8537,7.55595,15.4593,13.2912,6.8912,13.7096,12.6281,6.98877
9.84811,0.584722,4.20061,1.86537,3.88118,1.23406,2.05569,3.8357,4.47767,0.782352,3.42591,0.923266,1.591,3.98735
1.27673,0.027256,1.17917,10.6702,8.21422,1.66594,10.1331,8.27974,2.33595,10.8819,8.13991,2.07676,11.1431,8.12289
9.64728,1.60848,15.8161,30.2427,-1.48111,17.7366,29.8961,0.879546,17.4292,29.8311,0.934066,16.9112,29.8481,1.35869
6.75059,0.611276,-14.6684,23.327,6.8852,-14.3025,24.1497,7.28717,-12.6682,23.8367,7.76799,-12.7431,23.8602,7.76252
2.42027,0.101875,7.6031,1.6113,3.73151,7.40536,3.01415,4.13199,7.52578,2.76973,4.1122,7.69218,1.10271,3.40383
9.62787,0.0191701,-24.5391,15.3387,0.965649,-24.2197,17.3657,1.34112,-24.8861,15.4257,0.165038,-23.97,16.5915,1.97705
4.02434,0.328497,-8.20599,4.52516,5.14296,-8.90919,4.72967,5.61369,-7.81778,4.37487,5.75558,-8.69328,4.08071,4.83387
1.24627,0.0737222,18.7618,26.1648,-4.81099,19.2445,25.5808,-5.2331,19.4329,25.5553,-5.22859,18.9021,25.8476,-5.09479
11.7499,0.187901,2.21906,22.9894,-7.4147,5.68697,24.8855,-7.58083,5.27811,24.0398,-7.64032,5.81281,24.8811,-7.58669
10.3952,0.447528,-7.22491,16.278,7.47718,-7.53369,17.6565,7.98458,-8.14544,16.2646,7.82049,-5.94354,17.183,8.13846
8.98103,0.520361,-2.37979,13.8206,7.81663,-2.41747,12.5608,7.87802,-0.343264,13.8496,8.54573,-2.98313,14.3502,8.53958
0.280521,0.0867047,18.0772,5.1282,4.92021,17.6815,4.85849,4.4629,17.9358,4.87947,4.54141,18.0617,4.87443,4.54406
0.198195,0.000313159,17.1106,9.48345,-5.86901,17.1567,9.11536,-5.90077,17.0439,9.10756,-5.96223,17.209,9.16339,-5.86553
1.29505,0.554553,-16.5531,12.8023,6.66005,-16.1286,13.7886,7.21564,-15.5448,12.641,6.95452,-15.5402,12.767,6.96503
4.34723,1.4611,5.51735,20.4788,-8.48153,3.89554,20.7875,-8.10035,4.04155,21.2867,-7.95852,4.04595,21.4127,-7.95821
3.197,0.273558,-18.2977,20.68,6.53597,-18.2269,21.2236,6.73638,-17.8069,20.0325,7.05006,-19.0517,20.9602,6.60038
1.88133,0.796249,-15.0012,24.4298,7.28958,-13.9936,24.312,7.45615,-13.7266,24.5558,7.72713,-13.8551,24.4449,7.5587
1.84813,0.0604781,16.6746,14.155,-6.3708,15.1442,13.4605,-6.39432,15.5265,13.5732,-6.39062,15.0538,13.6616,-6.44514
4.18118,0.227987,-24.3067,20.4192,-1.57726,-24.3559,20.1351,-2.29872,-24.7087,20.4626,-0.832609,-24.6279,21.3893,-1.59819
8.56484,0.5666,-15.9878,25.9077,5.74026,-16.0701,26.7758,5.49882,-14.4453,26.2388,6.62016,-17.1974,25.6158,6.83122
2.70738,0.689224,-23.6687,12.0422,2.45751,-23.5984,12.2919,3.35416,-23.6483,12.6105,3.1669,-23.6795,11.9165,3.7334
18.1814,0.223521,-13.919,19.0231,-6.55265,-13.3575,17.4816,-7.4453,-12.5116,19.8476,-7.06233,-12.5817,18.0849,-7.54759
8.66492,0.354486,0.337523,12.0864,7.73173,0.114058,12.7408,8.06808,2.59929,11.6079,8.23243,-0.507913,11.8638,8.03547
3.85172,0.190311,-13.9688,1.73914,-3.75131,-16.0925,2.25472,-3.64003,-13.5946,1.81441,-4.13585,-15.9922,2.26384,-3.50538
7.39662,0.82752,9.85958,25.7852,5.71464,13.1423,25.5937,6.33906,12.3857,25.5124,6.50156,9.13158,25.7418,6.83508
6.82882,0.416451,13.7845,25.7811,5.27618,14.0347,26.7395,4.85023,13.1777,25.7989,6.02091,15.9003,25.5159,5.57162
5.11326,0.383072,0.410516,13.975,8.13491,0.455262,12.5545,8.02434,-0.0653566,14.4812,8.75523,1.40126,14.0403,8.50817
4.27265,0.159685,22.442,17.9966,2.09953,23.5064,18.1995,1.56015,23.6288,18.3334,1.48673,23.075,18.9831,1.94637
2.40222,0.0577151,-4.93675,16.1808,8.36568,-6.15791,16.038,8.16276,-6.73227,16.1656,7.77063,-6.57107,16.0766,7.97727
17.172,0.822426,11.2796,28.4637,-4.39177,12.9327,28.5228,-4.29579,12.3499,26.9379,-6.07492,13.8606,29.6213,-3.60159
16.1243,0.410086,-5.81805,23.6483,7.59817,-6.76366,23.5979,7.91637,-2.03903,23.1381,8.39741,-5.72933,22.3571,8.03998
3.90842,0.241517,-23.9078,13.9417,1.59629,-24.4152,13.0853,0.984499,-23.877,13.5624,2.0996,-24.0278,14.9642,2.09125
2.70356,0.222918,-9.04206,30.1327,-2.24718,-8.31471,30.3612,-2.26936,-9.75707,30.3815,-2.2081,-9.19039,30.0134,-3.28132
3.35764,0.243362,1.12815,9.75876,-7.32372,1.00206,9.54819,-7.53064,1.63346,9.97955,-7.71211,1.93224,9.1791,-7.73475
3.43014,0.0286857,16.2701,24.0123,-6.2298,14.4607,23.4919,-6.44673,13.5877,23.0967,-6.48303,13.7053,23.0811,-6.4375
7.81257,0.440332,19.1037,3.9328,-2.00052,19.6731,3.12627,-1.06327,20.2974,3.80203,-2.47889,18.1295,3.29495,-1.91594
3.00476,1.12118,-1.8247,7.87531,7.86721,-3.1757,9.10298,7.47708,-3.44413,8.68832,7.37625,-3.18289,8.93135,7.4083
3.85821,0.273685,-19.6481,11.426,5.47871,-18.2365,10.97,6.48779,-18.6558,10.8664,6.2755,-19.5276,12.3526,5.85936
18.4604,1.03762,-16.4608,2.03166,-2.62019,-14.5866,1.65544,-2.85845,-14.4486,1.45324,-1.77091,-15.5885,0.776945,-0.704128
7.71384,0.321299,7.02015,19.1545,7.70375,7.13567,15.9609,8.68441,6.59067,19.6366,8.17966,7.76684,19.0134,7.7287
7.3644,0.902324,-10.1245,29.15,5.46279,-8.49513,28.7343,5.8469,-9.9951,27.8286,5.55051,-9.1425,28.4694,5.56309
0.425605,0.0611704,-2.78802,14.8924,-8.91135,-3.25059,15.1115,-8.82432,-2.99413,15.2286,-8.81396,-3.24135,15.3633,-8.7985
6.22913,0.980076,13.8078,23.3375,6.26081,14.5276,21.551,7.10256,15.4661,23.4093,6.58119,15.4703,23.5353,6.57283
5.12546,0.099932,-8.38241,22.351,7.76211,-8.99944,22.6257,7.7231,-7.72974,23.3368,7.92121,-7.38234,21.9378,8.09059
0.587409,0.0755448,21.3188,10.2476,4.50906,21.1486,10.8554,4.70059,21.2102,10.8532,4.62071,21.2903,10.7319,4.49813
3.95271,0.231878,-11.6805,1.741,-2.68807,-10.5601,1.63492,-3.30676,-11.4787,1.46865,-2.21499,-12.1452,1.50166,-2.87648
4.53885,0.269191,-24.0203,15.7019,-3.18511,-24.2541,15.7189,-2.63658,-24.2995,14.5062,-3.73959,-24.3061,16.596,-3.11668
5.08504,0.371314,-6.33351,4.57966,-5.44744,-5.59072,4.22452,-5.52686,-7.13994,3.65456,-5.91699,-6.26923,5.20336,-5.9561
0.749632,0.321932,-0.225734,18.6621,-8.78635,0.0364321,18.9243,-8.73954,0.0394994,19.0704,-8.85606,0.148814,18.7648,-8.74308
7.57863,0.319002,-1.86359,10.2244,-7.53905,-0.588871,7.83215,-7.92455,-2.52708,9.91706,-7.75346,-0.992977,10.746,-8.00914
6.6967,0.727782,-20.8782,26.9945,3.62011,-20.9318,25.8105,4.407,-20.2455,26.9258,4.14993,-19.975,28.051,4.05929
3.48456,0.104419,-23.7359,24.16,1.09544,-24.4223,23.7431,0.0433447,-23.8046,24.6546,0.844901,-24.4117,23.9706,-0.100512
31.9409,0.780716,-15.6851,27.2014,4.73394,-13.3794,28.4511,5.46663,-16.7642,26.8794,5.58203,-13.9442,27.2569,6.00634
4.83644,0.0730292,23.5614,19.4722,1.40275,23.5134,20.0413,1.33856,22.6722,21.1405,2.33795,23.6668,19.9637,1.15457
2.80053,0.558101,2.17822,14.5437,-7.30594,2.97916,13.8026,-7.98584,2.62274,13.3952,-8.07355,2.64891,13.6474,-7.80904
2.49918,0.142865,-12.0442,20.367,8.36401,-14.0225,20.4487,7.65419,-13.9927,20.6557,7.59947,-13.6828,20.7213,7.66277
1.70607,0.0478876,-17.9686,19.1479,7.30234,-18.3525,18.9176,6.92124,-18.3357,18.4541,6.49571,-18.4944,18.6393,6.57198
0.0462447,0.00760543,-24.562,2.93423,-2.61925,-24.5376,2.995,-2.81007,-24.5954,3.11172,-2.69385,-24.5809,3.13367,-2.80922
3.40558,0.543534,-5.97839,12.3481,-7.86691,-3.58918,12.502,-8.55318,-3.33962,12.4126,-8.52507,-3.72301,12.2282,-8.44866
48.1521,0.0838544,8.28218,4.49652,-4.99669,11.5183,5.59149,-5.37894,10.2466,6.69731,-6.16061,9.12747,6.37088,-6.0925
5.65269,0.446121,-16.3031,30.4927,0.0431701,-17.1082,30.9109,0.167432,-14.0067,31.2518,0.0479048,-16.2308,30.6247,-0.983717
4.18466,0.332937,-9.44638,23.3115,-6.26578,-9.18091,22.947,-6.53175,-10.3743,23.0509,-6.60614,-8.43747,24.1149,-6.68447
5.06282,1.37935,1.61218,5.34969,7.37358,1.55075,7.50528,6.93879,2.40184,7.32221,7.10562,2.04579,7.23584,6.94254
3.93158,0.262192,-23.3258,28.0096,2.64642,-23.4667,28.5483,3.36398,-23.48,27.2909,2.40039,-23.7729,28.9179,3.11529
2.71897,0.574008,12.9243,16.3519,7.31161,12.1274,16.4965,7.69086,12.2052,16.8411,7.6026,12.1778,16.5899,7.60394
0.807323,0.00313272,21.7826,24.1974,3.47021,21.9336,24.0347,3.27213,22.2843,24.3694,2.86258,22.3295,24.1783,2.78936
0.591814,0.0121702,-9.68972,15.3985,8.21735,-10.1486,14.9741,8.02209,-9.90083,14.8394,8.03996,-10.0115,15.2472,8.10911
6.25128,0.423563,-15.1017,8.78678,6.03511,-15.2257,7.83897,5.9469,-15.6663,9.28768,6.69933,-13.1299,8.81268,7.02381
3.61331,0.259232,-21.7807,2.33153,-1.28272,-22.6972,2.12203,-1.126,-20.8908,1.81369,-1.02379,-22.0816,2.48503,-2.25484
17.5922,0.423324,-15.0861,13.7041,6.91881,-15.0623,11.9938,6.99731,-12.6365,12.9132,7.50174,-15.8553,14.1539,7.35113
5.11695,0.301609,17.9342,28.67,-2.96312,17.3403,28.1366,-3.811,18.9436,29.2442,-2.60064,18.3509,27.9449,-3.36956
3.94478,0.270399,16.2372,6.44154,-4.19782,16.2681,6.94422,-4.58817,15.9566,5.40736,-4.32482,17.1952,6.07643,-4.15369
2.33163,0.0463054,16.9603,13.5692,7.12488,15.507,13.5404,6.99706,15.4958,13.184,6.89962,15.6195,13.1918,6.91605
4.69859,0.213261,-13.9411,1.52656,-1.73562,-13.7148,1.67934,-3.52687,-12.6426,1.34179,-2.82954,-13.5407,1.66276,-3.57996
1.15482,0.072637,-21.8053,21.7503,-4.927,-21.4252,21.6008,-5.30078,-22.3566,21.9663,-4.62221,-22.1238,21.6011,-5.00139
4.53384,0.195103,-24.3461,22.8479,-1.22479,-24.7504,21.6618,-1.05622,-24.6299,23.0395,-0.788162,-24.2772,22.662,-2.43376
1.1583,0.0612798,-11.4432,14.1345,7.76135,-11.223,14.8744,8.07611,-11.1709,14.6316,7.93202,-11.4596,14.8628,8.103
0.610423,0.0553857,-21.5746,30.4441,-1.20678,-22.0732,30.4549,-1.51544,-21.8805,30.4421,-1.5271,-22.1253,30.4396,-1.3232
9.78028,0.258828,8.77518,1.44808,-0.493688,8.88812,0.612237,0.424514,10.2554,1.6957,-0.708386,8.15922,1.10773,-0.741321
3.88622,0.255563,-12.3927,4.33597,-5.33929,-12.1781,3.07299,-5.60078,-12.8964,4.59404,-5.55481,-10.6248,4.61649,-5.75275
0.581486,0.133086,2.03948,3.73861,-5.86589,2.59284,4.06556,-5.69362,2.46539,4.0745,-5.79608,2.60558,3.92625,-5.6457
3.56545,0.221322,13.0724,30.6072,-0.464682,13.0524,30.5093,-1.41445,14.4102,30.8108,-0.0848127,12.5118,31.0026,-0.214898
2.74923,0.338477,-6.21719,3.07856,4.21362,-5.42061,3.7742,5.11322,-5.38912,2.50137,4.23566,-5.54646,3.77978,5.11572
1.17733,0.680411,-19.0303,10.7643,6.07307,-18.3379,10.3788,6.47251,-18.2933,9.96333,6.55218,-18.2897,10.0893,6.51014
12.7299,0.578099,12.2601,11.4179,-6.29508,12.8495,9.25403,-6.63385,14.4636,11.9742,-6.4593,11.6209,11.734,-7.03927
2.46031,1.40306,-6.80716,6.65166,-7.3771,-9.20386,5.86361,-6.3054,-9.19586,6.11549,-6.35092,-9.61453,6.03735,-6.43028
3.29484,0.172171,7.75705,22.5438,7.32911,8.0223,22.9128,7.33926,8.74912,21.7863,7.88786,7.25225,22.5601,7.51466
0.720892,0.0426192,-3.63258,19.4814,8.61482,-3.71557,18.6648,8.34335,-3.57734,18.8197,8.37173,-3.82971,18.7879,8.42466
33.0522,0.501583,4.18647,4.37671,5.27032,6.08953,4.39314,5.90258,2.07294,2.4533,4.18771,3.34817,2.55616,4.231
5.22216,0.0974281,-2.23307,17.5087,-8.15749,0.00308605,17.7798,-8.36048,-1.64778,17.3249,-8.11601,-2.66305,18.0297,-8.67398
4.2076,0.206098,-1.38319,3.2552,4.54101,-1.20952,2.305,4.26066,-0.0282685,2.97748,5.00059,-1.57683,3.38255,4.81197
8.5391,1.2695,-18.6615,16.7843,6.24953,-18.8949,14.2709,6.81184,-17.815,15.494,7.37733,-18.7596,14.2722,6.83804
17.6986,0.0407553,13.4667,16.2928,7.40854,14.7408,16.7526,7.24394,15.9998,16.7086,7.22213,14.9211,14.7187,7.64669
10.3748,0.196959,-17.7442,6.54008,-5.69996,-17.8216,4.48117,-6.01584,-18.7904,5.568,-5.90036,-16.732,6.75688,-5.93782
1.91041,0.00109505,3.46411,14.4399,-8.01912,3.36875,14.9543,-7.76726,3.95344,14.9819,-7.99727,3.74978,14.1377,-8.2599
4.34128,1.06911,22.5484,29.5259,-0.53098,21.449,29.2079,0.562327,21.6336,29.0249,0.685015,21.1939,29.4646,0.440915
1.66246,0.10006,3.24346,7.77428,-7.75903,3.17148,6.73873,-7.02834,3.36079,6.86504,-7.15463,3.40089,7.1361,-7.38246
1.26063,0.0119968,10.0443,3.14192,3.80727,9.47986,3.13036,3.96922,9.23381,2.8243,3.98732,9.25527,2.94962,4.00114
4.73906,0.313475,6.99647,21.2737,7.54335,7.33915,21.9281,7.66595,8.19526,20.2592,8.1086,6.19991,21.4635,7.85087
1.4706,0.141995,-7.02768,14.3511,8.08371,-6.00226,14.325,8.47266,-6.30887,14.5274,8.40882,-6.12421,14.4554,8.44952
4.75147,0.068809,21.638,16.3226,3.73818,20.9365,16.8513,4.40741,20.6681,15.7891,4.82048,20.7533,15.6601,4.76065
8.55574,0.122339,-21.9866,12.6852,-5.04978,-22.7188,11.8777,-4.69216,-22.4591,11.8739,-4.75045,-21.5357,15.2457,-6.31489
0.19164,0.0212408,-14.5818,9.39597,-7.45228,-14.9056,9.21464,-7.35416,-14.7232,9.01916,-7.35299,-14.9017,9.34058,-7.38432
2.29125,0.137015,-24.4342,6.7737,1.22305,-24.7288,7.03614,0.130864,-24.7371,7.35499,0.153512,-24.6181,6.809,0.382178
2.60229,0.165977,-10.8367,13.6113,7.44741,-10.2813,14.8163,7.96263,-10.027,14.8442,7.99175,-9.98149,14.398,7.88651
4.77841,0.326325,-8.97827,31.0447,-0.417998,-9.6866,31.5175,-0.198634,-6.9292,31.7949,-0.112449,-8.8635,31.0366,-1.0501
5.72943,0.313635,13.4284,19.0678,6.88939,14.8331,19.6408,7.28177,12.7472,19.8163,7.43449,13.4554,18.4365,7.05477
10.1522,0.165962,-17.0636,8.28138,-6.31224,-14.8068,8.32865,-7.14568,-16.4653,7.37795,-6.34868,-15.7879,9.11937,-7.14413
13.2355,0.101585,-1.7258,26.0723,-6.12646,0.0797214,26.1773,-6.3234,-0.505285,27.2252,-5.81479,-1.60748,27.6724,-5.43387
4.11122,0.156469,10.807,3.13815,4.16411,11.631,4.28561,5.73282,12.0022,2.40008,4.18607,11.8885,4.35581,5.896
3.5533,0.480705,-15.4968,22.4157,-6.04483,-13.748,22.1717,-6.68965,-14.3073,22.6748,-6.58857,-14.3133,22.0438,-6.66246
10.5831,0.231628,18.5057,14.5998,5.77399,20.1523,13.5498,5.56566,18.2478,14.9045,6.09262,19.3466,15.7092,5.91071
5.29759,0.0947777,-14.1717,12.2172,7.00816,-15.201,11.6204,7.01731,-15.1865,11.1156,7.05591,-13.2991,11.8062,7.24414
8.85292,0.122209,0.574842,25.9354,-6.37001,0.7597,27.3156,-5.90183,2.45473,26.2596,-6.97007,2.75849,25.7233,-7.26502
6.63881,0.478747,-6.75538,18.3858,7.77112,-7.81555,18.4733,8.18727,-6.1397,17.7339,8.22719,-6.06078,19.8745,8.46585
2.22772,0.19003,11.9664,29.8312,4.04062,11.7681,30.2179,4.02878,12.249,29.9798,4.24972,11.7875,29.9985,4.13582
6.39681,0.237535,13.7296,29.7456,2.9737,12.8178,30.3734,3.42745,14.1251,29.6474,3.96686,13.7728,30.0744,2.5029
2.14064,0.129464,13.8929,17.9169,6.90459,14.2678,17.7777,6.9916,13.7941,17.1893,7.17122,13.5253,18.3143,7.04163
5.22956,0.172271,-3.3845,31.4318,1.41576,-1.86242,31.8866,1.01768,-3.63651,31.595,1.0998,-2.7199,31.5608,3.11125
1.05414,0.455732,22.7765,8.6585,-2.24634,22.7435,8.15206,-2.14869,22.6424,7.93955,-2.41713,22.8773,8.27346,-2.02085
15.7985,0.141427,-13.5306,12.0664,-6.52828,-12.3936,12.4046,-6.67507,-13.6182,10.0522,-7.51871,-12.6909,11.1545,-7.16523
14.2337,0.584528,-4.52085,4.4112,5.0309,-3.88401,4.31647,5.53028,-4.29853,0.7912,3.12566,-5.55462,4.39983,6.02823
3.1524,0.712308,-24.8322,10.4438,0.350093,-24.2602,12.1889,1.09729,-24.2217,12.1876,1.22264,-24.3596,12.4445,0.973164
3.31926,0.249014,-0.635858,28.2582,5.27472,0.278163,28.4535,5.40859,-0.816727,28.8302,5.55118,-0.752594,27.6845,5.53881
5.71729,1.17408,19.1009,19.8783,5.16454,17.6463,20.2086,5.81847,17.5508,20.385,5.85263,18.349,19.529,6.02919
6.46122,0.296312,-1.3621,4.20293,5.59765,-1.27322,3.57882,5.36607,-1.20892,4.53361,6.4874,0.720157,3.93991,6.39157
3.89738,0.262258,-1.59168,15.1881,-8.21918,-1.85418,14.5868,-8.78774,-0.693256,15.7786,-8.13036,-1.95193,15.3183,-8.50655
13.7776,0.0203878,18.0906,23.6113,-5.99404,16.2003,21.9968,-6.31063,15.3413,22.6774,-6.32028,18.8214,22.732,-5.99574
0.513109,0.0482592,-21.0849,30.173,3.27181,-21.1046,30.1607,2.4394,-21.0407,30.1872,2.43831,-20.8614,30.2357,2.87734
3.72824,0.193344,8.10236,4.55205,5.81992,9.13389,4.79826,6.43663,9.24909,4.55851,5.91959,9.76027,4.60041,6.28705
10.7727,0.223525,-23.7736,26.8829,1.26122,-23.7514,24.9049,1.09616,-23.5672,23.8899,1.97447,-23.4852,24.8956,1.97365
3.03934,0.0540556,-23.8147,7.38245,3.43641,-24.2816,8.02914,2.14302,-24.0334,8.33803,2.41365,-24.2582,8.1544,2.11599
9.21581,0.335245,13.2356,3.00868,-0.919222,15.7533,3.11426,-1.37052,12.3161,2.62816,-1.43687,14.2479,2.63004,0.04166
5.15199,0.289907,-1.48345,31.429,1.97188,-0.449434,31.6566,2.96213,-0.850801,32.0635,0.827055,-2.31756,31.654,1.78297
3.3258,0.484222,-23.7529,3.40026,0.0410884,-23.2031,2.44409,0.0647627,-23.2603,2.46098,-0.0766773,-23.4879,2.31586,-0.650347
4.23904,0.430568,20.0361,27.1239,-3.7737,21.2073,25.2937,-4.6691,21.2719,25.5088,-4.52618,21.1365,25.3233,-4.68882
0.950523,0.0875957,16.2631,28.2183,4.61605,16.2559,29.1813,4.1624,15.991,28.8141,4.39991,16.1301,29.1857,4.17202
59.4952,0.477802,-23.6162,21.6222,1.21782,-24.5582,20.8986,-0.429196,-23.7378,19.231,3.61285,-23.5459,21.8043,3.53166
18.9153,0.485436,10.1967,22.7944,6.73314,9.60886,23.4449,7.37495,12.5325,22.2812,6.92415,10.7463,21.6423,7.00956
5.64164,0.293907,-12.2024,30.7267,3.32922,-11.5568,30.9328,3.78555,-12.0696,31.4843,2.1981,-13.0168,30.8954,3.50545
22.1364,1.62434,-18.0086,3.96436,2.43458,-23.2379,4.88711,2.36537,-23.205,4.53329,1.88752,-22.4203,4.49903,1.62583
10.445,0.249928,-3.30449,17.7003,7.98268,-1.62139,20.4759,8.75345,-3.90366,17.908,8.13537,-2.25002,17.0938,8.40189
8.26951,0.569534,15.3156,2.68307,0.729029,17.2714,1.88763,1.36243,17.4608,1.94315,1.2678,15.6943,2.77302,-0.779701
1.32455,0.0220946,-17.0646,19.3762,7.54422,-17.1795,19.7584,7.42267,-17.7017,20.0288,7.0777,-17.6307,20.1524,7.11489
3.57217,0.371427,2.71368,30.7754,-1.88231,1.8507,31.1064,-2.24511,3.9921,31.1603,-1.65234,2.69144,30.8317,-3.2681
1.399,0.0515418,-0.0553353,30.7921,-2.3259,-0.193085,31.0217,-2.04959,-0.826192,30.8735,-2.45861,-1.071,30.9608,-2.35604
0.138192,0.0347806,22.8411,3.22493,-0.617704,22.6629,3.27461,-0.904374,22.6579,3.14582,-0.70423,22.7386,3.32564,-0.862146
4.55559,0.177529,-5.35513,18.589,8.12011,-6.07012,18.7401,8.15912,-4.48559,18.0544,8.43713,-4.67766,19.7001,8.58895
4.56035,0.335178,-0.123959,4.09109,-6.07215,-0.773548,5.19099,-5.99793,-0.515528,5.43413,-6.15038,-0.135527,5.54694,-6.27786
2.44592,0.714895,18.3919,29.4769,3.1362,17.6322,29.5152,2.27056,17.0132,29.814,2.15231,17.7477,29.5581,2.18734
1.46336,0.00576524,-4.41838,1.06462,-4.28288,-4.03989,1.18584,-4.51401,-4.54385,0.698898,-3.51569,-5.17499,1.10774,-4.37124
19.8021,0.54533,-10.1339,12.1955,-7.40052,-8.94952,13.802,-8.15155,-7.36993,12.4933,-8.04483,-7.72084,13.5005,-8.48397
8.02523,0.235228,-18.9028,23.8587,-4.94579,-17.0353,23.2835,-5.81126,-19.1649,23.3579,-5.15086,-18.0287,25.1254,-5.36299
0.314731,0.00643531,24.3486,27.4294,-1.63166,24.2423,28.0293,-1.50454,24.2321,28.0202,-1.62927,24.3471,27.5217,-1.51671
7.43978,0.364823,12.8017,23.0219,6.41934,12.7236,20.2271,7.53383,12.4684,24.0219,6.79079,13.4424,23.3112,6.4289
13.1099,0.397263,-0.698377,5.58533,-6.21079,0.503237,5.90286,-6.51519,-1.81957,7.69759,-7.92487,-1.70159,6.42414,-7.29888
7.32919,2.79463,10.5466,16.2444,8.25388,10.2876,19.1775,7.33608,10.9119,19.0296,7.27846,9.95853,19.5456,7.71927
5.09856,0.22401,-14.1926,1.40079,-0.96937,-12.4342,0.842865,-0.72732,-14.266,0.948735,-0.652151,-13.9395,1.50919,-1.60964
23.4651,0.406073,-8.09989,16.4155,-7.51236,-11.0388,13.9205,-8.01503,-9.21487,14.0768,-8.0573,-8.05651,17.7942,-7.8205
2.55544,0.373497,22.8622,14.4714,2.56635,23.2401,11.7576,1.97323,23.1524,11.9201,2.15172,23.602,13.1652,1.77519
2.72304,0.178149,-17.9881,30.4235,2.6758,-17.1482,30.1678,2.84322,-18.3714,30.6841,3.02214,-18.0477,30.8352,2.2143
4.06349,0.317804,2.63063,20.9455,-7.9614,2.41648,20.3929,-8.61526,3.76654,20.7252,-8.1424,2.4625,21.7832,-7.98494
4.74701,0.0390528,21.746,18.0202,3.06713,21.902,16.0695,3.38568,22.2427,18.0035,2.53932,21.9917,16.3733,3.20948
6.98189,0.506659,10.7428,21.402,-7.1502,12.3686,21.122,-7.3579,10.576,20.6789,-7.79279,11.0717,23.6889,-7.33116
8.65828,0.358727,-11.5477,1.49673,-1.51492,-10.6685,0.904961,-0.541699,-10.4136,0.331795,0.470466,-10.4265,1.30713,-2.22044
2.74315,0.938563,-23.9579,14.6369,2.66875,-23.6727,12.6727,2.85161,-23.7413,12.846,2.39483,-23.6971,12.7996,2.60007
36.4845,0.645433,-10.6684,8.29068,6.06586,-10.1985,10.185,7.5209,-12.3072,8.11529,6.4397,-9.00955,8.36147,7.04521
2.90346,0.484784,-6.23215,12.1947,-7.70477,-6.01779,11.2997,-8.02645,-7.08665,12.2196,-7.94705,-7.07499,12.6527,-8.09315
6.0704,0.374273,-22.3226,8.53658,-4.71687,-21.4919,8.43602,-5.2904,-23.1337,8.66988,-4.91485,-22.7599,7.34561,-5.02011
29.726,1.47934,16.7657,6.97396,5.55765,13.4552,8.35034,6.24401,14.0283,9.80151,6.90992,13.7764,7.07835,6.00348
3.99451,0.155847,-15.4679,29.9364,-1.56566,-14.2565,30.0607,-1.7802,-15.1744,30.7002,-0.724315,-15.7329,29.9484,-1.80396
9.88144,0.115725,0.265547,20.5812,8.28519,2.70565,21.7963,8.39103,0.938657,21.8994,8.09042,1.85327,20.6369,8.63082
0.305825,0.162659,-19.1176,30.2976,-1.87983,-18.9391,30.0897,-2.44366,-19.1353,30.0507,-2.39986,-18.8816,30.1605,-2.3906
6.11134,0.353549,-5.46692,27.9704,-4.0641,-4.18522,29.3908,-4.25067,-5.51215,27.5838,-4.4145,-6.20871,27.8649,-4.55824
5.99964,0.378818,-5.4986,22.1459,-7.20563,-4.4202,22.4011,-7.37075,-5.43375,20.8986,-8.21872,-6.26142,22.6552,-7.47981
0.805882,0.13142,-11.9313,1.10534,2.19827,-13.1039,1.81181,2.30634,-12.875,1.44896,2.20763,-13.2161,1.70801,2.22044
9.94027,0.415645,-19.1622,19.9537,-5.41309,-17.3192,19.0068,-6.29093,-18.1589,21.3055,-5.99152,-18.7361,21.3139,-5.86447
8.58326,1.70948,5.43785,6.44547,-6.63447,2.17028,6.21431,-6.13155,1.78403,6.36244,-6.2984,1.68672,6.36584,-6.33903
4.09747,0.235692,12.3358,28.7275,4.4336,13.7276,28.7653,4.62932,12.1566,29.2741,4.56262,12.1919,28.021,4.82965
3.01844,0.184483,-24.6589,9.61811,0.157624,-24.767,10.224,0.474841,-24.5513,9.17324,0.948882,-25.0225,8.81147,-0.403698
2.2639,0.246949,2.99926,8.94388,7.58065,4.44717,8.75938,7.82401,4.26409,8.92303,7.90524,4.12799,8.67605,7.76487
6.39623,0.300628,1.03117,1.04979,-1.98521,1.16933,0.862881,-1.61894,0.150242,0.466813,-2.48615,3.04688,0.861032,-2.41043
1.82094,0.167861,8.35943,17.7319,8.12187,8.37724,16.3979,8.53068,8.57799,16.5896,8.47988,8.57399,16.4636,8.50279
8.4916,0.218911,-7.27687,31.3896,2.45097,-6.24912,31.6899,2.93731,-6.39747,32.0658,0.924317,-8.53835,31.4267,2.34698
2.55346,0.176888,-22.0329,3.85486,-4.17501,-22.7304,3.81335,-4.35571,-22.1091,3.31827,-3.70606,-21.5997,3.92177,-4.62502
9.04366,0.38989,-20.2361,27.4217,-2.92134,-19.0552,29.0665,-3.06958,-21.019,27.3362,-3.25552,-18.052,27.8115,-3.481
4.39699,0.255283,16.3541,20.8568,6.16045,15.9161,20.6301,6.83601,16.61,21.3932,6.12738,17.5026,20.3216,5.92208
0.246722,0.375297,-4.34011,11.4698,8.27312,-3.9638,11.4867,8.34746,-3.96725,11.3594,8.40473,-3.97353,11.2257,8.47145
2.88458,0.413786,5.51951,1.27052,0.319113,6.02794,1.06859,-2.14982,6.59062,1.01355,-1.96807,5.83771,1.04878,-1.8289
3.4198,0.413544,17.854,16.8634,-5.1053,17.2534,16.1605,-5.79941,17.0845,15.8152,-5.87635,17.2484,15.6564,-5.8216
7.5121,0.41021,15.1593,17.4944,-6.37729,15.8676,18.7305,-6.83848,17.2923,18.2063,-6.13536,15.638,18.4034,-6.85354
6.58122,0.619955,4.34422,15.6027,-8.14299,6.73098,15.5194,-7.94993,5.68117,16.3464,-8.17593,6.74344,15.4042,-7.96783
6.13474,0.203018,-12.8327,21.3776,7.59185,-13.4525,21.6371,7.54367,-12.4205,22.2398,7.80926,-11.394,20.3661,8.49984
9.31869,0.367561,0.0546427,28.2375,-4.46412,2.77376,28.206,-5.4785,-0.243557,27.8264,-4.983,0.512176,30.2354,-4.11602
0.501583,0.0435069,17.6504,26.758,-4.79423,17.8977,26.5612,-4.88937,17.7938,26.404,-5.20963,17.8982,26.3906,-5.1714
1.9641,0.0827246,-4.34028,16.2544,-8.52272,-3.36611,15.3564,-8.78339,-3.56883,15.3097,-8.77532,-3.37167,15.2418,-8.79714
3.38594,0.139662,-6.40643,18.0004,-7.83094,-5.92832,18.546,-8.08693,-5.71447,17.6682,-8.22946,-7.04883,17.7657,-7.79032
3.30755,0.0576598,-12.6586,13.1288,-7.34492,-12.139,13.0152,-7.48013,-12.2939,13.8934,-7.95901,-11.8655,13.64,-7.91953
5.69938,0.123064,18.0445,16.8894,-5.01614,19.8589,17.5825,-4.60145,18.322,15.9268,-5.3723,18.926,15.5083,-5.37882
4.83365,0.296579,9.97706,28.196,-4.71093,10.4102,28.629,-4.54134,9.96635,27.4915,-6.02272,9.20834,28.5449,-4.9816
3.00142,0.168973,15.2138,22.796,-6.31976,13.9125,22.2028,-6.45529,15.105,23.1698,-6.39501,13.7999,22.1987,-6.51584
3.30777,0.222341,-24.0778,9.86789,-3.24334,-24.2502,8.72423,-3.50895,-24.2828,10.5385,-3.31399,-24.4622,9.80052,-2.64031
6.24128,0.31275,-13.6132,4.30828,4.25541,-12.9311,4.95373,5.29405,-14.8082,5.43633,6.00419,-12.6725,5.14916,5.89655
8.3632,0.0953465,-6.08581,20.2536,-8.1643,-5.86851,18.607,-8.12859,-7.03686,18.1435,-7.86042,-6.84074,20.2799,-8.12299
2.43,0.119548,-2.78489,5.95012,-7.16109,-4.79421,5.95006,-6.69081,-4.79345,6.01307,-6.773,-2.1811,6.05136,-7.17806
5.93302,0.407603,8.64004,27.43,4.79776,8.83371,29.1883,5.151,9.60367,27.3287,5.11315,7.95648,27.4015,5.27653
2.92955,0.229056,14.0637,2.468,0.740013,14.1271,2.55947,0.174393,14.8868,2.45391,0.873207,13.9373,1.81741,1.23692
3.95673,0.273297,-20.795,17.8674,-5.31537,-20.5939,18.743,-5.55032,-21.4032,17.3806,-5.46549,-19.8671,17.4568,-5.99323
3.86929,0.294185,7.25427,30.6876,2.77303,7.96989,30.7705,3.06676,7.45015,30.9551,2.0757,6.42807,31.2394,2.96792
0.0814048,0.0282853,24.9425,16.7746,-0.892399,24.9994,16.6847,-0.693937,25.0277,16.8995,-0.643782,25.0206,16.7718,-0.620623
5.09343,0.170887,-3.67824,27.1037,6.46759,-2.25954,26.7384,6.70777,-4.27902,27.051,6.73445,-3.75601,28.0401,6.21947
8.28046,0.141974,-11.686,24.4836,-5.15663,-12.5705,24.7704,-5.24216,-11.5892,23.3158,-6.12447,-12.236,23.6016,-6.00767
2.6204,0.0581345,0.212962,2.74359,4.84065,0.361757,3.15134,5.32498,1.14414,3.36577,5.80934,0.893523,3.47716,5.8076
4.94797,0.211584,-24.1769,15.0858,-2.43093,-24.2954,15.5942,-2.42856,-24.5965,14.7222,-1.66772,-24.4979,13.7101,-3.43432
0.509702,0.213167,11.0219,14.728,8.15633,10.2607,14.4946,7.93844,10.6352,14.4181,7.87416,10.5096,14.4329,7.87128
8.94581,1.08051,1.53784,18.2312,-8.57055,2.37646,16.8061,-7.69891,4.01405,17.1272,-8.43621,3.25813,16.9866,-8.1175
0.670108,0.0981341,-17.8775,1.92204,1.68543,-18.5705,2.34769,1.68365,-18.7779,2.16349,1.62178,-18.7729,2.28939,1.65912
0.675773,0.0489944,16.0559,11.2854,6.8379,15.532,11.0599,6.86956,15.7948,11.0423,6.80964,15.5426,11.3114,6.90313
2.51198,0.0911948,-16.0179,3.50479,2.27832,-16.0516,3.79202,2.84899,-15.859,3.88861,3.15318,-16.9599,3.6149,2.24968
6.31036,0.258603,-15.07,7.5754,-6.27251,-14.7111,6.68655,-6.21742,-13.502,8.07747,-7.2248,-15.6857,7.3255,-6.28544
5.26527,0.339524,-19.6605,13.0369,-5.67475,-18.6551,12.3714,-6.13535,-19.6366,13.9415,-6.11694,-20.0792,12.1683,-5.85847
5.29962,0.220734,19.3048,18.5628,-4.88209,21.5154,19.6051,-4.04432,21.2283,19.6477,-4.26529,21.133,19.7482,-4.41346
9.14075,0.621888,16.0714,10.9066,-5.64214,17.8193,10.2152,-5.57493,16.9071,9.49788,-5.96083,15.6473,9.78421,-6.49583
4.39832,1.55851,-3.96182,31.7104,-0.939509,-6.98261,31.0974,-1.08558,-6.53282,30.9236,-1.15844,-6.48427,30.8342,-1.5958
4.24375,0.210414,17.4805,27.2706,4.3317,20.2863,26.9715,4.17533,17.7316,27.9951,4.39464,20.3301,26.8835,4.18274
21.9496,0.11943,13.9324,7.32506,-5.75515,13.8961,5.92867,-4.8477,11.0482,7.26861,-6.23379,12.3224,8.64205,-6.71052
19.1799,0.489409,-22.5666,22.8463,-3.9668,-23.5974,22.378,-4.29112,-21.1107,22.4486,-4.79729,-21.6868,25.7154,-4.43238
1.56555,0.36779,-2.85129,15.446,8.7205,-3.57534,15.1228,8.6579,-3.3291,14.9702,8.62229,-3.33227,14.8622,8.65645
15.3899,0.409244,4.85144,11.8909,-7.7786,6.69053,10.7299,-7.59245,5.48322,9.84173,-7.55029,6.59837,11.3635,-7.77884
2.15137,0.0433377,-0.435871,12.3656,-8.22861,0.129755,13.0463,-8.71164,-0.172201,12.8952,-8.63042,-0.676486,12.9965,-8.74182
3.73089,0.200511,-15.3495,4.71779,5.09593,-16.0299,4.17299,3.83654,-16.036,3.99475,3.33691,-15.9053,3.92317,3.20355
3.17404,0.369143,10.3955,21.2417,7.23348,11.7393,20.9608,7.47183,9.88795,21.1127,7.69013,9.96358,21.0471,7.68877
3.3996,0.323879,10.261,10.9834,-6.68241,10.2858,11.6031,-7.06207,9.87807,10.2495,-7.06114,11.377,10.4401,-6.67779
1.70027,1.3863,10.2432,21.6919,-7.47063,8.87677,22.2526,-7.39459,8.87246,22.1267,-7.39003,8.88082,22.3785,-7.41451
5.17358,0.344972,-2.38107,31.0216,4.05226,-1.99034,31.3844,3.53835,-1.18474,31.258,4.97681,-3.17408,31.4174,3.79241
14.9488,0.881759,-10.4277,25.9202,6.25937,-10.2473,27.8374,5.53143,-8.13881,25.5994,7.99488,-11.7636,26.2785,7.09513
1.52476,0.20822,-8.03199,0.889537,-1.46103,-6.53351,0.553326,-1.62889,-6.40864,0.574652,-1.74158,-6.86538,0.558625,-1.52642
2.80178,0.55377,-1.23113,24.6537,8.30583,-0.837733,25.4433,7.59206,-0.804493,25.6659,6.99729,-1.00062,25.5499,7.42055
46.1773,0.859828,21.4556,17.6086,-2.77297,23.8314,16.3604,-1.94202,23.8148,16.5618,-1.92879,24.2061,20.0783,-1.68256
2.02316,0.134761,-15.9584,25.2632,-5.86467,-16.2872,24.1399,-5.76687,-16.479,24.777,-5.82071,-16.9692,25.0481,-5.75654
17.3544,0.455327,-5.1659,17.7065,-8.07561,-3.41988,18.8403,-8.77454,-4.62745,18.9419,-8.67897,-4.1446,16.3346,-8.51215
12.7472,0.130464,-20.2689,8.39945,4.5914,-18.3649,8.48693,5.66037,-21.7228,8.75453,4.90965,-18.397,8.1883,5.16259
8.98393,0.342543,-9.31316,10.1582,-7.05729,-9.2873,11.6661,-7.53469,-9.66562,9.59208,-7.28293,-6.84201,9.31128,-7.92398
5.19236,0.27978,9.09327,1.56843,3.03874,8.38552,1.56573,3.45901,10.1995,0.87796,2.78047,9.51019,2.28497,3.81793
2.46409,0.435863,1.59191,12.2874,-8.13581,2.13111,13.5421,-7.88817,1.64163,13.4277,-7.97123,1.74967,13.4239,-7.94501
4.82661,0.318485,-15.5321,16.6972,6.78898,-14.7947,16.6353,6.92145,-16.5393,16.2131,7.37793,-15.9977,17.5738,7.25764
5.60297,0.320507,-17.0045,10.9269,6.22391,-17.1097,11.4349,6.40434,-14.9831,10.4804,7.14784,-17.9029,10.3279,6.51612
7.87658,0.508336,5.09413,7.89097,6.91663,4.50016,7.05746,7.33122,6.98283,7.69382,7.13149,4.99309,8.65207,7.63701
2.77511,0.376625,-15.8771,17.3233,-6.64915,-14.3974,17.3919,-7.31583,-14.2947,16.925,-7.4443,-14.1982,17.0777,-7.4277
5.98644,0.265265,-7.99427,26.3985,6.74071,-6.48853,25.9281,7.96966,-7.48393,27.1161,6.50863,-8.58344,26.573,6.8069
5.39307,0.389553,-23.6331,16.3204,2.47928,-23.7096,16.2042,3.98858,-23.9801,14.9528,2.22826,-24.0853,17.5426,2.67089
4.43821,0.503275,-23.4579,24.6971,2.72917,-23.6031,26.478,3.42367,-23.5555,26.5371,2.73199,-23.5994,26.4125,3.61481
7.06542,0.40288,-5.09933,31.1193,2.85984,-5.01032,31.3925,2.26293,-2.71922,31.509,3.25368,-5.92546,31.6594,3.2407
1.33722,0.00212717,-16.4458,27.3985,-3.64495,-15.5546,27.0654,-4.38558,-15.6074,27.2681,-4.21666,-15.4769,27.3897,-4.20928
1.76242,0.126854,20.4636,19.4525,4.61908,19.3414,19.7388,5.12251,19.4064,19.9428,5.0873,19.9145,19.5442,4.93708
10.2808,0.117722,-24.5038,4.88497,-0.289118,-24.7889,5.77747,-0.122193,-24.6569,3.31617,-1.61276,-24.3936,2.74443,-1.17828
0.915105,0.145235,-7.26838,27.8595,-4.44443,-7.46081,28.7981,-4.28368,-7.24568,28.4891,-4.40308,-7.67788,28.7761,-4.26754
2.13263,0.0413753,-13.516,16.6225,7.08608,-11.9849,16.7578,7.61696,-13.6409,16.7312,6.99572,-11.9841,16.4316,7.61521
1.56796,0.116703,-24.8305,7.67007,-0.515435,-24.7666,7.41569,-0.0309533,-24.982,7.29713,-0.763095,-24.97,8.34499,-0.278877
4.51031,0.125362,17.6222,15.1902,6.34469,18.5583,16.8714,6.45609,17.2054,15.5318,6.80296,18.2502,14.9426,6.09232
74.8744,1.4064,-6.77501,10.4157,8.1431,-10.3602,6.15615,6.31843,-7.99366,5.19097,6.57241,-8.10422,5.82694,6.56314
0.57852,0.0497691,22.4674,2.6097,1.41049,21.5004,2.40369,0.608112,22.0083,2.50709,0.599316,21.6733,2.44209,0.54211
3.99347,0.277808,-2.21285,28.3833,5.57284,-2.30949,27.2069,6.43607,-2.61104,28.8315,5.81612,-1.5277,28.2894,5.71532
15.3806,0.709944,-0.687853,8.20707,7.06685,-1.21959,7.22553,7.79318,1.55487,7.59722,6.99048,-0.791251,9.26619,8.07503
2.58179,0.0614346,18.8866,21.0205,5.04807,18.3756,20.6601,5.39349,19.8732,20.4817,4.86062,19.0206,21.268,5.00739
2.29703,1.23931,-20.9345,20.8982,5.55689,-19.6744,21.0057,6.47729,-19.6676,21.2322,6.41334,-19.6774,20.8662,6.58359
2.95583,0.428775,9.21848,24.6361,7.40431,8.02682,23.0387,7.34636,8.03147,23.1646,7.3605,8.23637,22.9053,7.39328
19.3092,0.618279,-18.9894,27.2514,3.95,-17.0529,28.0834,5.21893,-19.845,28.1403,4.10134,-20.0239,26.4902,4.37864
3.21309,0.234467,-2.20411,21.7935,-7.77958,-1.20067,21.5959,-8.06325,-2.42316,21.4708,-8.04974,-1.94014,23.2607,-7.84443
3.49639,0.391236,-18.3147,14.1996,6.97473,-19.4823,12.396,5.89763,-19.3548,12.2753,5.92766,-19.4688,12.646,6.01849
3.98278,0.238425,-8.61869,3.26919,3.50752,-9.29183,3.12595,3.56707,-8.25908,3.87675,4.78217,-8.01158,2.70457,3.29797
2.65516,0.0267868,-7.01189,25.329,8.08093,-6.92703,24.4435,8.03365,-7.83213,23.5925,7.90793,-7.8366,23.4666,7.90326
8.49671,0.268343,8.93424,15.2533,-8.15927,6.84346,15.8937,-7.95918,7.28941,16.8867,-8.13501,6.86574,15.3999,-7.93234
6.47354,0.463756,6.99121,20.7438,-7.57036,6.26449,20.957,-8.10451,7.12627,19.7813,-8.41409,8.3331,21.263,-7.6653
0.529051,0.0896904,-24.4801,4.17633,0.0526707,-23.9434,3.57644,0.0783654,-23.966,3.56352,-0.00439114,-24.2483,3.90447,0.209903
5.69524,0.381981,-23.9896,27.5608,0.481773,-23.9525,28.8203,1.48011,-24.0578,26.7488,0.542658,-23.8564,27.8083,1.07441
4.87704,0.207605,-17.5256,26.3764,-3.96863,-17.2399,26.9192,-3.67664,-17.8011,26.0642,-4.67779,-15.6996,26.3182,-5.14626
3.54893,0.152126,21.9825,18.8623,-2.8558,23.866,20.4684,-2.09078,23.3531,20.1358,-2.50088,22.9934,19.6163,-2.47632
8.70788,0.333676,-9.68602,21.0834,7.85461,-7.66894,20.8525,8.2902,-10.559,20.6682,8.43306,-9.65458,22.0172,7.78765
3.61252,0.273124,-1.39099,31.4781,-0.422166,-1.28602,31.4382,-1.18204,-0.616393,31.9427,0.0503884,-2.23931,31.7581,-0.56673
6.61299,0.204564,-0.349388,1.7721,3.46416,0.636681,1.23637,3.70838,-0.829301,1.73699,3.51031,0.336781,2.6317,4.82117
6.49502,0.133283,19.56,2.92028,-0.290538,20.6872,2.16977,1.44128,19.6682,3.06443,-0.934764,18.9342,2.58928,-0.0401147
22.8731,0.198529,-16.8345,11.2992,-6.44908,-17.2874,12.9445,-6.54809,-17.239,14.8312,-7.16753,-14.823,11.4811,-7.1574
5.64884,0.345247,-13.4572,18.1155,7.23713,-11.6709,18.3053,8.05932,-11.666,18.4312,8.08852,-13.6778,18.7896,7.69862
3.78254,0.223616,-20.322,22.7679,-4.68222,-20.4093,23.6111,-4.70934,-20.7114,22.2772,-4.90023,-19.2366,22.5154,-5.34118
1.55294,0.411574,8.55539,1.65569,-2.04683,9.14421,1.69045,-1.50813,9.01603,1.53187,-1.25659,9.68588,1.74033,-1.69718
10.989,0.0336387,-19.895,26.8812,-3.46543,-22.0647,26.3402,-3.47667,-19.6412,25.904,-4.78225,-18.7548,26.6982,-4.10666
5.92004,0.230745,-10.008,15.9778,-7.5939,-9.11426,16.3249,-7.65217,-10.8472,16.7636,-8.1288,-10.4209,15.1097,-7.83624
8.24137,0.214112,1.78502,17.205,8.17794,2.89878,16.2836,8.81155,2.92456,19.4346,8.63419,2.5128,16.1724,8.69531
3.09385,0.117199,-11.1687,5.24014,-5.75089,-11.4817,5.05642,-5.73245,-11.085,6.31188,-6.48842,-10.4872,5.00752,-5.87318
5.15504,0.155923,-12.3654,5.09241,-5.58944,-12.8553,4.73035,-5.5669,-11.8079,5.02814,-5.72893,-12.3434,6.61208,-6.62678
4.80861,0.260425,-2.47945,11.566,-7.60553,-1.88177,10.5148,-7.82612,-1.32312,12.2121,-8.18405,-2.96217,11.3191,-7.7469
1.55699,0.741144,16.7195,9.383,5.57857,19.2135,9.41002,5.57268,19.2576,9.52561,5.58798,19.1286,9.67327,5.66816
1.59094,0.0208333,0.654899,2.25144,-5.15602,-0.245978,1.53687,-4.58406,-0.0550201,2.00423,-5.01531,-0.468164,1.60256,-4.66857
5.25418,0.338141,2.35747,3.61398,5.11548,2.69202,4.27143,6.55122,3.64907,3.46838,5.19621,1.833,3.20881,5.2577
3.21436,0.455234,0.0921224,17.7137,-8.33085,0.600167,17.0064,-8.06966,1.14934,18.2156,-8.57953,0.481069,16.8723,-8.05771
6.23212,0.268103,-5.1243,9.44042,-7.29978,-4.43591,9.35334,-7.41954,-5.7924,10.3249,-7.61227,-5.23759,8.24664,-7.78961
1.42753,0.528291,3.70931,30.5766,4.98283,3.96196,31.0964,4.14512,3.70757,31.1593,4.01577,3.83793,31.1296,4.02119
1.29642,0.511625,23.0162,14.7616,2.39561,22.754,15.9685,2.47185,22.9751,15.9971,2.29148,22.8313,15.9552,2.39783
1.08478,0.153888,-23.9952,8.90167,2.49668,-24.2399,9.23739,2.44577,-24.1546,9.16348,2.73991,-24.0197,8.33756,2.5706
0.0443582,0.0175744,23.3907,9.01368,0.520694,23.3234,8.88827,0.769291,23.351,8.99761,0.642855,23.3453,8.8855,0.640177
3.82905,0.0655048,9.99998,13.6401,7.23103,10.3776,14.3678,7.79475,11.2459,13.931,7.71644,9.99005,14.167,7.53576
2.84623,0.492956,-11.344,22.3928,-6.49469,-10.2244,20.768,-7.74305,-10.0905,20.8977,-7.7114,-10.0825,21.0176,-7.66874
6.32306,0.351857,-9.64318,22.5211,7.43326,-9.8082,24.6239,8.21964,-10.5228,22.4257,7.92096,-9.0193,22.4993,7.69027
16.9141,0.336252,18.544,11.5767,-4.85364,18.0969,10.7038,-5.52473,19.786,12.0391,-4.5545,20.9883,10.5708,-4.02336
10.276,0.403994,13.9148,29.8262,1.75264,14.2299,30.8011,0.443793,15.0814,30.3022,1.12945,13.0252,30.5952,1.48824
4.24006,0.287165,-24.1459,17.8584,0.720696,-24.7886,16.3679,0.137427,-24.3364,18.6701,0.813897,-24.1902,17.6078,1.60345
0.36617,0.0345999,-0.0750699,4.86089,7.26849,-0.449744,4.5243,6.8461,-0.0586988,4.68321,7.06752,-0.507346,4.59927,6.95859
8.1388,0.509343,-21.0842,24.9592,4.49157,-21.2051,23.4291,6.01383,-20.5518,25.4185,4.60552,-22.0548,26.1038,5.00794
6.07506,0.350079,5.05316,9.27413,-7.15576,4.80644,8.71153,-7.41261,4.30686,9.59087,-7.75645,6.42959,9.59261,-7.35598
4.56019,0.269128,11.2399,2.56917,-1.49653,10.8133,2.17076,-0.782276,10.2769,1.98692,-2.03911,12.2029,2.58075,-1.43493
1.51247,0.156306,-3.80713,26.3473,-6.02258,-3.47212,25.8118,-6.80386,-3.34491,25.8292,-6.82111,-3.22023,26.5075,-6.2443
110.34,1.3946,24.1527,21.0037,0.184577,22.7979,24.1619,2.00153,22.3617,23.3576,2.69565,23.9566,25.3584,0.532729
24.7904,0.729645,4.41976,18.9044,8.09658,6.68441,18.7288,8.05613,4.68322,20.5079,8.67895,5.52106,17.132,8.58145
3.4469,0.200093,5.26113,21.6455,7.82874,4.36066,21.1842,8.58372,6.11794,21.3913,7.93197,5.22969,22.2642,7.74761
16.1919,0.625325,-11.0491,11.3493,7.03116,-8.64133,10.1306,7.70699,-9.86946,12.8211,7.69903,-8.63552,10.6347,7.71144
2.97826,0.608281,6.71248,4.25763,5.74226,5.095,4.7752,6.75563,6.34682,4.50775,6.47999,5.36049,4.82027,6.62501
5.053,0.217594,9.12755,30.3726,-2.05163,11.2488,30.3512,-3.29165,9.01887,30.74,-1.48801,8.69903,30.4027,-2.74307
5.55741,0.325251,0.629274,31.8856,-0.711103,-0.297362,31.1923,-1.84211,-0.903195,31.4453,-0.936676,-0.657923,31.3753,-1.19304
1.15808,0.0850323,5.8415,18.9545,-8.5334,6.52122,18.8745,-8.55674,5.3375,18.5939,-8.65933,6.44836,18.6812,-8.56076
10.3671,0.310967,-3.84517,28.1375,-4.40945,-2.7737,27.074,-5.79088,-1.98417,29.8918,-4.39171,-4.35571,28.2621,-4.53557
6.75287,0.489336,-1.26635,16.6084,7.93564,-1.33781,17.9445,8.39235,0.275759,16.5931,8.30567,-2.15223,16.2113,8.50839
3.11604,0.0198265,-10.9378,24.8357,8.09537,-11.7716,23.478,7.86026,-11.6899,23.5775,7.88494,-11.9945,23.6118,7.79776
0.265852,0.00194017,14.277,10.4649,-6.73694,13.7784,10.6084,-6.69782,14.0206,10.3478,-6.74537,13.7736,10.4825,-6.71713
40.6112,0.674595,-21.8318,7.95018,3.52405,-17.5192,7.53968,5.08863,-22.9423,8.10844,3.99223,-21.359,5.15339,4.14804
8.94511,0.298284,-1.79705,0.886367,-0.384169,-0.142833,0.30995,-1.599,-2.31499,0.66564,-0.0486637,-0.824489,0.139562,1.18521
10.4426,0.585372,-17.0714,3.70867,2.23493,-19.9977,3.46685,1.37518,-20.9956,3.75385,1.42213,-19.9778,3.95128,1.54474
6.44152,0.227501,9.16723,30.8853,-0.805021,8.69264,30.878,-1.48247,11.1874,30.7161,-2.03017,9.43872,31.2589,-0.446804
1.82594,0.0799328,17.9337,7.94179,5.52039,19.5657,7.8848,5.21839,17.8172,8.19802,5.55461,19.6283,7.8144,5.18145
18.5347,0.275666,3.46547,11.3468,7.81031,4.55654,13.452,8.31373,5.77023,12.1489,8.21272,2.95716,11.1124,8.0541
4.93152,0.54495,-2.26822,4.23457,-5.63918,-1.58331,3.58027,-5.82287,-1.66164,5.09592,-6.11812,-1.71994,4.78836,-5.78289
5.65731,0.279965,-14.9597,2.99335,1.98394,-13.2124,1.85264,2.26997,-15.6018,2.94694,2.09959,-14.509,3.35857,2.59741
13.5583,0.184383,22.9054,28.0012,1.22132,23.1232,27.8483,1.79249,22.0429,28.9146,0.485921,23.8542,28.7903,-0.609373
9.71482,0.0189919,-4.47011,23.8071,-6.85457,-6.22831,23.6216,-6.96531,-6.15097,23.6368,-6.89988,-3.79748,23.8735,-7.11758
0.0723029,0.0143371,10.5528,8.70384,-7.07923,11.0542,8.56026,-6.96159,10.4225,8.58232,-7.07846,11.0584,8.68619,-6.97106
3.89039,0.1654,0.954991,22.7769,-7.44159,1.97231,23.1314,-7.46247,0.378419,23.089,-7.81919,1.47003,23.0091,-7.37708
6.20757,0.338217,5.31138,4.57151,-5.13732,5.44667,5.63106,-5.79749,7.33372,3.94049,-5.30364,5.11016,3.732,-5.24567
6.93639,0.0631724,-4.50556,7.31962,7.09812,-4.01461,7.07508,7.15805,-5.26789,6.98693,7.43338,-2.26615,6.12565,7.749
2.80071,0.0996642,1.60383,0.89537,-1.08446,1.07612,0.789788,-1.49396,1.69512,0.626091,-0.244668,2.18796,0.903372,-1.13522
3.60374,0.0225564,0.867088,21.0194,-8.687,-1.25525,21.36,-8.14898,-1.11992,21.5931,-8.08613,0.500714,21.2843,-8.53461
9.57378,0.313982,7.95026,9.92942,-6.9246,9.7007,9.61614,-7.15191,8.37244,11.5537,-7.65949,8.99468,11.2798,-7.58358
3.0799,0.166867,-14.597,21.6855,7.03771,-13.8201,21.2801,7.54643,-14.4828,22.8162,7.16626,-15.2278,21.7075,6.97472
3.24755,0.297953,15.365,9.12996,5.48872,15.4847,8.55925,5.50136,16.5922,9.2494,5.51408,15.1699,9.61211,6.15175
1.87043,0.151511,19.4801,14.1544,-4.99702,19.8687,14.3029,-4.87609,19.3382,14.1966,-5.3329,19.2661,13.3588,-5.27997
7.85135,0.446065,7.92003,2.32424,-2.78174,8.12087,1.591,-2.14399,11.0373,2.63585,-3.30485,7.51456,2.00942,-3.36544
7.06977,0.0528173,-13.3266,26.2424,6.40242,-14.4441,26.3043,6.55717,-13.1275,26.1208,6.63845,-11.7852,25.763,7.68109
6.16891,0.318589,-10.232,18.6868,-7.3949,-8.89607,19.0837,-7.89487,-11.1576,19.296,-7.84876,-9.69136,17.9878,-7.5599
3.37179,0.532946,1.097,15.3439,8.89791,-0.416925,15.2643,8.7492,-0.277616,15.8948,8.56315,-0.397101,15.8944,8.59464
3.40043,0.229395,-3.79427,23.9558,-7.09821,-1.00163,24.7409,-7.60711,-2.26697,24.5329,-7.44216,-1.1322,24.6193,-7.62025
0.805526,0.0325316,-23.4207,24.5251,3.72494,-23.1519,25.1897,4.67476,-23.2691,24.762,4.23814,-23.1471,25.262,4.67209
1.93316,1.24598,-3.17234,9.18314,7.50947,-2.21624,10.5488,8.31914,-1.97581,10.5282,8.35078,-2.48052,10.5458,8.29689
6.40724,0.48297,12.3893,16.547,-6.77087,11.8811,16.7002,-7.64874,13.5111,17.0353,-6.50048,13.011,15.2551,-7.31327
5.65922,0.403201,-2.91343,1.16239,-2.43229,-1.51235,0.822147,-3.46509,-2.4941,0.830958,-1.93573,-4.01188,0.685228,-1.90934
5.18676,0.368196,14.8977,15.8015,-6.17958,14.7524,16.374,-6.52934,16.0168,15.4865,-6.08907,14.8072,14.9828,-6.89359
4.87061,0.179229,-18.1272,11.3912,-5.9991,-18.9836,10.87,-5.90556,-17.3338,11.4427,-6.44671,-17.973,12.174,-6.24201
7.96077,0.359007,-5.10958,1.25629,-0.922881,-5.27515,1.00824,-0.540013,-6.29264,0.577113,-1.87755,-3.3691,0.727861,-1.29043
9.66958,0.482106,4.0396,27.1711,-5.39584,4.72736,26.0385,-7.07153,3.07801,27.5313,-5.71135,5.08013,28.0252,-5.28475
25.585,1.045,21.4753,22.1036,3.76269,19.7331,23.6311,4.90216,19.0892,21.3433,4.9494,19.1245,22.5814,4.94176
0.241327,0.0336783,17.3221,11.8715,6.7517,17.6603,12.0463,6.73065,17.5866,11.8623,6.68625,17.7073,11.732,6.63676
1.66431,0.239379,-2.99929,20.7762,8.67745,-4.64096,20.6983,8.48005,-4.85556,20.7876,8.39307,-4.68019,21.0231,8.37897
0.166385,0.00170465,-16.0613,14.836,7.7086,-16.5909,14.8209,7.68006,-16.5879,14.8949,7.70229,-16.0929,14.9181,7.73337
3.77924,0.24941,-21.0818,11.8206,-5.20036,-20.3909,11.4234,-5.82542,-20.9996,12.3972,-5.44837,-21.6079,11.2479,-5.30314
3.57048,0.21543,-19.3893,11.0102,-5.72275,-19.1169,10.7511,-5.88649,-19.9838,10.1951,-6.09055,-19.4529,11.895,-5.9436
1.3965,0.0277418,-16.0028,13.7886,-7.39937,-16.5808,13.0093,-6.90747,-16.4985,12.8635,-6.92594,-16.3764,13.5697,-7.15551
52.4332,0.224926,-6.32646,8.78897,7.12186,-6.00963,7.64322,6.9708,-1.91532,7.30006,7.82607,-4.93325,10.0764,8.24872
3.87481,1.26595,-8.8145,1.46358,-4.09343,-10.5621,1.7668,-3.6847,-10.9611,1.60598,-3.93481,-10.5307,1.70229,-3.46168
1.7813,0.174486,-11.3511,20.8157,-7.53053,-12.5091,19.9331,-7.09102,-12.4343,19.8449,-7.09714,-12.0929,20.4127,-7.35606
7.15448,0.249031,11.3355,18.693,7.0948,11.0435,19.0256,7.24443,11.9418,15.5896,8.14208,12.5553,19.0983,7.37864
1.35939,0.221119,-11.426,30.8451,4.23031,-10.9993,30.7094,4.78384,-10.9158,30.7353,4.7824,-11.551,30.5297,4.91938
3.41415,0.0131638,21.2213,18.0878,-3.15242,21.711,18.9026,-3.60953,21.8491,18.6477,-2.76938,21.0826,18.2471,-3.84863
5.83563,1.07408,-14.2637,3.45067,2.74984,-13.4909,4.22669,4.19799,-13.2798,3.3991,3.50013,-13.1065,2.67023,2.96571
6.32642,0.253461,17.9992,27.5032,-3.58422,17.3632,27.672,-4.07796,18.6007,27.8654,-3.34582,18.8974,26.2124,-4.71117
3.00213,0.233396,22.1073,14.9824,3.36757,22.4029,11.6893,3.31573,22.5772,11.688,3.06313,22.3233,12.0751,3.43508
3.49095,0.217262,-8.12796,30.5952,-1.37223,-7.12297,30.6808,-1.75964,-7.83337,31.3158,-0.558776,-8.46981,30.4832,-1.98495
3.83225,0.16969,20.9324,17.6711,4.12567,21.0786,18.4224,4.2405,20.5484,17.5498,4.84574,21.6844,17.4357,3.48268
4.36116,0.507322,17.1654,21.9616,5.70086,18.4569,22.9267,5.51495,18.1994,21.2967,5.58445,18.4271,21.5409,5.44888
1.18553,0.0578418,17.336,2.91959,3.00127,17.6302,2.08504,2.44465,17.7144,2.09361,2.43165,17.4271,3.22855,3.07532
18.2946,1.4206,-15.2366,30.3032,3.72334,-13.2858,31.5369,1.10751,-13.5664,30.8279,4.45064,-13.5237,30.9171,3.41013
2.4696,0.0556046,-4.54328,0.663359,-3.41231,-4.63113,0.812281,-1.5204,-4.50574,0.793359,-1.5226,-4.40141,0.675125,-2.53265
8.87159,0.251658,17.069,2.99936,-0.464376,16.2602,2.6718,-0.257006,17.5192,2.89344,-0.897381,18.5328,1.90722,1.21801
5.18392,0.117882,-9.65322,1.26527,-1.18048,-10.223,0.919279,-0.603545,-7.5347,0.208,-0.50437,-7.53442,0.257776,-0.587958
6.54397,0.456542,-17.2089,2.44823,-2.9666,-16.0945,2.27674,-3.46169,-17.3559,0.991647,-1.68834,-18.1149,2.35911,-3.68216
12.7008,0.499,7.75327,8.2973,6.71865,9.8056,8.8934,7.51914,7.10146,7.80317,7.04734,7.8529,9.49661,7.90414
0.272986,0.00527937,17.1104,7.79241,-5.2217,17.252,8.50311,-5.75665,16.9928,7.81395,-5.30138,17.1247,8.47287,-5.80409
0.153932,0.0288718,22.3749,26.5721,-3.92001,22.4067,26.1928,-3.95474,22.4801,26.0642,-3.91581,22.5683,26.1872,-3.854
4.26148,0.279652,3.76486,28.4031,-4.72648,4.74204,28.8269,-4.58649,3.01893,28.6785,-5.09678,4.06877,27.9682,-5.19109
0.0758139,0.00024838,20.0382,10.2346,-4.52385,19.9683,10.1401,-4.5672,20.169,9.81792,-4.48284,20.0537,9.82195,-4.54327
13.1812,0.0543375,0.557272,11.7005,-7.79352,-0.995458,12.0564,-8.0736,-0.325441,9.03718,-7.7122,0.73729,9.55092,-7.62797
9.90988,0.3444,-4.86835,15.6723,-8.71479,-7.49176,16.1543,-7.55914,-6.92828,15.1825,-8.34388,-7.61575,15.8943,-7.62946
20.9781,0.582244,8.18666,6.76475,6.27534,8.99033,7.62372,6.69714,9.86132,5.47003,6.72425,6.57288,5.7198,7.15388
6.14004,0.344826,-9.2941,2.41445,2.64368,-8.76525,2.84473,3.18426,-8.42919,1.9644,2.52663,-10.1594,1.96062,3.02758
1.44401,0.13022,-16.0798,18.5853,7.7566,-15.8668,17.6954,7.28837,-16.1057,17.9896,7.46265,-15.6162,17.6434,7.30143
2.92737,0.114001,-5.52616,0.624976,-3.47112,-7.93113,1.05006,-3.22696,-7.92996,0.975272,-3.01028,-7.30553,0.674089,-2.61238
27.9992,1.63263,6.2279,25.9057,6.91114,7.40767,28.0136,5.26782,2.06758,26.4088,6.54033,6.87987,27.8697,5.0052
18.8744,0.0825001,-24.0762,24.4208,-2.16586,-24.1647,24.415,-3.55964,-24.5156,27.3218,-1.29464,-24.4639,26.9408,-0.278625
3.7561,1.0785,-25.0227,7.67678,-1.64403,-24.5605,9.65047,-2.34113,-24.4575,9.67427,-2.62738,-24.8346,9.82539,-1.91817
2.21802,0.237991,16.3125,24.0533,-6.21361,18.1993,24.8268,-5.81329,18.3259,24.8224,-5.77804,18.3164,24.5706,-5.81814
3.66271,0.307187,-8.74343,13.4531,7.31194,-8.61959,11.0124,7.8278,-8.52512,11.6394,7.79804,-8.6853,11.0777,7.81129
8.60887,0.491538,9.85303,12.3514,-6.98223,10.1644,11.7344,-7.1361,8.82714,12.3711,-7.84976,11.1952,13.1044,-7.60209
20.634,0.748473,-5.61985,5.05113,-5.71719,-5.12576,7.86451,-7.84212,-7.38893,6.25303,-6.80933,-6.6736,6.07671,-6.25371
2.74733,0.180214,9.11643,19.0923,-8.25013,7.1989,17.8985,-8.12003,8.85474,18.4711,-8.31534,7.32069,17.7682,-8.10617
5.51781,0.498947,-1.86219,4.27178,5.70577,-3.11716,4.29909,5.99464,-2.02674,3.44948,5.23399,-3.84149,4.34305,5.61116
5.53514,0.398433,0.192994,6.22917,-6.8306,1.15023,6.33961,-6.44316,1.53335,6.24457,-6.36881,1.1513,6.99217,-7.68669
5.16689,1.58374,7.46438,6.28606,-6.33442,4.55427,6.01742,-5.93741,4.96442,5.95808,-5.76597,3.97713,5.97083,-6.267
4.3223,0.164689,-19.8571,2.91947,-3.89423,-19.4869,2.34274,-3.15818,-18.4061,2.71243,-4.89171,-20.236,2.89608,-4.02561
6.88632,0.215875,0.923578,26.9892,5.76137,0.708596,27.4647,5.63484,0.688718,26.4469,6.34684,3.34111,27.5386,6.35081
2.0851,0.0839246,-3.2852,9.9142,-7.63375,-3.34555,9.34778,-7.63846,-2.9817,10.0998,-7.78527,-4.22243,9.24759,-7.5031
16.9685,0.392905,-22.0011,6.89612,-4.67399,-22.5074,6.96443,-4.9519,-21.344,4.14425,-4.86689,-20.2708,7.71561,-5.70428
7.25253,0.504591,-21.5314,20.8618,4.89483,-22.5343,22.4738,5.44043,-21.008,20.828,5.5057,-22.7631,19.9281,5.05814
6.30717,0.244387,4.40334,16.231,8.42479,3.53233,16.2653,8.65567,6.67131,16.0258,8.73485,4.30996,17.1168,8.52726
4.21658,0.0901689,13.6301,17.0399,-6.39281,15.042,17.499,-6.41944,14.1074,17.0269,-6.2979,13.3018,17.64,-7.41265
0.668744,0.0171206,1.91138,14.3885,8.8832,1.4347,14.1914,8.58509,1.70023,14.4619,8.80746,1.55617,14.0611,8.58034
12.9301,0.316541,-23.2535,23.4245,2.66978,-23.499,21.7442,4.36633,-23.6821,22.4705,2.17197,-23.4367,24.2635,3.48465
3.5041,0.0707155,-11.2981,25.6047,-5.08959,-10.8482,26.8562,-5.32183,-11.3666,25.0544,-5.23908,-10.3684,26.3371,-5.85305
1.23897,0.724713,19.0113,3.20778,3.14947,19.7373,3.07799,2.88779,19.7403,2.96621,2.88842,19.8335,3.21061,3.00825
7.43161,0.294104,-13.5963,14.212,7.08127,-12.2594,13.8603,7.75355,-13.8156,13.6509,7.02681,-13.1937,14.816,7.95097
1.94415,0.049343,-0.563104,15.9002,-8.14111,-0.3336,16.2189,-8.19246,0.471608,16.6299,-7.98707,0.410819,16.3074,-7.92283
3.74634,0.262734,1.48243,0.780024,0.173133,0.862516,0.411719,0.072455,1.56793,0.353213,1.01462,2.45077,0.701026,0.113193
8.66355,0.256897,13.5149,11.9081,6.80602,16.0846,12.0408,6.97108,13.6224,12.6311,7.03642,13.6456,10.7391,7.09607
14.5348,0.732032,6.09385,27.994,-4.9391,8.41756,29.4279,-4.71534,6.81215,27.3492,-5.84138,7.3343,28.1405,-5.13898
0.299154,0.023138,17.5142,3.06367,-1.52728,17.1975,3.24849,-1.91776,17.349,3.24092,-1.93928,17.136,3.19066,-1.77265
8.70924,0.233744,-23.9866,19.744,0.971103,-24.011,20.4313,1.2939,-24.7493,18.5098,-0.0376428,-23.846,17.8479,3.73992
2.57961,0.198184,7.92916,22.0941,-7.33416,7.74466,22.6713,-7.42601,8.60965,21.8723,-7.48915,7.57847,21.5358,-7.73477
7.16252,0.0108693,14.7731,12.8039,-6.30518,15.3517,12.0664,-6.16782,16.6159,12.1483,-6.14398,17.1787,12.8078,-6.24388
15.3885,0.141612,2.4437,11.6346,-7.9488,3.74059,8.94173,-7.72696,2.9846,11.8211,-8.25301,0.805642,11.5658,-7.74293
5.96003,0.152099,-3.98761,22.1838,-7.40554,-3.41508,20.9495,-8.25524,-2.33102,22.8961,-7.83689,-4.37204,22.3493,-7.38474
4.42169,0.175903,-11.6574,25.239,-5.03221,-12.8792,25.3194,-5.0603,-13.2771,25.7989,-5.03495,-12.1965,26.3672,-4.71606
6.86416,0.23677,-12.4432,7.19356,-6.72488,-13.0178,7.32567,-6.97383,-12.0123,7.92255,-7.37021,-9.19432,7.59659,-7.57757
4.10295,0.175709,13.6426,27.5386,-5.00371,15.168,26.3831,-5.82029,15.1573,26.2448,-5.93621,14.6512,26.19,-6.10115
1.53343,0.273529,-3.49965,2.78898,-5.66616,-2.62532,2.464,-5.49395,-2.93867,2.43042,-5.39218,-3.13691,2.1216,-5.22176
28.7814,1.11779,21.8339,12.9747,-2.69579,21.3027,11.6052,-3.72757,23.3658,10.904,-1.64887,19.8393,12.2879,-4.62756
10.8261,0.597606,-10.5378,18.5179,7.53273,-11.391,19.0125,8.2302,-10.4709,16.7505,7.67682,-8.11663,18.8116,8.39753
7.35139,1.38629,7.09415,14.2459,7.62448,7.76213,11.4489,8.14401,8.60473,14.0671,7.83487,8.60939,14.1825,7.87074
3.9444,0.281457,-9.69939,17.6061,-7.6173,-8.05267,17.9268,-7.83079,-9.47364,16.9678,-7.85509,-8.55691,17.9444,-7.85777
20.8401,0.891451,-24.6686,16.3637,-1.53944,-24.6364,19.1379,-1.28505,-24.2588,18.6875,-2.49561,-24.393,17.3627,-3.43393
8.73555,0.331467,-20.2584,24.1525,-4.37295,-20.1385,23.7575,-4.6601,-18.3781,25.9473,-4.88332,-21.1461,24.1835,-4.72268
5.02681,0.18238,-13.7009,30.0222,-1.64352,-13.4055,31.0071,-0.580881,-12.9853,30.006,-2.1619,-14.2152,29.9195,-2.0057
2.73441,0.0769333,1.20406,22.5141,8.0318,1.36123,23.1454,8.13455,0.942778,22.0253,8.0746,2.10055,22.6153,8.20654
3.11611,0.144261,-7.14763,4.48257,5.89125,-7.23619,5.16286,6.71871,-5.97697,4.42452,6.26007,-7.19673,5.0948,6.66182
7.83076,0.363605,-3.51108,4.43461,-6.16114,-5.12663,3.11215,-5.61001,-5.59897,3.97265,-5.49557,-2.56146,4.23789,-5.94797
8.15324,0.542832,-12.5397,22.234,-6.06051,-12.472,21.0868,-7.26891,-10.255,22.8802,-6.6542,-13.3283,22.6498,-6.3553
5.15338,0.140251,15.0465,26.8766,4.50698,16.2209,27.9217,4.67631,16.3116,26.4039,5.1044,15.5218,27.8822,4.50903
8.17169,0.0319966,-9.85814,4.85109,-5.64338,-9.89699,4.11632,-5.75676,-9.28093,3.47084,-5.93369,-7.75543,3.92188,-6.12892
0.901595,0.662487,-20.0538,1.26153,-0.939423,-20.9809,1.71873,-0.88941,-20.6444,1.69464,-1.17872,-20.8523,1.75196,-0.983428
3.53088,0.0413359,4.73572,22.6494,7.4033,4.04963,21.9929,8.36844,5.62733,22.6182,7.4705,5.30938,22.6823,7.32682
6.8035,0.26592,8.71074,30.4966,2.92317,11.0018,30.6435,3.64389,9.08402,31.0357,1.92514,8.0931,30.752,2.93858
1.37656,0.0544763,20.8438,14.0447,-4.17265,20.118,14.1638,-4.7209,20.8094,13.3888,-4.05444,20.099,14.0439,-4.695
4.50703,0.0369262,10.0122,6.96113,-6.23126,10.1549,8.08736,-6.96975,10.953,7.3687,-6.38489,8.99014,6.84877,-6.20363
0.181606,0.0147263,21.7207,29.8555,-1.9624,21.603,29.9627,-1.69602,21.7288,29.9588,-1.7011,21.5343,29.9406,-1.76506
22.5781,1.52783,-13.1115,26.2561,-4.37704,-15.0917,26.8981,-4.3774,-12.6741,29.5113,-3.19669,-13.807,27.9617,-3.59758
5.70829,0.404361,8.29347,26.2386,5.63769,8.75897,27.0779,5.09137,7.82708,26.1415,6.67456,9.66656,26.069,5.61713
5.03443,0.211751,-9.80798,31.2303,2.24299,-9.33208,31.2703,3.04401,-9.74542,31.6805,1.3153,-8.41707,31.6679,1.5889
1.23757,0.00198335,16.654,20.5774,-6.37765,16.7902,20.8416,-6.32547,18.0405,20.5457,-6.34589,18.0453,20.6717,-6.3235
13.6031,0.304774,-7.26875,2.46521,2.98977,-6.36076,2.70386,3.96205,-5.16738,1.06489,3.16791,-8.03209,2.41533,3.0417
6.71697,0.375174,-9.63463,28.3264,-3.77886,-7.94968,29.6483,-3.71078,-10.4819,28.3893,-4.09505,-9.29133,27.7337,-4.50279
3.32523,0.315791,16.3202,17.58,6.4809,16.7102,14.9187,7.21076,16.6418,15.515,7.11739,16.8418,15.6498,7.00514
5.94752,0.243563,-21.2139,30.0765,1.93273,-21.2275,30.1857,2.59526,-21.6743,30.5358,1.22277,-20.5833,30.6353,0.162253
1.42503,0.0462988,-22.0558,2.52724,0.77931,-22.3263,2.28278,0.516341,-22.9496,2.47251,0.402637,-22.862,2.38238,0.364676
7.82479,0.117655,-20.6316,6.59433,-5.07349,-20.9709,6.27452,-4.95656,-19.387,3.69768,-5.47143,-19.4957,7.07079,-5.9675
6.98597,0.379824,-8.79874,14.2749,7.29191,-9.53507,14.5294,7.94283,-7.07923,14.3044,8.04322,-8.69446,13.6626,7.26719
1.53521,0.244278,-12.5856,27.1626,-4.26188,-11.4395,27.6269,-4.54982,-10.9376,27.627,-4.69249,-10.6776,27.8152,-4.62351
28.1208,0.0955036,23.5391,5.47666,0.637429,22.6958,7.2683,2.66096,22.9074,7.76811,1.91004,22.9058,6.26113,2.41322
6.41337,0.415501,10.309,26.1471,5.45383,10.5355,27.4899,4.90857,12.651,26.1791,5.91536,11.914,26.9374,5.52328
5.13996,0.35646,5.78773,17.0652,-7.83511,5.07082,17.1277,-8.28593,7.19109,17.7767,-8.0876,6.00851,16.3011,-8.10521
4.65136,0.309909,-3.66373,28.363,5.74746,-3.48176,29.9966,5.93613,-4.33393,28.6395,6.13601,-2.65179,28.1991,5.93189
2.83873,0.143191,-0.257468,0.572913,-0.264109,0.304778,0.241209,0.661492,-0.583945,0.501303,-0.204981,0.283274,0.318548,-0.724297
1.87271,0.106934,-10.7919,13.2693,7.35499,-10.7109,12.6835,7.3637,-11.2091,13.7504,7.51073,-11.4709,13.2533,7.3912
19.8236,1.5625,21.6862,29.2337,-2.69108,19.8696,27.4689,-3.6234,19.1531,28.2508,-2.98173,18.538,28.6451,-2.844
1.473,0.00437593,0.775214,18.375,-8.66006,1.56159,19.1018,-8.87814,1.30112,19.0801,-8.83749,1.60648,18.9763,-8.86565
4.26573,0.340676,-16.4177,22.7577,-5.49381,-16.4485,24.2717,-5.76736,-15.6809,22.4792,-5.94248,-16.822,22.1467,-5.81332
3.10215,0.203452,-14.1511,12.4289,-6.68149,-13.7774,12.0752,-6.59088,-14.6516,13.2379,-7.48296,-14.544,11.9757,-7.02698
8.95485,0.342789,9.34164,6.98106,6.43745,10.8267,6.04667,6.69709,10.7622,7.7339,6.8525,10.2931,7.87452,6.86498
5.03068,0.302921,-5.6522,10.9191,-7.57536,-4.4921,11.7508,-8.21082,-6.57829,10.5628,-7.86573,-5.91235,10.2914,-7.6163
10.9595,0.257332,-21.9341,3.2144,-3.06815,-21.8536,3.31968,-3.73645,-22.4554,2.67014,-2.51857,-19.8738,2.09297,-2.651
2.81732,0.510782,-25.0277,13.6026,-0.55567,-24.609,14.2183,-1.91985,-24.5918,14.4699,-1.79397,-24.6399,13.8412,-2.17158


