
25.4745,0.0968942,1.43617,7.55708,-7.56902,0.955515,9.87119,-8.58215,0.923364,9.92258,-7.32513,1.2206,8.36114,-8.76562
4.63112,0.280872,4.86896,2.08797,-4.54115,4.64701,2.23201,-3.07713,4.40848,1.44034,-2.5557,4.51061,1.79987,-3.12517
2.35035,0.0770706,-3.94674,11.3396,-1.37726,-5.13218,10.8378,0.014246,-4.95257,10.8908,-0.808654,-5.25652,10.7466,-0.329769
4.86441,0.0788583,6.19549,8.87221,7.94285,7.32712,8.70353,7.46354,7.58243,6.8196,8.16463,6.91755,7.22103,8.2633
7.30888,0.180058,3.96094,4.67711,-2.05029,3.36607,5.22027,-2.73073,3.40219,6.92354,-1.68523,3.85311,6.77843,-1.23839
0.637552,0.0242596,-4.98485,11.0308,-2.61693,-5.87869,10.5018,-2.13548,-5.79625,10.5465,-2.05699,-5.50674,10.7412,-2.47487
4.59399,0.147664,-5.76302,10.5577,-1.67654,-4.38039,11.2762,-2.42472,-4.13102,11.313,-1.91407,-3.98509,11.3841,-2.11178
7.61428,0.0220543,-5.5518,10.6804,-4.23937,-5.95332,10.4991,-2.39226,-6.43773,10.1886,-2.68747,-6.35632,10.2204,-3.0556
2.50244,0.240917,1.31353,13.538,-1.06479,0.55659,14.1679,-0.920643,1.98675,13.5003,-0.953865,0.668005,14.0987,-1.13716
4.59664,0.216818,2.64149,3.24898,-6.61049,4.1652,2.70168,-5.40523,3.8936,2.08399,-5.29611,3.88916,2.46216,-5.44549
3.60158,1.37673,7.66562,4.02202,6.91427,8.15367,4.35431,5.27884,8.18947,4.50964,5.47313,8.17079,4.16329,5.11519
1.62273,0.322834,1.13672,8.38568,8.10662,0.627859,8.91983,8.07855,0.181354,8.61767,8.13677,0.278493,8.74399,8.09186
5.84248,0.257233,-7.92318,5.25069,2.57453,-7.00455,5.90197,4.13987,-6.48494,4.73483,4.42924,-8.28705,6.50161,2.05761
9.53215,0.274302,5.33762,12.5026,5.88144,6.38896,10.5055,6.9128,6.25226,9.88337,6.07391,6.35388,10.032,6.48906
6.40313,0.637844,6.14052,1.92386,3.15107,7.9283,2.82393,4.92945,7.43572,2.79953,3.69092,7.9117,2.97564,4.72978
5.74896,0.0345227,-5.89211,10.3384,2.45718,-6.66995,9.55439,0.523528,-6.40019,10.0507,1.78855,-6.9626,9.48052,0.4565
4.71595,0.536078,5.94096,2.47189,6.13719,6.03717,4.0177,6.78122,4.91275,4.49557,6.4033,5.00763,4.4766,6.43578
3.32723,0.130166,-6.47611,9.69934,0.404337,-5.61074,10.4935,-0.432352,-5.61596,10.4407,-0.167962,-5.88043,10.4035,-0.757372
2.95195,0.0917666,7.09928,6.18998,7.26155,7.57178,5.85218,7.30914,8.18504,6.22052,7.74659,7.95765,5.92976,7.48448
3.7572,0.714936,-5.80904,10.1044,5.70151,-5.23513,11.108,5.86889,-5.30497,11.0054,6.00951,-5.63625,10.9528,6.55623
1.15138,0.0636134,-0.559668,14.8322,1.99478,0.210746,15.0577,2.42645,0.20163,15.1468,2.19698,0.388493,15.1449,2.39737
4.69787,0.457731,-6.26663,1.41445,-0.0769064,-7.27214,1.8508,0.25857,-7.22799,1.85717,-1.19897,-7.26107,1.83554,0.32748
1.42797,0.0295905,-7.13659,4.54395,-3.92664,-7.18899,3.92706,-3.24696,-7.04841,4.11389,-3.79888,-7.09982,3.75541,-3.39667
4.86996,0.415742,4.28182,11.5342,2.37906,5.0524,9.10071,3.23972,5.05466,9.56857,3.43383,4.99928,9.37063,3.27356
6.72296,0.0779004,-6.94118,9.39872,0.11227,-7.43578,9.49045,-1.3791,-6.60921,9.60243,0.430181,-6.46453,10.1647,-2.41162
13.316,0.802611,-4.15064,6.42277,-5.62838,-2.47488,6.809,-6.86104,-5.3124,6.58639,-6.23914,-4.37165,4.30937,-6.10135
2.80121,0.100606,3.99271,7.97144,-0.0404707,3.96133,8.50695,-0.066263,3.91858,7.55018,-0.710329,4.34599,7.22271,0.0868534
1.9973,0.0937093,-3.20881,12.5517,5.0862,-3.4284,12.5804,4.48707,-3.98138,12.1257,5.61712,-4.05098,12.0265,5.90177
2.03042,0.0111607,-2.31653,12.2891,1.1499,-3.52316,11.8472,1.57759,-3.13152,11.8968,1.18537,-3.59374,11.7476,1.39197
1.29945,0.0141107,-2.98042,1.54415,3.96464,-3.41628,1.49664,3.54855,-3.35527,2.03495,4.6173,-3.5102,2.06089,4.53895
15.7347,0.441424,0.0272564,5.81722,6.37955,-1.14975,4.66198,5.833,1.17795,5.05601,6.60832,-1.16673,5.66796,6.57934
1.49045,0.207807,1.64417,6.176,-7.19529,1.7251,5.88967,-7.4674,1.94289,5.02649,-7.41553,1.89506,4.94772,-7.47917
1.52833,0.149917,5.35712,7.78748,2.61506,5.09248,8.77411,3.18607,5.38186,8.35817,3.30754,5.58069,8.32423,3.56007
6.63518,0.0912361,5.32484,5.97122,1.58924,5.18715,4.88104,0.528564,4.73044,5.39601,0.0863624,5.54085,5.19765,1.29826
20.2915,0.636871,4.42762,2.6173,0.799846,4.87126,3.16983,-0.751562,4.46606,1.81139,-2.40807,5.19837,1.75726,2.03154
7.65308,0.560265,-1.86864,5.07227,-5.98887,-2.39299,5.83988,-6.30431,-0.536159,4.64169,-7.13359,-3.33166,3.64344,-6.22056
0.217152,0.0504686,4.3294,0.876652,-2.50696,4.3495,1.24184,-2.35557,4.37566,1.26626,-2.54169,4.38204,1.33633,-2.44362
2.25336,0.017135,0.639213,6.78062,8.06995,0.268523,6.28107,7.02978,-0.0925439,6.366,7.10235,-0.104398,6.48319,7.32948
9.74952,0.346991,4.65785,9.89061,7.72613,5.73091,7.0707,8.38525,4.15162,10.3085,8.1643,5.36121,9.95883,7.86189
1.24021,0.106432,4.47665,2.70837,-1.13252,4.64625,2.50176,-2.19155,4.73993,2.77297,-1.89057,4.73461,2.71874,-2.04304
3.18021,0.258681,6.25821,6.27494,6.86901,6.37011,5.82915,6.71768,6.96116,6.26684,7.34825,5.79605,6.2447,7.21968
21.1045,0.740027,1.55538,14.8443,3.58624,3.09935,15.0303,1.52503,2.11149,15.4671,0.509205,3.27207,14.9522,1.79934
2.39945,0.0276216,-7.55852,2.9047,-1.89631,-7.25035,3.91045,-3.11426,-7.14643,3.75575,-3.22483,-7.13843,3.38115,-2.99677
4.84671,0.399056,5.82742,10.046,5.27116,5.30148,10.7912,4.7533,5.3705,12.0315,5.4639,5.26219,10.6777,4.49612
4.70679,0.474589,6.79526,7.45133,5.25419,7.82636,7.16833,6.65576,7.86288,6.32687,5.88555,7.67453,6.76075,6.13528
15.9981,2.48163,2.84291,5.29222,-4.39064,1.39165,7.17075,-6.36587,1.51349,7.92349,-6.3275,1.61489,6.24828,-7.12394
7.46289,0.138974,2.14912,14.009,6.09434,1.57359,14.6625,4.21045,1.87109,14.7591,3.92206,2.42885,14.7555,4.02956
8.99601,0.0251353,-4.02391,12.3977,4.21579,-4.82231,11.4677,5.40637,-4.78372,11.4184,3.61435,-4.28607,12.0041,3.44575
2.48781,0.0955749,5.23337,1.88122,2.02028,5.59933,1.70401,2.7729,5.90011,1.79004,3.11804,6.02675,1.87862,3.14835
2.98596,0.0950149,1.58165,9.0664,-5.34375,1.58552,7.18917,-5.82793,1.71933,7.37036,-5.33757,1.62453,7.33019,-5.6781
2.41926,0.0330732,2.83167,5.25337,5.85768,3.73189,5.96791,6.88207,3.11784,5.61766,6.51068,3.60164,5.93398,6.92135
1.61185,0.114612,-3.23429,7.67617,-6.81178,-4.13029,7.07576,-6.55482,-2.46353,7.64714,-7.07792,-2.52881,7.35792,-6.96751
1.82137,0.0230374,5.5492,11.5557,7.82983,6.04935,10.4647,7.61432,5.96144,10.4489,7.68124,6.13564,11.3025,7.45371
11.0733,0.309802,-8.39852,3.67663,1.18487,-7.59791,2.283,-1.46222,-7.23489,2.31161,-2.39066,-8.21652,3.93909,-0.17149
3.59635,0.0966731,-3.87107,1.45983,3.15124,-3.50754,1.10579,2.27285,-3.08876,1.20111,2.77729,-1.5589,0.869736,2.97762
4.50503,0.138554,0.0180767,5.83023,-7.51747,-2.34627,6.34743,-6.52895,-2.48117,6.19939,-6.39132,-2.49794,6.26337,-6.41635
9.08131,0.0309623,4.63067,5.85457,0.27806,3.98841,6.7228,-1.10546,3.00365,10.4105,-1.54856,4.00092,7.2995,-0.610252
6.43296,0.112424,-0.123295,14.8587,0.765091,1.92163,14.3438,-0.295932,1.18389,15.1973,0.648395,1.05414,14.9009,0.401545
0.762838,0.130826,-4.79429,11.2342,2.37414,-5.03866,10.9956,2.50415,-5.26412,10.8236,2.13969,-5.23439,10.7949,2.26892
13.9325,0.208322,-5.8844,10.3472,2.54292,-5.00017,11.1852,3.47947,-5.81736,10.2655,5.25159,-5.30234,10.88,4.69243
3.3547,1.27914,-3.22019,4.89054,4.94797,-3.87089,3.75552,5.35802,-4.15026,4.03103,5.40708,-3.95695,3.81339,5.34518
3.81032,0.111069,-4.6126,11.059,-4.38875,-4.88847,10.4659,-5.65757,-5.34982,10.0822,-5.91142,-5.1215,10.152,-6.05311
12.7218,0.856518,-1.32079,10.2458,7.16958,-0.00664126,8.84927,8.06785,-2.88561,10.0174,7.80559,-0.367584,11.2173,8.26701
2.06405,0.136316,-0.847421,13.4041,5.68833,0.482431,14.1133,5.31931,0.507681,14.0562,5.43321,0.0992703,14.0115,5.17579
36.7106,0.333161,3.0286,13.5177,0.107091,4.88301,7.25705,1.72851,3.98496,8.69892,0.01079,4.5849,9.14427,2.51767
1.46864,0.0814072,-2.00513,13.0563,5.37635,-2.78381,12.7517,4.78297,-2.89133,12.6947,4.87006,-2.4239,12.8933,4.79715
3.23282,0.388724,-4.2893,7.90914,-6.28164,-4.87019,7.79926,-6.5634,-3.28299,7.71748,-6.81237,-4.6785,7.31561,-6.49167
7.92561,0.160785,-3.65689,9.54389,-6.89927,-4.39672,8.6391,-7.1573,-2.87362,9.61676,-7.22205,-3.97675,10.5005,-6.73473
0.852607,0.0845322,-1.69179,1.60266,4.59972,-2.2957,1.15418,3.40531,-2.35488,1.24544,3.58729,-2.35372,1.32322,3.74848
2.47592,0.545671,3.2405,13.0311,7.57258,3.40742,12.8708,8.55082,3.81595,12.7631,8.70177,2.8005,13.1345,8.21737
3.17138,0.100792,7.58079,3.66396,3.80514,6.71432,3.44439,2.62243,7.88116,3.65604,4.0194,6.70535,3.31863,2.64985
16.2705,1.44469,0.76807,10.5081,-5.53844,0.709201,12.6776,-4.36429,0.491391,12.0103,-5.73053,0.619776,10.7121,-8.43034
2.13619,0.429363,1.5451,11.1085,7.48832,2.49774,10.9891,8.40056,2.40445,11.1824,8.47904,2.3339,11.1959,8.45482
5.74843,0.201374,4.23952,10.1269,1.77239,3.96707,12.1968,1.92839,4.10472,13.1622,2.72236,3.95638,11.6133,1.75942
27.0159,0.690695,-2.27399,12.0869,-4.65975,-3.81973,11.4111,-2.42504,-2.12367,12.0928,-2.16425,-1.13928,12.5872,-1.66662
5.42311,0.250044,6.34893,5.75409,6.72727,7.85387,4.44621,7.12879,7.00519,4.07927,6.94884,7.89722,4.7266,7.161
1.37589,0.0170159,-6.71333,9.55323,-4.88201,-7.26148,9.52855,-3.60266,-7.27824,9.2451,-3.866,-6.99118,9.59083,-4.20378
0.139,0.117127,-7.21166,1.92926,-1.70965,-7.01346,1.83128,-1.8541,-6.72859,1.67403,-1.86727,-7.1812,1.93563,-1.83901
8.33511,0.292137,-1.02112,9.68904,-7.51832,-2.07314,8.96447,-7.78409,-0.05625,9.37678,-8.73736,-0.051068,9.27571,-8.81233
40.4983,0.275408,5.85371,3.96105,1.06979,7.78766,6.07006,5.40495,7.50485,5.45275,4.73074,5.66729,6.20427,2.1455
2.16584,0.0146626,-8.23392,3.30638,1.66936,-8.30122,3.17661,1.06471,-8.37752,4.74143,1.75807,-8.32958,4.48325,1.86201
0.932749,0.333413,1.74152,7.74753,-5.18135,1.92641,6.87712,-5.13573,1.92464,7.25912,-4.8685,1.91672,7.06633,-4.9691
8.03982,0.292763,1.8653,3.32968,6.21651,-0.414944,4.83519,5.89952,0.239265,4.22728,5.90471,-0.25683,4.11754,5.8951
20.9842,0.788836,0.506802,13.1365,8.33929,1.73448,13.7781,6.57419,-3.02999,12.4155,6.87486,2.57661,13.75,6.86878
4.81014,0.0434608,0.880321,7.00392,-8.29829,-1.31547,7.38099,-7.4794,-1.60935,7.34322,-7.34362,-1.12182,7.6424,-7.65689
24.7417,1.36919,0.975568,10.8579,6.99628,1.53431,8.90658,8.03001,1.22093,12.4529,8.99354,-0.07659,12.0253,8.54391
1.78719,0.0284564,-3.85707,11.3286,-3.55599,-3.59774,11.5928,-4.40198,-4.3192,11.222,-3.76374,-3.53823,11.4391,-3.32095
3.02947,0.115051,0.539541,13.5163,-3.44007,-0.0165032,13.2632,-3.0768,0.892198,13.8974,-2.58952,0.543123,13.8182,-2.37523
1.36595,0.265217,4.53312,0.262,0.659267,4.7525,0.725207,1.50663,4.70391,1.13196,0.938362,4.66082,0.765187,1.22706
1.54372,0.412992,2.73423,12.5665,-1.1887,3.11208,11.7359,-0.927438,3.30067,12.0798,-0.611687,3.14203,12.0598,-0.716146
2.01327,0.0732931,-1.26098,7.65733,-7.60207,-2.38741,7.73386,-7.19668,-1.40249,7.47517,-7.46717,-2.35725,7.63475,-7.12064
11.334,0.722144,-0.805262,12.5989,0.640033,-0.161085,14.2904,0.360165,-2.31358,12.2599,1.05494,-0.784837,14.1504,1.55554
15.4958,0.428435,-3.08383,11.8588,0.381697,-0.453992,13.3996,-0.54554,-0.513664,13.0932,-1.20438,-0.539427,13.41,-0.410751
1.32413,0.026714,1.81476,10.6533,-3.87906,1.72503,11.2796,-3.58712,1.09243,12.1581,-3.9712,1.10025,12.0762,-4.02365
5.80358,0.535126,-2.05411,3.87498,5.16538,-1.98916,2.41915,5.25137,-0.625953,2.54994,5.34073,-0.0414418,2.33859,5.50232
0.375888,4.55173e-05,-5.37101,9.6497,-6.42997,-5.6233,9.70398,-6.14036,-5.5039,9.83882,-6.05838,-5.33424,9.78226,-6.28044
1.19957,0.19125,4.44348,1.42573,-1.21184,4.37076,1.29869,-1.83624,4.29796,0.526737,-1.4332,4.32874,0.74024,-1.5995
5.05178,0.00368452,-1.81338,13.4908,4.1494,-0.537131,14.0591,4.80845,-1.29315,13.9681,3.88548,-0.996406,13.4509,5.43258
2.00702,0.800114,3.59439,11.0593,8.61199,2.70177,10.6701,8.41655,2.52112,11.1687,8.50944,2.53053,11.0702,8.43978
3.35096,0.131593,4.42241,11.2117,8.19472,4.91371,11.3664,8.22946,3.77991,11.609,8.71232,4.26319,10.4672,8.12129
2.34815,0.652121,-2.47896,10.9815,-7.48098,-2.19734,9.80488,-7.2188,-2.35215,9.80749,-7.24446,-2.08975,9.60929,-7.28416
60.0045,0.683404,4.69067,4.34123,-0.826484,4.89969,2.64426,-4.39605,3.31242,4.18809,-6.32888,2.54149,5.0207,-6.58538
2.81968,0.204644,-6.40607,9.47225,5.41199,-6.38919,10.195,4.68177,-6.48271,10.0804,4.78162,-5.85766,10.0487,5.42042
1.04109,0.451359,-4.62227,11.1905,-2.75381,-4.79429,11.1133,-3.47934,-4.40634,11.1931,-3.56057,-4.30848,11.2213,-3.57184
1.19253,0.0947568,0.90032,5.60154,-7.74758,0.192782,5.81806,-7.58061,1.48404,5.71692,-7.83119,0.167926,5.63266,-7.48526
9.79616,0.430626,2.51531,5.09625,5.69598,1.22603,4.74489,6.45404,5.27318,2.72086,6.2147,2.81354,5.36173,6.03004
10.7979,0.122826,3.62544,14.7873,3.19136,2.59695,14.4703,4.75001,2.87083,14.4559,4.62645,3.7586,14.2371,4.99618
2.59936,0.0659043,-2.89981,12.8569,3.95514,-2.62974,13.1092,3.49153,-3.59037,12.5869,4.21291,-2.42654,13.0707,4.52539
0.894201,0.0390273,4.44192,11.8503,8.75782,5.11667,11.5778,8.15632,5.09459,11.7185,8.23285,4.58914,11.9054,8.71566
4.77181,0.0136262,5.26685,3.10127,0.738078,5.81584,3.46189,0.938375,6.65902,3.40204,2.55836,6.5872,3.36586,2.5046
8.61932,0.357086,1.10349,9.68015,-5.70943,1.98753,9.88839,-3.79764,2.08563,10.3112,-3.25855,2.08521,8.61599,-4.02029
20.0341,0.280773,-2.81173,4.8474,5.04821,-1.31578,5.22273,6.29843,-2.7698,5.67258,6.17712,-1.55273,6.6666,7.48572
13.9081,0.467685,3.05264,13.6781,6.39033,4.59866,12.6101,8.76019,3.86337,14.0557,5.27677,4.90836,13.2179,5.93656
30.9666,0.306517,-4.33342,11.7181,2.8494,-3.31928,11.7322,0.330124,-4.65917,10.9887,-0.316842,-5.57879,10.6066,1.14828
5.44757,1.38681,5.99929,6.94394,3.01857,4.89786,7.24663,1.81622,5.37905,6.36135,1.91546,5.1373,6.69474,1.91001
28.5499,0.142963,5.98467,9.50132,5.1404,6.61502,6.85151,4.19585,5.26331,8.78982,3.44793,6.76657,6.99858,4.61923
0.439389,0.00511448,-2.46609,13.0793,2.4742,-3.05166,12.6714,2.339,-2.70067,13.014,2.56902,-3.0456,12.7463,2.44355
1.60039,0.200539,-0.272782,12.6386,-6.77012,-0.991785,12.2623,-6.77,0.132664,11.3632,-8.64974,-1.89433,11.9772,-6.18308
7.31027,0.126321,5.54898,6.10495,7.15475,4.19474,6.03275,6.48562,3.88271,6.06177,6.79741,4.53762,6.24663,7.66577
0.576161,0.10427,4.66138,6.55602,8.23481,4.54343,6.33956,7.89774,4.80974,6.269,7.82166,4.68446,6.28283,7.80446
1.39924,0.00313203,4.59407,12.5939,3.66554,4.59073,12.2113,3.46191,4.32673,12.4904,2.92856,4.40518,12.1433,2.9463
1.15513,0.123887,1.64343,15.0031,0.168342,2.38356,14.5548,0.00559174,2.43136,14.2216,-0.191538,2.37048,14.0188,-0.345826
0.327695,0.233868,7.57156,3.03093,6.48068,7.34301,2.86842,6.45702,7.57726,2.69807,6.37696,7.49144,2.75759,6.39917
5.53315,0.128909,-3.99939,12.0486,6.45484,-5.49036,11.2275,6.66372,-4.82293,11.4906,6.12513,-2.94964,12.4831,7.40338
7.05675,0.719604,2.07168,6.76848,8.14289,1.71254,8.87468,8.02779,2.7939,7.86354,8.52436,1.59058,8.84913,8.02937
1.63141,0.0502312,7.91692,4.02585,5.80192,8.0315,2.99382,5.21625,8.02525,2.93371,5.33701,7.98799,2.93928,5.69481
7.14329,0.101647,2.75619,8.19725,-2.57703,2.18739,10.7098,-2.82614,2.10367,10.4959,-3.08335,2.09646,10.7721,-3.01305
11.8162,0.559009,2.50555,8.35984,-3.3437,3.17904,6.49542,-2.13748,2.72772,6.00583,-3.73853,2.87687,6.57077,-2.782
1.98483,0.04061,1.96706,8.03065,-4.23407,1.88052,7.61462,-4.83707,1.71818,8.83683,-4.74449,2.00116,8.22336,-4.16838
1.0956,0.392247,-7.84991,9.13451,-1.84368,-7.64716,9.26376,-0.933603,-7.70414,9.25321,-0.878636,-7.93991,9.13404,-0.784587
1.82565,0.823278,6.15526,9.0191,7.91369,5.58744,10.0948,7.73848,5.4091,10.0339,7.8592,5.77284,10.1137,7.69065


