
4.40516,0.776426,23.0876,13.1012,7.47002,22.4717,11.8121,6.2626,22.5083,11.839,6.11035,22.4268,11.1827,6.26079
3.29752,0.196096,-8.21478,4.93506,-7.65049,-10.118,5.41038,-7.09247,-9.14199,5.17471,-7.65169,-10.0705,5.36775,-7.20569
2.22694,0.121255,11.4835,12.498,-6.02029,13.0529,11.7131,-6.29227,12.023,12.1172,-5.90167,13.0496,11.7033,-6.1912
1.2155,0.502155,-2.12771,3.96786,3.03039,-1.23569,4.25311,3.0751,-1.56334,3.98982,3.24791,-1.39366,4.2066,3.20528
5.97142,1.60402,-9.00965,16.1959,9.35103,-11.2502,16.1434,9.14445,-10.9455,15.4187,9.48632,-11.247,16.4484,9.16131
20.9894,0.466128,21.9671,15.9774,3.24337,22.7596,14.4163,4.93371,22.3215,16.2484,2.00645,22.6019,14.5554,2.79248
1.42343,0.150566,13.7404,7.32284,-1.55088,13.8245,7.08561,-2.19048,13.7139,7.50606,-2.12689,13.8107,6.96916,-2.06102
1.62171,0.0438664,-8.10544,1.14721,3.45043,-6.7936,1.65264,4.10702,-7.24935,1.54953,3.76949,-6.8673,1.58586,4.10901
0.550143,0.227359,-15.0009,16.3266,-3.03735,-14.5441,16.0898,-3.69633,-14.5216,16.3482,-3.52649,-14.4346,16.2633,-3.62363
0.473966,0.205807,-7.05758,20.2167,6.87559,-6.60949,20.4088,6.36832,-6.86911,20.3881,6.38936,-6.74635,20.3955,6.35719
1.87028,0.151843,-11.2132,1.57688,7.24911,-10.9466,1.40425,7.25191,-11.3352,1.9533,7.58399,-11.5246,1.18056,7.44733
1.14025,0.0185749,2.79014,19.8503,1.19028,3.33937,19.7665,1.79949,3.45546,19.7665,1.78023,3.16946,19.9182,0.792969
9.56331,0.188442,-4.9265,12.3904,-8.89086,-4.72865,12.9122,-8.65198,-3.36781,11.8334,-9.96464,-5.01064,11.4748,-10.0987
4.34615,0.3207,-17.7365,16.4593,-0.498393,-18.375,17.6101,-0.379375,-16.4196,16.5601,-1.01864,-17.8483,16.2038,-0.899066
10.2166,0.249008,-11.013,14.657,-6.22829,-13.0897,13.6631,-5.46281,-13.0577,13.1957,-5.99604,-11.9248,13.5666,-6.37858
0.673755,0.190316,10.0722,6.04733,1.13917,10.2702,5.83438,1.4633,10.3389,5.92847,1.43557,10.7801,5.8753,1.52445
5.83474,0.427365,1.88993,9.77126,10.0879,3.48814,8.81338,10.5882,2.12262,10.3068,10.4289,1.02834,9.46711,10.6075
6.76653,0.473225,-14.1801,6.06052,8.32995,-14.9477,5.4536,8.71792,-13.9579,7.14208,9.03785,-13.0698,5.8093,8.71073
27.3896,0.938296,6.47644,10.0833,-2.92077,6.80628,11.0979,-4.76713,7.9778,11.4312,-4.08936,7.49913,11.7959,-4.72833
3.24988,0.00451016,13.0931,11.6723,-6.16113,13.2931,11.3536,-5.85457,14.2622,11.2382,-6.36686,14.0823,11.5535,-6.691
0.938408,0.228255,2.36299,8.66082,-8.65329,3.4676,8.87616,-8.61952,3.75252,8.81893,-8.4672,3.66127,8.73268,-8.45091
0.0326957,0.00165972,-4.36974,1.36974,5.85143,-4.20253,1.41788,5.914,-4.21794,1.44669,5.82991,-4.40514,1.38335,5.7874
20.8942,0.00815135,9.8182,12.1921,-5.21394,10.0707,10.8854,-3.65958,11.6947,11.8902,-5.39923,9.7245,11.2364,-3.98868
4.82936,0.341237,-5.42421,4.23998,0.939842,-5.0326,4.45343,-0.393786,-5.94725,4.01581,-0.549779,-6.26206,3.4866,0.640901
0.365631,0.00522483,-15.1223,11.2605,-7.38842,-15.4891,11.4101,-7.18599,-15.4723,11.0874,-7.29655,-15.5741,10.921,-7.30889
4.151,0.708262,7.68933,14.5291,10.013,9.43799,14.8209,10.5643,7.48433,13.086,10.8606,7.16524,13.1299,10.8821
4.56942,0.216977,5.74363,16.8871,-4.84693,6.78338,14.3581,-5.72559,6.88105,14.5376,-5.77021,6.64,15.3942,-5.46246
0.203534,0.0241193,-15.5879,2.80056,-2.71258,-15.8517,2.85464,-2.71784,-15.9982,2.73918,-2.52587,-15.9265,2.68489,-2.48773
1.2876,0.407567,15.5096,3.91414,7.5051,15.3461,4.01985,5.98977,15.1672,3.90363,6.28085,15.5729,3.97318,6.15561
2.18173,0.164997,2.55132,8.36108,-3.99183,3.15532,8.35799,-4.01146,2.19887,7.69884,-4.09871,2.93344,8.48959,-3.83957
6.68029,0.0104812,-12.0551,7.57294,9.28107,-12.2208,6.79362,9.23241,-10.7223,7.60614,9.69534,-11.8192,6.52344,9.35054
6.70445,0.387655,23.3109,10.302,-4.25352,22.4851,11.0594,-2.92019,22.1619,11.7883,-2.61015,22.2768,12.0349,-2.72151
2.4605,0.0126559,1.41589,20.2937,2.76113,1.60706,20.0802,1.06218,1.08769,20.1961,1.73018,1.84755,20.264,2.9364
1.82246,0.186974,11.434,14.9859,-6.75935,12.2478,15.2444,-7.12544,12.0836,14.5585,-7.13339,12.1047,14.9458,-7.11207
0.65671,0.198464,6.00779,9.96915,-4.14565,6.39715,10.4711,-4.6803,6.18857,10.3324,-4.44964,6.32072,10.3651,-4.35434
3.81611,0.17953,-6.01151,1.05986,5.24233,-9.07635,0.480219,4.5375,-9.04835,0.448864,4.64667,-7.20559,0.654878,5.14815
17.4579,1.18391,-5.46686,14.922,-7.57634,-7.45938,16.1404,-6.27127,-6.12556,16.949,-5.5699,-7.32654,14.3945,-6.9754
5.95855,0.252709,-15.2975,16.4565,8.62528,-13.3345,16.4461,8.9009,-15.6722,16.8195,9.01485,-15.5443,15.9635,8.72165
5.96415,0.211884,-13.271,15.5253,-4.03572,-13.3625,14.8672,-4.60355,-14.4315,15.4762,-3.90992,-13.0725,16.3707,-3.90734
3.56728,1.10717,4.73855,13.706,10.5696,5.22984,15.144,9.48472,4.78752,14.9534,9.53195,4.88821,14.9646,9.51889
3.03309,0.978568,-4.51322,19.2689,8.50877,-4.63877,17.9519,9.61627,-6.51824,18.0132,9.52365,-4.43679,17.8911,9.63154
6.36464,1.00916,12.8409,3.85377,6.6732,10.633,3.59105,6.21982,10.9097,4.0933,5.33915,10.9152,3.84487,6.12008
5.30251,0.179401,4.11711,8.0086,-5.68041,2.49959,7.45753,-5.81679,3.41592,7.94089,-5.30785,5.01951,7.8453,-5.79388
0.2653,0.023022,21.0851,12.5505,9.56469,21.4411,12.7914,9.57302,21.6997,12.6505,9.46498,21.7058,12.5717,9.43946
4.57966,0.2652,-0.109494,7.4939,9.38043,-0.327046,4.75574,9.53616,-0.523212,7.77816,10.0441,0.422982,7.47588,9.32119
6.05055,0.243876,-17.6824,16.7832,8.06603,-19.1717,16.911,5.09403,-18.029,17.8115,6.08361,-19.1424,17.0847,4.83501
6.44236,0.110921,-3.66222,2.94424,8.36188,-1.90437,3.47218,8.76133,-3.17431,3.62221,8.7229,-1.9526,3.82048,8.98304
1.98942,0.128799,-8.95259,3.39081,8.48775,-8.24693,3.42126,8.4834,-7.63047,3.17522,8.42501,-7.9296,3.14448,8.34629
20.4001,0.421069,7.39893,5.52108,3.87161,5.94069,3.06142,5.67534,5.7337,3.44489,5.3465,7.9045,3.31791,5.25554
0.0397478,0.0921195,-0.300235,18.8616,-3.9455,-0.393218,18.9534,-3.98645,-0.459224,18.8251,-4.15225,-0.330727,18.799,-4.1738
6.46173,1.05081,-22.7285,10.6594,5.46988,-21.5437,9.53452,6.71782,-20.8609,10.3387,7.38333,-21.1448,10.0553,7.0422
1.47042,0.667335,6.68402,16.1131,9.65987,5.38147,16.056,9.27807,5.36349,15.9045,9.25226,5.48983,16.19,9.39567
17.2291,0.703401,14.2275,9.25928,-2.54363,14.5374,7.28693,-2.9794,13.139,9.71692,-2.16865,13.5242,8.95155,-1.86325
2.60609,0.651545,-5.8676,6.15989,-6.29195,-6.62507,5.87058,-5.67585,-6.93163,5.70412,-6.46855,-6.79558,5.84689,-6.25707
23.2638,0.201228,-8.14392,5.30664,-6.52002,-12.724,5.70936,-6.21806,-11.4614,5.14888,-4.9948,-12.6426,5.34683,-5.04838
1.68732,0.2534,5.22782,3.54601,5.75831,5.22678,3.52298,5.37851,5.22892,2.99247,5.99715,4.96835,2.95551,5.91988
0.455409,0.0419059,-1.13265,20.4301,-1.6483,-0.534942,20.5066,-1.32628,-1.10764,20.4604,-1.47955,-0.415432,20.5231,-1.37335
3.40012,0.286147,-20.4233,7.31247,-4.10947,-20.6411,7.46767,-3.68074,-20.9362,7.07564,-5.44769,-20.4239,7.94751,-3.94597
5.55781,0.364726,-14.5716,12.3469,9.32885,-14.8579,11.6784,9.29708,-13.1947,12.1262,9.73625,-15.2877,12.7077,9.95073
3.69897,0.338955,3.41524,6.84476,1.63389,3.71687,6.26088,1.9788,2.51173,6.62945,1.56335,4.27547,6.5539,1.18846
6.74223,0.00199272,-2.68083,20.7174,4.10341,-1.37944,20.6669,4.19702,-4.48082,20.6761,5.09217,-0.545646,20.5549,5.01254
0.149862,0.0157296,10.177,4.44507,4.62597,10.565,4.39463,4.84753,10.4074,4.49392,4.7402,10.4866,4.32099,4.83269
6.71598,0.0795953,18.8056,4.04679,1.32041,18.6576,3.28934,2.35543,19.5136,3.3396,2.44266,18.4596,3.59913,1.81953
4.63741,0.111463,-2.87821,5.24053,-1.57992,-3.50857,4.9691,-2.42166,-2.28896,5.2751,-0.801846,-1.9576,5.19749,-2.13121
0.227423,0.027209,-1.41062,18.1617,-5.48218,-1.0878,18.1687,-5.4872,-1.22325,18.0604,-5.63395,-1.09416,18.1059,-5.58755
3.27668,0.226829,-11.8764,0.460833,6.1501,-10.8678,0.237956,5.87664,-11.7288,0.273283,5.0975,-12.5143,0.27232,5.25186
1.43623,0.0504455,5.24514,9.13934,-0.710376,5.39097,9.23001,-1.01089,4.55423,8.82231,-1.2738,4.76438,8.88522,-1.03356
7.80195,0.249619,7.83783,10.531,-2.4981,7.78254,9.64596,-1.8808,8.4406,9.30578,-1.60344,8.78928,10.3558,-2.82434
2.12602,0.124413,21.4901,15.2254,-5.23506,20.7912,15.5449,-4.46425,21.1952,15.5912,-4.26713,21.2779,15.3401,-5.29389
16.7864,0.653153,17.0417,5.98478,0.0972614,16.9917,4.38312,0.637911,18.2473,5.75598,-0.583896,15.6538,4.1062,0.895425
13.3939,0.714693,-5.47382,6.48571,-9.64423,-2.97501,6.79327,-9.77351,-3.7376,7.00312,-9.73163,-2.78534,5.60565,-8.56055
3.96677,0.228769,-5.57092,14.7119,9.77681,-6.89011,14.9317,9.28056,-6.64772,15.0336,9.20038,-7.04613,14.7827,9.48521
2.94066,0.162039,-10.8048,1.40925,7.27079,-9.29308,1.11763,7.73549,-8.75163,1.23318,8.04065,-8.84579,1.12989,7.96062
5.39256,0.015544,21.2578,11.23,1.96465,22.2169,13.3313,1.4974,21.6148,12.0419,1.27315,22.2092,13.2668,1.96015
8.16864,0.270837,9.89112,10.6732,-3.30066,12.162,10.9919,-4.13656,10.8629,9.99558,-2.45758,10.747,10.4235,-2.91368
38.8594,0.593621,-8.94876,12.3072,-7.54547,-5.71988,13.2476,-8.43714,-5.63345,13.9935,-8.05616,-9.66804,13.1463,-7.62353
0.750396,0.0234783,-19.0699,10.9677,8.32566,-19.2863,10.969,8.24787,-19.5439,10.3923,8.64219,-18.8842,10.8643,8.54877
10.4949,0.58986,-5.57559,2.66725,8.18631,-5.44237,3.89078,9.47543,-4.86929,1.99347,8.05775,-4.83507,3.07894,8.51377
0.619788,0.202235,-17.6779,18.9814,3.60666,-17.965,18.5871,4.28417,-17.7609,18.7699,4.2028,-17.6322,18.9086,4.23661
9.5455,0.612648,17.6815,7.61977,8.36986,19.1835,9.19478,9.31018,16.8704,7.2322,9.14649,18.4346,6.72961,8.43267
9.50053,0.447301,11.37,17.1696,-4.85796,11.34,18.2321,-3.6532,10.0874,17.1443,-5.54746,12.0105,17.8141,-4.76158
6.05248,0.254777,-17.137,3.44674,6.95971,-16.3142,4.84267,8.09783,-16.6038,3.23691,7.09643,-18.4762,3.52993,7.39569
31.6844,1.55736,21.0045,10.4577,-8.32387,20.0815,7.54361,-4.69535,19.3967,7.7215,-4.8505,20.6672,7.57993,-5.05624
1.56806,0.11477,13.2478,10.8774,-3.86402,12.4486,10.9726,-4.04285,13.3243,10.4625,-3.63904,13.3692,10.8907,-4.04441
27.9509,0.763216,15.2583,10.855,-4.94596,16.2727,10.6352,-7.5055,15.6674,8.8807,-5.42293,13.5998,10.8405,-4.12823
5.02627,0.36812,20.9929,17.9891,-2.33385,21.1992,17.8638,-0.731711,21.4481,18.3909,0.0187219,21.2832,18.124,-0.466402
9.10297,0.10484,3.43955,13.9562,-7.98644,4.70128,13.7974,-7.56527,4.51937,14.1588,-7.47066,4.20565,15.8178,-6.77542
2.55325,0.265413,21.1646,6.79896,-4.69718,19.5409,7.49418,-4.33421,20.2437,7.20003,-4.3015,20.1019,7.47915,-4.59783
5.57188,0.258387,12.2776,18.2663,-3.7064,13.6077,19.0383,-3.23572,13.0467,17.9615,-4.52538,11.9279,18.441,-3.88405
1.75406,0.437393,14.1259,14.0501,-7.61811,13.3713,13.7189,-7.77478,13.6443,13.6647,-7.70102,13.7369,13.5654,-7.8493
3.08149,0.181039,9.68852,5.43166,3.81585,9.83162,5.33473,4.04701,8.75314,6.12734,3.73836,10.2,5.39908,4.16516
2.93801,0.0375889,-3.49266,18.1456,-3.70128,-0.630971,18.8583,-4.05643,-1.94489,18.6463,-3.87091,-0.71777,18.9247,-4.01547
0.649337,0.00404922,2.64294,20.1177,-0.0394905,2.75543,19.9864,0.606928,2.54372,20.0119,0.580037,2.31976,20.0886,0.29377
0.276097,0.0981284,17.9124,18.2692,7.62878,17.7148,18.4069,7.48932,17.52,18.4502,7.69347,17.6346,18.4242,7.54681
1.54352,0.00877946,15.9235,15.2682,-7.2223,15.6558,14.5807,-7.77405,15.9607,14.4472,-7.85018,16.3408,15.248,-7.18819
5.00244,0.0121211,-11.1671,20.0983,6.56561,-9.48738,20.4397,5.1384,-10.4399,20.358,5.1933,-9.5599,20.3182,5.87445
12.2782,0.1671,1.57783,7.06375,-0.874195,3.93375,7.8403,-0.677988,4.19494,8.33293,-1.2012,0.573822,6.51303,-1.09053
2.50958,0.0989757,-6.42944,5.55288,-8.08441,-6.67418,5.3794,-8.15419,-5.3446,5.95213,-7.37294,-5.09394,5.84383,-7.40705
3.10372,0.197615,13.4363,10.1678,9.61122,13.0728,10.1166,9.95348,13.7586,10.5735,9.60021,14.3322,9.38354,9.80561
8.80076,0.11835,15.1487,13.4275,-8.1504,16.6082,14.3449,-7.90409,16.4395,12.566,-7.93483,14.0481,12.1736,-8.13323
7.49103,0.55399,7.79849,16.2668,8.60565,7.6489,15.8723,9.01718,9.57328,16.5597,9.69865,6.92051,17.1107,9.42244
3.27165,0.222311,-6.82363,3.50018,8.54545,-5.90852,3.30129,8.81224,-7.26915,3.09493,8.34595,-7.61083,3.62441,8.8952
5.93871,0.525962,10.5022,16.5466,8.93373,10.3655,17.8007,9.03444,11.9579,16.4636,9.19795,9.727,16.1218,9.87865
0.231339,0.0205415,-1.80701,20.4915,5.50251,-2.03408,20.4551,5.7895,-2.19163,20.4962,5.56207,-2.02623,20.4648,5.70403
1.69472,0.138371,20.6505,5.83742,1.09756,20.8188,4.97353,0.809507,20.7723,4.55755,0.844689,20.6994,4.46123,1.04196
5.47393,0.34671,4.26204,3.90224,9.03452,4.6369,2.80213,7.13147,4.62982,2.76053,7.00093,4.45968,4.77186,9.39488
4.66365,0.0400812,-5.08445,17.7664,-3.27021,-3.63356,18.1456,-3.55784,-3.31448,18.7281,-3.51087,-3.19226,18.6265,-3.57072
1.49131,0.117139,-21.3633,14.8507,3.88018,-20.9297,15.4967,3.5632,-20.8558,15.5786,3.67985,-21.941,14.3913,3.83526
2.03267,0.318553,20.1308,9.84567,8.66279,20.0826,8.57526,9.04892,20.3377,8.60353,8.97983,20.2881,8.40678,8.9998
0.413988,0.398291,5.20756,15.3381,-6.6917,4.9826,15.8463,-6.4595,5.24164,15.7484,-6.35211,5.15479,15.7683,-6.38494
0.0849419,0.00680878,-22.0138,2.87491,0.244305,-21.7433,2.93861,0.125247,-21.8429,2.83217,0.286114,-21.7293,2.89593,0.187006
2.27027,0.230922,1.42832,15.7142,-7.96604,0.772574,16.3647,-7.51764,0.339208,16.1278,-7.63675,0.301009,16.2074,-7.60929
1.86972,0.185202,-19.25,2.16128,1.17039,-19.1346,1.69639,1.51552,-18.9985,1.93336,1.04611,-19.355,1.78061,1.48999
4.95974,0.143298,-13.2446,14.6031,9.2929,-12.8024,14.2996,9.61916,-14.3602,15.8524,8.80904,-14.6849,15.4155,8.97728
1.6414,0.13864,-1.09809,6.46481,-4.9271,0.511218,6.95482,-4.64548,-0.264189,6.61684,-4.42035,0.188439,6.8045,-4.43371
2.21589,1.44025,18.4441,4.82416,8.59565,17.3397,5.96134,8.44528,17.3866,6.09369,8.4664,17.2791,5.80727,8.47062
2.78713,0.0212305,-16.831,1.05859,2.17402,-17.3705,1.40973,1.57646,-18.091,1.37417,1.92657,-17.3632,0.959958,2.6643
12.8391,0.528132,-4.17244,6.56661,-6.40391,-5.75475,6.20697,-6.42413,-5.7359,5.95154,-7.20062,-3.10371,6.16393,-5.4934
4.75915,0.39371,14.314,16.2832,-5.27721,14.3705,16.0551,-6.2043,13.9221,16.8446,-5.21297,15.6618,16.8685,-5.12249
8.94071,1.08394,22.1259,9.42815,6.46761,21.6872,8.10986,5.80921,21.4786,7.31007,6.35405,21.3948,6.0965,6.92724
6.26507,0.291858,-8.53608,12.0555,10.0191,-9.74388,10.7212,10.0712,-9.3577,11.7088,10.1897,-8.2268,12.5021,10.3837
3.72895,0.242679,-0.289251,17.4563,-4.92076,-0.671789,18.5126,-4.58687,-0.201598,17.2754,-6.35197,-0.216551,17.2539,-6.47705
1.84164,0.4369,-3.05366,1.90481,7.77869,-2.58863,1.90741,6.4266,-2.95994,1.87209,6.03381,-3.35009,1.68036,6.28208
3.90454,0.22168,12.4831,17.1697,-5.00546,12.06,17.2458,-5.19481,13.1733,17.8431,-4.64915,13.4875,16.5479,-6.27909
7.88283,0.0456324,-9.03948,19.5417,-1.574,-9.35981,17.3541,-3.03685,-9.55915,19.8904,-1.02318,-8.51545,17.8263,-3.04387
1.44787,0.00149145,-23.0289,4.78692,4.3934,-22.8236,5.5009,5.02178,-22.5365,5.66022,5.52913,-22.3482,5.48483,5.73664
1.31839,0.00690931,-15.4341,4.27546,-3.96526,-16.5774,4.02285,-3.65751,-16.3176,4.24545,-3.89282,-16.125,3.99448,-3.65637
5.99739,0.449292,14.9457,14.2805,9.36628,15.9044,13.8154,10.0236,14.2067,14.4176,9.92374,15.2065,15.2098,9.30239
6.21904,0.0967984,18.2343,3.63431,6.31712,19.1547,3.20995,6.48566,18.9316,2.84455,5.75213,17.5208,3.54994,5.87674
1.75735,0.205259,5.77576,5.96739,2.95023,6.13951,6.0217,2.76845,6.75217,5.92344,3.00503,6.91518,5.74782,2.64263
6.2938,0.521598,-3.3599,5.78189,8.81443,-2.5894,5.42835,9.17082,-3.21421,6.50746,9.21431,-4.53026,5.44689,9.79528
1.79831,0.150299,-19.2727,13.2256,-3.28299,-19.9395,12.9291,-2.47627,-18.8077,13.414,-3.50027,-19.8538,13.0935,-2.61942
8.2939,0.150161,1.44077,5.73438,2.44571,2.32015,6.50385,1.65365,0.292279,5.335,1.8428,0.686202,5.30201,2.2098
5.73939,0.452643,17.5507,16.1069,-4.39449,17.1003,15.8596,-5.19818,18.2347,16.0507,-4.868,17.7932,17.7476,-3.77984
0.640398,0.541494,-21.0659,6.91153,-5.39266,-21.1367,6.68391,-5.92897,-21.039,6.73393,-5.94282,-21.2608,6.67046,-5.9115
18.8965,0.579775,-11.8929,18.0327,-1.30081,-10.8072,19.1956,-1.65271,-10.7312,18.3964,-2.07587,-9.4298,18.9785,-2.10984
1.07591,0.181432,-6.59626,2.27549,2.33332,-6.20269,2.66091,1.90697,-6.36694,2.68885,1.6755,-6.33447,2.62565,1.93803
10.3516,0.540354,-15.2768,10.6535,8.93904,-16.226,10.7439,9.57719,-13.7535,8.98996,9.61338,-14.7375,11.5618,9.27553
1.55027,0.0218905,23.2192,10.4479,-6.96507,22.6849,10.4344,-8.02818,22.8207,10.2566,-7.56996,22.9656,10.6047,-7.5972
1.6456,0.0369501,20.4084,3.62018,7.39254,19.0187,3.41504,6.88598,19.5871,3.59814,7.44185,18.9369,3.44534,6.97759
1.39841,0.498982,21.3007,8.28728,8.77181,21.8034,7.91278,7.84545,21.7898,8.11319,7.9363,22.0295,8.17406,7.87113
2.75751,0.193444,22.6951,16.311,5.83605,23.0736,16.402,6.60723,22.5057,15.6634,4.83061,22.5383,15.3968,5.47498
15.4346,0.417076,5.89361,18.839,-2.65947,5.56629,17.5018,-4.33891,5.09129,17.5292,-4.34909,6.73545,16.9028,-4.75623
0.674599,0.0529771,-5.2241,5.73293,-4.73986,-4.99848,5.64329,-4.59674,-4.9139,5.34312,-3.8792,-5.05716,5.36261,-3.96897
13.4038,1.77721,21.2062,11.2486,-0.554638,22.1672,11.9056,-2.61533,22.6756,12.6098,-2.80638,22.2401,9.81592,-1.63834
10.4076,0.101789,-22.78,2.50685,3.09163,-22.291,2.7358,0.60088,-22.5279,2.75591,0.765313,-22.0259,2.05395,4.19052
2.43721,0.800635,-20.4889,9.06953,7.50867,-20.5373,8.26913,7.0218,-20.7872,8.19547,6.9851,-20.1988,8.11156,7.24027
0.457292,0.24415,14.5103,15.8767,-6.88899,14.7168,16.0533,-6.17775,14.5756,16.0081,-6.27501,14.4382,16.0037,-6.49738
1.97068,0.0984477,1.55173,18.1188,-4.99411,-0.0213263,17.7531,-4.65292,0.271545,17.6123,-4.84924,-0.0241588,17.6081,-4.7286
57.1054,0.485241,-0.751859,6.38018,-0.722241,-3.33793,5.24242,0.0984588,-2.80927,5.48526,1.1702,0.872692,6.37548,-0.11428
2.49507,0.0751023,18.8336,6.60655,-1.95801,18.4236,6.68563,-2.11145,18.8057,6.19326,-1.36751,18.1896,6.51981,-1.73427
7.61729,0.595715,-2.94788,7.64884,9.37809,-3.81147,8.13746,10.5028,-0.892296,7.51606,10.1419,-3.21663,6.59947,9.27804
5.29412,0.255047,17.438,11.9803,-7.73193,16.4995,13.0794,-7.96764,18.0477,12.0981,-8.08773,16.58,12.3287,-7.90485
0.735756,0.422385,-4.73802,10.5556,-10.5892,-4.22732,10.1056,-10.747,-3.9711,10.25,-10.8164,-4.17174,10.2137,-10.6905
0.49762,0.133142,14.0215,11.4584,10.0629,13.5795,11.5735,10.0239,13.6708,11.6897,10.2072,13.5796,11.6458,10.0919
1.05784,0.0169753,8.65825,11.7266,10.651,8.99989,12.5206,11.0267,9.11627,12.5386,11.0439,9.0869,12.1025,10.8609
1.31162,0.377566,23.1771,11.1134,-4.59747,23.0604,11.9185,-4.39909,23.0372,11.7936,-4.37765,23.1306,10.7967,-4.14574
2.36993,0.144023,5.05008,15.8821,8.983,4.71838,15.1165,9.39073,5.02328,16.2602,8.96961,4.59068,15.2169,9.30844
1.66115,0.0957296,-20.1529,14.457,6.58042,-20.484,13.8169,6.67882,-20.011,13.7155,7.12839,-20.5015,13.3009,7.06842
9.07361,0.182595,17.8675,18.632,6.62871,19.5137,18.8639,5.75849,17.7644,19.5804,5.30741,16.4393,19.5124,6.10626
1.34962,0.22248,-16.1686,3.22414,6.93371,-15.5835,3.05529,7.10754,-15.8148,3.22642,7.08104,-16.4528,3.63721,7.54402
9.534,0.172084,8.85056,18.0993,-3.99161,7.91276,16.6904,-4.82391,8.4093,16.5859,-4.98302,7.62847,17.3793,-4.3682
7.15737,0.380006,-9.95805,5.97002,9.10072,-9.99397,6.67007,9.46122,-7.41409,5.59797,9.63055,-10.4799,5.48559,9.46544
2.57011,0.203922,-5.62456,17.7065,-3.23594,-5.59444,17.4608,-3.68196,-5.21545,17.7231,-3.2591,-6.29938,18.7745,-3.13285
5.69543,0.368243,-0.556519,14.0848,10.1703,-1.32443,14.2845,10.6894,-0.402556,14.8305,10.0432,0.550808,13.2842,10.9504
0.286348,0.0306834,-9.06949,20.3496,-0.155104,-9.14307,20.2967,-0.337565,-8.43454,20.1455,-0.965699,-8.47235,20.3361,-0.48946
3.58671,0.292314,14.8081,5.20084,4.02956,14.4253,5.00053,3.88192,15.5674,4.66476,4.44333,14.6759,4.81054,4.54204
1.43189,0.169139,-2.95336,18.815,-3.60103,-2.19887,19.5411,-3.06692,-2.3384,19.3135,-3.38633,-2.08142,19.5143,-3.16683
1.37837,0.34314,-21.3075,7.65026,-3.44426,-20.8165,7.38766,-3.66272,-20.759,7.50924,-3.59959,-20.7998,7.89777,-3.51285
0.913505,0.147373,-7.94621,13.5099,10.8996,-8.30197,12.7227,10.4752,-8.28127,12.593,10.4062,-8.17124,12.6004,10.4532
7.2879,0.4216,-5.52406,16.7879,-4.46465,-4.72882,16.7122,-6.22338,-5.35006,17.5111,-3.51358,-6.21895,17.2535,-4.35918
2.40505,0.599218,-3.3599,2.42854,8.23457,-4.30983,2.91292,8.28725,-4.68411,2.65957,8.20654,-4.54471,2.65467,8.13375
0.582864,0.0269038,-18.7587,1.48432,4.56488,-19.119,1.5231,4.95657,-18.7566,1.447,4.77797,-19.2348,1.5529,4.88609
2.8915,0.057462,14.2074,10.0287,-3.82694,14.2561,9.30781,-2.98243,14.6061,10.3404,-4.39022,14.0892,9.8012,-3.38715
12.0089,0.487882,22.2305,13.0798,-0.587143,22.0986,13.0603,1.29973,22.4221,14.3493,1.35502,21.7071,12.3257,0.251682
3.81276,0.52414,19.8803,7.13501,-4.02052,16.9149,6.88177,-3.71522,16.2757,6.71165,-3.32171,18.5749,7.32797,-3.74927
4.73435,1.14765,-22.3202,14.0196,-1.13315,-20.8384,12.5017,-1.42664,-20.9409,12.2216,-1.49021,-20.9585,12.4844,-1.34831
1.05096,0.0327831,22.7361,14.5515,4.17325,22.6726,13.9618,3.45794,22.6817,13.9554,3.54617,22.6443,14.2978,3.39915
2.31046,0.218423,0.871042,13.7446,-9.12802,0.51951,13.0518,-9.49666,-0.191275,13.3229,-8.84366,-0.181905,13.1369,-8.94068
3.43951,0.676995,-10.0353,8.47269,-9.30235,-9.80987,10.9113,-9.171,-9.956,11.031,-9.11213,-10.2223,10.7026,-9.20177
27.3464,0.499434,2.37629,5.72576,2.70899,1.05868,4.29437,3.04952,1.70235,3.53244,4.40706,4.6607,5.73934,3.02462
3.8283,0.0156135,3.479,18.9062,8.31069,3.7629,17.7583,9.38584,4.31704,17.8638,8.95638,3.06223,19.0311,8.44226
3.85227,0.143351,-0.140928,6.3857,-3.66178,-2.1171,5.44716,-2.87284,-2.00373,5.28776,-2.37942,-2.35084,5.19637,-2.48867
16.1482,0.319813,-19.7994,8.61381,-4.77909,-17.6429,9.28372,-6.49817,-20.097,9.08983,-4.7453,-19.6975,7.69814,-5.75257
0.997166,0.358148,-9.25488,17.229,9.73194,-9.83451,17.3642,9.76209,-9.65022,17.5106,9.59967,-9.99092,17.4493,9.89824
17.5423,0.23737,3.72847,12.453,-8.16346,1.40799,11.5108,-9.11116,2.15404,11.0951,-8.12826,2.42418,11.1294,-7.91644
6.27528,0.359627,15.7626,5.98965,-0.317411,14.8112,6.18906,-1.43626,14.07,5.50296,-0.507763,14.254,5.27854,-0.134817
0.047471,0.0181449,-9.6829,13.3692,10.8325,-9.55083,13.622,10.8303,-9.73488,13.4113,10.8247,-9.65244,13.5573,10.814
1.36612,0.2195,22.4916,14.0117,-2.85716,22.4562,14.4783,-2.61644,22.8789,13.7745,-2.95158,22.9244,13.6632,-2.94384
24.5093,0.0820791,12.9101,7.99703,0.321942,13.5402,8.8224,-1.7671,13.6867,7.31605,-1.41596,13.3079,7.25739,-0.231495
11.0335,0.102007,-9.11741,7.67842,9.28966,-9.1328,6.34225,9.37141,-7.36849,7.50796,9.70591,-8.26027,6.13581,9.52562
35.0805,0.468906,12.6578,14.8107,9.70156,14.8081,15.4322,9.40005,14.2058,14.5725,9.82953,14.8155,17.7096,8.72415
4.30399,0.239071,19.2992,17.6935,7.62149,18.1401,18.5202,6.7125,18.3542,18.0511,7.84029,18.2259,18.1172,7.73072
9.65146,0.519349,1.58882,14.1809,-8.1156,2.38306,13.4096,-9.04667,2.45324,15.9589,-7.77421,0.776871,14.9808,-8.33217
0.746984,0.148793,4.64366,12.6314,10.8634,4.75026,13.3989,10.7614,4.6041,13.7028,10.6002,4.53526,12.9986,10.8542
3.04902,0.00323147,7.48702,14.5482,10.0541,7.58695,15.8727,9.03424,7.81226,15.1939,9.57765,7.90037,15.8737,9.05461
6.0643,0.373526,-14.2094,3.28509,7.5154,-14.1156,4.63987,8.90435,-14.5082,2.72888,7.60394,-12.9942,3.04021,7.72296
0.744637,0.754042,21.4547,7.30313,-5.18326,22.2791,6.98632,-5.05595,22.2608,7.04867,-5.13119,22.2465,7.09375,-5.19291
1.97135,0.0608487,8.71359,9.39799,-1.85968,9.41296,8.98868,-1.82427,8.25775,9.03825,-1.3165,8.49264,8.83374,-1.19382
0.806002,0.118311,-13.1486,20.4138,3.05052,-13.5789,20.2986,2.84542,-13.8502,20.3112,3.06553,-13.8306,20.3146,3.19001
7.2667,0.566533,15.3355,9.64331,9.07738,15.5709,10.4385,9.55345,14.4765,9.43692,9.72456,16.9883,8.43952,9.65961
0.000135217,0.0273771,-13.1458,19.3274,8.38375,-13.0253,19.3848,8.30858,-13.0624,19.3347,8.36478,-13.0008,19.3194,8.42024
3.7723,0.312326,-12.4833,12.2177,9.40699,-13.0564,12.0209,9.69166,-11.7734,13.4371,10.0581,-11.9449,11.8622,9.61615
1.35004,0.412515,17.55,6.87328,8.60029,17.099,6.18608,8.43491,17.2576,5.95136,8.4442,16.7864,6.14666,8.52686
4.55234,0.338822,2.30915,17.7104,-4.49572,1.80065,18.2429,-4.60369,3.06899,18.3165,-3.83646,3.03849,17.4982,-5.05821
2.00691,0.501184,1.42986,12.9266,-9.64145,2.05597,12.523,-9.25431,2.14034,12.7431,-9.1207,2.53453,12.8076,-9.05723
17.7299,0.25808,-12.1041,8.51898,9.4099,-14.5177,8.27212,9.71767,-11.397,9.63964,10.302,-13.8347,7.23403,9.08317
2.27154,0.327043,-20.0084,12.884,-2.4079,-20.7166,12.5178,-1.51741,-20.7735,12.5103,-1.47272,-20.8307,12.2556,-1.53325
3.85906,0.503135,-11.0182,1.36793,2.07785,-12.4592,0.968332,1.96487,-12.1138,0.907327,2.99636,-12.3241,0.997171,2.19866
9.42755,0.457643,0.459707,4.10683,4.5677,1.30247,3.2509,5.00427,-0.410462,3.59455,4.39211,-0.236725,3.23107,4.87584
2.4959,0.466784,-9.36618,7.72894,9.38822,-10.257,7.67401,9.41944,-10.3369,7.40008,9.48864,-10.4718,7.38234,9.57875
1.36097,0.446619,-21.2153,13.4819,6.5121,-21.422,12.7902,6.54056,-21.3482,12.7753,6.62997,-21.6666,12.7601,6.37836
2.57059,0.127622,18.9227,4.51066,0.778662,18.4504,4.72956,0.364518,18.354,4.18657,1.02341,19.4108,4.38102,0.685817
0.158981,0.0472345,-14.2522,19.6023,-0.302467,-14.2253,19.7934,0.0566983,-14.4396,19.6922,-0.0687537,-14.1033,19.8154,0.0316391
11.5626,0.209997,-0.611456,5.36535,2.11347,0.527579,4.97201,2.30009,-0.0539159,3.75699,3.71416,-1.05184,4.2841,3.04954
5.73487,0.4604,6.25477,9.66596,10.0463,6.74577,10.2285,10.3862,5.5674,9.57351,10.6437,7.48387,8.41418,10.3909
0.0155172,0.00534159,16.4677,19.0449,7.08768,16.5178,19.0151,7.12898,16.5182,18.9346,7.32653,16.3955,18.9861,7.24294
2.32661,0.0564691,-21.6957,14.7285,1.50967,-21.3412,15.2698,0.658808,-21.9119,14.5357,2.27281,-20.9883,15.6954,0.824945
0.85834,0.105352,-6.65974,20.6937,2.70054,-4.91019,20.763,4.5233,-5.89017,20.7208,2.70942,-5.8736,20.729,2.83431
2.44564,0.0105263,19.0343,8.00641,-6.26297,17.6256,8.69758,-6.99143,17.5886,8.65845,-6.93183,17.6,8.58661,-6.83419
37.863,3.04554,18.8937,7.2076,-3.41205,15.7168,6.32969,-1.18687,20.6441,4.98766,-0.217133,16.9315,6.51707,-0.844338
0.416473,0.120904,16.4908,19.305,-2.47404,16.6538,19.5169,-2.12254,16.5418,19.6506,-1.88995,16.4273,19.7181,-1.83004
0.704287,0.168664,-10.3601,2.60029,-1.33271,-9.5225,2.77072,-0.98464,-9.91223,2.56579,-0.849785,-9.8014,2.62794,-0.918463
1.8763,0.241071,-5.09044,15.6765,-6.97092,-5.7507,15.8244,-7.04681,-5.26701,16.339,-6.7319,-5.51767,16.3783,-6.65666
1.35137,0.557482,-8.84059,14.7039,10.15,-10.2566,14.7266,10.0928,-10.2878,14.7944,9.96678,-10.1748,14.8975,9.90187
2.01759,0.00403245,3.40138,20.1556,-1.90303,3.87662,20.1156,-2.21608,5.00471,20.0984,-1.492,4.98775,20.0933,-1.61684
0.805453,0.00874525,-21.6909,5.17438,6.39473,-22.0417,5.13749,5.99756,-22.2632,4.7357,5.58811,-22.2396,4.61195,5.56568
11.2715,0.0918082,-19.6529,1.66802,2.01808,-19.5836,1.60126,4.52309,-20.2253,1.75887,4.84428,-18.8995,1.42862,3.9172
6.05391,0.425322,-13.5926,13.8785,-4.78043,-13.4627,13.5,-5.52426,-12.9044,14.7873,-4.85027,-14.5268,14.2102,-4.93452
0.644697,0.0410943,21.5694,18.649,4.518,21.1005,18.6793,4.13849,21.2283,18.6619,4.12057,21.0271,18.7108,4.27596
1.64222,0.208375,-7.46955,5.26564,-8.35962,-7.01021,5.40864,-7.78365,-6.74183,5.29166,-8.71174,-6.90382,5.42298,-7.92587
6.61547,0.249865,12.3239,4.03053,7.64277,12.3776,3.71286,7.28768,13.8727,3.82124,7.86258,11.7701,3.96438,8.69503
25.9444,0.759264,-15.8905,12.9084,-4.16716,-14.5334,11.8566,-7.24799,-15.2154,14.4986,-4.34737,-14.8758,11.9276,-6.9415
1.85861,0.939683,21.1642,15.0891,8.71394,20.3134,15.6519,8.13375,20.2456,15.6347,8.13544,20.1215,15.6234,8.15453
6.66447,0.928366,-20.5911,8.04873,-3.65133,-19.7584,10.613,-5.04526,-20.6138,10.1556,-4.58346,-19.9472,10.6305,-4.93626
20.3859,1.18393,-8.49043,2.65252,1.09343,-9.54884,0.885267,3.43921,-10.9232,0.998793,3.02898,-10.7552,0.910204,3.3912
0.972865,0.549871,-2.70313,18.0936,-5.22906,-3.02258,17.7135,-5.51054,-3.19478,17.8004,-5.459,-2.85633,17.686,-5.72546
5.55764,0.317661,9.86947,20.3438,-0.682357,9.76981,20.3552,-1.58186,11.2075,20.5234,-1.15213,9.55931,20.2923,-1.75077
1.6142,0.0867791,-17.7215,18.2292,6.1176,-17.9724,17.9008,6.06822,-17.6314,18.5694,6.27314,-18.0663,18.1214,5.37264
0.531194,0.0255258,14.9982,4.39927,3.48138,14.7849,4.36491,3.15183,14.9582,4.16022,2.90727,14.8174,4.2622,2.97811
6.09404,0.208133,15.6515,19.8179,5.59048,12.5781,19.1653,7.42645,14.4451,18.8947,7.56817,15.7471,19.3125,6.73539
6.53624,0.180519,5.08332,18.4741,7.91657,4.8288,19.0767,5.70926,4.70981,18.1036,8.31503,4.66008,18.9739,5.9504
1.48771,0.768867,-19.1542,12.8149,-4.12819,-19.0273,11.7332,-5.05852,-19.4245,11.8029,-4.74491,-19.3038,11.7596,-4.83661
4.97891,0.292438,-7.14603,2.98184,8.32046,-6.42524,1.32144,8.25223,-7.32971,1.18575,8.08253,-7.11177,2.22804,8.06923
0.385544,0.0388715,4.77033,12.5409,-7.88988,5.11286,12.4984,-7.78186,5.16714,12.6581,-7.79083,5.04054,12.6904,-7.84983
1.63291,0.380831,1.30376,6.09125,1.57398,0.604423,5.7231,1.32464,0.980741,5.92332,0.703995,0.746755,5.8428,1.18629
3.69724,0.092396,-14.158,9.48204,-7.59776,-12.0346,9.9455,-8.93628,-11.9913,10.1459,-8.95949,-12.0973,10.1319,-8.88669
2.37152,0.240345,-21.0092,2.02755,2.71674,-20.8569,1.75073,1.93259,-20.6276,1.82457,3.42705,-20.5223,1.78212,2.52169
3.0537,0.194139,-8.79527,16.2522,-5.4631,-7.09247,16.5599,-5.76579,-7.13482,16.5797,-5.69258,-6.61003,16.4997,-6.11391
2.01537,0.123949,-19.2277,14.2655,7.31036,-19.0705,14.8885,6.87169,-18.987,14.3804,7.62567,-19.209,13.0709,7.9141
1.88922,1.00742,-8.08442,0.44712,7.53579,-6.69291,0.791479,7.70616,-6.49844,0.728057,7.60757,-6.1658,0.52004,7.50942
5.28593,0.278337,-3.69896,10.0371,10.2524,-4.32568,10.2756,10.4747,-3.25498,11.0953,10.4381,-3.14284,9.08853,10.6659
0.510044,0.204416,20.8763,5.05082,-0.333353,21.5554,5.55055,-0.762906,21.1526,5.3959,-0.798549,21.4027,5.49473,-0.846418
17.5207,0.59392,19.3016,11.9717,8.67043,21.9885,11.8193,8.76872,19.5191,10.5031,8.77719,18.8603,12.2897,9.49127
28.7874,0.808871,5.27428,5.57852,3.96571,4.98807,7.01981,0.579024,4.66987,6.73084,0.979471,5.32991,3.55659,5.38962
5.35131,0.267508,10.8621,7.55045,9.1297,10.9942,7.85725,9.38684,10.4071,6.93196,9.41942,12.8972,7.05665,9.40384
2.60763,0.263768,20.7048,11.7513,-7.93896,20.4805,12.5447,-7.50907,20.8851,12.6148,-7.44774,20.2249,12.1375,-7.9133
2.42579,0.606504,1.56607,17.4905,-5.83746,2.55688,16.6295,-5.78426,2.40585,16.7059,-5.71499,2.37781,16.8848,-5.52188
1.65737,0.373592,3.58415,12.637,10.3449,3.95914,13.4377,10.7912,3.61047,13.3521,10.7332,3.82478,13.5486,10.7699
7.86429,0.389363,-4.70972,13.1237,-7.95455,-5.38342,13.1183,-8.5421,-2.92816,13.6787,-8.15302,-4.78608,13.7485,-7.71286
10.5393,0.388466,18.5818,20.2314,0.414174,16.8856,20.5309,2.64566,17.1377,20.4247,1.8282,17.8298,20.1257,2.77176
12.228,0.346406,-12.8429,19.1019,8.71554,-10.2866,19.1265,8.28481,-9.56018,18.3833,9.18564,-9.97017,19.5778,7.77621
3.86924,0.0954141,-21.8018,14.3902,2.79779,-22.5633,13.551,3.12211,-21.6783,14.8815,2.25792,-22.4083,13.6735,3.26649
0.58781,0.704108,19.397,9.24687,9.23755,19.3941,10.1373,9.09007,19.2736,10.122,9.13124,19.1735,10.0646,9.2455
0.113139,0.00950294,-13.4335,17.9469,9.54374,-13.4931,18.517,9.20494,-13.496,18.1014,9.42995,-13.3096,18.4961,9.27116
0.142789,0.0647569,-14.5488,17.5512,9.44271,-14.0569,17.6102,9.50463,-14.056,17.4833,9.51176,-14.2823,17.4619,9.45207
3.66622,0.0266081,4.39324,7.10468,9.37635,4.27455,6.26107,9.37672,5.2216,4.72736,9.29131,4.46757,5.20301,9.37116
1.3326,0.156964,-4.72011,5.30932,-3.44309,-5.46085,5.10591,-3.42004,-4.46502,5.32211,-3.7514,-5.54993,5.0217,-3.28992
5.45169,0.299567,11.1302,18.3983,-3.18509,10.2665,18.6421,-3.75778,12.3442,19.577,-2.63123,11.096,18.1851,-3.61563
4.40987,0.185934,-18.3065,7.86207,-6.64369,-17.5606,8.80009,-6.86687,-18.7175,7.8313,-6.59241,-18.0164,6.87326,-7.93429
5.70632,0.189976,-1.7269,8.84176,-10.078,-4.15566,7.67809,-10.0967,-4.62316,7.6864,-10.2243,-3.44248,8.33612,-10.3938
0.943291,0.0582446,3.17465,3.33008,8.09407,3.24299,4.08513,9.24163,3.03503,3.31782,7.98706,3.36846,4.09309,9.22923
0.286676,0.0408207,9.20916,16.9805,-5.35213,9.8098,17.2315,-5.39429,9.78094,17.1037,-5.51498,9.44869,16.9569,-5.53369
2.42718,0.245904,-12.7391,1.02733,3.20788,-12.3158,0.798454,3.27479,-12.5264,0.910634,2.79987,-13.3802,0.707604,3.17481
5.97212,0.352391,-7.66503,7.94252,-9.79609,-7.89307,7.72009,-10.0876,-8.83461,9.25498,-9.99259,-6.77299,8.41756,-10.4069
2.74498,0.0405159,-2.36138,20.172,-1.8656,-1.33419,19.7972,-3.01701,-1.45489,19.7805,-2.99857,-1.96143,19.5613,-3.1838
10.9577,0.342501,-8.58792,3.44508,-0.686267,-6.54933,3.77283,-0.487217,-7.4736,3.75182,-1.60703,-9.3609,2.63275,-0.193941
2.0986,0.0897856,-3.84835,15.302,-7.65835,-3.31317,15.1068,-7.59603,-3.13781,14.7636,-7.55479,-3.01023,15.9035,-7.47526
0.454628,0.0759339,8.45434,20.5083,-1.21431,8.42008,20.3568,-1.59084,8.14186,20.3761,-1.50344,8.15301,20.3411,-1.68051
12.5429,0.213419,18.0981,3.35213,4.62488,18.3922,2.74437,3.66748,16.6954,3.7084,4.03077,19.3535,2.49242,4.80785
39.5709,0.290945,16.2902,11.1673,8.94668,16.3544,12.4867,9.97153,18.6537,10.965,9.11149,17.4126,12.8193,10.1216
1.14001,0.0068369,-7.00631,1.98172,3.1667,-6.42162,2.22747,2.70222,-6.40634,2.21017,2.79548,-6.66354,2.18754,2.60908
6.46439,0.119958,23.7203,7.23022,-3.46935,23.7621,8.83571,-4.39745,23.5625,9.35622,-4.27682,23.2458,9.52297,-3.61064
4.51723,0.033567,-18.7623,1.21706,2.48374,-17.3986,1.52665,1.26825,-17.8707,2.05105,0.144192,-17.7975,1.79432,0.739144
0.0612578,0.0441147,2.62479,14.1515,-8.58441,2.78455,14.4659,-8.53626,2.69702,14.1515,-8.60274,2.81118,14.3407,-8.53759
6.01289,0.472395,18.03,3.70008,7.15146,16.4226,4.08859,7.24914,16.6728,4.07991,6.76989,16.6609,4.04312,6.00566
4.13278,0.194924,2.15675,11.72,10.182,1.6891,11.9856,10.616,2.78482,11.8594,10.0927,2.1419,10.4924,10.4383
5.93478,0.0615432,9.37789,10.4595,-3.01163,7.79467,10.8989,-3.42405,8.78467,10.1916,-2.70922,8.86777,11.5454,-4.33867
6.34597,0.405131,-10.062,10.0042,9.86027,-9.77151,10.6458,10.0613,-10.7653,9.87383,10.3802,-8.59739,8.99348,10.4973
0.550874,0.0209953,-16.1057,15.7046,-3.53401,-16.6157,14.956,-3.95606,-16.6245,15.0925,-3.88679,-16.5621,14.8996,-3.98305
6.85808,0.467128,-1.51465,15.141,9.29702,-0.682122,15.1019,9.79797,-2.0994,14.9091,9.7295,-1.75323,17.0728,9.84831
3.40781,1.19524,-11.0576,4.69755,9.27711,-10.7876,3.55545,8.22257,-10.5389,3.45867,8.22955,-10.996,3.56843,8.22626
2.3784,0.555439,23.2434,14.4784,7.07361,22.7227,14.6208,5.38612,22.717,14.8414,5.89294,22.7198,14.6559,5.57492
1.14649,0.0630937,-2.07039,19.5889,7.9111,-2.8048,19.671,7.765,-2.79254,19.5731,7.93367,-2.71408,19.4149,8.19653
11.884,0.58889,20.49,8.29841,1.13601,20.7887,9.8862,2.28353,21.0465,10.6276,0.603154,20.639,9.62834,2.18972
18.7726,0.395058,-19.1766,3.76341,-1.53974,-20.5479,2.86902,0.35957,-22.1884,2.75731,0.466057,-20.5714,2.54346,0.817257
4.69729,0.256825,-6.82451,5.93403,9.44461,-7.29759,5.73767,9.58194,-5.54089,4.4705,9.75204,-6.51567,6.67206,9.88632
2.85302,0.186263,20.4102,3.86335,5.67145,20.6637,4.60494,4.65636,20.6191,4.38556,4.6229,20.7322,4.72587,5.24237
2.65269,0.054886,20.3828,3.72758,6.18458,19.8997,2.85882,5.01671,19.8286,2.67033,4.99267,20.1309,3.24063,6.01847
0.573781,0.701492,2.11542,14.0885,10.918,1.5071,14.4056,10.5933,1.47354,14.3441,10.6627,1.5378,14.5021,10.5345
1.58507,0.397701,-13.4766,9.07156,-8.51529,-13.0441,7.46104,-8.7949,-13.1651,7.4037,-8.77083,-13.2872,7.42766,-8.75604
1.84412,0.0808393,-21.0655,12.1354,-1.54061,-21.2689,11.8103,-2.36029,-21.4688,11.845,-2.23993,-20.8434,12.1341,-1.7847
2.02451,0.125653,-7.79119,2.56569,1.46717,-7.15539,2.6355,1.18679,-7.66446,2.05005,1.91365,-8.38558,2.30471,1.58476
2.46189,0.0554096,-15.2033,1.82809,0.0013225,-15.8696,1.87824,-0.0619679,-14.6581,1.47876,0.485115,-15.8651,1.42333,0.935061
3.11217,0.171981,21.2627,7.40442,-0.503203,21.5517,7.98115,-0.55913,22.2475,7.3369,-1.33081,21.9889,7.68203,-1.04287
1.42149,0.00867772,20.7926,19.0578,1.03531,21.3938,18.7629,0.147973,21.1827,18.8902,0.315937,21.0452,18.8876,0.869279
0.869217,0.0378959,22.6545,13.878,3.27287,22.6373,13.5368,3.29895,22.5543,13.2794,2.84521,22.599,13.2938,3.06178
3.85745,0.386988,1.81433,20.4294,4.17227,3.82244,20.0537,4.21909,1.26349,20.4909,3.10438,3.3356,20.1068,3.95929
3.43258,0.208372,5.03338,9.0686,-6.88055,5.40162,9.61283,-7.40041,5.42338,9.12038,-6.44759,4.81435,8.46635,-7.42808
8.17792,1.9815,-5.75209,9.54003,10.6673,-7.14212,7.78516,9.75527,-6.8418,7.46994,9.79,-7.26052,7.76992,9.81141
1.81989,0.148347,23.0267,14.4782,8.66106,22.9955,15.2852,8.2385,22.6397,14.556,8.712,23.2884,15.7051,7.98373
7.86166,0.0672203,8.34421,8.41636,-0.794155,9.63009,8.6837,-1.35173,11.2315,8.12379,-0.575921,10.7904,8.54822,-1.18929
2.03958,0.0777097,-3.63394,5.66213,-4.31431,-3.73964,6.07954,-5.22464,-3.55433,6.15567,-5.34462,-3.19654,5.73014,-4.08841
6.81431,0.370658,15.3649,16.2201,8.58457,15.3543,15.0983,9.31446,16.8802,16.6899,8.8343,14.953,16.7094,8.82128
5.77949,0.299228,9.95705,9.73231,9.9664,11.125,8.97445,10.3329,9.33719,9.9231,10.2307,10.1403,10.6434,10.2767
2.97837,0.220038,11.6909,13.2362,10.8231,10.28,11.2989,10.0243,10.0194,11.402,10.112,10.0603,11.3711,10.0892
20.694,2.76581,4.61423,19.4523,5.18085,4.60762,19.5447,2.06058,5.35021,19.6334,1.76879,5.89179,20.2712,1.35329
11.6255,0.549665,-4.02144,4.6742,1.67275,-5.90858,3.40266,1.38628,-4.36384,3.40206,2.92598,-5.19997,4.03322,1.71918
2.53127,0.705595,-14.4008,8.7184,-8.19692,-14.3571,7.48979,-8.47339,-13.9141,7.35714,-8.63707,-14.5106,7.41017,-8.54993
1.2524,0.0653999,-11.358,16.3887,-4.42459,-12.462,16.3219,-4.10933,-11.8396,16.551,-4.06015,-12.468,16.4822,-3.96046
7.3816,0.445249,-20.6386,15.0224,5.34162,-22.4946,12.5213,5.53727,-21.6219,13.9317,4.93669,-22.0749,13.1642,5.27856
7.68835,0.119955,4.61304,10.6045,10.1459,4.00546,11.5476,10.2059,5.98088,10.3576,10.5302,6.05553,10.2177,10.5364
7.56938,0.184706,-11.8669,0.590891,6.71152,-9.04563,0.191654,6.16001,-8.95053,0.448838,6.88821,-9.38579,0.514755,6.90239
7.13591,0.389211,-20.0656,15.4501,0.28169,-20.6879,15.4612,0.221115,-20.3555,16.3358,0.82233,-18.443,16.2632,-1.13638
1.38669,0.179432,-23.6519,3.29086,1.88409,-23.4153,2.99909,1.90732,-23.2676,2.66209,2.30913,-23.4554,2.8709,1.65879
22.1135,2.35157,12.8032,15.9665,-6.83209,10.955,16.8088,-4.99897,9.76802,13.8163,-7.16292,9.56481,15.5208,-6.81745
8.38755,0.693363,9.0598,7.40273,8.85807,8.27453,7.90174,10.1785,10.3552,7.34892,9.51127,9.06015,6.34218,8.95304
0.228244,0.0112659,-23.7281,8.47172,-1.49564,-23.8191,8.45495,-1.2605,-23.8291,8.28046,-1.30182,-23.7716,8.58899,-1.35057
5.99364,0.559892,-6.45506,16.6253,9.70227,-7.89742,16.2038,9.03224,-8.31116,16.2871,8.92929,-8.71781,16.4877,9.18985
10.4148,0.238402,19.959,17.6818,7.52735,20.8205,17.7924,7.74268,20.0916,18.9425,5.41685,20.9245,18.5883,6.05685
4.41731,0.550534,-9.89145,20.2379,-0.148694,-6.38845,20.7058,1.88881,-7.1272,20.6602,2.27616,-6.36975,20.6965,2.01344
14.2104,1.5957,-22.0198,4.14688,-1.73694,-18.2671,4.50733,-3.11709,-18.572,3.85216,-1.96751,-18.6975,4.36604,-2.48002
8.33452,0.679251,3.00456,11.0637,-8.08015,5.51314,11.3526,-7.43734,5.00225,10.8047,-7.94442,4.96831,11.8713,-7.50774
3.60385,0.00136884,-7.90651,17.3267,-3.02968,-7.84166,18.0903,-2.53732,-7.48139,17.3678,-3.29868,-6.17551,17.8049,-3.89943
1.67414,0.76618,8.56234,11.6721,10.672,8.4499,10.944,10.3719,8.71392,10.9663,10.38,8.28778,10.8647,10.477
0.416608,0.0163253,0.168474,15.077,-8.22921,-0.410188,14.9524,-8.00559,-0.126077,15.1787,-8.07613,-0.415812,15.0843,-7.979
6.55437,0.351498,19.1055,14.2742,8.85744,21.0062,14.0107,9.37789,21.3808,14.0968,9.38288,19.2659,15.3178,9.022
4.74719,0.530587,19.955,15.8098,8.04676,19.4025,15.782,8.72717,20.9452,17.3049,8.1718,20.7439,17.13,8.18943
6.52052,0.999449,9.45563,7.04373,0.45106,11.652,7.03492,0.542361,11.6059,6.6443,0.790435,11.8322,7.34096,0.270295
2.45052,0.791382,-6.88341,6.89999,-9.63957,-5.59242,6.3538,-9.62944,-5.57752,6.22874,-9.63354,-5.68834,6.53303,-9.69014
1.61963,0.0318542,11.5959,20.3292,-1.47929,14.2474,19.7509,-2.07837,14.0643,19.7578,-2.09236,13.0173,20.2101,-1.42324
4.61631,0.591462,-5.38714,5.72816,-7.74794,-4.0696,6.1237,-8.03242,-5.07673,5.34277,-8.67705,-3.78365,5.91509,-8.1343
0.46411,0.0525425,-0.874685,4.58857,9.57493,-1.14309,4.30318,9.2387,-1.017,4.23401,9.16294,-0.888494,4.23159,9.15242
1.40191,0.106126,22.5105,14.3978,1.7878,22.3357,13.3733,2.4483,22.2705,13.2524,2.3333,22.4158,13.7427,2.40352
4.60479,0.183935,-17.2199,4.05677,-3.18375,-16.2455,3.40972,-3.2059,-16.3693,2.86798,-2.55919,-16.53,2.79653,-2.33135
0.555446,0.0584747,-2.69376,1.95439,7.5412,-1.79047,2.09181,8.15923,-1.916,2.0904,8.17687,-2.17063,2.03523,7.64403
2.06781,0.136797,3.1422,11.9537,9.98254,3.48212,12.6171,10.3011,2.91497,11.7981,10.0528,3.72274,11.6406,10.1883
10.8115,0.397741,-5.1928,20.5984,0.285294,-6.17054,20.5926,-0.304585,-4.88315,20.3642,-1.37805,-3.4361,20.0448,-2.22437
3.44652,0.0425129,6.83496,18.4953,-3.20101,6.40136,19.5294,-2.08822,6.89498,19.8651,-1.92905,7.39457,19.1206,-2.74226
2.55981,0.278274,7.98866,3.02953,6.50994,7.93409,3.23222,5.39032,9.15108,3.01819,5.72621,8.90404,3.07036,5.76337
0.463395,0.0178458,-2.26407,11.6664,10.6572,-1.61491,11.9892,10.8814,-2.03464,11.9136,10.7638,-1.65147,11.7989,10.85
7.41513,0.297587,5.78368,19.5282,-0.582937,6.17395,19.9467,-1.42429,5.40823,19.6731,1.76054,4.79394,19.5309,1.97444
0.337683,0.0334476,12.8702,20.6739,3.22492,12.3097,20.835,3.03184,12.5542,20.7379,3.29855,12.3787,20.8613,2.87307
3.14939,0.147387,14.0331,20.4197,1.94109,14.582,20.7471,2.71729,13.9579,20.5019,1.44778,14.0867,20.6354,2.44227
1.06075,0.000787276,-23.8356,11.9424,2.44203,-23.5242,12.7034,2.02605,-23.4913,12.711,2.27588,-23.5356,12.5709,2.46233
1.5765,0.237377,15.4871,4.20688,5.55038,14.4417,4.28133,5.64203,14.9483,4.45167,5.29236,14.9061,4.3963,5.468
55.2823,0.632434,-2.76545,6.15988,-5.20101,-1.07625,6.69707,-8.68695,-0.389803,7.05357,-7.57283,-0.152363,7.14605,-6.71576
3.18286,0.236939,8.7658,15.0835,-6.5035,8.8897,16.1548,-5.80708,8.2809,15.5977,-5.91468,8.76088,16.2876,-5.54531
4.29815,0.514832,-7.84058,18.1535,-2.47401,-7.44501,19.8479,-1.77285,-7.7407,19.6392,-1.81836,-7.3209,19.8191,-1.87089
0.245557,0.0379429,19.0416,3.00109,3.22558,18.8256,2.85013,3.41197,18.6354,2.83475,3.25136,18.6097,2.79593,3.37565
5.00669,0.550116,0.117391,18.3737,-3.65215,1.79264,18.8001,-3.7502,0.44523,18.227,-4.56339,-0.18999,19.2332,-3.59444
4.83047,0.0155199,-13.105,0.336121,5.02431,-14.6737,0.759941,5.30216,-14.5254,0.886205,5.88006,-13.867,0.395253,4.66183
1.06981,0.0060175,-4.43811,1.5392,7.98918,-4.8615,1.89844,8.02945,-4.94374,1.47768,7.98587,-5.23683,1.82221,8.02821
12.9214,0.108747,0.718364,10.4474,-8.93452,0.135796,10.4343,-9.4956,2.17406,11.4776,-8.18963,0.310963,11.523,-9.56399
7.40525,0.312467,-7.21623,5.64672,-4.88246,-7.98707,5.08311,-4.97294,-6.13985,6.02016,-5.61716,-5.64213,5.15446,-3.75429
33.7812,0.968542,14.1826,5.0231,3.99894,11.2037,6.2855,2.68061,11.7248,5.85203,1.79816,11.3185,6.3751,3.00565
1.22966,0.12823,-6.35048,4.71723,-3.1914,-5.53948,4.96045,-3.19592,-6.42674,4.45057,-3.08455,-6.35161,4.69388,-3.4211
5.44744,0.9628,22.3438,13.7063,9.24506,21.6819,15.3764,8.13322,22.0555,15.388,8.02614,21.8254,15.2715,8.11072
0.6252,0.527952,-3.89401,16.3228,-7.01,-4.49977,16.2398,-6.88949,-4.44894,16.2849,-6.82994,-4.38874,16.4928,-6.73921
2.31674,0.181502,-13.6688,16.4573,-2.56628,-13.3423,16.3161,-3.10347,-12.4544,16.503,-3.00598,-12.7,16.5887,-2.85404
8.25806,0.468107,-11.7809,16.4245,-2.92681,-12.9881,16.3598,-3.28059,-11.8387,17.2807,-2.43726,-10.445,16.8657,-3.89367
4.46135,0.0700326,-7.18573,5.5068,-7.12304,-5.99826,5.78995,-7.54507,-6.87317,5.6945,-6.55916,-7.55888,5.14478,-7.6707
0.899027,0.129641,-23.4305,4.82776,2.98251,-23.5771,4.48752,2.9443,-23.5397,5.00127,3.07062,-23.47,4.87603,3.31002
1.23123,0.139755,2.04978,7.44376,-4.9265,3.21216,7.82856,-5.37417,3.30599,7.89507,-5.16775,3.20255,7.85644,-5.02588
1.42163,0.32248,-8.25817,0.433456,7.2908,-8.77934,0.586717,7.2755,-8.87646,0.5962,7.50452,-8.93209,0.47587,7.00367
3.68978,0.124791,22.9115,6.85803,-2.11717,23.3938,7.19898,-2.8439,23.2622,8.24408,-2.82913,23.4869,7.90344,-3.18086
0.29287,0.00986595,16.0009,3.75467,1.23026,16.0599,4.03131,0.930337,15.9318,4.01742,0.970543,16.1988,3.89338,1.03815
5.99653,0.183601,21.5789,14.7516,-5.53068,22.5629,14.7601,-5.3085,21.7777,14.0118,-6.46418,22.8123,13.5738,-6.39463
7.49164,0.11314,15.1,19.995,-1.4581,15.5669,19.1433,-2.83704,16.182,19.7357,-1.84088,15.9743,19.2019,-2.67258
3.50054,0.0559762,12.2817,4.60173,5.06952,13.739,4.49966,5.27945,14.8384,4.49134,5.20541,15.0428,4.51868,4.93525
0.973143,0.243419,-2.11523,14.8585,9.83071,-2.45588,14.8229,10.2293,-2.58095,14.4025,10.669,-2.69061,14.4677,10.605
5.62359,0.893258,-7.20874,6.90413,-9.69919,-10.1023,6.85379,-8.82636,-9.85169,7.0311,-9.23841,-9.40609,7.23074,-9.53992
5.08302,0.0451493,5.26979,10.2535,-7.80119,4.2636,9.5749,-8.48143,4.11527,8.9265,-8.4451,5.52809,9.86485,-7.39842
1.31164,0.107102,-9.22559,17.2322,-3.0854,-9.475,16.9611,-3.26922,-9.34398,16.7003,-3.41631,-9.08804,16.7553,-3.45074
1.42203,0.0776589,12.7099,8.76697,-1.34628,11.3791,8.85182,-1.4148,11.4984,9.05198,-1.50588,12.2738,8.99451,-1.5118
0.529341,0.00701448,-9.26647,15.707,9.48786,-9.08093,15.8055,9.41191,-8.90774,15.6794,9.48812,-9.15597,15.5865,9.55375
1.07705,0.257245,-1.03835,15.141,-7.72235,-1.21027,16.1593,-7.40382,-1.18454,16.412,-7.26363,-0.997843,16.4208,-7.29559
0.179847,0.0416192,22.9486,17.3231,7.93311,22.8075,17.4257,7.87506,22.6401,17.3619,7.93801,22.7006,17.2838,7.95747
1.87716,0.580984,-10.7739,0.204197,5.0494,-10.8873,0.847603,3.46035,-11.2596,0.669166,3.82849,-10.8384,0.890787,3.38975
2.01146,0.348528,13.9368,4.13434,6.02382,12.772,4.17428,5.98057,12.9495,4.3768,5.59859,12.9676,4.3442,5.69819
2.82397,0.0599882,1.6122,3.271,4.79064,3.56785,2.64577,5.73126,3.57537,2.76548,5.53433,3.24089,2.96814,5.23634
0.354574,0.0679422,3.87004,19.0887,7.82415,3.86119,19.2816,7.42115,3.93801,19.2298,7.46594,3.67599,19.2955,7.47607
2.9537,0.027338,-16.3172,11.1267,9.53224,-18.5227,11.1638,8.37959,-18.5343,11.2423,8.36578,-18.3036,11.5121,8.45566
0.466521,0.0800484,-17.7061,17.7058,7.43519,-17.5235,17.7486,7.78685,-17.4487,17.8924,7.74367,-17.4647,17.9717,7.64481
4.34306,0.397491,-5.6731,10.3088,10.1473,-4.37947,10.1416,10.5074,-5.87932,10.8478,10.4915,-6.32906,9.96408,10.6221
3.78924,0.132915,4.67719,9.05495,-1.67778,5.18366,9.35886,-2.38147,4.10147,9.02298,-2.57233,3.79655,8.57212,-1.67567
8.50636,0.0364144,-14.7023,1.34786,0.884905,-14.416,0.747118,2.8216,-15.5121,1.23188,1.488,-15.6177,0.632504,3.36217
0.240801,0.0186794,-9.33,15.0026,-6.6823,-9.6958,14.9944,-6.59156,-9.69472,14.9317,-6.63891,-9.57499,15.0908,-6.5592
0.455498,0.0138442,17.2956,19.8756,-1.3786,17.3023,20.1093,-0.980449,17.6384,19.971,-1.10391,17.4387,20.0926,-0.968104
0.721296,0.0525516,-20.0962,16.7141,2.04347,-20.5998,16.2036,1.98825,-20.5686,16.2671,1.85647,-20.4534,16.4843,1.45803
12.0546,0.10728,-18.2309,1.39965,3.72276,-17.9026,1.42317,4.97487,-18.1849,1.08998,2.83112,-16.435,0.750194,4.11292
7.76235,0.771699,20.705,11.0812,3.06316,21.5444,11.4839,2.58149,21.8229,11.0235,3.44767,20.9041,10.1652,2.40564
6.81731,0.31865,-13.9405,1.86485,7.00077,-13.835,2.43119,7.58951,-11.9224,1.39652,7.51637,-14.2415,1.54301,7.16825
4.1682,0.514532,11.9978,11.5133,9.66698,11.4734,11.8847,10.4033,13.5371,11.5265,9.98275,13.4823,11.604,10.0147
3.63531,0.196984,-5.58492,14.0652,9.949,-5.49535,14.3239,9.86823,-6.2114,14.1703,10.5964,-4.6704,13.5358,10.586
6.11312,0.0808792,20.4268,3.35361,4.14351,20.7982,6.05198,4.85463,20.6355,4.28989,3.98464,20.8499,6.35895,4.64926
4.13885,0.302912,1.39051,14.3887,10.6086,0.135428,15.147,9.64556,0.00471945,15.1189,9.67782,-0.0966164,15.0709,9.75157
0.0195911,0.048861,13.7516,17.1252,-5.24783,13.5915,17.2581,-5.28304,13.725,17.0773,-5.32939,13.606,17.1336,-5.33342
2.78361,0.790483,21.5472,16.2637,-1.26236,21.2611,15.8752,-2.35545,21.7832,15.4171,-1.80187,21.3684,15.7362,-2.11841
10.9264,0.167581,-0.58161,21.1691,3.10751,1.08531,20.5311,2.88622,0.34058,20.4303,1.64291,1.02691,20.2433,1.99309
11.1821,0.253363,-8.48295,4.11528,-2.99295,-7.42903,4.04403,-2.85426,-9.02788,4.51665,-4.40396,-7.12204,5.05176,-4.3247
2.08229,0.0878514,-21.2499,12.2853,6.8651,-22.1733,11.8532,6.0375,-22.5667,12.1402,5.65179,-22.4966,11.965,5.7423
3.08916,0.177499,17.9226,7.90499,-5.14288,18.3758,7.74184,-5.19884,17.2775,8.15937,-5.85927,17.0576,8.04471,-5.70086
1.42045,0.342096,-23.0088,9.99379,5.25646,-23.1879,10.1502,4.84457,-23.1248,10.2889,4.96596,-23.5603,9.54766,4.58795
10.8729,0.373191,5.1644,7.54392,0.434123,6.34778,7.10131,0.460302,6.7081,7.98432,-0.047546,5.34814,8.80508,-0.791532
9.97084,0.443977,15.1994,7.0306,-3.40145,16.5649,6.55116,-2.31977,14.1089,6.25277,-1.81569,14.0907,6.9263,-2.5492
3.57263,1.85007,0.744733,17.3804,9.56375,-0.567948,15.4343,9.5115,-0.686372,15.4189,9.5803,-0.129622,15.2042,9.63435
2.39742,0.415154,21.1729,14.9878,-6.50252,20.3265,15.2319,-6.61834,20.3531,15.0114,-6.77161,20.2998,14.8469,-6.9797
1.73426,0.00682072,10.3339,11.1016,10.0554,10.6522,10.6889,10.3103,11.0762,10.5141,10.4365,11.3228,10.5387,10.4415
1.48414,0.117353,-8.02054,17.8357,9.62363,-6.58822,18.8853,8.88322,-6.60172,18.9477,8.84226,-7.49481,18.412,9.31197
2.17257,0.0139841,12.0074,9.86135,10.1184,12.0239,11.265,9.68777,12.4402,9.27326,10.2729,11.851,11.1704,9.71785
0.757936,0.0952232,6.65958,19.9287,-1.72412,6.79488,20.3043,-1.26834,6.55295,20.108,-1.41328,6.92189,20.3649,-1.29854
4.03298,0.173235,20.9033,15.6622,-4.19753,21.0388,15.7246,-3.35266,21.7642,15.2085,-2.68711,21.1191,16.1042,-2.60143
5.44232,0.323781,-13.3497,10.5145,9.57002,-12.4635,11.4871,9.81518,-13.8791,10.5181,9.83497,-12.1984,9.7124,10.2158
28.2428,0.107444,-17.6808,12.3574,8.66371,-19.1938,12.4006,7.83872,-20.5516,9.86311,7.75781,-20.3252,11.6191,7.36944
2.34367,1.00735,1.83712,6.21757,9.2484,0.624764,6.3315,9.03243,0.606198,6.07347,9.02439,0.487401,6.56529,9.19036
2.19423,0.181691,23.0392,17.8802,7.18954,22.1,18.4238,6.45985,21.5126,18.2701,6.63824,21.7454,18.135,6.91071
0.772279,0.237533,-18.2253,18.7162,0.451213,-18.6214,18.3352,1.3233,-18.8264,18.1342,1.28898,-18.741,18.2041,1.34043
27.7058,2.53973,13.2088,14.0606,10.492,10.2591,14.9774,10.046,9.91871,14.1646,10.708,10.9029,16.0746,9.54117
1.96671,0.114628,10.7068,5.73811,2.70426,9.15471,5.52586,1.96007,9.18777,5.55864,1.77301,9.30915,5.59415,1.75587
1.12579,0.278305,-17.7954,19.1531,2.22313,-18.1036,18.7015,2.26755,-18.2082,18.6625,2.02786,-18.2361,18.6345,2.40776
11.5296,0.114361,-18.5757,18.0817,2.52627,-18.9975,17.2148,4.94157,-20.0204,16.787,2.03264,-18.3846,17.8012,5.30079
10.7488,0.284411,-10.4823,6.84556,-8.43437,-11.8559,6.54198,-7.51435,-10.2623,5.34679,-7.88721,-9.17527,6.08025,-9.33181
1.22768,0.0660242,-3.86669,13.0891,11.0391,-4.68872,13.4638,10.6343,-4.58448,13.5734,10.6131,-4.39531,13.2446,10.8515
3.54256,0.458595,21.0004,6.33341,-2.04559,20.8506,5.95381,-2.45242,20.6222,5.89192,-2.11277,21.414,5.88974,-2.2361
0.6222,0.633994,18.3032,16.1104,-4.81323,19.4329,16.3473,-5.20186,19.4264,16.2989,-5.29054,19.3065,16.4262,-5.11957
0.89943,0.0724493,-1.927,16.3251,-7.05305,-1.74784,16.5586,-7.03821,-2.03705,16.2169,-7.1844,-1.49185,16.1594,-7.39213
2.97603,0.283991,3.01972,12.8305,-8.65619,3.31304,13.6476,-8.24525,4.42111,13.1305,-8.05266,3.2209,13.8099,-8.25261
8.01572,0.504416,1.59238,20.12,6.15747,3.19409,19.8175,6.06759,2.87409,19.7005,6.69714,1.56857,19.3749,8.0308
0.0966896,0.00373506,-2.52802,6.08945,-9.0767,-2.28195,6.11426,-9.09039,-2.23205,6.18582,-9.15576,-2.31376,6.23624,-9.20905
0.309379,0.058304,0.997833,9.55896,-9.00217,0.607854,9.73147,-9.24645,0.553532,9.66139,-9.23865,0.639784,9.51337,-9.10717
2.90142,0.597427,-8.91311,11.8577,-8.36789,-9.68264,10.8317,-9.24788,-9.44638,11.7644,-8.91416,-8.99496,11.4905,-9.186
2.4957,0.500396,4.22392,7.99254,9.62927,3.49529,7.60372,10.0139,4.41192,7.29244,9.43839,3.78156,7.59289,9.68627
1.06144,0.00973822,21.44,7.04188,5.77342,21.1046,6.96712,4.94018,20.9941,6.61076,4.94647,21.3198,7.11286,5.40842
8.00123,0.0451161,-17.5421,12.8553,-3.19774,-18.4747,11.9305,-5.17076,-19.1483,14.7604,-2.91453,-18.3226,12.0132,-4.93252
9.6999,0.426828,-3.92993,6.4802,-6.82018,-3.22176,6.0398,-6.65619,-3.52203,5.55175,-8.37727,-2.82858,5.82974,-7.28916
17,0.684679,-8.41464,16.6368,-3.5818,-10.0908,16.7656,-4.19767,-8.59202,16.7124,-4.98071,-6.64393,17.2564,-4.69328
5.33653,0.42198,14.147,11.4364,-6.51288,15.4952,11.1309,-7.42552,13.5424,12.2258,-8.00559,15.0247,11.401,-7.33201
0.58026,0.0946495,-8.27279,1.03846,3.85593,-8.63967,0.951449,3.9077,-8.52729,0.979084,3.98661,-8.5889,1.02287,3.77315
0.130593,0.00839098,-16.5417,19.0354,-0.430585,-16.9363,18.9,-0.407809,-16.6303,18.8835,-0.52518,-16.8752,18.8473,-0.475479
3.96097,0.0549931,23.0475,12.0489,-4.37388,23.1785,13.3191,-3.64217,22.9003,12.3602,-3.58314,23.2881,13.3453,-3.92102
40.1491,2.43139,-0.24616,2.64326,5.95536,-3.3497,3.97179,2.90247,-4.64578,2.06108,5.09697,-3.38263,3.71647,3.66604
0.42222,0.00814669,20.5828,16.7939,-3.77125,20.2152,17.0163,-3.73859,20.2766,16.8625,-3.88454,20.2482,17.055,-3.67326
0.576568,0.172219,-8.12896,0.184622,5.99883,-8.62939,0.221317,6.19833,-8.46959,0.229955,6.43034,-8.49365,0.240722,6.2977
1.07571,0.208959,14.6807,19.7202,5.89351,14.192,19.3337,6.63452,14.285,19.2859,6.79796,14.1794,19.3651,6.51767
2.25369,0.0706022,-4.97146,4.60032,-1.77025,-6.07485,4.53123,-2.8234,-4.77945,4.79378,-2.49712,-4.86487,4.91809,-2.99438
2.18287,0.015882,8.81698,3.38908,4.94867,8.40445,4.24454,4.3764,8.80083,4.22067,4.2447,8.23551,4.05245,4.61062
0.0179089,0.00811133,-11.681,20.2886,5.81449,-11.8164,20.3103,5.71611,-11.8298,20.2927,5.83539,-11.7035,20.3165,5.67906
1.26997,0.0245065,-6.15705,3.96651,-0.710448,-7.08387,3.82078,-1.85244,-6.7654,3.88188,-1.92564,-7.22634,3.78596,-1.64186
3.12409,0.640597,3.39952,7.53019,-0.272689,2.34681,6.80137,-0.19596,1.5983,6.66954,-0.388116,3.33418,6.87891,-0.135419
5.40501,0.295411,-9.8446,3.62026,8.19669,-8.92377,4.8545,9.46678,-10.4015,3.34892,8.19881,-9.6726,2.5502,8.12079
5.39323,0.494645,6.31891,11.3227,10.1378,6.85707,10.369,10.3897,7.25651,12.3963,10.7332,5.55143,11.1793,10.7178
7.88731,0.0249275,-11.2923,17.5543,-2.44298,-9.9177,17.5372,-3.28009,-10.8905,16.9444,-3.34676,-9.79611,17.9582,-2.87716
0.827253,0.253125,-0.302438,20.0674,-2.78927,-1.30169,19.784,-3.06327,-1.10399,19.7462,-3.30475,-1.23021,19.7504,-3.28702
3.20745,0.227195,-14.6304,16.2597,-2.28614,-13.9222,16.5771,-2.43986,-14.8692,16.6721,-1.84598,-15.2522,16.3035,-2.48523
20.0751,0.304187,-15.7488,17.7957,-0.684478,-12.4417,18.212,-1.413,-16.3753,18.7463,-0.656035,-13.1385,19.1421,-1.06087
13.0244,1.19986,6.48172,3.0865,6.28982,9.66342,2.98515,6.98438,6.48066,3.02389,7.63088,8.34211,3.15365,7.19192
1.23117,0.0620892,-16.4034,4.90471,8.09087,-16.5418,6.12284,8.00007,-16.4013,6.04847,8.02184,-16.6289,5.88891,8.01889
6.96907,0.156102,2.93832,7.862,-6.89734,1.57368,7.55742,-6.38674,1.83597,7.47139,-5.98662,3.93696,7.60881,-6.40086
2.78679,1.56958,-1.4926,5.56337,1.49246,0.0709911,5.68971,1.11617,0.0665001,5.74731,0.891214,0.0778958,5.43233,1.60551
4.81947,0.526159,19.3601,17.5007,-2.99884,20.0709,17.1543,-3.72911,20.6924,18.2107,-2.62646,18.7645,18.3255,-3.25025
0.363288,0.0332615,4.07329,5.21115,3.37918,4.02242,4.9063,3.59968,4.15503,4.92556,3.64802,4.38515,5.07887,3.6157
26.8434,0.501788,-19.6274,3.18266,-0.594542,-15.5025,2.03263,-0.533727,-16.81,2.58528,-1.56445,-18.105,2.26056,-0.124154
4.18726,0.206301,20.2165,10.5697,8.41594,19.9023,11.0952,8.58481,21.8693,10.5374,8.81135,20.1162,9.97828,8.61569
5.09669,0.0531262,-3.18679,4.63875,1.92818,-1.3495,4.6757,2.63853,-2.4702,4.59035,2.33126,-3.21268,4.14115,2.59288
0.61138,0.0315563,-9.12301,19.1517,8.37572,-9.34759,19.4895,8.02248,-8.96297,19.3238,8.29456,-9.43271,19.3434,8.144
6.58259,0.414438,2.2687,18.4643,-3.29989,3.51893,18.5829,-3.36144,2.01414,19.8761,-2.8464,4.37398,18.5386,-3.70096
2.26683,0.810068,21.4332,11.8501,1.01273,21.6087,12.066,0.131151,21.313,11.3901,0.182123,21.4076,11.6557,0.168172
0.705712,0.100212,11.2558,20.6247,-0.335869,11.4614,20.763,0.410346,11.3436,20.7512,0.399002,11.0621,20.7186,0.18861
4.3883,0.468473,13.69,7.78839,8.79116,13.6954,6.91358,8.58649,13.3314,7.63042,9.43983,14.5087,7.41116,8.8154
1.48932,0.120394,7.39524,12.1202,-5.10001,7.59403,12.2196,-5.24837,7.24533,11.4949,-5.10203,7.33605,11.768,-4.863
0.828038,0.191707,-2.68171,5.78762,-3.94239,-1.79589,6.00905,-4.36726,-1.83175,5.92513,-4.17979,-2.01601,5.87259,-3.98599
3.35617,0.107967,-20.1419,5.99679,-5.84111,-19.0063,5.4953,-4.80585,-18.4778,5.79854,-5.48234,-19.4722,6.1465,-6.41602
4.67235,0.130216,19.9545,19.1,4.11657,19.4716,19.4528,3.60205,20.763,18.7005,3.29519,19.507,19.5574,3.25963
2.00427,0.165457,22.8267,7.54114,-5.53551,23.0741,7.07412,-4.79536,23.7191,7.77808,-5.27658,23.5951,7.48645,-4.90454
13.0793,0.456191,-14.7749,6.96739,-7.84152,-17.8272,6.36921,-7.28391,-18.0754,6.1053,-6.20613,-15.7145,6.09228,-6.17974
1.75925,0.0915312,14.3468,20.0899,4.82999,15.2076,20.1815,4.85403,14.0594,19.8959,5.50663,14.0888,20.2259,4.74467
1.51455,0.184942,0.685674,8.19617,-8.66993,0.219138,7.85333,-8.63441,-0.416782,7.70948,-8.97937,1.67198,8.28853,-8.57728
5.00284,0.403059,-2.79749,12.9423,-8.44177,-2.46668,12.0888,-9.7069,-2.83064,12.1915,-9.70082,-1.39978,12.9815,-8.6222
4.26558,1.46642,7.00695,14.2416,-5.6389,7.46282,12.5791,-5.59476,8.30148,12.6941,-6.11737,7.9361,12.5193,-5.58239
6.00425,0.307136,-2.68381,14.2797,-7.4954,-3.21703,14.6616,-7.59187,-3.08006,13.9996,-7.85253,-0.537046,15.069,-7.943
2.29966,0.210133,-9.32285,3.71634,-2.02527,-8.2472,3.84019,-2.18465,-8.13392,3.9581,-2.53268,-7.621,3.75337,-2.20978
16.8875,0.672906,-11.9958,6.50718,-7.37368,-10.7352,5.29521,-6.11479,-10.2364,5.40969,-6.95996,-13.5753,5.81145,-6.2561
6.21648,0.342589,11.5237,12.6698,-6.34107,10.3304,12.9745,-7.19569,10.6551,12.9369,-6.80907,10.3067,12.3776,-5.67827
4.00672,0.142142,-7.57255,11.5334,10.276,-6.71908,11.6322,10.7695,-7.50508,9.63747,10.6809,-7.92803,11.6171,10.2747
16.0556,0.556937,5.84489,11.4071,-7.27864,5.42977,9.4584,-4.93039,5.29607,8.96381,-4.90704,6.03017,10.7264,-6.21212
5.72029,0.361068,-12.7356,16.514,8.66139,-13.2703,16.7285,8.9698,-11.3483,16.204,9.13743,-13.0736,15.6559,9.14876
1.93252,0.112113,-7.00687,2.04289,2.46653,-7.6782,1.71599,2.3711,-8.46485,1.22187,2.73225,-8.4871,1.28509,2.60712
6.00522,0.391853,-5.47807,7.61773,9.59811,-3.73951,7.43507,9.94106,-5.74268,5.91381,9.77174,-5.89701,7.88384,10.0355
2.12258,0.165263,-6.59032,20.1458,-1.5886,-4.4585,19.8537,-2.45192,-4.3277,19.8969,-2.33326,-4.73307,20.0751,-1.95801
5.57191,0.114142,12.1485,14.3616,-7.24116,14.3684,15.6064,-7.21045,13.5779,14.7972,-7.43977,14.1364,15.2323,-7.37957
0.650656,0.0871337,-8.36153,11.7721,-9.05337,-7.27491,11.9399,-9.38255,-7.50672,11.9921,-9.16213,-7.35237,12.0002,-9.25196
3.12506,0.213483,-4.54753,13.7778,-7.77302,-4.84557,14.7443,-7.54176,-4.73304,15.5653,-7.19567,-4.59797,15.5626,-7.21537
0,0.0243777,23.726,8.39507,-5.80267,23.717,8.38637,-5.87404,23.753,8.47343,-5.7396,23.7166,8.46987,-5.79811
7.85938,0.0516295,-16.9848,12.8057,9.63603,-18.4577,14.9363,8.14163,-18.5055,14.6774,8.08509,-17.6772,13.2497,8.8769
6.85371,0.0521518,22.9758,12.6992,-6.03494,23.1299,14.3425,-4.2793,23.1794,11.407,-6.18763,22.8633,14.7159,-4.78711
9.0614,0.435793,-11.2324,3.73197,-3.04575,-9.11166,3.84607,-2.23217,-9.4468,3.69575,-2.01323,-9.24821,3.94838,-3.11187
5.57634,0.238598,18.9452,7.60556,8.22748,18.6981,6.63589,8.35136,18.5553,7.88931,8.50005,21.0531,7.41922,8.45371
0.538623,0.0996036,-21.4111,14.794,-1.65692,-20.4703,15.5096,-1.62969,-20.5901,15.4771,-1.59853,-20.6593,15.2614,-1.75839
3.23152,0.081045,-12.9144,20.2074,1.98087,-14.4842,20.179,2.12681,-12.639,20.3553,2.08723,-14.2313,20.0514,1.64869
7.06849,0.151448,-15.775,4.72391,-4.44584,-12.6166,4.84326,-4.39655,-14.1783,4.43224,-4.0131,-13.6807,5.2586,-5.21526
0.881466,0.237053,-6.326,0.787776,5.4496,-5.34198,0.887296,6.05515,-5.37733,0.844425,6.1102,-5.37945,0.732259,6.28326
0.416772,0.0481958,-22.0992,9.21129,-3.93164,-22.372,9.68154,-3.6379,-22.4417,9.54521,-3.57696,-22.4303,9.42008,-3.60576
0.74261,0.0211397,-19.6505,10.8431,-5.05882,-19.641,11.302,-4.90192,-19.4531,11.4868,-4.95749,-19.4027,11.3312,-5.05784
2.14015,0.046376,-18.1527,4.52933,-3.24785,-18.5957,4.88076,-3.77369,-17.5493,4.34668,-3.60226,-18.4553,4.86333,-3.88781
9.33532,0.257316,-11.3783,11.7036,9.53847,-11.7727,11.92,9.63967,-9.3902,11.853,10.3014,-11.8352,9.99603,10.2751
13.1069,0.0160025,-2.54617,20.533,2.6217,-2.14109,20.8612,3.45464,-1.41622,21.122,2.97043,-1.4804,20.8534,1.36819
1.76842,0.190217,21.0473,10.222,-0.276632,21.1908,10.7511,-0.541462,21.3413,9.91561,-0.409628,21.0839,10.3443,0.34412
2.02103,0.454075,-22.875,8.00796,-3.45394,-21.5619,7.7465,-3.46219,-21.5209,7.54939,-3.58681,-21.4177,7.55585,-3.51658
0.323454,0.0325181,-12.8934,3.99811,8.75413,-13.2014,3.93521,8.55976,-13.3778,4.02958,8.59983,-13.1975,4.06811,8.68833
0.956973,0.805142,15.3824,8.58649,9.86973,14.9746,7.90105,9.66352,15.1379,7.82781,9.65187,14.2246,8.22735,9.84548
4.54367,0.0141086,-11.4015,20.2682,1.45615,-9.34069,20.5058,2.1417,-9.11759,20.4166,1.37666,-11.134,20.4481,2.55628
3.0153,0.27449,3.45807,10.5956,9.99602,3.42929,11.0981,10.1211,4.33146,10.6082,10.1177,3.09912,9.91531,10.6001
1.98108,0.0587961,21.5549,8.66213,-6.39494,22.5762,8.66316,-6.53838,22.1531,8.58446,-6.3663,22.342,9.04094,-6.86236
7.00893,0.454059,22.6189,12.4201,5.23418,22.347,11.5324,3.53247,21.8824,10.7146,4.74796,22.26,11.5296,3.90013
12.3605,1.20154,15.8646,4.5579,4.51702,17.096,3.7157,5.11961,16.5129,4.11301,6.09125,17.4438,3.42487,4.43527
0.617184,0.0900167,-11.9738,10.0014,-8.96266,-11.1604,10.2415,-9.33664,-11.0311,10.135,-9.42199,-11.5199,10.1958,-9.19855
0.910701,0.0138637,-4.2124,20.5135,5.40099,-4.26213,20.4346,5.96055,-3.79762,20.4883,5.59504,-4.10198,20.4217,6.02203
1.76987,0.291128,1.30254,7.41969,-6.15744,0.471722,7.16996,-5.90497,0.345357,7.1152,-6.02219,0.711736,7.34024,-5.95952
8.87581,2.02338,-1.92404,13.2664,11.0043,-3.62528,11.5033,10.4765,-3.12006,11.1737,10.3811,-2.11775,10.7992,10.8202
13.6667,0.707309,-0.911367,12.2823,-8.40167,0.0195447,11.7375,-9.64013,-0.986492,13.5494,-8.32766,-2.14609,11.8942,-9.69182
4.28777,0.235408,20.2656,15.6979,-4.65833,20.281,16.7839,-3.97082,20.8089,15.6097,-4.3356,19.8012,15.9857,-5.71372
1.01321,0.0287169,-2.51724,20.4043,5.98567,-1.6242,20.245,6.62771,-2.85242,20.3567,6.1657,-2.03554,20.1684,6.79449
3.21264,0.652992,-23.2582,13.006,1.95245,-22.4128,14.009,1.10325,-22.3396,14.1843,1.21977,-22.4727,14.1014,0.602487
0.940628,0.231055,-21.9569,11.3204,-3.12479,-21.4144,11.6838,-2.59402,-21.3915,11.7707,-2.35043,-21.5132,11.7963,-2.33113
4.26081,0.29089,-16.6363,15.5362,8.32329,-18.1299,15.1514,8.30277,-17.1388,15.1256,8.88264,-18.0519,15.3666,8.13564
1.75988,0.174925,22.6547,9.72265,-7.4198,22.068,9.71702,-7.79547,22.8448,9.08916,-6.81341,21.7403,9.11706,-7.0086
1.89603,1.36995,-9.89137,8.97971,10.3999,-9.89444,7.9258,9.4514,-10.0231,7.93339,9.4549,-10.2205,7.8777,9.50464
5.25138,0.241391,12.3611,16.5778,8.99704,11.9152,16.8298,9.17433,13.7132,16.8086,9.07412,12.4204,15.4669,9.77185
1.58148,0.021288,-15.5266,3.00946,7.13445,-14.741,2.57294,7.59415,-15.5563,2.90815,7.09135,-14.8088,2.91587,7.70213
30.6305,0.569667,13.1636,5.4452,8.9684,10.5206,5.37498,9.12564,10.5736,5.1593,9.14021,11.3554,6.87167,9.21653
8.2956,0.575036,17.2387,15.4699,-5.46432,16.8425,15.3336,-6.90213,19.6362,15.747,-6.10661,19.6246,15.6576,-6.26774
1.68903,0.0299042,12.3276,11.6446,-5.17227,12.7356,11.19,-4.47084,11.9892,11.5543,-5.00247,12.4963,11.1714,-4.39003
6.13546,0.878626,2.635,7.31622,9.82457,0.52664,7.41934,9.26825,0.902146,7.38155,9.20831,0.476015,6.69774,9.2553
10.2459,0.982314,-16.2199,16.6363,-0.952829,-14.8632,17.3877,-1.44049,-15.4098,16.3987,-2.18455,-15.0382,17.0173,-1.5019
8.07942,0.256478,15.2793,11.9209,9.60205,16.3529,13.171,10.2467,13.753,10.7196,9.65669,13.895,10.6062,9.5724
4.44206,0.00344633,-4.34985,4.7683,1.03268,-3.80432,5.12696,0.698711,-3.472,5.26925,0.752874,-2.90462,5.37049,1.30964
0.651679,0.00837203,-5.66734,1.58743,4.92143,-5.5761,1.94372,4.73514,-4.9805,2.24249,4.75596,-5.23082,2.21033,4.69324
1.9186,0.253388,5.00946,3.27266,8.09148,6.37915,3.06148,8.02676,6.3493,3.05351,7.92854,6.22652,3.04276,7.83662
6.57748,0.657243,10.532,5.67152,4.12985,11.482,5.97728,3.86713,11.3145,4.51606,5.03475,11.1019,6.16792,3.15664
2.06079,0.420739,0.912864,17.9206,9.44172,0.145083,18.4584,8.98441,0.265153,18.482,8.92451,0.251327,18.8718,8.73681
7.99815,0.53539,7.50482,7.9767,0.141356,8.14501,7.13815,0.308762,9.76051,7.79479,-0.386691,9.9424,7.37867,0.0954237
2.96103,0.308873,15.8153,4.42472,8.60594,15.806,4.06908,7.91088,16.878,4.05176,7.94964,16.5574,4.03896,7.6675
7.59281,0.72247,1.31388,7.62485,-6.79715,-0.995939,7.19085,-8.72804,-1.02254,7.60851,-9.26662,-1.06759,7.53404,-9.26011
23.9088,0.0627885,-10.2547,16.5701,-4.62345,-11.0872,15.5959,-5.27799,-8.95491,15.7116,-6.16175,-9.80349,15.1944,-6.27
0.118779,0.0718779,-10.061,20.5326,3.04684,-9.76268,20.5312,2.80872,-9.97633,20.5207,2.64791,-10.0714,20.5325,2.66124
0.344357,0.0216894,-23.6154,6.53772,-3.00715,-23.5842,5.756,-3.55645,-23.6425,5.5887,-3.44178,-23.6816,6.03458,-3.10134
6.53727,0.956687,12.1257,20.6541,-0.0126982,13.7774,20.3744,0.964503,14.0633,20.5239,1.30567,14.4533,20.5847,0.487289
7.41606,0.580689,14.072,17.6801,-3.63808,16.4502,18.476,-3.57495,14.2226,17.4516,-4.8166,13.53,18.2498,-3.86541
10.6981,0.68299,0.955203,15.6295,9.51878,2.86421,14.8794,10.5809,2.24664,17.5685,9.5444,2.67991,17.3612,9.63368
0.19628,0.000996771,-23.4964,2.9725,0.514214,-23.3037,2.99954,0.23754,-23.4489,2.92288,0.546777,-23.4527,3.09723,0.233403
1.75529,0.711796,-4.49706,11.3948,10.6394,-5.61688,11.5186,10.2138,-5.62293,11.6528,10.2221,-5.78773,11.3917,10.2546
1.45855,0.0917211,-10.1807,2.26025,7.89927,-9.79054,2.38639,8.04958,-10.5942,2.11632,7.93573,-9.77119,1.65419,7.8068
2.93602,0.232115,-14.7969,15.7744,8.84974,-16.5084,15.5516,8.33459,-16.4843,15.4131,8.38365,-15.7352,15.1198,8.83061
9.73551,0.166725,19.0758,6.10064,-1.27441,19.6885,4.76988,0.0885707,18.6008,5.34562,-0.327465,18.9488,4.79666,0.321673
3.40711,0.125218,-12.4044,15.1823,-4.72281,-11.1276,15.5525,-5.31733,-11.9449,15.6536,-4.77431,-11.7234,16.19,-4.46245
0.34702,0.082414,18.8172,10.3248,-8.49737,19.6682,10.6888,-8.5309,19.435,10.5268,-8.4839,19.6852,10.5575,-8.50078
6.25219,0.250595,-3.84206,15.376,9.63048,-2.65222,17.2161,9.87623,-4.38206,15.3604,9.69394,-3.02324,14.6319,10.4558
4.85032,0.197512,-19.9743,7.49327,7.2069,-18.3624,7.11847,8.23632,-20.068,7.8979,7.27892,-20.4746,7.08614,7.31949
2.06008,0.313599,22.1982,11.1536,5.51796,22.156,10.008,6.21382,22.032,10.1812,5.99998,22.1656,10.518,6.14173
2.09653,0.11982,-21.3904,8.00221,6.49906,-21.4069,7.48951,6.44475,-20.8662,8.1863,6.95442,-21.6198,8.32157,6.64564
5.82976,0.200992,20.2794,5.14248,2.12402,20.3402,4.00747,2.11826,20.5688,5.95619,1.56554,20.6132,5.88129,3.60217
3.11543,0.0705985,-13.5762,2.13883,-1.58882,-10.6787,3.49418,-1.92328,-12.106,2.95954,-1.79993,-10.5935,3.41592,-1.86217
6.28227,0.0961452,20.7125,6.71661,3.96787,20.6899,6.07663,3.1985,21.2466,7.98613,3.5967,21.1913,7.98466,4.15196
0.79737,0.038424,-11.0709,20.2147,1.01309,-11.6108,20.1167,0.588285,-11.1429,20.1328,0.395255,-11.5162,20.1014,0.447788
0.759216,0.0165143,-12.1653,19.3403,-1.18912,-12.1618,19.5158,-0.983805,-11.7114,19.7134,-0.824373,-11.7731,19.7805,-0.748627
6.54669,0.272071,-9.01813,2.59855,0.893699,-7.71632,2.99358,0.475414,-7.80988,3.47737,-0.343547,-9.19806,2.65813,0.16483
3.0965,0.0625466,-0.70992,6.27819,-3.96328,-1.40522,5.82487,-3.53849,1.45851,7.32957,-4.21879,1.19738,7.20625,-4.36081
2.41534,0.0203686,10.4168,9.19786,-1.85397,11.2165,9.1199,-1.62684,10.5493,9.6024,-2.22511,10.8209,8.60102,-1.23856
2.15997,0.213679,13.6192,6.77864,8.65222,13.7459,4.63075,8.74576,13.6238,4.61545,8.77577,13.9058,5.85599,8.75982
1.17256,0.555369,7.01972,8.0667,-0.0268799,7.51176,8.32234,-0.415782,7.47713,8.31815,-0.665381,7.6798,8.20566,-0.184595
4.05007,0.567066,22.7824,7.60089,-1.90632,21.598,8.64308,-0.571343,21.6525,8.77191,-0.626036,21.4456,9.95865,-0.654498
4.56743,0.137014,-15.3019,1.96921,-0.502632,-13.4549,1.34722,0.251395,-12.997,1.5532,-0.489496,-12.9071,1.48424,-0.321688
11.1733,1.13622,3.13115,8.79615,-3.8027,6.12792,9.74065,-2.96043,5.95311,9.91076,-4.34314,5.79432,9.89502,-4.16587
6.9306,0.351763,5.34038,13.4363,-6.5245,6.5299,13.3286,-5.58525,4.87489,13.1965,-7.82969,6.13877,13.1596,-5.65767
1.07801,0.129535,18.6299,20.0655,2.43972,18.992,19.8106,2.90514,19.357,19.6819,3.06425,18.5666,19.9737,3.09175
16.7109,0.912856,-9.00272,14.7815,-6.68775,-7.35455,14.1129,-7.00589,-7.35943,15.2827,-7.04352,-8.4973,13.4086,-7.42907
16.2329,0.0636953,-5.32993,15.5829,9.45283,-4.07139,17.4254,9.79079,-4.27969,14.2578,10.2835,-3.17926,13.7416,10.9151
13.6682,0.621337,-19.0325,5.07547,-4.0005,-17.0787,5.77226,-5.22457,-16.0175,5.39965,-5.24899,-21.7989,5.4883,-4.39983
0.900997,0.363279,-11.1707,17.7127,9.85253,-11.5762,17.5301,9.59533,-11.682,17.3897,9.63078,-11.5605,17.405,9.59658
3.99385,0.0269191,13.8247,19.4631,6.36497,12.4453,19.3912,7.0102,13.1857,19.7569,6.05055,12.0963,19.7898,6.33573
3.0443,0.0116913,2.88173,16.6476,-5.44195,3.96828,16.2784,-6.0893,3.14874,16.2917,-6.18415,3.36103,16.747,-5.18667
6.61262,0.307085,4.00225,15.9151,9.15169,4.54527,16.0742,9.00352,3.64282,16.845,9.54534,3.79037,14.1143,10.5881
3.88471,0.321393,19.2107,3.27695,2.66529,19.5622,2.64489,4.15075,19.7473,2.68379,4.13395,20.115,3.00803,3.08688
5.49188,0.263277,15.5361,6.09416,8.17988,17.04,5.67266,8.51076,15.6469,6.41304,8.33664,14.8655,5.31248,8.79259
15.5169,0.502217,2.40041,5.82089,8.88109,3.83848,6.84058,9.52074,2.40876,6.91793,9.51145,4.21489,5.49221,9.37216
0.722489,0.162989,-20.7509,11.4623,6.91843,-20.8542,11.1515,7.04789,-20.5376,11.6501,7.20744,-20.5363,11.5233,7.20758
5.702,0.395103,5.61526,7.49792,9.3354,5.57726,4.22651,9.2141,6.41077,7.44735,9.41378,5.31335,7.79079,9.95689
9.68849,0.596255,17.4432,15.8683,8.38919,19.0664,15.5792,8.87672,17.7585,17.6389,8.62252,16.8673,15.8006,9.07681
4.38615,0.233613,-4.79426,7.58125,-10.165,-7.28458,7.29416,-9.89482,-6.44154,7.43271,-10.1588,-7.63778,7.45326,-10.0427
0.405707,0.0208847,0.119778,2.51148,6.61739,0.429135,2.63515,6.1919,0.461021,2.61612,6.32525,0.201339,2.58545,6.35127
2.20336,0.106709,-23.9221,6.69199,-0.735831,-24.0197,7.15086,-0.562707,-23.9711,6.27186,-1.5781,-24.0733,6.25586,-0.550576
3.72441,0.268104,-11.7779,15.0262,9.33488,-12.3234,14.8348,9.67092,-12.1091,15.4323,9.40381,-10.3064,15.016,9.78873
1.14216,0.287522,-18.1102,1.45329,5.0464,-17.4037,1.37896,5.90159,-17.9056,1.51663,5.77473,-17.7174,1.50339,5.68142
4.42845,1.4797,-14.85,6.82044,9.00438,-16.3812,6.81397,7.92737,-16.52,6.9237,7.94858,-16.6514,7.0022,7.99505
8.19926,0.40261,-2.94997,9.37857,-10.3278,-4.98607,7.90985,-10.6728,-4.1828,9.08257,-10.8752,-1.83625,9.96443,-10.7331
7.28878,0.255591,-14.5885,5.7586,-5.9183,-16.5226,5.93561,-5.67677,-17.223,6.0983,-6.1465,-16.9913,5.8514,-5.4443
0.256987,0.0362576,13.0945,4.88177,2.62532,13.5184,4.71854,2.91519,13.6116,4.65097,2.71593,13.7032,4.60819,2.79494
11.3415,0.518961,12.9208,12.4565,-7.99341,11.4517,14.6102,-6.96345,11.2771,13.5782,-7.29009,10.5143,13.3605,-7.43665
4.25086,0.420027,17.7648,14.6386,8.90048,17.1057,14.3343,9.8492,18.7281,14.3772,8.9798,17.9641,15.4304,9.01838
0.867469,0.114658,-23.8116,5.09554,-2.17969,-23.0823,4.93768,-3.09515,-23.6054,5.1481,-2.56121,-22.9382,4.86778,-3.02242
45.3229,0.110751,21.8063,16.895,1.1172,22.2282,14.5491,-1.22662,21.5295,18.1433,0.262363,22.5145,16.04,4.70969
25.1622,0.803534,-12.9885,11.9401,-6.25882,-12.4109,11.184,-8.28476,-11.5536,13.0777,-6.90373,-14.2513,12.491,-6.40572
3.17141,0.282703,5.64206,9.02025,10.5897,4.49493,7.92979,9.68259,4.2263,8.05525,9.70135,4.91495,8.10759,9.96778
1.91549,0.285477,-2.54492,5.30529,9.20386,-1.79323,4.64642,9.47548,-1.52859,4.66006,9.54739,-1.6535,4.55881,9.48035
7.55751,0.465798,-6.46674,9.5074,-9.97117,-7.64519,9.92398,-10.4346,-6.1441,8.83758,-10.4527,-4.99332,11.0078,-10.3863
0.136083,0.11024,6.10122,17.0054,-4.69658,6.09148,17.1928,-4.52244,6.00469,17.1342,-4.59925,6.21742,17.2475,-4.49044
7.31544,0.15391,-10.1916,4.31531,-4.02659,-12.0835,4.54783,-4.05645,-12.3414,5.01389,-4.5518,-8.37241,5.19489,-5.81037
14.1044,0.220328,5.36777,19.0104,7.35563,5.78163,20.4982,3.93274,6.08153,20.6932,4.13974,5.5365,19.8459,4.95535
2.991,0.0163103,22,10.9537,5.0875,21.5316,9.44767,4.6095,21.6535,10.1031,4.20905,21.8984,10.4352,5.25288
26.481,2.51335,14.5699,4.15531,2.29051,12.363,7.29451,0.357286,12.8542,6.48418,-0.0689233,11.5999,6.08221,1.50929
2.48672,0.258745,-16.6882,1.32249,4.82371,-17.405,1.26826,4.88415,-16.5242,1.16763,5.39681,-15.808,0.646941,4.36218
5.6113,0.20051,4.6559,19.3649,0.84438,4.07257,19.6558,1.42817,2.74238,20.161,-0.27568,5.23651,19.4638,0.510167
0.849542,0.136574,-2.41762,20.2375,-1.20104,-2.65261,20.3011,-1.31039,-2.45947,20.2211,-1.58858,-2.09355,20.4427,-1.20337
1.84356,0.140671,21.0147,4.9513,6.34727,20.4374,3.84122,6.16736,20.4206,3.84086,6.06147,20.595,4.04162,6.34655
12.9845,0.0751765,-13.6761,4.44911,-3.86837,-15.322,2.74771,-2.69184,-12.1173,4.42468,-3.89064,-11.7111,3.84501,-3.42374
4.30931,0.190316,-19.7775,6.73512,-6.24581,-20.5671,6.90313,-6.32209,-19.2512,7.56214,-6.33308,-19.7702,6.37066,-6.51437
2.13246,0.0288724,-17.4116,19.2788,3.12722,-16.7209,19.817,3.20572,-17.3552,19.5175,2.16913,-17.042,19.8004,2.11568
4.52555,0.38308,23.2884,11.2836,-5.43922,23.45,9.07272,-5.83822,23.1659,9.68346,-6.56321,23.1523,9.30093,-6.56036
1.63374,0.290227,6.21326,19.9109,-1.57322,5.88317,18.9383,-2.59312,6.08415,18.9165,-2.60373,6.27295,19.0617,-2.50097
0.91437,0.184482,-2.21049,11.2221,-10.5108,-2.39987,10.7669,-10.9317,-2.71924,11.5753,-10.3567,-2.4536,10.9699,-10.7535
2.59907,0.154836,18.9401,4.88551,8.53095,19.0127,6.62038,8.3447,18.6213,6.62596,8.39091,19.1318,6.05267,8.44036
5.70612,0.47962,20.2416,18.4309,1.37584,21.4913,18.4892,1.28479,20.6298,18.704,2.93218,21.8062,18.3157,2.22123
2.68568,0.21436,8.59084,10.146,10.1762,8.38235,10.529,10.4376,9.10074,9.79109,10.3385,8.18484,9.88817,10.3797
1.27434,0.261502,15.238,3.77091,2.1996,16.3465,3.47358,1.61629,16.4467,3.35418,2.5121,16.6737,3.22338,2.50815
4.47022,0.284779,-12.6561,6.21782,8.7133,-11.5107,4.69151,9.19826,-12.3936,6.72516,9.18211,-13.3035,6.23979,8.7949
34.7327,0.470717,-18.667,15.1085,7.63644,-19.7053,16.5808,4.40639,-18.5444,16.8947,6.3123,-20.1089,15.992,4.52508
0.274372,0.00280845,8.89185,13.4116,-7.07846,9.51912,13.3631,-7.21843,9.00257,13.5521,-7.07906,9.50658,13.4882,-7.19748
1.53212,0.0209074,7.93187,5.00706,9.38918,6.73772,4.20564,9.1858,7.13832,4.83308,9.34004,6.54592,4.29726,9.21391
2.71122,0.392494,-23.251,12.2625,3.76483,-23.0338,12.9091,3.22901,-22.5074,13.528,3.34777,-22.0654,14.1894,3.84752
2.49241,0.095493,-20.6156,3.21875,5.20523,-20.6404,2.65539,5.10365,-19.5158,2.96606,6.39314,-19.4504,2.9051,6.43739
0.479604,0.0577654,17.144,14.5658,-7.71471,17.5304,13.9591,-7.99321,17.4027,13.9545,-8.02997,17.534,14.0954,-7.92138
0.824453,0.118403,-20.6655,2.26884,1.33706,-20.7687,2.1281,1.34981,-20.5582,2.42497,0.959446,-20.4323,1.96433,1.32445
7.33717,0.301458,20.5029,6.19801,1.25302,20.5099,8.14745,1.13889,20.7005,7.61259,1.93688,20.5411,8.80829,2.04385
3.98931,0.371254,22.7087,18.649,5.88542,22.407,18.5618,4.20966,21.8962,18.6275,4.28128,21.7886,18.6226,4.42365
1.20016,0.108884,22.1509,10.2862,8.27968,22.3389,10.1297,8.09108,21.9544,9.948,8.62999,22.3139,10.6258,8.4341
0.226072,0.172262,-10.1991,2.01809,0.314598,-9.96065,2.05782,0.467508,-10.0925,1.91856,0.620958,-9.87915,2.06459,0.445323
1.51287,0.0285401,10.4523,18.3784,8.74907,9.42456,17.4712,9.37715,9.26983,17.6651,9.32355,9.30182,17.4601,9.40618
0.372676,0.0291927,15.8661,11.6395,-8.26977,16.0855,12.0494,-8.17242,16.0133,12.1887,-8.17465,15.8153,12.1132,-8.21421
20.8835,0.872786,1.00673,3.8316,7.62392,2.60937,3.34267,7.45099,3.01559,2.8498,7.22184,2.32951,3.98315,9.11574
4.46443,0.354005,21.8235,15.9113,7.74916,23.1907,16.4561,7.9235,21.3523,16.3995,8.22295,21.8089,15.3589,8.07034
0.339003,0.0832147,15.9908,13.821,10.0093,16.4853,13.5372,10.2132,16.455,13.4431,10.2285,16.0237,13.6878,10.1258
1.10076,0.474313,19.7357,19.6243,1.20415,19.2832,19.8901,0.464562,19.0311,19.9651,0.596259,19.2262,19.8018,0.614187
5.54156,0.252944,-12.5129,3.0877,7.54124,-12.8755,3.12593,7.731,-11.4579,3.82828,8.40123,-11.5864,1.94784,7.6608
5.66776,0.0117166,6.97207,6.16068,3.81682,5.77933,5.949,3.52339,8.71492,6.25147,3.63121,8.55147,6.0853,3.25787
10.8235,2.20361,16.8686,20.479,3.06412,17.263,19.7393,5.17637,18.5112,19.5341,4.74739,19.1315,19.4932,4.54183
4.31393,0.0833057,8.76885,3.52883,7.93749,9.05699,4.18592,8.82092,9.97618,3.17723,7.89162,8.89555,3.15823,7.68276
3.81591,0.308171,1.2826,20.5921,4.24659,2.23565,20.1295,5.70736,1.79406,20.2907,5.51146,2.7021,20.0485,5.71083
1.81572,0.252959,-15.1859,19.7133,5.48465,-15.1961,19.9922,5.99018,-15.2914,19.9442,5.35523,-14.8618,20.0484,5.67592
1.09957,0.0397494,5.92288,12.5469,-7.07374,5.90793,12.7134,-6.19838,5.61364,12.7878,-6.64841,5.76559,12.7662,-6.2889
9.89056,0.56014,-2.67513,13.6773,-8.00489,0.850953,14.3949,-8.69309,-0.84786,14.1187,-8.08348,-0.72383,13.9277,-8.10093
1.72116,0.0221467,-0.981269,19.4318,8.13211,-1.30469,19.2113,8.45469,-1.18315,19.9347,7.27793,-1.95526,19.9714,7.23468
4.11202,0.154219,-14.6114,9.28482,-7.37359,-15.5959,8.94084,-7.38467,-14.2282,9.37669,-7.58606,-15.3722,10.2083,-7.41245
5.9671,0.122564,-15.7448,16.1022,-3.05523,-14.7148,14.6334,-4.51177,-16.576,16.0246,-3.09249,-14.6231,14.7354,-4.45568
7.53156,0.31973,0.116172,3.92083,7.98864,1.2292,3.53173,7.19956,0.00663067,4.43809,9.3286,-0.402728,2.50389,7.12468
8.62489,0.872794,6.17089,9.79049,-2.56156,5.22952,9.39574,-1.55831,5.3111,9.27214,-1.04616,6.29504,8.30762,-0.875759
3.42664,0.314321,-8.50422,14.8524,9.93826,-8.50481,13.6981,10.7398,-8.4764,13.5328,10.7962,-7.81572,14.7046,10.1456
9.29644,0.117369,16.3748,10.8254,-7.7064,18.3336,10.7089,-8.4075,17.4663,9.84025,-8.0401,18.5177,10.1599,-8.39653
0.22858,0.010667,-9.41304,20.4649,4.77815,-9.78808,20.4375,4.79304,-9.51073,20.4822,4.55477,-9.76923,20.4301,4.92045
0.397507,0.01631,-4.6376,20.8351,3.55695,-4.76489,20.7909,3.88978,-4.91716,20.7718,3.8015,-4.9291,20.7734,3.68727
4.21821,0.123679,20.9138,11.0324,-8.10677,21.5429,12.0503,-7.71333,20.1851,10.7442,-8.42854,21.4684,10.9189,-8.26522
2.87749,0.200872,-4.53873,4.9142,-0.617916,-5.15986,4.46439,-1.04324,-3.4175,5.06461,-0.780593,-4.45528,4.75761,-0.226929
1.37876,0.120885,-11.5463,3.60778,-2.43401,-11.8354,3.31838,-2.14422,-12.0586,3.24429,-2.2001,-11.2294,3.66961,-2.8604
1.74853,0.870705,-6.41899,20.6211,-0.261397,-7.66559,20.4672,-0.10736,-7.67084,20.4043,-0.226057,-7.64592,20.2971,-0.534921
3.31869,0.143073,20.2712,4.76343,8.41699,21.2371,5.63686,7.51498,21.2687,5.56559,7.45751,21.174,5.30011,7.46233
3.62512,0.121001,0.265367,8.67573,10.309,-0.593452,9.97762,9.84252,0.795688,8.2347,10.3816,-0.574037,9.72592,9.85464
3.34662,0.381433,-5.86776,11.6896,10.1687,-5.83768,12.8415,10.9155,-5.94029,12.9036,10.9558,-6.44144,11.1596,10.5359
1.1152,0.0819952,1.51481,7.26772,-1.8608,1.07954,6.86402,-1.28969,1.24937,7.02208,-1.78525,1.05476,6.86761,-1.41345
6.73729,0.148688,-16.3197,14.7579,8.97633,-17.0047,13.977,9.79792,-14.1705,14.5932,9.52833,-16.523,15.1622,8.79871
0.701772,0.180911,15.0391,14.9295,-7.60852,14.2148,14.3216,-7.6239,14.5774,14.4106,-7.70213,14.2398,14.1879,-7.63203
6.50549,0.534108,-10.9686,12.3965,-6.99008,-10.8834,14.1939,-6.4221,-9.58813,12.7233,-7.86007,-11.787,12.427,-7.39003
13.8185,0.280748,-6.19465,2.25563,4.28312,-3.44924,3.29938,4.24944,-7.13901,1.77123,3.44034,-4.70342,3.15223,2.97645
4.66413,0.370659,-1.0371,10.1722,9.76855,-0.712877,9.79176,9.83695,-0.289108,10.9028,10.1809,-1.84963,10.1303,10.7466
6.19787,0.306114,8.65431,18.7362,-2.71801,8.08629,18.8764,-2.86214,8.81571,18.3672,-3.74003,10.6146,19.9927,-2.25823
5.67293,0.484735,-21.103,6.75789,6.05021,-21.2651,7.45315,6.48679,-20.3868,5.85922,7.07322,-22.0226,6.22691,6.09607
9.27313,0.953035,7.35211,15.3372,-5.85039,7.9257,16.4405,-4.99271,8.28189,16.3665,-5.0977,7.12245,16.8424,-4.74936
9.7445,0.237113,15.4326,8.58824,-4.74167,14.6782,8.23146,-3.9886,16.0851,8.17761,-5.9494,14.6642,9.69775,-4.41339
2.66984,0.952429,-17.5394,6.64614,7.74827,-17.6261,4.50358,7.98003,-17.7424,4.61569,8.02587,-17.4997,4.51896,7.98061
10.7562,0.424774,-17.5587,6.91709,7.76833,-16.7412,7.06525,8.0311,-18.2473,8.64422,9.03004,-17.166,8.30384,8.57943
2.00428,0.149375,-6.344,7.98604,-10.3644,-6.70309,8.27194,-10.3325,-6.07571,7.85649,-10.6418,-6.55164,7.93584,-10.538
2.90841,0.0916259,-2.58535,19.354,-3.24483,-4.34019,19.8099,-2.56066,-3.89426,19.6055,-2.86951,-3.77892,19.4958,-3.01341
1.16479,0.0396202,-2.29833,6.75379,-9.55473,-2.39844,7.28897,-9.79504,-2.14091,7.29225,-9.78619,-1.9786,6.7293,-9.57556
6.0054,0.130403,20.8083,6.70202,0.197852,20.6654,6.34068,0.7821,21.7591,5.87253,-0.748686,21.1707,7.36273,-0.337541
1.04625,0.462112,-17.3128,12.956,-3.32082,-16.4735,13.4904,-3.97978,-16.4201,13.5852,-4.00343,-16.5572,13.7724,-4.02633
4.39324,0.2895,19.0719,4.2695,8.02727,19.9869,3.88096,8.0377,17.3415,4.32364,8.51906,19.3562,3.61354,7.42221
1.45604,0.0309359,16.643,15.374,-6.9335,16.8496,14.8645,-7.46918,17.1807,14.8139,-7.52273,17.2272,14.9687,-7.37462
0.980158,0.564384,-12.0147,11.6084,-8.15659,-9.8869,12.2063,-8.57937,-10.7098,11.8826,-8.62128,-10.8622,11.7592,-8.61556
3.69571,0.189705,-21.503,5.06303,-3.58323,-21.9435,4.4352,-2.71136,-21.7849,4.21553,-2.32274,-20.9037,4.85538,-3.71224
0.774832,0.103059,-16.5963,10.4312,-6.80573,-15.9321,11.0307,-7.08613,-15.8901,10.9029,-7.13822,-16.271,10.8524,-6.85638
1.32149,0.305767,11.0009,7.91504,9.45257,11.2002,8.50592,10.1228,10.9648,8.62091,10.2571,10.8392,8.51358,10.2267
3.79958,0.127154,7.83309,6.24207,1.38301,9.07619,7.01482,0.38343,8.30764,5.89505,2.73951,7.03503,6.4398,0.915995
4.37547,0.0122546,-20.269,16.3733,2.79509,-20.8108,15.6477,3.67336,-21.1028,15.6298,1.42415,-21.0251,15.7563,1.15845
3.93525,0.137423,19.3422,19.8704,-0.927567,17.858,19.9496,-1.09155,18.2216,19.8531,-1.11746,17.5029,19.6447,-1.76714
2.76385,0.0623555,-22.9157,4.10843,4.19726,-22.9951,3.78297,3.88216,-22.4194,2.82726,4.582,-23.2382,3.75909,3.49225
1.82639,0.0327077,21.1211,12.6206,-7.41451,21.9899,12.6793,-7.36466,22.0486,12.1531,-7.61177,22.1713,12.243,-7.57166
4.03424,1.05869,3.63219,15.3153,-7.53353,3.43523,16.0687,-6.39804,2.91289,16.1643,-6.59314,3.65452,16.2186,-6.29813
3.14325,0.186178,-21.333,3.52204,4.99575,-20.9821,3.48451,5.25412,-21.7342,3.60992,5.13962,-21.3376,2.06797,4.74507
1.32272,1.38607,-16.172,1.52429,6.80203,-15.9426,2.94737,6.87954,-16.0528,2.93451,6.84839,-16.1793,2.91913,6.84688
1.14837,0.649466,-1.6622,7.67839,-9.85902,-0.763271,8.06109,-9.33898,-0.745693,7.95477,-9.30764,-0.632819,8.1756,-9.37995
0.873634,0.180042,22.9612,12.8049,5.79214,22.5718,12.2255,5.59056,22.9554,12.8233,6.18249,22.6681,12.4436,5.84208
5.02154,0.248239,-10.0607,2.26372,-0.349174,-11.19,1.31384,1.72042,-10.7126,1.6221,0.698291,-10.9435,1.40286,1.72851
25.0135,1.53128,21.4522,14.0063,-6.89942,18.8473,11.6415,-8.30309,19.6154,11.0504,-8.51624,17.2702,10.8856,-8.11725
2.20255,0.72609,7.94871,7.18451,9.87959,6.41198,7.51475,9.48328,6.5425,7.43557,9.43496,6.55237,7.3233,9.39736
5.75552,0.249171,-16.2517,7.64724,-7.71644,-16.2949,7.22673,-8.39289,-14.7479,8.15144,-8.34925,-16.3018,8.44425,-7.37198
2.06152,0.0693342,-10.0312,8.34857,-9.29996,-10.2115,7.56674,-9.50199,-9.71597,7.63042,-9.53612,-9.70271,7.50298,-9.58624
1.72223,0.0705639,-4.45762,5.22197,-3.47659,-2.70336,5.71531,-3.83379,-3.83888,5.40242,-3.71467,-2.74044,5.79317,-3.99712
0.720962,0.145439,-11.9289,13.6719,10.0703,-12.6304,13.9534,9.88853,-12.8237,14.2033,9.68042,-12.6906,14.2272,9.69927
2.0554,0.00737508,-23.3475,3.86425,-0.990333,-22.3552,3.87571,-1.22702,-22.7025,3.5943,-0.647243,-22.2237,3.64817,-0.841584
17.4062,0.744178,21.1898,9.86976,2.93027,21.5764,8.30285,5.14068,21.3633,7.68632,4.93595,20.7534,6.2093,2.56375
3.27384,1.57319,8.55125,20.7252,-0.336198,10.1664,20.3251,-0.230638,10.0315,20.7883,0.217481,10.147,20.4452,-0.174322
0.898232,0.599643,-20.3321,5.82416,7.14333,-19.5585,5.3489,7.8722,-19.5465,5.66652,7.95384,-19.5172,5.54347,7.93131
0.36532,0.0203735,-11.5543,1.73692,-0.671595,-10.7996,1.82053,-0.509786,-10.8184,1.85321,-0.614626,-11.0287,1.86757,-0.784757
2.30882,0.503548,-2.08049,11.6187,-10.1505,-1.0501,11.209,-10.4237,-0.500269,11.4102,-9.95166,-1.83697,11.0151,-10.6851
4.86159,0.304994,18.7765,13.4756,-7.37066,18.1025,13.6563,-7.88373,20.1458,14.6248,-7.11609,19.2417,13.1545,-7.58554
0.669408,0.0427497,17.884,18.6192,-3.27892,17.849,17.847,-3.75173,17.6504,17.8668,-3.77742,17.6291,18.3614,-3.51418
2.45282,0.185657,-18.1005,9.34842,-6.05328,-17.1031,10.7457,-6.48685,-17.3494,10.715,-6.44215,-16.8169,10.9649,-6.60387
1.94437,0.0167409,-22.2917,5.49043,-4.25585,-23.0488,5.53562,-4.13061,-22.2021,5.86102,-4.92747,-22.9997,5.39182,-3.90844
5.26149,0.0352617,16.0275,7.4464,9.17891,15.6491,6.5262,8.40573,16.1627,7.95671,9.6655,14.5699,7.27291,8.81771
2.9327,0.224964,13.531,20.266,3.67139,13.1891,20.3989,3.97359,14.125,20.3837,4.35107,13.6593,20.6452,3.09487
11.4568,0.09454,2.69155,8.152,-8.09631,4.61393,7.76979,-6.91406,4.77184,8.66117,-7.74,4.22168,8.70097,-7.9704
7.15801,0.534479,-16.6076,8.66848,-6.61531,-17.5702,9.29302,-6.52939,-15.7118,9.0228,-7.29887,-17.1607,7.88645,-7.79516
6.7444,0.529444,-0.300421,11.914,10.0802,-0.298219,11.0235,10.2232,-1.13393,12.4259,10.9563,1.5678,11.964,10.6459
4.06697,0.686111,6.44871,3.71733,8.92399,7.62166,3.4454,7.67966,7.56973,3.31868,7.34425,7.58508,3.48344,7.72789
1.92999,0.2475,0.630611,4.55062,9.27563,0.691039,5.82968,9.0399,0.883084,5.798,9.07738,0.457965,5.16312,9.27664
4.41824,0.0764078,0.0428404,8.80807,-9.00935,1.28857,8.83306,-8.65542,0.827147,9.15975,-8.89455,1.93366,9.3562,-8.72748
2.91393,1.54383,22.465,13.4631,-1.76618,21.7579,15.0352,-2.30687,21.7407,14.9384,-2.43145,21.8858,15.0634,-2.60622
7.94372,0.202801,3.27004,16.8872,-5.09714,4.64697,17.6785,-4.33932,5.24754,17.187,-4.63945,4.41782,16.8924,-4.8371
3.9759,0.162547,8.94994,6.32875,8.95433,9.75244,5.66205,9.14143,8.92713,4.42386,8.97674,10.1925,5.96767,9.26727
6.27093,0.627241,-16.4747,8.31628,8.58426,-14.79,8.2504,9.75203,-14.8384,8.14296,9.67153,-17.1834,8.88176,9.51073
8.9399,0.161831,3.88633,8.83289,-2.0715,1.70332,7.35183,-1.51418,3.12837,8.35429,-2.46269,1.715,7.52842,-2.14404
0.895989,0.125357,-21.9627,5.92983,-5.17486,-20.7042,5.66333,-5.27578,-20.8992,5.70203,-5.18678,-20.8056,5.71881,-5.33693
2.92074,0.167313,9.28175,11.3064,10.2161,9.06235,11.6054,10.472,9.89491,11.4973,10.1955,9.30945,10.2956,10.3576
6.59239,0.0766963,5.23784,16.2803,9.16213,4.84804,18.016,8.35685,4.97633,16.7547,8.91273,5.14674,18.0527,8.53306
0.13003,0.0317938,-24.1407,7.9596,0.770376,-24.1068,8.45345,0.782344,-24.1297,8.38286,1.07786,-24.1073,8.51407,0.973117
4.38347,0.426329,-12.0834,17.4443,-2.06897,-14.8818,16.8837,-1.70185,-12.9419,17.0016,-2.38802,-14.7477,16.791,-1.7859
0.462926,0.00106447,21.7377,9.09176,5.48473,21.6867,8.65534,5.42642,21.8149,8.83631,5.72441,21.6449,8.795,5.29499


