
1.35645,0.469346,-5.12141,6.07199,2.61668,-4.31628,5.91114,2.77054,-4.31449,5.78737,2.79292,-4.43889,5.74098,2.86509
0.19548,0.00685209,-2.5681,20.5667,1.70422,-2.26725,20.75,1.6452,-2.37606,20.8037,1.5655,-2.49051,20.7498,1.57158
4.80024,0.0117577,-4.34151,4.15609,2.07245,-2.2804,4.2569,1.79149,-5.30216,3.38918,1.86926,-2.54337,4.48892,1.93288
4.77365,0.0311871,-7.39091,4.42896,0.463129,-6.09329,5.14555,0.388631,-5.87583,5.6528,0.33718,-7.15175,5.34391,0.334348
8.60479,0.517642,8.23717,10.0916,2.03926,8.00594,10.6107,2.94122,9.40179,11.1696,2.13726,9.38309,8.9038,1.64434
1.56934,0.432244,-0.560238,11.8535,2.76343,-1.51439,11.8131,2.54521,-1.51032,11.9092,2.49062,-1.39505,11.7321,2.70568
2.1343,0.0902214,-7.68948,9.53949,1.58957,-7.98538,9.40255,1.45253,-7.29614,10.278,1.68734,-7.31228,9.92949,1.98264
15.3031,0.465186,9.50839,19.3,-1.12645,9.47778,16.8985,-1.41518,9.36648,17.0033,-1.45078,8.61077,16.9909,-1.94828
0.116766,0.0585084,10.0146,13.869,-1.60458,10.1892,13.7977,-1.35526,10.1335,13.9211,-1.37383,10.0536,14.0002,-1.52317
7.58428,0.057085,-1.07746,18.951,-1.30197,-3.34696,17.88,-1.818,-0.507768,18.5289,-1.33036,-3.87064,18.6204,-1.61711
0.43815,0.145498,-10.1485,2.29742,0.949567,-10.5062,2.85765,0.912467,-10.5638,2.77664,0.989421,-10.732,3.12178,0.831683
2.41637,0.143766,-9.73334,2.71024,0.397374,-10.1301,3.54815,0.423536,-9.32516,1.91396,0.661569,-9.61331,2.1234,0.672101
3.74291,0.079639,0.13135,13.6647,3.04821,-0.0881484,13.1249,2.83208,0.46105,12.5159,2.54204,0.241259,12.2129,2.48545
2.05792,0.318782,-3.98532,19.5809,-0.0747411,-4.53861,18.9069,0.482345,-4.45732,18.9591,0.557282,-4.63475,19.1003,0.107479
1.1718,0.0483099,9.39909,16.8618,2.19703,9.6896,16.4283,1.97155,9.48434,17.2843,2.13745,9.1519,16.7402,2.56636
3.38864,0.171733,9.1329,13.5943,-2.49444,9.24194,14.702,-2.44706,9.70243,13.7688,-1.94126,9.78465,14.9898,-1.60882
27.1026,1.93559,-3.66828,15.2815,0.63739,-4.48005,10.7848,1.04456,-2.77566,11.1792,0.713219,-6.38365,11.2381,0.898667
3.96195,0.00917679,-4.81433,14.7626,0.670847,-6.51717,15.7787,0.34417,-6.43284,15.2742,0.363437,-5.69728,14.784,0.508884
1.19525,0.0635222,-2.83107,15.4818,-0.815956,-3.11776,15.5476,-0.574164,-2.73202,14.5179,-0.211479,-2.80853,14.5521,-0.127916
1.50026,0.0114964,4.93535,17.9821,3.79763,5.35178,18.5785,3.85462,5.05037,19.7516,3.85156,5.87734,18.3526,3.89379
0.439216,0.0437548,10.1453,21.1402,-0.496037,10.1771,20.3906,-0.598703,10.1549,20.4821,-0.651098,10.1173,20.5728,-0.781785
2.69863,0.853721,0.766071,12.6543,-1.28373,2.91621,13.5079,-0.88558,2.80889,13.0169,-1.15582,2.80362,13.3202,-0.94371
1.60315,0.46107,3.9358,8.72081,1.06689,2.74853,7.82705,1.19561,3.13356,7.92028,1.38843,2.9007,7.85694,1.31511
3.41998,0.110282,9.01444,21.6942,0.113954,9.08953,21.4808,-1.03329,9.73911,21.7295,-0.139071,8.80318,21.9195,0.49414
0.35348,0.0258605,-6.92781,16.0212,0.92592,-6.91463,16.3721,1.06724,-6.84385,16.4579,1.00868,-6.77614,16.4668,0.928591
2.10331,0.424853,-3.82685,3.69389,1.47872,-2.52852,3.81374,1.4796,-2.71404,3.87843,1.5502,-3.08503,4.02476,1.76039
3.83297,0.10578,-5.3895,17.9879,0.697234,-7.03102,16.4818,1.19713,-6.35154,17.3005,1.05041,-6.77321,16.6257,1.03145
3.05227,0.12417,-5.69846,6.48371,0.413641,-5.02546,6.29426,0.623518,-5.87763,7.85773,0.613967,-6.0529,7.63021,0.571804
34.9796,0.0856702,0.175542,18.168,2.75598,3.21011,18.2874,3.50337,2.73248,14.9893,3.58284,1.66094,14.4525,3.37759
8.94916,0.19282,-4.84597,9.70728,1.00456,-3.86031,10.9094,0.993861,-6.59721,10.9413,0.930598,-5.80119,8.71937,0.655311
2.8644,0.3279,0.528786,11.5687,2.12715,-0.0942529,11.4457,2.56697,0.886113,11.412,2.4792,0.141194,11.9169,2.40852
1.88685,0.188685,6.90337,21.7214,-0.619327,6.78373,20.7135,-0.576367,7.18362,20.7024,-1.16134,6.96724,20.8662,-0.770518
5.52885,0.389983,9.31971,10.5001,0.2276,9.50496,13.0377,0.516891,9.56884,12.6812,0.612905,9.33636,13.2454,0.362046
17.2654,0.147308,3.24248,9.27439,-0.711725,5.28119,10.1848,-1.07229,1.3067,10.7181,-1.31281,1.8275,8.98579,-0.816602
0.203063,0.0359671,8.67372,22.5118,2.91699,8.65604,22.3849,3.16244,8.58706,22.5165,3.06149,8.73175,22.3154,3.06572
3.99561,0.228294,9.88424,16.8691,-1.20266,9.38258,15.521,-1.90989,9.54819,15.2222,-1.7517,9.8275,15.4554,-1.51044
0.571765,0.182858,-1.02763,16.5215,2.57884,-1.02919,17.2253,2.65712,-0.792414,16.582,2.72223,-0.814492,16.705,2.70641
1.86628,0.150832,3.09992,12.9081,3.04188,3.96095,12.9193,2.84763,3.05176,12.0726,3.07888,3.09844,13.1976,3.25998
4.83533,0.764314,6.90003,20.6765,-0.707491,6.77531,18.0609,-0.845913,7.42787,19.5702,-1.40929,7.04638,18.7184,-1.01026
0.319779,0.0101503,-6.52089,11.9902,0.869558,-6.52555,12.6059,0.744243,-6.62355,12.0283,0.958582,-6.60246,12.6155,0.825781
0.650877,0.0038434,8.90924,8.27843,-3.80098,9.02049,8.87869,-3.7717,9.14196,8.90312,-3.80018,9.19485,8.50808,-3.85425
1.85093,0.0835496,9.71837,19.0156,1.95756,9.82337,19.5123,1.59788,9.0864,18.0411,2.72626,9.30963,18.292,2.43867
0.925941,0.317127,6.18914,22.2837,2.15666,6.64921,22.4499,2.61078,7.07708,22.4364,2.11745,6.97502,22.4354,2.26355
10.9878,0.726056,-3.32238,9.28367,2.50265,-3.83031,10.8404,3.17672,-0.644606,9.36128,3.25325,-3.96037,9.12349,3.22763
12.1093,0.208759,7.32218,10.1237,-1.10093,5.74923,8.88557,0.208973,8.11709,8.83479,-0.581667,6.89041,8.29576,0.30218
0.0885315,0.0169436,7.39564,16.0801,3.68035,7.28066,16.095,3.72063,6.78864,15.9734,3.83255,6.94019,15.8802,3.80783
0.217734,0.0139657,-2.73253,8.52598,1.01045,-2.80921,8.2611,1.05183,-3.0653,8.34011,1.01138,-3.04521,8.21717,1.03046
1.77738,0.0556329,6.68537,8.76138,2.56721,7.60898,9.05554,2.66785,7.00621,8.7014,1.93498,7.43982,9.05184,2.77991
0.0103887,0.0633501,-6.43591,5.59511,0.263682,-6.38489,5.66652,0.282289,-6.38289,5.65503,0.283858,-6.35156,5.71614,0.233718
10.6429,0.167733,-1.09832,16.5054,2.55043,-2.60895,17.243,2.3145,-2.53348,13.8368,2.78881,-1.1167,14.7757,2.95238
13.5163,0.727505,0.590036,19.2153,-0.749928,-0.493877,17.7368,-1.48678,0.329751,16.9634,-1.1022,3.5307,18.8707,-0.666314
15.1425,0.176137,1.26926,11.1236,-1.1917,-1.50094,11.3961,-1.2088,-1.35314,11.7543,-1.20715,2.68673,11.833,-1.4266
4.00402,0.951122,2.79417,11.3833,3.26117,1.10554,11.5844,2.45271,1.00141,11.4557,2.48663,0.923719,11.9402,2.41362
8.16257,0.119849,-1.57365,18.3507,2.49432,-0.470144,19.7189,2.58555,0.105448,18.6739,2.72408,-0.210268,19.6401,2.64206
2.19937,0.237978,-10.2793,3.75316,2.11509,-9.90391,5.58441,2.22452,-9.8818,5.56579,2.61378,-9.91597,5.38447,2.25943
10.3681,0.667192,-8.93576,3.99263,2.24698,-9.40145,5.25201,2.89852,-7.22345,4.6623,2.99448,-9.38556,3.40315,2.8924
4.40771,0.114282,-4.14459,17.6795,2.06865,-4.62972,15.9849,2.28732,-4.60317,16.6262,2.21271,-3.84354,15.5094,2.53039
1.13308,0.131894,1.45582,5.95303,1.98515,2.3641,6.65937,1.85639,2.16981,6.5725,2.02509,2.38872,6.70168,1.98092
4.62553,0.278126,8.79259,11.4218,-0.530713,9.34495,12.06,-1.71489,9.28448,11.5598,-0.240374,8.70362,10.8982,-0.901793
7.28929,0.364555,-6.23269,12.511,2.51221,-3.38323,12.2446,2.97885,-3.54439,12.1842,3.00013,-5.03936,13.1286,2.68159
0.189482,0.116977,0.0283363,4.99787,1.17016,-0.0588846,4.77213,1.15101,-0.198403,4.85611,1.14363,-0.203356,4.97763,1.09487
2.45118,0.0599597,9.85793,9.22739,-3.27972,9.28112,8.2115,-2.22694,9.29601,8.94189,-1.8077,9.46001,9.11722,-2.24002
1.7671,0.25056,-10.1469,3.12359,2.0415,-10.3108,3.63426,2.0582,-9.01187,2.76208,2.2935,-8.89043,2.75545,2.26718
44.8303,2.0737,-3.15188,20.1285,0.0961305,2.75187,20.6152,0.40508,1.65347,20.7212,0.849627,0.642091,21.2685,1.41659
13.8555,0.470702,4.40814,9.82079,2.09056,3.99064,9.63734,2.52642,7.672,9.96582,3.03348,4.31043,11.067,2.42558
1.53449,0.554516,3.71753,21.1932,1.17779,3.7367,20.7354,0.225089,4.10435,20.9954,0.259729,3.9976,20.912,0.282879
1.05116,0.0869672,8.73133,18.6597,-1.98091,8.91491,19.0547,-1.91861,8.159,18.9607,-2.07494,8.82781,19.9191,-2.09233
8.62699,0.482688,-6.21879,7.09937,2.69808,-5.31897,6.10203,2.64915,-6.00641,8.27388,3.35988,-7.0347,6.83476,3.54403
9.8334,0.0554252,-5.47515,5.66767,0.492988,-3.27404,5.66756,0.934516,-3.32547,6.34838,0.931336,-4.02416,4.95991,0.797172
26.8745,1.14867,0.767101,8.44156,0.923308,5.94201,9.20932,-0.568468,5.45815,8.89795,0.310126,5.40616,8.80523,0.755466
1.82621,0.47593,8.33103,17.2119,3.29437,9.03176,17.639,2.68599,9.06617,17.2073,2.6013,9.13027,16.9919,2.54671
0.694695,0.262492,-5.96887,3.59366,2.47114,-5.7699,3.41368,2.15818,-5.64171,3.43379,2.15295,-6.16828,3.30189,2.42903
9.40241,0.598723,-1.47103,13.0988,-1.06226,2.01655,13.6145,-0.805406,2.00336,13.722,-0.748413,1.34705,14.0829,-0.673716
6.79057,0.133499,-4.31019,9.53837,0.997384,-4.34605,7.83139,0.805652,-3.78603,7.97485,0.90993,-4.80825,8.39688,0.849362
5.58329,0.254957,-4.73248,15.842,2.31731,-4.82894,14.1813,2.56318,-4.20968,13.6613,2.69152,-3.74528,14.1418,2.78495
6.8957,0.0723514,-4.95688,18.792,1.32323,-3.19299,20.5616,0.569739,-4.57761,19.3744,1.56494,-5.55979,18.2003,1.1275
0.767805,0.0906138,10.2465,17.0876,-1.00867,10.5467,16.9841,-0.56741,10.2562,17.4788,-0.991078,10.4931,17.1898,-0.573717
1.92004,0.609147,9.8825,14.3853,1.60734,9.32952,14.6978,2.06121,9.2128,13.9738,2.03072,9.30391,14.5611,1.94151
0.968963,0.145263,7.8786,22.2363,1.05005,6.67406,22.2038,1.51,6.95363,22.2009,1.271,6.63644,22.2613,1.70064
4.59435,0.114434,0.384901,8.11887,1.10495,0.108229,8.44705,0.867926,-1.20761,7.92256,1.25952,-0.966046,8.69044,0.891231
12.76,0.429539,-2.47693,5.11767,2.41462,-4.13331,4.96987,3.07089,-4.31959,4.70771,2.95778,-0.718381,5.72428,2.97224
0.0872071,0.00703483,5.23139,20.806,3.78757,5.15257,20.0873,3.81767,5.38296,20.2574,3.82537,5.28,20.1104,3.82469
2.65973,0.189692,-4.94186,8.37522,0.821446,-5.12875,7.0715,0.625333,-4.69929,7.52943,0.755476,-4.44316,7.54962,0.755716
30.5676,0.602233,6.40003,13.7711,-1.47297,5.87675,11.3875,-1.28158,6.2867,17.9635,-0.44511,6.54543,10.0289,-1.11596
4.8767,0.190994,-6.68769,12.6458,1.32401,-6.91035,14.9896,1.41899,-6.92145,11.7798,1.74825,-6.85157,14.8378,0.917971
3.66137,0.523075,-2.87144,20.2183,1.81825,-2.39771,17.4738,2.31864,-2.74228,17.3463,2.29569,-2.52553,17.5109,2.28027
6.0631,1.47292,3.80107,22.1784,3.08597,2.38287,21.4533,2.52117,2.39965,21.0996,1.67588,2.42703,21.0903,1.7918
2.4441,0.143778,-0.0915091,5.94409,2.66408,1.96557,6.55079,2.57101,2.23905,6.71237,2.5742,0.652817,6.38008,2.8336
3.71702,0.0412528,9.79813,16.4201,1.83013,10.3522,15.7512,0.348433,10.551,15.8317,-0.19769,10.3077,15.6507,0.463258
2.52684,0.00567998,-5.13072,18.991,1.7488,-6.43704,17.8296,1.5063,-6.35032,18.0584,1.65739,-6.23553,17.863,1.41222
0.222574,0.013117,-0.71476,20.5163,2.3575,-0.954925,20.5386,2.24181,-1.27203,20.8978,1.91467,-0.86624,20.7543,2.18623
1.22384,0.277285,-4.95346,14.1612,2.57402,-4.77864,13.0423,2.67645,-4.51571,13.2117,2.6236,-4.49245,12.9693,2.70909
8.82098,0.00698739,8.35236,8.63259,1.46313,5.37342,8.84218,0.875879,6.26401,8.79042,1.52864,8.79742,8.56465,0.502161
1.75838,0.183492,3.07687,9.99451,3.42124,1.90639,10.1154,2.9612,1.82426,9.90647,3.01946,1.79251,10.0871,2.91399
1.75694,0.0626065,1.57337,8.1875,0.189457,0.930922,8.27005,0.278255,0.190167,8.05985,0.0453832,0.254229,7.97576,-0.0910465
4.78392,1.19538,7.40756,22.5051,2.10907,9.02982,22.3687,1.42297,9.02089,22.4599,1.69622,8.94269,21.9397,0.59475
5.65371,0.0212243,7.95994,13.4029,2.32311,9.59682,12.1036,2.0642,8.9143,14.7733,2.40424,8.55818,14.5493,2.39853
12.0028,0.020378,-2.3459,7.95879,1.15354,-1.33339,7.2456,1.28041,-3.772,7.55491,0.885341,-2.88032,5.88065,0.985745
0.210762,0.129301,-7.23535,10.9303,1.23991,-6.99174,11.0332,1.11231,-6.92548,11.6059,1.26513,-6.96796,10.8966,1.00081
1.01147,0.0341711,0.960436,17.5074,-1.06118,2.19624,16.6078,-0.893076,2.27522,16.8129,-0.908912,1.91339,16.6871,-0.925575
3.73403,0.376907,-4.20307,5.78922,2.75961,-0.655722,7.2923,3.44004,-2.14264,5.7145,3.28952,-3.18424,5.35557,2.93517
1.83945,0.0515795,9.69636,17.6396,1.84478,10.6276,16.8286,-0.216146,10.2832,17.3531,0.416659,10.5789,17.0534,-0.257509
0.123311,0.0159885,5.73925,17.2534,3.89015,6.09811,16.8411,3.88817,6.63778,16.673,3.86772,6.54244,16.5424,3.88612
9.06504,0.113263,3.4598,18.0813,3.56632,5.86802,16.2207,3.88596,5.82582,15.5605,3.82971,4.70157,17.672,3.71324
7.79996,0.515003,9.22772,14.199,-0.110598,9.33557,13.1718,0.25669,10.0663,15.237,0.301588,10.1179,14.4438,-1.18567
4.74468,1.09174,-1.72009,9.88792,0.239461,-2.55163,13.2024,-0.277535,-2.75609,13.5325,-0.102027,-2.83253,13.6551,-0.0518555
5.15135,0.375399,-2.43538,12.0758,2.32755,-3.18537,12.3208,2.91104,-1.57881,11.8327,2.49184,-2.50844,13.5682,2.77059
1.57543,0.0105902,1.51952,20.8409,0.954553,1.28981,21.14,1.33623,1.7177,21.4283,1.7364,1.34616,21.3686,1.63228
0.150963,0.0248947,-4.24556,8.71821,3.4616,-4.49544,8.68279,3.45136,-4.45968,8.88253,3.44656,-4.37284,8.87323,3.44175
7.42717,0.486567,0.149909,10.1233,2.4188,-0.646129,9.74894,3.07028,-0.302602,10.8624,2.72609,1.75065,10.0097,2.89482
1.44351,0.0713344,-7.09888,3.78352,3.01537,-7.64133,4.08863,3.04288,-6.76184,4.26347,3.26638,-7.02677,3.61426,3.06789
0.0950574,0.0271059,-3.61538,4.60301,0.803176,-3.33484,3.97241,0.84764,-3.41444,3.99685,0.833542,-3.88671,4.68206,0.782528
6.29541,0.706644,-3.7808,15.6185,0.481152,-4.98298,18.2151,-0.776195,-5.10352,18.0643,0.163181,-4.9085,17.2038,0.333753
0.140493,0.0362204,-5.48994,1.60135,0.833832,-5.24831,1.58367,0.687959,-5.60777,1.43002,0.807408,-5.47996,1.43341,0.754127
1.00818,0.0168522,7.48355,18.1484,3.66241,7.91961,17.6935,3.55553,7.55384,17.6409,3.63597,7.42178,17.7507,3.66345
9.19112,0.245342,-8.66007,2.74159,2.10266,-8.73398,1.92187,1.78672,-6.35997,2.96696,2.11226,-6.61644,2.68513,1.94341
3.8558,0.18804,8.76638,10.9538,-1.57928,9.60911,9.9209,-2.56786,8.72136,10.7747,-0.884316,9.22997,11.3956,-2.41537
0.643633,0.0358204,-2.04712,12.1625,-0.458284,-2.00458,12.9495,-0.865533,-1.93693,12.9138,-0.9186,-1.92512,12.282,-0.679409
2.45819,1.16561,6.25369,18.3447,-0.368736,6.32763,19.9932,-0.312879,6.21519,19.8687,-0.248816,5.9109,19.5549,-0.115665
8.49338,0.00812538,4.99339,15.7531,-0.409387,5.34771,13.2339,-1.26171,5.03158,12.3467,-1.20663,5.16536,12.7696,-1.2194
10.9514,0.258928,-10.422,3.78317,0.924284,-9.59418,6.48429,1.82889,-9.37549,6.86596,1.15781,-9.32984,7.32427,1.58911
2.55186,0.0691046,9.88344,18.0801,1.54268,10.1946,18.1429,0.560846,10.375,18.5413,0.0242034,10.3692,18.6839,0.130978
12.5905,0.760827,-6.89439,10.4078,1.89485,-4.82562,10.4028,3.2373,-4.91651,10.2679,3.21759,-6.26915,9.6642,2.87598
0.781192,0.643766,4.15106,8.45982,3.10019,4.13935,9.36948,2.74144,4.32712,9.39049,2.7014,4.20514,9.36811,2.72408
2.41584,0.128984,6.76543,20.1881,3.76328,7.20982,18.3725,3.76164,7.51181,19.7151,3.72929,7.34532,18.2945,3.73173
8.62454,1.4333,-6.38694,5.9839,0.219414,-8.8634,7.23053,0.818745,-8.81292,7.44995,0.861612,-8.84807,6.35014,0.465249
4.23617,0.0827997,4.04208,11.89,-1.39369,3.09242,12.0481,-1.4052,2.904,10.3475,-1.34288,2.50057,12.4663,-1.36947
23.4558,0.404742,-2.22806,4.0345,1.49181,1.52593,5.5389,1.60429,1.60904,5.70682,1.67867,0.418806,5.7662,2.13038
0.934867,0.00983543,10.3788,19.5193,-0.137575,10.3956,19.0146,-0.315818,10.425,18.7839,-0.153227,10.4487,19.2351,0.285888
0.121827,0.0493265,-1.24635,10.1965,-1.29938,-1.27064,10.661,-1.28621,-1.10157,10.4142,-1.33247,-1.13818,10.6937,-1.29272
4.05874,0.134367,6.80896,22.5105,2.79652,8.18324,22.7403,2.87186,8.11988,22.6283,2.3042,5.94897,22.6684,3.16308
0.726321,0.641393,-7.23222,2.08387,0.272839,-7.53314,2.71827,0.491292,-7.77738,2.66444,0.407915,-7.71002,2.68306,0.458556
12.2109,0.228669,-6.60722,7.1934,0.455592,-7.94051,8.35397,0.701771,-6.10856,8.14812,0.589305,-6.76291,8.93951,0.583057
70.1714,0.0897872,4.91342,11.0831,2.44114,7.11302,14.0836,3.30817,6.34219,15.515,3.78405,4.20814,14.1396,3.49589
0.31271,0.0740915,7.56148,7.71931,-1.86453,7.57397,7.71035,-2.1287,7.9589,7.51231,-2.42137,7.78832,7.56409,-2.40216
6.46964,0.113989,5.04523,19.5546,0.0521791,6.0505,20.4863,-0.0660675,5.22599,21.3007,0.324587,5.79424,21.6358,0.165436
1.13926,0.115176,-3.23926,5.58925,0.932256,-2.45695,4.81731,0.89861,-2.71775,4.80218,0.877437,-2.39882,4.89563,0.923186
4.32547,0.0221064,9.18205,9.70382,-3.64325,8.92053,11.1355,-3.22867,8.80721,8.90143,-3.75124,8.61801,11.011,-3.16605
24.359,0.823343,4.24508,16.2262,-0.0821981,2.8708,18.4084,-0.849501,2.84068,15.3616,-0.235813,2.08269,13.712,-0.746485
0.797533,0.00515486,-2.74239,15.2542,-0.685909,-2.27063,14.7876,-0.978512,-2.22759,14.4809,-0.943661,-2.18444,14.5318,-0.993086
1.38583,0.016434,8.80896,10.0477,-0.649438,8.84047,9.23765,-0.00995115,8.92083,8.81955,-0.335917,8.90798,8.83491,-0.207026
16.1048,0.521554,-8.00332,5.8846,2.61716,-8.32529,6.59442,3.48265,-4.97241,5.11602,3.61517,-8.36022,4.92307,2.64664
23.9758,0.0638097,-8.45735,1.35327,1.39384,-5.71106,1.15265,0.681246,-3.891,3.55562,1.36631,-3.33306,2.89174,0.910646
14.9357,0.100454,-4.65764,4.91589,0.640983,-6.35413,2.77782,0.372009,-7.11715,3.74576,0.407734,-6.51499,3.66393,0.451047
13.0403,0.0731063,-8.48396,2.18751,0.159919,-9.39491,5.32595,0.222377,-8.2914,5.92403,0.363012,-7.70292,3.70379,0.364634
1.00882,0.338165,-5.17039,18.0877,0.428344,-4.70888,18.8025,0.626253,-4.61338,18.9044,0.333014,-4.70452,18.8461,0.286614
3.52663,0.118371,-8.42741,8.11235,3.02722,-9.39292,6.24793,3.20831,-9.42045,6.27016,3.10183,-9.72766,5.85616,2.79774
9.85745,0.0815228,1.82148,18.7622,3.01874,3.00736,21.3696,3.24416,1.36751,21.2059,2.65119,2.58842,18.913,3.20569
1.91979,0.101741,-9.10133,1.92743,0.500915,-8.19665,1.18447,0.498171,-8.06627,1.18959,0.3697,-8.22502,1.00345,0.692484
0.427039,0.058201,6.40752,12.2055,-1.47624,6.26179,12.5565,-1.34422,6.4393,12.75,-1.46909,6.3438,13.0609,-1.43373
6.59051,0.193953,4.65583,18.4206,-0.00750786,4.32627,17.8323,-0.302524,4.37842,20.2059,0.000573009,5.53872,19.7724,0.0333844
2.54076,0.107981,9.87664,19.305,1.52635,10.2941,20.5463,0.159485,10.317,20.4761,0.0917845,10.0405,20.7274,0.867027
0.477203,0.328238,3.63712,20.3546,-0.131467,4.02248,19.5798,-0.35189,3.96987,19.435,-0.400545,3.86281,19.5373,-0.459717
3.61392,0.258383,5.29612,17.6384,-0.124984,4.55599,16.6224,-0.0917042,5.10691,16.0059,-0.352491,5.3293,16.3668,-0.262681
4.05655,0.036246,-3.63202,17.5557,2.12631,-3.80273,19.4187,1.81184,-3.97924,17.1394,2.13442,-4.39275,19.0615,1.83712
0.509705,0.0393477,9.12717,20.2773,-1.74023,9.15118,19.3974,-1.59915,9.20999,19.4215,-1.49752,9.1332,20.5505,-1.65721
2.09769,1.09997,-6.45802,12.0702,2.40591,-6.94515,10.8654,1.72562,-6.88104,10.743,1.7294,-6.81788,10.5704,1.86736
19.1265,0.42438,2.63641,15.2113,-0.276414,-0.467102,14.2793,-0.816207,-2.77066,16.1824,-1.46738,-2.10785,17.806,-1.76084
2.4643,0.258119,-0.497361,8.94769,-0.292628,-0.378793,8.50054,-0.606949,-0.413275,8.5451,0.0824941,-1.45294,9.42677,-0.11514
2.02532,0.987263,9.07614,13.431,-2.67308,9.05333,11.3166,-1.89889,9.1665,11.5772,-2.11277,9.14204,11.7906,-2.42198
4.12946,0.0854135,-2.89325,11.0549,0.751655,-1.03086,8.75932,0.852424,-1.83246,9.81822,0.817095,-1.07804,8.67569,0.939989
18.3046,0.362524,-3.22891,10.3207,2.87886,-0.654939,10.9567,2.93154,-2.99454,11.8501,2.93341,-1.01801,10.1447,3.11717


