
0.566716,0.00144778,4.89099,0.242307,-0.0133573,4.33429,0.211668,-0.228069,4.37248,0.236575,-0.122109,4.59402,0.275138,0.0707222
0.883839,0.181965,-15.4239,18.8087,1.40175,-15.3776,18.5656,2.14229,-15.2868,18.8746,2.37924,-15.3154,18.6385,2.32029
1.8093,0.858699,2.69619,10.1838,3.74467,1.21948,9.95757,3.82533,1.15478,9.81443,3.9196,1.17658,10.0611,3.82522
1.74811,0.0183789,15.8571,1.56839,0.0559221,16.1284,0.863871,-1.30324,15.9009,1.14464,-0.356451,16.214,1.04097,-1.43516
4.11586,0.717334,-12.4901,7.11081,-3.78653,-12.5739,8.70702,-3.61142,-13.5597,6.84766,-4.36653,-13.4676,7.19479,-4.18014
4.18081,0.00932389,8.02133,9.7926,1.64926,5.53307,9.88233,2.68781,6.14629,9.6823,2.483,5.63501,10.1025,2.58459
3.48979,0.280852,-1.68904,5.40249,4.17529,0.191203,4.72147,4.08226,-0.554199,4.70251,4.05084,-0.687624,4.25645,4.11336
9.92892,0.314612,-0.898942,17.4279,0.357811,0.156753,17.1985,-0.0892869,-1.87066,15.8558,-0.574393,-3.15349,15.9066,-0.530414
1.54474,0.0936852,-10.098,3.53965,1.97543,-10.463,4.9396,1.83329,-10.5715,4.97292,1.74404,-10.4304,4.32728,1.72675
22.0063,0.990037,-13.4955,5.96393,-3.87485,-10.6137,7.80657,-2.98246,-9.49456,7.42955,-2.79239,-10.426,5.41387,-2.44146
2.5653,0.0230788,7.06873,8.56358,-3.11534,6.88413,7.76223,-2.5982,7.30077,8.83066,-3.28392,7.87186,8.52474,-2.91426
5.21299,0.193943,-0.636869,15.0027,3.72438,1.02469,14.7863,3.61952,0.860446,15.0109,3.62561,0.751112,14.3043,3.73056
5.95464,0.453479,-0.223143,9.85709,3.87463,-3.89478,9.83538,4.08511,-3.44901,9.62113,4.06301,-3.41989,9.30627,4.14701
1.28367,0.185564,8.62183,5.59177,2.22734,8.44184,4.71702,2.56344,8.06457,5.54486,2.6712,8.36754,4.96731,2.54299
5.77728,0.424643,12.3796,5.93743,-0.964496,11.2353,8.43582,-0.611678,11.6226,7.32161,-0.561305,11.6133,7.43234,-0.501848
1.69121,0.287245,3.17542,3.27145,-0.854373,4.50673,3.48378,-0.8329,4.00481,3.15805,-0.8837,4.42641,3.64584,-0.906495
2.95248,0.0609384,-3.79599,13.509,-1.2873,-3.32365,12.8444,-2.19589,-3.11751,12.9274,-2.18206,-3.12224,13.2282,-1.81427
3.3534,0.531312,-13.4037,13.0479,-2.03975,-11.6415,12.0606,-2.3361,-11.4663,12.0664,-2.29328,-11.7925,12.0073,-2.45519
1.03989,0.0355225,-9.39971,11.1277,4.24315,-8.99949,9.96106,4.27082,-8.95833,10.3728,4.27598,-8.91745,10.0171,4.27252
0.746859,0.0755794,12.3032,0.376134,-0.135549,12.5234,0.243748,-0.956888,12.7262,0.321281,-0.656772,12.6233,0.258056,-0.90206
3.07282,0.155394,7.8693,12.4625,-0.744564,6.89137,13.2039,-0.593248,6.19109,13.8419,-0.786902,6.12813,13.9083,-0.746926
13.47,1.9467,-4.17738,4.76414,-2.02148,-6.44106,3.70749,-1.41333,-6.12742,5.81635,-2.39899,-6.37265,4.55539,-1.6471
2.5849,0.047083,-12.2657,9.09329,2.37619,-11.5031,8.43088,3.18853,-11.9519,9.17631,3.34272,-11.8928,8.68906,2.51309
1.48031,0.0881366,1.91884,6.3297,-2.11398,2.53397,6.66954,-2.17413,3.13683,6.79699,-2.28088,3.10959,6.50509,-2.21892
1.64486,0.00754642,6.76833,5.39406,-1.68768,7.42925,4.07216,-0.957008,7.1202,4.14461,-0.957491,7.34298,4.04545,-0.927436
34.9251,0.604639,-6.73413,9.06221,-2.60866,-4.69482,12.406,-2.5275,-3.64081,9.73467,-3.03651,-4.67307,10.9904,-2.60565
0.964458,0.0750774,-5.50013,10.5334,4.26139,-4.02153,10.1387,4.11616,-4.26484,9.98429,4.10165,-3.98024,10.0058,4.09979
1.03287,0.149203,5.94745,5.22993,-1.76454,5.05097,4.62462,-1.49229,4.99862,4.78579,-1.55325,5.01952,4.90659,-1.59259
8.49359,0.177393,9.33363,9.99147,-2.66968,9.81017,9.64238,-2.78462,8.04573,10.0138,-3.41291,8.12454,11.3077,-2.94803
4.61034,0.468453,2.08771,1.26053,-1.32265,4.18946,2.37763,-0.987878,4.04314,2.47892,-0.964951,4.31709,2.39229,-1.0002
10.9298,0.186194,3.23436,0.698252,1.65449,3.0912,1.6677,3.14153,1.70273,1.13051,2.492,1.52993,1.35697,2.97179
7.55414,0.0272564,-1.92024,4.11211,-1.36271,-3.12813,2.89478,-1.06631,-3.65366,2.94746,-1.16699,-3.47035,3.92944,-1.50439
0.623152,0.617081,5.93871,9.47828,-3.35034,6.80092,9.63449,-3.38544,6.89089,9.57227,-3.39447,6.70661,9.69959,-3.37757
1.01018,0.345224,1.08672,0.952015,-1.20203,1.71779,0.752582,-1.18706,2.05029,0.952822,-1.29142,1.82617,0.882243,-1.19982
17.5307,0.15726,6.77005,9.0032,2.42723,9.75453,7.0441,1.40533,8.85562,8.29427,1.52127,8.83673,6.55593,1.89652
7.19223,0.0436228,2.66572,1.89082,3.36043,-0.07044,2.5095,3.7087,2.37093,2.5657,3.56806,0.110324,3.34153,3.98603
0.535588,0.00236667,-3.72899,16.6474,3.55217,-3.33363,16.1339,3.59296,-3.21534,16.1757,3.58009,-3.28589,16.313,3.56755
1.11802,0.567531,11.482,2.83127,1.45998,10.9356,2.41793,1.5618,10.8005,2.87373,1.56735,10.926,2.58632,1.45695
13.3161,0.384988,-3.90262,13.8387,-0.753805,-6.06612,14.218,-0.928023,-5.70164,13.8651,-1.02563,-2.20636,14.2892,-1.16366
1.31547,0.416968,1.09546,10.0168,3.82278,-0.0973559,9.71519,3.92399,-0.0161373,9.84509,3.87318,-0.0578552,9.95301,3.87896
3.48513,0.806725,-1.78674,13.0974,-2.61481,-0.354685,13.3177,-2.94883,-0.347892,12.9685,-3.00818,-0.450689,12.3867,-2.98201
18.5403,0.370758,2.94682,9.76058,3.70651,3.58206,8.12093,4.01554,5.80892,10.3355,2.49045,5.89232,11.2284,2.31974
3.30252,0.125011,10.284,5.5195,1.55771,12.8341,5.62245,0.603166,11.9871,5.83661,0.778147,13.1876,5.37565,0.590892
16.9596,0.455805,-13.8288,9.54646,0.235153,-12.93,7.79623,0.42114,-15.0646,9.4487,-0.941992,-16.1535,11.4548,-1.78443
5.95955,0.210715,-8.12649,12.6645,3.73865,-10.6214,12.3873,3.24095,-10.6123,12.5982,3.21367,-8.21021,11.9483,4.03742
0.593283,0.0941217,-0.738159,10.983,4.07895,-0.974827,11.4991,4.06076,-1.22755,11.6329,4.04653,-1.32922,11.6202,4.05824
3.31668,0.144722,-15.6826,12.8423,-2.10489,-15.3054,11.9257,-2.92694,-14.5892,12.183,-2.98077,-14.7355,12.812,-2.56774
0.549227,0.000317153,2.36338,10.2596,-2.94642,2.3061,9.4643,-3.0675,2.21134,9.48216,-3.0893,2.4175,9.78593,-2.99587
20.8277,0.347866,2.91996,3.36938,-0.911425,-0.831223,2.99839,-0.911565,-1.43343,2.55319,-0.947126,1.39796,1.99538,-1.4219
0.582881,0.0183674,10.5912,8.0381,0.431557,10.7263,7.46118,0.661632,10.8276,7.48123,0.582009,10.8976,7.58534,0.48033
22.9207,2.7651,4.25341,15.3723,-2.09523,10.676,10.202,-1.77678,10.8597,9.47443,-0.951271,10.4846,9.91168,-0.612397
8.82697,1.78842,-7.96127,2.0822,-0.995246,-5.97892,3.18396,-1.40691,-5.57726,2.918,-1.32571,-6.34769,3.5499,-1.39828
3.01002,0.00688591,-13.1901,10.4324,-3.27612,-13.3363,12.0827,-2.90804,-13.0277,11.7261,-3.00553,-13.7151,11.0217,-3.10691
0.155469,0.0618781,-14.6804,20.2127,2.16846,-15.2398,20.1181,2.29573,-14.6224,20.3447,2.38456,-14.7289,20.3231,2.45173
2.40503,0.0282249,9.50216,5.56162,1.75149,8.86771,6.20723,1.90254,8.89112,6.50489,1.87194,10.211,6.04381,1.4295
2.55135,0.0405604,12.8435,5.66614,-1.0597,13.4014,5.74849,-1.18085,12.9162,4.93493,-1.58159,12.4176,5.09079,-1.37336
4.51808,0.117948,4.38351,8.2242,3.51078,4.65516,8.79374,3.34934,5.03315,6.41484,3.5479,4.93769,6.36995,3.62564
1.65098,0.0316157,-10.5267,18.2694,3.09679,-10.5523,19.2947,2.54588,-10.8046,18.8752,2.86436,-10.7001,19.2442,2.61892
1.2686,0.0412411,10.6231,3.08185,-1.92156,10.3541,1.71902,-1.76966,10.2716,2.35162,-1.8508,10.1954,1.84907,-1.7804
3.48169,0.221558,14.5704,0.772549,0.254606,15.2036,0.406535,-0.513667,15.375,0.394117,-0.460369,15.6957,0.668086,0.129129
0.367436,0.0419366,-13.8275,11.0236,-3.1227,-13.7575,11.8085,-2.99036,-13.8945,11.6894,-3.01797,-13.7345,11.3597,-3.03481
6.41597,0.536353,-12.0602,11.8154,-2.78244,-11.6115,10.3596,-2.9445,-12.2728,10.9588,-3.08069,-11.0127,9.92171,-2.85157
0.672604,0.309647,-9.80322,3.22716,-0.99878,-10.2217,3.39507,-0.825227,-10.1734,3.59814,-1.39227,-10.1921,3.5614,-1.23973
6.38387,0.251767,-1.28337,3.01306,-0.942723,-3.73552,1.56593,-0.682495,-3.94965,1.30246,-0.536562,-2.00235,2.36468,-0.929062
4.5722,0.310604,15.836,3.17916,-1.5214,14.2275,4.01613,-1.82439,14.9722,2.94832,-2.1496,14.3148,4.05054,-1.79093
5.86068,0.216566,-14.9043,9.0423,-3.55272,-13.8957,9.31524,-3.67792,-16.0222,10.5807,-3.08226,-16.4536,11.337,-3.00223
19.9591,0.243862,3.03933,2.49955,3.50424,1.41893,3.1979,3.87653,4.24591,4.44997,4.13994,3.42893,4.98958,4.23879
8.53973,0.42501,1.76332,15.0398,-2.35146,0.244519,14.3422,-2.36857,-1.30618,14.2557,-1.30564,-1.32912,14.317,-1.24418
2.48316,0.0711222,-1.34907,0.477514,-0.24471,-2.76156,0.501364,0.136872,-2.96902,0.560234,0.0961974,-3.06796,0.856134,-0.302782
9.62063,0.4268,-0.122598,5.98463,-2.09969,-0.582975,3.40066,-1.03662,-1.45677,4.03949,-1.2745,-1.42497,3.40664,-1.11005
2.86642,0.250332,-7.75198,14.6427,-1.14073,-8.14613,12.7214,-1.60169,-7.96401,12.6332,-1.63717,-8.11349,13.6124,-1.4865
1.22837,0.0759191,-4.92032,0.693292,-0.0664379,-6.27205,0.633809,-0.239458,-6.16078,0.657594,-0.294663,-5.63485,0.520066,0.12379
0.178422,0.0893906,0.871801,10.8799,-2.80138,1.02541,10.5421,-2.86118,1.14096,10.4748,-2.8606,0.941509,10.5104,-2.85197
13.7541,0.709974,-13.2744,11.9994,2.96175,-13.9629,15.1091,2.73778,-13.9246,15.3739,3.24162,-13.8183,15.2788,3.43844
0.347002,0.0167147,-10.2411,4.52044,-2.07945,-10.61,4.35663,-2.12271,-10.7608,4.47142,-2.20842,-10.8634,4.34383,-2.19828
0.589759,0.0312289,-7.55543,10.4664,4.27879,-7.94366,11.1756,4.31214,-8.07475,11.1592,4.30812,-8.08626,10.8449,4.30199
7.42311,0.79507,-9.9505,12.1395,-2.04678,-11.2951,13.6884,-1.36344,-11.2085,13.4352,-1.33489,-10.9589,12.6759,-1.60013
8.25992,1.29922,-0.738876,6.27341,4.3305,1.00126,3.92297,4.06416,0.945501,5.03658,4.05712,1.17646,7.61852,4.36852
1.36237,0.274968,2.11873,4.18258,-1.52082,3.28154,4.72574,-1.6913,2.87581,5.03227,-1.81675,3.15303,4.7677,-1.69795
2.51595,0.305197,0.898361,0.819458,-1.07283,-1.11608,0.36649,-0.109473,-0.232707,0.465896,-0.292983,-0.398552,0.536822,-0.323907
28.4971,0.0276648,-13.3586,11.7426,2.08286,-14.1934,14.4626,1.68612,-14.6841,13.3233,-0.365962,-14.2855,14.3409,1.36374
12.0598,2.34338,3.16525,7.84286,4.38335,2.0484,5.4654,4.23184,1.47239,5.74693,4.18595,0.456696,6.16513,4.22762
3.55936,0.12563,-7.65314,8.57605,4.05049,-6.04159,9.28329,4.13307,-5.58954,9.1812,4.11125,-5.57009,9.28028,4.11365
1.1062,0.386899,-2.00951,14.2653,-1.16824,-1.47354,14.1243,-1.41305,-1.38691,14.3759,-1.21505,-1.49465,14.2394,-1.20068
11.4286,0.0772348,-13.5422,11.2818,1.41955,-11.0569,6.00192,1.79716,-11.8349,8.06834,1.93766,-11.1197,6.02789,1.70231
0.432334,0.630001,5.69939,0.292475,-1.59416,6.21609,0.44928,-1.93243,6.17107,0.513879,-1.98873,6.26663,0.362587,-1.87869
1.83447,0.172571,-7.03279,8.45895,4.11738,-7.6064,7.70729,3.95742,-7.89065,7.97324,3.93549,-7.86704,7.62374,3.86105
80.5243,0.164808,-11.4023,13.8007,-1.356,-14.5659,19.7824,1.82388,-14.9416,19.7143,1.74778,-15.4383,17.1827,0.151783
13.5589,0.232049,7.89288,10.5404,1.52626,10.7088,9.2828,-0.379026,10.9251,8.66383,-0.284797,10.0832,10.064,-0.134301
2.87279,0.142236,-3.18733,18.1631,3.04711,-1.30033,18.0081,2.99681,-1.06576,18.1186,2.95492,-1.23735,18.3099,2.87062
20.1617,1.01204,-5.69229,3.25537,3.71237,-7.18725,3.12425,2.69308,-7.26768,3.24999,2.71523,-6.86501,0.920991,2.32525
4.63458,0.397769,-6.76242,12.7898,3.92946,-4.37403,13.2501,4.06147,-3.71498,12.9216,4.09333,-3.74778,13.0942,4.05452
0.914552,0.216429,-3.94755,10.0612,-2.85394,-4.18982,9.45098,-3.02154,-4.4229,11.386,-2.60719,-4.46582,11.2804,-2.58863
3.7263,0.0469229,-8.29944,17.3175,3.14477,-10.9294,17.0367,2.94679,-10.2476,16.9509,3.0088,-11.1637,16.9516,2.94211
1.93294,0.200976,-0.905352,17.84,3.13906,-0.786707,17.1002,3.20855,-0.489245,16.8501,3.32758,-0.367032,16.9011,3.31952
2.52659,0.011142,-11.448,5.11873,0.665685,-11.4679,5.40476,0.81153,-10.5684,2.9574,1.23968,-10.9865,3.6612,0.797982
16.8553,0.548788,2.82635,7.37707,-2.5794,5.04782,6.20109,-1.93841,4.4375,8.05923,-3.31846,5.59884,7.29396,-2.53225
5.38577,0.18044,-13.3994,13.4475,-1.68784,-12.4807,13.5528,-1.53104,-12.7568,14.2871,-1.3345,-12.1203,13.9622,-1.45232
1.53103,0.570536,-3.22131,16.0696,3.58556,-2.63167,14.8794,3.77315,-2.46187,14.9729,3.76517,-2.54954,14.9145,3.76675
2.07222,0.109224,-3.84261,17.0355,0.221643,-4.5285,14.8464,-0.850983,-4.41604,14.8759,-0.880196,-4.02505,15.8872,-0.47603
3.31176,0.24376,-5.37421,6.82621,4.3183,-6.53719,7.03454,3.89621,-6.92759,6.93806,3.60509,-6.91922,6.77596,3.56401
9.05358,0.0412809,-8.78964,17.9541,1.53094,-7.3708,16.9058,1.12376,-7.89761,18.0548,1.65346,-6.57676,18.8813,2.08949
0.0682592,0.0668717,13.9195,6.28665,-0.713525,14.2067,6.15733,-0.754889,14.1709,6.24172,-0.636269,14.288,6.14923,-0.661126
2.05987,0.0874718,14.7075,0.310072,-1.10291,15.9976,0.238788,-1.70175,15.7716,0.284175,-1.15629,15.8248,0.220504,-1.76753
8.28251,0.162118,6.30246,3.38214,-0.74859,4.42412,2.72279,-0.825756,5.24384,2.80449,-0.758924,4.43474,3.17295,-0.739921
7.0966,0.412674,14.0124,4.72588,-1.76395,12.168,3.73676,-1.88016,10.5587,3.34803,-1.92796,11.204,3.65677,-2.05486
6.27889,0.108891,-11.0283,18.0604,3.08231,-13.3388,19.8352,2.96606,-14.0934,19.4932,2.99635,-13.359,20.279,2.95082
0.292606,0.0629441,15.4892,4.05139,-0.281812,15.4177,4.20884,-0.334741,16.0554,3.8313,-0.879232,15.9633,4.02767,-0.831095
2.87595,0.000845683,9.51524,8.93686,0.641499,10.9499,8.10782,0.11219,10.0532,8.36702,0.624319,10.5395,8.85476,-0.0950449
15.2432,0.115275,6.78951,3.35339,-0.782709,8.60314,4.19223,-1.4769,10.5001,3.39285,-1.91918,10.4609,3.51527,-1.92004
3.01592,0.168154,-7.46552,0.906965,1.724,-7.42323,0.601051,1.43301,-6.81598,1.74527,2.3787,-6.83609,2.12356,2.47016
1.91196,0.62514,-15.282,14.8622,-1.10951,-15.2709,15.854,-0.553709,-15.1597,15.7433,-0.60084,-14.4266,15.0425,-0.805403
0.20415,0.00634727,0.106957,12.8031,3.97686,-0.29997,12.8336,3.97201,-0.227551,13.0306,3.94376,-0.328143,12.9092,3.96024
0.878786,0.124877,-12.5224,11.9477,4.27182,-12.9927,13.5668,4.08314,-13.1205,13.6625,4.0947,-12.6635,13.1426,4.10484
7.66943,0.187537,-7.98835,4.71547,-1.37289,-7.11954,5.41064,-1.77546,-8.48131,2.65666,-1.02186,-8.65151,3.18132,-1.15018
6.91907,0.00481636,-7.9507,0.993355,-0.221456,-8.19276,1.76813,-0.69603,-9.3372,2.59499,-0.630594,-8.94157,2.69115,-0.959845
4.62506,0.0196233,-10.1587,16.9066,0.509693,-9.94526,16.5236,0.234193,-11.4695,16.5502,0.0428209,-11.3659,17.3351,0.632027
1.70407,0.544893,0.745905,0.958714,1.98168,0.208847,1.42823,2.37442,0.301651,1.708,3.03479,0.275118,1.65569,2.86262
1.71403,0.305453,-7.31876,9.35903,-2.4316,-7.37089,10.3766,-2.18671,-6.92053,10.6648,-2.19898,-6.65105,10.6374,-2.32407
3.63842,0.739962,-10.2676,3.28325,-0.533652,-12.019,4.82348,-0.16656,-11.5062,4.12389,-0.0194836,-12.6424,5.16304,-1.04986
1.37342,0.0426661,-12.7584,8.79217,-3.62849,-12.6634,10.2918,-3.2155,-12.8185,10.3886,-3.24812,-12.6414,9.17195,-3.52331
2.32874,0.114884,-11.3822,8.27567,3.20206,-10.7624,8.07509,3.68547,-10.8393,7.94406,3.52268,-11.1689,8.78473,3.94019
0.943914,0.404972,-9.10005,11.9524,-2.04309,-9.83068,12.1525,-2.04235,-9.69527,12.2535,-2.12564,-9.73373,12.0465,-2.11027
9.69586,0.00764348,-15.2223,17.8955,2.06239,-14.0927,15.9575,3.46704,-13.8759,15.4826,3.58367,-14.0483,15.3578,2.71392
1.48199,0.0271542,-14.9512,13.5542,-1.28501,-15.0213,13.637,-0.926928,-14.5307,13.9171,-1.39686,-14.3777,14.2292,-1.15063
2.58489,0.169411,-7.45356,0.614898,1.25639,-5.94066,0.454057,0.481928,-5.35307,0.36027,0.673773,-5.66178,0.408488,0.55842
0.163169,0.0141901,6.28501,13.3275,1.73581,6.34918,13.1617,1.76692,5.90097,13.5928,1.86112,6.13906,13.0982,1.88363
1.18231,0.0548733,7.34946,2.78273,3.38934,8.18421,2.46796,3.12201,8.42405,2.5463,3.07026,7.6739,2.5131,3.28479
2.8759,0.180597,10.362,3.8277,1.86862,9.66234,5.1164,1.81683,9.77633,5.15851,1.77983,10.6724,2.92822,1.63775
8.53017,0.28987,-8.16345,10.5057,-1.44349,-7.87281,12.3567,-1.65656,-8.07968,12.5963,-1.60134,-7.72252,9.11554,-1.92087
1.56814,0.619951,-15.1129,15.2017,-0.116512,-14.8913,13.5803,-0.712229,-14.94,13.6231,-0.821445,-14.7423,13.686,-0.431828
2.56575,0.126532,-13.7479,18.8001,3.14284,-14.6317,19.03,2.70647,-15.2129,18.7822,2.38039,-14.9617,18.9524,2.54244
4.73181,0.00933548,-8.39631,6.65197,2.86555,-7.64102,6.96269,3.18587,-6.99773,6.95016,3.57346,-8.51921,5.5193,3.21021
0.600056,0.00904935,-10.2469,5.88193,2.49587,-10.0254,5.82781,2.61352,-9.92698,6.02788,2.80006,-10.5118,6.42649,2.68056
4.52897,0.0337328,-12.9759,17.8965,3.14252,-12.4141,16.9415,3.08988,-13.6264,17.9128,3.27824,-12.0261,17.0872,2.96641
19.3805,0.0448219,-3.26234,18.8018,2.36215,-4.4537,17.0738,0.395691,-4.52107,18.9371,2.50993,-6.044,18.4078,1.81876
1.25298,0.0517271,-12.0433,8.87898,-3.43186,-11.692,7.75671,-3.42611,-11.8051,7.78505,-3.48523,-12.0137,7.95947,-3.58023
0.408591,0.347186,-15.2718,7.00499,-4.06087,-15.5263,6.93617,-3.79602,-15.5169,6.86445,-3.82302,-15.5075,6.68028,-3.92509
3.99775,0.881125,6.04072,7.02309,3.16894,7.57293,7.03587,2.60109,7.51488,7.23293,2.60432,7.66909,6.40862,2.71185
5.53009,0.15424,1.68164,6.24877,-2.05815,1.95548,4.85185,-1.75163,0.0721593,5.14717,-1.77808,2.18511,4.93774,-1.79035
4.15241,0.133099,1.06362,6.66645,-2.13686,0.070523,6.52378,-2.26402,2.06793,7.02167,-2.36406,0.316427,5.96935,-2.06458
4.54953,0.0350873,-12.6807,4.86168,-2.23021,-14.1601,5.86888,-2.35355,-13.3424,5.57902,-1.38137,-13.2517,5.05211,-2.80673
9.87127,0.406217,-10.5534,17.8333,3.04106,-11.7164,16.172,2.80561,-9.16343,17.7258,3.12227,-12.6474,16.5021,3.23184
8.67841,1.39744,-11.1091,12.0051,3.31287,-10.7052,15.2971,1.9692,-10.3085,13.8188,3.02436,-10.6108,15.1058,2.02124
3.94942,0.435797,-6.89807,18.8333,3.22792,-4.8883,18.2696,3.15864,-5.10096,18.5423,3.184,-5.25137,18.9653,3.16888
3.00948,0.0545205,-14.3397,5.96881,-2.51558,-14.9793,7.35751,-2.25253,-14.9364,7.33003,-2.06952,-14.9841,7.26207,-2.61445
25.3945,0.390172,-1.5006,7.99867,4.41011,-3.64364,5.81288,4.1293,-3.83617,6.9308,4.27138,-3.12484,5.33437,4.13824
0.481825,0.00453881,4.18692,4.79259,-1.63056,3.90755,4.72872,-1.652,3.75156,4.44731,-1.52653,3.82481,4.40444,-1.48965
1.03052,0.164102,2.68476,5.40169,-1.99211,3.4405,5.06675,-1.81408,3.48294,5.25926,-1.90874,3.28773,4.82028,-1.71717
2.21397,0.580518,-2.29751,0.321454,0.407748,-4.08872,0.34968,0.906314,-3.8833,0.404285,0.762804,-3.48536,0.502704,0.440149
23.0921,0.985996,6.79718,10.7214,-3.27732,2.28142,10.7587,-2.88084,2.28388,11.6516,-2.89626,0.439102,12.9795,-3.16382
12.714,0.0829826,-5.27406,10.155,4.19967,-9.73553,8.74816,4.1567,-10.6432,8.73417,4.15236,-8.53247,9.85094,4.24743
0.35809,0.319533,9.05226,0.265695,0.110005,9.39585,0.145211,-0.477863,9.27361,0.167634,-0.439013,9.11364,0.182395,-0.40098
0.947859,0.0572336,-14.1741,13.0438,-2.27527,-13.5814,13.0552,-2.07524,-13.8967,12.8987,-2.31085,-13.4477,12.887,-2.25033
7.44124,0.104915,-9.07596,15.6398,-0.210113,-8.6024,15.8536,-0.00485679,-8.82524,14.1778,-1.73192,-10.1629,16.326,-0.0139579
0.73409,0.0144888,-4.43681,3.63382,-1.47766,-3.89855,4.02449,-1.60703,-3.93927,3.84216,-1.5018,-3.96385,4.1123,-1.67911
14.9626,0.286124,-10.9741,9.3695,-2.87988,-12.3766,9.32494,-3.48548,-11.2415,7.49608,-3.15728,-12.2914,10.0218,-3.26101
4.45365,0.000583819,-11.1192,11.8263,3.40363,-11.2776,9.85486,4.10816,-11.2041,9.79683,4.13815,-11.3734,9.79989,4.11693
15.2784,0.18305,8.22635,1.27313,-1.88888,11.9605,2.72557,-1.98667,11.6647,1.59405,-1.83805,9.52019,2.23236,-1.85881
0.915535,0.0487836,9.47755,5.08916,-1.45813,9.20541,5.17695,-1.48,8.56082,4.69236,-1.52925,8.53184,4.79496,-1.55344
7.1123,0.00445607,-6.66671,7.11856,-2.48737,-6.87625,7.54799,-2.34698,-5.98878,8.83264,-2.6985,-5.66654,8.43112,-2.8882
3.12437,0.0322621,7.39504,12.6841,-2.60591,5.76412,13.6837,-2.54921,6.31996,13.2142,-2.64444,5.41233,14.1597,-2.40101
4.45251,0.058303,-7.81621,15.7447,0.0226412,-8.59256,16.0467,0.178351,-6.70409,15.3457,-0.376115,-7.5427,15.0728,-0.78058
2.97113,0.354153,-9.40247,7.85616,3.99734,-8.68936,6.7496,2.93404,-8.49845,6.95863,2.96495,-8.82545,6.8424,3.01216
16.9388,0.0612858,-0.0151571,2.02465,3.30308,-1.00371,0.60787,0.915085,-0.779985,0.302308,0.341408,-1.52067,0.636354,1.06534
7.27796,0.0319481,3.13541,15.9459,1.56114,1.41633,17.4842,0.634221,2.03231,16.9776,0.820199,2.39012,17.0884,-0.0707649
2.62165,0.0170472,-5.62717,6.24075,-2.99458,-4.04471,5.23289,-2.39057,-3.79006,4.8206,-2.10343,-3.5783,5.1503,-2.36621
0.172377,0.0311299,-8.19476,13.7925,3.97441,-8.11064,13.5109,3.98491,-7.79255,13.4985,4.02812,-7.77116,13.6104,4.04422
3.14071,0.228678,-10.9482,15.8771,1.93066,-11.4174,16.164,2.49951,-10.5056,15.7061,1.92136,-10.8998,15.1573,2.07652
1.00493,0.0743517,-1.111,6.74298,4.35649,-1.48036,6.56233,4.30358,-1.60892,6.10504,4.30065,-1.73495,7.17788,4.33816
3.2164,0.107993,15.4556,1.63103,-2.28528,14.476,2.21549,-2.18406,14.0576,1.85841,-2.21149,13.8163,1.35989,-2.28415
3.47487,1.50213,-2.64527,4.22422,4.13573,-5.68145,4.02542,3.87586,-5.58756,4.13648,3.9473,-5.76554,3.94089,3.83499
3.19197,0.367421,-15.0799,8.61533,-2.21737,-15.4355,9.2448,-1.84119,-14.7465,7.90877,-1.2796,-14.4702,7.93414,-0.844758
0.40095,0.17987,-15.099,7.85987,-3.49305,-15.1182,7.72657,-2.85383,-15.0564,7.9231,-3.04779,-15.1006,7.8499,-2.91105
19.5372,0.39924,-1.18172,15.0502,-0.830271,1.74734,17.1297,-0.360969,-1.22494,16.2339,-0.375228,3.35458,16.5283,-1.24275
0.230443,0.0143148,-15.6994,19.2705,1.98263,-15.6429,19.0991,1.90786,-15.5618,19.3763,1.66122,-15.6743,19.519,1.91869
14.0207,0.411145,-8.95109,16.5398,3.25754,-5.66091,14.6857,4.05039,-5.54509,15.1889,3.92155,-5.54613,14.6631,4.08057
3.10824,0.0845791,15.9239,2.68416,-1.65737,16.3794,2.29374,-0.447652,16.0472,2.06418,-1.95198,16.3066,2.57795,-0.542258
3.25854,0.0248822,-4.26448,11.4955,-2.5812,-2.8476,10.4736,-2.90502,-3.49733,10.2821,-2.89085,-3.27631,12.5106,-2.4936
12.9118,1.33436,-8.83636,7.3502,0.17411,-8.56022,7.73659,-1.41224,-6.55936,5.64638,-2.16414,-7.99871,7.92556,-0.780371
5.75963,0.302524,-8.40387,15.4889,3.48718,-10.4423,15.8294,2.05706,-10.4053,15.6963,1.95473,-9.42831,15.8758,2.74441
12.3675,1.40021,13.1784,1.5764,1.20116,9.67961,2.31808,2.20458,9.66026,1.45839,2.22385,9.59256,1.27771,2.27883
3.81449,0.121539,-2.02843,15.8808,3.57102,-1.65657,17.1522,3.32908,-1.73697,17.3249,3.32601,-2.65141,16.9971,3.43915
1.77175,0.00932843,-1.07965,16.1869,3.54533,-1.39705,15.084,3.70554,-1.12946,14.5214,3.79749,-0.948656,15.0688,3.71359
0.435664,0.232799,1.05888,8.14643,-3.30397,1.91035,8.31477,-3.27009,1.74697,8.08531,-3.22609,1.8481,8.2009,-3.23917
39.9281,0.500076,7.97833,7.63436,-2.2859,11.2002,7.83173,-1.7679,9.20443,9.06275,-2.86696,10.0982,9.34923,-2.64405
3.90608,0.103891,11.2001,4.92122,1.59751,13.0268,3.61207,1.27343,12.9168,3.57689,1.32383,13.0715,3.81458,1.19048
5.57508,0.894939,-13.1345,7.64186,0.147101,-11.5916,6.21146,0.888742,-11.7691,6.72679,0.84684,-11.4705,5.88782,0.977094
16.0943,0.266006,-6.92398,17.0055,1.31706,-5.73661,14.4038,-0.784265,-6.67596,16.2597,1.12961,-6.00367,17.2678,0.767502
22.5985,0.266437,-11.799,19.496,2.43631,-12.1421,16.6219,0.538274,-9.55245,18.8335,1.80067,-11.861,15.9179,-0.0842512
17.0563,0.100773,-7.10311,13.1176,-1.69183,-6.14089,10.1728,-2.47348,-7.35782,10.5877,-2.14498,-5.83248,10.4973,-2.48816
2.51701,0.652022,-5.5548,9.0857,4.12579,-3.54174,9.23117,4.16721,-3.72732,9.34577,4.11586,-3.84968,9.47922,4.08959
1.14377,0.495308,10.9954,0.789452,1.24177,10.8321,0.526466,0.501393,10.7386,0.460102,0.455695,11.2834,0.542947,0.54461
22.2351,0.425391,-12.0236,9.58929,3.90496,-13.1441,11.1368,2.17711,-13.264,11.763,2.68139,-13.186,11.8804,3.56821
0.665218,0.136066,0.337362,12.1832,3.9971,0.746286,11.785,3.99625,0.847905,12.0401,4.01086,0.818923,11.6242,4.02649
5.82941,0.0119856,-4.52959,17.9095,3.09212,-3.24342,18.2054,3.05381,-3.71196,16.7443,3.52098,-3.32075,16.8188,3.51061
13.7515,0.238308,-3.72794,2.47013,-1.00006,-7.11597,1.42992,-0.942455,-6.7965,1.33763,-0.7992,-5.35494,1.39214,-0.597704
4.49485,0.14535,6.72151,5.64985,-1.77202,8.18802,6.03061,-1.9119,7.24695,6.51966,-1.94432,6.89398,6.407,-1.94484
2.12761,0.00692579,3.97263,0.234223,-1.32757,4.53036,0.373549,-1.6046,5.37568,0.357456,-1.63197,5.98587,0.122562,-1.24463
1.88876,0.0572114,1.8432,11.1733,-2.84861,1.17629,11.098,-2.84694,2.01884,11.8137,-2.96499,2.12374,10.6583,-2.89294
2.49858,0.0772025,6.83799,3.88581,3.47069,6.77577,2.69427,3.64742,5.96361,4.45671,3.66296,6.92988,2.76309,3.565
3.27359,0.514655,15.3822,4.5805,-1.45388,14.5974,4.76739,-0.208349,14.7155,5.21111,-1.00367,14.7093,4.78177,-0.787929
0.188408,0.0221565,2.11384,13.9012,3.36138,2.03917,14.1715,3.37678,1.96814,13.9641,3.46721,2.1455,14.1876,3.30554
0.69698,0.0568434,-2.16846,9.13539,4.22902,-1.18051,8.31763,4.38889,-1.24106,8.46961,4.37385,-1.27757,8.26096,4.39055
0.35989,0.26884,-7.76972,19.2883,2.23837,-8.26609,19.4144,2.483,-8.002,19.4416,2.46112,-8.40744,19.4169,2.48223
6.83038,0.180045,7.31797,12.7507,0.204026,5.46789,14.5477,-0.916471,5.93554,13.991,0.296092,4.97628,15.0689,-0.492179
7.46639,0.0971777,12.2969,5.47578,-1.14363,9.38483,5.25878,-1.45602,9.57306,4.98195,-1.51374,9.57014,5.35474,-1.40579
5.81307,0.998799,14.3656,2.24957,0.786901,11.9872,2.8086,1.29337,12.4054,3.1843,1.33074,11.5615,2.65189,1.43436
1.24187,0.0061214,-0.169667,16.98,3.30893,0.903248,16.4413,3.33263,-0.292341,16.8402,3.33706,0.863183,16.3363,3.355
2.00335,0.101772,1.64419,4.77544,4.13814,1.97749,5.41225,4.22205,3.03929,4.97408,4.2185,2.87935,4.87399,4.17822
13.441,0.150111,5.60189,6.25046,-1.86853,7.75653,7.81739,-2.42181,5.28437,5.35249,-1.75644,7.75112,6.60856,-2.03894
1.61803,0.816784,-7.79078,8.9976,-1.78195,-7.73809,7.80235,-0.976412,-7.88485,8.0589,-1.02689,-8.15382,8.19209,-1.26499
0,0.0762325,-8.23299,6.85852,-1.81307,-8.39361,7.01909,-1.71556,-8.41544,7.33319,-1.90734,-8.3565,7.11643,-1.90446
1.14334,0.0549048,-16.129,11.7823,-1.76865,-15.74,11.8248,-1.0664,-15.5826,12.3609,-1.04957,-15.6276,12.2456,-1.07081
3.7302,0.0488071,8.46227,11.5058,-2.67075,10.0291,10.6967,-2.26245,10.8539,10.1128,-2.44345,10.0963,10.6804,-2.17883
2.85237,0.0289864,-10.9538,5.46437,1.57559,-9.98742,5.20087,2.32182,-10.6444,4.9218,1.66353,-9.75505,4.687,2.38871
2.0341,0.275495,-4.60947,17.8582,3.09157,-6.12346,17.7408,3.14569,-6.14884,17.5313,3.1993,-6.29245,17.6259,3.1476
29.1042,0.302973,-0.681692,7.19081,-2.79376,-4.28609,5.73165,-2.90736,2.51301,7.51579,-2.72661,-2.5319,5.17034,-2.1513
1.16153,0.324145,-4.10661,1.22264,-0.448279,-4.30521,0.745317,0.0593056,-4.45255,0.811689,-0.0151567,-4.54282,0.887779,-0.162292
1.67931,1.06658,-7.94199,12.6542,3.76899,-6.87528,12.7419,3.92275,-6.86195,12.9358,3.93907,-6.86598,12.8534,3.91463
1.08861,0.592723,-3.88516,7.42609,-3.74277,-4.44523,6.81964,-3.76876,-4.92212,6.9191,-3.62646,-4.70862,6.89375,-3.6438
0.993573,0.0117316,-4.19441,0.93674,2.61038,-4.27867,1.2673,3.02561,-4.54017,1.33533,3.09952,-4.5599,1.27178,3.01364
5.64317,0.401469,5.14006,6.45289,3.49257,5.54769,4.60925,3.79662,5.51192,4.42457,3.9112,5.93581,4.53917,3.65657
2.17701,0.166303,-13.8841,11.209,0.918173,-12.9757,9.49751,1.24752,-13.2832,9.78465,0.933006,-13.1326,9.58323,1.06497
0.981048,0.228129,-2.39904,17.6245,0.633613,-2.82687,17.0784,0.271502,-2.81312,17.0115,0.183818,-2.79335,17.4244,0.564449
1.45895,0.146177,-9.20397,1.8029,-0.0630488,-9.83538,2.32615,0.0147174,-9.89876,2.17387,0.179017,-9.88881,2.44241,-0.0585552
4.27702,0.112418,-3.89968,5.88731,4.12632,-6.13635,4.88843,4.07686,-6.03248,5.43718,4.14455,-4.28093,4.98277,4.12393
0.181201,0.00186136,-4.71328,19.1366,3.16353,-5.16159,19.023,3.16507,-4.52945,18.9987,3.19176,-5.19144,18.9189,3.17877
32.1318,0.0267085,6.58243,11.1568,2.05356,3.10562,12.1897,3.30126,3.08181,12.9483,3.12107,4.6096,13.57,2.31606
11.6671,0.156261,-1.7944,12.7318,3.77908,-2.48577,11.6376,4.05053,-0.150989,14.3429,3.8148,-0.797961,14.2155,3.78818
11.5342,0.550114,2.11599,14.1878,-3.12125,5.57436,12.558,-2.85201,4.71382,12.4594,-3.04868,5.1606,12.3425,-3.04292
1.18155,0.0373201,0.744978,17.3135,3.09881,0.967619,17.7126,2.42234,0.572325,18.0286,2.37158,0.737035,17.9193,2.36787
9.10926,0.182718,-7.89805,5.58944,-2.10778,-9.60784,5.27669,-2.10138,-10.5419,5.89349,-2.86606,-10.2832,5.34305,-2.3474
0.348432,0.0132566,-1.03546,8.11532,-3.48497,-0.833561,8.51408,-3.41454,-0.915522,8.79492,-3.38005,-1.37063,8.89904,-3.37808
8.32182,0.106444,3.11408,13.038,3.09378,1.05746,13.346,3.82632,3.18341,14.8279,2.54004,2.08077,12.1209,3.90958
2.46082,0.527696,-6.42674,17.617,3.14789,-8.00447,17.4303,3.15138,-8.20379,17.2616,3.16631,-8.24686,17.1281,3.23893
0.555865,0.0241601,-2.57575,11.5325,4.07759,-3.26058,11.0148,4.15769,-3.50974,10.647,4.17155,-3.40264,11.0129,4.17304
1.00798,0.00804049,7.53771,12.5766,-0.0124793,8.10595,12.1285,-0.10781,8.03267,12.1147,0.261946,8.09389,12.0765,0.206594
2.40783,0.0551254,-9.1193,8.99046,-2.65272,-10.1347,9.75481,-2.67231,-10.141,10.1732,-2.6047,-9.43916,10.0073,-2.49214
10.9062,0.476751,11.9737,1.53228,-1.89496,14.0114,3.197,-1.99901,14.0461,3.71449,-1.93617,13.5807,1.21594,-2.26671
4.14331,0.0463197,6.08771,12.2973,-2.84945,7.17323,12.1866,-2.93193,5.89979,11.0321,-3.14763,5.69923,12.5558,-2.84028
68.5825,0.0546804,-2.76403,11.3516,-2.76874,-1.73585,8.93844,-3.37438,2.0622,8.9662,-3.20751,1.94232,9.58045,-3.06172
6.51751,0.273453,-5.70325,17.0827,3.44117,-3.52401,13.9602,3.96286,-5.10254,14.0936,4.04594,-4.41135,14.3825,3.96697
0.138441,0.0651266,4.80851,14.6345,-2.38093,4.7575,14.4746,-2.53803,4.91359,14.4516,-2.47501,4.63448,14.6093,-2.54521
1.7558,0.379868,-2.10744,4.85228,-1.80169,-1.42246,4.42752,-1.3652,-1.18282,4.97563,-1.62911,-1.46176,4.7064,-1.46551


