
1.29978,0.0281415,-4.4042,0.976935,4.89466,-3.82802,1.06879,5.38069,-3.70709,0.985304,5.06886,-3.85229,1.09584,5.48734
6.78957,0.00607892,-1.02721,22.6583,2.48408,-2.23224,22.6547,2.58049,-2.29749,22.6525,2.53286,-2.04437,22.6245,1.90634
0.394967,0.422133,10.0152,14.515,6.16479,9.99663,14.0862,6.21986,9.98733,14.0835,6.31261,10.0234,14.0879,6.07913
6.91102,0.161235,10.1507,4.38588,1.37879,10.3382,5.11113,2.31698,10.0523,3.90449,2.10872,10.066,4.4031,2.74526
13.8788,0.261278,10.3839,14.6142,4.5967,10.2961,16.7935,4.31787,10.461,16.7499,3.70612,10.3856,16.9467,3.84797
4.64195,0.133106,-0.579723,21.9986,6.44611,-0.741911,22.8209,4.77018,-0.165815,22.3592,5.98008,-0.580779,22.79,4.86937
15.558,0.504141,6.51492,15.4465,-7.13685,8.52778,14.9877,-7.0131,5.95485,14.8595,-7.92427,6.71079,17.0197,-7.45564
1.23702,0.130131,10.891,17.5227,-4.08971,10.7003,18.1501,-4.43206,10.6715,18.0858,-4.48873,10.6194,17.7536,-4.64487
34.1306,0.210301,10.3146,3.16703,-1.3303,10.3384,4.94159,-3.80195,10.3571,5.28312,-3.8245,10.5725,4.59126,-1.69105
4.19181,0.358349,-0.769954,17.2095,7.92778,-1.1014,18.2654,8.0304,-1.04835,16.7619,8.4228,0.21152,17.2648,8.25836
7.77977,0.124993,1.63883,8.92214,-9.24901,1.89109,10.9198,-9.42189,1.81973,10.7848,-9.39782,1.18856,10.5731,-9.32329
0.920101,0.0260934,4.03171,2.45804,7.17239,4.46684,2.57362,7.12396,4.3218,2.70248,7.26461,4.20911,2.22837,6.98444
4.23882,0.0968006,1.03059,10.1693,9.30696,-0.0870962,10.2244,9.4072,-0.0844966,10.4705,9.41937,-0.303429,9.58487,9.37567
0.00489878,0.0210882,1.25837,14.795,-8.84373,1.13762,14.7946,-8.86635,1.16015,14.7692,-8.86316,1.1833,14.7912,-8.84985
45.8776,0.550278,-5.43177,3.7037,-7.41698,-4.6138,6.95164,-8.79286,-6.67972,5.73616,-8.13182,-6.53475,3.65568,-7.75377
16.2186,0.122117,-8.61681,13.6031,6.85763,-7.16492,13.8783,8.10096,-8.85069,13.4833,6.39499,-9.51024,15.7348,7.38932
1.20863,0.0200908,-3.05383,21.8605,6.51626,-3.00793,22.0717,6.22256,-3.36184,22.0974,6.14931,-3.3833,21.8092,6.51063
4.29418,0.810741,8.80715,9.86263,7.30472,7.92379,11.8795,7.46971,7.90667,11.7649,7.54718,7.91644,11.7726,7.50461
1.18865,0.109139,2.1221,14.1609,8.59532,2.477,14.0879,8.66429,2.19145,13.8635,8.71006,1.50598,14.6657,8.75989
1.1613,0.01271,-0.619226,2.59462,7.69503,0.165367,2.42983,7.56935,0.450323,2.40588,7.54541,0.523784,2.46273,7.58755
3.94073,0.123458,9.93584,17.401,4.70178,10.0392,18.4703,4.85734,10.0466,17.4691,4.41487,10.1222,16.3129,5.63283
0,0.00165444,-4.77022,12.3165,-9.49143,-4.82043,12.3241,-9.50309,-4.77264,12.305,-9.48547,-4.75781,12.3688,-9.50812
1.20684,0.0240074,-6.88436,12.9173,-9.18221,-6.79837,12.3439,-9.16638,-7.11197,12.7525,-9.10453,-6.65897,12.8368,-9.2794
19.755,0.250248,6.11606,8.79342,-8.34994,7.40331,8.60837,-7.82832,5.64498,7.38386,-8.87573,7.12656,7.51522,-8.43536
15.6961,0.841195,7.8528,13.2279,6.19281,9.07868,14.7297,7.93389,8.57987,13.9839,7.56929,9.91075,12.1867,5.76155
0,0.0131232,-11.1934,15.5597,0.17253,-11.1655,15.5061,0.301101,-11.1767,15.4893,0.257139,-11.1724,15.543,0.228514
0.190495,0.047164,6.82511,19.4718,-6.87754,7.09871,19.4987,-6.77043,7.02993,19.3316,-6.83142,7.03683,19.1707,-6.87691
5.27644,0.187706,-9.88558,11.4559,-7.04188,-8.94147,12.1394,-8.19425,-10.0416,10.9401,-6.84822,-10.1489,11.6203,-7.28928
4.52527,0.108566,3.98021,18.3482,-7.85863,5.43034,18.239,-7.57958,5.63816,18.7672,-7.46071,5.14113,18.912,-7.58285
1.70459,0.218009,8.44563,22.65,4.22655,8.45527,22.5886,3.18453,8.77491,22.6594,4.41618,8.50873,22.6311,3.46561
27.8824,0.151465,10.7679,6.00603,-0.267315,10.6441,5.63556,-2.51586,10.5406,4.7199,-2.32435,10.5598,4.81063,-2.64146
2.04722,0.0590786,-1.51336,10.9082,-9.06828,-1.8603,11.2182,-9.15432,-1.62632,10.3341,-9.24154,-1.22888,11.0566,-9.04677
0.123483,0.00302774,10.0729,19.8726,-4.68629,10.1173,19.5465,-4.73841,9.97663,19.3613,-4.89066,10.1639,19.6746,-4.67127
3.40505,0.215392,-5.77175,11.9356,8.55081,-5.7215,11.2927,8.66139,-5.2945,11.872,9.06103,-6.26815,12.3002,8.61997
7.40418,0.0143814,-0.221448,22.8381,-5.14758,-1.70699,22.9029,-4.81381,-2.48051,22.799,-5.29786,-1.84744,22.866,-4.99313
4.18067,1.08027,9.95654,7.09191,5.2973,10.031,5.99982,4.37614,9.86143,5.98673,4.95522,10.0124,5.99814,4.4213
0.265752,0.04852,5.26262,3.22334,7.17991,4.83731,3.64621,7.50271,4.75936,3.60369,7.51652,4.98217,3.56965,7.4309
0.84159,0.0148618,2.75046,0.259945,-1.31067,3.26447,0.298668,-1.3894,2.75334,0.242271,-1.12132,3.2505,0.266917,-1.20777
1.17948,0.157122,-9.81876,0.502209,1.08961,-9.9214,0.591642,1.94709,-10.0523,0.590898,1.77975,-10.1936,0.578637,1.76535
14.7985,0.180423,8.77617,15.4358,-6.45867,9.72561,14.0972,-6.2608,8.37679,15.744,-7.049,9.08388,13.18,-7.36442
4.0541,0.299946,-9.04616,13.4053,6.11771,-8.87471,13.5071,6.36024,-9.34033,12.8012,6.6636,-9.74083,14.6984,6.79447
1.44971,0.155018,5.97483,22.5662,-4.7386,4.65511,22.5714,-4.86434,4.64751,22.5473,-4.95798,4.58171,22.6279,-4.6959
1.48971,0.026728,-5.07651,1.78283,-7.15281,-5.46062,1.19622,-6.69061,-4.94454,1.42804,-6.90173,-4.75277,1.30278,-6.84085
24.8544,0.0903742,-3.24031,22.7712,3.66347,-1.11781,22.9061,3.97379,-2.42403,22.6507,2.58752,-1.0452,22.6868,2.83174
0.765744,0.00610139,3.88788,22.2888,5.63411,4.32431,22.3989,5.35371,4.23693,22.3958,5.35364,4.09468,22.2407,5.77012
1.91295,0.0117289,1.61618,22.7609,0.255305,3.06802,22.7811,-0.248013,2.91888,22.7751,-0.280178,1.47223,22.7527,0.506998
15.1779,0.271738,-7.05688,19.0785,5.3826,-8.13828,18.726,4.42454,-6.66866,19.626,6.054,-8.69608,17.9454,5.62822
11.8129,0.412367,1.55655,13.7659,-8.74803,2.71469,13.656,-9.07935,1.36349,12.3763,-9.36993,0.368937,12.855,-9.39225
3.11352,0.00761252,-0.357264,22.7907,-0.630071,-0.496102,22.7564,0.632501,-0.639884,22.7529,0.557336,-0.574793,22.7533,0.632556
10.0262,0.305161,-9.4304,17.1338,6.16073,-9.99187,16.0742,6.68769,-10.0051,15.4697,7.03141,-8.97909,17.8709,5.09255
14.4646,0.707312,9.61674,9.32506,-6.66788,9.14551,9.71624,-7.46401,8.07948,9.87745,-7.7467,10.1487,10.8673,-6.40186
0,0.0154876,2.03513,9.29711,-9.38183,1.98282,9.30192,-9.39562,1.98002,9.2661,-9.3949,2.02601,9.2959,-9.36914
0.955701,0.194744,9.69646,19.8967,4.73701,10.0127,18.8749,5.02903,9.98097,19.1031,5.01088,10.0161,18.9535,4.89612
1.33005,0.023267,-9.40775,4.77214,6.79897,-8.82085,5.18481,7.29904,-9.09711,4.5674,6.94972,-9.48701,5.42671,6.97647
37.3096,0.0200716,-3.44435,22.7095,3.41059,-8.35752,22.3813,2.51954,-8.70563,22.4737,3.02469,-8.92466,22.4027,2.71588
8.10937,0.396315,-1.11005,5.54656,-8.3277,0.320812,5.32299,-8.5692,-1.77305,4.64344,-8.62811,-1.76881,6.2771,-8.91791
0.927286,0.0100378,4.86357,0.568646,2.0403,4.49513,0.606535,2.31335,4.42914,0.642141,2.55866,4.28849,0.577344,2.17972
142.765,0.330941,-3.1474,18.03,-8.42435,-7.60335,18.4461,-7.66142,-6.04544,20.8277,-6.81482,-7.14626,20.9864,-6.50608
109.986,0.168198,3.33337,10.6403,-9.06365,1.95128,7.16582,-9.20649,5.21024,7.55685,-8.95358,4.01917,7.91071,-9.06603
7.11969,0.370186,7.70754,18.8704,6.7063,8.1546,21.0013,6.3165,8.79418,18.6333,6.64218,7.46419,18.8712,7.25964
22.3093,0.131054,-10.9206,6.50225,2.17667,-11.0108,3.03008,1.22634,-10.9503,2.94836,2.67616,-11.0089,2.67687,1.67769
4.30703,0.224365,9.86163,18.2467,4.00664,10.0992,17.9965,4.3889,9.83568,19.0927,3.93593,10.3181,18.33,2.96756
11.7392,0.130038,2.60724,14.0772,8.64026,3.86561,14.2312,8.72299,4.13749,12.3957,8.61189,5.32383,13.1942,8.86955
35.8055,0.172688,4.30912,22.7972,-1.28214,5.91113,22.699,-1.43592,6.22847,22.5464,-0.83048,5.50942,22.4427,0.715631
327.28,0.72777,11.0994,15.8172,1.20763,10.2961,6.82891,3.97968,10.9087,7.3506,0.800014,10.6869,6.47293,1.47888
0.80088,0.0313796,8.28604,1.79762,4.55516,8.15902,1.85733,4.74608,8.6623,1.85415,4.39502,8.96125,2.01548,4.33723
30.9763,0.0830178,6.77888,0.544164,0.330384,7.42622,0.546064,-1.65031,4.50147,0.542585,1.95317,4.58332,0.543691,1.83823
27.2342,0.0193884,-11.1441,2.07813,-0.670877,-11.2057,0.784741,-0.818916,-10.9788,2.04938,2.73985,-10.9664,4.01993,0.396485
0.552513,0.0959893,9.64389,15.6702,7.58561,9.42558,15.6984,7.86007,9.52853,15.5009,7.807,9.46722,15.5558,7.84548
0.294133,0.0943685,9.86086,19.2146,3.41846,10.032,18.9095,3.42028,10.0148,18.8171,3.49211,9.99519,18.8105,3.53324
11.4093,0.453948,6.38432,1.86084,5.58487,6.36757,0.728699,3.56078,5.19395,1.16825,3.89627,6.05317,0.954646,3.991
10.58,0.0781064,5.43265,0.392304,-3.56416,3.70865,0.27554,-4.99368,2.78506,0.158561,-5.3277,2.71087,0.147286,-5.28791
6.2051,0.440854,-2.12414,14.6557,-8.73779,-2.59768,13.3817,-9.2956,-2.8386,13.0841,-9.41824,-1.47773,14.9083,-8.84092
8.80276,0.338583,-6.0757,13.0358,8.375,-6.54026,12.8728,8.57453,-5.14255,13.057,9.12537,-6.65815,14.8927,8.25509
2.39313,0.226695,-9.55025,8.47678,-7.52219,-9.44507,7.36066,-7.56645,-9.36366,7.29849,-7.60727,-9.68363,7.67515,-7.48451
71.3474,0.125934,-11.0192,18.608,-1.22022,-11.0588,20.8994,2.97177,-11.0689,18.7554,2.03872,-11.0378,21.4178,2.86165
0.00927219,0.00903959,-9.01499,5.9693,-7.42606,-8.90011,5.98462,-7.47168,-8.88039,5.95272,-7.4723,-8.94678,6.00102,-7.46068
41.5564,0.16782,6.94393,0.664094,3.31869,8.49606,0.414576,-2.32218,8.00712,0.526087,-1.89596,8.30387,0.304855,0.202715
6.45743,0.253717,3.37525,0.963479,5.11256,2.39083,1.39825,6.51211,3.25255,1.24427,6.14564,2.27661,1.18466,6.14349
6.26619,1.21436,5.11061,12.1842,8.48774,7.63502,12.2911,8.26985,7.50127,12.4722,8.29698,7.78385,12.4884,8.10028
16.7616,0.195147,-10.7968,8.53917,3.83554,-10.7752,5.48674,3.43654,-10.7831,5.00287,3.67872,-10.9021,5.53136,4.32925
16.49,0.417596,8.66295,5.83018,6.88832,8.39668,4.87198,6.7021,7.49216,5.7826,7.37698,9.36753,5.6956,5.71622
1.04483,0.00701036,-4.46545,0.779438,3.79073,-4.05618,0.776605,4.13085,-4.50902,0.824208,4.1488,-4.09982,0.692023,3.46078
1.71082,0.156648,-2.27483,20.1238,6.56464,-1.64855,20.3224,6.73573,-1.9699,19.945,6.60369,-2.68881,20.4757,6.98041
46.6501,0.0887471,-5.84649,14.5069,-8.96144,-2.75795,13.7496,-9.19763,-4.46237,15.7228,-8.75778,-2.71284,14.4206,-9.04198
0.35654,0.0216376,-3.34496,6.26236,8.70862,-3.2774,5.94623,8.64073,-3.35158,5.9467,8.63903,-3.12698,6.04854,8.67427
25.2096,0.151259,-9.99031,5.88692,-6.79051,-8.5055,5.7129,-7.46303,-9.73947,4.31086,-6.76754,-8.3563,4.38361,-7.28337
2.52883,0.0073886,-4.73502,22.5354,5.02246,-4.47351,22.3984,5.43811,-4.1874,22.3791,5.53911,-5.01993,22.2887,5.61802
13.6688,0.0506817,10.7743,17.2798,2.28042,10.6711,16.0769,3.40219,10.133,17.1847,4.48197,10.111,17.4818,4.32873
1.94294,0.0295256,2.32515,1.35638,-7.32249,2.83961,2.21277,-7.79363,2.55802,1.95951,-7.68146,2.91123,2.21211,-7.78386
21.0486,0.00889361,-9.37395,22.1729,0.813688,-9.56984,22.3354,2.50545,-10.3084,22.2037,1.25399,-8.69488,22.3167,2.11173
0.703107,0.159472,-0.977917,22.6961,5.206,-0.885403,22.8858,4.55254,-0.810497,22.8825,4.5527,-0.889547,22.7438,4.79826
5.00078,0.0217388,9.82927,8.53268,5.9973,10.0298,8.57392,5.31993,10.1758,7.61211,4.73501,10.1353,7.43028,4.83264
52.3403,0.0624772,-2.13908,13.461,9.0255,0.390893,14.9295,8.7695,1.29093,14.5815,8.78163,1.41344,12.6105,8.96203
2.06072,0.0227036,-10.0687,7.14455,6.83278,-10.5739,7.05263,5.98438,-10.5401,6.86276,6.05098,-10.5734,6.80184,6.0014
26.9442,0.0402761,3.2303,22.8632,-1.19108,-0.644374,22.798,-0.835463,0.346404,22.8197,-0.66073,-0.687043,22.8082,-1.41278
9.95167,0.439923,3.02751,1.12336,-6.63507,4.27105,1.63815,-7.16557,4.14214,2.44811,-7.60088,3.37241,2.17476,-7.60509
3.11974,0.315504,5.08241,15.4285,-7.66496,5.7828,15.4948,-7.75021,4.60666,16.1174,-8.06989,4.71946,14.874,-8.20476
50.8249,0.0745094,1.11032,20.891,-7.26461,-3.90984,19.9203,-7.63179,-2.10734,20.5694,-7.40312,-3.73157,19.4826,-7.8193
3.64439,0.193271,-8.91977,10.9484,-7.40589,-7.60991,11.506,-8.66307,-9.4173,11.0356,-7.44393,-8.68689,10.4462,-7.47716
4.54441,0.154777,4.42311,22.6519,0.655371,2.59494,22.7175,0.555087,2.64085,22.6804,1.00306,2.75249,22.7438,0.353893
4.72049,0.48019,-0.443813,8.88404,-8.78818,-0.163414,10.0848,-8.92492,0.280021,8.82168,-8.98625,-0.258423,10.2917,-8.87814
69.0306,4.91834,-10.9737,5.44443,1.22993,-11.3144,3.51156,-3.66172,-11.1818,1.37003,-2.50102,-11.1695,1.07564,-2.33855
0.123462,0.00510399,8.00829,1.46729,4.3557,8.11788,1.65066,4.51485,7.58059,1.59531,4.809,8.02869,1.61834,4.53539
0.134967,0.00120149,-2.92657,1.746,-7.53692,-2.93997,1.66781,-7.45989,-3.1371,1.67879,-7.43405,-3.14158,1.71914,-7.47086
28.6052,0.0802211,0.529733,22.6468,2.49453,1.02401,22.66,1.93974,3.81247,22.5284,2.54969,3.53235,22.5829,3.10897
16.0572,0.343256,7.43704,17.7713,-6.89229,3.30198,17.8557,-8.06327,5.44571,17.8904,-7.62062,5.61145,17.1958,-7.83087
6.03523,0.31886,10.4036,19.3783,0.215228,10.662,19.021,-0.0149028,10.7514,19.3604,0.928096,11.0832,21.8491,-0.510388
21.5364,0.0704909,6.35103,22.0224,-5.3695,9.11374,21.0178,-4.70191,7.95581,21.0862,-5.38867,9.74944,21.8264,-3.45995
4.31911,0.381045,7.23248,13.8052,7.71304,7.82484,14.2735,8.07048,7.82869,13.2056,7.156,6.86481,13.5118,8.59855
2.16353,0.0738111,-8.66079,0.611764,2.06566,-8.37733,0.716387,2.68271,-8.84245,0.683433,2.66161,-8.03078,0.745614,2.96648
30.1714,2.30154,4.28475,22.8312,-2.11305,2.83355,22.8826,-4.04229,1.54588,22.9452,-2.39102,1.47539,22.9374,-2.29823
0.565688,0.00962579,10.1865,21.4551,-3.52405,10.4417,21.3185,-3.3776,10.6677,20.8784,-3.51795,10.6769,20.947,-3.44644
1.73238,0.0576188,10.2694,3.49634,-0.721808,10.256,3.32357,-0.463297,10.3476,3.22035,-1.13401,10.3803,4.06994,-0.420981
0.912113,0.309735,-2.8624,0.834652,4.76207,-3.64523,0.917019,4.81677,-3.00357,0.78291,4.46917,-3.49648,0.897125,4.73857
15.5673,0.39885,6.13155,13.2587,-7.99021,5.33478,14.8209,-8.0631,6.09929,14.7914,-7.85051,6.48035,12.4223,-8.65462
10.1532,0.349978,4.86689,1.06813,3.90577,3.16911,0.302723,0.99294,3.95806,0.732825,2.74231,2.77219,0.211176,0.138207
10.6502,0.757644,-8.98861,15.6343,-6.95203,-9.21927,16.9748,-6.31833,-8.20485,16.003,-7.46703,-9.61513,17.4769,-6.41475
25.9557,0.493346,-2.32107,5.75935,-8.90337,-0.712076,9.05471,-8.86594,-1.12803,10.1034,-9.188,-2.72163,8.20261,-9.03473
11.454,0.197699,4.05562,14.7098,-8.58807,1.44736,15.3557,-8.71305,1.94969,14.7197,-8.74796,1.55283,14.3941,-8.87948
1.58524,0.0820709,5.28214,21.2589,6.77883,5.40315,22.1688,5.84975,5.33797,22.1319,5.89338,5.2317,22.0017,6.02597
17.2236,0.56882,1.04003,22.7777,5.0241,-0.50722,22.6687,5.25899,0.0741309,22.1858,6.21716,-0.15258,22.4933,5.68969
23.9686,0.0133317,-11.15,15.729,-4.47234,-11.3472,14.4896,-2.49477,-11.3069,13.4367,-4.04631,-11.1315,17.1004,-3.83762
11.1519,0.0516692,5.18942,3.88083,7.48018,5.34246,5.59357,8.42588,3.35809,4.10358,8.15749,5.74942,4.70611,7.74317
11.0291,0.0264482,-4.39083,17.8528,7.9477,-2.43273,17.6093,8.16745,-3.83765,16.9823,8.25066,-3.67531,18.656,7.79933
47.2404,0.594198,9.07886,0.540458,-3.8213,9.80485,0.298732,-1.78649,5.6165,0.514638,-0.921894,5.14273,0.354004,-0.346383
3.65767,0.0207987,-9.98739,21.064,-3.75105,-10.6543,20.243,-3.14274,-9.91245,21.2804,-3.72944,-10.5658,21.2384,-2.86216
10.2287,0.33393,10.2225,14.5439,-4.35735,10.4236,14.0366,-4.99531,10.5509,15.6441,-4.90744,10.6548,14.1297,-3.59304
7.91305,0.0810647,-1.93134,18.6711,7.77499,-1.36867,19.2696,7.71602,-2.15203,17.565,8.19085,-2.05096,19.6365,6.95594
4.65962,0.0891727,7.70491,12.198,7.52029,7.70748,11.6844,8.39741,7.8935,11.85,7.50792,7.79753,12.984,6.73598
36.4482,0.0382158,-4.36654,14.5992,8.7345,-2.00916,12.8353,9.17885,-2.60262,15.3931,8.72781,-3.90182,11.9773,9.14534
0.27692,0.0395354,-9.8994,20.0751,-4.96029,-9.70664,20.6959,-4.8428,-9.83329,20.5386,-4.798,-9.74219,20.4719,-4.94905
5.69903,0.0545422,0.179142,12.5558,-9.41419,-0.807615,11.7484,-9.26898,-0.874611,12.0518,-9.37289,0.0349667,11.9327,-9.27616
73.7053,1.29813,-2.01288,6.79719,8.87581,1.37477,9.40422,9.23751,1.51558,8.79186,9.15897,1.70949,6.65239,8.77739
2.7677,0.364717,9.72223,5.59319,4.82235,9.37687,5.58075,5.57687,9.63016,6.0029,5.65225,9.34895,5.29097,5.41728
0.249943,0.0461155,7.65689,16.534,-7.32209,7.28868,15.9806,-7.3835,7.35806,16.1671,-7.39665,7.49886,16.4198,-7.36528
0.0151211,0.0215689,-3.4025,11.8155,-9.41998,-3.39139,11.8979,-9.45088,-3.45254,11.8926,-9.44301,-3.47142,11.8084,-9.43282
0.0945884,0.00232617,2.23547,3.48526,8.15032,1.88939,3.66521,8.23333,2.03692,3.49232,8.17244,1.95821,3.66389,8.22681
1152.14,0.626752,0.893599,0.203234,-2.39834,-9.5844,0.494699,0.622788,-6.82836,0.8403,3.2764,-9.16583,0.23469,-3.17171
9.43027,0.706963,1.22052,19.7706,6.3798,2.6955,20.0074,6.5679,0.804588,20.817,6.97155,1.3589,18.5291,7.51556
13.914,0.182968,3.31885,7.87582,8.72346,2.36667,10.4689,9.12309,1.72016,8.12018,9.06226,4.03756,10.1428,8.95765
10.2943,0.00548852,-1.27119,0.286521,-5.89023,-2.6832,0.343035,-5.62265,-1.1338,0.165281,-4.51138,-0.34846,0.257418,-6.05017
13.9131,0.937689,11.0893,11.2676,-3.15691,9.69457,11.1532,-5.07338,9.68247,11.0114,-4.74033,9.88921,11.5672,-5.03401
0.684761,0.313302,9.92405,3.24343,3.47576,9.9707,3.20259,3.07791,9.9774,3.5571,3.10251,9.9594,3.29342,3.09204
0.0881516,0.0201149,-8.93691,22.366,4.23579,-8.97838,22.3676,4.17744,-8.93637,22.4152,4.01424,-8.86617,22.406,4.02065
66.4733,0.107696,-4.31664,22.4917,0.780991,-7.47506,22.3297,1.84465,-6.85903,22.3966,2.3009,-7.41243,22.3447,1.98813
23.1071,0.334565,7.14062,3.02084,-6.77928,8.1813,3.36603,-6.56582,6.74095,3.73526,-7.87846,7.14402,1.31394,-6.44665
2.54281,0.448434,8.87797,9.76197,7.19886,9.39104,8.66677,6.75167,9.27292,8.72084,6.88517,9.65377,8.37188,6.35004
3.09536,0.0563345,3.79144,13.6179,-8.71577,3.50775,14.3896,-8.71308,4.46611,13.5461,-8.4723,3.3989,13.4314,-9.01972
0.745836,0.000207986,-7.19696,6.14973,8.25216,-7.4052,5.66093,8.09606,-7.61435,5.57946,8.00533,-7.54373,5.94974,8.09105
0,0.0026722,-7.45561,18.8475,6.96669,-7.42126,18.8037,6.93939,-7.46194,18.8031,6.98318,-7.42688,18.8184,6.94087
0.600797,0.00801974,-10.5033,21.688,3.71128,-10.8303,21.229,3.58183,-10.5457,21.7149,3.58338,-10.8458,21.2411,3.53964
9.9723,0.443052,-1.05378,13.6855,-8.74344,0.146785,13.2603,-9.30168,0.531663,13.8012,-9.11216,-1.07995,15.0725,-8.76165
8.89067,0.014655,10.1833,9.94823,5.107,10.2472,7.82041,4.45352,10.104,8.20174,5.02277,10.0699,9.50106,5.37199
8.96857,0.00465173,11.1874,8.19696,-0.736227,11.3302,10.4158,-1.87402,11.2195,8.10517,-1.38585,11.2973,9.2407,-2.00521
10.3781,0.730472,3.32514,19.8541,6.15904,5.48442,20.7699,7.05745,3.24724,18.9256,7.06927,2.69008,20.6746,6.66508
1.57103,0.0173611,0.596889,2.42551,7.55779,1.56633,2.46515,7.57066,2.00321,2.32862,7.459,1.4777,2.66046,7.73185
3.40427,0.0454988,-10.0606,12.8177,-7.74253,-9.9787,12.1204,-7.67105,-10.5114,12.3391,-7.44172,-10.3575,12.0385,-7.48778
48.4611,0.00141892,-0.0513331,10.6609,-8.75588,0.990037,12.5205,-9.36449,-0.0473693,11.6529,-9.10387,-2.43318,12.5379,-9.51108
6.85347,0.17929,-3.83088,8.32259,-8.36975,-4.62498,7.47981,-8.78425,-3.72834,7.57463,-8.60303,-5.06585,8.34028,-8.78888
2.34717,0.245588,-3.67646,6.35774,-8.83952,-3.81226,7.52485,-8.61767,-3.97001,6.93228,-8.84234,-3.63311,7.24755,-8.74866
0.252514,0.128792,0.892416,21.5391,6.71291,0.632564,21.653,6.581,0.568287,21.7083,6.62822,0.647858,21.6216,6.64437
50.4987,0.493159,-4.88379,17.4773,-8.52434,1.95725,16.9614,-8.4968,2.14577,17.329,-8.38544,2.14245,17.4308,-8.36003
0,0.00210531,-10.4089,0.755997,2.8054,-10.4062,0.76779,2.84695,-10.4209,0.803508,2.93416,-10.4875,0.827961,2.82127
29.5945,0.142092,-7.53803,15.9996,-7.43943,-8.82997,16.555,-6.63257,-8.10756,14.6763,-7.96165,-6.14425,15.3093,-8.72252
11.6265,0.0541211,10.2397,1.97761,-3.7767,10.3385,4.12128,-3.64864,9.63633,4.04486,-5.60316,9.98324,3.37326,-4.64193
11.626,0.0511667,-3.02712,1.67812,6.58157,-4.24624,1.5121,6.21352,-3.78357,1.20703,5.72216,-2.12793,1.1784,5.9033
6.9634,0.160437,7.5919,8.28882,8.13634,8.78851,8.17347,7.4375,6.2576,8.42261,8.48049,5.7718,8.30232,8.55499
2.807,0.0608445,-0.997667,20.4385,6.9302,-0.166243,20.772,7.10489,-0.517133,20.4344,7.08726,-1.89785,19.9563,6.64346
2.40232,0.0381203,4.41233,2.00093,-7.36569,4.20796,1.90671,-7.35321,4.91343,3.01027,-7.63497,5.02619,2.76388,-7.62375
1.14221,0.0136806,-9.32917,12.5195,6.82052,-9.42298,11.895,6.71001,-9.42139,12.7661,6.693,-9.31964,11.9167,6.82365
5.07951,0.0807875,-10.6368,12.683,6.05056,-10.8772,13.034,5.59781,-10.9675,15.6052,6.11549,-11.0377,15.2143,5.73186
26.8317,0.0674968,-5.01163,22.4752,1.67467,-2.26823,22.6278,1.86581,-3.9987,22.5634,2.23974,-2.14298,22.6267,2.10318
150.262,0.0251861,-10.8292,9.4365,3.89889,-10.9989,16.4131,3.3329,-11.0841,17.3802,5.1122,-11.0627,17.9103,3.9156
0.0418107,0.0849477,-5.68653,7.9442,-8.71498,-5.76863,7.99148,-8.64374,-5.84043,8.00593,-8.65137,-5.83517,8.06092,-8.66505
8.49981,0.437899,8.44175,20.1308,5.63438,8.90084,18.7952,6.37071,8.52986,20.61,6.0124,9.58058,20.3374,4.96794
15.713,0.2767,-2.64891,11.6973,8.94649,-2.42386,12.2932,9.14718,-4.89057,11.1711,9.28723,-1.12602,10.5213,9.38786
0.556382,0.0994545,4.12193,1.61343,6.37035,4.42379,1.59011,6.20516,4.3435,1.65435,6.28092,4.42997,1.76129,6.42746
88.5772,1.82574,4.97073,19.1345,7.59308,2.68431,14.7272,8.70139,2.29798,17.1389,8.27015,2.75716,14.5293,8.69603
5.6017,0.180181,-8.07171,21.5569,5.71047,-8.82151,22.103,4.91785,-8.97593,21.5582,5.33983,-9.0452,21.7818,5.14685
9.50442,0.00298402,6.08322,22.401,3.67507,4.6888,22.4234,4.89497,5.44475,22.3856,5.18846,3.92213,22.5151,2.72516
49.112,0.272299,-4.20446,4.04348,-7.84387,-2.047,3.29934,-8.37757,-2.10504,4.40504,-8.65225,-3.75879,2.43302,-7.80414
0.0209183,0.00315556,3.20308,10.6749,9.05173,3.20217,10.6313,9.06184,3.06989,10.6841,9.07056,3.06919,10.6374,9.07789
68.5833,0.148032,-7.31238,22.2129,0.920391,-7.70814,22.127,-1.55921,-9.76944,22.1523,0.102978,-9.46202,22.1165,-0.518185
61.2912,0.134653,11.0265,20.0761,-2.67256,10.8116,20.0452,-0.518319,10.7873,17.8434,-0.366019,11.0308,17.5166,-1.85898
11.3393,0.334651,10.1584,2.79974,0.78391,9.9882,3.62692,2.92079,9.99242,3.3874,2.86754,10.0419,4.2335,2.80492
2.82289,0.270836,-0.548523,3.06876,-7.68775,-0.541734,3.52874,-7.89946,-1.08275,2.73205,-8.0199,0.235701,3.23476,-7.91858
1.97069,0.0724121,-0.358977,0.164864,-4.57752,-0.0984039,0.106051,-4.18335,-0.0826097,0.0443003,-4.88231,-0.946005,0.156495,-4.35409
4.45202,0.498155,2.54783,22.5349,5.33693,1.09641,22.6994,5.23961,2.3736,21.8814,6.23014,1.02801,22.7576,5.11388
0.0246198,0.000764667,0.738032,23.029,-4.06799,0.88909,23.0242,-4.0707,0.891215,23.0137,-4.11629,0.73835,23.038,-4.02526
17.3822,0.289289,3.05524,22.667,4.10042,-0.756655,22.7439,3.2539,-0.273294,22.778,3.42761,-0.970985,22.6693,2.6098
0.10286,0.0072073,7.52456,0.658074,3.31917,7.5029,0.709156,3.41198,7.31861,0.594461,3.25242,7.4582,0.713517,3.43695
222.657,0.409188,-6.0469,8.85404,8.89032,-5.94252,2.87326,7.2884,-2.41482,7.2445,9.00932,0.574404,5.48326,8.6017
14.8765,0.0923153,3.49156,20.8237,-7.16742,1.51812,20.2129,-7.53662,5.53674,19.1534,-7.4206,1.24997,19.9232,-7.67537
0.845491,0.0211533,-7.61963,1.32522,5.43593,-7.24563,1.15838,5.08789,-7.1807,1.19166,5.1776,-7.31236,1.15803,5.08287
6.46083,0.173081,2.26715,2.50875,7.50837,3.7558,2.44256,7.25781,3.83957,2.31595,7.15954,3.48517,3.22199,7.79393
4.57497,0.0603382,10.6318,8.8385,-4.37324,10.9993,9.52828,-3.93154,10.7885,9.82024,-4.58367,10.531,8.48676,-4.6307
28.0827,0.035715,2.36324,22.7366,-5.04514,0.0515933,22.9317,-4.6533,2.48874,22.9559,-3.87267,0.0384236,23.042,-3.9699
4.94256,0.239269,-9.94124,3.66492,-5.91406,-9.67448,3.81003,-6.20269,-10.7755,4.26891,-6.29876,-10.453,2.25958,-5.79496
10.8164,0.0910068,0.441823,0.158517,0.998026,1.47566,0.280293,2.22337,2.92801,0.29408,1.45711,2.99999,0.311164,1.56164
31.8894,0.141683,-2.96721,22.749,-2.42683,-0.91452,22.9839,-3.50145,0.4354,22.9071,-2.24067,-0.277918,23.0017,-3.23234
0.727116,0.000237609,-2.56462,22.4745,-6.0961,-3.33344,22.4379,-6.02222,-3.64493,22.3849,-6.05876,-3.64982,22.3421,-6.13242
2.72408,0.731037,2.19456,0.95556,5.44256,1.48067,0.71843,4.64981,1.44516,1.19741,6.12413,1.44748,1.16444,6.03927
10.2663,0.0883214,-7.04629,11.3676,8.15071,-8.01392,13.0385,7.78477,-7.92854,13.0067,7.81198,-8.44998,12.019,7.61375
0.545449,0.477494,11.229,8.94058,-2.49386,11.0834,8.43324,-2.52287,11.0763,8.44152,-2.61645,11.0784,8.43865,-2.56832
5.42757,0.00374524,-5.6412,1.52129,5.95381,-6.00645,1.24063,5.39598,-6.53752,1.49314,5.79924,-6.50751,1.2974,5.4397
14.981,0.138662,5.84285,8.10614,8.51639,4.4285,7.53413,8.62297,4.77478,6.42782,8.54519,5.77196,5.95542,8.50782
0.165045,0.00173422,-2.5131,3.86023,8.16753,-2.65974,3.90806,8.16889,-2.4468,4.01949,8.22649,-2.51913,4.07107,8.2377
0,0.00896591,-6.52575,7.88025,8.7426,-6.60231,7.83416,8.7304,-6.5836,7.89413,8.72586,-6.57547,7.86036,8.7304
1.86449,0.0926027,-1.94867,0.957833,5.28809,-2.59573,1.02118,5.49623,-2.81552,0.897755,5.03281,-2.2207,1.05646,5.45519
9.36872,0.436086,10.0551,13.0676,-4.90612,11.1514,12.3118,-3.44656,11.1771,12.3223,-3.37002,10.3196,13.8466,-5.15726
3.24957,0.0668954,-3.26998,5.35916,-8.5093,-2.60297,5.63912,-8.83506,-2.88919,5.04132,-8.59945,-4.20149,5.50616,-8.36824
10.0156,0.0637118,2.16231,5.21692,-8.71419,0.380613,5.28242,-8.54354,4.2019,5.28628,-8.76954,1.74302,4.43404,-8.64228
12.5795,0.397614,-0.234545,1.18968,5.9547,0.467528,0.843043,5.15876,0.873379,0.96004,5.49774,0.00168824,0.686225,4.54924
2.50587,0.0418824,0.81856,22.8884,-2.27211,0.969371,23.0181,-2.86362,1.40261,22.9094,-1.96395,0.453335,22.9595,-2.57596
6.82515,0.0341487,6.41102,9.00093,8.58716,4.71959,8.49712,8.73862,4.03832,9.74806,8.94084,4.59544,10.5763,8.97298
1.81961,0.016894,-10.9868,18.1709,4.69404,-11.0116,17.321,5.55038,-11.0518,17.9012,4.80864,-10.703,18.5678,5.34611
8.95811,0.0157367,-1.29945,0.408566,3.01372,-2.86495,0.72968,4.37977,-1.23979,0.51059,3.63534,-2.92047,0.656592,3.84972
0.547214,0.0659703,-7.19001,0.852449,3.39136,-6.89119,0.902717,3.8465,-6.84223,0.893344,3.78286,-6.83015,0.884641,3.63536
26.9425,0.138633,10.6907,14.9318,3.3978,10.2509,11.0366,5.05862,9.91596,12.103,5.74198,10.6649,12.4204,3.61742
1.35456,0.0843093,-4.62922,22.6611,4.74949,-4.2788,22.7744,4.42514,-4.55359,22.7525,4.35601,-4.10211,22.7289,4.60727
0.0731219,0.0167607,-4.80543,1.50178,6.11868,-4.94964,1.57063,6.18427,-4.80853,1.55554,6.19774,-4.93488,1.55059,6.14376
5.86452,0.247644,-8.53103,18.0723,6.45949,-9.28614,17.1131,6.69051,-9.29769,17.2057,6.42387,-9.26358,17.2662,6.32994
22.0535,0.795763,-8.94904,10.6694,5.90829,-7.48094,11.03,7.74348,-10.133,11.8882,6.40465,-5.80499,11.0168,8.69412
16.0929,0.386654,-9.10619,14.5991,-7.04183,-8.26019,14.8134,-7.84827,-10.3429,13.6097,-7.42055,-9.04827,15.4075,-7.11659
6.54405,0.00846061,7.23639,22.4957,3.4278,6.60417,22.3942,2.8488,7.56634,22.5083,2.39834,6.92362,22.4219,2.20348
11.0672,0.411661,6.85927,17.8543,7.34095,5.52021,17.7807,8.16136,6.50415,18.7058,7.55134,7.8935,17.8601,7.53208
4.50148,0.469629,-9.73801,10.3972,-6.12995,-10.1108,9.79692,-6.43643,-9.18707,10.127,-6.64836,-10.6355,10.9349,-6.57859
4.28829,0.176122,-10.8379,16.2297,0.0810428,-10.5424,16.2207,0.515874,-10.3764,16.9791,0.724765,-10.3533,16.9058,0.733248
0.000953765,0.00343531,-10.9563,15.9304,3.51407,-10.9622,16.1936,3.60405,-10.9709,16.2638,3.54782,-10.9656,16.1918,3.55935
1.25317,0.00140369,-3.20226,10.8031,9.45184,-3.7063,10.5896,9.47439,-3.56935,10.4982,9.48118,-3.2966,10.5357,9.47629
12.2329,0.392566,-5.7047,19.808,5.76567,-4.91269,19.9816,6.1342,-6.83067,21.7536,5.90339,-6.63515,19.573,6.19854
17.9974,1.45178,-1.30048,22.6889,5.09145,-2.68171,22.1203,6.18243,-3.42245,22.2749,5.86907,-2.87604,22.1535,6.08676
12.9816,0.0367626,6.20018,4.39021,7.35678,7.18733,5.9314,7.681,7.27688,5.19748,7.14455,6.72883,5.91527,7.96404
6.14946,0.721568,-1.70389,22.6467,1.89798,0.538379,22.6514,2.15882,0.376292,22.6602,2.68776,0.541818,22.6544,2.10906
72.0428,2.86235,-5.64941,9.7515,-8.87669,-6.53805,6.52741,-8.35451,-8.39239,8.65441,-7.99065,-9.11663,10.1578,-6.72645
50.0555,0.0124971,5.49399,11.3499,-9.0382,2.40519,8.92109,-9.235,4.77325,12.3246,-9.14968,2.33583,12.2257,-9.36103
1.11353,0.048453,-4.04576,5.63597,-8.40505,-4.75447,5.7959,-8.52015,-4.6192,5.68021,-8.42805,-3.60837,5.85792,-8.75718
0.960899,0.0274379,-5.82316,22.3861,1.50638,-6.063,22.4672,2.31307,-5.63947,22.4241,1.65269,-5.90959,22.4642,2.2612
12.4376,0.389376,-11.068,6.9198,-6.38563,-8.50834,6.34386,-7.5995,-10.1947,6.21374,-6.95219,-10.6696,5.79238,-6.67312
5.10168,0.0571357,2.1038,1.12503,-7.13238,2.01043,0.421121,-6.3816,1.33472,1.04408,-7.10582,2.15556,0.377032,-6.33276
1.51917,0.0588333,1.4098,17.9711,7.98564,1.36049,18.4956,7.54715,1.26043,17.3347,8.22492,1.42476,18.4641,7.6043
540.647,0.360176,7.24422,0.49158,-2.71134,1.24789,0.210733,-0.801423,0.858722,0.210212,-1.41592,-6.36092,0.267214,-4.1362
2.6728,0.0666596,-1.66351,1.47292,-7.48416,-2.96102,0.615255,-6.28305,-2.47295,1.06791,-6.94262,-2.82932,0.594569,-6.27784
36.9097,1.22749,-7.93897,18.0703,7.07102,-6.08792,15.3569,8.48404,-6.72582,15.0618,8.1758,-7.63896,14.2687,7.96865
1.27514,0.00292003,-0.513384,22.5941,-5.92099,-1.28945,22.5181,-6.07884,-1.29108,22.4248,-6.2386,-0.375477,22.4524,-6.16525
1.20665,0.117741,10.1118,12.3434,-5.89922,10.3077,12.5223,-5.83095,10.2297,12.2451,-6.30569,10.0771,11.9747,-5.7572
4.48741,0.125441,6.87416,13.4533,-7.80396,7.84594,13.2362,-7.81255,7.048,14.765,-7.60463,6.63394,13.1894,-8.03709
1.79536,0.00213837,-11.1726,16.9976,-3.38954,-11.1353,17.4812,-3.20021,-11.0188,18.129,-3.30944,-11.0292,17.8978,-3.4487
13.6843,0.243377,-8.54173,18.6379,4.15713,-8.97158,17.8876,5.03519,-9.25624,19.4695,4.4298,-10.0492,20.7189,5.14502
14.2695,0.478175,9.79408,14.6495,-5.63322,10.3561,14.2655,-5.11948,9.84577,13.1785,-6.58656,10.1859,13.4862,-5.34949
0.0312426,0.00278939,-4.01637,7.61088,9.0066,-4.02804,7.49223,8.975,-4.15855,7.43562,8.94686,-4.158,7.49171,8.96271
4.15483,0.0199554,-10.9878,14.4575,1.91721,-10.9659,14.9746,2.51381,-11.0319,13.3654,2.07343,-11.0363,13.3654,1.97499
5.93279,0.0389888,-7.93295,7.3287,-7.95226,-7.72526,8.41181,-8.14724,-7.42591,7.18711,-8.11315,-8.01978,8.39088,-8.06778
6.74349,0.215267,0.772806,8.69072,-8.92923,2.06916,8.38797,-9.26646,0.683501,10.2505,-9.13875,0.757151,10.2478,-9.14564
114.475,2.37961,9.45462,19.6185,3.69359,10.7472,19.4488,0.946784,10.8955,21.2112,1.25888,10.8868,18.3912,1.21938
26.8298,0.137346,3.8539,15.8423,-8.20289,4.84817,17.2287,-7.89491,3.75907,15.1097,-8.54004,0.342436,16.4266,-8.54917
0.0615471,0.0135845,0.592594,12.3628,-9.41624,0.734772,12.2813,-9.36166,0.661226,12.2742,-9.37647,0.735882,12.3296,-9.36749
6.42178,0.385588,-2.04424,15.2323,-8.89036,-0.328665,16.5947,-8.64942,-0.0383191,15.9383,-8.73441,-0.401656,16.1542,-8.66883
0.0414505,0.0923757,9.89903,22.4758,3.4579,9.86077,22.6169,3.32612,9.94222,22.4986,3.33076,9.87698,22.5696,3.33437
0.667739,0.0569694,-5.70486,1.91892,-7.17861,-6.19452,2.09124,-7.25216,-5.48674,2.07144,-7.3019,-6.11912,2.12472,-7.26829
0.00769538,0.00581108,-10.3965,1.61517,4.29724,-10.4445,1.7562,4.38493,-10.3859,1.54687,4.22127,-10.4206,1.7698,4.4313
1.36188,0.00582069,-4.78553,8.98306,9.15346,-4.77619,9.84377,9.25645,-4.98107,8.9185,9.11987,-4.50598,9.80148,9.29646
0.0255312,0.073184,-4.74242,22.4989,-0.135111,-4.84554,22.4887,-0.0512042,-4.8877,22.4931,-0.0837293,-4.90028,22.481,-0.128175
9.68407,0.0352015,1.21147,0.252204,2.41939,2.76286,0.59975,3.34757,3.1261,0.52092,2.67358,3.19981,0.53886,2.73607
0.164793,0.000447175,0.814739,0.408113,3.25355,0.597228,0.427117,3.37404,0.745909,0.392825,3.20576,0.603596,0.394872,3.24451
4.54139,0.579361,9.40119,10.7247,-4.78862,9.9336,11.8008,-5.45877,10.056,11.8511,-5.83944,10.4979,9.80315,-5.17886
5.3448,0.358467,5.74998,18.8413,7.22855,5.40171,20.2614,7.25038,7.07523,19.0705,7.50535,5.68281,18.6577,7.64629
21.7042,0.148472,-2.03618,18.2879,-8.33982,-0.482435,19.5298,-7.88215,-0.263018,18.0723,-8.36474,-0.178129,19.2077,-8.00492
82.7221,0.222394,4.42722,22.546,1.61184,-4.23021,22.5047,0.640088,-3.93577,22.5451,-0.701132,-4.39978,22.5093,0.191112
6.97541,0.179043,4.58913,13.8959,-8.27012,4.45538,13.3946,-8.62997,4.50775,14.9054,-8.27471,5.56629,13.6471,-8.13862
3.0978,0.21527,-0.319596,19.5223,7.25339,-0.456028,20.124,7.16348,0.726871,19.6329,7.19232,-0.553876,19.493,7.58852
5.2991,0.43182,7.53382,8.13762,-7.66229,7.80948,9.48753,-7.77315,8.92853,7.56094,-7.72291,7.30475,7.69932,-8.29727
3.79317,0.0241698,3.38921,1.13319,-6.63859,3.10559,0.309748,-5.72837,2.918,0.419065,-5.90542,2.98079,0.71462,-6.22926
25.4096,0.217711,-2.99919,9.24516,-8.60673,-3.05877,12.7462,-9.49474,-1.7523,8.99477,-9.09437,-3.54239,8.49721,-8.55669
5.90837,0.029012,-4.33502,16.6189,8.29708,-3.93165,15.2675,8.58482,-3.38042,15.1995,8.69048,-4.05069,16.8483,8.27283
5.2655,0.139682,-5.34059,2.18841,-7.37599,-4.21458,1.74581,-7.25241,-3.76448,2.15132,-7.63745,-3.84698,1.83997,-7.41772
15.9352,0.72519,6.96358,16.328,8.48742,8.02152,14.6323,8.19004,8.9133,15.2713,8.19735,8.9839,15.7749,8.11722
4.35497,0.0712048,7.62268,7.79246,8.12785,8.54393,7.42985,7.56691,6.61294,7.62367,8.42855,6.89137,7.52736,8.28649
4.20469,0.0641874,-5.2043,0.635294,0.984339,-4.83289,0.457926,0.170279,-4.76558,0.448099,0.173836,-4.99675,0.583776,1.62444
2.69366,0.152079,9.28984,18.1408,6.72625,8.91234,18.7288,6.41478,8.83757,18.6705,6.56517,9.68478,17.1193,6.82915
0.228004,0.0093038,-9.01459,20.0025,-6.01524,-8.90735,20.2788,-5.94719,-8.8539,20.2379,-6.01856,-9.2377,20.0016,-5.7985
18.5991,0.0235582,8.21858,5.58266,-7.58666,9.00972,5.69408,-7.23723,6.85311,5.42648,-8.11136,5.07304,4.44981,-7.28447
0.0422077,0.0164387,8.02661,19.5741,-6.20523,7.96879,19.7087,-6.22221,7.89121,19.6556,-6.27487,8.03068,19.6715,-6.19901
0.199666,0.0219669,1.52865,11.595,-9.40529,1.66878,11.4658,-9.39808,1.53318,11.454,-9.40209,1.66503,11.4023,-9.40672
4.30593,0.29616,9.29483,20.8852,4.43305,9.42603,21.4726,4.75211,9.73136,19.8297,4.62964,9.79959,20.8439,3.67983
103.766,0.300532,-1.12427,22.7537,-1.24286,-5.44295,22.4368,-0.591514,-5.78451,22.4426,-2.04546,-6.80687,22.2556,-0.790758
17.8577,0.114938,-11.3449,11.8005,-2.50614,-11.3113,12.7575,-3.69715,-11.2295,12.9944,-4.52605,-11.2522,16.779,-1.95767
1.72719,0.0831603,8.87628,21.6388,5.61001,8.22527,21.2813,6.16272,7.80907,21.7589,5.98686,7.80917,21.8756,5.88681
16.2904,0.037679,10.3359,2.60149,-0.683763,10.2596,4.58165,0.87165,10.1711,2.86167,0.594091,10.1926,4.4408,1.18976
0.899646,0.0566994,8.38266,17.8885,7.49577,9.07967,17.864,7.3292,7.89729,17.8213,7.56415,9.05397,17.8428,7.3646
23.1172,0.583508,3.59921,3.84449,-7.2651,2.79354,3.89969,-8.50995,5.00229,4.49688,-7.29394,3.31675,2.42057,-7.71192
8.41837,0.0282678,3.88154,0.972863,5.17418,3.24334,0.843148,4.36306,4.68446,0.964998,4.75432,3.83919,0.768961,3.7639
1.56922,0.0357158,-7.46756,13.166,-9.01558,-7.9153,12.7178,-8.77734,-7.92583,13.0951,-8.81396,-7.54514,12.4273,-8.93405
0.0067356,0.078056,-5.19864,14.8156,8.90121,-5.17546,14.7238,8.90905,-5.13866,14.7365,8.87432,-5.12973,14.7267,8.89411
7.10834,0.0996824,0.633472,0.163604,-4.86488,2.70954,0.21721,-4.97257,2.48275,0.223266,-4.75267,0.192258,0.0614414,-4.55834
5.99536,0.0886527,-3.515,20.4527,6.88576,-3.23761,21.3356,6.90182,-2.74267,20.3149,7.18374,-4.90703,20.0034,6.09007
13.6213,0.494538,-9.14427,0.966046,4.08886,-10.363,2.63307,5.04329,-9.60309,2.23673,5.58904,-10.2245,3.11542,5.64726
0.146351,0.00104274,-8.45544,5.52063,7.54814,-8.59168,5.38369,7.44526,-8.5357,5.55482,7.51046,-8.73881,5.40828,7.37062
19.409,0.6384,-10.3103,16.7864,1.48014,-10.9804,17.9301,0.681693,-11.039,17.1853,2.03677,-10.9053,15.801,1.88795
6.7453,0.501715,-6.46613,21.952,5.78908,-7.12108,22.558,4.47437,-7.04098,22.5767,4.43618,-6.76431,22.6597,4.18093
0.0762645,0.0479182,-0.92059,1.01654,-7.09546,-1.11243,1.05436,-7.08525,-1.05761,0.981579,-7.04532,-1.10125,1.02153,-7.05837
6.10244,0.441558,9.30848,15.9678,-5.41271,9.31023,16.7246,-5.91443,9.49995,15.201,-6.1039,10.2503,15.171,-5.17955
0.883784,0.107373,8.65119,10.8909,-7.40747,9.6658,10.8096,-7.01068,9.42075,10.9119,-7.14651,9.60694,10.7617,-7.03382
0.724826,0.043771,1.81615,22.9854,-2.91255,1.18822,23.0212,-2.87314,1.19381,23.0266,-2.92507,1.26056,23.0372,-3.02133
23.2395,0.0401961,10.7419,6.34301,0.627675,10.9704,7.03227,-1.18356,10.7971,6.45654,-0.564925,11.0341,7.65786,0.283124
127.556,0.59944,7.86024,22.6284,-2.47064,9.69676,22.8998,-0.1344,6.33145,22.3564,2.62507,5.49136,22.3834,2.32641
6.9926,0.037884,-0.127421,1.95873,7.13739,-0.899271,1.46277,6.38239,-0.802168,1.24065,6.05548,-1.14151,1.69906,6.71695
31.4359,0.825252,10.9022,17.1593,1.60523,11.1215,16.922,0.0682232,10.7193,17.9693,-0.312776,10.6776,18.8873,-0.0227939
5.19072,0.0349987,3.68071,0.284531,0.451634,5.27967,0.42013,0.180224,5.2667,0.493802,0.782092,4.78401,0.302794,-0.249183
5.20567,0.251657,5.71461,22.3677,3.69171,6.45372,22.3719,2.86063,5.48732,22.3752,2.62572,6.10597,22.3315,2.6101
0.112677,0.0261021,2.68675,17.822,-8.20315,2.71279,17.5253,-8.25213,2.62958,17.7102,-8.24308,2.76124,17.5252,-8.24844
2.47891,0.133345,-0.672287,4.08102,-8.28511,-0.753548,4.84827,-8.43108,-0.66717,4.90475,-8.40349,-0.623357,3.52658,-7.91239
77.4251,0.184236,-8.36415,21.9584,-4.48683,-6.6668,22.2638,-0.934414,-10.1078,22.09,-0.210325,-8.21096,22.0652,-1.77301
11.4534,0.318679,8.45654,22.5821,3.04242,9.32654,22.9131,0.348862,8.98642,22.7831,-0.320869,8.83649,22.7558,-0.215729
8.4827,1.1534,1.44439,8.07276,-9.2201,1.1083,6.10092,-8.96737,1.32147,6.17775,-9.02362,1.61317,6.25854,-9.0775
0.419857,0.00701991,2.34683,9.36138,9.14039,2.14261,9.21741,9.14764,1.92573,9.23593,9.17768,1.80769,9.38429,9.20595
35.5375,0.458895,8.24122,10.9983,-7.50816,8.6483,12.6975,-7.74391,5.88343,10.355,-9.03181,6.02293,11.9685,-8.88623
0.899354,0.00214041,-8.51832,13.1991,-8.47502,-9.16345,13.7488,-7.97311,-8.74807,13.3003,-8.32153,-9.08023,13.782,-8.00795
98.5662,0.342531,-10.9655,12.8662,1.92986,-11.2116,8.99358,0.375115,-10.9255,6.59834,2.11232,-11.2285,6.31574,-1.71595
30.2785,0.616589,0.0101826,18.137,-8.32126,1.92212,19.2168,-7.89839,2.81027,18.0397,-8.111,1.12452,19.7564,-7.74412
31.8876,0.0454762,-8.04249,0.461132,-5.11104,-1.70606,0.176062,-4.37368,-3.13777,0.27367,-5.11383,-3.14506,0.266845,-5.02108
1.83595,0.205657,7.15712,8.57198,8.31605,8.21048,9.06478,7.99339,8.49717,9.30857,7.86663,8.18583,9.2327,8.05675
26.1125,0.615962,8.37245,2.40165,-5.4868,9.60298,2.45366,-4.75249,7.97052,4.11474,-7.53926,8.72304,4.85427,-6.53161
1.55362,0.267825,8.991,5.61975,-7.15178,8.76474,5.16576,-6.72594,8.78294,4.89174,-6.52381,8.72674,5.19322,-6.95028
23.8827,0.284204,-6.41646,17.4066,7.31283,-7.2599,16.9367,7.5816,-6.31889,19.5638,6.70962,-4.73545,17.7339,8.01507
8.58517,0.0297218,-4.16838,0.674903,3.19621,-1.3834,0.28832,2.49888,-1.62869,0.27179,2.09574,-2.73909,0.415942,2.18181
0.219652,0.033767,4.75687,22.5054,1.5927,4.91535,22.4733,1.72813,4.69862,22.4969,1.8666,4.77131,22.4848,1.76786
1.55305,0.0537316,-10.6063,6.50119,6.05959,-10.6574,5.35321,5.89122,-10.738,5.16878,5.69193,-10.7575,5.15393,5.64046
0.394801,0.407763,-3.62037,22.6111,5.12548,-3.48445,22.4119,5.47724,-3.36734,22.4534,5.4209,-3.53957,22.4218,5.531
1.17605,0.0857083,-8.03659,22.1016,-0.773307,-8.28787,22.0543,-1.53342,-7.93961,22.0883,-1.35015,-8.22088,22.0543,-1.53521
26.1774,0.10795,9.80425,4.73326,3.67236,10.0827,5.81615,3.30212,9.77322,3.36882,4.03104,10.7383,7.12759,1.86473
20.2581,0.53658,1.04385,11.8667,8.50611,0.83908,11.2757,9.13725,5.04775,12.1045,8.52248,0.644313,12.7809,9.0044
20.2774,1.37267,9.73635,20.0917,-4.86308,8.6369,16.3554,-6.78372,7.99842,17.1359,-6.92069,7.93479,17.1803,-6.93605
13.6371,0.292129,4.15793,4.73928,-8.22156,5.43197,6.06484,-8.6887,5.50509,6.69518,-8.81109,4.80615,7.53653,-9.03792
14.7443,0.191722,9.28615,3.30755,5.03609,9.91508,5.43654,3.8853,9.3287,4.91779,5.32355,9.66853,5.39359,4.60306
0.491649,0.0142338,7.89963,1.09715,-5.99888,8.02084,1.28856,-6.04481,8.3252,1.40273,-5.92951,8.22362,1.30044,-5.91867
22.7791,0.00519681,-1.24531,0.56721,3.90098,0.681129,0.274078,2.72166,-0.158351,0.185419,2.21806,0.667094,0.547674,3.99298
1.79938,0.421551,-10.1321,9.77702,-6.45493,-9.56201,9.43255,-7.0696,-10.7774,9.13131,-6.81477,-10.7061,9.0281,-6.8443
2.41876,0.0663639,9.28713,17.6747,-5.65113,9.79632,16.8328,-5.56469,9.52557,16.973,-5.74231,9.61068,18.1077,-5.35899
5.82379,0.521272,7.81817,9.53171,-7.77511,6.47218,9.1768,-8.4873,8.04108,10.6456,-7.82699,6.66591,9.45399,-8.36003
35.5684,0.191022,-1.26152,0.223474,0.0691076,1.79623,0.211027,-0.498603,1.88361,0.176748,0.388502,-0.985461,0.130982,-1.88065
4.24455,0.0137596,-3.31063,22.7423,-2.71154,-4.63317,22.648,-2.54696,-2.4068,22.8978,-3.45294,-4.35181,22.7381,-2.98329
94.5228,0.657475,-6.83588,3.08371,-7.28226,-7.8529,6.2672,-7.82717,-9.63792,3.82145,-6.23384,-8.49529,2.23852,-6.81006
2.04423,0.668017,-0.570453,16.8832,8.37404,-0.438958,15.6836,8.81078,-0.590603,15.643,8.82773,-0.656831,15.6472,8.83933
8.58281,0.0977888,-4.63734,16.5733,-8.65146,-3.67747,15.4851,-8.87632,-3.49733,16.3388,-8.75438,-3.19927,15.9699,-8.8607
2.23196,0.804359,-9.08683,10.458,5.97872,-9.97208,9.76373,6.41319,-10.0614,9.72867,6.33572,-10.2191,9.73176,6.18464
7.58353,0.465948,-4.8385,10.593,-8.61029,-6.08873,10.8714,-8.9753,-4.58,9.43681,-8.94596,-3.60511,11.1776,-9.31835
9.21891,0.0148018,-10.9035,19.242,-2.52786,-10.9893,18.5999,-2.50171,-10.9995,19.0032,-1.21878,-11.0906,18.1196,-2.02342
3.57318,0.0223803,4.5213,22.707,0.0993659,2.73222,22.8002,-0.582651,3.08278,22.7854,-0.351909,3.26845,22.7754,-0.00646688
2.67029,0.146302,6.97729,10.1404,-8.1508,7.72125,9.89715,-7.8345,7.79998,10.0042,-7.79882,6.8009,10.4775,-8.47352
3.84022,0.141169,11.2017,13.6963,-2.65079,10.6634,14.2262,-3.51527,10.694,14.4025,-3.54208,11.3735,13.41,-1.94656
15.9738,0.498581,0.922249,3.52232,-7.76328,0.951461,4.97371,-8.44978,2.09424,3.45501,-8.40837,-0.0320323,4.32657,-8.24753


