
5.6115,0.0270716,6.67045,10.3778,2.14048,4.06591,10.5663,2.65221,5.03929,11.2213,2.4831,4.78503,10.6397,2.52057
3.68934,0.160531,2.97919,18.2584,3.86728,1.71767,19.1934,3.42112,1.47716,19.5094,3.42054,1.31591,19.9646,3.50665
4.73896,0.0753599,10.379,19.3831,4.11584,8.69213,19.1552,4.26671,11.077,18.8405,3.94672,8.69997,18.5919,4.26636
3.88085,0.199025,3.71384,12.2785,4.41881,3.22132,14.6857,4.67092,3.18361,14.5223,4.65815,-0.862017,17.2484,4.25997
11.2612,0.0275713,-0.573882,4.12903,2.18963,1.26726,5.04045,2.59201,1.43283,3.04648,1.60589,-0.0571725,5.08589,2.62662
5.16737,0.316453,4.10402,11.4742,3.79688,4.54833,11.7437,4.01049,3.32709,11.8897,4.42165,3.3621,9.77823,4.2195
3.45883,0.0327512,-3.58823,20.2709,3.64355,-2.44179,19.5819,3.90425,-3.4994,21.4314,3.47992,-3.58133,21.3166,3.49269
8.98429,0.122465,-5.49813,5.38558,1.67722,-3.36213,6.13396,2.06335,-3.15023,6.05747,2.05842,-3.6999,5.28054,1.70707
4.86645,0.180117,-3.97778,2.25958,-2.11398,-5.41061,2.42552,-1.72407,-5.50655,2.8782,-0.972925,-4.93111,2.94662,-1.0527
2.8945,0.660041,-6.74648,5.65459,3.92701,-8.15406,5.61627,3.52618,-7.95947,5.52228,3.76301,-8.05112,5.73825,3.57184
1.7278,0.0386782,-1.04203,14.0769,4.38584,-1.1459,15.6662,4.27322,-1.25149,15.6317,4.26057,-0.964103,15.0333,4.32108
1.40464,0.230566,-14.7079,9.19727,2.80703,-15.1372,8.93062,2.54172,-15.4001,8.91432,2.30645,-14.3809,8.99685,2.90886
6.87685,0.194926,14.367,10.2738,2.04676,15.226,10.7676,3.21742,14.8689,10.209,1.34596,13.7764,10.2716,1.21272
1.18391,0.300647,-0.624616,9.90372,4.64616,0.0908718,9.13274,4.67152,-0.0268523,8.88572,4.71852,0.151721,8.83324,4.64456
72.585,0.212838,-2.49858,16.9997,4.01895,-1.44361,13.3448,4.40143,-6.57671,17.9291,3.47596,-6.92015,17.442,3.53335
1.60304,0.234492,-10.2007,2.06689,3.55421,-10.3418,2.8619,2.96358,-10.5297,2.27403,2.71456,-10.3142,2.78067,3.25942
1.35825,0.0238789,-14.7362,7.92955,2.79188,-13.6604,8.14645,3.35511,-13.6607,7.79143,3.13573,-13.7481,7.83258,3.12867
0.830222,0.184238,1.02872,2.94008,1.01973,1.44908,1.94636,1.29575,1.39132,2.16034,1.28793,1.33833,2.6229,1.29315
2.08545,0.264358,1.17294,16.6285,2.29561,0.171166,17.6338,2.01562,-0.0533014,17.0199,2.263,0.257151,17.2315,2.20605
11.5374,0.417153,-1.69384,9.84253,2.09078,1.13937,10.2607,2.82583,-0.0670522,9.58243,2.55335,1.23843,9.06635,2.4865
3.37367,0.159885,0.667843,21.0078,2.88421,1.15906,19.9589,3.43647,1.09462,21.4032,2.27409,1.15664,21.4139,2.18218
1.40852,0.158933,1.64345,1.51042,2.15284,1.3096,1.43969,1.06495,1.27706,1.32562,0.999211,1.33341,1.54028,1.08885
3.72848,0.150431,0.887311,13.606,2.37851,0.882859,13.1753,2.27755,0.902608,14.2071,2.15665,0.247181,14.6693,2.09347
0.850598,1.06302,1.96141,7.018,2.51198,2.20595,8.48222,2.90525,2.1236,8.57501,2.87765,2.27646,8.4149,2.92244
1.17329,0.36405,-4.66979,2.75815,4.60085,-4.65659,1.65997,3.82092,-4.73847,1.76472,3.92282,-4.93031,1.94,4.07301
0.592695,0.229774,10.3896,8.72349,4.60449,10.8152,8.24336,4.4396,9.58489,8.89147,4.57766,10.4342,8.43948,4.60471
6.69426,0.576574,5.8059,15.6499,2.44016,3.83932,15.5657,2.49902,4.08926,14.8396,2.3103,3.92281,15.47,2.48811
1.57122,0.200405,6.93332,19.3874,1.72574,5.91361,19.0933,1.96081,5.6663,19.2141,1.92188,6.27276,19.0265,1.92656
1.62876,0.13751,11.4161,11.1161,4.03866,11.2649,10.3948,4.38798,11.6628,9.97218,4.45917,11.3611,9.93975,4.4986
12.8725,0.0944513,-3.38972,2.34267,-1.78033,-1.27527,2.42546,-2.6777,-3.72051,2.24937,-2.07035,-2.86963,3.0983,-0.610474
0.747631,0.256326,-10.4258,14.3288,3.06581,-10.0829,14.5081,3.34931,-9.5339,14.5068,3.48043,-9.8147,14.4648,3.4356
13.817,0.202766,-4.86811,12.2508,2.00787,-5.10296,14.1765,1.7194,-7.42904,12.5577,2.12909,-5.98211,12.9223,2.04007
11.0649,0.0278864,-7.86727,16.2023,2.25023,-10.4042,14.7271,2.39381,-9.67356,15.8608,2.34059,-9.62288,14.512,2.37698
2.72653,0.778365,0.871117,17.4434,4.35208,2.20451,17.5227,4.12224,0.931108,18.4023,4.04657,1.87577,17.7543,4.07522
1.55698,0.208673,-2.96463,20.0986,1.737,-2.05098,19.2832,1.81047,-2.35574,20.5451,1.69942,-1.97013,19.3731,1.77121
2.92563,0.189796,0.281732,12.8487,2.31238,-0.690465,12.5812,2.64163,-0.785253,12.9179,2.56888,-0.993762,12.7799,2.61663
1.00128,0.0804935,-1.34623,7.91696,4.78405,-0.964142,7.74614,4.86684,-0.819675,7.18951,4.87168,-0.920229,7.11328,4.87205
43.1299,0.0352615,-4.89132,10.1675,2.25816,-8.8842,10.4696,1.82587,-6.46899,7.6254,1.67401,-4.30327,7.62505,1.95476
0.0862052,0.0143131,2.23476,13.2049,1.78063,2.21991,13.5126,1.74495,2.15998,13.305,1.75666,2.33766,13.2765,1.76538
1.24736,0.074064,-5.79312,20.4437,2.94919,-6.51259,19.6725,2.68586,-6.46079,19.8459,2.79185,-5.73551,20.0984,2.52856
7.31688,0.193331,10.6181,12.2002,1.62336,9.73173,13.3926,1.40544,10.812,13.3377,1.42498,10.6799,14.6125,0.972769
4.75641,0.48967,8.5435,7.5605,2.56796,7.25473,6.39312,2.37409,7.04902,6.29682,2.3034,7.45989,6.51178,2.11862
21.1212,2.6455,-5.21255,19.3696,2.22556,-7.30032,17.468,2.3725,-7.89998,17.9573,2.69653,-7.15157,17.3288,2.33041
0.171429,0.0240574,14.5203,11.1036,3.57386,14.4812,10.7267,3.54355,14.3057,10.7639,3.53618,14.3815,10.6488,3.53819
2.45381,0.215926,12.9877,13.5714,3.68589,14.8265,13.4452,3.36646,14.4627,14.0589,3.36745,14.7135,13.9039,3.31773
8.56938,0.0185271,-7.45136,6.54743,1.53389,-4.27371,7.33843,1.93696,-8.0279,7.11687,1.47582,-4.0358,6.61537,1.9278
7.85644,0.494988,-9.48989,6.61709,3.05779,-10.1077,7.01408,3.50849,-9.60712,6.09247,3.45416,-7.2985,7.00174,4.10978
3.10874,0.0728258,-1.39618,1.08485,-4.10529,-1.10959,0.665857,-4.03089,-1.01085,2.15847,-2.88934,-1.80235,1.89333,-3.79163
0.259846,0.0951846,-8.76225,17.6641,2.95832,-8.6217,17.4503,2.72342,-10.5035,15.6388,2.93205,-8.75224,17.4192,2.76814
0,0.00440933,-10.8935,13.2683,2.72636,-10.7737,13.0551,2.62198,-10.8793,13.257,2.66659,-10.7687,13.0324,2.738
2.36006,0.136391,2.51029,15.2157,2.17296,1.74958,16.1028,2.32342,1.33066,15.651,2.27761,1.04123,15.5786,2.25956
52.7061,0.547058,-2.09635,0.125942,-4.76391,-1.0043,1.3557,3.1632,1.45985,1.089,3.03257,-2.75774,0.647062,-0.494064
2.89968,0.475509,4.2688,19.4659,2.29338,5.4432,21.4679,2.1885,4.78998,21.4825,2.14013,4.87149,21.1866,2.10413
22.0888,1.55546,12.1376,10.1188,1.59051,13.2964,13.2018,1.27711,12.7439,14.5842,0.829287,13.2036,13.8673,0.970298
10.833,0.22356,5.71931,8.21104,1.62729,5.55317,9.98067,2.12783,4.60584,8.49273,2.08087,4.84121,9.89529,2.23498
2.11394,0.704848,-1.76514,21.6688,3.12952,-0.65227,21.9036,2.24311,-1.14635,21.9933,2.05308,-1.23286,22.0458,1.98837
17.9884,0.26181,-2.11289,20.9629,1.71786,0.55826,21.2614,1.68183,0.812144,19.815,1.35205,-0.180551,19.9041,1.50642
4.47606,0.978837,7.77497,11.6269,1.92626,7.30006,13.9997,2.06647,6.397,14.5778,1.89608,7.51236,14.1458,1.99388
2.81686,0.0152129,-0.347026,14.8359,4.37798,-0.0314733,13.9639,4.43225,0.859047,14.4778,4.47297,0.714379,14.0344,4.47476
10.635,0.581382,-5.69011,3.89514,1.1076,-9.4832,3.52916,0.572193,-8.32832,3.2386,0.166668,-9.30127,3.70372,0.69268
5.84742,0.380155,11.3927,12.1575,3.38751,11.2696,11.216,4.00766,11.0679,12.4255,3.79931,12.6031,12.4289,3.4646
0,0.000584845,0.101138,11.2679,3.68614,0.0730356,11.3048,3.67037,0.0971036,11.3547,3.60874,0.169855,11.2552,3.65075
5.62639,0.0699057,14.538,10.939,0.713993,14.4056,11.9793,0.645128,14.824,12.4767,1.55052,14.6665,12.7599,1.23109
1.89406,0.0122885,8.44998,15.9424,1.71619,7.60629,16.4681,1.82334,7.09022,16.1999,2.09417,7.02425,16.3022,2.0793
4.99263,0.806646,-0.152153,15.6639,2.32172,-0.873802,16.8489,2.14788,-0.831639,17.1065,2.08917,-0.899488,14.6161,1.8407
5.09978,0.373605,4.94759,12.6551,3.61085,4.56699,11.9351,4.04352,6.91488,12.5805,4.1252,4.65416,13.0847,3.92006
1.79579,0.412827,-9.75485,4.61165,2.51903,-9.56264,4.32499,3.5728,-9.75578,3.8426,3.45075,-9.5535,4.21401,3.61771
4.16705,0.233391,7.68279,19.0974,4.47299,7.81636,17.5528,4.37287,7.91514,17.6409,4.32381,8.11211,18.2373,4.30633
1.01121,0.069225,-1.15963,19.5781,1.49096,-0.218457,19.0848,1.4953,-0.359455,19.2903,1.4707,-0.231034,18.9048,1.51348
10.0434,0.217992,4.93645,13.8401,2.37597,1.54367,14.3732,1.88172,4.96161,14.6516,2.27478,5.25684,13.5952,2.15212
1.74854,0.0362076,1.62182,19.9731,3.58402,2.53285,19.1456,4.24534,2.75613,18.838,4.2645,1.85086,19.4928,3.49391
2.53781,0.357867,3.42217,8.50755,3.66224,3.17872,9.23995,3.17162,2.86104,8.28711,3.33814,2.76389,8.16335,3.14396
3.41426,0.484971,6.78536,6.36114,3.49145,7.30364,5.86021,3.94429,6.96314,5.85489,3.55473,7.37436,6.2421,3.01585
9.98266,0.637191,-2.093,3.10601,1.31042,-0.660627,3.87149,1.9234,-0.542852,3.22679,0.926241,-2.04,3.18923,0.222146
1.03755,0.0182987,-1.13891,2.2924,4.40816,-1.58424,3.11533,4.90804,-0.863939,2.16212,4.34551,-1.61638,2.92811,4.8042
1.46525,0.101065,4.6166,19.3693,4.67715,5.29725,18.7619,4.49686,5.12367,18.6859,4.39276,4.86517,18.5997,4.25914
6.20275,0.768917,-2.16907,9.62984,2.02595,-3.64445,10.823,2.35781,-3.74549,11.3817,2.28049,-3.96249,10.3997,2.32357
4.56732,0.256763,7.27428,20.1485,2.65598,6.75106,20.6813,2.95284,7.34443,19.9205,2.11532,7.62722,19.961,2.01138
4.59469,0.00520799,-0.535359,18.5022,4.24626,-1.86478,17.8487,4.10235,-2.36649,19.4808,3.92494,-0.802559,17.6764,4.26631
30.2281,0.371452,-0.17801,11.7538,3.59568,2.47904,10.0648,3.99365,1.59495,13.047,4.5092,2.15209,9.69173,3.70061
6.45867,0.368005,-4.38551,16.8845,3.78474,-4.72658,14.6065,4.16469,-5.39878,15.7298,4.05764,-3.6429,15.4863,4.27732
80.814,0.307767,-6.70085,0.211064,-2.04734,-5.02961,1.09133,2.56916,-2.32385,0.909312,1.22646,-2.68759,1.28186,2.85437
1.00269,0.185722,-6.43775,9.23538,4.0026,-5.35166,9.25236,4.06701,-5.51756,9.47808,4.05411,-5.33593,9.43012,4.04042
4.59486,0.84218,1.75148,3.18051,4.09334,1.92326,2.79612,1.8657,1.86891,2.38567,2.121,1.91855,2.70343,1.90733
28.8845,0.397111,13.0015,18.0823,3.39846,10.9077,16.4765,3.76416,9.83318,17.5856,3.93262,11.0359,20.1948,4.11425
12.1238,0.116384,-7.7705,11.9612,2.18841,-10.2416,14.1057,2.59449,-9.44807,13.8546,2.47769,-7.8539,10.9802,1.96432
9.07192,0.025301,2.18708,19.0495,1.85562,2.11011,21.1015,2.1023,2.65768,18.3952,1.84951,1.35445,21.1509,1.92774
0.270986,0.0583513,13.4391,9.78222,3.34618,13.8968,10.0149,3.38503,13.7993,9.93074,3.12894,13.8961,10.0041,3.25496
27.6778,0.880138,-11.159,5.97229,2.21346,-10.9354,10.3106,2.41463,-10.1976,11.0284,2.35887,-12.9389,10.6917,2.18328
1.96293,1.29424,-8.22216,5.74847,3.55301,-9.47744,5.33706,2.2227,-9.60012,5.55115,2.35656,-9.63499,5.61189,2.55094
3.66627,0.234586,-4.0477,12.31,2.05466,-3.2457,13.8972,2.1947,-3.25475,14.3223,2.03206,-3.92671,13.4552,1.97959
36.5173,0.316461,6.91924,15.6007,2.18873,13.1613,15.3564,0.911039,8.94967,15.3269,1.50915,12.6635,16.2973,1.1913
1.6637,0.781737,6.49366,20.8213,3.04732,6.15028,20.9663,4.26933,6.0385,21.0026,4.24574,6.38165,21.0062,4.16022
5.82644,0.277784,-1.91219,2.91088,-1.48523,-1.83197,3.13735,0.0870279,-2.00521,3.06669,-0.0518459,-1.24503,3.1651,-0.0956476
21.8037,0.004466,10.8168,14.9079,3.80932,14.1824,15.7653,3.20676,14.4106,14.7928,3.27236,11.6861,13.2941,3.83935
16.5789,0.190598,-4.00111,3.58943,1.2062,-6.61631,4.75835,1.69246,-7.87432,4.8522,1.61556,-2.53715,3.08066,1.32624
0.207816,0.00785563,8.25722,20.8141,2.05888,8.88059,21.0122,1.86,8.5305,21.0129,2.03589,8.65962,20.8748,1.89866
1.46837,0.0972506,11.9168,19.8452,2.45569,11.7411,19.9681,3.05674,11.7689,19.9915,3.4538,12.0988,19.6386,3.41187
0.0370652,0.00974176,13.7612,13.3779,0.831056,13.7216,13.2132,0.900604,13.7737,13.2842,0.842765,13.6526,13.2429,0.96374
0.540828,0.29682,-6.89185,7.49821,1.59602,-7.24001,7.64499,1.51804,-7.02621,7.99057,1.57996,-7.13637,7.82917,1.55795
3.27526,0.428411,3.17522,14.9564,4.60418,3.26188,16.282,4.03165,3.52483,16.2641,4.159,3.64556,15.848,4.25966
3.67106,0.0524842,-13.6333,8.62713,2.05504,-14.4275,7.49429,1.75652,-12.9695,8.87652,2.10786,-13.6582,7.0163,1.77082
0.411431,0.0356507,0.496541,3.90262,4.98041,0.230885,3.97678,5.01029,-0.0600214,4.66542,5.04779,-0.141299,4.56643,5.03718
2.77086,0.109643,-2.9307,2.00071,-3.25426,-2.3709,1.89062,-4.54674,-2.26247,1.94212,-4.14561,-1.88428,1.98798,-3.67037
12.8816,0.281078,1.22899,16.9724,2.21838,4.08698,16.3556,2.48062,3.33954,17.2068,2.25138,3.93566,15.724,2.53393
11.9364,0.184904,-6.28777,3.90416,4.1823,-6.33587,2.2637,4.10268,-6.17286,5.21782,3.91829,-5.76738,2.13938,4.16774
2.85702,0.271582,6.42522,13.9477,4.77618,5.59154,13.3766,4.34065,6.56371,13.3145,4.51429,5.41927,13.3931,4.316
8.04767,0.748465,13.6695,11.9931,2.91395,15.2761,12.4106,3.05931,15.207,12.6854,3.08658,13.9922,10.5452,3.59695
3.09413,0.269306,7.24737,6.35626,1.8615,5.89081,6.14692,2.42286,6.59872,6.15849,1.68678,5.86097,6.18331,2.08323
5.14085,1.17784,-2.30579,11.0223,2.18351,-0.913811,11.5446,2.31822,-0.785522,12.499,2.65946,-0.880887,12.1033,2.62777
0.637897,0.00134782,10.167,21.9325,3.80549,10.6908,21.317,3.17564,10.1294,22.0025,3.6448,10.7946,21.1536,3.41132
7.38895,0.757834,-11.0819,9.51842,2.62424,-11.971,10.5732,3.67312,-10.1638,9.35932,3.10787,-11.4464,8.41487,3.66979
2.47517,0.0835124,5.2643,7.34031,1.81534,5.73895,6.64875,1.62698,5.62594,7.67187,1.55874,4.76474,7.17887,1.92535
5.71044,1.06173,8.93252,7.73257,2.37087,10.3696,8.28723,1.74934,9.39238,6.79761,1.26597,10.7039,8.43309,1.86639
0.0203309,0.0714045,3.43749,21.8587,2.37782,3.40656,21.8138,2.44964,3.30608,21.8559,2.48364,3.40783,21.9249,2.47633
2.32349,0.636892,-7.14483,15.4902,2.2103,-5.99347,16.0944,1.9429,-6.53495,16.6786,2.03864,-6.34852,16.3704,2.05802
7.3977,0.213391,10.9864,10.8629,1.85951,9.05091,9.44261,1.80056,11.5219,9.77767,1.68231,10.6976,11.8729,1.60301
3.09296,0.01608,12.6728,17.1042,3.47955,13.1879,16.1238,3.47364,13.796,16.4015,3.33619,13.7386,16.9896,3.28499
9.71439,0.279876,3.43228,17.0742,3.75915,2.97507,18.1419,3.81634,3.99514,19.1533,4.48133,3.49611,16.3306,4.12014
3.84714,0.141161,-3.90045,20.9955,2.22319,-4.6628,20.5475,2.28803,-3.25754,21.7279,1.94366,-3.24488,20.636,1.765
6.90968,0.27729,-10.7307,1.63411,2.66994,-10.1671,3.54239,1.78985,-9.89481,4.10402,2.27925,-9.986,3.8944,2.57291
3.32017,0.324014,1.60503,8.75326,3.23578,1.19404,8.16451,3.5709,1.22963,9.43382,3.82256,2.12271,8.99728,3.48561
0.353194,0.0902937,9.51053,7.28861,3.82179,9.20121,7.07221,3.84285,9.22497,7.01359,4.02783,9.27921,7.16318,3.66646
6.38787,1.60976,7.82441,21.4103,4.44059,7.94036,19.3235,4.39705,8.71564,19.5371,4.30044,7.70456,19.2247,4.46566
2.11672,0.0593164,-4.81406,13.0078,4.07845,-2.61383,14.0889,4.38777,-3.01953,14.0443,4.35946,-3.91375,12.8984,4.17727
0.301369,0.0198543,-10.6278,2.14601,1.94987,-10.4818,2.48581,1.64921,-10.5301,2.31606,1.90189,-10.5345,2.43453,1.62293
0.430684,0.250696,5.68426,18.3263,2.15913,5.97811,17.8324,2.19986,5.79554,17.7856,2.26037,5.69121,17.7167,2.28473
4.85904,0.0937128,-6.11076,8.61909,1.94407,-7.73521,8.85711,1.48156,-7.36456,9.01891,1.5932,-5.29434,8.77705,2.06675
10.097,0.392627,-5.01988,7.97345,4.39561,-4.76202,11.458,3.27414,-4.44474,9.39903,4.3628,-4.91002,11.4106,3.24711
3.84821,0.248769,-1.4015,11.5338,3.93145,-0.604707,10.0869,4.60676,-1.77316,11.6538,4.16271,-0.510596,12.1548,3.98812
0.251403,0.0748525,-2.18818,1.68013,3.82271,-2.45721,1.79417,3.91603,-2.58205,1.94319,4.13321,-2.61362,1.87165,4.05396
2.42094,0.148788,1.63521,18.4918,1.53102,-0.417055,18.3155,1.63853,0.526443,18.519,1.61073,-0.411033,17.8963,1.82043
0.524458,0.187235,-5.13512,20.81,2.66109,-4.77531,20.6936,2.36784,-5.02592,20.4339,2.40148,-5.1476,20.3679,2.42411
1.14061,0.246222,4.70831,13.2318,3.99985,4.6279,13.8086,4.49908,4.42516,13.8895,4.56904,4.3115,13.8265,4.56762
3.7432,0.161304,4.81193,4.43256,2.90525,6.21344,4.47374,3.21677,4.33044,4.4206,2.52792,4.89621,3.90974,3.06513
0.132406,0.00349258,-6.03596,17.8448,3.52555,-5.89498,17.6453,3.55538,-5.79258,17.718,3.54327,-5.85541,17.9102,3.51671
20.1166,0.374063,3.66505,4.51975,3.84935,3.21319,5.51993,4.85039,6.33624,5.16093,4.41887,6.13927,4.19936,3.91419
15.7396,1.32385,9.22171,11.7137,3.47114,9.39991,8.95415,4.51992,7.73268,7.4506,4.76777,7.74743,7.04255,4.72341
6.44882,0.225012,4.68283,11.1326,4.04268,4.71794,9.13802,4.67046,5.63197,11.357,4.32699,7.51451,11.3654,4.51985
3.12995,0.366355,3.47304,18.1382,2.6387,4.12016,19.2316,2.36576,2.88775,18.9554,1.95419,4.07416,19.5167,2.31981
3.17002,0.658117,-7.96188,4.82724,1.59168,-8.97683,4.89571,1.69996,-9.43634,5.33435,1.95243,-9.46238,5.17788,2.16175
3.03043,0.551,-3.97095,20.6601,2.10466,-4.12515,19.3493,1.90273,-4.36109,19.4697,2.0287,-4.62762,19.4071,2.03351
18.6661,0.806021,-8.65308,2.63756,-0.0768725,-10.5156,1.25854,0.737,-9.38393,0.728468,-0.0794801,-8.51543,0.660086,-0.786745
1.22481,0.128129,7.93655,14.0922,1.93333,8.15692,13.4553,1.91566,8.25995,14.086,1.73454,8.08068,13.3624,1.95473
1.09846,0.249777,-4.6429,0.620187,-3.95425,-4.99076,0.909814,-4.0739,-4.5343,0.298507,-4.27683,-4.47914,0.837004,-4.28875
11.3187,0.44666,5.57829,17.8473,4.35933,6.22521,17.4637,5.16408,6.35453,18.7514,5.10447,4.41827,17.7967,4.34791
4.40761,0.106047,8.34929,9.15348,4.50771,6.30263,9.19279,4.71899,7.03139,9.25617,4.62243,6.88752,9.67767,4.74165
15.2018,0.914551,-1.63613,4.80591,3.75305,-3.00197,5.21534,4.44503,0.0308648,6.62236,4.37783,-1.17892,4.68781,4.79107
4.38821,0.140002,-4.86979,11.7472,3.04678,-3.57728,12.1719,4.21033,-4.82317,11.4586,3.23429,-3.71593,12.3722,4.1226
1.66258,0.63351,13.3622,12.2195,3.16012,12.6454,12.0111,3.28779,12.5044,12.149,3.45681,12.6885,11.81,3.39934
1.72308,0.374883,-4.23442,5.29369,4.69318,-3.42873,5.11243,4.64878,-3.19211,5.28193,4.55845,-3.07565,5.16618,4.46882
7.49289,0.14816,-12.7448,9.26964,3.5623,-12.058,9.23873,3.59422,-14.3035,9.12723,2.99847,-12.3629,12.1495,3.36602
0.383743,0.00641035,5.00946,15.6929,5.02305,5.35611,15.6008,5.04488,5.24829,15.3529,5.0067,5.67933,15.2057,5.03844
0.339758,0.0491678,4.30814,9.03547,2.2478,4.22206,8.53012,2.3906,4.35335,8.21438,2.27412,4.31402,8.27208,2.31686
3.53483,0.619359,12.799,11.7226,3.40434,12.8313,10.2472,4.01455,12.6001,10.2039,4.10087,12.8279,9.62909,3.99908
25.238,0.156973,-1.76159,16.9919,2.11058,-2.04525,18.8502,1.85635,-2.94828,14.7603,2.05363,-3.9502,18.8899,1.83399
9.74511,0.932595,9.76275,18.0423,1.28144,11.7794,18.5161,1.1511,11.652,16.9599,1.33563,11.7784,16.5689,1.28935
1.02729,0.381589,-9.97742,7.09518,3.51514,-10.7525,7.42039,3.89755,-10.2522,7.55504,3.83445,-10.6083,7.54153,3.86313
5.32342,0.633219,0.808753,3.12701,1.17238,-0.200523,3.05591,0.560331,0.572871,3.0626,-0.177836,-0.401923,3.35782,1.31079
12.0373,1.08277,9.87411,21.1387,1.73716,6.91622,21.366,4.40053,7.8086,21.9857,4.02512,9.98193,21.9591,2.96849
4.42817,0.138015,-4.50967,3.13859,0.198209,-5.47138,3.01746,-0.582449,-3.77344,3.27676,-0.261416,-3.96775,3.39579,0.47117
0.890011,0.536341,-4.60173,10.14,2.22741,-3.70236,9.82441,2.12933,-4.06079,10.3007,2.30199,-3.75766,9.89372,2.19255
3.06854,0.115746,-10.0036,9.23852,3.13451,-8.5313,9.2921,3.52848,-9.24243,9.15305,3.29424,-8.54006,9.07675,3.55566
6.49552,1.1612,4.60737,8.72985,4.69403,2.32289,9.0232,3.48389,2.96364,9.42471,3.63023,1.9451,9.49289,3.61322
4.93494,0.0247762,-7.44301,14.0799,2.20013,-6.48914,12.7642,2.08009,-8.2055,13.6361,2.30871,-7.24746,15.2488,2.22644
2.31083,0.311788,-14.5801,8.9499,1.95939,-14.8359,8.12021,1.80094,-15.247,8.80411,2.03437,-14.9887,8.32808,1.86292
13.6348,0.0455294,-2.5677,5.40524,1.99899,-2.837,9.25271,1.93959,-1.01735,4.71271,2.07891,-3.44584,5.59043,1.88171
0.561692,0.0590415,2.05904,8.09319,4.03855,1.51639,7.76828,4.03308,1.50298,7.72137,4.08178,1.7244,7.71177,4.21403
15.7915,1.28015,8.01841,17.496,4.28296,7.65917,13.5578,4.42752,8.53904,13.1321,4.0946,7.78547,13.5458,4.36116
0.141561,0.0144994,-1.70176,14.5181,1.68409,-1.66346,14.8966,1.71957,-1.76009,14.8127,1.695,-1.57333,14.7838,1.72007
0.607035,0.0691458,5.71002,8.94354,4.77386,5.07475,8.95631,4.75383,4.97867,8.86848,4.74952,5.40355,8.72178,4.82422
0.541136,0.0372655,1.43135,3.47246,4.76152,1.68929,3.20067,4.11512,1.60018,3.41524,4.55303,1.64565,3.16876,4.11804
9.02222,0.124194,-6.67957,0.48833,-2.61922,-7.21933,2.21051,-2.08195,-7.47956,0.86579,-1.73903,-6.50644,1.83376,-3.05331
3.20785,0.505012,5.49304,6.68243,4.90316,5.33066,8.25906,4.91223,5.82148,7.96432,5.04583,5.07186,8.31139,4.87517
1.63936,0.292973,6.61715,9.69579,2.00307,7.0915,8.03132,1.48232,7.08448,8.7073,1.75526,7.04498,8.09916,1.52835
5.66968,0.279511,5.71335,17.256,2.36913,6.89664,16.8952,1.97946,4.25399,17.7484,2.17617,5.87018,16.8318,2.17256
14.0452,0.195661,12.7712,9.42897,3.52091,10.3056,8.07999,3.28638,9.89928,7.60366,3.72977,9.45446,7.70043,2.81167
54.6919,0.84601,4.15833,13.115,2.30444,-0.0207815,11.1827,2.6241,2.04998,11.4213,2.89118,3.20639,9.42408,3.04854
8.13465,0.176886,-10.4049,5.63733,3.04465,-11.5878,6.15365,3.67885,-12.3085,6.34803,3.31682,-12.7029,6.22644,2.41569
3.97325,0.308593,-9.37935,10.8631,2.97929,-9.76875,10.3268,3.51803,-8.48003,10.8933,3.27967,-9.77313,11.1589,3.20583
25.2062,0.333415,6.8585,12.2638,2.1975,8.12524,8.99591,1.82492,8.68237,8.87331,1.7526,6.00249,13.6232,1.92122
5.78293,0.056475,3.25003,5.70623,2.7649,3.62767,4.39269,2.36505,6.11386,5.52461,2.53975,5.28827,6.08793,2.789
8.05305,0.460917,9.1405,14.4408,4.02236,9.64357,17.5952,3.95865,9.37632,17.7541,4.03683,9.01767,17.8245,4.11863
2.25073,0.0365745,11.8942,8.99718,2.04922,12.4486,9.3511,1.80905,12.9055,9.49028,2.54383,11.925,8.98511,2.59257
11.5,0.389343,-1.84917,13.4941,2.29167,-2.29991,11.6627,2.53062,-2.94757,11.1437,2.26024,-3.06763,13.868,2.20089
0.243334,0.11332,-10.3905,10.8601,3.27091,-10.6655,10.6435,3.55815,-10.3178,10.9566,3.34017,-10.3293,10.5793,3.46858
2.24109,0.0670597,8.87542,13.1408,1.67509,8.7135,13.639,1.65876,9.00428,12.6913,1.56036,7.84519,12.4981,1.98283
4.05969,0.281475,-7.26315,2.91485,4.36481,-9.43532,4.32969,3.7168,-9.1854,3.57214,3.84636,-8.73425,3.57903,3.87731
1.93184,0.0927875,-3.7719,11.8385,2.24907,-4.59228,11.6693,2.11222,-3.45968,11.7806,2.19869,-4.72393,12.0355,2.00894
12.5521,0.352713,3.67647,21.8316,3.48101,4.77145,21.7791,2.55813,4.94082,21.6195,3.34531,2.90953,21.5856,2.6297
4.03415,0.111525,1.02206,8.05559,3.62185,-0.0460011,6.727,4.35574,0.13553,6.69058,4.35134,0.591951,7.12927,4.13815
5.74393,0.0364313,-3.47669,12.6799,4.12919,-2.46382,12.152,4.15479,-2.18481,13.2688,4.35006,-2.54201,13.3479,4.33725
55.0835,0.881577,-9.7706,10.4059,2.02487,-10.7623,7.71913,2.30456,-8.38153,6.0998,1.25158,-9.98888,5.61672,2.38837
4.29676,0.326456,-9.40792,2.35438,0.388374,-10.3713,2.98126,1.26909,-10.22,3.4804,1.19107,-10.1664,3.17885,1.16156
9.97763,0.233953,1.06764,4.50519,2.4533,2.38814,4.26425,2.1611,2.55802,5.30398,2.44089,2.59887,3.51917,1.84142
0.61804,0.00992964,10.5075,9.10355,4.66137,9.87333,8.94324,4.60987,10.3017,8.84487,4.61662,9.8997,9.18408,4.65192
2.75518,0.00579314,-1.73212,7.71604,1.84956,-0.383903,7.21536,2.32299,-1.54134,8.31853,1.75143,-0.181272,7.57671,2.29142
5.92311,0.787943,-12.1275,7.77598,3.68899,-13.5398,6.64807,2.74972,-13.5923,7.00149,2.72001,-13.6662,6.95925,2.71159
2.89001,0.167563,-7.0334,13.8807,3.80903,-9.11386,14.3698,3.55152,-8.74846,14.5313,3.5807,-9.18664,14.5087,3.51365
6.66485,0.509429,9.36694,12.4615,3.17349,9.15664,11.8161,3.39885,10.5549,12.9262,3.93954,8.33553,12.7673,4.06199
33.94,0.90958,-6.27177,5.66333,3.74302,-3.34554,5.83727,4.81631,-5.21293,7.73271,4.33159,-7.30612,7.65127,4.21959
5.92163,0.0540848,11.284,19.2849,0.844314,9.07147,20.5745,1.58044,9.18419,20.3488,1.48461,9.80523,20.3456,1.38591
4.06803,0.249581,5.78392,9.04892,4.73908,5.94769,10.8738,4.32258,6.27934,9.01164,4.72756,6.22076,11.0949,4.44461
3.02014,0.128118,-8.45173,9.17115,3.52152,-6.51728,9.32469,3.93178,-6.75498,9.4674,3.88224,-7.35235,9.18662,3.81758
2.43092,0.0646045,-3.66044,3.28723,4.8808,-2.40546,2.19096,4.33211,-2.95428,2.28706,4.35869,-3.13374,2.16422,4.29411
3.89679,0.00738541,-8.45895,11.0693,3.3086,-5.84864,10.9905,3.91689,-7.11431,10.8555,3.74547,-5.95214,10.918,3.94829
3.3692,0.228575,4.71225,19.5932,4.79038,5.94862,21.0049,4.68219,5.42387,21.2726,4.4375,5.53027,20.93,4.62008
2.21438,0.137626,13.3383,11.5846,1.17865,13.2549,10.6985,1.08452,12.7494,10.3591,1.49055,12.8106,10.0545,1.44738
3.23643,0.153655,1.55482,10.18,2.95202,2.89678,9.31657,3.20478,2.66463,9.0257,3.24013,2.133,9.18164,3.1218
3.96109,0.0132337,-5.67286,2.35333,-1.87649,-6.69823,2.72975,-0.687399,-6.62884,3.15246,0.118483,-6.84634,2.94784,-0.196886
2.79379,1.33979,7.05265,16.0545,2.13331,5.73395,15.958,2.3949,5.76972,15.3764,2.41501,5.67495,16.6613,2.18998
6.57224,0.11147,4.41823,6.04737,2.92628,3.70742,7.05272,3.1154,3.43612,8.05181,3.24272,3.47137,8.22959,3.27542
1.78546,0.179809,6.98614,12.4767,4.13924,8.09339,12.4643,4.15469,8.05573,12.3081,4.19891,7.7133,12.5486,4.19407
0.342225,0.726585,-10.5819,11.7075,3.07482,-10.1692,12.4034,2.8181,-10.5307,12.2304,2.57077,-10.57,12.3617,2.72158
1.77301,0.0517852,7.49383,6.42581,1.86574,8.34449,6.3084,1.3825,7.2794,6.17595,1.5933,8.22187,6.38183,1.57739
2.14132,0.0772345,-7.87192,0.520079,-1.21887,-7.36693,1.64785,-1.90847,-7.40037,1.47739,-1.86438,-8.06877,1.31225,-1.17657
1.55434,0.185916,5.81464,6.08421,4.56864,5.59812,6.4576,4.8289,6.24241,6.18474,4.61873,6.19965,5.90562,4.63959
0.155945,0.0470391,0.439784,1.82987,-1.0937,0.283427,2.05821,-1.35862,0.301614,1.88866,-1.32641,0.314713,2.16057,-1.32994
9.9356,0.0330972,-7.87624,15.0325,3.79842,-5.22085,13.3458,4.02825,-6.17803,13.5764,3.92277,-5.08631,13.8565,4.09302
10.2144,0.0957258,-5.5648,15.4555,1.91422,-4.57936,16.2411,2.03353,-3.23704,15.7206,2.33449,-2.52063,16.9712,2.23344
6.30471,0.0551139,-2.76057,10.6458,4.28617,-1.15856,8.07482,4.80833,-2.15083,9.20952,4.55192,-1.43112,8.01597,4.764
7.11674,0.0207041,9.02575,16.4862,1.29642,9.03899,19.8872,1.27825,8.98916,19.9587,1.3151,8.86387,18.4259,1.42491
6.13315,0.420035,-2.8944,11.2499,3.74836,-3.24312,11.3384,4.14562,-2.8261,10.7411,4.22993,-1.92259,12.0508,4.1288


