
4.24083,0.0490947,-15.7091,11.5813,-5.00095,-15.4036,11.8441,-5.13019,-16.124,11.3386,-4.94111,-16.9262,11.7606,-4.6868
3.65635,0.936352,-14.5831,14.7721,-5.14059,-12.4766,14.9136,-5.43234,-12.6732,15.2756,-5.41913,-12.402,14.8302,-5.45506
20.0644,0.473512,-9.42278,18.0188,4.22329,-9.8037,19.3088,5.11454,-11.3103,18.3942,4.06554,-11.5736,18.8333,4.63806
3.58993,0.195048,19.0968,32.3475,0.374845,17.998,32.1832,-0.895642,18.0687,32.1317,-0.861171,18.0487,32.3767,-0.76025
14.1628,0.41906,-14.0623,21.9778,-3.85377,-12.9088,20.753,-4.83105,-15.4542,22.1655,-4.02456,-13.4751,22.7902,-4.1493
1.25285,0.174535,14.0413,30.0149,-3.12621,13.8147,29.7701,-3.47831,13.7537,29.8295,-3.47723,14.3924,29.9603,-3.22532
12.7825,0.286151,-0.629071,29.3491,-5.25019,0.483411,29.2586,-5.35477,0.0267628,26.9395,-5.35301,-0.517141,27.9596,-5.476
4.12103,0.0436444,17.7734,3.21518,-1.53054,16.6622,3.68706,-2.37862,17.0243,3.16654,-1.79162,18.2661,3.24496,-1.25842
12.2627,0.342705,2.42757,30.7627,-4.62689,1.81228,31.3355,-4.97,1.73681,29.8698,-5.26506,4.025,30.8984,-4.69408
2.03568,0.0672737,-18.981,28.3835,3.4074,-18.7218,28.2507,3.7083,-18.5982,28.8239,3.76779,-19.0223,28.9202,3.42436
7.27852,0.298038,-1.8115,29.7607,4.14576,-1.09151,30.6546,4.37701,-1.87175,28.965,4.63751,-2.68012,29.7897,4.28782
8.06233,0.511891,-4.6588,21.97,4.99098,-5.90073,22.4484,5.4458,-4.0863,22.8622,5.32539,-4.24653,20.7691,5.73931
6.61295,0.254293,10.8703,36.483,2.19408,11.8368,36.4605,2.48967,11.0598,34.9897,3.29827,11.2025,35.7899,2.86024
2.21797,0.000677508,19.553,22.3427,-0.44344,19.0246,22.2925,-1.22527,18.9406,22.4079,-1.30481,19.2512,22.19,-0.935427
2.34791,0.573828,17.5444,33.2467,-1.11632,16.4823,33.6021,-1.84505,16.5381,33.7897,-1.61797,16.4812,33.9846,-1.63702
0.375304,0.0150316,-19.7086,26.8902,-1.38755,-19.7189,27.0078,-1.61005,-19.7368,27.0823,-1.60532,-19.7645,27.0034,-1.29044
35.4014,0.006319,-3.38565,15.4886,5.86675,-1.81403,14.6856,5.93916,1.63703,13.8171,6.14911,0.740115,15.0146,6.16503
123.598,0.210201,-9.57496,30.6194,-4.31548,-3.9629,29.1638,-5.15685,-3.04789,30.4858,-5.18561,-4.14457,31.3617,-4.92504
4.15185,0.312158,7.8993,22.9561,5.30188,7.74697,22.1732,5.90141,7.43315,22.9293,5.54205,8.61626,23.4081,5.64541
4.83224,0.320221,9.74204,30.4245,3.63153,8.92817,30.5912,4.0637,9.74963,29.8199,3.78035,10.315,30.967,4.1025
3.54742,0.100298,3.20969,26.5692,-5.23154,4.12065,26.32,-5.45307,3.06873,25.9324,-5.58175,4.04318,26.2791,-5.46731
3.37748,0.0430759,12.3165,8.16685,4.48044,12.1447,8.45837,4.69713,12.0477,8.81585,4.89069,14.408,8.29457,4.36346
2.18902,0.119038,-4.90572,7.76463,4.49588,-3.89368,7.95209,4.95099,-5.16198,7.43369,4.43259,-5.08249,8.10792,4.72032
5.98908,0.00750725,-2.64519,15.7826,6.12762,-1.74608,15.9063,6.20457,-2.41814,17.0092,6.14675,-2.97223,16.9854,6.1037
0.978255,0.0536268,-5.74204,6.97353,-5.85361,-5.70209,7.73915,-5.95999,-5.5075,7.51604,-5.91557,-5.67064,7.4648,-5.9028
6.00947,0.205022,14.2202,22.4026,-4.40873,14.629,21.9807,-4.49288,14.2972,24.2659,-4.49407,13.8735,22.368,-4.76696
23.478,0.390356,18.5201,20.1368,-1.67845,18.9918,22.099,-1.41475,18.4002,19.9418,-2.55326,19.5483,20.784,-0.812737
2.21727,0.152463,-12.1818,5.38041,-4.77532,-12.6566,5.25747,-4.79332,-11.5713,5.73132,-5.1232,-11.5528,5.93254,-5.13713
38.6505,0.0597914,-15.2501,30.0462,-3.46177,-15.1166,29.0411,-3.46602,-11.1134,30.8047,-4.09773,-13.1093,28.1127,-3.85764
0.237306,0.157859,19.8267,17.5616,1.36543,19.7824,17.6857,1.24237,19.791,17.6241,1.17712,19.7183,17.5801,1.2285
11.7582,0.597554,16.9552,24.0576,-3.41663,18.9276,23.6535,-1.60344,17.1306,23.199,-3.30833,18.5295,23.686,-2.15755
23.5479,0.236896,-11.3033,23.0254,-4.83364,-8.979,23.5033,-5.171,-8.40178,24.6339,-5.10598,-7.91798,25.0195,-5.16887
7.79964,0.0908979,-14.5563,0.862787,-0.199424,-12.3588,0.461048,-0.323258,-12.9419,0.660038,-1.05126,-12.8175,0.598161,-0.769745
68.0575,0.122635,7.88082,6.78265,4.75135,6.6751,4.27193,4.63511,9.13748,7.00498,4.77933,9.21063,2.72996,4.15134
3.50359,0.199918,-6.82853,1.82129,-2.94719,-6.19702,1.67487,-3.20454,-7.2727,1.98182,-3.72691,-6.98057,1.57187,-2.858
5.84753,0.0955164,-0.777149,36.3309,-1.73153,1.67136,36.4783,-1.9155,-1.70235,36.4584,-1.60703,1.53037,36.3623,-2.10439
3.70697,0.00798354,19.4256,31.0978,1.14159,19.4716,31.4443,1.06771,18.8596,29.1218,0.50781,18.8651,29.0776,0.547456
7.5127,0.0113814,-7.18117,29.9294,4.51518,-9.63655,30.2546,4.39753,-9.40518,30.9328,4.4694,-9.43996,30.3095,4.4131
10.6472,0.597833,3.23896,28.1668,4.42161,3.01897,27.1996,4.80587,3.77314,26.504,4.8222,4.47158,26.2721,4.91931
0.146682,0.268788,-1.67835,0.35547,1.87623,-1.41115,0.327926,1.79526,-1.40859,0.376622,1.91849,-1.40959,0.362966,1.87465
13.4198,0.0496784,-12.8798,33.9134,3.93548,-12.7934,32.569,4.24528,-11.9092,34.0394,3.90107,-11.8622,32.7968,4.23327
6.81387,0.158455,17.1018,4.5647,3.67415,18.6479,4.28923,2.69534,18.5969,3.93886,2.57387,18.1299,4.78216,3.27083
13.5332,1.18601,-3.24933,2.3679,3.01444,-5.99107,1.82423,2.80116,-3.56897,1.25143,2.43689,-4.70992,1.52473,2.5359
135.192,0.00515084,-4.79208,13.9818,-6.21668,-0.803216,14.4389,-6.38972,-0.0988369,14.954,-6.4047,-0.647711,15.4475,-6.3628
50.8073,0.278558,-1.48323,34.6257,3.37236,1.73931,32.429,4.14439,1.94889,33.8114,3.75018,-1.59001,36.2027,2.58681
31.4903,0.690481,4.47044,7.51175,4.409,6.89845,1.51391,3.6331,4.99965,8.1083,5.22263,3.81765,8.10341,5.28721
15.7207,0.0762474,16.2173,8.5291,4.33025,14.4668,8.39484,4.38645,15.4491,9.44059,4.75432,14.8203,9.50465,4.85653
13.1363,0.608815,-6.57836,22.9273,4.71876,-7.28271,22.1948,5.35108,-7.26868,24.7015,5.2078,-4.39303,22.9619,5.38802
2.45178,0.136651,-12.4668,4.24058,-4.47765,-12.6268,3.39271,-3.6127,-12.4656,3.38845,-3.65706,-12.6136,3.52257,-3.71486
3.06976,0.0157891,-18.9131,11.2458,-2.9338,-19.2288,11.0345,-2.1379,-18.8352,11.4129,-3.11011,-19.4148,11.9756,-1.95573
2.89149,0.155664,-6.03755,25.1479,-5.32709,-5.59261,25.662,-5.33581,-4.58077,25.3003,-5.30642,-5.53755,25.3733,-5.26094
2.80872,0.21805,-7.11537,27.6007,-4.65235,-6.56839,27.5111,-4.98424,-7.17627,28.7272,-4.67705,-7.40753,27.444,-4.85331
11.1468,0.426702,14.968,21.0812,-4.23357,15.8795,21.7593,-4.36462,15.4508,19.5815,-4.97641,14.5582,21.9444,-4.52804
6.43751,1.29476,11.4629,26.5722,-4.44247,9.60294,27.6148,-4.2039,9.80687,27.0173,-4.22087,9.40602,28.0434,-4.26359
4.32443,0.56578,17.5614,14.7164,4.89462,17.5745,16.4805,4.74258,17.2689,16.7467,4.74975,17.4164,16.443,4.82718
11.0468,0.141968,-19.8638,28.5698,1.13752,-19.6751,29.2895,1.62935,-19.1987,29.4941,2.97301,-19.6576,30.6775,0.538542
2.49727,0.154722,-14.586,28.6162,-3.21813,-14.8614,28.5612,-3.28362,-13.693,27.8503,-3.60646,-14.0237,29.0412,-3.61503
4.80058,0.192701,-1.06753,7.15579,4.99001,-2.77132,6.69811,4.7295,-0.15103,6.77577,5.00238,-2.44702,6.87466,4.71455
2.37805,0.069387,-17.8364,25.5746,-3.12144,-18.0651,24.9104,-3.18481,-17.4333,25.7174,-3.30635,-18.2591,25.943,-3.02902
123.762,0.760209,-2.02508,2.64939,3.38168,-12.9917,4.16719,2.6721,-9.80456,3.89997,3.17094,-11.5517,3.29977,2.65399
4.83824,1.57369,3.42935,23.5877,4.80463,3.31885,22.0942,5.29349,3.21675,22.1021,5.28799,3.95801,22.1703,5.7725
0.863675,0.00992107,0.273968,1.60223,-3.15431,0.301533,1.97025,-3.59064,0.444177,2.02086,-3.66283,-0.268915,2.54086,-4.18091
14.6449,0.180228,-12.6344,27.8384,-3.79277,-11.9765,29.4456,-4.07029,-11.1527,27.9013,-4.23989,-12.6639,29.6306,-3.94472
36.2179,0.111053,-3.11918,22.4486,5.4245,-0.550512,23.1729,5.6635,0.0389754,22.1942,5.87971,-0.344091,23.0119,5.71773
334.08,0.850627,-11.9772,9.54518,3.81523,-17.308,9.73898,2.7527,-17.1142,6.31339,2.42902,-17.4211,6.67801,2.45134
17.4373,0.036065,-14.3674,1.09197,-1.14924,-15.9153,1.71317,-1.4029,-16.5834,2.14219,-1.80825,-16.2762,1.6713,-1.0548
1.04804,0.0209237,19.5422,29.2523,2.35055,19.6641,29.2258,1.43235,19.6216,29.33,1.70514,19.6733,29.1405,1.45073
4.08985,0.199243,-13.2839,23.2453,-3.74605,-13.623,22.9453,-4.05851,-13.3489,23.5201,-3.7825,-12.1928,23.2122,-4.55177
7.49506,0.284543,-13.5776,24.3975,4.28008,-13.7979,23.0637,4.61434,-12.5486,24.4062,4.67825,-13.9587,24.8244,4.5023
52.2542,2.52603,-8.74199,31.705,4.37169,-10.6146,34.1373,3.81834,-11.5481,31.8106,4.26125,-10.4332,34.6605,3.59665
28.7273,0.328296,-15.4619,5.00361,2.46049,-13.0031,5.59673,3.00604,-12.7512,5.81308,3.12784,-13.0779,6.82347,3.21914
11.7579,0.544949,-9.61417,12.5468,3.78911,-7.79875,12.3781,5.04697,-10.7183,10.333,4.01334,-10.0081,12.9419,4.21516
0.769462,0.201091,-9.12766,1.49425,2.2718,-9.84688,1.78424,2.3204,-10.0662,1.70032,2.27052,-9.84705,1.74299,2.2857
2.77219,0.339389,-9.97516,28.6165,-3.94622,-9.76578,28.356,-4.24845,-9.46249,29.5551,-4.40503,-10.8754,28.268,-4.26214
2.11635,0.275548,16.7598,32.4807,-2.20107,15.1007,32.6899,-2.41922,14.9577,32.8354,-2.40607,15.1012,32.6491,-2.43817
19.5599,2.22535,-9.51626,34.8316,-2.81544,-14.4494,34.7725,-2.09192,-14.1541,35.1484,-2.03648,-14.8474,34.6839,-2.21431
2.61678,0.150141,19.3457,18.3304,2.03202,19.6417,19.198,1.48953,19.3769,18.4223,2.30219,19.6799,17.8169,1.81293
62.8301,0.0221088,-10.777,27.2056,4.7786,-12.5377,22.8098,4.72997,-11.2801,22.7808,4.89362,-13.3459,23.8977,4.58667
7.19261,0.040159,19.4793,11.8126,2.34918,18.193,10.3144,3.46742,19.6142,11.4719,2.35244,18.0658,10.4786,3.53136
5.54469,0.163319,-6.87006,33.5506,-3.2919,-7.51843,32.9717,-3.93311,-7.34254,34.1635,-3.32553,-6.56711,33.5133,-3.4095
8.14444,0.117812,12.3779,35.6856,-1.76511,15.8346,35.428,-0.956119,14.6798,35.6501,-1.05079,15.5885,35.6037,-0.861408
19.0981,0.21615,13.3157,4.42734,4.25116,15.474,3.52816,3.80365,15.5099,4.25812,3.93741,15.1802,5.09549,4.10145
51.358,0.157141,9.94641,22.8429,5.85918,7.95046,19.6953,6.24256,7.45701,19.7966,6.25326,7.20715,20.8387,6.20781
1.77354,0.00544129,8.74903,14.254,-6.14103,7.83194,13.9604,-6.17267,8.19049,14.4478,-6.20857,7.83103,13.7985,-6.15084
9.04859,0.282475,-9.63924,33.6763,-3.04875,-8.03329,34.0755,-3.45479,-9.04887,33.0287,-3.73957,-10.1813,33.8905,-3.17696
1.84661,0.278425,8.34478,6.17482,4.52163,9.54525,6.03339,4.60455,9.60979,6.23796,4.58239,9.54384,6.08378,4.59405
1.39814,0.245949,12.2429,7.97557,4.56379,11.6822,7.85264,4.67176,11.7652,7.48011,4.64399,11.525,7.9478,4.77596
5.01115,0.215936,18.8531,28.6724,0.457969,19.1565,28.6231,-0.722953,19.4355,28.3671,0.772171,18.7582,29.0952,0.451578
3.03104,0.152353,12.8689,28.08,-3.61328,13.2235,29.5725,-3.67478,13.1549,29.6817,-3.68478,13.0016,29.5456,-3.71479
47.4267,0.169436,-16.0935,20.448,3.99979,-16.0678,24.0489,4.23386,-17.4994,21.9705,4.01032,-17.3292,24.1716,4.06932
1.85008,0.00368332,5.26974,25.4483,5.15067,4.65543,24.9252,5.23665,4.51575,24.9794,5.21691,5.18147,26.1018,4.99068
3.00715,0.0836583,-15.3915,25.0365,-3.74359,-16.9403,24.8752,-3.5443,-16.5507,23.8738,-3.45875,-16.2648,24.0937,-3.50086
100.14,0.120802,1.94212,10.6676,-6.13539,4.93409,9.89641,-5.84824,4.96819,12.7086,-6.21632,7.53137,11.5695,-5.80217
2.81693,0.12931,10.4269,10.5187,5.24257,10.1521,11.1268,5.51462,11.3178,10.5915,5.33837,10.0716,10.126,5.31508
8.13137,0.391289,8.22709,36.9055,-0.810631,10.4367,37.0701,0.16606,10.3489,37.0106,-0.114542,10.354,37.0874,0.381802
12.7967,0.347091,3.95237,35.9885,-2.04131,3.41358,35.3774,-3.25213,1.66693,36.3987,-2.01454,2.76476,36.2752,-2.19696
10.9393,0.417082,-7.73773,23.3041,-4.86243,-8.49143,23.6079,-5.17099,-6.17667,24.4824,-5.39088,-7.59214,22.7736,-5.33817
7.78066,0.792177,-16.2269,3.61134,-2.89023,-16.7622,2.48704,-2.17875,-16.5773,2.57511,-2.38285,-15.1707,3.22583,-3.39122
2.1219,0.0954841,-4.08276,20.5117,5.70477,-4.2445,20.6684,5.75719,-3.99756,20.0195,5.91282,-3.47012,20.4803,5.85636
1.75356,0.0607287,14.8239,2.11608,-1.43191,15.4861,1.94945,-1.26875,15.3724,2.05131,-1.37168,14.2894,2.32245,-1.47611
3.28288,0.178162,17.7642,8.84132,3.30741,17.4885,8.64512,3.39219,18.4943,9.04488,3.65547,18.262,9.18343,3.75752
84.8228,0.99551,-15.058,22.9562,4.42611,-11.9316,21.9248,4.83284,-15.0351,20.0661,4.15157,-13.8776,20.4544,4.49239
1.42542,0.18143,-6.1976,12.1789,5.33482,-6.82146,12.3349,5.20514,-7.08881,11.9889,5.15535,-6.97395,12.5034,5.24164
16.9941,0.398199,-12.4897,2.18148,-2.23333,-13.2927,1.5225,-2.03274,-11.6197,1.15746,-2.21536,-12.6297,3.35652,-3.57811
1.57448,0.00992517,7.15807,37.0107,-0.224907,6.3557,36.9726,-0.0637949,6.35207,36.9844,-0.356419,7.38427,37.0217,0.032696
3.83166,0.14501,10.0918,35.7138,-1.85405,9.78609,35.4513,-2.29263,10.2275,36.7163,-1.02336,10.1609,36.7067,-1.02175
5.8861,0.1037,-7.79379,22.5473,5.35117,-7.29959,21.4735,5.1718,-9.2444,22.1889,5.24764,-9.13704,22.681,5.27694
9.45989,0.05309,-0.465192,20.4272,6.02277,-3.04297,20.1309,5.94899,-1.20304,19.8202,6.07468,-2.9128,20.4898,5.93235
2.82468,0.0933739,-18.4556,20.3615,-3.31587,-18.9084,20.2681,-2.95134,-18.6752,19.6921,-3.2969,-18.8481,19.8245,-3.08045
4.85282,0.332826,-10.1649,13.3443,4.03344,-9.85366,13.0509,4.32044,-9.52508,13.9976,4.84509,-10.7235,13.2614,4.26842
2.5926,0.0748567,-4.27709,1.39363,2.44493,-3.53258,0.788285,2.12572,-4.50041,0.732012,1.97156,-4.57493,0.804411,2.02301
5.75039,0.00381663,-6.85719,8.4585,-5.97049,-4.96138,7.7848,-5.94295,-5.22389,8.40967,-6.03569,-6.63913,8.03475,-5.90561
21.2335,0.0212799,-5.91793,28.8943,-4.92165,-6.49852,28.0279,-4.90187,-9.2864,27.5886,-4.52603,-8.13619,29.1502,-4.61524
14.8562,0.0870989,4.04858,10.2884,5.60333,5.01967,10.6165,5.67701,4.74096,8.96827,5.49266,5.67271,9.88222,5.55169
4.91128,1.23016,-13.4197,23.5724,-3.78458,-13.8804,25.0091,-3.81824,-13.7095,24.9993,-3.797,-14.4252,24.9881,-3.98561
2.77572,0.306278,4.35726,29.6284,-4.57056,4.33855,30.1768,-4.63528,5.04462,29.247,-5.03272,3.93881,29.4998,-5.0347
29.7915,0.0681401,1.86833,22.5224,-6.06332,1.54669,25.1075,-5.86472,2.45024,24.4909,-5.84954,0.492919,23.7577,-6.00105
2.93085,0.133523,-4.5135,25.3365,-5.29645,-4.3452,25.8597,-5.44034,-3.66843,24.5956,-5.63129,-3.32971,24.5733,-5.6979
4.28376,0.0959188,-9.75168,15.602,4.82033,-9.01531,17.198,4.3798,-9.29046,16.1623,4.85597,-9.29787,17.0016,4.34501
88.3136,1.40637,1.37473,9.71957,5.35706,1.7949,13.2463,6.12619,2.78298,12.157,5.46564,4.60097,12.7766,6.06969
15.8351,0.312318,19.3363,18.9455,-0.0870876,19.524,18.1872,0.831733,19.6626,19.6415,-0.356394,19.8113,17.4362,-0.374247
8.05012,0.353081,-0.828784,9.03331,5.34781,-0.951408,11.6897,5.37937,-0.779282,11.6431,5.41167,-0.214702,10.4196,5.64215
0.110121,0.0921625,-16.9005,36.0829,2.03087,-16.8921,36.1108,1.93261,-16.8523,36.0713,1.89497,-16.8442,36.1222,1.93665
6.01416,0.0366764,3.37338,0.433858,-1.10862,4.46317,0.388846,-1.04827,3.75889,0.75086,-1.73545,4.29927,0.727694,-1.66654
7.34873,0.231229,-2.46351,35.6573,-2.56707,0.306992,36.2818,-2.23491,0.516664,36.2304,-2.34866,-0.109156,36.2292,-2.28263
2.52761,0.173504,-10.9691,7.631,3.38869,-11.1899,6.65358,3.48705,-11.2239,5.796,3.42716,-11.4004,6.50496,3.4683
0.449038,0.0294047,-8.563,11.1843,4.71508,-8.7684,11.2718,4.7051,-8.3478,11.1208,4.79018,-8.34683,10.9793,4.77758
2.37052,0.095928,-12.2255,0.878871,-1.4922,-12.543,0.697083,-1.21191,-11.8923,0.61934,-1.18898,-11.734,0.734342,-1.51994
14.6749,0.442096,-10.5934,22.0385,4.54314,-10.8028,22.9234,4.99091,-12.7528,20.4422,4.47668,-9.72153,21.946,5.17167
3.0139,0.116335,4.26676,1.56028,-2.12721,3.80113,1.44631,-2.29932,4.38523,2.13275,-2.63166,4.80842,1.10697,-1.83898
14.126,0.62492,0.117288,29.7764,3.71435,1.3481,31.3043,4.29659,-1.2531,29.7683,4.22962,1.65655,30.7483,4.37794
69.0414,0.43787,-19.4985,10.3895,-1.48087,-19.635,8.93412,-0.563247,-19.3795,9.4657,1.29063,-19.5449,10.7012,1.09167
12.2136,0.414724,5.30951,4.32733,-4.19275,5.501,2.31848,-2.2158,5.31572,2.76016,-2.82564,5.41404,2.19398,-2.06733
30.1635,0.0253342,-15.0834,23.5455,4.4268,-12.7688,27.8241,4.5034,-14.1957,27.1862,4.36363,-15.1857,27.2162,4.24106
2.44645,0.389612,0.969887,28.2102,4.66493,0.195631,29.476,3.82983,0.492658,29.3159,3.9155,0.409679,29.6524,3.82067
0.4048,0.00031362,0.802991,4.87959,-4.90078,0.536561,5.09887,-5.03395,0.8218,5.08881,-5.02155,0.65419,4.86896,-4.89844
22.899,0.471716,16.872,22.6051,-3.31191,18.9379,22.4157,-1.30892,14.565,22.9176,-4.34568,19.0455,22.9943,-1.41128
16.1691,0.213705,-1.94059,3.39327,3.61657,-4.03404,3.6667,3.55377,-4.42952,3.45373,3.39372,0.865662,2.58337,4.07241
2.43961,0.180879,-1.72874,17.3264,5.94434,-1.03971,17.374,6.19268,-1.69597,16.8524,6.08227,-1.95664,17.4435,6.11835
37.2227,0.181643,-3.85016,29.2268,4.6184,-4.72819,30.1803,4.44442,-3.02649,31.3444,4.43434,-1.73387,30.8398,4.42448
5.70551,0.306123,1.44145,6.94231,5.10332,3.98131,6.6888,4.82758,2.94319,7.44255,5.20697,3.48009,6.83976,4.96617
10.7767,0.0894668,8.72277,15.714,6.276,9.98853,15.9784,6.2082,10.7947,17.0708,6.06097,11.5832,16.96,5.97646
24.947,0.173695,11.0161,34.6781,-2.56732,13.3373,35.3306,-1.78515,11.5854,35.6878,-1.9547,13.6864,34.6994,-2.13546
0.348074,0.165406,-19.683,24.1045,-1.2111,-19.5629,24.1807,-0.972015,-19.649,24.1762,-0.912916,-19.7048,24.2629,-1.14417
3.14701,0.0908477,-19.4103,11.9403,1.39128,-18.338,10.5756,2.41701,-18.8814,11.4934,1.99826,-18.3214,10.5082,2.42381
5.46859,0.143527,-1.1664,24.5517,5.42586,1.13032,25.0226,5.39876,0.976384,25.442,5.29217,-0.0100822,25.4062,5.32387
2.17362,0.289934,9.45613,36.9766,0.97727,11.7378,37.0154,1.17505,11.802,37.0299,1.07803,11.8014,37.0392,0.888798
18.2532,0.512255,-4.69647,12.2076,4.91095,-5.12457,12.7911,5.45108,-5.16364,11.0767,5.21894,-2.96949,12.7289,5.73731
2.48006,0.131643,-5.53207,11.2136,-6.19586,-5.40281,10.4861,-6.19089,-6.30441,10.8231,-6.13875,-5.81372,10.6288,-6.16476
8.6045,0.35262,-6.86665,7.07236,3.93013,-7.24508,7.39398,4.29054,-6.20696,7.30467,4.45217,-6.47124,4.9036,3.94792
5.07133,0.0340888,13.5461,5.80741,4.24179,10.7104,6.05327,4.62379,12.3449,5.62298,4.37511,12.3443,5.81801,4.38104
4.25532,0.00705894,-19.1289,22.8005,-2.57509,-19.2815,23.9119,-2.36382,-19.5839,24.072,-1.84164,-19.4968,23.1685,-1.96042
57.6854,0.298846,-12.8345,10.3709,-5.45899,-15.0694,7.57256,-4.88225,-16.0338,8.3888,-4.81552,-15.726,9.31418,-5.02151
2.73146,0.174847,-10.2945,30.6172,4.35948,-10.128,29.8226,4.03286,-9.85582,29.2846,3.70547,-9.68878,29.1998,3.6895
5.14249,0.350538,19.4083,16.7498,0.0640905,19.6755,16.6903,0.885831,19.8245,17.2572,-0.389991,19.7704,15.8796,-0.329638
11.4763,0.168926,6.88046,26.261,-4.92864,6.12843,25.8233,-5.37121,8.13371,26.1067,-5.03027,6.61333,27.1917,-4.77151
4.01122,0.0475717,-0.470619,20.4706,6.02998,0.893671,21.4027,6.02408,1.06282,20.7597,6.08109,1.74145,21.1072,6.06415
4.6296,0.103873,4.11229,17.5002,6.39399,3.52347,17.9746,6.35857,2.82083,17.3912,5.9647,2.59314,17.6792,5.92666
9.78218,0.034169,-5.95975,3.32944,-4.45231,-7.88704,2.89731,-4.1743,-7.46703,2.12028,-3.83153,-4.71042,3.28769,-4.42467
3.87354,0.280829,-2.35496,24.1717,-5.502,-1.18097,24.2834,-5.81383,-3.04789,24.4823,-5.71969,-2.63877,23.7781,-5.82608
181.117,0.0484468,17.7498,30.8691,3.73985,14.515,30.0247,4.10743,12.4372,33.7229,3.67955,15.4766,33.8632,3.47769
10.4908,0.281224,3.30702,29.0078,4.06781,3.1558,28.349,4.44298,2.78708,30.4873,4.3595,3.15873,30.4506,4.27786
3.11317,0.242774,-14.0909,2.13039,-2.10313,-13.1956,1.80573,-2.26601,-14.3364,1.48624,-1.72057,-14.4227,2.13034,-2.40701
61.5691,0.288929,-7.39435,36.3704,-1.60763,-10.3257,36.4922,-0.940395,-14.1123,35.9167,-1.54594,-14.0463,35.9536,-1.50297
1.84483,0.116719,-8.60974,0.274294,0.0557565,-8.42076,0.34755,-0.758234,-9.01385,0.290085,0.107657,-8.28095,0.302041,-0.792939
0.709418,0.0724298,16.3457,17.2755,5.00649,16.7084,17.3192,4.8209,16.2317,17.5497,5.15583,16.1535,17.4685,5.22253
4.83107,0.267872,-0.917674,16.4852,5.87017,-0.13015,17.1674,6.26498,-1.43448,16.7151,6.07126,-0.899681,15.554,6.1269
0.979182,0.0641963,1.64553,14.995,6.2499,0.871299,15.1076,6.2023,1.23011,14.8921,6.188,0.880225,15.0238,6.16864
6.80945,1.12452,2.23965,3.67344,-4.27279,4.9157,4.21168,-4.31355,4.84769,4.25908,-4.32494,4.7758,4.32761,-4.35262
3.43542,0.0784622,9.2168,7.90041,4.99919,9.76529,7.41515,4.45311,9.76305,7.45961,4.46287,9.16165,8.91729,5.13004
2.7404,0.0114682,-15.2868,18.7537,-4.63532,-15.5814,17.9531,-4.66303,-16.0029,18.1179,-4.58163,-15.3708,18.0563,-4.6842
40.2488,0.0776416,13.695,10.8481,5.09433,15.8897,10.7051,4.83572,16.0537,10.3094,4.75735,14.8572,8.82947,4.59257
4.37924,0.466226,-16.6415,14.0583,3.07552,-18.5807,15.8441,2.39479,-17.3302,14.0838,2.89645,-17.8481,14.8788,2.63058
3.51401,0.00229847,-12.1369,8.41781,3.68784,-12.3337,5.98824,3.24348,-12.4166,6.12985,3.24522,-12.267,5.93994,3.25267
13.6955,0.0978716,2.36595,36.8013,0.720991,4.09225,36.798,0.910267,3.68075,36.6999,1.17376,3.33157,36.9393,0.0665133
3.11009,0.0929404,-3.86669,34.3291,-3.26622,-3.66732,34.2936,-3.30086,-4.27875,34.739,-3.36703,-4.31636,34.0164,-3.77578
9.77624,0.0511084,-7.03874,3.69403,-4.62137,-7.92086,3.83546,-4.72163,-7.61904,4.36793,-4.98825,-5.48732,4.27236,-5.00256
2.62674,0.0882903,-10.1356,12.948,-5.67567,-10.2784,12.4833,-5.76589,-8.5916,12.3201,-5.95588,-10.2518,13.2939,-5.73926
61.4525,0.164113,-0.554341,25.0539,5.38212,-1.80848,24.8703,5.37382,-4.12835,27.5824,4.60826,-2.57214,28.6907,4.70007
1.72413,0.0869559,15.9584,23.2958,-3.97474,15.4884,23.8758,-3.92752,15.3372,23.9795,-3.92379,15.1805,23.9196,-4.01012
7.00769,0.105947,9.71,23.2658,-5.11484,7.82984,23.3275,-5.14753,10.688,23.5971,-5.17649,10.3393,22.5942,-5.40538
2.12856,0.0413137,-11.8688,22.5994,-4.78985,-11.5853,22.1599,-4.92885,-10.8924,22.4878,-4.97964,-10.8164,22.7833,-4.95076
12.5341,0.309814,-5.23088,36.1815,-1.15366,-7.23698,36.6361,-0.835242,-3.20152,36.4257,-1.46658,-7.05015,36.4217,-1.26691
25.3653,0.391523,2.37948,2.20672,-2.28953,4.27948,2.55478,-2.82176,4.9666,3.10887,-3.5424,2.05779,2.4459,-3.84649
2.23671,0.0886131,5.59036,35.1776,-2.54673,5.89769,35.9269,-2.12231,6.16182,35.1557,-2.80098,5.43875,35.1618,-2.64277
5.16993,0.33016,12.7669,26.8043,-3.69096,13.6776,26.3967,-3.99075,12.8669,28.0312,-3.61879,12.4314,26.5947,-4.18459
3.16461,0.197399,17.0127,18.7674,4.56147,17.0979,18.0776,4.58469,16.8267,18.9278,4.87336,18.2429,19.0345,4.43104
29.6341,0.0257215,-4.83423,31.8067,-4.68785,-9.23103,32.1713,-4.08582,-7.03283,32.876,-4.05589,-9.05399,32.8205,-3.85312
2.18937,0.0856246,-1.88637,36.4086,-1.60845,-3.18293,36.4314,-1.51235,-3.12484,36.4545,-1.41295,-1.72907,36.5147,-1.56505
1.74579,0.149773,16.5058,29.7084,3.99814,15.9519,29.1137,4.13688,15.945,29.2132,4.12441,15.9894,30.3123,4.0044
2.18819,0.0656602,19.0695,30.2226,-0.103265,18.622,31.1289,-0.908715,18.4636,31.2453,-1.2186,18.4136,31.4559,-1.24586
1.57408,1.19212,17.903,31.5486,-1.83411,17.6345,30.2324,-1.98519,17.7779,30.2315,-1.88455,17.5605,30.2777,-2.15977
27.6686,0.340955,-20.0316,25.0832,0.372787,-20.0443,23.0837,1.12329,-19.958,23.4028,1.43616,-20.0528,23.2245,0.556579
2.7644,0.237485,-3.75701,28.7268,-4.98069,-4.17726,28.7927,-5.13054,-3.76865,28.4544,-5.25439,-3.26684,29.6028,-5.22251
286.541,0.153006,-6.35671,11.6041,-6.14876,-12.2901,13.4418,-5.53277,-13.0825,11.9499,-5.43825,-10.242,14.1431,-5.71757
0.583036,0.00185563,-19.7007,16.3949,1.01584,-19.6308,16.3762,1.32111,-19.6966,16.7009,1.12337,-19.6368,16.7296,1.38949
4.25275,0.0146616,11.8869,28.1305,-3.91765,11.1174,27.486,-4.24453,11.1244,27.3115,-4.30275,12.6363,28.164,-3.77042
7.90506,0.0364015,-6.6021,31.2036,4.42321,-7.73613,31.5799,4.38681,-7.3973,31.6484,4.3898,-7.97968,30.4279,4.49939
23.7781,0.493476,4.98367,29.0698,-5.0864,4.60468,26.4387,-5.38413,4.66551,25.2408,-5.29085,5.57458,26.1723,-5.34914
12.7963,0.0213789,-3.98579,11.6174,-6.27717,-5.46276,11.3721,-6.21093,-4.69656,10.6255,-6.24994,-2.10768,11.1735,-6.32644
8.56299,0.0463018,3.33973,20.0057,6.13645,3.82476,21.7771,5.85342,3.0851,21.6811,5.32565,3.22586,22.0507,5.28411
65.5298,0.137791,1.14011,14.1199,-6.36493,5.06483,15.3483,-6.3846,5.48635,16.0025,-6.4686,0.267203,15.7295,-6.43217
2.62873,0.0993952,13.0761,28.1909,-3.62948,13.6842,27.9688,-3.59474,15.0043,27.7586,-3.37422,14.7212,27.7784,-3.41392
1.21162,0.0405642,11.7638,23.0553,5.73988,12.8372,23.0677,5.63113,12.8358,22.958,5.65738,12.7679,22.8918,5.6772
2.80788,0.100533,-2.12692,34.2793,-3.57864,-3.77208,34.2027,-3.37899,-3.51472,34.3078,-3.32178,-3.58811,34.302,-3.30859
26.3114,0.0691418,-10.0802,7.82516,-5.61297,-5.65596,8.07616,-5.99827,-5.94542,7.47754,-5.93149,-7.61637,8.2103,-5.87777
3.27539,0.0214554,16.884,1.20872,0.072894,16.6619,1.48043,-0.458685,16.9735,1.04009,0.45659,17.3302,1.71593,-0.618361
10.2354,0.301469,14.2288,16.5499,5.35045,13.4273,16.5052,5.83191,14.8039,17.4975,5.54054,13.621,15.1184,5.78122
2.02874,0.0162398,4.5576,13.6698,-6.19546,3.10227,14.1028,-6.338,3.16216,13.8227,-6.29093,3.23436,13.7668,-6.27771
638.634,0.320262,1.01729,5.51076,-5.14536,8.55842,10.057,-5.34869,9.19278,11.9047,-5.72364,-2.82077,11.1372,-6.33459
8.07418,0.0357274,-11.9205,4.97785,2.77098,-8.09777,5.33023,3.80844,-10.6552,4.34046,3.15206,-9.5247,5.03918,3.43772
8.90617,1.01679,-2.6806,4.92079,4.44878,-3.92421,6.14656,4.57838,-3.10131,6.37252,4.5137,-2.91979,6.65077,4.71288
1.72541,0.029517,-8.57043,1.1796,-2.70626,-8.98737,1.17176,-2.73564,-8.61409,0.810079,-2.03256,-8.70309,0.796841,-2.00168
2.27183,0.952064,15.579,5.9413,3.98456,13.5325,5.89368,4.26758,13.6051,5.85933,4.24364,13.7539,5.77499,4.23991
177.417,0.151419,-10.3906,24.4111,5.03156,-7.00553,27.2169,4.90005,-6.90931,26.5403,4.99823,-9.84674,28.2013,4.66963
3.53025,0.279452,-16.1322,33.8911,-1.7193,-16.6735,34.2403,-1.93834,-16.6165,33.1637,-2.50372,-16.6788,33.1273,-2.53298
28.1936,0.249586,16.9819,17.278,4.56386,18.7929,16.4561,3.81602,16.9733,18.1344,4.66742,19.0869,17.5166,3.34732
32.0987,2.41733,-6.67423,8.3678,4.64217,-1.41792,8.47069,5.18015,1.21564,7.14881,5.16078,-1.78036,8.61797,5.23838
15.1758,0.14283,18.3381,34.1115,0.899226,19.2633,32.2538,0.810476,19.3796,31.9944,0.982489,17.3836,35.4557,0.945529
1.62723,0.21462,17.714,32.2498,-1.211,17.9841,31.9155,-1.50356,17.76,32.7387,-1.40824,18.0093,32.2731,-0.81832
0.268719,0.0515777,-18.6312,34.1261,-0.82825,-18.3952,34.5333,-1.07699,-18.5124,34.3068,-1.02303,-18.311,34.6121,-1.17065
4.0522,0.163642,4.71951,35.1703,-2.52485,3.83885,35.1212,-3.33755,4.79586,35.626,-2.29312,5.0569,34.9516,-2.7781
5.27555,0.262414,-9.63063,7.46892,3.54779,-8.56267,7.56014,4.12687,-9.88231,6.66484,3.68832,-9.94406,7.70633,3.75176
1.39073,0.0358461,7.66509,2.55997,-3.10662,7.95605,3.70854,-3.6894,8.02767,3.76222,-3.7066,7.91073,3.02826,-3.3504
2.64894,0.0482283,-17.7894,2.64409,0.584502,-17.9322,2.7272,0.720114,-18.2854,2.84711,0.0603463,-17.35,2.07257,-0.0831042
0.772962,0.0817972,-11.4842,27.2746,4.71897,-11.7718,27.2052,4.7261,-11.5347,26.8136,4.74597,-11.4612,26.8159,4.76426
14.8882,0.100382,18.0168,12.1118,3.74279,19.4078,11.9225,2.55084,16.15,12.736,4.93559,19.2009,11.8711,2.7299
55.1287,0.358995,-6.74156,22.5453,-5.17599,-5.16521,21.4342,-5.60702,-4.55581,20.3521,-5.98946,-4.58934,23.7866,-5.64451
13.3351,0.222854,9.57363,24.0506,-5.17812,10.6925,24.2446,-5.05699,5.3532,24.7835,-5.41851,7.01671,24.4604,-5.18679
0.737889,0.252494,7.48023,36.5786,1.69589,6.98232,36.7612,1.25227,7.12765,36.7277,1.28446,7.27662,36.7489,1.28484
0.634032,0.222826,11.1274,27.9048,-4.17373,11.1306,28.1855,-4.13325,11.2709,28.1493,-4.05462,11.4824,28.1879,-4.03075
5.90049,0.108522,-0.0813037,3.53114,-4.3968,2.17492,3.67424,-4.27345,1.95672,3.56182,-4.26515,2.1923,3.79688,-4.31024
153.885,0.0723958,-0.663362,9.56085,-6.08423,-4.36657,6.08374,-5.62198,-0.698503,7.30072,-5.70099,-5.18192,7.13626,-5.87299
5.06605,0.0300973,-17.3283,24.2708,4.07328,-17.0375,26.7283,4.03118,-17.1863,26.6583,4.04654,-17.0559,25.5308,4.05475
818.129,0.11832,-14.1761,19.8343,-4.64631,-6.37818,19.8787,-5.85799,-6.39233,18.6527,-5.94275,-7.60201,22.1334,-5.48812
1.63148,0.0313665,13.8473,32.9229,-2.58116,14.8903,32.8436,-2.41938,14.9453,32.6332,-2.50961,14.5427,32.9227,-2.45946
0.161496,0.00649798,-16.5481,36.5484,0.173955,-16.8198,36.4879,0.310246,-16.6771,36.5011,0.115433,-16.8199,36.4789,0.260293
50.8934,0.118464,-8.19602,14.8294,5.19958,-3.11905,14.2278,5.88091,-5.44065,13.5674,5.54523,-10.3434,15.1579,4.73832
1.012,0.039674,-15.7201,7.7345,-4.75102,-15.8233,7.40439,-4.71727,-15.8914,7.92664,-4.79441,-15.2334,7.56662,-4.84923
19.8892,1.38322,-1.45398,27.1335,4.70666,1.19107,25.8111,5.14323,0.575926,26.6393,4.57273,0.920014,27.641,4.71876
9.54234,0.604563,11.0069,21.3346,-4.82183,10.1199,21.2555,-5.7743,12.3428,20.7378,-5.35503,11.3172,23.0148,-4.7414
1.00206,0.0660714,6.50896,22.1558,-5.74,6.65056,22.6102,-5.43054,6.79327,22.5799,-5.47404,6.1613,22.2085,-5.74305
3.88351,0.461827,-4.80197,23.3231,-5.42169,-2.65515,22.6274,-5.86355,-3.47948,22.9414,-5.86933,-2.99458,22.5699,-5.94736
64.3605,0.354453,13.6825,25.902,-4.11646,16.8097,25.7682,-3.3437,8.61131,24.6372,-5.23005,7.29421,24.8582,-5.26593
5.59241,2.07564,19.2044,30.0735,0.125158,17.8731,29.1837,-2.12968,17.7636,29.542,-1.88515,17.7725,29.9251,-1.96088
1.55464,0.257003,16.8232,29.7568,-2.71476,17.0791,28.674,-2.5319,17.1433,28.5588,-2.52397,17.233,28.7118,-2.43796
0.413741,0.00108038,-14.5989,0.915946,0.283535,-14.3119,0.938663,0.459252,-13.6811,0.681886,0.216205,-14.4514,0.967541,0.455233
13.2891,0.29378,-6.09539,35.496,-2.06533,-6.72239,35.5905,-2.23328,-5.35421,35.2015,-2.88144,-4.60248,36.1838,-2.21036
197.355,1.76503,-14.7399,10.4122,-5.24224,-11.9937,14.554,-5.52884,-14.7361,14.3072,-5.12291,-12.6236,14.525,-5.4487
0.611801,0.120335,-15.0118,10.6998,-5.19969,-15.3738,10.1392,-5.11791,-15.4486,10.0956,-5.11822,-15.2952,10.0502,-5.13223
4.19946,0.206612,12.9475,30.5299,-3.35776,12.9506,31.2578,-3.39864,12.6548,30.1627,-3.73953,12.9458,29.9038,-3.72952
27.6907,0.248398,12.5275,30.8278,-3.65079,10.1743,29.6414,-4.3133,10.9436,30.4789,-3.87417,11.7601,29.9592,-3.83246
9.60057,0.675674,16.3513,9.69569,4.56503,18.3309,9.53062,3.77761,18.1116,10.3463,3.49336,17.4094,8.98138,4.03763
4.29863,0.215386,-12.196,4.93201,2.72248,-13.9403,4.97264,2.68179,-13.6489,4.88782,2.71222,-12.7276,5.39647,2.94074
3.25651,0.0116621,-5.19695,20.1894,5.78957,-4.68316,19.5922,5.89828,-6.87678,20.5274,5.52167,-6.52748,20.5819,5.57697
2.10398,0.0115337,-10.6781,6.00397,3.36898,-9.85365,6.12345,3.59152,-7.5121,7.2344,4.27642,-10.4718,6.14537,3.4184
4.25471,0.210518,9.2215,25.9423,-4.39543,9.45165,26.199,-4.407,10.1401,25.0471,-4.83311,8.61443,25.9802,-4.87703
128.543,0.0382046,-16.3122,28.9228,-3.12584,-18.5483,30.6538,-2.53519,-16.8174,32.7487,-2.68817,-17.8745,32.4995,-2.49439
20.3354,0.0463029,-14.1946,5.55683,-4.61663,-13.126,6.97721,-5.07941,-11.6393,7.01679,-5.3517,-11.3977,6.40356,-5.29822
8.87628,2.10604,8.29986,29.4729,-4.38161,9.66021,26.4709,-4.34697,9.73566,26.5235,-4.34153,9.52353,26.2991,-4.41097
64.6794,0.0564121,-6.43764,15.5668,-6.09972,-7.1813,17.106,-6.02063,-12.5952,15.8859,-5.42922,-10.9424,14.6736,-5.66053
1336.62,2.98352,-6.55612,12.3194,-6.1523,1.02372,21.1075,-6.37287,-1.3423,21.7769,-6.1929,-3.55172,22.2883,-5.9962
0.326818,0.00774968,-9.8005,0.321045,-0.522214,-10.1533,0.313887,-0.37235,-10.0729,0.299336,-0.274608,-9.94172,0.330421,-0.517661
22.6999,0.855014,10.6748,28.8196,4.35309,12.7255,28.7563,4.20657,12.8076,27.6034,4.51485,13.1169,29.3843,4.20347
6.9677,0.0390801,16.5559,30.1704,3.95605,18.203,30.3299,3.72656,17.0704,29.7695,3.93537,18.2104,29.9218,3.74691
3.85406,0.916696,9.86945,1.96975,-1.84909,11.7328,1.9759,-1.7513,12.0196,2.13661,-1.86453,11.6576,1.93382,-1.72034
55.8945,0.0918308,11.3129,18.126,5.95816,16.5542,18.4353,5.0851,11.4201,19.1557,5.95999,13.1743,15.5853,5.89474
0.913286,0.0486842,-20.0088,24.4622,1.32211,-19.9725,23.6189,1.5647,-19.9957,23.6901,1.44815,-19.9603,23.3991,1.69043
3.22254,1.67128,9.80276,2.01069,-1.88894,8.02924,2.12684,-1.9992,8.01026,1.99141,-1.85611,8.02054,2.03768,-1.88479
0.698498,0.0167234,10.7267,15.2727,6.12471,10.9855,15.5943,6.0953,10.9871,15.6963,6.09431,10.9089,15.7403,6.09686
46.4063,0.40983,-13.852,20.4864,-4.62605,-16.8851,19.7831,-4.14244,-17.0884,20.0525,-4.07283,-16.6263,18.5417,-4.41639
34.938,0.437713,-15.9968,33.95,-1.73615,-9.67516,33.0772,-3.69314,-13.1977,34.0329,-2.63139,-13.3313,32.585,-3.38283
45.8813,0.446566,-1.92281,34.2986,-3.61074,3.28613,33.3651,-4.49053,3.35488,34.0297,-4.20527,2.7306,32.9085,-4.68719
1.05905,0.0324952,-18.2197,12.5866,2.47389,-17.814,12.6661,2.70938,-18.4721,12.2882,2.2903,-18.6594,11.8889,2.2034
19.0962,0.228803,-0.148886,3.63592,-4.41289,-2.65371,4.49965,-5.05146,-2.89167,3.97893,-4.76381,-2.09397,4.68573,-5.08339
0.432438,0.104931,-11.2064,15.1593,-5.58808,-10.7827,15.3275,-5.62363,-10.8559,15.3643,-5.60571,-10.9902,15.4526,-5.57517
1.96851,0.0879154,-19.5812,11.7267,0.620832,-19.5063,13.2303,1.31951,-19.6258,12.2841,0.998974,-19.5929,12.0734,0.476845
12.3652,0.0723823,-5.08258,0.0369157,-0.564406,-5.55107,0.0282475,0.186797,-6.54715,0.100521,-0.585269,-6.80174,0.145714,0.207824
2.21729,0.712821,-3.64334,26.7151,-5.42589,-5.74779,26.798,-4.76285,-5.53602,26.8902,-4.76512,-5.74449,26.8538,-4.76694
8.67378,3.7712,-9.22991,36.2929,2.60279,-13.5046,36.4578,2.25663,-13.5628,36.1863,2.58121,-13.6679,35.7937,2.95751
0.487496,0.19713,18.9497,29.7175,3.25041,19.1101,29.9911,3.12028,19.1078,29.8275,3.04121,19.2432,29.6738,2.93352
2.30385,0.0771349,-1.91248,2.823,-4.26919,-2.36852,3.07311,-4.54027,-1.73657,3.28876,-4.6322,-1.94522,2.18977,-3.97618
1.39146,0.900352,-19.6605,9.09428,-0.294519,-19.5675,8.5516,0.518992,-19.6098,8.85162,0.588382,-19.3739,8.59815,0.481548
1.48145,0.582319,2.18536,18.4176,6.35278,2.30369,17.669,5.91868,2.18976,17.4394,5.9689,2.46059,17.6804,5.91558
7.72296,0.225152,-4.86525,17.9817,5.34875,-5.81115,17.46,5.30393,-6.39125,18.2081,5.15568,-3.45997,18.3693,5.98883
2.73288,0.200693,14.634,24.4297,-4.01062,15.2611,23.9854,-3.93307,14.0972,24.4967,-4.55117,14.8645,24.9003,-4.04988
0.960968,0.136737,0.306796,36.8408,1.18881,0.791901,36.7164,1.46108,0.864683,36.6961,1.59754,0.861616,36.7595,1.33263
2.47847,0.0369572,16.2853,3.22533,3.47917,15.5396,2.59657,3.45431,15.8067,2.90165,3.46426,17.357,3.04864,3.22313
65.9684,0.0966158,-13.4041,14.3677,3.95747,-13.4751,13.0147,3.92998,-16.7971,14.6401,3.05184,-16.7139,15.4919,3.14454
30.7396,0.634769,-10.5538,2.67485,-3.76339,-7.8848,3.24684,-4.35175,-8.06277,3.78251,-4.69381,-8.58519,1.94422,-3.72571
3.78063,0.490152,-1.06545,12.5294,5.20239,-1.64094,12.5953,5.8193,-0.874783,11.8495,5.36474,-0.132999,12.8422,5.95049
5.43278,0.0295902,-14.4299,36.4839,-0.618903,-12.7409,36.7743,0.0310957,-12.6304,36.5669,-0.60741,-11.576,36.6115,-0.667113
14.2783,0.0738186,0.755429,0.908056,-2.13712,1.82011,0.749043,-1.75101,1.57628,0.383238,-1.13569,0.959204,0.189689,-0.799727
47.6205,0.167347,1.27989,28.3326,-5.33046,4.69858,28.8885,-5.13094,2.97693,29.6662,-5.16447,4.3493,27.7264,-5.32793
11.3766,0.0313118,-10.7483,17.826,-5.52261,-11.6601,16.9772,-5.45777,-13.2577,18.1165,-5.07938,-12.7865,17.3316,-5.24578
5.73072,0.697669,-16.3029,27.7333,-2.2454,-15.0987,27.8616,-2.95391,-16.7716,28.4815,-2.94849,-14.6258,27.6224,-3.18807
7.70785,0.581891,7.56741,23.3906,-5.06627,6.08542,22.9263,-5.25257,5.46391,23.2395,-5.06772,6.37059,22.8641,-5.22792
10.5046,0.192422,12.951,12.0476,5.14859,13.7621,12.3402,5.40747,12.9968,9.28827,4.84087,12.5326,12.0012,5.33066
11.6906,0.439483,-19.0174,19.1167,2.66559,-19.8555,18.6294,0.309931,-19.7686,18.4448,0.883773,-19.1196,18.4705,2.32355
0.163136,0.0426452,2.51897,0.359069,1.92233,2.72994,0.328951,1.8867,2.45257,0.305178,1.75053,2.52463,0.310087,1.75341
9.63078,0.0338059,-11.4637,34.6166,3.66315,-15.2261,35.1987,3.28203,-14.9661,35.5819,3.04799,-15.1337,34.9151,3.4543
2.00059,0.122608,6.33981,27.7352,-4.83691,6.00648,27.7666,-5.11072,6.70957,28.2093,-4.88836,6.69438,27.2405,-4.75466
4.78972,0.211455,-7.46254,35.4142,-2.20611,-7.55247,35.9994,-2.02998,-6.76584,35.5506,-2.27185,-7.65153,35.124,-2.73077
9.62773,0.0100575,17.6724,8.5006,3.24087,17.8031,6.96308,3.3176,18.2451,5.69855,3.31327,18.1739,5.26835,3.36208
37.7262,0.022803,-11.707,10.4439,-5.60316,-11.1607,13.0966,-5.67819,-9.4992,12.3095,-5.83326,-10.8178,13.2202,-5.71481
0.589093,0.0774982,6.16153,30.8703,-4.53895,5.94935,30.8284,-4.66304,6.30805,30.7556,-4.61809,6.32562,31.0296,-4.55921
4.65044,0.110194,6.8557,29.4288,4.12502,8.03551,29.6435,4.28623,8.88667,29.4355,4.34724,5.6525,29.376,4.17281
0.59367,0.326132,9.09747,4.44576,4.61468,8.98552,4.07848,4.5284,9.06333,4.04062,4.51948,9.20545,3.94877,4.523
4.2605,0.540041,9.00128,11.8768,4.9901,8.49825,12.1851,5.6445,9.89269,12.2384,5.74728,8.69919,11.4585,5.39685
4.9051,0.275772,17.631,26.1149,-1.7719,19.2204,26.2186,-1.16998,17.6433,25.8802,-2.19858,17.5176,26.6816,-1.9377
6.43558,0.242224,-19.6998,23.8873,-1.08327,-19.474,24.8437,-1.92351,-19.6954,25.1281,-1.66291,-19.3347,24.9566,-2.38457
7.80203,0.396373,-4.6845,27.6082,4.44052,-4.67814,26.675,5.04932,-5.48672,27.8166,4.78062,-3.7549,28.4683,4.68284
25.9869,0.856782,-5.05787,8.92475,4.99739,-10.8329,8.80763,3.90042,-11.4796,9.31498,3.85994,-11.1562,9.43214,3.87041
7.32797,1.7082,5.52957,11.3008,5.7628,3.22391,11.4094,5.71712,3.45186,10.9806,5.46523,3.33321,10.5336,5.57938
1.12155,0.00376271,-1.42932,32.2879,4.24521,-1.29105,32.4022,4.212,-0.912078,31.6269,4.34543,-0.988905,31.6603,4.3427
8.56626,0.214995,-11.4578,29.325,3.57771,-11.9116,30.6643,4.2254,-11.3774,31.0142,4.41567,-9.98371,28.8789,3.83235
3.55539,0.13918,-18.9492,16.9065,-2.49856,-18.8242,17.4283,-3.06892,-19.1084,16.0786,-2.48712,-19.317,17.1178,-2.06852
4.90374,0.0305833,-17.0361,35.7458,-1.1229,-14.6071,35.8778,-1.50325,-14.7206,36.1019,-1.19859,-14.3902,35.9173,-1.50736
5.09726,0.319246,7.72499,19.0458,5.85264,7.1756,19.7316,6.25365,7.43093,18.7573,6.14507,8.37435,19.5311,6.22065
1.84636,0.0587102,13.4081,36.8998,1.04452,13.277,36.8994,0.846823,13.4941,36.4633,-0.561042,13.5736,36.5084,-0.416899
3.52644,0.0144804,-17.2573,19.217,-4.14229,-17.5213,20.0816,-3.93034,-17.8167,20.2362,-3.81113,-17.9099,19.1402,-3.91541
13.1636,0.190573,1.31558,23.7831,5.5578,-4.11697,23.0184,5.27513,-2.16332,23.6679,5.11859,-3.54576,23.5583,4.89871
101.604,0.0510957,-16.9629,17.1041,-4.43718,-12.8034,16.02,-5.3855,-14.2138,17.2449,-5.02194,-13.589,15.5971,-5.25998
42.9682,0.667928,-2.01346,10.3381,5.53589,-4.77744,11.557,5.18395,-7.15807,10.7603,4.92251,-3.46178,11.7486,5.41835
35.2718,0.151651,-14.1081,18.3373,4.10337,-13.3349,19.2495,4.42122,-11.9792,17.3722,4.42732,-12.4051,16.2729,4.28811
2.60343,0.0557214,-19.5229,10.7423,-1.16258,-19.2966,10.9653,-1.92379,-19.2145,11.0856,-2.0819,-19.5311,11.101,-0.96415
0.413763,0.254191,4.43132,16.0923,6.43304,5.03587,15.9716,6.10213,4.75577,15.3985,6.38652,4.95137,16.0687,6.21009
3.14203,0.0744732,3.67374,24.8835,5.17999,3.70798,26.4597,4.83323,3.57407,25.947,4.97255,3.77746,26.4044,4.8473
5.77729,1.5822,1.8204,17.1561,6.25692,0.0906882,18.6822,6.19031,0.0629107,18.1689,5.86963,-0.14068,17.9586,5.85546
9.20691,0.527478,-12.9374,11.4336,3.17648,-12.8791,12.1363,3.75443,-11.6531,9.76622,3.93107,-13.8816,11.4816,3.51549
2.45638,0.0641442,-7.74515,19.7557,5.47256,-6.90213,19.469,5.58891,-6.9551,19.0321,5.56288,-7.47964,20.0223,5.5712
4.196,0.0741927,19.3908,16.8417,2.4964,19.8803,16.0322,1.91439,19.332,16.8369,2.81821,19.6332,17.2712,1.95178
13.2858,0.254797,7.43702,14.9462,6.2766,5.96305,15.3338,6.15162,5.04203,15.9233,6.09717,5.72949,16.0572,5.88301
4.69039,0.00625663,-2.79973,35.7691,-2.53325,-3.01149,35.6474,-2.64611,-4.43592,35.6267,-2.6184,-4.39939,35.4282,-2.8307
14.6093,0.159881,0.0977362,27.6041,-5.28372,1.16288,27.9678,-5.39992,0.67987,28.9962,-5.3482,0.12735,29.2037,-5.34724
2.72772,0.0364414,-18.4919,4.81921,-2.38076,-17.8516,4.45095,-2.92327,-17.9511,4.77328,-3.00292,-17.61,4.17325,-3.02497
27.6687,0.0769853,9.62774,34.149,-2.8129,11.2911,33.8636,-2.95589,9.71763,35.4314,-2.33289,10.9599,35.2366,-2.36885
1.31344,0.0750411,19.3984,27.8634,0.394208,19.5289,27.3712,0.17642,19.4086,28.0812,0.260385,19.5506,27.548,0.466065
145.387,1.23015,-1.58075,13.3132,-6.30439,0.740528,10.1072,-6.16134,2.95713,13.4843,-6.32498,2.10792,12.5195,-6.34187
2.74525,0.178933,3.18547,36.9333,-0.744598,1.67411,36.9364,-0.0741556,1.95886,36.9002,0.0891905,1.67422,36.9376,-0.27659
4.1796,0.669901,3.07579,18.9342,6.33062,4.11518,18.9387,6.36692,3.53335,19.7748,6.25671,3.10791,20.1655,6.04646
5.84389,0.167424,-19.7821,19.0962,-0.603368,-19.9017,18.8777,0.609256,-19.9308,19.1187,0.348423,-19.8639,18.3924,0.208316
12.7014,0.536718,19.208,21.2947,0.276578,19.8749,20.956,0.82969,19.5178,21.3527,-0.855601,19.8151,23.3017,0.612949
0.947265,0.12593,-17.314,22.3685,4.03812,-18.0072,22.4425,3.85435,-18.0051,22.3382,3.86616,-18.1569,22.5885,3.82755
5.80984,0.262001,10.3245,7.55866,4.31302,10.9736,7.8019,4.80415,10.1936,6.04574,4.29594,9.86802,7.56588,4.46622
18.967,0.671544,19.2796,12.2656,0.971747,19.518,12.4734,2.7485,20.0481,12.9664,0.682794,20.0338,10.3745,0.720792
1.86399,0.027989,-10.8991,7.72352,3.41414,-10.084,7.6883,3.78345,-10.4744,7.69688,3.55968,-11.2098,8.01819,3.73601
5.42978,0.0518028,10.5778,13.8471,6.0007,9.83407,14.6623,6.15917,9.47211,14.6684,6.20454,9.59034,13.8961,6.07649
17.3448,0.111268,-9.36586,35.4876,-2.01823,-11.3002,35.474,-2.19668,-8.93156,34.852,-2.8777,-10.3323,35.4096,-2.26765
7.90074,0.319174,4.70467,23.3697,-5.12822,4.43807,22.294,-5.9133,5.38816,23.2822,-5.05112,4.58523,25.1295,-5.28906
88.5625,0.0938759,-6.02039,1.27369,-2.91585,-4.33991,2.36456,-3.75492,-2.95651,3.91863,-4.74243,-0.447129,1.9687,-3.72372
2.32653,0.181654,-13.7473,26.2711,4.50889,-12.7734,26.5079,4.68741,-12.8786,25.8513,4.70876,-13.1089,26.0783,4.59216
5.10542,0.239279,-14.5536,27.2152,-3.14955,-14.1078,27.854,-3.42471,-14.9447,27.2278,-3.27937,-13.9586,26.0841,-3.80145
102.226,0.21149,-15.8877,24.4386,4.26901,-17.5438,31.2336,3.79866,-15.5803,34.4083,3.63263,-17.3739,29.2864,3.87781
8.3462,0.148026,-15.1136,28.6674,4.20354,-10.3128,27.7604,4.71466,-10.3131,27.7094,4.72468,-10.6251,28.3837,4.58046
1.92595,0.172093,-13.3546,27.3875,-3.49964,-13.6944,27.3512,-3.63952,-13.0534,27.6631,-3.64432,-12.6551,26.4134,-4.09043
62.2934,0.689314,-13.7991,32.1222,4.211,-11.8863,29.383,3.96849,-11.66,31.5236,4.33231,-13.7132,28.7793,4.26299
6.0357,0.019426,-9.76292,29.1073,3.66878,-6.77779,28.7196,4.64881,-7.49948,29.0732,4.50103,-7.06183,28.8666,4.59348
3.54646,0.895879,10.2038,3.86874,4.41146,10.1091,6.04262,4.28752,10.1941,6.00056,4.2863,10.0227,6.02352,4.32317
38.4266,0.0714444,-14.7588,14.8141,-5.09328,-17.0291,14.6011,-4.54674,-16.5892,13.4167,-4.72747,-16.9815,15.8052,-4.46953
19.8622,0.0912047,-18.7887,8.95655,-2.95888,-19.4014,7.87873,-1.21845,-19.3581,9.52671,-1.85477,-18.7398,7.23464,-2.81581
36.1052,0.123582,9.13719,27.9763,4.55992,4.83211,26.1886,4.94963,7.02696,28.2101,4.49197,4.24888,27.3908,4.56239
5.59838,0.010926,10.2207,23.2259,5.78101,12.7564,23.6501,5.50793,11.9077,23.3481,5.64908,12.8252,23.6093,5.51523
2.18951,0.162098,-1.88609,23.0034,-5.59145,-2.44935,23.2182,-5.82786,-1.40492,22.8512,-5.69597,-2.38305,22.5732,-5.75689
1.1875,0.248115,8.79648,27.806,4.5733,8.94878,27.071,4.81355,8.66734,27.0596,4.80641,8.81632,27.1577,4.74255
2.71723,0.0548147,-11.9495,21.6915,-4.89431,-10.8277,21.8701,-5.0531,-10.7515,22.2711,-5.04266,-10.4188,22.0405,-5.12462
0.613421,0.0862181,-18.8945,26.3059,-2.84905,-18.4658,25.8849,-2.99327,-18.5496,25.8549,-2.9733,-18.7611,25.8269,-2.91166
1.11837,0.291332,11.5566,3.185,4.14279,10.5137,3.04571,4.19288,10.4505,2.98979,4.19662,10.499,3.24811,4.28396
44.4836,0.180358,-2.29739,7.83796,-5.93607,-0.497718,6.49531,-5.54792,-2.19493,5.85461,-5.49578,-0.692558,5.26895,-5.18101
18.8156,0.0351614,11.4663,19.5514,5.96487,14.7492,20.3541,5.74698,10.5367,19.7748,6.11144,14.812,19.4375,5.47002
28.506,0.0999252,-7.67873,16.9315,-5.97443,-11.1658,17.3026,-5.50111,-9.30718,15.9788,-5.79989,-11.3276,16.5153,-5.55543
1.19688,0.102827,-19.903,25.0559,0.101073,-19.9675,25.1787,-0.244447,-20.0058,24.8348,0.0209947,-20.0253,25.0987,0.303834
8.97924,0.234473,3.40403,23.8167,4.7271,3.74759,24.7215,5.09936,3.87315,24.2527,4.81827,4.72943,24.6798,5.26202
12.3503,0.378866,7.7935,36.098,-2.01097,4.7956,35.6926,-2.26051,4.16477,36.0357,-2.03295,4.16207,36.1406,-1.9383
38.765,1.04327,-5.75861,4.54687,3.86331,-5.16099,7.38729,4.43107,-3.60783,5.34178,4.45286,-3.09417,3.96382,4.07928
4.88023,0.00814608,-9.86301,11.3261,-5.82528,-10.9431,10.4978,-5.70487,-11.0557,11.2206,-5.71512,-11.3559,10.5814,-5.66741
3.29416,0.127829,19.5906,8.54582,2.17458,19.8884,8.27402,1.68939,19.815,10.2848,2.2183,19.5465,8.25845,2.6202
3.53461,0.117404,19.1709,18.2688,2.78054,19.0994,18.2654,3.18643,19.7752,19.8865,1.82454,19.3742,17.8319,2.63892
7.5807,0.0801996,-0.142087,18.0194,5.83405,-2.11228,17.9241,6.14487,-1.96497,19.5779,6.0549,-1.85223,18.5382,6.08793
0,0.0203288,16.8791,20.5236,-3.97728,16.832,20.5062,-3.66541,16.8813,20.4733,-3.93303,16.8639,20.4603,-3.69833
52.2749,0.0432145,7.91352,17.301,5.93788,10.6449,20.4231,6.20979,8.63262,18.6397,5.91973,8.4269,15.0119,6.26884
55.8284,0.128323,-7.20526,7.49267,-5.85974,-11.287,6.93288,-5.37327,-9.41365,6.27269,-5.49593,-11.4618,5.77945,-5.14869
6.6914,0.297271,-18.0257,22.132,-3.48517,-15.8729,20.5654,-4.25727,-17.3706,20.8159,-3.86796,-18.0502,20.5906,-3.66414
0.0423381,0.0283188,7.23579,11.8497,5.83216,7.19188,11.8647,5.86096,7.32614,11.9154,5.86927,7.33337,11.8707,5.86513
7.83098,0.217018,15.3518,27.78,-3.215,15.9688,27.2713,-3.41437,15.7242,30.1504,-2.90914,16.1173,29.2911,-2.99567
0.627368,0.102663,-4.85492,14.2042,-6.23076,-5.5567,14.0824,-6.19686,-5.42182,14.1772,-6.19157,-5.62804,13.9751,-6.19309
5.48051,0.151646,-6.14931,17.6965,4.98753,-5.61731,17.7188,5.27956,-6.32535,16.5954,5.51343,-6.51951,17.8085,5.01904
3.47639,0.294827,-16.9713,23.1402,-3.23702,-17.5367,23.3004,-3.44977,-16.542,23.8151,-3.46133,-16.9938,22.2568,-3.69563
33.7063,0.171343,16.2291,20.9698,5.4472,12.7908,22.009,5.83447,13.2832,22.2955,5.69287,12.9714,20.5223,6.00504
9.68189,0.0683887,-14.8418,33.3727,3.99702,-14.2946,32.199,4.17399,-14.2533,31.3082,4.31726,-15.0465,31.8151,4.14536
18.6212,0.257528,-19.7389,14.1861,0.634296,-19.6487,13.1364,-1.17308,-19.5103,13.518,-1.68421,-19.6968,13.4336,0.896272
0.462433,0.0354845,13.2458,0.431554,1.62387,13.3829,0.417374,1.24833,13.3804,0.403518,1.16173,13.2409,0.394462,1.16351
1.64667,0.0605326,17.5979,35.2295,1.74757,17.6889,35.2222,1.24322,17.8419,35.1106,1.56637,17.3313,35.1816,2.17931
3.96388,0.397672,1.61928,17.1364,6.27361,0.0166918,15.396,6.1916,0.159324,15.4435,6.22803,0.210712,15.8673,6.26876
5.3362,0.109735,11.3735,23.0756,-4.74294,12.0741,23.9991,-4.87397,12.2192,24.9688,-4.68109,12.0179,24.8929,-4.63018
13.4612,0.135725,-17.0628,26.1799,-3.31285,-18.6572,26.4093,-2.91977,-18.2214,29.0453,-2.85466,-18.9683,28.5316,-2.6522
17.6454,0.613081,4.39637,29.858,3.86804,4.73117,27.7919,4.39171,5.67287,30.672,4.26938,5.53241,29.0863,4.26648
1.44996,0.185825,-16.8732,28.9309,-3.03341,-16.9654,28.757,-3.09128,-17.9742,29.0491,-2.90326,-16.7701,28.5392,-2.96189
3.29636,0.00997811,-15.6522,15.7167,-4.82226,-15.0502,15.4724,-5.01026,-15.2698,15.9424,-4.91328,-15.3971,14.9635,-4.93788
4.56711,0.0987376,9.86347,28.9216,3.94855,10.0821,28.1538,4.26773,9.5376,30.0202,3.74144,9.83182,29.7576,3.81403
2.21005,0.0116135,-3.75636,23.5349,4.92982,-3.54878,23.6022,4.90793,-3.97058,24.5978,5.31253,-3.83805,24.7074,5.31031
4.39778,0.460285,-1.40534,22.8993,-5.69203,1.38113,22.849,-6.00538,0.762759,22.9997,-5.98387,1.31038,22.8115,-6.02838
12.1067,0.53279,-8.90106,17.7463,4.12659,-9.44089,17.1073,4.30571,-6.84861,18.4801,5.37563,-6.51877,18,5.0329
7.39986,0.00082563,1.71895,14.8664,6.21762,3.0428,14.7846,6.28461,3.96185,14.3952,6.31878,3.43027,13.936,6.27482
14.6729,0.195557,16.0205,18.9642,5.24725,15.0421,20.0412,5.71996,17.6365,19.8611,4.88617,13.8321,18.9471,5.67136
8.23921,0.624049,5.22973,18.2911,5.71365,5.62572,19.8572,6.28512,5.6638,18.8937,6.25617,5.65147,17.623,6.23455
27.9341,4.43033,-1.99577,31.1681,-5.03043,-2.75178,26.7396,-5.46666,-1.69681,26.6129,-5.62763,-2.49035,26.7232,-5.3319
10.0713,0.0664924,-9.68505,36.9299,0.885863,-7.49289,36.9886,0.84828,-9.95065,36.8344,1.92443,-8.2495,36.954,0.214121
0.290982,0.0303672,2.12737,0.971669,-2.03288,2.0947,1.148,-2.17219,2.21445,1.37018,-2.21931,2.1667,1.34574,-2.2566
3.57418,0.0662342,19.1885,24.874,-1.31407,18.935,23.4716,-1.5645,19.045,23.0086,-1.41205,18.9695,23.1258,-1.51775
2.8326,0.30691,-16.7856,26.5601,-3.26132,-16.4587,27.5077,-2.51451,-16.2925,27.5584,-2.41258,-16.3618,27.3403,-2.69592
10.1892,2.01531,15.097,32.6091,-2.45715,14.9479,29.977,-3.15417,15.5079,29.858,-3.02407,15.1439,30.044,-2.88704
1.30083,0.19598,-1.60448,1.24886,-3.04844,-2.72091,1.10046,-2.8835,-2.65247,1.0626,-2.79674,-2.65628,1.03565,-2.75582
16.9862,0.164842,1.54839,26.6962,-5.0872,-0.325015,25.9805,-5.77759,3.15614,26.6649,-5.22701,-0.0469507,26.5249,-5.44738
26.8449,0.258821,-11.1866,17.7342,3.78023,-16.9035,20.0763,3.80514,-11.9808,14.7292,4.30975,-10.5188,17.8765,4.02982
5.46673,0.179289,2.38108,23.9857,5.12212,2.34683,22.4328,5.76264,2.41092,22.8875,5.63627,2.63251,24.4397,5.37128
4.12549,0.905477,11.4317,32.1034,-3.57919,9.20316,31.6129,-4.01096,8.65988,31.2254,-4.24847,9.01299,31.5302,-4.14954
9.73361,0.390862,5.47974,2.19199,-2.02238,5.66942,0.397052,-0.229211,5.64601,0.321441,-0.140166,6.85473,2.16172,-2.00393
2.62996,0.14035,16.7866,30.5451,-2.42944,16.615,31.1444,-2.55929,17.4489,30.5738,-2.22705,16.8863,30.0252,-2.64651
22.0045,0.422971,5.40581,22.0313,5.22691,6.65313,23.3472,5.59626,4.92142,22.676,5.61925,7.31746,22.7365,5.62655
0.041794,0.00407737,12.495,2.87805,-2.91093,12.4225,2.74349,-2.8182,12.4309,2.83606,-2.88638,12.4986,2.71578,-2.78268
26.8547,0.40068,7.31762,29.9859,-4.07976,6.94135,31.9633,-4.4078,8.15426,29.5797,-4.38655,9.49096,31.0431,-4.08306
7.2993,0.163883,8.52779,35.5012,-2.17286,8.64162,34.9727,-2.8018,7.96969,35.7811,-2.23764,9.69427,36.4588,-1.43395
4.89319,0.0235443,-19.7718,28.3688,-0.710186,-19.8366,28.8197,-0.646753,-19.8759,28.5262,0.171925,-19.8711,28.1655,0.488193
20.0343,0.0240848,-14.9183,29.2884,4.15916,-13.802,29.1891,4.24466,-14.9653,31.7175,4.15156,-13.751,31.0277,4.22532
5.67623,0.3639,0.274811,5.29031,4.76495,-1.44596,4.03256,4.3223,-2.24311,3.60341,4.01485,-2.24528,3.56931,3.99312
6.46925,0.0843102,-10.6826,34.0037,-2.99647,-12.5659,34.1004,-2.67931,-12.6184,33.9032,-2.76886,-10.1742,34.1224,-3.13065
5.13191,0.219069,-15.878,22.597,-3.65479,-15.4492,22.0721,-4.04023,-14.8836,23.7542,-3.98424,-16.4922,22.679,-3.72818
1.14139,0.0625122,-14.308,26.4643,4.40407,-14.0787,26.0322,4.53144,-14.3635,26.0346,4.48019,-14.5319,26.6481,4.41786
10.7208,0.0180426,-8.30731,19.8479,5.36898,-8.02246,21.4774,5.40628,-9.77203,20.0756,5.16988,-7.56468,18.7981,5.4312
28.5346,0.417198,5.89953,34.2006,-2.81893,9.17988,34.1472,-3.12249,5.01017,33.5723,-4.19814,5.13131,34.823,-2.85266
2.34002,0.038444,-13.7116,25.0556,-3.80618,-14.1208,26.1082,-3.77788,-14.1343,25.9135,-3.79263,-14.0505,26.108,-3.77603
40.2801,0.192716,-6.15731,33.7468,-3.10592,-5.3196,34.9973,-3.07845,-2.81587,33.219,-4.48304,-3.09966,32.1902,-4.79803
54.3229,0.402255,14.8793,12.919,5.22752,14.4387,10.6884,4.97152,16.5659,12.2652,4.61016,16.1816,10.4681,4.73555
24.0285,0.0821266,-10.9205,13.1333,4.06555,-11.9992,13.5516,4.17218,-12.7072,11.6869,3.68878,-13.6526,12.4157,3.79245
2.20685,0.0725591,12.9583,31.7745,-3.22534,12.8775,31.3082,-3.4318,12.8107,32.4556,-3.15695,12.9634,32.4396,-3.13419
2.8313,0.297019,-14.187,16.9922,-5.05743,-13.0637,17.2677,-5.21678,-13.138,16.6742,-5.26057,-13.1286,16.9705,-5.22577
5.37876,0.230606,-6.95199,21.1314,5.09709,-5.37614,21.1544,5.70952,-7.63702,20.388,5.49622,-7.38169,21.4347,5.12788
4.848,0.237795,-4.87283,16.1455,5.66742,-3.65316,15.482,5.82387,-3.5307,15.6591,5.89375,-3.57849,15.1507,5.81551
16.3456,0.717015,12.9537,2.47809,-0.875423,14.1477,0.909342,-0.0869838,15.1818,4.15202,-2.83103,11.9279,2.00522,-1.71303
0.0991171,0.00413652,-17.4293,13.3471,2.8753,-17.6011,13.3856,2.80836,-17.4907,13.25,2.85368,-17.6318,13.2691,2.79497
1.60386,0.102156,-11.1596,9.4761,3.88153,-10.7809,10.2763,4.01668,-10.6265,10.2754,4.03823,-10.7761,9.87435,4.02782
21.1759,0.567201,-15.2672,4.14603,-3.60072,-14.0336,3.65242,-3.93444,-12.9529,5.04392,-4.63008,-12.6475,5.36239,-4.78708
21.9813,0.114766,-5.42434,28.0185,4.77301,-8.46017,26.982,4.88264,-8.42997,27.7606,4.77354,-9.07288,28.1277,4.7397
177.495,0.660451,-0.789812,10.0648,-6.15878,-11.1456,10.2166,-5.65687,-9.91822,8.38458,-5.70284,-11.3653,10.0964,-5.62581
2.43712,0.270392,-1.10445,24.2768,-5.81393,0.504428,24.3886,-6.04348,0.364775,24.1421,-6.04865,0.295486,24.3141,-5.98861
4.54102,0.0732173,-19.9499,21.8483,-0.152056,-19.942,21.1369,0.844003,-19.9688,20.904,0.935993,-19.9879,20.8119,0.589075
513.754,0.219404,5.56561,24.3168,5.433,17.1407,26.8245,4.37618,16.7505,28.4777,4.13853,12.8038,30.3926,4.12727
2.86723,0.0306237,7.27378,13.5392,-6.1391,4.63265,13.7871,-6.22619,4.62583,13.6686,-6.19038,5.53645,13.5532,-6.16237
29.7726,0.690341,-9.13326,15.8387,4.95324,-4.39451,15.0277,5.73329,-4.62928,15.5729,5.67286,-5.06154,16.0544,5.61972
2.91422,0.0571849,-11.7639,25.4955,4.80895,-11.4585,26.7599,4.77232,-11.4562,26.7084,4.77759,-11.6782,26.7585,4.7511
24.2564,0.0544859,-2.0134,12.4412,-6.28355,-4.25906,12.2407,-6.29681,-2.34531,13.5711,-6.29676,-3.81241,13.4543,-6.26937
53.5258,0.479028,7.11676,10.2564,5.58367,12.5577,9.76488,5.04687,8.88243,9.15208,5.08902,7.27909,7.48311,5.11208
8.08637,0.208177,-0.861432,19.5409,6.07801,-0.939527,18.5069,5.82906,-0.160252,18.3611,5.96003,-0.305995,18.3617,5.93491
8.67585,0.366216,4.35316,30.368,-4.58677,4.60231,33.3613,-4.28502,4.43864,33.0514,-4.36179,4.60083,33.4509,-4.26519
16.2152,0.465179,16.7619,20.9131,-3.34599,18.4651,20.6179,-1.98715,17.2616,22.0283,-3.40328,16.8502,20.2111,-4.01937
2.93015,0.122289,2.19304,16.8175,6.0582,1.99588,16.2106,6.45221,2.68561,17.2796,5.96677,2.25924,17.4108,5.94388
7.12787,0.372728,-15.7596,11.1578,-5.04022,-16.7815,10.1815,-4.65544,-17.2757,10.4482,-4.49427,-16.077,10.0716,-4.97084
1.55992,0.0808438,-2.58801,0.958235,2.4885,-2.64412,1.53831,2.86696,-2.76828,1.54481,2.82667,-2.38194,1.30831,2.8392
3.21646,0.00338338,-11.1533,19.9667,4.98911,-12.4759,20.2299,4.685,-11.8018,20.5101,4.83722,-11.6808,20.8068,4.86184
41.3639,0.0139123,6.376,9.77585,5.44353,6.77952,11.5542,5.7053,5.29676,7.89788,5.19838,6.85518,7.44862,5.12969
10.5772,1.87159,-14.9047,11.2681,3.37824,-14.4109,13.7006,3.62144,-14.2645,13.6849,3.68514,-14.823,13.8082,3.52752
25.3137,0.100352,6.48133,14.3075,6.23573,4.26718,14.0369,6.28246,8.96574,13.7031,6.08675,8.62002,11.6273,5.35494
6.84937,0.0672746,-19.6713,21.1072,-1.27319,-19.9284,20.558,-0.159362,-19.9009,20.3346,-0.21774,-19.9587,20.8952,-0.1265
2.17037,0.0384857,15.6475,5.94733,3.98071,17.5538,6.09079,3.69712,16.9205,6.09933,3.81221,17.7068,5.91667,3.64551
427.305,0.273068,6.34607,17.7243,-6.43581,-0.505557,15.4938,-6.375,0.301156,18.9059,-6.46395,-0.491504,17.3258,-6.44071
7.82969,0.153428,11.704,33.1989,-2.9338,14.1322,32.9816,-2.49687,11.3636,33.7656,-2.97,11.2155,32.8653,-3.38333
23.9238,0.287093,-19.3291,13.2031,-2.03818,-19.667,11.9957,0.382809,-19.7128,12.6827,0.649707,-18.7118,13.9094,-3.25494
1.02208,0.329705,-8.20409,36.1457,-1.9493,-9.23231,35.9606,-1.95821,-9.39085,36.1319,-1.71648,-9.32232,36.0907,-1.79307
11.2203,0.481082,17.945,25.7438,-1.91807,16.9413,25.6982,-3.25213,18.4588,24.9745,-2.33747,16.9534,26.3304,-3.09167
1.36438,0.659302,18.4781,2.35919,1.56311,18.1066,2.51312,2.3181,18.0952,2.43834,2.27523,18.1281,2.58617,2.36262
1.06859,0.417769,-19.1062,21.909,-1.63932,-19.5713,21.676,-1.33724,-19.477,21.9955,-1.44632,-19.566,22.1297,-1.70776
2.74276,0.138697,17.6374,33.2345,-0.812742,18.1404,34.2301,-0.0510428,17.5365,33.3401,-1.04136,17.9849,33.0282,-0.818895
1.70948,0.00485575,-13.8397,19.7726,4.36459,-12.9535,20.2325,4.47441,-13.2825,19.9701,4.45384,-12.8242,20.3856,4.47042
10.799,0.455722,10.9017,6.62477,4.70572,13.827,7.01984,4.42445,13.4594,7.39416,4.4047,13.8774,7.46101,4.4298
7.04467,0.0595766,17.6485,26.6745,-1.78875,17.332,27.8061,-2.38065,17.1803,28.6547,-2.45754,17.1808,28.4106,-2.55393
3.3225,0.217141,-14.5065,2.82228,-3.06929,-13.7421,2.63636,-3.38193,-14.6089,2.3671,-2.7629,-14.491,2.13649,-2.45322
2.40783,0.194009,13.9932,32.2777,-3.0117,13.9803,30.8477,-3.18758,14.0428,30.1813,-3.14725,13.97,30.1891,-3.17476
12.3198,0.488328,-10.0134,27.2356,-3.93014,-9.68872,28.3223,-4.27872,-8.74775,25.1003,-5.01302,-11.3751,27.5656,-4.17056
3.53056,0.190662,8.99802,18.1901,6.12462,10.6734,18.1444,6.04141,10.0934,18.4973,6.1623,11.0412,18.1973,5.9853
1.29537,1.09388,6.85544,2.18735,-2.04323,7.9573,2.10808,-1.96007,7.95005,2.03902,-1.89039,7.95846,2.12989,-2.00184
3.92572,0.0350308,18.624,18.3147,3.88087,19.7002,20.3795,2.49852,19.5704,20.2718,2.75379,19.5328,20.1391,2.75567


