
4.45887,0.355066,-0.0634073,6.6734,5.86739,0.81469,6.85869,5.8936,-0.140048,5.43435,6.05464,-0.496881,6.78684,6.48957
0,0.00181538,-4.17691,28.5531,2.82663,-4.19594,28.555,2.83132,-4.17491,28.5839,2.82234,-4.2412,28.6371,2.82333
2.28277,0.0991493,-15.2531,15.9862,3.52682,-15.3845,17.3095,3.32489,-14.8681,16.9263,3.55941,-15.6029,16.6944,3.38282
2.85351,0.160224,3.53928,29.8954,6.39219,1.99797,29.0518,6.53514,2.16328,29.3552,6.44947,2.08156,29.7307,6.36198
1.60956,0.0169638,4.91866,9.66436,1.48174,5.08666,10.9149,1.78107,5.46708,9.3065,1.32585,4.93156,11.0067,1.82785
2.74687,0.343335,-5.26735,3.30831,6.20489,-2.81827,3.55539,6.52223,-2.96082,3.48237,6.50211,-2.8386,3.45028,6.48194
4.722,0.708477,-13.0768,35.6164,4.32967,-14.1548,36.0205,2.9863,-14.4991,36.0653,3.19269,-15.0335,36.3368,3.16347
7.38465,0.0341563,8.7495,34.4873,1.51054,8.47388,33.055,1.58121,7.31284,33.225,1.84711,7.32194,34.7477,1.80091
2.00924,0.979397,-12.8128,27.9127,6.18052,-13.8356,28.5351,5.73053,-13.9957,28.3755,5.66221,-13.7674,28.6874,5.82479
39.4552,0.966287,4.81666,2.23209,4.17809,6.93226,2.03535,0.6492,5.33553,2.07125,0.525491,8.33542,2.0537,0.539047
7.6511,0.0910222,-8.32583,29.138,5.50191,-6.86796,32.9402,4.81458,-6.94979,31.6441,4.91433,-6.95886,33.0374,4.84638
2.68678,0.0873734,-6.80364,29.8013,4.64321,-8.25715,28.4725,5.33196,-8.2046,28.4625,5.28467,-7.67024,29.4857,5.15553
0.0706096,0.0130452,10.3303,12.0889,6.86508,10.7563,12.2559,6.73395,10.5437,12.1282,6.77944,10.5867,12.0219,6.73224
3.78065,0.310043,-13.0627,12.9835,6.88654,-13.2937,15.0621,6.4687,-12.9863,14.057,6.71725,-13.4091,15.0862,6.55227
2.37421,0.178511,11.6177,16.0246,6.66217,11.705,17.0071,6.43526,12.2779,17.1299,6.66774,12.2855,16.5898,6.70919
10.2652,0.385198,10.5777,8.1422,4.7807,11.994,6.58666,5.10413,11.8715,10.0336,5.86749,10.2358,8.12908,5.11318
0.485921,0.0199799,12.7496,21.6435,-3.70604,13.1183,21.9736,-3.93368,12.474,21.6732,-3.64462,13.1122,21.8443,-3.86277
21.1333,0.158585,12.045,38.6488,-1.54642,8.40125,39.5805,-0.5253,8.3212,37.5602,0.49202,11.7267,37.5006,-1.03427
1.9744,0.0924349,13.8771,3.64419,-3.45577,14.2204,3.42157,-3.26878,13.7174,3.41929,-3.90139,13.8154,4.48883,-3.341
6.75252,0.0399111,-3.05686,20.7387,7.14036,-6.61089,20.2103,7.18489,-3.57567,21.9142,7.15412,-6.58799,20.3448,7.18205
0.935656,0.367194,14.797,3.34986,2.7073,15.3281,2.96912,2.09895,15.2066,2.97324,2.13314,15.111,2.89827,2.14463
4.92236,0.336637,1.12167,11.3236,6.6921,1.70236,12.0074,7.36943,1.89237,10.2257,7.09963,0.802732,11.4231,6.96594
23.6484,0.25893,-11.982,14.4414,3.56158,-10.0683,17.7232,3.19371,-8.86849,18.0084,3.13648,-8.67421,17.3646,3.13146
0.296113,0.0350977,0.674299,2.10053,-4.12376,0.150064,2.21228,-3.98795,0.074733,2.14949,-3.93081,0.665101,2.31346,-4.24635
20.6895,0.365172,7.27752,12.572,2.20702,2.56154,12.6807,2.72649,4.22482,13.5067,2.5327,2.93076,12.159,2.58423
2.42788,0.0440829,10.2914,34.375,0.965897,9.10926,32.8387,1.35669,9.88194,33.2186,1.16531,9.46061,34.3971,1.1931
9.61375,0.0520078,-4.59762,19.0824,2.76574,-2.53662,16.7258,2.84658,-3.41874,16.512,2.92284,-3.15876,18.139,2.78715
8.12627,0.470362,-8.649,24.4916,2.99338,-8.3833,24.942,4.0075,-8.28487,26.5235,3.42554,-7.51327,26.1388,4.69386
10.6227,0.327722,-2.76655,34.6401,5.31101,-0.313699,36.2461,4.61989,-0.103777,36.4612,5.32003,-0.961712,35.6898,4.45668
5.85275,0.535059,6.61676,7.44402,5.88122,7.46552,7.93439,6.67947,6.9636,5.74332,5.64956,6.32926,7.72044,6.61667
3.02821,0.426881,-9.74443,11.9951,6.23431,-9.87821,10.1209,6.43617,-9.69231,10.7418,6.46983,-9.96842,10.3888,6.51308
5.90793,0.05799,-10.2469,3.9742,2.40983,-9.62242,3.33186,0.83262,-9.77264,4.06654,1.00435,-9.64338,2.62158,1.21549
1.37653,0.087844,4.64542,37.4287,1.49969,5.52609,37.3576,1.39889,5.7673,36.8495,1.52408,5.64762,37.1305,1.4544
4.16289,0.207275,-15.4847,20.0447,3.24403,-15.0198,18.4426,3.39222,-15.4206,17.8062,3.21292,-14.7908,18.0517,3.40591
2.53142,0.106158,-8.72347,3.58909,-0.522011,-8.59329,4.49975,-0.371467,-7.53537,4.2537,-0.737985,-7.48983,4.34721,-0.719349
0.0668943,0.0263,12.6812,2.7516,-5.78218,12.7813,2.47012,-5.77114,12.8338,2.51112,-5.66804,12.8225,2.63362,-5.64164
6.13106,0.0529784,-6.91798,9.868,6.92167,-5.95577,11.8368,6.86085,-7.13116,12.4407,6.60915,-6.88466,12.467,6.64871
4.75162,0.227373,1.28461,35.0482,2.98139,0.979324,35.7834,2.62626,-1.47717,34.1142,2.75821,-0.846958,34.0143,2.80356
1.75708,0.0347015,-9.24241,20.4599,3.17352,-8.3584,20.3138,3.22182,-8.34421,20.411,3.24035,-9.52573,19.6849,2.96934
0.623263,0.0244677,-13.6605,34.7102,1.83875,-14.1057,34.3555,1.75461,-14.3139,34.2781,1.74116,-14.5244,34.4983,1.85691
2.65163,0.173885,-0.0433097,18.7093,6.78449,-0.536519,18.9928,6.93169,0.56333,18.3171,6.99708,0.481959,18.1891,6.95519
2.934,0.0832964,6.38716,3.93229,-4.95382,7.28971,4.22615,-4.47424,8.06842,4.24614,-4.94206,7.34789,4.11385,-4.83107
9.01813,0.139304,10.4102,30.4355,0.925462,10.5133,28.9569,1.06407,11.0408,27.9225,0.28887,10.931,27.7444,0.46131
12.1332,0.260014,10.9594,18.0896,1.04277,10.4736,15.773,1.15516,9.74172,17.7967,2.03527,10.0293,19.2662,1.73673
25.3281,2.33078,-14.9042,13.4601,7.03113,-15.7651,16.8507,6.35199,-14.5114,17.0467,6.75379,-15.5269,16.9286,6.37948
6.85972,0.00985975,-9.41134,28.4677,6.01364,-8.06478,30.5211,5.57015,-8.48052,30.9694,5.85186,-9.10407,30.2912,6.09804
40.8715,0.0509562,3.24125,27.1682,6.80847,1.81477,27.7598,6.73141,-0.0393111,23.5969,7.09887,-0.68611,25.2783,6.97216
5.95583,0.0463786,10.0429,4.5599,-5.71286,8.16558,4.28153,-6.54458,9.13127,4.48639,-6.43838,8.21677,4.24409,-6.11982
1.49036,0.154459,10.9017,41.059,-1.02418,9.68102,41.0286,-0.675232,9.42968,41.1007,-0.521151,10.0858,40.7248,-1.02673
28.801,0.572444,-9.40608,32.5778,5.89979,-13.1646,32.4801,5.28003,-14.3796,34.2901,4.86066,-13.2511,33.4746,5.05811
5.87424,0.608785,-15.0005,6.61527,4.87922,-14.5381,7.17271,5.64744,-14.3718,5.84103,4.77538,-14.6188,7.30905,5.79441
3.88893,0.310327,12.0908,9.75654,5.81069,13.1129,8.7554,5.59938,12.8423,10.8502,5.77535,12.7859,9.0659,5.77954
0.131236,0.0530334,14.7733,31.9457,-3.87137,14.881,31.6855,-3.85871,14.7581,31.6971,-3.8328,15.0046,31.7951,-3.93008
61.121,2.687,-10.0191,18.2514,6.21398,-8.72626,25.596,5.45382,-7.91224,26.6913,4.31827,-9.82476,26.8487,5.73131
9.23884,0.141028,11.6587,4.02303,-5.4152,10.8497,3.68799,-6.34763,11.5584,2.89501,-6.42462,12.2714,2.96428,-5.92301
0.851721,0.0611874,11.7807,30.8195,-2.09648,11.7651,30.3716,-1.927,11.6426,30.2896,-1.68639,11.6436,30.5434,-1.69093
8.31057,0.563887,13.0428,37.7214,-2.56298,12.3562,38.1208,-1.92676,12.1428,35.9248,-1.31691,12.0935,34.3767,-1.39093
6.89558,0.439618,2.50005,12.7071,6.92574,2.6873,13.6712,7.34139,3.41606,11.5655,7.4422,1.81729,12.8014,7.33455
9.23127,0.00793825,-11.929,27.4809,5.99507,-10.8894,27.5586,5.41488,-13.7857,26.7025,5.61125,-13.0485,27.0693,5.9054
1.99105,0.458673,13.3559,26.1586,-3.06378,13.799,25.6326,-3.43208,14.477,26.424,-3.38241,14.6072,26.5366,-3.42847
3.21679,1.98633,-13.4414,10.0735,6.32015,-14.6921,11.602,5.88749,-14.5589,11.6771,5.86859,-14.8446,11.5241,5.97146
71.2955,0.794227,16.83,5.51741,1.3294,15.539,8.8863,-3.9453,16.0334,10.4328,-1.15321,15.6864,10.4939,-3.70371
4.24047,0.25516,-8.41598,8.12753,6.5419,-9.41286,8.99759,6.43776,-7.93457,9.02529,6.89032,-8.21298,9.03244,6.8121
0.024077,0.0153957,4.04472,3.20493,-5.67887,4.01536,3.26162,-5.62783,4.24817,3.04563,-5.83073,4.29781,3.1586,-5.83805
17.7301,0.0612581,4.44801,1.45868,-2.93603,6.60833,1.62823,-1.59028,6.54796,1.84764,-0.284485,4.96426,1.99695,0.106301
4.63448,0.05047,-7.24862,33.2965,2.90927,-7.83138,31.3433,2.765,-7.26097,31.152,2.78915,-6.96837,32.633,2.85227
26.3121,0.214421,0.0582632,24.5993,2.84974,-1.74942,24.8533,2.96116,-1.10675,21.2659,3.17575,-1.79805,23.906,3.00689
1.16093,0.279461,8.45141,15.5034,2.35973,8.08497,14.7694,2.14281,8.41074,14.8009,2.29586,8.2161,14.8852,2.26116
8.85595,0.301402,10.5033,15.6023,1.1963,9.41353,12.8899,1.88074,9.38025,13.089,1.93158,10.7452,14.4327,1.23041
23.5428,0.0546302,15.3858,18.8162,-3.25913,15.6903,15.73,-1.73518,15.792,14.4184,-2.33102,15.7181,14.5537,-3.8191
5.7835,0.774919,-6.37031,30.1993,3.496,-5.72107,29.462,4.282,-6.70126,30.6752,4.4798,-5.38235,31.0319,3.57089
6.11985,0.588574,8.77039,18.2376,6.11029,8.51625,17.3857,6.75447,10.709,18.2741,6.83157,8.37349,18.9139,6.61982
4.21046,0.216455,-3.54747,31.8287,3.07807,-3.81232,30.6967,2.86344,-4.04825,30.4108,2.8994,-3.07115,32.4584,3.40072
1.92012,0.228112,14.2823,18.1542,3.96953,14.9499,17.8588,2.84015,14.9044,18.0903,2.88433,14.9422,18.0124,2.80345
8.28367,0.376621,12.7214,27.7949,-2.59292,13.405,27.2173,-2.76097,14.1936,28.9534,-3.15447,13.5994,26.3188,-3.06319
3.50779,0.0559969,10.545,6.39509,-0.373433,9.93112,7.79575,0.378916,9.82718,7.08299,0.289795,10.4472,7.51065,-0.0997442
29.4612,0.037832,6.33313,22.1622,7.08473,5.88463,29.6811,5.94424,5.205,28.7422,6.20902,4.83897,28.8988,6.24776
27.901,3.18585,6.26415,22.1747,2.56311,3.52135,24.8941,2.50671,2.68888,23.3865,2.73641,2.48601,23.0811,2.73732
1.99502,0.754013,-1.65108,18.4714,2.73879,-3.05666,19.2618,2.94073,-1.52651,19.3959,2.70536,-3.19603,19.2677,2.93483
3.31911,0.65061,-3.91226,27.5776,3.00318,-4.70279,27.4127,3.03551,-4.47496,27.0189,3.06034,-4.09991,26.4068,3.06644
10.4077,0.417669,11.9761,5.4349,-3.7717,11.3518,5.03553,-2.39303,11.965,5.89866,-1.7866,11.4427,5.36086,-1.93768
3.84679,0.585627,11.0715,21.1341,0.987844,11.0672,18.9346,0.944586,11.3745,19.9335,0.746128,11.2075,19.4768,1.05078
7.97295,0.0438893,2.81959,12.2486,2.62612,1.50714,13.8712,3.04238,0.632091,12.9199,2.97591,1.78758,13.9887,3.02921
21.5576,1.20958,-11.2435,27.7001,5.71927,-10.4164,26.0374,3.52801,-13.3142,26.2078,5.60742,-10.3734,25.4165,3.45518
2.84809,0.20848,-10.6849,3.03736,4.63376,-10.5595,3.61923,3.96156,-10.3897,3.5777,3.21429,-10.6922,3.96269,3.91326
3.57949,0.0237352,-15.5772,30.2568,4.66957,-15.9225,30.3696,4.41055,-16.0945,31.451,4.09316,-14.8144,30.284,5.29262
5.58363,1.54017,10.32,26.9729,1.37373,10.4489,29.0109,1.08907,9.4067,29.8038,1.13841,10.0148,29.3982,1.16889
1.89958,0.0817039,-1.09902,13.4568,7.40382,-0.784546,12.7245,7.34971,-0.454672,13.2221,7.46799,-1.76112,13.3007,7.42482
0.717405,0.0680351,-8.36557,14.6811,3.27767,-7.90856,15.2954,3.41372,-7.86113,14.9678,3.34031,-8.02261,15.3046,3.40155
1.73481,0.0873915,7.55708,2.57122,2.82018,7.90405,2.65871,3.33829,8.21991,2.46125,3.24828,7.58377,2.33153,2.64813
2.68698,0.165668,11.3721,5.03319,-5.04051,11.956,5.42307,-3.85245,11.9261,5.54785,-4.35456,11.3967,4.93256,-3.88037
192.944,1.09242,11.1404,31.846,4.71165,6.80693,34.0053,5.33556,7.16881,27.7114,6.12837,5.97997,31.4185,5.61364
28.5318,0.0843336,15.7364,13.7306,-0.574713,16.1005,11.118,-0.879441,15.5406,16.096,0.758776,15.9805,12.9918,-3.71536
3.09906,1.33559,6.73579,12.1586,7.24808,6.59415,13.9196,7.22533,6.81844,13.8308,7.11309,7.17831,14.0263,7.31318
0.0349901,0.00281001,4.47547,18.7148,2.49907,4.74856,18.9458,2.47012,4.71475,18.7052,2.48196,4.48597,18.8405,2.49631
0.950796,0.239951,-5.34137,30.663,5.9414,-5.42188,30.4982,5.45818,-5.55292,30.2426,5.51227,-5.7039,30.1433,5.70862
4.78293,0.40316,7.08502,15.6169,6.73174,7.68227,15.0421,6.93528,6.62573,15.5298,7.23601,7.62811,16.603,7.17233
20.918,0.0528093,14.4868,34.9105,1.2681,15.3616,36.3149,-0.830805,15.5101,34.0707,-4.11892,15.1175,35.0366,-1.36986
5.06875,0.00432003,12.3596,26.4377,-2.43792,11.8651,25.1839,-2.19525,11.5558,25.329,-1.35732,11.8006,26.1157,-1.34793
4.649,0.46597,11.8078,22.8545,-0.348057,11.0884,22.0938,0.48229,11.3617,24.511,-0.259273,11.3262,24.2732,-0.152589
0.478986,0.0156732,-5.23301,1.5429,-1.2062,-5.78765,1.91199,-1.17189,-5.9073,1.80435,-1.08504,-5.66335,1.53897,-1.04642
4.80166,0.11736,7.85941,6.69831,5.76698,7.96507,5.93231,5.72235,9.4636,7.35763,5.6725,8.69957,7.51689,5.86469
1.12447,0.0202021,0.0737356,25.1999,2.7925,0.303164,25.9075,2.79435,-0.268865,25.1881,2.85327,0.108244,25.9701,2.8182
8.7836,1.53951,4.14462,31.7139,6.00128,5.45999,29.0966,6.06943,4.13213,29.1032,6.47149,4.95316,29.0226,6.18422
69.7738,1.04658,0.623533,26.9511,6.77784,-1.23031,32.4595,6.10833,1.47907,31.916,6.21252,0.476085,32.3611,6.19551
11.7809,0.284107,14.7678,8.79872,-0.0509416,15.7182,8.68421,0.697957,16.1386,9.33027,1.04235,15.7124,7.57266,0.44765
7.73314,0.35274,1.27285,33.9946,3.2376,-0.762191,33.502,2.78861,1.5042,34.7874,3.04102,2.8058,33.4887,2.76108
3.25521,0.0524068,9.31654,11.5704,7.04983,9.31994,10.601,6.9242,7.92259,10.3039,7.29992,8.26008,10.9773,7.25265
5.59896,0.176449,0.44862,1.77899,-3.84981,-1.4469,1.85393,-3.10889,-1.29985,1.42398,-2.86811,-0.830544,1.69263,-3.18799
20.9368,0.0873507,-0.936753,26.1456,6.85689,-4.02109,24.4765,6.98619,-4.36003,22.5708,7.13516,-3.03882,22.0115,7.13481
11.5805,0.0679296,11.5868,27.9743,-0.841269,12.255,27.612,-2.2926,12.3439,29.0918,-2.61004,12.0127,28.8807,-1.92897
3.90949,0.373861,10.6584,3.31329,-6.55636,10.1396,2.35154,-6.84934,10.9863,1.88547,-6.73199,9.76595,2.84115,-6.93677
1.73056,0.110631,0.360515,12.9782,7.34086,1.00738,13.3042,7.54904,0.800584,12.757,7.45871,-0.088908,13.0654,7.42821
0.242871,0.00348103,7.47501,40.0677,3.45936,7.50144,39.789,3.67889,7.3583,39.9239,3.57269,7.64117,39.8241,3.654
10.4195,0.878998,-0.859866,11.8056,6.26118,-1.36355,10.2484,7.09069,-1.73358,12.7382,7.23346,0.97612,11.879,7.05224
5.63843,0.234638,4.53602,13.7662,6.97487,4.69781,11.9611,7.17029,4.46811,14.0713,7.21334,5.80627,14.0274,7.3855
0.344047,0.0432984,16.4273,3.97458,-0.736789,16.2627,4.3525,-0.84949,16.166,4.21562,-0.962061,16.346,4.35708,-0.777847
10.1783,0.676876,-10.2558,9.62268,5.92008,-7.46196,9.65902,6.92131,-10.4549,8.48706,6.35255,-10.6622,10.5892,6.77873
1.93926,0.424747,7.80689,19.9473,6.59617,8.00468,20.891,6.97271,8.33814,20.7382,6.94582,8.13375,20.8901,6.96036
4.63428,0.126072,-9.20901,3.53698,5.45804,-8.30614,2.54438,5.65571,-8.15789,2.21805,5.60405,-8.61327,4.22048,6.13052
0.0299409,0.00838986,-2.84368,26.6374,2.98814,-2.95347,26.8977,2.98788,-2.91332,26.6787,2.99939,-2.81247,26.8998,2.9764
15.5168,0.00180444,12.7354,31.703,-2.91836,11.9597,32.2463,-1.18991,13.0529,32.2952,-3.53512,12.2691,34.0598,-1.6669
6.03442,0.539039,11.5418,18.2313,5.99551,11.2759,18.6492,6.59429,12.862,18.7118,6.3991,11.4624,16.9474,6.48318
5.80804,0.75929,1.27926,10.6369,2.31301,4.00369,11.0283,2.08492,3.74874,10.4505,1.94932,4.02836,11.3084,2.13279
2.49231,0.0565921,10.6954,22.2836,1.18748,10.7456,24.2008,0.888488,10.8882,24.0349,0.678663,10.8207,24.5592,0.750662
2.23581,0.153818,9.31436,1.90452,-7.01768,10.0254,1.76441,-6.77753,10.6396,1.34447,-6.76104,10.6117,1.20698,-6.79031
3.15431,0.270569,1.38436,7.08538,5.44825,1.13787,7.38246,5.67292,1.96001,6.99889,5.70029,0.968356,6.29334,5.97515
2.54395,0.198437,-7.03543,7.03694,6.1891,-6.32552,6.72013,6.04031,-7.34487,7.41538,6.70401,-6.55805,6.53216,6.01921
2.4569,0.0259784,-8.76503,35.1354,4.8781,-10.4086,34.202,4.85119,-9.45866,34.6635,4.67639,-10.4117,34.1607,4.72602
20.6877,0.0822242,11.4752,11.048,-0.76676,12.7033,11.3653,-2.49518,13.1313,10.2063,-3.29535,12.7117,9.29037,-2.74459
1.58144,0.0194361,5.77002,7.36019,1.2214,5.41164,8.55593,1.40265,5.53136,8.54289,1.36469,5.25518,8.30731,1.44141
1.58253,0.556627,11.4481,30.6687,-1.22213,11.572,29.7648,-0.881193,11.5306,29.7791,-0.798293,11.6406,29.6,-1.11758
25.9935,2.03482,-3.3819,27.8238,2.94033,-0.288302,28.096,2.6908,-1.00521,29.0252,2.60245,0.421146,27.2018,2.75144
3.77087,0.387579,-13.7208,16.8287,3.70357,-14.5835,16.4641,3.58092,-14.5762,17.6494,3.39547,-14.7121,17.2906,3.48665
5.86686,0.821531,-1.03269,32.0024,2.9057,0.779755,32.4804,2.61509,1.21764,31.3224,2.74164,1.20943,31.7055,2.74244
6.1569,0.30672,0.479993,36.5257,3.67974,-1.53872,34.8755,3.81322,-1.97996,34.7148,4.1365,-1.9504,34.6989,4.04711
37.6612,0.832913,7.36569,0.90426,-6.86846,4.34261,1.94009,-5.57342,5.62306,3.39729,-6.25383,4.75765,3.3549,-6.04538
3.22996,0.57263,4.62643,15.3903,7.11182,6.57857,15.2132,7.30219,6.38353,15.5082,7.31918,6.36446,15.1755,7.35036
9.15599,0.398546,-2.11946,15.8753,6.52186,-2.15066,15.2276,7.18528,-2.35128,16.4947,6.70158,0.79362,16.3865,6.97177
190.091,1.27961,8.82165,0.562215,-6.15282,10.6239,2.55786,3.28431,13.6331,1.05071,-0.837564,14.7381,0.201161,-3.17925
1.80566,0.911085,-15.3842,8.85891,5.78503,-16.1043,9.76503,5.62126,-15.8093,9.93635,5.62124,-15.8721,9.79009,5.53014
0.268691,0.0843557,11.1533,21.4033,0.238662,11.2894,21.8804,0.0404061,11.2939,21.7449,-0.0154311,11.2468,21.5364,-0.0174429
3.28724,0.200439,-10.0962,7.92767,4.32389,-8.98298,7.7581,3.61777,-8.88108,7.39047,3.35447,-9.22059,7.66811,3.76522
11.4802,0.265581,11.4217,33.3991,0.168052,11.8833,32.6375,-0.785563,10.5728,34.4103,0.800549,10.6359,31.7934,0.185011
14.003,0.524417,-8.78948,18.2767,6.01834,-9.14972,18.8592,6.41783,-9.75781,16.5862,7.15807,-6.98947,18.2201,6.44784
13.7511,0.2779,6.92339,40.3731,2.32913,7.90015,39.9566,0.680441,8.51038,40.8724,0.564076,8.68118,40.305,-0.403239
1.27103,0.149303,14.5878,10.0987,-4.30681,15.072,10.7204,-4.13237,15.0144,10.9828,-4.16702,15.2338,10.7334,-4.10638
29.2791,1.04042,3.86311,25.8822,2.43832,1.12971,28.4854,2.46691,1.12748,28.3636,2.50684,3.50653,30.2335,2.07575
0.316506,0.110223,7.33915,3.51626,5.43923,7.4223,3.23263,5.39162,7.1485,3.12167,5.34309,7.2453,2.99866,5.26246
0.0566664,0.0388401,6.59072,25.0136,6.62569,6.73075,25.2492,6.55198,6.72811,25.3452,6.54778,6.65923,25.3889,6.55697
0.964637,0.0402781,12.8401,23.9013,-4.12341,12.3393,23.9824,-3.60216,12.9576,24.2275,-4.10232,12.2332,23.8689,-3.53202
1.29038,0.461143,-3.11769,6.53889,6.75318,-4.33696,6.5835,6.58007,-4.33684,6.47707,6.58677,-4.19359,6.68013,6.65677
1.57474,0.168018,4.35089,5.65834,5.7351,4.20303,6.24728,6.35853,4.24575,6.3445,6.36721,4.15448,5.32238,5.97751
10.5912,0.0841895,-15.0136,29.9192,2.50623,-13.1621,32.2406,2.05553,-13.3741,32.5397,1.94727,-13.8751,32.2053,2.00471
4.61488,0.301325,9.29957,13.6801,2.08006,8.89739,15.0897,2.34239,8.35608,14.0804,2.09424,8.49778,14.7266,2.29594
0.198744,0.128337,-12.3504,13.5725,3.4501,-12.169,13.966,3.53558,-12.2906,14.0003,3.55727,-12.0466,13.9395,3.51353
16.0845,0.404761,-3.88806,21.4519,3.22305,-7.50894,19.9833,2.8994,-5.91546,19.7166,2.7948,-6.91317,20.5357,3.1783
3.11603,0.169845,6.47984,5.42198,5.94383,5.26216,5.72602,5.95036,4.52362,5.76456,5.80272,4.50354,5.65277,5.76612
2.38032,0.0753878,6.32419,32.4964,1.83106,5.90244,33.2035,1.95151,6.73962,33.7851,1.94093,6.88164,33.0555,1.90633
3.35873,0.13296,11.7042,8.11875,5.42877,11.3941,7.94969,5.30286,13.4396,8.13935,5.05631,13.2851,7.93773,5.03928
12.2044,0.43617,-10.3278,8.94271,4.65208,-9.38091,11.0897,3.86756,-10.5543,7.437,4.24883,-11.394,6.98789,4.55325
3.86294,0.15537,2.21277,36.1072,2.77353,2.56818,36.7515,2.90863,1.73526,35.9416,2.74843,2.80332,36.2348,2.0953
42.7701,0.527325,-4.90414,9.40001,6.30057,-4.54613,12.0989,6.67091,-2.50994,11.2237,6.80735,-4.30263,7.98169,6.94388
2.36252,0.0530326,10.6223,4.65773,-4.42642,10.3315,4.72126,-3.25867,10.2366,4.68447,-3.42493,10.918,4.76321,-3.58105
22.1186,2.70527,-8.35612,13.2954,3.44083,-4.43449,14.8213,3.36689,-4.80978,16.6635,2.68979,-4.76152,12.9747,3.31102
1.98815,1.64108,5.97742,16.4811,7.31694,3.8926,16.863,7.25135,3.93089,16.7797,7.26722,3.81689,16.9975,7.27323
2.36334,0.139996,1.99714,16.1966,7.08293,2.61388,15.5513,7.35375,2.99962,15.4083,7.38157,2.08019,14.9705,7.47145
16.2921,0.0286187,-4.55086,1.56159,-1.3023,-2.01376,2.45681,-3.32135,-1.5592,1.65689,-2.9246,-4.02482,2.81267,-2.58571
4.55741,0.414419,-4.77912,33.0885,5.23707,-2.72394,34.4667,4.54185,-2.23272,34.6851,4.37086,-3.06611,34.3264,4.77214
0.126753,0.00715933,-0.627874,26.817,6.82956,-1.02931,26.6481,6.82268,-0.616227,26.9793,6.80754,-1.02804,26.5557,6.83143
12.4506,0.0596818,5.84135,28.1147,1.99702,7.59838,28.3544,1.78956,4.88363,27.7997,2.03571,4.39029,24.7867,2.37292
1.76516,0.183898,15.3917,6.7889,-1.98653,15.7901,6.43235,-1.69628,15.4454,6.98795,-2.29483,15.5136,6.21678,-1.88463
76.1358,0.565497,-0.0797915,19.839,7.15806,5.84208,23.0481,7.05977,3.61916,23.9752,7.12226,5.89846,21.4413,7.19778
15.3645,0.142428,-2.1914,9.69263,2.34388,-2.2882,11.2344,2.40829,-0.870536,10.4144,2.67201,-1.51946,11.1749,2.53523
6.81391,0.297473,-11.5573,15.2465,6.19394,-11.2269,14.7875,6.70113,-12.8683,15.2033,6.55142,-12.3388,14.292,6.92095
0.263298,0.356384,4.65023,24.9464,7.07142,4.68563,25.446,7.0142,4.81885,25.5601,6.97991,4.55315,25.3323,7.05132
59.8755,1.9535,2.25338,19.858,2.88125,-3.35544,23.764,3.09273,-4.05988,20.5058,3.07878,-3.34235,22.3726,3.17626
0.905426,0.18605,-6.86899,24.5342,3.39378,-7.21177,23.8993,3.18688,-7.2339,24.1503,3.16968,-6.95833,23.8769,3.22742
3.89201,0.0253886,14.001,37.134,1.90531,14.7716,40.6479,0.0340568,13.4344,38.8122,1.70735,13.7655,38.747,1.47794
2.44422,0.324448,-4.44668,6.68816,6.58998,-6.26249,6.75581,6.09157,-6.30526,6.85124,6.16553,-6.03701,6.63738,6.10184
8.81861,0.429106,-12.4606,29.7656,3.10575,-11.724,27.6816,3.53123,-11.9919,27.242,4.25963,-12.474,28.5015,3.57942
2.06553,0.290143,4.89108,4.33471,5.90942,6.10288,3.38163,5.76309,6.33441,3.44022,5.79384,5.61001,3.55446,5.84689
4.02374,0.301252,-6.08035,28.7306,4.87533,-6.08317,29.4345,5.92831,-5.23165,29.8634,4.57221,-5.17061,30.0492,4.56042
7.95247,0.416833,-14.942,21.1992,4.71719,-14.4135,22.3085,4.848,-16.1355,20.8741,4.79506,-15.438,20.7374,3.66927
0.319354,0.0519441,7.13667,25.8608,1.97646,6.59008,25.6329,1.93759,6.65992,25.586,1.95238,6.74271,25.8834,1.95568
1.63118,0.049709,-5.8639,13.0542,7.27374,-5.69583,12.8345,7.2307,-5.12551,13.723,7.35637,-5.01745,13.6227,7.30615
6.06069,0.00266692,2.19708,22.5643,7.13257,3.81386,24.8399,7.10273,3.34215,25.009,7.08711,2.27175,23.8945,7.09683
0.00808474,0.0020532,7.59273,29.1967,1.42767,7.47381,29.3204,1.39513,7.49928,29.2043,1.4382,7.59335,29.2753,1.39857
4.58811,0.987594,-2.08713,5.96732,5.87398,-1.03843,5.77948,6.38636,-2.18112,3.83928,6.11082,-1.91757,4.00339,6.02783
6.95618,0.600804,-15.6398,17.2447,5.28495,-15.8406,17.8386,5.01608,-16.8183,16.7536,5.1018,-15.5892,18.9886,6.09874
0.0897768,0.180191,9.38212,13.1784,7.22246,9.15258,13.3314,7.2797,9.1406,13.219,7.27625,9.17155,13.4655,7.28693
12.2512,0.179351,-5.6114,33.4991,4.30923,-6.81351,35.1768,4.29662,-5.26304,34.4102,4.08737,-7.40232,34.2082,4.80888
1.04562,0.287933,11.6988,16.0193,6.66216,11.7018,14.6181,6.84046,11.7522,14.3794,6.81122,11.9059,14.6313,6.80258
7.92471,1.18995,3.87321,6.95409,6.3888,2.01371,6.95843,5.74193,2.71653,8.235,7.00111,2.01625,7.1694,5.77815
0.71891,0.0103679,8.10245,32.8053,1.62299,7.59238,32.5988,1.64598,7.8774,32.1081,1.41257,7.75453,32.1197,1.43835
14.5427,0.0646629,-10.5269,2.70439,4.37054,-9.71984,2.6824,1.81205,-10.0567,3.49946,2.29502,-10.0722,1.92191,3.31601
0.0375807,0.00203485,-3.52685,29.4697,6.45519,-3.39866,29.5787,6.44772,-3.48664,29.6208,6.44774,-3.45809,29.4648,6.45225
1.23898,0.273665,-2.10597,1.82687,4.02144,-3.07329,1.93783,4.54849,-2.51783,1.78072,2.5993,-3.10539,1.91056,4.42907
2.16005,0.121979,-16.1383,20.7016,5.36342,-16.1909,18.9246,5.12425,-16.2921,19.1051,4.81237,-16.2343,18.8702,4.95308
21.7421,0.308322,9.04507,15.3389,2.32029,8.52699,18.6571,2.07642,8.08214,18.2928,2.07966,9.0605,18.7375,2.06674
1.42013,0.203774,16.0663,12.7949,2.87212,15.6931,14.5462,2.47761,15.6511,14.6389,2.68204,15.6706,14.5615,2.61671
2.69233,0.141052,7.99269,37.3782,4.52629,6.5181,38.9653,4.25222,6.51343,38.6009,4.37985,6.26059,39.1105,4.22423
2.29704,0.0764338,12.8643,8.58104,-3.58072,13.4669,8.8042,-4.4109,13.5859,9.43944,-3.95522,13.6614,9.41595,-4.09089
3.70895,0.0712843,4.63253,26.9393,6.72719,3.17997,28.1747,6.68409,3.30379,27.9065,6.71705,4.21565,28.228,6.63339
11.0041,0.0159593,11.4006,19.6573,0.60578,11.6657,18.9394,-0.98832,11.9867,19.0155,-2.43547,11.8905,19.4388,-1.72996
9.38582,0.245494,10.5357,5.04134,4.37817,12.8339,3.88442,4.35655,10.3556,5.38311,4.73167,11.4949,6.64248,5.14357
1.72941,0.0455264,8.8368,36.0769,1.06513,9.27711,36.014,0.79798,8.62214,36.4769,1.09132,8.93331,36.8946,0.607885
1.38335,0.368043,13.2627,32.0307,3.51558,13.2962,30.9489,3.63527,13.412,30.7831,3.62748,13.1299,30.9126,3.83597
1.34798,1.02322,14.0716,10.9274,5.23126,14.12,9.86685,4.80026,14.3296,10.0779,4.66871,14.1872,9.98141,4.71439
2.24242,0.0910703,-9.65395,3.34244,5.47379,-10.2669,3.74966,5.70408,-10.0851,3.71552,5.53439,-9.29449,2.43785,5.55307
7.45543,0.306472,9.27299,6.26767,5.07715,10.2743,5.27179,4.79935,8.93429,6.22512,5.5297,10.0782,7.53688,5.41209
118.351,0.212014,14.7531,24.2869,1.9978,15.2158,20.5346,-1.98969,15.3637,20.479,-3.55223,15.4572,22.4796,-3.78935
17.7719,0.387328,-15.6891,10.9257,4.02654,-15.8216,12.9491,3.67586,-12.4225,10.0992,4.18883,-13.6557,12.1138,3.61675
30.0934,2.04561,-16.1776,35.7058,2.38271,-16.6089,28.0071,3.67706,-15.3946,31.4185,2.11057,-16.0943,29.0649,3.19204
5.25643,0.0678979,-4.31469,29.2069,3.04579,-5.39026,28.1441,3.6518,-4.16458,30.4254,2.9505,-5.78039,28.22,3.93858
11.7585,0.0338136,3.33988,12.4383,7.26835,2.2388,14.0688,7.47775,3.75515,14.2914,7.35996,2.7159,14.9305,7.4804
6.41118,0.465433,-8.04279,19.8565,3.15111,-7.80819,18.2054,3.17565,-8.905,19.0297,3.06749,-7.78259,18.6717,3.01424
8.51885,0.110742,-15.652,14.6021,3.93007,-14.5844,12.6859,3.77059,-13.9267,15.3656,3.77527,-15.8939,13.7254,3.81854
0.827395,0.0250136,11.2099,40.8903,1.84395,10.8516,40.9925,1.71584,10.9888,41.1677,1.35424,10.6511,41.1663,1.37748
0.807251,0.0912249,-5.61037,25.424,3.59102,-5.10982,25.3036,3.29099,-5.36647,25.1825,3.35513,-5.25118,25.4138,3.48005
8.93688,0.105304,6.49919,11.5191,6.707,6.95987,8.61652,7.13795,7.74046,11.9315,7.15358,8.13644,12.2532,7.31255
1.0565,0.545977,-10.8877,33.5528,4.0363,-11.1661,33.0302,3.76548,-11.6115,33.0831,3.70076,-11.0173,33.0111,3.73209
42.6515,0.13983,-3.70182,28.9737,6.47358,-0.0478028,28.8723,6.5303,-0.514446,30.3638,6.36353,-0.926638,27.3015,6.74205
2.54352,0.320091,-10.195,33.6252,5.30454,-10.4572,33.9437,5.14178,-9.53282,33.9366,5.52928,-9.27804,33.9292,5.5944
5.12211,0.09331,15.8017,4.8924,-1.30646,15.4785,6.1677,-1.93339,15.6788,4.07965,-1.49358,16.3733,4.85546,-0.816084
4.24997,0.0769021,6.05792,15.8368,2.6357,6.29113,17.9247,2.26459,5.18172,14.9794,2.60218,5.72616,15.3312,2.60181
6.98844,0.342877,8.52331,8.0693,5.76589,8.25023,7.6247,6.10801,10.1099,8.03667,5.29594,8.49856,9.45842,6.99137
17.7194,0.209006,15.1119,19.0568,-1.06561,15.3669,17.0232,1.40999,15.3548,17.0179,1.55984,15.4285,19.8845,-3.5247
1.08034,0.0384892,13.4149,36.3918,-3.65536,13.2112,36.2568,-3.25799,13.0912,36.7929,-2.80071,13.0589,36.543,-2.77896
2.83559,0.145737,-9.0098,3.77518,-0.275936,-10.2222,4.74206,1.82284,-9.52092,3.90818,0.441703,-10.2718,5.01171,1.89852
5.10157,0.273982,13.4502,5.84359,3.905,11.3814,5.54989,4.62227,11.1525,5.79178,4.65351,11.9072,5.91258,4.49318
4.28546,0.506967,13.352,18.8504,4.87501,13.9529,18.832,4.42724,13.7833,19.491,5.38361,13.6897,17.949,5.72766
2.96513,0.0733874,5.22988,31.6002,5.68962,5.39352,29.8482,6.00023,5.81437,31.636,5.62558,4.77877,32.0277,5.8033
5.06214,0.105548,13.0932,34.4461,-3.53321,13.4477,34.2681,-4.65128,12.8816,35.9329,-2.66533,12.7079,35.3221,-2.5553
7.76183,0.073315,13.392,40.6175,-1.85095,15.8565,40.3851,-2.33728,14.4029,41.5595,-1.83051,14.759,39.81,-2.32802
7.03377,0.389259,-14.8555,33.5459,4.77982,-16.2843,33.1202,3.84733,-15.9021,31.6265,4.28402,-16.2196,31.9152,3.9425
1.41849,0.06655,1.97707,10.1764,7.13742,2.11265,9.53747,7.19994,2.46188,9.04781,7.22693,2.55317,9.23966,7.24472
1.70696,0.591398,-3.5168,15.4978,6.82254,-3.62824,13.9906,6.9939,-3.48525,13.9843,7.0151,-3.36917,14.2285,7.104
10.5335,0.161146,-6.57991,17.837,2.97022,-5.51509,18.6284,2.74084,-6.24046,19.1862,2.74713,-6.52933,15.9499,2.87589
3.96149,0.109786,15.9902,2.31707,-0.946247,15.779,2.7636,-1.4998,16.2445,1.57722,-0.657531,16.5707,2.8304,-0.426019
0.883418,0.00367287,15.3526,1.50251,-2.71987,15.8035,1.02873,-2.18178,15.6659,1.27453,-2.17633,15.7696,1.01802,-2.30276
6.94212,0.345298,-7.46277,21.7416,3.65379,-7.18386,23.7995,3.20794,-6.88074,21.6139,3.40573,-8.15199,20.4515,3.28012
9.24921,0.0722696,-15.0338,28.2322,5.0301,-14.2274,30.1763,5.66748,-14.7878,29.5215,5.23438,-15.4464,29.5829,4.80912
28.0392,0.188463,2.04415,16.7661,2.9539,0.749099,18.4892,2.82484,-1.17114,15.8382,2.94611,2.20167,19.0101,2.74245
7.4436,0.0415143,-13.7897,27.8343,3.95884,-14.5876,29.3532,2.6662,-14.0848,29.2786,2.84455,-15.2988,28.4139,3.20679
12.8775,0.580638,16.6527,38.923,-2.32862,16.0942,36.9241,-2.29165,15.4371,41.302,-1.36773,15.4734,36.6422,-0.942615
0.229892,0.00751821,13.5415,20.7371,5.69645,13.1942,20.6589,5.87087,13.0897,20.9228,5.90484,13.0801,20.7976,5.91629
0.490122,0.0383868,11.0948,29.1949,0.297371,11.234,29.3457,-0.0619559,11.3652,29.2092,-0.305289,11.3335,29.1163,-0.156514
3.23585,0.362349,11.5605,29.186,-0.777683,11.4044,28.2135,-0.200292,11.3803,27.2091,-0.645895,11.4889,28.0347,-0.439997
0,4.6591e-05,14.9401,19.0908,-4.10489,14.942,19.0926,-4.10561,14.9419,19.0906,-4.10533,14.8885,19.155,-4.10096
10.4409,0.144242,7.87596,22.7048,2.54267,6.18454,20.6911,2.68635,8.15169,21.6604,2.49435,7.73304,23.8885,2.27992
0.292933,0.15711,-5.0981,35.2405,3.83533,-5.51923,35.0351,4.06559,-5.63073,35.3834,4.00204,-5.52136,35.2447,3.9726
0.434696,0.0194988,-9.33694,23.5355,3.24595,-9.107,23.2635,3.23037,-9.12803,23.0121,3.24609,-9.25414,23.0203,3.25212
26.3568,0.0301248,9.54991,23.4063,6.46487,11.7124,31.1646,4.66152,11.0743,26.6051,5.49297,12.2584,30.2294,4.6079
0.961905,0.155883,11.5939,39.3204,-1.74945,12.3049,39.1458,-2.2147,11.6447,39.6114,-2.18961,11.5277,39.6385,-2.14618
0.948859,0.0716136,8.31244,14.5531,7.1931,7.82233,15.0404,6.96257,8.40653,14.7721,7.15951,7.68729,14.9184,7.0207
13.8004,0.561601,4.62331,19.0115,6.54886,5.13099,18.0275,7.04243,6.3203,18.9718,7.05359,4.19803,20.1023,7.18367
2.95867,0.334508,12.2052,17.4421,-2.11275,11.6222,17.1526,-1.71694,11.7383,15.8569,-1.81947,11.3863,17.3011,-1.67575
31.8364,0.044691,-0.614062,21.3417,7.11414,-0.409281,24.5747,7.05066,-2.9662,20.48,7.15549,-1.74341,24.2096,7.0445
3.21532,0.652205,11.1503,9.70134,-0.518843,10.9275,11.8603,0.235811,11.0144,11.6927,-0.0132696,10.859,11.5451,0.0868657
9.92416,0.281235,3.09346,30.8653,2.48686,2.54898,29.2354,2.10541,1.61647,32.6016,2.53138,2.8817,32.3562,2.3693
9.78536,0.107634,6.93759,37.0176,1.44447,6.86482,34.4735,1.90777,8.48309,36.1186,1.20018,8.24225,36.144,1.2707
6.41545,0.419589,-13.026,9.56989,4.25727,-10.1482,10.5776,4.10537,-12.8087,8.47643,4.21179,-10.1332,10.6921,4.07118
0.390341,0.0203433,-15.4422,27.2448,4.48906,-15.1664,27.271,4.05157,-14.9845,27.1922,4.46336,-15.5882,27.2464,4.42003
3.62974,0.174848,9.26589,10.3263,1.09318,10.5645,11.3706,0.21139,10.1557,11.5251,0.678487,10.4062,11.2737,0.357082
6.2527,0.0119622,-7.43001,34.3497,3.46357,-6.08268,34.9227,3.41062,-7.86116,35.0954,4.1566,-6.32845,35.3775,3.81792
37.8977,0.307364,-12.8734,8.07209,5.67984,-11.7194,12.3913,7.05451,-11.3849,7.71211,4.52788,-12.1743,7.54119,4.75934
20.9655,4.53873,14.5079,32.9852,1.25112,15.45,31.8077,-3.63167,15.3186,30.7637,-3.54912,15.4575,32.43,-3.73669
16.6203,0.150279,10.5385,19.3249,1.47953,7.86718,21.2177,2.57586,10.127,21.4235,1.71191,7.70147,20.8114,2.59574
1.19386,0.512123,13.025,29.3778,4.33327,13.3428,30.0456,3.79163,13.302,30.5002,3.81378,13.4543,29.9079,3.77019
2.84868,0.159607,-14.4926,20.324,6.62797,-15.3323,19.9511,6.47676,-14.6392,20.6561,6.68636,-14.4448,19.7874,6.91072
4.30194,0.22485,-9.99879,26.346,3.37497,-7.17287,27.7402,3.19416,-6.87375,27.4282,3.62257,-7.78819,27.5167,3.22232
5.38289,0.523124,-4.11255,13.2534,6.22855,-4.88342,12.3904,6.75783,-3.74448,14.0322,7.01691,-3.5266,12.6293,6.34655
1.38349,0.100501,13.9563,22.2384,-3.97071,14.6357,21.9823,-4.12523,13.725,22.3538,-4.06733,13.2461,21.4815,-3.74632
1.60207,0.0236259,13.0117,1.33571,-5.71982,12.0278,1.54422,-6.5115,12.0896,1.32737,-6.4422,12.2868,1.18243,-6.2787
4.2934,0.0801797,-14.9243,7.79832,3.89467,-14.5081,7.54288,4.01531,-15.4132,10.1544,4.03194,-15.6176,9.20837,3.95875
5.78134,0.507529,15.5166,10.0458,-0.590896,16.0042,10.8156,-0.722054,15.9135,10.1143,1.0018,16.1002,9.04511,-1.09765
3.45254,1.11428,6.9113,5.70759,5.62008,7.86502,4.15701,5.6803,7.20606,3.52086,5.41038,7.1086,3.52642,5.43976
3.89029,0.509187,7.63793,16.4675,2.49686,7.45088,17.967,2.19274,6.77666,15.8744,2.41417,7.37107,17.6613,2.26307
3.8827,0.374138,6.79078,21.26,7.16155,9.29543,23.5458,6.49782,8.72283,24.0909,6.48422,9.08925,23.9345,6.44697
0.55034,0.0873319,5.21924,3.86826,-4.9064,5.88788,3.85212,-5.13674,5.99155,3.84028,-5.2982,5.64347,3.78516,-5.26789
4.76167,0.383519,3.94635,15.4195,6.98648,4.67645,15.8729,7.32053,3.72234,16.1201,7.38323,4.24148,14.4955,7.35455
1.2291,0.496387,-15.8097,20.4077,3.40521,-16.4016,19.7856,3.79206,-16.3443,19.9147,3.89928,-16.413,19.9789,3.99865
0.313758,0.0137369,4.85833,38.6122,4.21808,4.31202,38.4118,4.27253,4.24935,38.4308,4.21348,4.7379,38.6885,4.07111
0.77123,0.000948773,-1.28612,14.8773,7.41954,-1.62983,15.2081,7.19066,-1.43262,15.4959,7.12493,-1.63031,15.4149,7.10547
4.00854,0.352396,-13.7849,27.5112,4.65838,-12.5842,26.9436,4.67934,-14.401,26.7845,5.07866,-14.29,27.3614,4.33198
0.894396,0.273682,-15.3811,7.53153,3.66292,-14.6947,7.26746,3.92698,-14.5881,7.13694,3.91518,-14.7273,7.37104,3.93772
6.54855,0.363831,-6.88114,15.9362,6.74782,-5.50409,15.8,7.12433,-7.09212,16.4607,7.01768,-7.19521,14.3933,7.4311
0.973337,0.100764,8.32524,38.6306,0.0777335,7.76949,38.8625,0.0389916,7.63845,38.7458,0.119668,7.38361,38.5446,0.258851
21.0871,0.197792,-13.19,25.2364,5.03259,-14.3912,23.1053,5.12897,-15.0492,23.999,5.77259,-14.6386,22.333,4.98494
1.58572,0.057856,0.306608,2.00699,3.92307,0.765252,2.03713,3.15442,0.918228,2.05319,3.24126,-0.073299,1.9071,3.74941
1.18914,0.297379,-4.06747,15.9478,7.05226,-5.36777,15.7959,7.1551,-4.80879,16.0152,7.19106,-5.22733,15.7913,7.18729
0.862821,0.0128466,-7.65595,32.7703,5.28292,-8.79976,33.6596,5.59078,-8.8006,33.764,5.54537,-8.47028,33.5966,5.41244
0.877113,0.00400406,10.808,21.0659,1.29125,10.7605,22.0724,1.17362,10.9496,21.2848,1.098,10.6271,21.851,1.35266
0.883917,0.0385333,-0.922883,30.338,2.91533,-0.311775,31.3142,2.88675,-0.433867,31.3261,2.91554,-0.500195,30.8118,2.85305
3.83567,0.133124,11.2864,41.1027,-1.06801,13.6229,41.2464,-1.69567,13.1484,40.8196,-1.71127,13.1802,41.4364,-1.45259
3.37663,0.320477,7.48364,12.9917,2.25179,8.80089,13.2841,2.14739,7.89909,12.294,2.05981,8.9759,13.7481,2.14205
9.5044,0.184335,-9.92323,14.8001,6.49746,-7.54497,14.5553,7.3351,-9.39986,14.5747,6.61114,-10.0481,13.4028,7.09991
3.52366,0.0848413,11.0992,12.7407,0.818392,11.3987,12.6248,-0.464122,11.2731,13.137,0.409813,10.927,12.0148,0.342152
0.0426404,2.28394e-05,10.4776,34.0297,4.52184,10.4067,33.9238,4.56289,10.2773,33.9267,4.60461,10.3938,34.0387,4.54763
2.42013,0.598626,-15.3721,19.7393,6.33171,-15.5257,19.0456,6.12214,-15.5573,19.2224,5.99678,-15.6987,18.9035,6.38739
4.18202,0.338019,4.24197,6.99724,6.14514,6.01733,7.49856,6.69659,4.46499,6.49519,6.33688,5.88891,7.55473,6.71345
0.2979,0.0253983,8.90237,32.1594,5.03728,9.08682,32.904,4.94612,8.97454,33.0413,4.96434,8.79377,32.3797,5.02577
124.312,0.792883,-8.18576,1.88098,2.33774,-0.504034,1.14883,-2.70193,0.0565962,1.88421,1.7809,-0.406439,1.89133,2.16173
2.71464,0.083407,-4.84492,32.2316,4.19628,-4.84908,31.0964,4.70082,-5.01099,30.3698,4.39707,-4.99962,30.9896,3.89616
0.857068,0.122535,4.47897,28.1936,1.92993,4.4364,29.3105,1.69136,4.66851,29.4158,1.64042,4.55283,29.5515,1.64545
0.523311,0.22616,-11.4345,18.8034,6.70669,-11.6515,19.0845,6.76095,-11.6358,19.2195,6.81321,-11.6515,18.9563,6.76547
68.9333,0.0304623,11.6725,21.4507,6.28988,13.5235,25.5761,4.73555,11.8457,26.4582,5.27056,13.2572,19.19,6.0117
1.56304,0.0705636,-5.78961,2.77913,-1.61905,-5.94148,2.6032,-1.40455,-6.38401,2.58184,-1.21618,-5.6724,1.9837,-1.26214
1.06282,0.000637369,13.5495,38.9027,1.57875,13.2223,39.442,1.63937,12.8983,39.6185,1.84086,12.9467,39.2982,1.92638
1.65417,0.0791171,8.2066,40.9459,1.32587,9.97441,41.112,1.50462,9.93412,41.137,1.36839,9.21111,41.047,1.56616
8.66008,0.5114,12.8002,14.8597,-2.53006,10.96,15.5712,-0.583408,11.0602,15.006,-0.468928,11.105,14.9316,-0.513013
2.19898,0.260919,6.68694,18.322,6.88993,6.78498,19.0745,7.01745,7.46589,17.5082,7.20677,7.50662,17.6378,7.18018
10.0466,0.166898,13.4298,3.21675,-4.39584,13.2715,1.77705,-5.44318,13.8197,1.27134,-5.1063,12.2101,4.12484,-5.00781
6.62954,0.503197,-11.1724,17.0843,6.02379,-10.494,17.7852,6.42879,-11.0761,17.9257,6.38166,-11.2119,15.6123,6.81087
5.98055,0.500265,15.8332,10.7366,0.856492,15.6194,9.37385,2.87205,16.1914,11.477,1.37191,15.6859,9.31291,2.684
6.78478,1.09555,10.8998,36.4665,0.300457,11.9686,35.5906,-0.968186,11.8861,36.2864,-0.589458,11.9644,35.8856,-0.684888
0.710902,0.0514905,11.8698,2.93479,3.95091,11.6791,2.62971,3.29912,11.7969,2.61458,3.23669,11.5802,2.66746,3.42019
11.079,0.0531444,13.0792,30.8428,-3.42507,15.3218,33.0119,-4.1684,14.6599,33.7618,-4.61403,15.0586,33.0278,-4.20699
0.693308,0.0480138,-10.3545,2.11515,4.57288,-10.1511,1.71898,4.56884,-10.3009,1.97716,5.13693,-10.1612,1.74367,4.74156
8.16249,0.363657,-6.12654,5.63625,6.01438,-5.99903,3.71019,6.13453,-3.75475,5.67107,6.6327,-3.63355,5.66234,6.64401
4.27476,0.356541,-1.87794,6.52942,5.8633,-2.97755,6.59751,6.76932,-2.07427,6.08705,5.84084,-0.893712,6.55333,6.4977
1.99625,0.16089,-4.94723,31.386,4.90824,-5.28444,31.867,5.4598,-4.6222,32.4801,4.44103,-4.68876,32.6046,4.63798
7.73497,0.448835,8.31377,5.17463,5.02036,9.45943,5.88826,5.10469,7.70073,5.30279,5.6558,9.04993,3.65735,5.39063
0.733898,0.0507582,9.24158,40.1966,-1.06647,10.1738,40.445,-1.30134,9.82786,40.2287,-1.34556,10.0457,40.5827,-1.13264
1.1779,0.160756,14.4061,20.4885,-3.92995,14.3088,19.3559,-3.86947,14.1312,19.8941,-3.74867,13.757,19.8054,-3.64417
0.517704,0.168334,-5.37035,33.2453,4.33144,-6.12176,32.9457,4.57692,-5.89507,32.7929,4.50019,-5.89982,32.6699,4.53036
2.98443,0.136698,10.5421,36.5473,0.389513,9.40059,35.9114,0.774209,9.53176,36.8326,0.40685,9.50066,35.9169,0.745503
0.318566,0.082429,-8.89738,11.5546,3.46432,-8.67359,12.0277,3.30392,-8.80717,11.7059,3.47259,-8.8574,11.9382,3.48683
4.59467,0.057482,14.8434,14.5845,-4.01451,14.1432,12.6244,-4.29066,13.8647,13.6434,-3.90441,14.4036,14.8966,-3.8082
12.5629,0.391645,-8.18252,29.6763,2.81674,-9.27937,32.3619,2.576,-8.76531,32.1224,2.64241,-9.69254,31.8925,2.67512
2.14239,0.115305,-6.99522,12.5155,6.65377,-6.28233,12.9531,7.17268,-6.21407,12.7666,7.05822,-6.40229,13.0361,7.2122
1.12589,0.0194768,9.71619,21.5193,6.78822,9.41747,20.9137,6.87755,9.59398,19.8921,6.94654,9.72134,19.8827,6.93818
2.04615,0.825384,15.8317,6.17508,2.86562,14.726,5.91285,3.23455,14.6427,6.28887,3.2744,14.6236,6.17554,3.24248
2.83667,0.138811,7.17717,39.4907,1.26593,6.35573,39.9176,2.67988,6.39087,40.0306,2.727,6.69202,40.1997,2.53485
1.50813,0.038263,7.84179,26.15,6.28112,8.64712,27.0918,6.02827,7.88835,27.0301,6.14809,8.00431,26.8946,6.14414
2.36865,0.156405,-6.04272,33.5206,2.82496,-4.97458,32.7727,2.95201,-5.24453,32.7843,2.90985,-5.4644,32.2619,2.72032
4.83628,0.256001,-7.07358,5.77579,5.78227,-7.32841,6.4298,6.34551,-7.20907,3.99978,5.83935,-6.84838,6.17143,6.02286
0.775089,0.12284,15.6251,9.23694,2.87609,15.3499,8.95415,3.39471,15.3724,8.86885,3.32826,15.6259,9.01272,3.01123
0.721814,0.0797351,-1.99531,3.93981,6.0037,-1.90104,2.74084,6.04139,-2.11889,2.6932,6.00332,-1.97181,2.78997,6.03218
4.27721,0.642623,0.577273,10.8158,2.56671,0.605951,9.33897,2.21837,-0.491184,10.38,2.68206,-0.845028,10.5492,2.6933
0.890266,0.391617,10.3431,30.7291,0.815541,10.0983,31.2313,0.725857,10.4062,31.302,0.461307,10.3331,31.3279,0.545622
1.74284,0.440243,6.31313,37.1912,1.48566,6.05911,37.9775,0.994584,6.29453,37.7926,1.16814,7.06248,37.2642,1.32298
0.518258,0.196143,-13.4046,11.5147,3.73874,-13.7977,11.0355,3.90221,-13.7878,11.4101,3.81306,-13.8134,11.167,3.88625
1.60562,0.0997976,-11.4602,14.0701,7.12849,-10.6321,13.9623,7.13248,-10.643,13.8364,7.13882,-11.3259,13.258,7.24504
8.99216,0.370659,-13.5024,29.4978,2.92983,-12.4646,30.4702,3.07184,-12.3457,31.4523,2.85651,-12.8372,31.7853,2.27246
0.124311,0.0239831,1.19962,29.6049,2.30039,1.27781,30.208,2.37538,1.13912,30.1289,2.37335,1.10922,29.9898,2.35142
14.9646,0.0448633,13.2936,14.6776,-3.1507,11.3859,12.405,-0.525905,12.3355,13.1903,-1.78096,11.494,13.1598,-0.697641
0,0.00125052,-4.63841,34.9639,3.4359,-4.56558,34.5177,3.22858,-4.51401,34.6551,3.29866,-4.53163,34.8443,3.38823
7.44545,0.21559,-9.8469,2.16949,2.45198,-9.25274,2.84967,0.0482217,-9.30299,1.97822,0.604202,-9.12114,2.5292,-0.120963
4.96436,0.456644,-9.72372,12.374,6.21353,-7.89765,12.4208,6.93409,-7.73217,12.2072,6.90759,-9.45587,13.2245,6.91178
2.07351,0.0277588,2.09803,7.98402,6.66982,1.84611,8.58996,7.02801,1.06971,8.58914,6.99964,1.25662,8.84787,7.17735
1.22964,0.0274028,11.3009,5.92269,-1.1015,10.8813,6.002,-0.769172,10.802,6.93489,-0.407729,10.9205,6.90232,-0.495437
0.92771,0.0503316,-14.8701,14.562,3.97343,-15.0523,14.0626,3.96377,-15.1815,14.0711,3.96498,-15.4262,14.3381,3.94812
12.2747,0.0329124,2.06357,32.6382,6.17807,5.84405,34.5441,5.52457,2.36822,34.1633,6.07897,4.84709,32.7844,5.77637
5.43216,0.111563,12.2132,17.5667,-2.13026,13.433,17.8557,-3.06574,12.6684,18.132,-2.62719,12.9902,18.2868,-2.95609
59.7775,1.84501,14.3432,29.0293,2.17198,15.1716,28.8451,-3.06591,15.2638,27.4361,-3.07145,15.4129,26.2606,-3.20492
1.91326,0.674793,13.6364,5.82103,-3.42745,12.4775,6.90187,-4.1792,12.5989,6.80385,-4.17615,12.466,6.68852,-4.13541
1.99228,0.0570062,11.7659,22.4138,-0.478339,12.0243,22.9069,-1.40239,12.0013,22.9983,-1.20407,11.8835,22.2861,-1.41048
7.41026,0.102131,-11.1863,19.0183,6.56976,-11.6766,20.8758,6.86007,-10.8538,21.5189,6.36831,-11.1058,22.3225,6.57189
0.594083,0.0837251,-12.2058,34.8647,4.34231,-11.8425,34.4878,4.53135,-11.767,34.4006,4.39148,-11.8716,34.4674,4.27927
0.123056,0.0384315,3.56311,18.5942,2.56358,3.712,18.8997,2.51728,3.50941,18.7552,2.5595,3.60033,18.9081,2.51621
0.774492,0.00131609,12.2209,34.2123,-1.59732,12.3733,35.1334,-1.77706,12.3963,35.058,-1.85054,12.3366,34.5578,-1.80853
2.89005,0.152888,-16.1527,14.8567,4.18551,-16.0485,15.7871,3.98238,-16.6572,14.8687,4.42914,-16.1019,17.0686,3.50718
8.25856,0.716942,8.54318,16.4138,6.19579,11.3765,16.1705,6.68278,8.38813,15.3935,7.03562,8.31601,17.2563,6.856
0.590267,0.191054,-5.12802,17.9826,6.83386,-4.46824,17.9391,6.94229,-4.21434,17.7971,6.89159,-4.32112,17.727,6.89463
0.127467,0.0112086,-11.2361,23.6181,6.61853,-11.3603,23.6252,6.69169,-11.3903,23.9734,6.67961,-11.2154,23.8693,6.60151
45.4727,0.22494,5.47704,5.61976,0.731552,-0.411155,7.67312,2.45935,3.82573,7.20192,1.91125,-0.433569,5.86658,1.53987
51.7039,0.030563,7.8534,37.0198,4.63423,9.25498,35.5188,4.57709,9.05258,33.2245,4.94285,6.15491,33.4307,5.53341
2.35332,0.262765,10.8799,31.4303,-0.228125,11.0928,30.1616,-0.0850756,11.2965,30.3461,-0.553111,11.0047,29.9402,0.114479
3.23184,0.134326,-12.7343,16.7301,3.59444,-12.7749,17.2847,3.4456,-13.6548,16.9941,3.69518,-12.628,16.1284,3.44864
3.60877,0.560761,3.90347,5.02034,5.97165,4.77958,4.24655,5.86761,4.64888,4.27824,5.85048,3.4508,3.90135,6.43081
5.38536,0.122572,-14.6426,35.933,2.39208,-14.6958,33.9773,1.63392,-15.4278,34.9759,1.94449,-13.6229,35.31,2.07753
2.44627,0.209997,11.0616,12.9502,0.88969,11.1289,13.7391,0.439414,10.8425,14.4055,1.10206,10.7991,14.4234,1.18832
2.19293,0.0668897,-5.22141,3.55656,6.25206,-5.12095,5.25074,6.31445,-5.3539,4.95645,6.24925,-5.32289,5.21257,6.27213
1.20608,0.0812415,12.2891,12.1086,-1.92646,11.7896,12.613,-1.28256,12.4607,12.6421,-2.1351,11.8557,12.6893,-1.34654
5.05021,0.151203,3.25561,33.6049,2.68811,3.42687,36.2721,1.78104,3.7611,34.0672,2.58106,3.67609,36.1299,1.79152
4.20914,0.118257,-13.855,12.4681,6.83745,-14.5314,11.7624,5.92751,-14.4753,11.9428,6.10143,-13.4912,11.3994,6.60608
2.07078,0.211208,14.8043,6.91268,-3.30366,14.8537,6.35086,-2.9813,15.2476,7.22612,-3.32126,14.8268,6.89735,-3.87833
3.42029,0.293152,10.5178,26.062,1.33241,10.3878,23.8894,1.23224,10.2395,23.1406,1.34001,10.3058,23.1697,1.31518
2.70422,0.261364,7.46606,19.3267,6.4733,7.21812,19.2136,6.79053,7.70111,19.968,6.63078,8.23937,18.6972,6.6906
0.992155,0.0385171,-3.78624,19.3089,2.93961,-3.6091,18.9225,2.90583,-3.69221,18.3947,2.82608,-3.24943,19.2268,2.93289
9.14078,0.841496,15.4378,15.1392,2.88586,13.8652,15.3241,5.48207,13.8925,15.4514,5.44841,13.6463,14.7806,5.9958
1.11733,0.14268,13.5,15.6598,5.83346,13.4848,15.955,6.1633,13.821,15.7663,5.65494,13.5742,15.3943,5.92092
2.1676,0.0932509,-14.5625,7.80275,5.92668,-15.2396,8.9735,5.78006,-14.46,7.43317,5.85998,-15.3843,8.73329,5.81867
8.72125,0.474419,2.75403,2.0264,-4.61163,1.09971,1.31482,-3.84252,1.15152,3.57233,-4.38727,1.14218,3.44251,-4.35131
1.66779,0.0165985,-5.42405,31.1299,2.8463,-6.54639,31.1355,2.81141,-6.39443,31.0287,2.81872,-6.57852,31.6427,2.78775
17.9808,0.0644296,-11.8285,22.8693,6.82168,-12.771,19.1728,6.938,-14.3181,20.9161,6.83603,-12.1566,19.0074,6.95159
3.3529,0.00602883,7.22357,3.76066,-7.0489,7.07913,2.69733,-6.94147,6.84481,3.7219,-6.82557,7.86842,3.41827,-7.43783
7.41127,0.371995,5.97763,32.7431,1.91261,3.9358,34.7675,2.33567,3.8134,34.7798,2.36304,3.89018,33.7996,2.57391
22.6116,0.509174,5.04278,38.4437,2.57865,1.61088,37.1454,4.11418,2.31175,37.7962,4.56627,3.73256,38.1489,4.06329
7.86007,0.428279,13.9511,19.2726,3.65148,14.7592,19.3042,2.56954,14.0762,18.6422,4.23245,14.3893,20.5895,4.74409
4.74267,0.29917,5.5514,17.5855,6.80992,5.24724,17.6416,7.07134,5.97273,18.4899,7.08665,6.5027,16.8211,7.2895
1.1528,0.337386,14.2098,9.93165,4.65654,14.3051,9.52915,4.34463,14.183,9.43511,4.39066,14.4374,9.53997,4.30935
8.62375,0.592377,14.8796,25.6158,0.156942,15.4339,25.1949,-3.52502,15.4106,25.7236,-3.40065,15.4203,25.848,-3.41838
7.30096,0.0126668,-4.65702,27.9013,6.56728,-4.28813,24.3688,7.00385,-4.68985,24.7689,6.94351,-3.23651,28.07,6.60914
2.91146,0.205008,9.53427,23.6002,1.50505,10.2711,22.2405,1.56807,10.2654,21.7862,1.63428,10.2,21.5396,1.66417
6.34496,0.132476,5.29304,5.16037,0.168979,7.83579,5.00887,-0.61114,7.02002,5.55203,0.407332,7.75346,5.64579,0.308228
3.07827,0.0115518,11.9314,22.9166,-3.20663,11.9144,22.4419,-2.09427,12.0096,23.1562,-1.42528,11.9347,22.4023,-1.44308
11.4355,0.603018,-11.2663,17.1522,3.19519,-10.8038,19.2244,2.72887,-9.60208,19.6875,2.9519,-8.69185,18.626,3.07598
8.25531,0.216611,-7.34748,3.47014,5.63313,-5.56372,3.04619,6.12906,-7.49689,4.02177,5.86336,-7.34081,2.41378,5.78653
1.29714,0.098314,10.9731,4.7761,-4.66913,10.2427,4.58573,-5.17953,10.6087,4.66642,-5.09872,10.7472,4.76698,-5.39596
3.88335,0.116836,-3.54501,12.5202,6.36949,-1.7783,11.3025,6.79815,-1.95945,11.5287,6.80261,-2.20778,12.3689,7.15097
1.39611,0.17139,-8.33594,21.811,3.21557,-9.11685,22.435,3.27297,-9.03211,22.6256,3.26169,-9.01261,22.8763,3.24006
0.209648,0.00451533,14.4216,39.4276,-2.4853,14.3946,39.2812,-2.53616,14.2344,39.1397,-2.60039,14.1143,39.1845,-2.59335
15.1581,0.172005,11.6963,8.20136,-0.966824,10.2669,10.7981,0.237841,11.8491,6.75018,-1.24734,12.6797,9.0495,-2.62854
5.57675,0.130461,14.4556,5.22866,3.22124,14.5533,3.5883,2.93883,14.1368,6.22554,3.35068,14.6547,3.44864,2.84117
21.3607,0.1376,6.23332,20.2796,2.67087,2.16076,20.701,2.94905,2.61572,20.9653,2.9141,2.35788,20.0534,2.90557
16.6685,0.0264793,-8.62454,21.5739,3.22233,-14.6942,21.1222,3.58545,-11.1207,21.1407,3.3182,-14.3763,21.5089,3.67013
6.87804,0.853561,-12.0619,30.4338,3.16935,-11.4084,32.9093,3.7337,-11.6854,32.9173,3.63386,-11.7876,33.5382,3.44849
1.51002,0.380967,13.4736,13.3233,-3.63854,13.0738,12.5303,-3.11085,13.0386,12.8572,-2.9802,12.9157,13.1032,-2.81095
40.7987,0.417849,7.02064,21.949,7.02415,9.43516,28.3796,5.74193,6.83113,26.2423,6.40687,10.2846,27.5643,5.60592
1.28178,0.202645,14.8685,24.9363,-3.8415,14.1205,25.6607,-3.49075,14.0276,24.0328,-4.20082,14.1849,25.3839,-3.5921
0.503458,0.045677,11.8968,36.852,-0.895562,11.6213,37.0528,-0.699774,11.858,37.1956,-1.18587,11.6332,36.9346,-0.629561
8.96018,0.583884,13.6823,8.32108,3.62846,14.0734,6.23811,3.43592,15.3449,8.78682,3.3367,14.2461,9.47287,4.32964
8.6696,0.0560668,9.06334,30.0919,1.21635,7.82058,31.4776,1.43546,7.28546,31.0203,1.56391,8.74999,29.3503,1.2382
8.73323,0.314477,6.72128,39.0765,1.38297,5.29817,39.4129,3.30883,5.07632,39.0796,3.23355,5.88592,39.8572,2.95681
7.88808,0.473099,-10.5633,7.42524,5.61147,-10.8254,7.0539,5.94952,-7.71393,7.47627,6.76898,-10.864,8.37498,6.32052
1.5584,0.222484,11.9093,6.03399,-1.17842,11.6258,6.07552,-1.12702,11.842,6.50085,-1.21022,11.8557,5.69144,-1.79912
21.8634,0.449285,13.6896,5.72504,-3.34216,14.8541,3.75408,-2.13088,15.7736,1.67248,-1.67615,15.3563,4.03421,-1.72643
2.2484,0.560726,-0.0134358,5.35077,6.07304,-0.0251277,3.22326,6.35206,-0.152536,3.23266,6.36027,0.0507902,3.47752,6.38238
0.515229,0.117857,13.6899,5.93016,3.75602,13.9541,6.11754,3.60648,13.9122,5.82116,3.6724,14.0523,5.91185,3.49354
5.66016,0.0687674,-10.8981,31.6568,3.16811,-8.9966,33.3407,2.96586,-9.58932,33.7131,3.59404,-9.74304,33.0661,3.31264
1.41988,0.275008,11.0371,38.9075,-0.936189,10.6044,38.9225,-0.843004,10.9579,39.2154,-1.37814,10.3844,38.7519,-0.730489
4.93162,0.153156,-10.7052,5.43304,3.4802,-10.5395,4.20073,3.24495,-11.0766,5.78089,4.0135,-10.4244,4.40652,2.61115
1.87386,0.0655178,-16.9222,14.8165,5.76236,-16.6113,16.5141,5.96251,-16.5438,15.9694,6.05995,-16.4292,16.499,6.17406
13.4391,0.141238,7.83665,4.3384,-4.26544,9.87709,4.84198,-1.73406,8.45448,4.77005,-1.65899,9.64734,4.85723,-1.59178
0.109402,0.0182808,-16.8446,8.0722,6.17504,-16.877,7.84657,6.07998,-16.9325,7.99926,6.05315,-16.9183,7.84052,6.0173
13.0108,0.588119,-3.49404,17.3197,6.18033,-1.58578,17.1273,6.81793,-3.39351,15.6208,6.76289,-4.0626,17.5082,6.75463
6.52152,0.3207,-7.37901,16.6446,3.66786,-7.22257,17.5313,3.30661,-7.77204,15.3977,3.37395,-7.90624,18.2149,3.17439
13.9443,0.216673,14.6141,16.6472,4.32481,14.9961,17.58,2.92429,14.1772,18.5531,4.03918,15.1707,16.7969,2.86935
0.0704386,0.0361411,4.63191,35.4211,1.72309,4.89882,35.7702,1.60775,5.01854,35.6364,1.61836,5.02585,35.7606,1.5981
40.7615,2.97607,8.41062,9.74243,7.10879,14.3846,12.0717,5.19444,12.2475,12.7657,6.29544,15.2734,11.9347,4.62373
3.12984,0.123033,-7.44172,1.55665,0.195191,-6.8145,1.67955,-0.387819,-6.43966,2.5302,-1.14205,-6.88997,2.48857,-0.869282
4.49382,0.0400592,-4.15246,15.1775,3.31013,-2.26506,14.7935,3.22615,-3.23059,16.0883,2.97755,-2.31071,15.0989,3.1448
4.98432,0.281638,-1.23522,8.37097,2.55769,-2.10695,8.12733,2.44983,-2.4831,8.81064,2.30532,-2.75649,7.01437,2.09468
0.247708,0.018214,6.16373,34.8268,1.83014,6.44344,35.0613,1.81296,6.43608,34.9371,1.83304,6.26652,35.0962,1.80578
8.80407,0.206746,4.4577,15.8172,2.89743,4.85313,18.3914,2.48532,2.65199,13.7892,2.91406,4.81561,15.026,2.73265
10.3837,0.851207,7.87969,5.3677,0.00204439,10.882,5.32281,-1.35793,10.5533,5.04947,-1.61443,11.4622,5.53036,-1.57327
14.5895,0.0833336,-2.09767,27.2425,6.75217,-4.21511,25.1192,6.93373,-3.60443,24.7061,6.99772,-4.235,25.9361,6.85941
0.951638,0.436181,-11.1231,14.9055,6.69831,-10.3604,14.9172,6.79262,-10.4652,15.0333,6.85001,-10.4862,14.8066,6.85569
9.95712,0.399299,14.492,19.4904,1.76098,14.7519,19.6716,2.2682,15.6433,14.6772,2.59699,15.0731,19.7164,0.907808
12.3488,0.534692,4.48313,11.3564,6.54719,6.09335,11.7311,7.13071,4.54146,8.12282,7.04445,4.17248,11.5249,7.07568
3.59923,0.246055,-9.67346,34.0217,3.83839,-7.71047,34.6346,3.79829,-7.50638,34.3535,3.4892,-7.78668,34.3459,3.60485
12.1654,0.759947,-13.1695,17.8894,6.04147,-14.1592,18.4548,6.88358,-13.2918,15.1596,6.43744,-12.2223,18.3575,6.87351
27.8312,0.0871796,-4.60913,12.8642,3.26886,0.556477,12.1866,2.81693,1.17532,14.2889,3.06908,-1.76025,12.7781,3.10101
3.49963,0.187441,3.73914,1.61462,-4.71654,4.48795,1.07163,-5.16584,2.89963,1.76023,-4.47854,4.3487,1.80112,-5.49277
5.83379,0.019877,-2.33712,33.3012,3.08047,-2.66899,32.58,3.11784,-4.60288,32.6971,4.47453,-4.61339,32.5004,4.42325
1.89876,0.323537,-10.7248,33.8535,5.1066,-11.0289,33.8607,4.39798,-11.4874,33.7449,4.1258,-11.4736,33.659,3.96787
16.903,1.43572,15.1321,29.7702,-2.84896,14.5059,30.7985,1.46551,14.173,29.7117,2.69535,14.2048,29.9988,2.49064
25.9476,1.99211,13.8494,1.77857,1.03999,12.2939,0.968098,-1.88819,11.6564,1.23954,-1.52953,10.387,1.5792,-0.978856
6.70048,0.790845,15.9526,7.21481,1.32686,15.7988,8.33048,2.82362,16.2623,6.00384,2.27253,15.4925,8.53936,3.2286
22.5793,0.110701,15.7802,38.3363,-2.88199,13.7704,37.0946,-3.66233,15.0792,35.6147,-4.46915,13.5201,38.4788,-2.83452
108.552,0.615341,2.5682,1.27326,-3.51072,0.783058,2.01747,2.10113,3.56361,2.27338,1.58956,2.74749,2.35293,4.56671
6.28588,0.0612151,3.23514,5.35161,6.59541,2.27813,4.76758,6.58281,1.72074,3.63368,6.41836,1.95045,3.475,6.33271
1.56927,0.636242,-3.63692,10.7649,6.65035,-3.66993,11.9287,6.57751,-3.94,11.7964,6.59279,-3.8231,11.782,6.5439
10.1119,0.157958,13.668,16.3134,-3.13022,13.6203,17.2056,-3.1532,14.2694,14.8133,-3.79054,15.0069,15.7253,-3.98492
1.12092,0.0126113,-15.0963,30.9417,5.23482,-15.5433,31.4102,4.72922,-15.5461,31.481,4.73985,-15.4182,31.0292,4.8256
2.43733,0.0606008,-12.2762,13.8041,7.03525,-12.6564,12.5312,6.89859,-12.653,12.7897,6.92595,-12.5005,12.2011,6.83727
13.231,0.227761,-3.24473,8.94619,2.07295,-6.12652,10.8348,2.34351,-4.81922,11.6218,2.5619,-3.26437,7.43361,2.08465
10.8507,0.151623,-6.98825,27.131,4.90645,-7.90165,26.4218,6.33508,-6.39441,28.4522,6.16114,-6.16229,28.5534,5.06765
3.72956,0.249922,-11.7842,6.99254,5.78641,-11.2083,6.10952,4.44283,-11.2495,6.15037,4.71221,-10.7607,3.30164,4.66896
50.6731,0.545604,-0.812066,5.68608,1.37003,-10.186,5.68365,2.47892,-7.71355,7.46001,3.05999,-6.52891,6.29882,2.52461
14.9187,0.49541,-6.13409,26.0026,4.1415,-5.94621,27.2306,3.90276,-5.51035,25.6422,3.6764,-6.37756,24.3993,3.26984
8.3928,0.646654,-3.13138,31.5229,2.98494,-1.17764,30.0275,2.91609,-1.14593,31.8905,2.92715,-0.52731,29.6896,2.66489
0.895067,0.0871836,-14.2476,8.16884,4.12419,-13.8354,8.58621,4.10914,-13.7365,8.51841,4.12599,-13.8629,7.37135,4.09883
1.82069,0.0141322,-6.53055,3.67768,-1.67739,-7.4029,3.95088,-1.09224,-7.21717,3.52046,-1.27151,-7.40949,3.81032,-1.11026
21.2397,1.82609,8.46536,23.8092,2.10123,9.08742,27.9813,1.63385,10.5311,27.0249,1.18346,8.84831,28.3893,1.55745
14.3605,0.866682,-0.991552,17.9715,6.17171,1.05652,17.0963,6.91516,-1.41142,18.6402,6.98453,1.80708,16.214,7.03059
6.73154,0.059097,12.7475,33.2698,3.78268,11.4786,34.0396,4.1437,10.8953,35.7766,3.9876,10.9628,35.9548,3.92543
2.88752,1.08496,-9.81844,27.7055,5.79421,-10.9035,27.428,5.41221,-10.6794,27.2399,5.2697,-10.6935,27.3213,5.24316
33.3181,0.533899,8.78417,10.6525,1.54972,9.95446,7.20173,0.24501,7.36533,9.61958,1.3891,7.64924,7.32154,1.07497
4.08141,0.303856,-6.45132,17.9058,6.27207,-5.22711,17.8989,6.79202,-6.86912,18.2074,6.4123,-7.04682,16.9392,6.94433
2.88329,1.47027,15.2792,15.9946,2.65615,14.6167,15.7822,4.45414,14.6398,16.2799,4.37002,14.6016,16.154,4.40146
2.54308,0.403072,1.15147,7.46446,5.71821,0.764787,8.36065,6.96412,0.551386,8.31135,6.95187,0.643439,8.37947,6.99316
3.59062,0.360303,1.49563,37.178,4.29494,0.446107,36.7525,5.16678,-0.058016,36.3624,4.53403,0.340001,36.5638,4.73714
3.36264,0.0869142,11.7712,26.2591,-0.33186,11.2131,26.9641,0.349561,11.6361,26.1952,0.00551533,11.7891,26.3903,-1.21229
7.45893,0.494638,1.95706,18.8016,6.54707,1.48239,18.9281,6.98524,3.2369,19.1149,7.21152,1.88066,16.8339,7.02844
17.0259,0.527654,-7.84551,7.38625,3.09334,-9.18646,11.3143,3.6183,-8.7118,10.6726,3.54333,-9.2322,9.40867,3.85168
11.2623,0.213048,-8.635,13.0526,3.40317,-11.3324,13.2364,3.42281,-11.5607,11.9863,3.49435,-9.54298,11.3587,3.67384
3.20232,0.150099,0.62416,23.7283,2.85696,0.791525,25.7391,2.72773,1.19193,27.2389,2.69381,0.744952,26.5111,2.75745
5.8575,0.688115,-6.58365,27.894,4.57368,-6.31082,27.2146,4.04217,-5.87779,28.2197,4.01085,-6.82218,27.5587,3.8243
0.471763,0.0201874,-0.88603,25.1218,6.97098,-1.00372,24.5431,7.03693,-1.24808,24.4307,7.03158,-1.25776,24.6829,7.00778
2.74195,0.152697,11.5498,20.1941,-0.963405,11.8146,20.978,-2.31702,12.1534,20.9956,-3.15173,12.1519,21.1192,-3.19507
9.34951,0.104575,5.41165,31.6618,1.63724,5.39484,30.5003,1.53078,6.79573,29.817,1.37101,7.20061,30.8531,1.55129
9.60584,0.36021,-13.124,18.9677,3.46844,-12.3962,17.7377,3.21294,-14.8097,19.6792,3.26792,-14.7744,18.5684,3.49484
18.9193,0.786681,-15.7143,12.2327,5.0229,-16.714,14.7158,5.13554,-16.5927,11.8542,4.5543,-16.8622,16.6502,5.22709
1.92755,0.0806812,-4.73233,9.8194,2.0956,-5.57835,9.26275,2.01605,-6.08021,9.26911,2.09304,-5.49831,8.95455,1.93566


