
2.69192,0.160773,5.91138,27.9494,8.12188,5.83219,27.2645,7.98147,5.9921,29.4189,7.92026,5.89337,29.3982,7.95259
4.39411,0.117151,20.7952,15.6737,-0.139434,20.9663,14.6414,-0.0988961,20.9316,15.6801,-0.830874,20.9788,14.6238,-0.50996
31.0023,0.294888,7.13272,3.86674,-3.122,7.38518,1.65998,-1.98162,8.11521,2.3609,-2.22648,8.57651,3.66869,-2.94142
6.04421,0.536422,6.46411,24.5584,-7.697,7.14177,23.7684,-8.13903,7.37694,25.6262,-8.00183,5.72235,24.4241,-8.40996
2.02743,0.156215,-4.54941,36.3796,-6.25933,-5.35087,36.1881,-5.98479,-3.70955,36.6121,-6.19186,-5.49379,36.0926,-5.93118
0.300957,0.0405543,2.99211,18.5476,-8.26118,3.40423,18.5329,-8.26529,3.34385,18.6705,-8.26864,3.40624,18.5772,-8.26445
2.64742,0.157405,-13.8188,37.3768,-5.07203,-14.0406,37.1751,-5.23698,-13.2439,37.1372,-5.49249,-13.5621,37.8399,-5.18106
25.7781,0.329607,1.01465,1.57598,5.36309,0.252616,0.667756,3.88848,2.25665,1.09239,5.08406,1.87846,0.470038,3.45268
8.34396,0.165133,-12.807,21.9119,-7.31692,-12.0046,23.3647,-7.63978,-12.4649,21.4723,-7.54733,-14.1327,21.9533,-7.23736
15.4012,0.00175814,-10.9361,19.4745,-7.8966,-10.9857,20.8665,-7.91125,-8.63888,19.9705,-8.38281,-11.8191,20.1292,-7.72624
0.0472285,0.0531011,-19.9254,26.3967,3.35917,-19.9266,26.3511,3.26824,-19.9846,26.4282,3.23136,-19.9879,26.3866,3.21631
20.5857,0.299891,-8.14274,29.637,7.15416,-9.13095,30.0353,7.007,-7.4391,27.6683,7.96991,-7.37671,31.0485,7.70343
6.25026,0.221576,15.7923,38.924,5.20337,15.3183,39.3311,5.62199,16.0658,38.1047,5.45816,17.0399,39.5277,4.72388
1.47423,0.137772,-15.3987,35.3127,-5.05496,-15.8122,34.7896,-5.75226,-15.4749,35.5049,-5.05179,-14.9706,35.5256,-5.06437
14.8891,0.0242585,-19.1846,19.1491,4.43826,-19.5216,17.1804,4.25168,-19.845,16.5563,3.91922,-19.9722,16.7389,3.74901
6.72663,0.949762,-3.32991,15.5307,7.20861,-3.22284,14.6472,7.71964,-0.976123,15.8064,7.79819,-0.767905,15.943,7.83006
23.2147,0.328037,7.38429,43.5628,3.18709,8.03726,43.4347,5.0725,9.80545,43.9571,3.28715,7.14961,44.0633,2.53421
1.54199,0.214798,-2.31127,0.495477,3.17872,-2.51452,0.656381,3.74378,-2.377,0.647479,3.70179,-1.701,0.457979,3.32684
7.16727,0.370572,-7.51099,7.15755,-4.10193,-8.46125,7.69805,-4.83751,-6.87228,7.36678,-4.36744,-7.46612,5.88436,-4.23611
79.11,0.133096,-7.56779,15.1975,6.8294,-8.21971,7.88728,7.15216,-6.61836,6.08564,7.43716,-7.59149,6.37292,7.29453
18.0723,0.424367,-12.9005,17.2282,-7.27366,-12.2191,16.6522,-7.31999,-13.0719,14.7628,-6.38221,-11.2506,17.5013,-7.64031
1.23875,0.0572968,-16.9493,33.1416,-5.54411,-17.5287,32.9619,-5.42146,-17.7461,33.0063,-5.33333,-16.9324,33.5109,-5.54978
7.99965,0.57801,-3.09577,35.269,-6.04764,-3.5495,35.1714,-6.80063,-2.22429,35.2166,-6.5299,-3.27031,37.2485,-5.95086
13.7694,0.0419587,-12.8706,26.9824,6.75095,-12.9533,28.2487,6.68798,-11.8301,26.3152,7.08091,-13.9869,26.45,6.57214
21.4065,0.656115,-9.657,7.99829,-4.679,-9.59261,9.34466,-5.46442,-8.27131,9.00268,-5.24472,-7.77751,8.22608,-5.1005
1.61399,0.160921,-12.778,15.7795,5.98976,-12.9835,15.3199,6.15204,-13.0678,16.2479,6.15466,-12.2647,15.7707,6.14518
1.93547,0.179722,-20.168,39.1689,1.17769,-19.9606,40.6687,1.09034,-19.9286,40.7303,1.08709,-20.3186,38.7874,1.41031
3.297,0.537476,16.0393,16.3301,-5.94221,17.376,16.4811,-5.48745,16.2286,17.0549,-6.18804,17.5648,16.3479,-5.30186
7.29628,0.234577,-11.2177,9.78905,-5.24295,-8.53996,9.3075,-5.52299,-8.4688,9.47079,-5.59226,-8.8617,9.67292,-5.63939
0.656372,0.0332249,-7.246,29.8865,8.00144,-7.45186,30.0469,7.85714,-6.96899,29.9918,8.09774,-7.10484,30.238,8.02221
0.185529,0.171036,-19.7663,38.4089,2.93931,-19.8143,38.2544,2.85637,-19.784,38.2229,2.91323,-19.7692,38.1894,2.97103
143.034,0.758116,-9.29686,33.2161,-6.92938,-13.6975,32.5034,-6.52004,-13.9305,33.7372,-6.34668,-14.1911,34.2397,-6.22853
4.35132,0.528045,0.160499,15.5297,7.90817,0.138322,13.2722,8.20606,0.00954233,13.482,8.14655,-0.136192,13.4688,8.17542
0.34226,0.0400031,3.7203,12.8787,8.35848,4.03583,12.6986,8.3736,4.03084,12.5925,8.3782,3.96357,12.5428,8.38696
49.9762,2.28702,18.5038,22.0468,4.85079,18.8396,27.2708,4.59614,19.54,25.4257,4.3982,18.8425,27.2345,4.56092
24.7823,0.00550072,8.71032,20.2274,7.91509,10.0393,18.6467,7.73032,8.07654,18.6675,7.99239,9.40654,18.0844,7.81417
62.3364,0.0271125,-14.7339,11.8937,-5.82417,-16.3452,13.3392,-5.71459,-18.3879,12.8545,-5.11781,-17.7052,11.1173,-4.9124
1.02127,0.0961079,-3.37067,40.1128,-5.00825,-3.43458,40.8491,-4.67102,-3.34843,40.9795,-4.60468,-3.27691,40.9321,-4.6429
11.2892,0.263446,-18.6541,23.3453,4.96266,-19.7006,22.0178,3.99799,-19.4215,21.9816,4.29547,-18.0653,22.7701,5.38564
3.10378,0.0665851,-3.3625,4.30242,-3.98593,-5.01136,4.37275,-3.69301,-4.81052,4.4102,-3.80044,-5.43843,4.36605,-3.55714
19.7067,0.742488,6.15345,5.57816,-3.36517,5.37611,3.69107,-3.29272,8.15914,5.31658,-3.81372,5.57155,6.27028,-4.66581
0.469582,0.00317492,0.134195,3.17062,6.84936,0.335961,3.00551,6.79396,-0.0550264,2.90199,6.72013,0.268647,2.96397,6.77072
6.16595,0.0479226,-16.245,29.5096,-6.46354,-16.09,28.1912,-6.66521,-16.5039,28.4203,-6.54593,-16.6763,28.7386,-6.4589
17.4495,0.191597,-16.4974,41.873,-1.30377,-15.6136,42.5506,-0.904669,-15.083,42.8679,-1.02233,-17.284,41.8048,-2.60712
5.76398,0.320409,13.8796,41.3395,-2.21029,13.2303,42.0347,-2.17898,14.9435,41.5081,-2.19322,13.2623,40.7519,-3.4192
1.5495,0.0704381,3.46119,43.9496,3.81323,4.15936,43.9373,4.09295,3.11604,44.0068,3.8973,3.30873,44.1084,3.49182
14.1067,0.390961,6.04775,43.9294,1.93685,8.40012,44.2171,2.43571,5.45094,43.9968,3.29223,5.68114,44.5948,0.862953
3.45038,0.479991,-13.4736,22.6428,6.49454,-11.7261,22.7398,6.90614,-11.9973,22.4917,6.9045,-13.1126,21.7877,6.67254
4.3267,0.00754293,0.756897,9.00133,-6.18892,0.644288,9.50229,-6.37612,0.395538,7.86147,-5.69459,-0.0902016,8.07783,-5.74946
8.8997,0.201173,-3.48203,37.3962,7.00846,-3.31873,37.9977,6.98221,-3.62421,36.1473,7.70999,-1.92569,37.3149,7.12097
59.2838,1.37599,11.4039,41.7833,-2.90271,14.2257,42.4374,-1.35059,15.1911,42.489,-1.40248,11.9698,43.2308,-0.848793
2.77275,0.426511,6.24456,3.99126,-3.34476,6.40097,2.52968,-2.35596,6.3943,2.50124,-2.32103,6.17684,2.60038,-2.37431
4.7626,0.189676,-14.2257,8.20729,5.5745,-14.4622,8.46248,5.65243,-14.6501,7.53332,5.7722,-11.3322,8.12459,6.71206
1.76761,0.774222,-8.36607,32.0062,7.29167,-8.9444,31.4457,7.08096,-8.69317,31.2759,7.27601,-8.75765,31.3296,7.19317
3.04955,0.156906,18.7584,30.5476,4.94274,18.6652,32.5322,4.51576,18.6211,32.5022,4.54313,18.9466,32.3115,4.40279
9.12432,0.696669,9.96351,33.2938,6.35458,11.4053,33.688,6.85305,9.28689,33.6381,7.1509,9.91868,30.8961,7.07989
0.576912,0.088071,-21.1898,29.3789,-0.696719,-21.1712,29.0215,-0.486835,-21.1364,29.3122,-0.48408,-21.1471,29.3479,-0.369433
25.6141,0.740639,19.6006,8.42061,-0.660123,20.4748,8.41269,0.91188,19.8919,10.5835,-1.38231,19.7311,10.9052,-2.72431
56.436,0.271542,-18.1282,26.1888,-5.7311,-18.1611,23.3642,-5.84733,-20.7505,25.4128,-3.12064,-19.2029,22.9292,-4.98051
4.31212,0.579832,-6.14506,43.0759,-2.23802,-7.42471,43.6418,-1.85963,-7.8824,42.9409,-2.72405,-7.88186,42.9179,-2.7599
14.2,0.820735,9.43052,16.8867,6.84441,8.84601,17.7802,7.77814,8.84844,15.5653,7.67552,13.0402,16.5642,7.2507
5.09213,0.325427,2.1117,38.582,6.9329,3.17212,39.4166,7.10731,1.61811,38.6356,7.27509,2.82872,37.0322,7.43473
6.61892,0.370703,-12.2294,24.0319,6.62813,-12.1458,23.0671,6.82352,-13.1334,23.31,6.56537,-13.4057,23.565,6.53912
0.0189963,0.050149,-4.96043,9.99394,7.22706,-4.9298,10.0599,7.2195,-4.90342,10.0517,7.26004,-4.89392,9.99359,7.23635
6.84334,0.236796,20.6397,22.8536,-0.0386033,21.0052,22.0762,0.396762,20.6394,22.6732,-1.07199,20.9585,23.6141,0.34653
19.4983,0.427143,2.02127,44.1475,1.0705,1.8058,44.0032,3.72253,2.23065,43.7485,4.59474,3.05341,44.5795,0.55377
0.892388,0.0552889,14.3193,37.3271,-4.6093,14.6813,37.574,-4.50531,14.6941,37.7519,-4.45984,14.9631,37.5664,-4.52059
28.3208,0.259232,-10.4921,24.1767,6.80512,-11.2068,26.0673,7.09784,-10.7772,26.4899,7.29475,-8.40458,23.9166,7.72887
0.722919,0.0386171,-20.0629,24.5812,3.14258,-20.0185,24.4368,3.30101,-20.1232,24.8934,3.09603,-20.1159,24.2777,3.15009
8.01936,0.0219301,0.829811,24.5353,-8.42681,1.40339,23.2736,-8.48245,0.450302,23.7778,-8.49925,1.18718,23.009,-8.50357
4.35373,0.281888,-6.07385,15.8544,-7.66176,-6.72056,15.3533,-7.84106,-4.30574,15.8695,-7.91172,-6.07943,16.3833,-8.08826
15.3609,0.575579,14.4372,4.72989,6.35084,14.3813,3.28366,6.44176,13.7853,4.87166,7.20709,15.3251,4.7232,6.75481
8.8421,0.19819,6.068,2.19479,6.48196,6.03907,1.41442,5.72169,6.49428,3.78592,7.0208,5.79683,3.63685,7.32394
19.7319,0.18835,-13.0996,10.7284,5.73679,-13.4508,12.2421,6.12326,-11.1022,11.4917,6.58539,-11.4918,10.661,6.33282
17.3908,0.445372,18.103,20.9367,-4.88651,18.5315,21.9021,-5.2063,18.3395,22.2046,-5.35257,18.4826,18.2037,-4.98249
13.6872,0.0490652,-16.0886,11.6017,5.57383,-13.5021,10.8666,6.00231,-13.6481,10.6917,5.96996,-15.7523,12.2864,5.7124
6.43848,0.0909551,-7.95193,33.9055,7.1192,-7.70849,35.6483,6.44137,-7.96475,33.2698,7.24937,-7.48256,35.6279,6.50391
2.37143,0.331149,-6.28746,9.03203,7.25509,-6.36831,8.52565,6.93662,-6.1523,8.30384,6.88023,-6.17813,8.49759,6.88608
5.8819,0.680904,5.1135,12.1072,7.1711,5.03746,10.8477,7.27632,6.61295,12.4326,8.11332,4.64999,12.216,7.99823
0.610752,0.435964,9.29214,20.1069,-8.33896,9.2451,20.6139,-8.30973,9.37329,20.5567,-8.29011,9.51455,20.5078,-8.30239
0.399041,0.0595959,10.1021,5.01296,7.49669,10.2525,4.85748,7.54081,9.95528,5.03932,7.55941,10.1651,5.08666,7.5639
6.67343,0.251421,-13.4824,8.06798,-4.2061,-11.9716,7.94942,-4.67181,-13.6991,8.38949,-4.45907,-14.0759,7.17586,-4.29221
21.0739,0.553762,5.40994,17.3502,-7.48971,5.80763,16.231,-7.8387,6.71909,18.915,-8.32793,3.17319,16.8246,-7.98482
7.58448,0.524675,13.9671,17.897,6.64393,15.0776,17.8556,6.89749,13.3838,18.1216,7.41606,13.6701,16.4607,6.91321
1.04554,0.0913169,17.9583,41.6501,-1.99926,17.7009,41.4747,-2.30484,18.042,41.8213,-1.96094,18.1268,41.5755,-2.1693
88.6713,0.000433642,11.5016,17.665,7.52797,8.85019,22.6623,7.85109,8.98968,22.8705,7.83021,12.0059,20.7013,7.43397
2.27231,0.0691949,-4.22126,23.0815,8.05773,-5.26187,23.0801,8.03692,-5.47255,23.0736,8.04602,-5.53101,22.9376,8.03043
5.50709,0.561855,0.206477,18.4451,7.61348,-0.514871,18.5675,8.38086,0.108757,17.6415,7.7791,1.30568,18.6451,8.35661
5.1365,0.0995574,15.5084,33.3607,5.84928,14.1775,33.1347,5.76028,15.5782,32.9243,6.07743,16.7066,33.5285,5.71498
137.795,0.14558,11.788,27.9866,-7.12189,8.96911,30.4039,-7.08761,5.37643,27.7161,-7.8336,7.89494,24.6613,-8.1484
57.1192,0.168734,10.8164,21.742,-7.96188,7.65876,22.5732,-8.31868,8.83293,21.0783,-8.21663,7.73807,21.3628,-8.28164
8.5172,0.726295,-5.00439,14.1348,7.72993,-3.80881,12.4908,7.7019,-3.67917,13.2366,7.79211,-3.61226,13.8413,7.88154
0.27206,0.0363568,-0.183495,21.4892,-8.34428,-0.188141,21.6355,-8.3758,-0.119008,21.5168,-8.38785,-0.297054,21.6297,-8.36283
1.32126,0.220256,12.7497,5.95262,7.28482,12.1384,7.07276,7.01639,11.9318,7.13538,6.9772,12.0008,7.07715,6.98737
7.00414,0.0853963,16.3682,43.5823,3.21288,15.3757,43.9302,2.39984,16.4733,43.8849,2.25242,16.2788,43.9485,2.03849
46.3324,0.97953,11.7627,0.407947,1.40607,12.7033,0.673421,4.58441,13.9063,0.403655,1.80054,11.7512,1.03411,5.5194
6.05188,0.26858,-4.46238,16.7539,-7.90461,-3.70089,17.6597,-8.5021,-4.16951,16.0033,-7.90569,-5.09822,16.5902,-8.1495
7.02288,0.0636857,18.761,14.6962,5.13098,19.2578,13.4489,5.1048,18.2068,15.5884,5.33033,17.9904,15.7846,5.65458
2.17171,0.181526,6.69306,13.8572,7.96686,8.07664,14.2914,7.912,7.43616,14.1437,8.01224,7.86615,14.1686,7.96116
5.38715,0.364196,-5.6272,14.2451,-7.01759,-6.143,13.5963,-7.19241,-3.78473,14.1382,-7.37306,-6.04315,14.9141,-7.60934
0.332208,0.136019,-7.15558,26.5453,-7.75469,-6.85183,26.4823,-7.97049,-6.97697,26.5235,-7.76991,-7.04201,26.6744,-7.7483
26.6898,1.52286,14.6807,16.8541,-6.53019,14.1067,14.1529,-5.78526,15.5116,14.1028,-5.53956,13.6001,13.3923,-6.09151
2.60428,0.118754,18.1902,30.2089,4.75445,18.8314,30.13,4.51834,17.347,30.3971,5.44541,17.3173,30.4653,5.49452
15.2644,0.116522,-12.5613,20.8083,-7.44597,-12.6759,18.7416,-7.51735,-11.2519,18.731,-7.8017,-12.11,18.5518,-7.62814
10.5193,0.606452,9.81033,39.6031,6.01579,9.37841,39.7741,6.66757,9.72841,36.4356,6.66473,11.2859,39.9263,6.4724
12.6374,0.707509,17.8563,13.2891,-3.52169,17.2251,13.2897,-4.90345,17.9375,15.7621,-4.38083,18.7761,13.0998,-3.70302
3.06974,0.108493,16.0622,32.38,6.07881,14.0174,32.0757,6.13704,14.0792,32.1329,6.13065,17.0702,32.3673,5.89212
9.91331,0.132879,17.3437,18.0793,5.96938,18.9643,19.1973,4.9653,19.5277,19.3082,4.60237,18.1545,16.1318,5.91361
1.00523,0.133968,10.261,17.4154,-7.67358,11.1866,17.7994,-7.72474,11.5525,18.012,-7.70711,11.5528,18.0663,-7.72394
2.7562,0.912224,-2.56775,8.87882,-6.02362,-2.10757,9.93296,-5.80493,-1.90301,9.88775,-5.80683,-1.97534,9.88586,-5.79078
8.16311,0.243739,20.2985,13.6167,-1.3076,19.9903,12.6347,-2.13174,20.8517,14.664,-1.59874,20.7077,13.5472,-0.713015
3.20176,0.165215,17.2512,29.9512,5.52124,17.2805,30.4365,5.52128,18.2445,30.0026,4.85517,17.3079,29.5414,5.87553
19.4298,0.0483479,15.476,11.8268,7.28432,15.3057,15.3102,6.76212,16.9613,14.7104,6.84312,15.2765,13.0658,7.13163
0.9198,0.08593,-18.8335,17.5033,-5.14703,-19.0206,17.6382,-5.09668,-18.978,17.1272,-5.07583,-18.7511,17.2158,-5.31775
11.5934,0.0123776,18.8402,32.9009,4.24311,20.67,31.7651,2.09616,20.1206,32.3891,2.87912,20.7413,31.5198,1.91742
1.06168,0.084923,10.7472,26.5451,-7.37961,10.9102,26.7726,-7.40605,10.4769,26.5324,-7.51767,10.8874,26.3225,-7.47143
9.58359,0.916228,0.959714,25.8986,7.21214,2.18975,26.0276,8.24653,-0.0494316,26.2294,8.4208,1.06134,24.6426,7.62496
13.531,0.764329,-7.41398,16.6005,6.50983,-5.70911,16.7704,7.71979,-8.21845,16.9594,7.3071,-7.48497,15.326,6.86879
0.0413847,0.0204054,11.3416,5.0287,7.49408,11.4195,5.17095,7.50033,11.4736,5.11296,7.46184,11.4722,5.14378,7.47381
0.637293,0.306537,-11.9338,4.1584,-1.47142,-11.5829,4.05633,-1.65969,-11.3458,3.73721,-1.62369,-11.4585,3.93224,-1.61325
17.4096,0.822027,7.00017,3.89003,6.68408,8.25068,2.96164,6.7351,9.34746,3.44557,7.27123,6.32134,2.98042,6.90819
1.72876,0.341916,14.0332,14.7245,-6.15313,13.4897,15.1544,-6.6094,13.5144,15.5917,-6.74283,13.5065,15.5461,-6.73888
4.69018,0.1049,14.4084,2.32143,-0.815909,15.056,1.31561,-0.210728,15.4863,2.93496,-1.43308,14.7211,1.2819,-0.177084
10.5397,0.248917,-10.394,10.9602,6.22375,-8.45489,11.5095,6.99361,-11.0918,11.2183,6.41793,-10.5173,9.93553,6.20063
1.51733,0.238488,5.35916,38.9387,6.99341,5.49823,39.7182,7.04655,5.63034,39.4516,6.9782,5.8518,39.4775,7.0348
66.22,0.866006,4.88474,26.502,7.05421,4.28995,27.7935,8.33298,3.37419,23.6229,8.1202,6.62778,26.3875,7.37699
4.18901,0.18087,14.1629,2.10652,6.21468,14.2978,3.10707,6.39631,14.4479,3.13872,6.44268,13.9662,1.24338,5.67382
1.03213,0.430798,10.5215,34.8586,-5.54817,10.3031,34.1396,-6.23612,10.4492,34.2589,-6.16041,10.2372,34.1475,-6.25778
0.0819115,0.00623541,-19.6979,33.5048,3.36507,-19.625,33.7273,3.51093,-19.6446,33.7572,3.44694,-19.6439,33.5812,3.50724
0.00012283,0.00408042,17.5787,23.089,6.32177,17.5704,23.1869,6.30627,17.6448,22.9476,6.31362,17.5065,23.1805,6.33056
5.4022,0.269486,18.4532,29.2719,4.37239,18.6721,28.9777,4.61964,19.7695,30.2874,3.25413,18.4307,29.6506,4.67058
3.40027,0.100535,-9.00411,12.9253,-6.93507,-10.0953,13.6487,-6.51758,-8.97833,13.2589,-6.97692,-9.99157,12.7913,-6.74498
27.3949,0.310229,-8.4757,3.4891,6.07034,-7.36854,3.4887,6.68658,-8.76159,2.34919,5.4914,-6.99322,1.96695,5.51861
3.96131,0.268155,11.3222,43.223,-0.560993,11.0747,44.0647,-0.348459,11.2115,43.0643,-1.10087,11.911,43.4437,-0.493798
3.39092,0.19927,-5.69538,4.47844,-3.54046,-5.97275,3.62813,-3.52846,-5.35823,4.47922,-3.62843,-6.12781,4.79345,-4.09602
2.25332,0.282698,-19.499,30.7268,3.84127,-19.3435,31.3377,3.9571,-19.3409,30.9145,4.05133,-19.3991,31.5283,3.93265
19.2053,0.872818,10.6309,26.7256,6.41246,9.68724,26.8888,7.55158,10.8677,25.1108,6.8598,12.305,27.0997,7.1119
8.99764,1.15319,20.3109,8.31295,2.7601,19.4412,9.17164,4.66052,19.2254,8.63805,5.05112,19.3005,8.82892,4.74012
11.2009,0.0324678,20.6109,8.97747,0.16742,20.8156,10.4336,-0.310857,20.306,8.47653,2.75452,20.7843,10.7361,0.172728
8.89097,0.123476,-20.313,4.43135,2.26574,-20.3033,3.23696,2.36792,-20.3828,5.08297,2.91565,-20.6223,4.23607,1.17223
160.06,1.51102,1.4372,44.2747,2.90885,-1.71612,44.232,2.09569,-2.14043,44.8347,0.48896,-2.60934,44.1086,4.21883
0.701764,0.232642,1.62887,38.9751,7.28784,1.04596,39.5711,7.24469,1.07776,39.6611,7.2047,1.07131,39.7564,7.1877
30.9498,0.419074,10.1963,18.4617,-8.13957,7.55623,20.674,-8.25989,6.86206,17.5931,-8.22155,8.03744,18.8143,-8.331
11.1994,0.0848137,19.4127,17.7802,3.75309,20.5195,18.7058,2.4958,20.2587,15.8791,3.30446,20.3445,18.3856,2.74675
9.16515,0.428277,12.2854,25.0822,-7.28554,15.1537,23.6932,-6.85003,14.9287,23.6125,-6.86682,14.1659,23.8308,-6.88127
2.77642,0.753621,-2.40834,8.78669,7.48728,-1.34945,8.39553,7.63303,-1.43158,8.91889,7.66768,-1.42468,8.69917,7.60759
3.88361,0.219364,3.69298,10.5434,7.51909,4.60549,11.1652,7.69686,3.17303,10.098,7.02987,4.48097,10.6744,7.70152
0.0335243,0.0370179,-1.9647,20.7599,8.66511,-2.11308,20.8332,8.67785,-2.11351,20.8843,8.68271,-2.00869,20.8496,8.64788
1.39862,0.174987,13.6124,14.8696,7.09662,13.7413,13.7562,7.30975,13.6682,13.7566,7.30345,13.5958,14.0109,7.29119
20.0016,0.260257,-11.779,40.2144,-4.22489,-11.5093,38.2037,-4.70434,-10.7404,38.307,-5.37265,-11.6824,41.6529,-3.52749
2.61764,0.392551,13.6968,0.846305,3.55431,14.1731,0.547506,4.14605,13.4405,0.511461,3.72984,13.7119,0.343106,3.2074
1.69424,0.0758439,-3.61374,5.37039,-4.59782,-3.87752,5.69287,-4.82978,-3.6347,5.20097,-4.58981,-3.44575,5.7336,-4.90236
15.8597,0.169118,10.9043,9.1197,-4.95146,12.3172,9.095,-4.87011,10.0856,8.2284,-4.89743,10.4841,10.0945,-5.64248
1.47805,0.403253,4.13184,7.99141,7.44297,4.89891,6.86304,7.48698,4.54508,8.08115,7.59835,4.89901,6.80844,7.49661
32.5096,0.00148382,3.07138,1.48845,-1.2088,2.59412,3.27261,-2.97055,4.31698,2.14788,-1.74953,3.50111,3.03264,-2.66865
2.11718,0.0666596,-20.2827,12.2505,3.22915,-20.4711,12.1265,3.02145,-20.109,12.0891,3.75558,-20.1258,11.8219,3.76681
9.0425,0.133484,13.5885,13.5937,7.34126,13.5839,11.6369,7.59363,13.2581,12.0464,7.4058,12.7625,11.5963,7.17756
8.72064,0.00328191,-0.838855,32.7761,-7.25657,-0.818844,33.2248,-7.18493,-2.40864,33.6083,-7.14976,-2.51464,32.7589,-7.2929
31.869,1.63343,-3.24543,14.2751,-6.96945,-0.747555,15.6158,-7.80886,-0.0569053,14.2161,-7.66321,-0.249771,14.4511,-7.60867
0.14424,0.00959823,-12.8206,30.5872,-6.4183,-12.9807,30.5903,-6.37863,-12.8565,30.7375,-6.4176,-12.7956,30.7307,-6.42837
0.330773,0.16164,-18.069,12.332,-5.11805,-18.3682,12.2254,-4.95294,-18.404,12.076,-4.87523,-18.4047,12.0071,-4.86222
3.71095,0.0393395,-12.816,30.5625,6.25977,-12.1299,30.6462,6.75897,-12.7555,31.42,6.20513,-12.6037,31.4246,6.32761
0.206983,0.0574053,-9.20885,26.5698,-7.4145,-9.15003,26.7167,-7.40164,-9.21127,26.7234,-7.40384,-8.95475,26.5854,-7.44841
10.3855,0.693293,-3.16052,9.37443,6.96768,-2.73313,6.08592,7.53706,-3.26833,5.98811,7.27149,-3.34478,5.99884,7.2366
9.31379,0.241209,-19.1537,23.4321,4.64828,-19.6437,22.4126,4.13495,-19.946,23.1106,3.4681,-19.8778,22.7937,3.61708
30.7166,0.166092,-4.81805,19.1262,8.24432,-7.83043,21.2508,7.87993,-7.26862,21.9944,7.99408,-6.56197,18.77,7.85506
7.96746,0.286521,20.7177,35.4641,1.1931,20.9967,35.5348,-1.74192,20.9097,35.7014,-0.915345,20.9356,35.6483,-1.83969
48.7391,0.484304,13.0261,39.0044,-3.70907,15.0445,34.1139,-5.53909,12.7554,35.2513,-5.42186,14.612,39.253,-3.9758
30.408,0.0843362,-6.2395,0.485248,3.01027,-4.99781,0.512913,3.16949,-7.2426,1.07388,4.58104,-5.1014,1.33744,4.97733
0.2156,0.0139059,-7.78861,25.1681,-7.83335,-7.66832,25.1216,-7.83924,-7.78134,25.3241,-7.82922,-7.72631,25.328,-7.8398
1.89979,0.48806,-11.3302,38.1204,-4.88158,-11.4337,37.1722,-5.28928,-11.3479,37.1215,-5.30115,-11.2553,37.3059,-5.33184
4.34948,0.687628,19.5764,22.7004,-3.8423,18.8265,23.6111,-5.27494,20.8155,23.4024,-3.04336,18.6842,23.5571,-5.48285
5.01502,0.735109,-9.40279,31.0748,6.31874,-9.01409,31.414,7.02201,-9.04197,30.236,7.01418,-10.4748,31.0391,7.16338
3.35739,0.395186,13.0097,24.2434,6.35435,13.6482,24.0149,6.47219,12.6607,23.4985,7.11682,12.9305,24.716,6.79898
2.09949,0.209712,18.0948,39.4546,-3.18682,17.916,38.3808,-3.36944,17.7739,38.2486,-3.38439,17.8381,38.6794,-3.39755
2.73769,0.397188,20.4454,21.3903,-3.20278,20.1692,21.1242,-4.05469,20.2214,21.3087,-4.01376,20.211,21.0441,-4.00399
5.53142,0.187535,-2.51627,21.6481,-8.61379,-2.4632,20.0828,-8.63489,-2.59835,20.0911,-8.6514,-2.11711,19.8362,-8.62412
8.88802,0.105446,15.8229,2.58323,6.28217,15.4577,4.65752,6.69492,15.8346,1.84958,6.05009,15.8178,4.5033,6.34139
3.4231,0.0283232,-12.7763,8.84957,-4.60849,-12.6484,8.32999,-4.54571,-11.5737,9.57465,-5.2607,-11.573,9.62435,-5.26971
7.08403,0.123222,-4.80159,8.85616,-5.77694,-6.925,9.24436,-5.75824,-7.13079,9.34007,-5.78376,-6.65781,8.93897,-5.67836
11.9907,0.39051,-12.1925,15.731,6.17137,-9.72247,15.4372,6.90911,-8.82448,16.0367,7.15096,-8.33387,15.3705,7.1152
0.0261865,0.0974769,-4.04127,34.1058,8.05647,-4.01299,34.2054,8.01193,-3.9758,34.2076,8.0637,-4.02548,34.2045,8.04287
33.9257,0.622441,18.7631,3.60263,0.752063,17.6677,4.04089,-1.50396,17.9434,2.30074,-0.501928,19.9475,5.75552,0.167326
11.6113,0.460525,-18.4697,33.0637,4.53819,-17.4353,32.523,5.31114,-17.5974,31.7654,5.26941,-17.1204,32.8586,5.39816
28.6574,1.03111,-11.9342,3.86032,-1.40576,-12.6679,6.85118,-4.34515,-13.2414,2.64895,-1.73683,-10.2458,2.85904,-2.19957
0.045382,0.0100093,-10.4433,40.1953,6.15434,-10.5823,40.2515,6.11699,-10.444,40.2963,6.1355,-10.5015,40.3189,6.11581
10.4878,1.95298,20.4377,21.2828,-3.25129,20.6291,22.1985,-0.901514,20.9731,21.8999,-0.532255,20.6349,22.6548,-1.06723
16.6802,0.511463,-5.97013,35.5043,-5.57556,-4.58411,35.4109,-6.85952,-6.18977,36.8455,-5.52441,-4.67341,36.9715,-6.177
26.4365,0.600799,-1.50657,6.12267,-4.37841,-1.84148,8.4032,-5.59375,-1.90833,5.14405,-4.56473,-1.27357,9.22658,-6.18216
3.10799,0.32847,10.8129,4.27943,6.79042,12.3299,4.20953,6.99978,10.5244,3.70201,6.87661,10.5849,4.6707,7.39587
0.701431,0.0845442,12.4547,44.3049,1.58569,12.0497,44.2609,1.47525,12.0351,44.2829,1.28054,12.1071,44.2779,1.27849
31.2434,0.234473,-13.9118,8.8308,5.70637,-11.3459,10.2972,6.3883,-13.6308,10.4772,5.87881,-11.0605,8.86617,6.5624
0.19158,0.112314,-1.20846,4.82445,7.57181,-1.68653,4.74529,7.51327,-1.68459,4.79513,7.51668,-1.76777,4.83715,7.53033
0.616597,0.0903364,-15.2424,27.4475,-6.57734,-15.0663,27.376,-6.66742,-14.8559,27.6619,-6.85091,-15.0631,27.529,-6.6313
11.0944,0.598321,11.6661,22.3066,-7.10979,11.4027,20.9198,-7.91207,11.0777,22.9025,-7.79924,15.9096,23.5857,-6.67078
1.48336,0.00097779,1.79282,18.306,8.36337,2.28742,17.4074,8.29006,2.42451,17.5,8.30751,2.48954,18.0123,8.36794
7.5509,0.434076,13.3326,16.5844,-6.5154,14.8441,17.3512,-6.47642,12.6896,17.1239,-7.36843,13.5183,15.637,-6.74633
2.4751,0.213791,-5.39453,41.7562,-3.30616,-5.89986,41.4061,-4.3228,-5.89198,41.4826,-4.20912,-4.83009,42.002,-3.19156
5.36761,0.0703706,20.5505,37.368,2.03583,20.5359,37.8469,1.95163,20.8771,37.3307,0.748909,20.7192,36.5679,2.44534
3.66214,0.0187452,-11.0878,42.9858,5.04224,-11.6523,43.4253,4.36121,-10.5506,43.6912,4.17479,-10.8202,43.5322,4.3524
5.55436,0.464339,-7.90378,35.9695,-5.68439,-8.29566,35.3576,-6.71119,-8.18684,36.7578,-5.86955,-6.34833,35.9662,-5.76837
1.5725,0.0262043,-18.3557,26.5875,5.31198,-18.4894,26.5427,5.19537,-19.1611,26.911,4.49266,-19.1476,26.7571,4.48665
0.514229,0.0704209,13.6679,33.9944,6.05858,13.7578,34.7526,6.04737,13.6808,34.7562,6.03341,13.7514,34.4888,6.08071
6.46482,0.598484,12.0082,20.7526,7.4362,11.3998,23.5768,7.01608,11.3207,23.5117,7.05892,11.9375,22.5028,7.36796
6.3694,0.381665,20.1502,25.4242,-3.23948,20.0562,27.3135,-3.78163,20.9385,25.3442,-2.7905,20.4601,24.859,-3.54248
8.8674,0.0879517,13.5959,31.1317,6.15793,13.5749,28.8718,6.68617,13.6531,28.8676,6.68958,16.8367,31.4246,6.08078
62.4326,0.569256,-2.29015,30.96,8.40207,-3.9087,33.8033,8.08675,-3.83037,34.5967,7.97879,-5.16945,32.4453,7.95929
2.61673,0.180795,-16.5376,39.3205,-3.67297,-16.1773,39.2275,-3.78951,-16.4725,38.9342,-3.9082,-16.9667,40.2799,-3.80906
2.9451,1.255,5.10555,6.01088,7.55919,5.1758,4.69578,7.57114,4.82569,4.58384,7.58221,5.38593,4.77369,7.62234
11.6575,0.675203,20.6133,18.7513,-2.27741,20.6971,18.0795,-1.18416,21.0082,18.2265,0.311456,20.9251,18.1736,-0.844264
1.58665,0.00114482,17.921,40.181,3.7455,17.6346,40.4074,3.76696,17.5365,40.0006,4.24924,18.1398,39.8123,3.91756
1.20805,0.0343381,1.41671,43.2209,5.40553,0.803685,42.7361,5.97961,0.806147,42.5665,6.15345,1.01719,43.0046,5.65993
39.8573,1.19036,6.48966,35.6975,-4.79475,8.44974,34.8098,-6.18755,5.40234,35.6795,-6.2143,7.41033,39.1011,-4.65725
56.5229,1.7963,-1.4264,23.9448,-8.4887,-3.9756,19.1793,-8.67085,-4.02991,19.4567,-8.65474,-4.50915,21.0037,-8.66615
7.422,0.0777884,1.79469,20.1697,-7.96549,4.10313,21.3193,-8.23925,2.86291,20.6493,-8.06144,2.55521,19.8943,-8.17724
4.91571,0.0392862,-2.72876,34.5567,-6.92591,-2.40647,33.7427,-7.11581,-2.47571,33.6149,-7.15621,-1.71467,33.4906,-7.16698
14.7845,0.00588635,2.82436,26.7959,8.32005,3.17073,29.5691,8.08711,4.01817,26.7499,8.21601,1.98633,26.7525,8.40879
4.19194,0.420349,4.43906,2.09289,-1.72582,5.52367,3.53065,-3.21129,5.88525,1.93094,-1.98863,5.95613,1.98157,-2.01924
1.5831,0.00203987,18.1994,17.8314,-4.93494,18.2408,18.7055,-5.16,18.1193,18.3006,-5.19266,18.1388,18.7361,-5.30793
2.68766,0.0151131,-1.9461,33.306,8.13634,-2.1588,33.1296,8.20173,-1.87615,34.7293,7.68332,-1.77671,34.7355,7.68549
5.60463,0.109858,-17.4393,36.2252,5.01983,-17.0898,35.3859,5.27386,-18.1501,36.475,4.74233,-18.5619,36.1766,4.46039
26.8024,0.697049,-7.60985,32.7776,6.77854,-6.88664,31.0269,7.86784,-5.68183,34.6238,7.73415,-8.72323,32.5051,7.27135
6.23598,0.251896,-4.46503,41.225,-3.83948,-3.47764,41.3943,-4.18858,-4.72074,42.5982,-2.51033,-4.68428,41.2994,-4.11477
32.0307,0.260126,-13.196,41.9033,-2.96195,-14.8774,41.3411,-3.40888,-13.3731,43.3241,-1.60445,-15.5136,42.375,-1.92055
6.70535,0.541476,13.727,18.95,-6.35523,13.2919,19.5278,-7.21799,13.6744,17.3598,-7.09658,14.7722,19.0981,-6.35479
4.72991,0.676176,-6.32075,38.4562,-5.13854,-5.62117,38.0656,-5.81478,-6.2524,36.9423,-5.51921,-6.00982,36.8871,-5.53003
21.1219,0.0390991,-16.3314,42.4839,-0.617175,-14.5513,43.3493,-0.608461,-13.9736,43.8857,-0.11306,-15.859,43.3246,0.431439
0.748822,0.220893,-21.0243,24.7409,0.703314,-21.0623,24.9943,0.452622,-21.0753,24.6202,0.300925,-21.0418,24.7325,0.373586
1.98157,0.185208,5.18616,9.7675,7.31405,5.02073,10.4217,7.35494,5.19331,10.7934,7.29581,5.03634,10.7994,7.27957
0.243552,0.0904955,-18.7811,23.2622,4.78977,-18.9685,23.4213,4.7834,-18.8648,23.2614,4.73882,-18.809,23.3104,4.68339
1.57327,0.353593,20.5773,18.7738,-2.39022,20.4957,19.2218,-2.83628,20.4682,19.1192,-2.86123,20.4813,19.0349,-2.85845
0.00095865,0.000406966,0.94827,3.9478,7.25671,0.878477,4.03127,7.28944,0.950581,4.02804,7.2993,0.88284,3.91174,7.22655
7.97448,0.478982,17.5967,6.8233,-1.88462,18.3322,5.63583,-1.68752,17.0058,6.99901,-2.75197,19.1206,8.48109,-2.37937
0.0298052,0.0106835,7.85843,10.8755,7.89881,7.72027,10.826,7.88957,7.72077,10.8698,7.89995,7.79169,10.9132,7.9033
1.14409,0.137503,-20.6882,17.4912,2.19155,-20.4425,17.698,2.98567,-20.4683,17.441,2.99646,-20.4654,17.6128,2.85571
2.85598,0.145246,16.2531,17.8361,-6.12394,17.675,18.3117,-5.71149,17.6903,18.5038,-5.75474,17.2786,18.555,-5.97238
2.8814,0.375983,17.4867,10.0254,-3.09639,18.3009,10.6285,-3.03735,17.0382,10.2267,-3.89632,17.9467,9.07964,-3.14336
22.3873,0.00778427,20.9531,27.4795,-1.81639,20.005,27.5769,-3.70271,21.242,27.8843,-1.14019,21.0677,26.139,-1.80839
1.61831,0.143638,5.80647,9.83941,7.11803,6.49812,9.86927,7.20788,5.50343,9.72689,7.27316,5.44779,10.2354,7.35622
2.37833,0.036108,-13.746,44.0727,0.549826,-14.1602,44.0153,0.526725,-13.2197,44.0075,2.22004,-13.2871,44.004,2.21931
16.8752,0.307634,11.3318,4.0058,-1.74758,12.9049,3.77718,-1.82987,11.6027,4.58347,-3.26584,12.4923,4.54523,-3.12704
0.877624,0.118944,19.0224,16.7328,4.93821,18.7004,16.0488,5.13142,18.6825,16.1052,5.19455,18.8512,16.2156,5.03823
8.66464,0.0109233,14.3506,26.5046,6.32404,13.346,27.4242,6.95159,16.7405,26.5115,5.88698,13.3536,27.2194,6.84781
26.6987,0.200807,-17.61,42.3271,-0.661876,-19.4749,40.9998,-0.302252,-19.5861,40.9932,-2.32138,-18.649,41.5405,-2.40404
15.6578,0.729858,5.27306,13.7482,-6.47969,6.14201,12.389,-6.86578,6.80061,15.2418,-7.70712,4.24449,13.7333,-7.21206
17.2462,0.645175,5.72515,23.598,7.31836,5.91868,25.7557,7.71818,5.70182,22.527,8.115,7.25825,23.5673,7.51147
4.82786,1.81392,7.40379,30.0893,7.31592,7.45432,27.783,7.9533,7.29817,27.8247,7.91882,7.259,27.8258,7.93112
4.71178,0.165673,15.4764,30.147,6.39296,16.9512,30.0484,6.04693,13.7945,30.1142,6.44694,16.869,30.1706,6.04046
5.19555,0.031504,15.2329,10.3845,-4.65516,15.7223,11.2827,-5.13849,14.8149,11.1596,-5.29122,16.9123,10.3176,-4.11811
7.20824,0.130423,9.96925,12.0704,-6.45957,10.8113,14.4305,-7.18592,11.5421,12.5697,-6.50327,10.7477,14.5315,-7.22674
20.7047,0.183513,6.0231,43.6305,4.55729,6.1432,44.0955,3.27716,6.61888,44.1636,2.99801,4.73996,44.1658,2.83969
123.316,0.443857,-15.9679,29.4548,5.85189,-15.4981,23.2961,6.05024,-13.5023,27.2152,6.654,-17.2062,23.2725,5.71997
7.44105,0.241644,19.6772,14.4858,-3.31873,18.8203,12.2189,-3.73352,18.8082,12.5984,-3.76894,18.7431,11.8119,-3.79038
24.3607,0.349769,8.8895,36.2142,6.69326,10.557,34.3455,7.03927,9.93734,35.3077,7.00258,13.1157,36.3478,6.25779
1.09665,0.160879,13.5731,28.811,6.70598,13.5596,28.0869,6.90703,13.6285,27.7319,6.92668,13.7791,28.0379,6.90993
0.169016,0.0286348,-7.27739,22.8451,-8.35519,-7.38526,22.9574,-8.33281,-7.38738,22.8467,-8.35675,-7.20421,22.9604,-8.37877
15.5036,0.0640738,-18.7995,21.3374,4.81518,-17.7212,22.8734,5.52515,-17.407,22.0875,5.68077,-17.6559,22.8306,5.5604
3.30276,0.046724,15.5817,5.21164,-2.97928,14.1432,3.9411,-1.99776,15.7313,5.4154,-3.08074,14.3517,3.94763,-1.93991
3.90674,1.14193,-3.00553,10.7209,6.89347,-3.06999,9.42032,6.9726,-3.16196,9.42301,6.96095,-2.98634,9.38653,7.05009
4.33112,0.440706,18.2694,15.9202,5.44565,17.1398,15.5724,6.54191,17.3065,15.8784,6.4953,17.2872,15.5935,6.20052
22.2775,0.197687,20.7186,21.554,0.902508,20.9722,21.3291,-0.133477,20.804,19.5426,1.59681,20.8442,21.3233,1.95761
0.74041,0.268638,-10.7241,0.44531,2.09668,-10.7282,0.528257,2.44403,-10.9345,0.529226,2.50013,-10.5879,0.485074,2.46349
3.13408,0.0835905,-14.8809,18.6032,-6.98262,-15.1821,18.3819,-6.96321,-14.6088,19.4749,-7.25984,-14.394,18.3827,-7.16043
34.2447,0.17577,19.8298,11.8112,3.12136,20.8574,11.0822,-0.345336,19.5505,9.84202,4.51118,19.7405,11.2197,4.05776
6.27193,0.366568,10.9572,25.1608,-7.17973,11.0868,25.9834,-7.43993,12.1567,25.1805,-7.30117,10.4082,24.9932,-7.69055
0.153882,0.0421667,2.35337,40.7707,6.95002,2.25531,40.6922,7.00615,2.48504,40.6294,7.03062,2.48622,40.6921,7.01677
7.7299,0.68219,6.20138,41.4536,-2.7624,6.31833,43.3093,-1.50462,7.31904,41.5944,-3.39389,5.72895,41.9048,-3.43543
50.2973,1.62795,-20.2524,17.87,3.27239,-19.5191,19.9359,4.18653,-19.9423,20.5362,3.59484,-20.3393,21.0744,2.87579
0.626186,0.00202175,-17.498,36.7862,-5.05433,-16.9215,36.7914,-5.2395,-17.1125,37.0165,-5.14454,-17.1197,37.1514,-5.12186
5.68251,0.706418,-7.54781,36.6244,5.89991,-8.53566,37.2463,6.6501,-6.37475,36.916,7.01282,-7.50387,35.8029,6.39739
3.90178,0.037016,3.26974,29.6794,8.05921,3.36105,31.6111,7.4588,3.24667,31.6005,7.50113,3.16666,30.3206,7.93265
3.335,0.0321069,-5.54568,7.8813,-4.96269,-4.74532,8.33311,-5.39779,-3.20971,9.08411,-6.10683,-3.41181,8.90186,-5.97324
4.07309,0.095981,-14.4893,2.70024,4.93848,-14.12,2.50647,5.05129,-14.8927,1.76521,4.45015,-14.76,1.63736,4.42024
1.82657,0.0426988,-18.3529,41.0811,-3.09926,-18.0175,41.3573,-2.96734,-17.5809,41.3026,-3.01985,-18.5104,40.8636,-3.3
2.34827,0.103216,-11.9531,24.3968,6.58299,-10.7647,24.1823,6.89382,-12.1667,24.2826,6.61524,-12.2309,24.9534,6.77984
11.2963,0.42331,1.37777,2.59081,5.90403,3.03203,1.85273,5.94045,0.957394,3.07454,6.88112,1.06151,1.66993,5.61612
0.0321949,0.00128408,10.1638,20.133,7.67823,10.1013,20.0437,7.69163,10.1115,20.1313,7.69852,10.1609,20.0715,7.6702
74.083,0.475763,-20.7674,20.6746,1.54744,-21.1667,26.5603,-1.30398,-21.1884,26.5513,-0.196895,-21.1936,20.6993,-0.977899
8.84999,0.0372958,-12.072,13.734,6.21859,-8.4575,13.7444,7.01497,-8.52783,13.6961,7.00882,-12.5644,13.9536,6.0193
2.07773,0.0790852,10.8925,2.29088,-1.69557,11.4546,3.51846,-1.61827,10.289,1.85493,-1.5324,11.4004,3.48166,-1.61067
4.51205,0.0938526,-14.0837,10.3707,-4.96623,-13.6352,10.3201,-5.03674,-14.3726,11.4082,-5.71902,-14.451,11.4068,-5.71969
5.93733,0.365715,10.5874,36.9248,-4.56501,10.4402,36.2083,-5.29844,12.8474,37.1928,-4.53006,10.3509,37.4714,-4.76365
9.6643,0.108347,13.7172,9.67784,7.11876,11.7946,9.7058,6.7575,15.2502,10.0086,7.31372,15.8215,9.38204,7.18913
5.94674,0.617343,10.1781,43.5669,1.06338,11.6105,44.246,0.718893,10.271,43.7159,2.49523,9.61793,44.3176,0.897702
20.2061,0.291127,-14.0988,22.8034,5.86492,-11.2261,19.2537,7.03851,-14.0326,23.8002,6.33223,-12.8203,21.0046,6.53909
0.662925,0.0035604,-19.0402,39.37,-3.66761,-18.5982,39.1743,-4.01124,-18.7694,39.1146,-3.91166,-18.5623,39.3199,-3.99753
32.2512,0.0949397,8.49162,0.589017,3.53927,7.96077,0.952639,4.94697,6.59531,1.24626,5.57675,6.30072,1.19469,4.83695
0.0705158,0.17027,-9.69076,41.764,5.82186,-9.79088,41.5733,5.88453,-9.73332,41.5531,5.90321,-9.88149,41.5975,5.87377
3.47006,0.0126061,-20.2597,38.8786,0.266336,-20.1939,39.4802,0.00602104,-20.062,40.3666,-0.147774,-20.0053,40.3296,0.120778
6.85777,0.728883,-1.23072,39.6312,6.01965,-2.31019,40.2998,7.00983,-1.2957,38.2393,6.67513,-0.554542,39.7746,6.6481
13.4989,0.726734,13.772,15.7079,6.46123,13.0381,14.7228,7.31374,17.1795,16.2597,6.77583,13.1102,16.6184,7.23865
6.77806,0.646184,2.19441,36.1761,6.95777,3.24714,33.7797,7.83965,3.52415,37.0815,7.32951,1.20654,36.5125,7.68101
1.11404,0.0553804,-8.2017,40.225,-5.02833,-7.70706,40.6017,-4.88064,-8.13489,39.8702,-5.14919,-7.64125,40.5556,-4.91548
1.04376,0.108208,-5.24392,42.4299,6.16685,-5.18376,41.2473,6.58324,-5.04719,41.3008,6.59485,-5.42699,41.5309,6.46893
3.14593,0.138767,6.43013,23.2074,-8.21788,6.84123,23.1143,-8.30986,6.73547,23.7109,-8.26383,6.12748,22.705,-8.45319
2.36376,0.178883,1.63708,29.1858,8.36391,-0.266343,29.443,8.2991,-0.252164,29.3279,8.31969,-0.12713,29.4354,8.31531
23.0979,0.155836,-13.4102,32.2448,6.3543,-10.4051,32.8759,7.05848,-12.6644,31.4411,6.27311,-9.00407,31.9926,7.29844
1.42562,0.0778261,5.16105,34.8562,7.24366,5.36723,34.7096,7.33649,5.56071,33.7674,7.57526,5.63592,33.8398,7.54359
1.46648,0.865248,12.0074,17.2992,-7.14412,11.9527,18.2244,-7.40571,12.1339,18.1718,-7.38525,12.0417,18.2169,-7.36675
0,0.0527872,13.7565,9.93604,7.31004,13.7065,9.91536,7.27151,13.7144,9.92649,7.26646,13.6406,9.90229,7.29094
4.46736,0.0872481,-11.8062,4.7465,6.75208,-12.7688,4.04774,6.39646,-12.9756,4.27268,6.43717,-12.7792,4.97842,6.63794
0.697855,0.21773,16.563,33.948,-5.1552,15.9904,33.5455,-5.39737,15.9206,33.6011,-5.44186,15.9878,33.4121,-5.42378
42.6519,0.437203,8.96464,10.7647,-5.511,12.5429,10.6486,-5.55949,5.98124,12.1569,-6.8135,7.41535,8.08631,-5.1442
1.24397,0.148313,14.9135,17.3439,-6.45851,16.1213,17.8544,-6.19252,16.1123,17.8046,-6.18072,15.7133,17.7576,-6.36555
2.36192,0.955926,1.72176,44.2951,-1.0716,0.765828,43.5743,-2.1057,0.833671,43.4889,-2.21808,0.83615,43.4755,-2.2637
15.6312,0.276146,12.7077,7.6624,-3.95595,13.9911,7.04373,-3.92682,12.772,8.92345,-4.5348,11.8293,6.8969,-4.1741
0.161212,0.0374751,-9.65355,24.3554,-7.69001,-9.61049,24.2225,-7.71842,-9.667,24.2397,-7.71767,-9.48293,24.2946,-7.72919
4.46692,0.320774,-3.52702,41.6158,-3.65601,-3.59585,42.991,-2.5182,-3.52338,42.9204,-2.63528,-3.02392,41.9807,-3.61562
12.8324,0.216659,3.27179,1.49889,5.73098,3.36239,0.979761,5.05791,3.85341,3.22086,7.1963,4.41732,2.08361,6.65211
7.85678,0.111709,13.7158,39.0129,5.03673,13.878,37.5787,5.47522,14.5409,37.8253,5.85564,14.2489,37.2318,5.84582
26.3812,1.20037,-12.3727,37.3207,4.72437,-10.1311,37.0321,6.41647,-13.7056,36.2779,5.74955,-13.7441,39.3024,5.55324
1.60558,0.204455,12.8282,3.04788,6.76255,13.3848,3.24074,6.90026,13.3223,3.06425,6.86748,13.1181,2.76427,6.74042
0.63029,0.147033,20.2452,19.3525,3.60276,20.2668,19.7513,3.55182,20.3852,19.9325,3.42221,20.2332,19.7671,3.68264
0.873459,0.176486,-20.607,5.77669,1.92365,-20.6174,5.37544,1.71314,-20.6128,5.11115,1.86407,-20.5582,5.42799,1.803
42.1006,0.390099,7.73756,33.616,7.41187,7.39821,30.2198,7.28617,8.44913,32.2289,7.4217,8.08927,30.9766,7.44425
6.55833,0.239098,-0.925129,4.67742,-4.10703,-1.38509,3.53236,-2.87459,-0.916579,5.51469,-4.58659,-1.39127,3.35898,-2.65623
0.681504,0.0632138,8.07743,38.3059,-4.80741,7.86983,38.2417,-4.90143,8.30364,38.4872,-4.81678,8.28288,38.0821,-4.90412
12.1275,0.361731,6.01722,7.52213,-4.50358,7.41656,7.121,-4.68312,8.74125,6.80394,-4.5106,5.90649,9.41312,-5.60385
10.8165,0.0613682,-15.2591,31.0057,-6.25066,-15.3903,29.7824,-6.37523,-16.1468,31.5824,-6.14894,-14.9301,32.1043,-6.28658
0.719452,0.325768,-11.2418,3.79654,-1.76366,-10.0967,2.98844,-2.34024,-10.0383,2.87348,-2.29049,-10.0397,2.91713,-2.3226
5.5995,0.0593125,9.86174,37.453,-4.80733,9.33523,36.4324,-5.57298,9.93614,37.8946,-4.40853,10.0336,36.4288,-5.40199
10.4679,0.534999,-1.62728,35.3752,-5.90172,-1.81584,36.8804,-5.4325,-2.00126,36.9346,-5.43602,-0.678443,35.4381,-6.30994
6.12297,0.406602,8.18202,38.2014,6.45786,9.46173,38.0117,6.46719,7.81675,37.5877,7.07009,8.03521,39.1286,6.85599
0,0.0573144,15.0524,3.29165,6.68888,15.1121,3.27008,6.67269,15.1025,3.32891,6.65976,15.1014,3.343,6.66995
59.7719,0.375803,10.3327,3.43476,6.69612,11.0504,1.41194,6.16763,9.18994,3.96832,7.42405,12.7574,3.04488,6.76151
62.2429,0.436467,-16.9799,43.1022,0.805586,-18.7356,41.5176,-0.155865,-19.8614,40.5928,0.414596,-19.7249,41.3022,1.72829
3.73083,0.0165195,-6.96413,0.206173,1.40231,-7.29784,0.209581,1.78788,-7.31325,0.193095,0.886718,-6.47785,0.165122,1.08028
6.9556,0.540624,-1.05305,1.07584,-0.733586,-1.04259,0.27698,0.616371,-1.11499,0.188469,1.33498,-1.33529,0.327734,0.953254
0.650301,0.0479793,-6.18522,26.5596,8.06656,-6.25126,26.8313,8.12354,-5.91958,26.6686,8.16486,-6.10836,26.8169,8.16974
1.92467,0.712979,-3.42409,5.95225,7.23845,-3.42067,4.83869,7.22228,-3.4881,4.79397,7.21692,-3.21408,5.08644,7.34745
25.29,0.387942,1.58464,20.1734,-7.92904,0.553382,18.9827,-8.33979,-0.651299,19.8983,-8.51802,1.34183,17.91,-8.19137
3.30945,0.0609254,-12.1523,21.9806,-7.60652,-11.4861,22.4292,-7.69816,-11.5905,21.8393,-7.75562,-10.0679,23.8022,-7.96593
2.28172,0.340992,-19.4661,25.8971,4.07255,-19.3981,26.5904,4.12305,-19.3287,26.3673,4.31212,-19.4913,26.8542,3.97797
6.23873,0.116537,12.917,40.7983,-3.32653,12.783,41.3885,-3.06914,12.9534,39.192,-3.71208,13.0304,39.1366,-3.67151
5.78314,0.0772524,5.11621,9.64322,7.35671,5.18437,6.90869,7.49096,5.86165,7.05726,7.7692,5.10452,6.92683,7.45786
3.75675,0.138649,15.354,13.9745,-5.56431,17.1524,13.6578,-4.95427,16.9338,13.5419,-5.03565,16.9246,13.452,-5.0528
25.9058,2.17828,15.9811,35.3988,-4.83343,17.7979,34.3657,-3.66116,17.7776,33.2572,-4.89463,17.998,33.6264,-4.63574
13.366,0.0110376,19.578,24.078,-4.32747,20.5205,24.5747,-3.50949,19.1982,26.0387,-5.21237,19.9132,26.3218,-4.55665
1.55494,0.0168728,-19.2821,37.0041,3.62928,-19.8023,36.8166,2.97901,-19.5412,37.2731,3.34366,-19.6975,36.7692,3.0928
9.21713,0.0143898,-10.3209,42.4807,-2.85155,-10.0393,41.5428,-3.97013,-10.8359,41.9882,-3.35556,-9.27724,42.7355,-2.64224
0.00906991,0.0532504,16.528,14.3153,6.95424,16.4666,14.3142,6.97323,16.4706,14.2712,6.96217,16.4658,14.2254,6.98049
0.224806,0.0236732,4.37317,43.5869,4.87405,4.43429,43.6818,4.67103,4.36812,43.6885,4.67354,4.57152,43.639,4.74281
8.81471,0.0170006,21.2186,33.9898,-0.667624,21.0892,32.8455,0.249529,21.0663,32.2891,-1.23043,21.0535,32.4668,0.0429
21.8118,0.0975198,7.81165,13.5884,-7.19388,8.3559,15.4787,-7.55438,9.02691,14.0044,-7.21596,9.22119,14.9612,-7.44762
32.5319,0.0862024,-4.64935,0.687952,3.67202,-1.77517,0.355808,2.69771,-1.72067,0.233554,1.68995,-2.69464,0.21228,1.14207
1.49639,0.0828408,-11.6406,2.00428,5.43189,-12.5387,2.44197,5.54207,-12.4132,2.71569,5.70879,-12.6102,2.40006,5.51367
0.872745,0.0846882,19.934,4.80885,0.98524,20.1,4.84544,1.12532,19.8657,4.60187,0.765749,20.0671,5.05348,0.847815
0,0.0170255,-1.0883,41.0111,6.97057,-1.09023,41.0491,6.95415,-1.04549,41.0255,6.98357,-1.0197,40.9609,6.99186
1.92451,0.00468132,4.02777,21.367,-8.21448,5.4871,22.3147,-8.45517,5.47609,22.2216,-8.44403,4.03838,21.458,-8.23007
4.23539,0.0341712,17.5086,24.1622,5.74049,14.6937,24.2179,6.13232,16.8034,24.2573,5.85379,14.6295,24.1658,6.14763
10.9031,0.312953,-10.7601,3.9109,6.66587,-11.1662,2.86969,6.09556,-11.8733,3.30901,6.19675,-11.4879,3.02982,6.10943
19.2177,0.464136,12.9938,12.5793,-6.07933,13.0514,11.2127,-5.46325,15.4503,12.888,-5.47562,15.3544,13.7912,-5.57758
1.5528,0.220202,19.2737,28.1263,4.83825,18.7367,28.9475,4.53228,20.1454,29.1285,3.69752,18.7529,28.9715,4.49902
8.53418,0.29765,20.7595,26.9759,1.37407,21.2092,26.7184,-0.998367,21.1804,26.6046,-0.643618,21.2136,27.0081,-0.888591
1.64032,0.886015,18.3032,10.6851,-3.05638,19.2808,11.7262,-3.13427,19.2163,11.7429,-3.22425,19.3353,11.6218,-3.06468
230.116,0.0960485,-4.6757,18.4533,8.18751,-10.6645,20.2586,7.22019,-9.96317,18.8009,7.20474,-8.62975,17.8239,7.3442
13.7577,0.30426,18.4164,27.4444,-4.83376,17.6593,27.2006,-6.02178,19.945,27.5855,-3.75314,17.9085,26.6512,-5.82628
4.93939,0.40379,11.359,38.3298,-4.30332,11.6217,37.9239,-4.76214,12.7585,38.788,-4.0537,12.2825,38.7915,-4.24677
46.6797,0.472311,1.93623,9.26755,-5.55798,5.22592,9.64107,-6.11511,2.27428,11.9843,-7.10047,4.6154,11.8192,-6.97078
1.54925,0.0195912,-10.0874,0.512632,3.20292,-9.72147,0.796663,3.95783,-10.0793,0.718624,3.75198,-10.2179,0.756846,3.83754
1.89287,0.789521,11.8616,16.3837,-6.89863,11.8079,17.2791,-7.24059,11.9023,17.2517,-7.13203,12.0043,17.2516,-7.13727
1.85971,0.560704,-6.81176,7.36383,-4.38939,-5.58313,7.90658,-4.97572,-5.58348,7.83003,-4.94814,-5.27893,7.57809,-5.15662
16.7824,0.498148,17.7288,32.9153,4.74807,17.8538,31.9062,5.24461,17.4041,30.7558,5.59635,18.8021,32.6786,4.36944
8.83676,0.50073,-2.47112,25.8603,7.70375,-2.90773,26.6821,8.33107,0.0313958,25.7962,8.14847,-3.03553,25.3676,8.15343
3.05974,0.127079,15.9667,37.2629,5.34513,15.3742,37.5313,5.86469,16.1698,38.0034,5.36938,16.111,37.0129,5.40453
14.3961,0.104853,4.65041,37.092,7.33959,3.31368,38.7055,6.90616,3.26831,37.9408,7.05735,2.82554,38.5401,6.93633
11.1316,0.459019,-2.83767,16.6441,7.3763,-3.29243,17.8257,8.19568,-0.763478,16.0328,7.85813,-3.39967,16.183,7.66018
7.5849,0.0811583,20.4384,30.527,2.39495,19.7856,30.2766,3.15779,20.9742,31.1031,0.70173,20.624,30.5862,1.96088
13.0479,0.446037,-7.68407,11.4612,-6.55981,-8.44535,9.83498,-5.82449,-8.1722,8.5064,-4.96836,-7.59944,9.61136,-5.85389
5.43,0.425753,6.04954,32.6204,7.13436,6.2611,33.4051,7.51754,6.69534,32.7127,7.2862,5.97693,31.1728,7.62438
5.19402,0.330894,-6.69676,35.6027,7.28931,-5.3726,35.3581,7.66706,-5.17499,36.0451,7.58492,-4.6151,35.7863,7.62274
11.004,0.0891509,0.592152,5.73705,7.63259,1.49399,5.32098,7.61571,1.08504,4.7226,7.52219,2.26082,5.83463,7.6811
2.693,0.0505099,-5.95762,0.812437,-0.981015,-5.89996,0.343841,-0.0545226,-5.68597,0.268278,0.0616087,-6.37736,0.264689,0.251018
2.50783,0.0159151,17.7311,43.7548,2.31093,17.5195,43.9425,1.70406,18.1465,43.7212,2.53597,18.141,43.824,2.18742
0.142735,0.0128165,-17.9212,42.2282,3.39086,-17.915,42.4411,3.16541,-18.0027,42.3614,3.16025,-18.0435,42.2364,3.24438
10.4993,0.0143547,-2.43599,0.718281,3.9607,-0.806464,0.437494,3.36623,-2.34408,1.46648,5.45702,-3.72698,1.26363,5.12229
5.69902,0.0472602,-6.07723,8.14616,6.78633,-4.87752,7.41817,7.06178,-7.12649,7.76834,7.2149,-3.63287,6.72324,7.25714
2.76051,0.169292,7.45667,23.1445,-8.08101,7.7978,23.9211,-8.1436,8.01995,22.8699,-8.24052,7.11451,23.0096,-8.29094
3.73343,0.189668,-5.65856,17.0219,-8.08819,-6.06616,16.9796,-8.29796,-5.46556,16.5588,-8.13861,-5.06886,18.1429,-8.58067
0.71572,0.0826668,14.2415,23.8227,-6.85519,14.2848,23.2223,-6.86099,14.3588,23.3984,-6.81509,14.1378,23.1864,-6.89932
8.92068,0.542359,1.84022,6.53574,-4.28108,1.73297,7.90802,-5.28282,2.02013,8.7704,-5.6658,1.82843,8.8221,-5.6101
3.78973,0.0686957,-0.0557477,38.5676,7.15025,1.2049,38.4761,7.39759,1.00352,38.3666,7.40691,-0.758529,38.618,6.89093
5.14444,0.023412,-14.969,37.3256,-4.71661,-14.0571,36.4751,-5.46767,-14.4622,38.3866,-4.85049,-14.3844,38.7948,-4.81949
48.996,0.510891,-7.79486,24.9315,7.54448,-8.24139,22.2431,7.72817,-6.0941,24.8128,7.99534,-6.84629,22.8324,7.76333
0.19039,0.152441,15.1162,6.41583,7.28186,15.1047,6.25287,7.24313,15.175,6.2767,7.26054,15.0454,6.22543,7.27374
0.814854,0.00292948,-15.3664,41.6145,4.78777,-15.4333,41.3915,4.81579,-14.5305,41.5288,5.00503,-14.5358,41.6709,4.9736
5.35825,0.0215015,3.7552,6.00413,-4.73857,5.27665,5.94774,-4.50571,5.36546,5.54161,-4.2641,4.04122,5.73756,-4.52879
2.24772,0.1494,-17.663,8.96067,5.29984,-17.5204,10.0707,5.32878,-17.3114,9.59398,5.42953,-17.8118,10.2424,5.25455
19.791,0.606169,-20.2425,19.3343,-3.65912,-19.7176,14.6233,-3.92496,-20.2844,14.4061,-3.05799,-19.9292,14.5893,-3.61662
43.7235,0.201957,17.0175,26.5467,-6.39171,13.0621,26.7677,-7.05299,15.0523,27.8133,-6.59298,16.2376,24.6871,-6.39422
18.3802,0.553913,19.3114,35.9128,4.26676,18.6363,38.6496,4.11023,19.5411,37.4233,3.99824,18.2141,39.7835,3.83764
9.01027,0.155981,-3.48123,16.6534,-8.08104,-3.8475,15.3594,-7.77055,-1.43684,15.7417,-7.85472,-3.39774,15.9631,-7.84686
1.80952,0.124758,6.32132,2.40736,-2.16849,5.96151,2.03646,-2.04666,6.85725,2.08295,-2.30305,6.17905,2.56187,-2.342
11.1821,0.0537265,-9.14306,42.7891,-2.03009,-8.31168,42.4731,-3.04543,-7.82563,42.7668,-2.89442,-7.66445,44.258,-0.842725
40.1582,0.210449,-14.1716,15.3494,6.03781,-15.2428,18.2237,6.06088,-17.9339,16.0987,5.294,-16.8472,17.8902,5.63146
10.0788,0.0317176,-20.7095,36.0075,0.634404,-20.7903,32.7408,0.970853,-20.6996,32.0721,1.30604,-20.8311,33.7232,0.723637
492.651,0.203532,-7.03904,25.7589,-7.97088,0.535061,25.6829,-8.30512,0.0125736,25.0267,-8.40557,-0.586622,27.3009,-8.02071
68.2769,0.265111,-14.1677,25.3769,-7.21926,-11.5024,23.5871,-7.71028,-13.9611,22.5344,-7.44356,-12.8921,22.5543,-7.54988
5.38881,0.253368,18.5876,36.5067,4.36337,17.5118,35.5089,4.45479,18.2271,34.9461,4.85627,17.5159,35.564,4.44383
2.70677,0.0874456,5.18586,6.17198,7.52947,4.9646,6.86841,7.47411,5.10458,6.8767,7.4607,5.72692,5.72454,7.68037
1.66872,0.235583,19.88,10.9002,-1.40712,20.4339,11.1471,-1.43078,19.925,10.7856,-1.74514,20.3988,11.3274,-1.76865
24.6382,0.024942,-8.39291,2.42066,-2.27032,-10.04,3.34124,-2.68781,-8.64017,1.23698,-1.26809,-10.3523,1.36142,-0.979655
6.59883,0.195947,-7.63156,15.7425,-7.70449,-6.76486,15.7951,-7.94944,-8.17205,14.685,-7.65706,-8.52117,16.7233,-8.08201
14.9311,0.033747,5.96956,1.3733,5.49348,6.04255,1.13652,4.43405,4.49425,0.260942,2.86381,4.5862,0.535547,4.00144
11.627,1.61343,-0.737501,44.8343,-0.0100371,-2.70499,44.1586,-0.791048,-2.51246,43.9972,-1.26505,-2.63581,44.1071,-0.864528
12.1661,2.38925,21.1316,27.4264,-0.230733,20.6116,30.735,-0.510663,20.566,30.423,-0.872558,20.9645,29.966,-1.20469
8.74475,0.258265,-8.1343,5.37907,-3.6353,-6.56238,5.22986,-4.24194,-7.52335,5.85294,-4.19433,-9.01746,4.72534,-3.51098
5.35191,0.0702503,14.4377,7.44543,-3.90593,14.419,8.60245,-4.45676,15.3014,8.07417,-4.0316,15.7647,7.17591,-3.47105
2.32375,0.334807,15.8322,24.0469,-6.33825,16.2449,24.6317,-6.38559,16.8829,23.5073,-6.43384,15.5102,24.0002,-6.85273
10.9906,0.279823,1.30591,15.9093,-7.8655,1.86909,17.4011,-8.05194,1.1968,16.7526,-7.87977,0.482545,17.4844,-8.20696
2.04578,0.0117333,3.95807,40.0821,7.08739,3.32299,40.231,7.08604,4.02867,40.7015,7.04258,4.51785,40.5071,7.05997
2.92999,0.161029,-10.4821,23.6709,6.69055,-10.99,22.8729,6.82589,-10.7204,22.8189,6.85409,-10.19,23.747,6.87901
11.7026,0.00792203,-19.1949,30.9841,-4.58382,-17.3007,29.6075,-6.06119,-17.3973,29.5869,-5.99548,-17.2658,30.8232,-5.95054
7.27434,0.800545,-15.4992,27.1316,-6.84539,-15.3201,29.7342,-6.3735,-15.1793,29.7736,-6.3782,-15.1132,29.773,-6.39094
13.0321,0.226113,-19.0445,40.8889,3.20077,-17.8934,41.6126,3.89719,-19.3161,39.3913,3.44055,-18.3039,42.3866,2.77942
0.739532,0.25425,17.5791,24.1184,5.72641,18.098,23.8541,5.6068,18.0436,24.1059,5.6053,18.127,23.9753,5.54613
2.26943,0.33684,6.32317,43.3595,-1.47369,6.14348,44.5596,-0.3777,6.20697,44.3178,-0.715067,6.29096,44.4221,-0.569386
0.0536871,0.00999262,-3.93705,18.4913,8.26806,-4.03607,18.3029,8.25163,-3.93562,18.3959,8.25166,-3.9757,18.3017,8.24789
5.02223,0.107818,8.33836,1.69283,6.15559,8.53063,1.26435,5.87337,8.90177,2.39887,6.90196,8.18325,2.97165,6.71254
154.74,0.669304,-7.42923,1.04384,-0.851302,-6.69387,4.206,-3.81365,-8.41176,4.39302,-3.55104,-3.82243,3.0581,-3.24354
6.62548,0.311651,10.1044,14.6466,7.30888,12.2066,14.4491,7.49353,13.0345,14.8285,7.30097,11.9209,14.7118,7.44235
3.02213,0.645196,5.99127,29.4714,7.91009,5.97979,31.12,7.6351,6.07254,31.1293,7.62149,5.90943,31.1591,7.65649
7.57439,0.94057,-5.13989,31.3434,7.06236,-3.41478,31.2584,8.14903,-5.91114,30.3625,8.00513,-5.65287,32.4234,7.90247
16.7177,0.135594,-1.82186,38.553,-5.1991,-1.80944,41.0736,-4.44806,-0.699665,40.7284,-4.6225,-1.9973,36.9793,-5.42695
4.87465,0.327048,16.7655,0.841461,4.40964,16.993,0.774804,0.945601,17.4447,0.885122,4.43092,17.2486,1.00949,4.77056
4.77119,0.415528,13.7827,39.581,4.87389,14.5969,39.816,5.51526,15.1165,39.7264,5.62054,13.5883,39.04,5.19109
2.99395,0.109733,-5.3479,44.5993,0.710448,-4.62125,44.0057,0.187886,-4.90769,44.0454,0.259744,-5.13189,43.7554,-0.00745493
2.02357,0.0684926,20.5804,15.9341,0.934651,20.4317,16.4374,0.640696,20.4203,16.3153,0.379095,20.8296,15.6144,1.29958
35.3392,1.18563,15.8926,0.667548,1.05093,15.7978,0.749455,4.36274,14.1852,0.351253,2.95927,14.4055,0.305555,3.40229
259.606,0.12435,-2.51635,41.1464,6.89564,-11.9108,39.0652,5.91292,-16.3139,41.5758,4.55459,-15.0037,39.8745,5.22125
17.3532,0.134315,-7.78693,26.7629,7.89879,-9.45692,26.8053,7.63506,-9.53558,27.9341,7.6436,-8.47668,26.1279,7.85507
0.799808,0.175392,-0.455231,39.6969,6.7084,0.024004,39.7373,7.09684,0.0841173,39.568,7.17836,0.22392,39.8706,7.13731
1.31164,0.0609128,-5.73636,21.0203,8.2543,-5.7552,21.8237,8.2328,-6.02298,21.9625,8.21926,-5.95316,21.964,8.22472
0.0823304,0.0527777,2.25416,7.59117,7.7945,2.25085,7.4494,7.78026,2.10213,7.45367,7.77819,2.16215,7.53012,7.75659
8.73748,0.500339,-3.76969,35.5257,7.18154,-1.8771,35.5761,7.34647,-4.20741,36.2761,7.64143,-4.26534,34.5581,7.96276
9.63153,0.129632,-20.4712,37.9672,0.34274,-20.6069,36.4006,0.899301,-20.665,36.2405,0.6709,-20.3574,38.4808,1.36958
106.038,0.105422,4.53559,34.6954,-6.49235,9.07301,29.3361,-7.36711,8.32742,33.4384,-6.54551,4.96812,31.4299,-7.26848
3.58718,0.0370945,-18.1442,36.7828,-4.69742,-17.7887,36.5532,-4.94884,-18.6371,36.5179,-4.32603,-18.3958,35.6929,-4.62935
7.46424,0.0119717,-13.2816,25.0914,6.66804,-12.8703,25.5947,6.76676,-12.3022,24.8145,6.76234,-11.6761,25.5049,6.88787
27.6046,0.232376,-16.2826,10.2881,5.42573,-14.0518,9.74339,5.74954,-13.9247,10.0922,5.85392,-16.0593,9.31164,5.43345
0.916567,0.00455697,2.15829,43.6593,4.75186,1.7601,43.3486,5.21174,1.41845,43.2745,5.33242,1.487,43.2475,5.36624
7.07861,0.0565136,-10.7558,18.6665,-7.8411,-10.6146,16.3819,-6.98226,-10.5864,17.5453,-7.51757,-10.5808,16.4547,-7.06423
8.02895,0.252307,18.9576,14.9539,4.52657,18.8383,15.2566,4.96282,19.9396,15.6589,3.92191,19.8615,13.0014,4.14974
13.0331,0.0394879,5.64106,19.0153,7.91595,6.46568,18.5801,7.92153,5.56876,19.6555,8.15758,5.2193,17.8041,7.50803
3.07141,0.189138,20.3241,13.1537,2.22155,20.4672,12.8991,2.40114,20.4951,13.7747,2.34433,20.7166,13.1324,1.50817
5.27256,0.0917009,10.0058,30.8071,7.06684,9.91612,28.4656,7.5837,9.84538,28.5115,7.5815,10.275,29.8107,7.31467
5.45014,0.415347,2.10495,35.8002,-5.48668,3.63818,34.7722,-6.74892,1.5473,35.7362,-5.86413,2.65423,37.1976,-5.42472
10.0195,1.70949,13.0081,24.8671,6.79262,13.7753,26.5382,6.36407,14.2788,26.4925,6.34927,13.9946,26.5145,6.43022
4.16119,0.572611,0.886233,22.5997,8.04267,0.808986,20.1333,8.42349,1.03128,20.0249,8.44948,0.886475,20.1997,8.39058
4.59623,0.359851,-3.0503,38.6558,6.3936,-1.51821,38.5592,6.53899,-3.35419,39.4385,6.65946,-3.46068,38.1391,6.93205
36.7746,0.316023,2.65106,7.63546,-4.90008,5.79503,7.36114,-4.64519,6.00525,7.19819,-4.52685,2.31967,8.33391,-5.68347
5.78176,0.0771303,11.9949,43.513,-0.433509,12.6718,43.3702,-0.728759,13.5696,43.6254,-0.373811,12.8584,43.025,-1.17341
3.64345,0.389313,18.0048,15.7948,-4.31787,18.0077,17.2391,-4.92413,18.2675,17.7857,-4.93084,18.1169,17.7964,-4.97244
49.3498,0.46932,-16.9098,36.1346,5.22298,-13.7682,36.059,5.91059,-13.7136,34.5241,6.37271,-15.0292,34.1183,5.99305
6.35788,0.0257128,2.4171,4.72747,7.55998,1.71407,4.81647,7.53315,1.77652,5.50596,7.64608,1.29835,5.04823,7.56168
9.30259,0.521174,-11.2924,35.6473,-5.34105,-9.77294,35.4453,-6.56617,-11.3507,37.0758,-5.30522,-11.7206,35.4653,-5.86283
5.96048,0.0492073,14.932,20.6819,-6.76339,15.3734,21.2074,-6.68553,16.8887,22.0537,-6.29999,16.875,21.9053,-6.25787
1.30743,0.130146,15.2558,24.8646,6.49866,15.1976,25.9587,6.35015,15.3391,25.4729,6.46193,15.2763,25.968,6.3379
2.10293,0.289189,8.50604,7.46958,7.64906,6.76989,6.82976,7.74788,7.11,7.23631,7.70623,7.03398,7.09102,7.70838
10.7144,0.510892,12.8382,4.12539,-2.17362,14.4223,5.68855,-3.41817,14.4329,4.38755,-2.59247,13.5193,5.54564,-3.53313
4.66796,0.301615,11.5407,29.7878,6.93087,11.4584,30.3515,7.12471,13.3691,30.0857,6.50041,12.7232,29.9635,6.77566
3.44198,0.0436119,10.0007,37.9789,-4.34922,8.86995,38.6712,-4.66962,9.24577,38.2616,-4.4851,11.1424,38.3424,-4.30289
3.29485,0.176999,12.0455,18.313,-7.38482,12.1285,19.8579,-7.80518,12.0526,19.8651,-7.84875,12.1977,19.6511,-7.73155
13.1408,0.118008,-6.37491,42.6364,-3.07007,-8.46493,41.272,-4.48827,-8.05135,40.7812,-4.77895,-8.31332,41.2905,-4.45337
0.125126,0.0471593,-9.86885,4.01031,6.79712,-9.6878,4.11267,6.89056,-9.69129,3.96137,6.83114,-9.6884,4.03168,6.85877
1.55031,0.0213576,-20.3019,38.8984,0.0864677,-20.437,37.98,0.518162,-20.3598,38.4979,0.368372,-20.444,38.0448,0.382493
0.152602,0.0426621,19.4253,33.651,4.18398,19.733,33.5394,3.86385,19.7325,33.6233,3.90145,19.6578,33.4364,3.87072
3.43339,0.0231394,-9.47562,40.3512,-4.84946,-8.76453,40.3705,-4.90576,-8.47043,41.0131,-4.6513,-9.1773,40.9442,-4.59249
1.58744,0.125193,2.34235,35.7605,-5.59543,3.44916,35.1972,-6.45162,3.65733,35.2052,-6.56626,3.37071,35.1068,-6.46823
2.29545,0.512471,-1.43152,22.5435,8.36372,0.384826,22.322,8.3532,0.390929,22.2199,8.35154,0.536756,22.245,8.30765
19.9057,0.149111,14.4922,20.1799,-6.703,13.5178,21.3127,-7.17183,14.6063,22.4257,-7.16746,15.0838,19.5924,-6.67808
768.513,0.621229,-2.24043,29.6485,-7.54288,-14.194,26.4065,-7.00369,-14.3453,29.3571,-6.60888,-13.3861,25.714,-7.1986
13.2984,0.506758,4.96928,17.7329,7.45095,4.73162,15.4256,8.04449,4.72943,14.4478,8.03824,4.23265,18.3365,8.22718
6.26824,1.08069,-12.8623,28.2814,6.71625,-12.7216,30.5028,6.33729,-12.6845,30.4664,6.38119,-12.9702,30.4406,6.30482
1.10804,0.118839,8.73466,23.4467,-8.00699,9.04206,23.8649,-8.08142,9.08677,23.3068,-8.07165,8.37771,23.2152,-8.18178
12.6871,0.493013,3.32261,41.7085,-3.12509,5.20572,43.7824,-2.0251,2.63652,42.1625,-3.4625,3.77193,41.245,-4.05023
5.69401,0.862548,13.1256,11.2108,-5.4516,12.8504,8.73474,-4.48306,12.6988,9.0309,-4.59306,12.6567,9.08525,-4.62224
8.42597,0.207148,18.2814,4.26468,-0.281039,19.297,6.01271,-0.592679,17.6057,4.27623,-1.73892,18.2244,5.47106,-1.78331
9.04164,0.0663936,-3.24875,24.4276,8.04607,0.185628,24.2462,8.33655,-2.47357,24.197,8.14469,-0.0995089,23.8924,8.48163
4.28249,0.29887,19.3152,22.6166,-4.13208,19.0272,22.4296,-5.17869,20.534,21.9933,-3.38554,19.3526,22.0572,-4.96179
1.23586,0.0557227,-13.1421,33.9845,6.47283,-13.1381,33.2972,6.59179,-13.2095,33.2477,6.58333,-12.7842,34.0436,6.58895
0.685916,0.0592427,3.6967,18.9963,8.28982,3.8188,19.0733,8.33331,3.53557,18.8542,8.37082,3.68575,19.2608,8.35347
5.60863,2.52709,13.7908,37.557,5.41719,13.6757,34.7998,6.02347,13.7582,34.8077,6.03678,13.5741,34.7682,6.10637
48.1611,0.219823,9.0154,5.75561,-4.21167,10.3801,5.33295,-3.93386,9.5696,1.10058,-0.783786,8.69056,1.31871,-0.748942
6.28275,0.352798,12.4168,33.133,5.97103,13.3408,33.1458,5.69553,12.1111,34.0716,6.68069,12.0889,32.2457,6.6556
0.314033,0.00475052,-6.35831,10.7428,7.25381,-6.01319,10.7745,7.29363,-6.01501,10.6882,7.27699,-5.9386,10.7302,7.2914
0.851636,0.0205722,-15.1495,7.26474,5.19981,-14.9362,7.12479,5.19641,-15.433,7.70682,5.56322,-15.5665,7.79147,5.58253
64.424,0.651555,-0.146524,15.9863,7.85518,3.68287,13.1234,8.39707,3.82673,15.8267,8.1153,1.02924,17.7194,8.2199
3.32433,0.0591552,-10.7342,16.1901,-6.85172,-11.7797,15.7409,-7.27455,-11.5854,15.6403,-7.26311,-10.6708,15.8358,-7.00782
28.1416,0.516895,-13.0402,42.081,-2.79309,-10.7142,41.8071,-3.57642,-11.2926,43.6995,-1.58073,-11.0225,43.5764,-1.68219
22.0017,0.234256,12.6298,21.8035,-7.14282,13.0777,19.4194,-7.35144,12.4979,20.7548,-7.43449,13.9494,21.7968,-7.11711
5.27868,0.252583,15.3818,27.684,6.24214,15.1912,26.7073,6.21891,15.1666,27.7406,6.59025,16.5231,27.9599,6.33328
3.69886,0.514414,-2.12764,44.3298,-0.273663,-3.81264,43.8614,-0.138019,-3.93061,43.897,-0.05114,-3.82012,43.8455,-0.17983
6.2369,0.216993,16.4613,19.5904,-5.86402,16.1877,19.3211,-6.13555,17.7084,19.2875,-5.74192,16.4882,21.27,-6.22913
0.797872,0.212092,16.722,33.4735,5.71848,17.2799,33.3065,5.58457,17.4452,33.4217,5.47472,17.4622,33.5117,5.46636
13.0169,0.555959,-13.8085,10.2687,-4.98548,-13.6896,8.48481,-4.52433,-11.3728,9.75199,-5.23419,-13.8852,8.90766,-4.79483
0.0848577,0.0248129,5.20979,21.8294,8.23779,5.35142,21.7558,8.20015,5.49255,21.7501,8.19265,5.49261,21.7963,8.19619
21.3599,0.456784,-5.99387,2.32857,-1.95084,-5.25597,3.60355,-3.46836,-5.96289,2.92566,-2.92656,-4.50051,3.49415,-3.46835
19.6063,0.569813,20.5228,14.2965,2.65902,20.8565,12.9511,0.214828,20.6861,15.6075,1.75866,20.9431,15.102,1.05645
13.8815,0.173156,-7.42406,24.9101,-8.05963,-5.33286,24.4032,-8.3257,-5.97339,24.1986,-8.32731,-5.02359,25.121,-8.27354
5.51117,1.18967,-3.87628,24.4374,8.36825,-4.00484,23.1834,7.93165,-3.70405,23.3557,7.77087,-3.50189,23.1881,7.94384
2.06669,0.256403,-14.5899,23.1847,5.62881,-15.7787,22.9179,6.00955,-14.3838,22.9231,5.77483,-15.498,22.9218,5.87476
3.47755,0.811607,-5.73483,35.0562,7.65992,-4.80469,35.2462,7.75618,-4.96814,35.5352,7.63283,-4.46201,34.7249,7.89347
66.2172,0.875977,2.34709,37.5775,-4.77305,1.55203,42.1894,-3.69407,5.8395,37.8425,-5.37523,1.53996,40.9502,-4.25871
5.957,0.322233,6.89431,21.2694,-8.03279,7.56241,20.7179,-8.25039,6.18596,20.9462,-8.45166,7.04102,22.607,-8.36868
0.00370563,0.00574037,-11.154,11.1804,6.4007,-11.2635,11.2271,6.36764,-11.2136,11.2224,6.39758,-11.2461,11.2111,6.36136
4.84236,0.0160255,-5.13822,43.564,-0.219531,-5.75694,43.7269,-1.15056,-3.88219,43.8424,-0.128934,-4.4446,43.6695,0.0112292
1.58541,0.144275,9.51322,1.83336,6.29776,9.28904,1.57476,6.32755,9.42795,2.14328,6.62098,10.0581,1.66565,6.37065
317.612,0.640656,-11.9721,44.0243,2.40582,-4.92516,44.5481,2.2686,-6.63018,44.5383,0.133582,-6.68432,44.0188,4.15574
35.1466,0.98798,1.36335,15.7161,-7.78885,0.829885,12.5909,-7.32044,1.81241,12.8391,-7.10049,1.43194,13.6818,-7.05153
1.14486,0.0172557,14.8448,19.0921,-6.34777,15.2609,19.0253,-6.33478,16.1119,19.2433,-6.19934,16.1185,19.331,-6.18068
1.30972,0.55831,-3.17707,25.3588,8.19241,-3.26289,24.7917,8.00518,-3.00731,24.6602,7.96542,-3.17285,24.7789,7.93237
4.52627,0.199139,-7.75099,39.342,-5.14212,-8.95529,39.1016,-5.006,-6.85463,39.1214,-5.17331,-7.14757,39.1438,-5.21499
21.7549,2.78473,20.2801,24.5495,3.48195,20.7877,27.049,1.46895,20.8876,27.4846,2.35522,20.6179,27.1287,1.78399
19.2352,0.0349321,9.06545,24.3173,-8.03102,10.1849,23.1973,-7.95104,10.4259,25.2596,-7.63041,11.7335,23.4388,-7.56058
2.38465,0.00547743,20.8763,28.4687,2.30466,20.7895,27.9404,3.00048,21.0593,27.8253,1.43616,20.7971,27.9453,2.95456
4.79246,0.506141,16.9162,35.265,4.44394,16.3961,35.9078,5.50646,17.5285,35.0191,4.76639,17.3861,35.6578,4.45098
1.02671,0.0888574,18.3589,22.8041,-5.59952,18.7463,23.3516,-5.3731,18.7117,22.8458,-5.37497,18.8377,22.5538,-5.32197
43.6624,0.000787563,-5.592,9.39671,6.95698,-4.00311,11.0665,7.47179,-3.5763,9.6134,7.21305,-6.03111,11.9839,7.45054
58.2006,0.242896,4.16698,39.8293,7.09834,6.62635,36.5649,7.34679,6.49981,39.0469,7.01185,7.05418,39.578,6.95363
7.93889,0.882035,-1.48512,29.6635,7.49791,-1.73105,30.9722,8.39674,-0.326028,29.3922,8.28526,-1.99852,28.9697,8.4313
9.77563,0.0774407,-9.60814,31.3473,-6.99184,-8.04699,31.436,-7.09087,-8.79443,32.1091,-7.08353,-8.00822,32.2658,-7.09486
3.19235,0.327543,5.96768,9.43246,-5.60907,5.95562,11.4716,-6.59966,5.7926,11.33,-6.55062,5.8003,11.3763,-6.56551
0.889026,0.00302894,13.3694,5.04345,7.39341,12.8894,5.57746,7.36165,12.8084,5.51423,7.40771,12.7515,5.89712,7.29835
14.1343,0.0278771,-13.2653,6.77576,5.99621,-15.3051,6.64289,5.16907,-10.8543,7.07502,6.6656,-15.7574,6.04931,5.78837
9.82762,0.439233,15.4107,41.1646,-2.00784,16.0329,41.186,-2.57651,15.5529,43.0232,-0.801388,14.9918,41.3393,-2.46801
77.9946,0.08915,-3.80168,30.7496,-7.37982,-2.25148,32.4744,-7.32528,-3.92108,34.2686,-7.1308,-3.64441,34.0309,-7.16046
17.8898,0.100981,20.4913,38.4097,-0.561723,20.9823,36.0228,-0.352823,20.4036,38.8535,-1.93684,20.871,37.3401,0.698311
2.8399,0.575693,13.1723,32.1026,6.29801,12.0429,32.0216,6.69876,12.0488,31.8,6.74124,11.9719,31.5448,6.88285
8.11492,0.32029,2.56465,3.85247,-3.15385,1.94249,4.19937,-3.94122,5.00259,4.00102,-3.46586,2.17243,3.21443,-3.0648
2.12783,0.470785,-9.06725,10.0178,-5.75614,-8.82862,10.9187,-6.27546,-8.75437,10.9297,-6.31485,-8.97364,11.0026,-6.34754
20.8215,0.616447,-10.3562,3.98447,-2.9546,-8.55405,4.32124,-3.42961,-9.06901,5.31753,-3.99643,-9.07322,5.28327,-3.96382
3.93984,0.138163,20.5492,35.5469,1.94656,20.6685,35.3309,2.32787,20.6937,35.5279,1.25526,20.7321,36.2326,2.29272
0.860829,0.173258,-3.25572,14.0151,-7.04625,-3.41193,13.4116,-7.30681,-3.56171,13.372,-7.30965,-3.5616,13.4165,-7.30312
1.84101,0.0795472,6.55948,0.499365,2.98286,6.68176,0.140214,1.82313,6.53582,0.15487,1.86929,6.69494,0.504264,3.36402
0.405683,0.0241528,17.8341,40.1346,-3.02716,17.9676,39.734,-3.1574,18.0541,40.1191,-2.98309,17.8953,39.7388,-3.18092
0.0872549,0.0231581,-19.7296,41.0278,2.54397,-19.7864,40.9954,2.46315,-19.7888,41.0295,2.42692,-19.7682,41.0947,2.44227
15.4816,0.615689,9.46745,7.67016,-4.04811,11.1861,7.72108,-4.59778,9.13875,9.9461,-5.53758,9.16854,9.34386,-5.3209
5.93301,0.248131,18.25,17.7,5.09169,18.286,17.8736,5.34825,18.9405,16.8159,5.03288,19.7554,18.9,4.12644
9.28626,0.274401,20.7115,12.5573,-1.18721,20.8366,11.8849,-0.524279,20.8026,12.7839,0.0306878,20.8435,13.2191,-0.0457389
0.015094,0.0230267,-0.605824,26.4374,8.49858,-0.657341,26.3251,8.44639,-0.602568,26.352,8.46996,-0.65109,26.3669,8.45138
13.3879,0.102613,15.2945,22.1365,7.03547,15.2554,23.3397,6.74123,15.2862,20.5459,7.1674,15.7005,18.6943,7.1467
75.4075,1.84664,20.5185,37.9157,1.96752,20.2122,40.3959,-0.283692,20.3368,40.3072,-0.95929,20.3409,41.9099,2.2432
13.9084,0.0532076,-1.20537,18.6626,8.49368,-1.33008,16.7935,8.14093,-0.64142,17.1929,8.26004,-2.17052,17.042,8.10907
16.6251,0.0447566,-7.72705,0.208844,0.893904,-8.44385,0.44122,0.603306,-8.6469,1.0621,-1.04242,-8.97939,0.955732,-0.649454
1.81027,0.182908,17.656,25.1276,-5.77405,17.6152,26.4693,-6.06024,17.7156,26.6361,-5.97631,17.6198,26.5144,-6.05675
19.5946,0.72404,-14.5971,30.8618,5.24892,-15.2289,31.9951,5.84224,-13.0453,30.6699,6.21159,-15.4071,29.6727,5.91553
0.47888,0.0122542,-6.75901,28.7248,8.18153,-6.41349,29.053,8.24128,-6.26369,29.0433,8.27227,-6.55121,28.7643,8.21213
38.0646,0.476694,20.336,16.4763,-0.0199218,20.681,15.6981,1.74301,20.8852,16.5946,-1.92452,20.9534,17.998,0.682156
61.9804,0.41524,-8.98933,2.05491,4.74168,-9.58384,0.927493,4.19754,-3.92016,2.62633,6.35939,-4.54311,1.83219,5.55394
12.6942,1.0822,-2.97682,4.07203,6.3408,-4.23368,3.32454,6.73302,-3.25235,2.97188,6.5421,-0.973042,2.23539,6.23718
14.8058,0.0429015,-0.638285,3.53698,7.02181,0.749321,3.40587,7.01557,0.598319,4.07162,7.31447,-0.107678,4.31366,7.37517
3.83695,1.03945,0.988328,24.5912,7.5934,0.875826,22.6522,8.03978,0.976132,22.6504,8.04016,1.04557,22.5742,8.11399
5.01611,0.185809,-13.4148,14.0168,-6.02071,-14.1567,13.1764,-6.09727,-13.5351,14.6422,-6.112,-12.7725,13.8749,-6.41239
18.1947,0.821943,-0.721246,31.986,7.39994,-0.970687,33.0649,8.14423,1.91625,31.5157,8.12909,-1.52067,31.0382,8.35173
0.452641,0.0127477,20.8701,33.6676,-2.77884,20.7084,33.5824,-3.0453,20.6715,33.7268,-3.06061,20.7509,33.5222,-3.00132
3.65461,0.0983974,0.52634,5.12519,7.58625,-0.238715,5.35333,7.59635,-0.308937,6.00915,7.67176,-0.447999,5.72128,7.65778
2.50206,0.436594,12.002,7.13024,6.97457,10.6455,9.10353,6.37684,10.65,9.17233,6.3587,10.8487,8.69631,6.57099
3.03955,0.51729,-5.56814,3.85216,7.07834,-5.26457,4.62936,7.34497,-5.2085,4.64353,7.38582,-5.7117,4.79969,7.39439
0.0361808,0.0146017,5.93338,40.1437,7.00749,6.11988,40.3418,6.93784,5.92844,40.1928,7.00244,6.11139,40.3022,6.93466
1.86569,0.173605,10.3455,43.7202,2.49603,10.4966,43.8641,3.92257,10.3656,43.8309,3.76121,10.2809,43.8124,3.61159
63.7746,0.0645334,3.26103,44.2917,-0.192632,4.50783,44.6288,1.10869,2.25215,42.6169,-2.96022,1.38932,44.6467,-0.675023
3.13678,0.0814457,17.8451,14.6395,6.08416,18.5087,13.1926,5.91843,17.479,15.4155,6.01327,18.6053,13.1796,5.84254
7.30973,0.260337,-5.30165,19.5042,-8.34901,-4.237,19.4613,-8.6286,-5.39748,18.7143,-8.59047,-5.89137,20.0324,-8.60982
2.03324,0.10503,3.14829,4.42548,7.52571,3.16128,5.63757,7.69348,3.0198,5.65183,7.69582,2.95532,5.15187,7.58181
0.0211739,0.00072492,12.7658,35.9119,6.56118,12.8239,36.0506,6.49689,12.8446,35.9452,6.5295,12.8548,36.0512,6.48922
5.74038,0.257503,-6.80676,3.13071,6.12782,-6.47522,3.60373,6.81238,-5.84422,2.11943,5.76455,-6.26659,4.01987,7.12882
2.76528,0.0119808,-16.8733,6.51555,5.59776,-16.3946,7.25764,5.55639,-16.3961,7.96898,5.48575,-16.4649,7.96997,5.47929
1.86449,0.156619,2.34558,13.7924,-6.82422,3.49343,13.8461,-7.13475,4.18699,13.7889,-7.23409,4.17686,13.74,-7.23682
0.00644265,0.0126303,11.0889,40.8026,6.39314,11.0827,40.6841,6.44066,11.1312,40.8017,6.3474,11.1309,40.8276,6.34516
22.2789,0.00280242,-9.8179,18.3223,7.17891,-11.4916,18.3923,6.84378,-9.65841,16.2245,7.02616,-8.90161,16.2678,7.18572
0.0510095,0.0572632,-18.3309,38.5975,-4.32638,-18.161,38.6412,-4.40445,-18.0699,38.7081,-4.42222,-18.2512,38.5492,-4.38265
0,0.00207633,10.4583,7.82326,7.48243,10.3905,7.79524,7.50617,10.4038,7.85682,7.49305,10.4406,7.87064,7.47915
8.29308,0.32801,0.792875,33.2865,7.65691,0.515613,32.0296,7.92776,2.27904,33.6017,8.01073,0.353341,33.6849,7.99936
10.6835,0.740304,4.87803,13.9104,7.4221,4.39445,12.6904,8.28144,6.62451,13.8575,7.95745,4.09422,14.5088,8.23811
10.8197,0.222884,-3.50184,3.73983,-3.38912,-1.41289,5.06188,-4.48433,-3.75185,3.17452,-3.31385,-4.35328,3.77153,-3.62826
0.0733743,0.0223808,-21.1848,20.9622,-0.148647,-21.1762,21.0325,-0.0927669,-21.1542,20.9916,0.118043,-21.1552,21.0306,0.0361729
1.54154,0.121053,0.655313,35.7285,-6.14013,-0.546804,35.4818,-6.3134,-0.542338,35.5695,-6.28643,-0.207026,35.5094,-6.31324
2.60973,0.526046,6.75514,26.3452,7.35826,8.78841,25.9766,7.58189,8.57276,26.2168,7.59695,8.71911,26.0313,7.57457
2.73142,0.025972,-18.1596,27.7988,5.41413,-18.6881,27.775,5.00266,-18.8356,28.0637,4.84718,-17.8544,28.3807,5.50505
6.38734,0.224786,0.583721,6.3869,-5.0351,-0.430819,6.2401,-4.75713,-1.34819,6.35708,-4.40088,-0.997814,6.51324,-4.65808
9.60883,0.220009,-1.43588,8.22093,-5.46672,-0.553836,8.36386,-5.66764,-0.240852,8.84227,-6.10015,-0.484205,9.36148,-6.31247
56.8061,0.494824,-19.4725,33.8124,3.66505,-18.6033,32.2223,4.51504,-18.9653,32.0473,4.2999,-19.8076,29.2147,3.52026
4.14775,0.101744,-19.2588,29.8446,-4.432,-19.4123,29.5005,-4.42144,-18.7553,29.8747,-5.02754,-19.5183,30.7264,-4.35567
8.66037,0.571279,-13.4418,3.56404,5.2533,-14.6221,3.75352,5.85953,-14.4772,2.92791,5.23888,-11.9965,3.25034,6.09828
4.59304,0.18504,11.402,23.626,7.02022,11.6661,25.2193,7.10043,11.7374,25.0087,7.13332,11.0583,25.1929,6.67885
22.7883,0.642507,19.0991,6.96546,-0.0607865,18.9465,6.42487,-1.57863,20.3001,6.58451,0.717407,19.6129,7.77407,-0.465425
36.5219,0.0149204,-15.1653,35.6645,-4.99189,-12.0882,35.9904,-5.87667,-15.659,37.4955,-4.69842,-15.2444,38.6311,-4.71718
0.143351,0.00818527,-21.2193,24.0198,-1.3164,-21.2319,24.0677,-1.10629,-21.248,23.9164,-0.871759,-21.2451,23.9917,-0.8336
8.29283,0.40935,2.27718,10.1425,6.50132,2.61923,9.96488,6.72417,1.18587,11.4287,8.17462,1.43593,8.92999,7.59197
0,0.00860978,1.10722,16.1675,8.1722,1.16945,16.1805,8.16374,1.10377,16.1219,8.17073,1.1678,16.1466,8.15539
4.98574,0.29722,13.2284,2.18718,-0.645001,12.8911,1.86111,-0.798521,13.8693,1.2242,-0.314468,14.2414,3.18059,-1.6373
1.29525,0.119198,20.8014,36.2665,-1.30621,20.9462,36.0571,-1.56185,20.9075,36.6348,-1.24286,20.9206,35.9351,-1.20305
55.548,0.141995,20.8755,23.5786,-0.291033,21.0343,24.9474,-2.23946,21.0808,25.3598,-1.7512,20.9343,23.8309,-2.88721
14.0124,0.867463,-7.13138,39.5207,5.62999,-5.67386,40.116,6.77069,-7.92485,40.3197,6.3538,-7.39679,37.2144,6.49923
7.47785,0.153085,-1.4466,38.3748,6.60921,-1.32403,37.5914,6.92663,-1.58772,35.7295,7.33825,-1.72978,35.7885,7.33328
35.5878,0.0605406,7.74182,6.46964,7.70277,10.4494,6.44019,7.58864,10.4527,7.18571,7.54664,9.55111,5.72685,7.64706
10.8077,0.181445,-16.0558,38.9468,-3.8081,-13.1578,39.6582,-4.76195,-16.7475,38.0884,-4.68655,-16.8891,37.7669,-4.96792
9.80599,0.574979,4.55726,36.0646,6.6928,5.85164,37.2247,7.18793,5.15363,34.9025,7.22719,3.46071,36.5307,7.34148
51.5143,0.640447,-6.39763,38.6407,-5.11566,-6.76303,41.861,-3.95798,-4.46335,41.0388,-4.60034,-4.42732,40.3426,-5.00804
224.32,1.21874,1.99429,25.6081,-8.21214,-3.23818,30.7827,-7.44671,-2.86708,31.3068,-7.35191,-0.566396,32.586,-7.293
1.02055,0.385316,-3.85278,40.2313,6.89731,-3.27924,39.4847,6.66728,-3.28008,39.5243,6.69383,-3.43584,39.5043,6.74058
3.10431,0.0707072,10.4999,38.1287,6.44764,12.695,38.1619,6.31767,12.6195,38.2589,6.31993,10.1607,38.254,6.38635
114.255,0.0317732,11.2902,32.8588,-6.26935,18.3107,32.6703,-4.82039,18.8301,31.8125,-4.79189,12.7669,34.6593,-5.77248
204.398,0.00157666,3.1547,24.9715,-8.28804,5.52127,24.5719,-8.42454,6.76788,29.3315,-7.60838,2.8062,28.2166,-7.69623
2.38257,0.139113,-0.673531,0.421038,2.22784,-0.400932,0.26767,2.61312,-1.15586,0.384216,2.38662,-0.203635,0.152091,1.83612
201.764,0.892857,4.47177,4.55021,7.55842,-1.36658,10.0544,7.7607,-2.26777,9.56348,7.5027,-0.962736,10.6275,7.91507
1.39197,0.0375742,14.5699,27.8902,-6.66333,14.2244,27.8737,-6.75885,14.8007,28.2745,-6.52044,15.0673,28.1718,-6.52363
63.3714,0.446369,16.7174,9.24365,-3.80454,15.4389,7.75149,-3.76217,17.485,7.32845,-2.34858,15.7586,5.85689,-3.14003
8.15837,0.33713,15.8748,37.957,-3.6756,15.4261,38.9297,-3.88405,15.372,37.4908,-4.42881,17.6224,37.9753,-3.35474
7.30327,0.41301,15.3762,17.4803,6.38104,16.8178,17.5918,6.86697,15.0011,17.6549,6.79812,15.2243,15.9003,6.63434
4.96301,0.199253,-19.313,2.12795,1.63509,-19.3492,2.40454,0.442622,-19.2944,2.35929,0.0131639,-19.2171,2.30198,0.779433
3.294,0.176366,4.12372,44.1369,2.38263,4.94935,44.2597,2.325,3.76958,44.3904,2.16375,4.14499,44.1085,3.42497
0.166446,0.0171901,4.17158,12.4575,8.36124,2.71406,11.3428,8.30153,3.68575,12.481,8.39961,3.69551,12.3952,8.3891
6.73754,0.462396,10.6602,9.96778,6.43338,12.4355,11.1195,6.89522,12.7735,11.5493,7.17205,12.7249,11.8066,7.26881
41.379,0.769324,1.83752,6.24825,-4.03349,1.00038,5.59758,-4.5894,3.13752,4.63962,-4.19355,1.67962,4.36615,-4.07083
7.95055,0.692174,13.7611,33.5714,5.30944,12.612,33.7248,6.31972,14.3774,33.6406,5.86151,13.6822,31.3325,6.13552
1.58905,0.0444522,-8.23693,10.7784,6.982,-8.72384,11.1411,6.91514,-8.30734,10.488,6.99166,-9.61926,10.609,6.63667
1.90731,0.0946532,19.3967,2.36915,1.50868,19.0023,2.66158,0.972992,19.1123,2.89293,1.10549,19.1189,2.81887,1.13274
0.0168364,0.00190027,-5.3636,34.3641,7.8211,-5.30094,34.4394,7.8342,-5.30545,34.3899,7.83974,-5.34912,34.4678,7.80955
3.52746,0.014438,-16.1968,9.01186,5.44744,-16.3942,8.07059,5.47898,-16.6881,8.50556,5.47842,-16.7522,8.11345,5.4852
9.8462,0.09023,-13.7355,43.2974,-1.38593,-13.65,43.6149,-0.690932,-12.816,43.6798,-1.28128,-12.1563,44.26,0.121824
2.52278,0.112887,20.5375,19.0594,1.68087,20.5536,18.5924,1.94181,20.6103,19.1635,1.8348,20.9248,18.884,0.831702
1.64749,0.428254,0.296766,37.2735,7.61999,-0.971466,37.2987,7.30793,-1.1083,37.3843,7.20923,-0.972175,37.4506,7.28969
2.73165,0.0482758,-3.38861,4.43382,6.44595,-3.7785,4.09626,6.79153,-3.28032,4.79703,7.20684,-3.50484,4.23397,6.43571
3.89116,0.0629984,-13.4749,19.505,-7.42902,-14.0748,19.1345,-7.30377,-14.2538,18.3799,-7.18613,-14.1161,18.2886,-7.21324
20.5064,0.389284,10.5548,42.6347,-1.25255,11.3428,42.945,-1.19674,9.94362,43.4378,-1.19567,9.69657,42.0083,-2.90655
4.10695,0.319262,7.83843,36.2657,6.53375,8.5256,36.2706,6.66393,7.6109,35.9708,6.87951,7.53995,37.2382,7.18789
12.1708,0.0874954,6.07223,4.32991,7.52324,5.10707,4.65038,7.55882,3.72486,3.38736,7.27652,3.6574,3.69379,7.36174
69.8489,0.0132913,-13.2216,17.7553,5.70328,-13.8226,14.3296,5.79612,-10.5088,17.3081,6.87479,-12.4364,16.0887,6.19345
0.386081,0.216753,-20.7411,9.97697,-1.30597,-20.5909,9.80742,-1.52601,-20.5537,9.58762,-1.55406,-20.56,9.65959,-1.54361
1.35407,0.139125,-0.114402,0.304076,3.02111,-0.181536,0.787355,3.85301,-0.245211,0.643704,3.618,-0.0450801,0.808059,3.98185
30.5866,0.0327562,-0.114575,22.3828,-8.3038,3.99765,22.1327,-8.37006,-0.757082,23.4382,-8.3694,3.40383,24.1534,-8.43953
15.8228,0.339612,-8.63706,20.6159,-8.08139,-9.38749,20.6445,-8.35486,-7.89629,19.3094,-8.48594,-7.03217,22.4315,-8.57132
9.43686,0.220662,-1.69757,2.29069,-1.54403,-1.30831,3.30621,-2.62752,-2.01754,1.13517,-0.911519,-1.32028,1.4106,-1.08477
9.7797,0.403561,0.941972,36.1326,-5.53171,0.39102,35.9266,-6.14646,1.47842,35.7467,-5.88326,1.65523,38.1121,-5.38804
1.45457,0.617652,-12.008,30.6295,6.8175,-11.0839,30.4801,7.2029,-10.8066,30.67,7.224,-10.9482,30.5725,7.21852
30.871,0.692736,17.5498,24.7077,-5.72493,17.4703,21.7667,-5.83279,17.6664,21.5746,-5.55144,19.1306,24.5261,-4.9907
15.8556,0.169813,13.6442,42.7361,4.87193,15.2376,43.8641,2.72332,14.484,43.6171,3.42261,13.3129,41.5985,5.67121
12.3311,0.0901436,20.1562,35.5981,-2.39492,18.4879,33.9639,-4.27299,17.8001,34.4532,-3.63465,20.8017,35.8664,-1.92751
28.9983,0.109804,5.44012,15.412,7.85706,8.49849,16.202,7.78652,5.98549,17.2871,7.83409,7.24309,16.1666,7.84387
0.733418,0.0465546,4.17629,0.36853,0.105828,4.07488,0.315855,0.286461,4.17317,0.215396,0.361108,4.26153,0.284508,-0.000158129
3.76213,0.0566744,19.8079,38.1785,3.6512,18.5707,39.4948,3.74835,18.5661,39.7066,3.73919,19.1954,39.0342,3.71885
6.69014,0.660349,3.37928,32.6588,7.0897,3.36252,31.6712,7.42774,4.44827,32.4674,7.69229,2.39502,33.027,7.95999
3.5092,0.082198,-2.9519,22.9458,8.16585,-3.49463,23.1353,7.95613,-1.5161,22.5876,8.38587,-1.56624,22.5273,8.38853
15.1111,0.353686,19.7593,16.304,-3.12481,19.6956,17.2789,-4.18644,19.5008,14.3498,-3.42343,20.3758,16.8674,-3.07749
3.80896,0.263702,-4.52828,12.4318,-6.76129,-4.0166,11.4734,-6.96847,-3.76285,13.292,-7.31544,-4.96047,12.2492,-6.92344
7.22826,0.735718,-10.8876,22.7893,6.79924,-11.7279,20.7599,6.94229,-11.7051,20.2694,6.93659,-11.7272,20.8059,6.93769
4.83813,0.00256773,11.8563,1.90111,6.43466,12.0068,2.6871,6.64032,12.5469,2.50058,6.65704,12.4837,2.8582,6.73669
6.68119,0.48644,10.5622,9.59621,6.25421,9.90038,8.95049,7.26305,11.1191,10.0667,6.44076,9.62522,9.66687,7.04624
7.17243,0.20681,-9.26981,21.6948,-8.01004,-9.71837,22.3415,-8.17735,-8.87083,20.8852,-8.25685,-10.2535,21.5726,-8.15603
3.10573,0.0740174,-15.1837,3.36306,5.72053,-16.4415,3.32907,5.52308,-16.0253,3.89179,5.83754,-15.544,3.96501,5.91153
3.44978,0.818079,0.159152,44.6964,0.981669,0.123828,44.7711,-0.29627,0.0794804,44.7811,-0.254776,0.4768,44.732,-0.577702
2.75753,0.0843251,12.9707,17.1475,7.38526,12.4075,17.9241,7.51173,11.9193,18.1891,7.57512,12.6857,18.0546,7.56015
1.25453,0.217315,-11.345,18.9684,6.98596,-11.8313,18.3164,6.77281,-11.8329,17.9469,6.71457,-11.8239,18.1798,6.75775
6.38936,0.244644,-18.0656,20.2473,5.262,-15.8816,20.3752,6.07924,-16.6546,21.1642,5.86987,-16.5176,21.1196,5.92729
37.3564,0.00446169,-11.2163,2.03324,5.47863,-9.16358,2.95463,6.30331,-9.7924,3.84315,6.74993,-9.1075,3.81804,6.82777
0.935413,0.0575981,-12.0114,32.9273,6.78525,-12.375,33.6058,6.7023,-12.2968,33.6446,6.7114,-12.0217,33.4765,6.77869
9.72424,0.03613,-20.2172,12.5112,3.62742,-19.8063,14.6436,4.09666,-20.2754,14.8471,3.47702,-19.9199,14.4859,3.95852
10.601,0.00881048,-20.6545,15.174,2.61534,-21.0319,14.0872,1.80482,-20.5388,12.5917,3.02529,-20.3149,15.242,3.36251
9.72899,0.733998,17.494,40.7198,3.72006,18.3403,41.807,4.23909,18.5691,39.7213,3.73898,16.8368,40.1784,4.93668
23.3096,0.0439194,20.6945,26.1178,1.62021,21.1525,24.8232,0.476927,21.1241,25.7895,0.129537,20.8374,24.3175,2.07633
0.466327,0.0421024,-3.86295,25.6585,8.13306,-3.97829,25.7808,8.06129,-3.2497,25.6975,8.19398,-3.24891,25.6533,8.19733
19.2472,0.953861,-2.00831,10.0666,-5.84599,1.57593,9.82735,-6.29518,1.42391,9.79889,-6.364,-2.65883,10.7509,-6.73564
7.49887,0.0720182,13.5965,1.73274,6.1642,12.8519,1.16145,5.7327,11.7319,1.69575,6.32468,12.835,2.20073,6.55704
1.24275,0.0375878,-4.71192,13.1208,7.69638,-4.22672,12.5401,7.6918,-4.7091,12.731,7.70289,-4.22623,12.3982,7.68044
0.663448,0.212556,5.52942,44.5825,-0.761609,5.38538,44.6374,-0.49114,5.24769,44.6978,-0.509626,5.47892,44.7173,-0.377518
4.14415,1.57314,18.8476,4.83179,5.57677,16.3529,4.53659,6.26795,16.4425,4.61649,6.17902,16.2458,4.33676,6.27576
0.127206,0.00357421,-3.68947,29.449,8.48704,-3.61461,29.5245,8.48752,-3.61611,29.7351,8.4711,-3.68655,29.7337,8.46862
5.51514,0.139971,9.00411,9.6733,7.26066,6.56764,9.86528,7.20867,6.45859,9.80522,7.19596,9.55367,9.68905,7.11021
3.46521,0.115024,-13.6431,3.17787,5.24132,-14.0013,2.61982,5.16294,-12.7505,2.75089,5.60225,-13.6494,2.40231,5.24984
3.31841,0.0806196,9.50513,43.5553,-1.20621,9.73157,42.7512,-1.96468,9.32408,43.7597,-1.28591,9.81132,43.0057,-1.63848
78.7501,0.100921,-9.70264,39.9128,-4.98464,-8.18505,36.8403,-5.86772,-6.57928,36.9411,-5.74125,-6.57105,36.9845,-5.72844
1.46042,0.00537271,-18.6587,17.1428,4.8591,-19.1004,17.2004,4.5442,-18.7517,17.4016,4.82022,-19.0766,17.1334,4.55234
3.56197,0.153017,3.37684,9.13139,7.26388,2.8849,10.064,6.85585,4.06193,8.03978,7.42706,2.6738,10.0484,6.77071
0.0801064,0.00701328,-14.2893,33.5612,-6.30502,-14.2185,33.6951,-6.29667,-14.2873,33.6524,-6.292,-14.153,33.6884,-6.30434
2.09666,0.337744,9.35941,24.1157,7.19968,10.9585,22.8711,7.38151,11.1709,22.747,7.34745,10.683,23.2766,7.36598
1.50439,0.372893,12.4005,4.20875,7.00694,13.6537,4.17269,7.00921,13.4468,4.38592,7.20935,13.7186,4.18156,6.9923
3.93051,0.045833,8.36054,23.3475,7.72864,7.31827,23.6251,7.5132,9.55695,23.48,7.57028,7.81635,23.3631,7.67294
0.401199,0.0339398,6.55798,4.79626,7.6016,6.72171,4.39424,7.29044,6.84056,4.32198,7.21682,6.56745,4.56149,7.44773
0.0883473,0.0207187,6.40536,10.9328,7.82376,6.47781,10.7961,7.80481,6.54887,10.8359,7.83294,6.41066,10.8021,7.79552
39.323,0.0860088,17.352,39.7344,4.40574,17.9486,36.553,4.71109,16.7091,36.1816,5.29845,16.4032,36.6286,5.36425
32.676,0.424118,-4.84216,42.6745,-1.99085,-6.11109,43.6364,-1.37089,-2.54103,43.4374,-2.29617,-5.60292,41.9063,-3.22099
3.50487,0.0183531,-1.05052,1.12656,-0.808089,-1.07896,2.30338,-2.0227,-0.879394,1.67329,-1.50429,-0.939684,2.25945,-2.08746
2.45487,1.11682,18.6451,19.3703,5.34649,18.619,21.6354,4.88788,18.5072,21.721,4.95231,18.5823,21.6837,4.88092
6.54262,0.733358,-3.30999,40.068,-5.03121,-3.471,37.3051,-5.96744,-3.40456,37.3004,-5.9603,-3.2343,37.7024,-5.91519
0,0.00411181,-8.3337,25.3657,7.91584,-8.26127,25.3172,7.92642,-8.26216,25.3627,7.92911,-8.33663,25.4242,7.91461
3.01058,0.0392793,17.3024,26.5166,5.76236,16.8109,26.566,5.88219,18.4274,26.2325,5.34355,18.3815,26.4956,5.3717
17.1283,0.291713,-20.9293,10.634,-0.762385,-21.2514,15.4604,-0.143102,-21.2609,14.797,0.556347,-21.1292,15.1241,-0.843264
48.9889,0.477861,13.8939,43.0437,-1.06664,14.5006,44.1121,0.714559,15.8677,43.607,0.847436,15.8887,43.8653,1.47122
2.59995,0.016783,-13.9206,32.1921,-6.49629,-13.7383,31.7677,-6.50524,-12.8859,31.8417,-6.61565,-13.2482,31.6642,-6.55823
34.9759,0.229639,15.3837,16.9423,-6.39873,14.939,15.2101,-5.92517,17.1064,15.4107,-5.41057,15.8657,14.3624,-5.51872
25.5514,0.116206,-11.6959,8.07683,-4.61239,-10.5992,6.18554,-4.26223,-10.0137,8.7804,-5.25381,-10.1348,6.738,-4.58486
7.27156,0.597042,18.9472,17.4978,4.53224,19.7151,16.1209,4.22221,19.592,16.299,4.13672,19.3369,17.8631,4.12633
18.5978,0.246372,16.5996,3.47516,-1.39485,13.7531,3.58353,-1.71125,18.1946,3.45216,-0.682671,12.8985,3.74504,-1.79883
11.9346,0.078633,9.20234,25.6639,7.52174,10.1276,25.6135,7.4211,9.29326,24.167,7.19255,8.56226,24.4822,7.25476
7.3548,0.320219,-10.1503,1.28036,-0.914898,-10.6095,0.401494,1.4414,-9.54077,0.788616,-0.189652,-10.7598,0.496037,1.02815
99.8574,0.406871,9.07515,31.2481,-6.90126,13.7625,31.668,-6.10063,14.0255,29.9477,-6.38336,13.6217,28.5907,-6.7554
6.59401,0.490957,-3.8231,15.7744,7.21683,-4.31869,16.2603,7.6854,-5.20674,14.6232,7.72084,-4.71993,14.6231,7.72864
1.45211,0.168678,20.7684,15.8993,-2.49396,20.8598,16.5356,-2.26077,20.7721,16.0478,-1.92147,20.7654,16.2447,-1.91514
4.19382,0.0146449,13.7685,40.5366,5.92391,12.8226,41.4102,5.8899,12.2102,40.5574,6.29543,12.081,41.2249,6.13163
3.48702,0.982564,19.4675,11.8642,-2.964,19.9918,12.5358,-2.1652,20.3328,13.3203,-2.6667,19.9907,12.639,-2.17918
10.3599,0.769877,-12.5606,26.6609,-7.27226,-11.9108,28.4524,-7.0736,-12.0363,28.8241,-7.0505,-11.6258,26.9623,-7.37247
0.525913,0.0317898,-10.9865,29.3931,-6.84843,-10.8589,29.5951,-6.79164,-10.7289,29.5942,-6.81392,-10.6774,29.367,-6.8738
48.008,0.244845,9.4798,4.63577,7.58786,6.27791,6.96271,7.76758,5.93119,8.12173,7.7832,6.0065,5.85593,7.72939
5.85326,0.590195,8.73774,14.6308,7.0907,8.49331,15.5822,7.7546,10.035,14.648,7.30535,8.21566,13.9067,7.89436
3.935,0.0352197,-17.3876,41.4657,-2.90795,-15.6099,41.6165,-3.00847,-16.9215,41.7591,-2.69767,-15.8121,41.837,-2.80171
6.12697,0.249661,7.14352,15.8901,-6.96446,6.30623,16.4477,-7.87559,7.34955,15.2994,-7.35358,7.3882,14.6836,-7.55387
14.0864,0.581167,-6.7234,25.9459,7.26836,-4.13965,25.615,8.12847,-7.14486,25.0957,7.65299,-7.23387,26.8396,7.96549
1.5354,0.00598516,14.8277,9.21904,-4.55504,15.4279,9.9877,-4.56483,15.0936,10.2133,-4.7147,15.0741,9.87583,-4.63824
3.32579,0.616125,13.0922,31.2125,6.52145,11.896,30.9725,6.8457,11.7366,30.7965,7.00071,11.8208,31.3288,6.93425
2.93756,0.0245218,13.4752,22.6512,7.19743,13.2814,23.193,7.1437,13.1168,20.858,7.44189,13.2557,20.8722,7.416
9.29423,0.271085,-14.5302,22.4264,-7.20578,-17.5647,23.0032,-6.25709,-16.8511,23.0161,-6.56054,-17.6038,22.6086,-6.21135
3.93768,0.30742,20.1186,27.1458,3.9562,19.093,26.7313,3.96992,18.9648,26.9956,3.97175,19.0011,27.0558,3.98831
211.723,0.129152,2.32625,28.5479,-7.62036,4.5483,31.2702,-7.33028,0.629209,32.6803,-7.33704,3.33665,32.2412,-7.30852
5.54155,0.0894207,-21.0391,32.3508,-0.0673765,-20.9207,34.6969,-0.046153,-20.9136,34.7367,-0.0246268,-20.8671,34.758,0.249421
3.03832,0.371738,19.3808,38.6144,-2.86494,19.3301,37.6307,-2.72509,19.4151,37.8082,-2.73378,19.2542,37.3611,-2.78631
15.2938,0.498891,-14.7887,20.9407,-6.54774,-15.5901,19.9659,-6.91015,-15.6789,22.186,-6.86468,-12.6984,20.9597,-7.46937
2.70137,0.00274819,-5.59983,22.8766,8.02935,-6.7263,22.9552,7.83093,-6.70965,22.685,7.86172,-5.74862,22.9952,7.99439
1.82402,0.0642565,17.626,35.0924,4.69796,17.6421,34.1784,5.26454,17.5472,34.5362,5.03398,17.8049,34.3506,5.09999
11.1928,0.901543,-14.7124,14.0814,4.91591,-15.5299,12.6893,5.69054,-12.559,13.8616,5.9943,-15.5032,15.4717,5.81622
5.12104,0.870587,-14.7756,32.2872,-6.29528,-15.0084,33.2977,-6.18496,-14.7244,33.3852,-6.23719,-14.4257,33.4732,-6.28743
6.41484,0.0322814,7.29215,0.236291,1.58871,7.4144,0.176164,0.655186,7.08678,0.218574,2.26374,8.30501,0.215025,0.576485
9.89387,0.285314,-13.8014,15.8358,-6.22935,-14.0427,15.336,-6.23772,-15.358,16.5574,-6.57743,-12.823,16.4056,-7.08997
16.6738,0.0747711,-20.1309,35.7898,-2.69228,-19.8146,37.2281,-3.1375,-19.4331,36.0858,-3.50986,-18.6425,37.0689,-4.32363
2.62002,0.00566683,-20.3063,32.334,2.37752,-20.5041,31.638,1.73739,-20.5614,32.6358,1.70151,-20.3992,31.5749,2.01596
4.55805,0.435203,-7.07167,13.4657,-6.73822,-6.21197,13.5995,-7.18169,-7.637,12.15,-6.8215,-7.8272,14.3775,-7.52671
5.4208,0.0939732,-1.72347,35.4947,7.31135,-1.58437,35.6731,7.359,0.50694,35.1274,7.86312,-1.70013,34.7729,7.71351
0,0.00230784,12.6932,13.3649,7.71009,12.7294,13.4077,7.68304,12.7326,13.3825,7.6848,12.6914,13.3985,7.7038
9.77133,0.476696,-3.0493,12.1165,7.07424,-1.80221,12.1163,7.95917,-3.01431,10.8096,6.89397,-3.67479,12.2568,7.55763
3.46662,0.123561,20.1635,39.4244,-0.622303,20.2675,39.6456,-1.79993,20.2457,39.6503,-0.514953,20.4453,38.5739,-0.572247
3.77458,0.668203,-13.7595,15.3118,-6.19297,-13.4316,14.6933,-6.12873,-14.015,14.5005,-6.26005,-13.6055,14.6484,-6.12944
3.07271,0.0380103,-19.417,35.7127,-3.58351,-19.041,34.6487,-4.32527,-19.2067,34.1874,-4.17743,-19.1417,34.2182,-4.25977
1.83604,0.107725,9.13396,6.72466,-4.13806,9.30609,7.36536,-4.11726,8.55645,6.04451,-4.4083,9.38332,7.3163,-4.12226
15.6904,0.149074,-1.82279,43.9218,-1.25297,-2.05806,42.2913,-3.38865,-1.5649,42.2124,-3.51293,-1.49765,42.2134,-3.51604
5.56057,0.0604727,17.5096,37.8523,-3.41971,19.0064,36.82,-2.75209,20.3362,35.9544,-2.20489,20.3709,35.977,-2.16733
14.3018,0.665403,11.8177,14.2748,-6.19672,12.6432,13.8803,-6.5444,11.7785,16.349,-6.96344,11.0508,15.1417,-7.29235
3.67513,0.244555,-19.1821,19.5538,4.4962,-18.449,19.1045,5.05932,-18.3049,19.5991,5.13791,-18.3186,19.2896,5.12131
9.94262,0.193049,5.05122,28.4963,-7.71806,5.38307,31.3163,-7.24836,5.66048,31.1717,-7.2811,4.62881,29.8332,-7.60268
27.2266,1.93961,20.9912,32.1312,-2.32081,20.5295,30.5584,-0.843822,20.9927,32.2352,0.0599784,20.5456,31.4941,-0.473584
0.346995,0.0992737,-12.2198,25.3439,-7.24717,-12.0287,25.4814,-7.29207,-11.9169,25.2761,-7.50667,-12.0419,25.3222,-7.32403
14.4476,0.656133,-10.3289,13.7797,-6.44423,-9.9321,15.8491,-7.50662,-11.196,12.9596,-6.61542,-10.3001,15.9388,-7.13943
2.38634,0.135384,14.6243,24.2142,6.15211,13.5623,24.618,6.69316,13.729,24.0206,6.46148,13.9303,24.2481,6.39816
1.63904,0.051963,-19.3771,15.3612,4.43635,-20.2711,15.1974,3.438,-18.9868,15.4326,4.76237,-20.28,15.2942,3.41071
0.954909,0.570458,8.46433,16.5613,-7.40878,7.47049,16.0874,-7.10903,7.46363,16.0432,-7.06709,7.52969,15.9891,-7.07326
1.36594,0.663964,8.53719,16.6099,-7.42327,10.1841,17.3239,-7.67336,10.1287,17.4277,-7.70365,10.1971,17.4158,-7.67996
12.9721,0.556823,-5.26628,20.8816,8.30591,-3.51775,21.8361,8.60773,-4.14164,21.8564,8.53338,-5.19479,21.9621,8.36965
5.69425,0.0339534,20.1668,19.606,-3.20777,19.821,20.1463,-4.43938,19.4493,20.8879,-4.90836,20.4581,19.092,-2.91027
10.193,0.526948,-10.3574,43.4042,-0.836255,-11.2806,43.9657,-1.25327,-9.43762,43.3533,-1.8286,-8.69489,44.3794,0.601613
0.396277,0.022587,21.0566,29.8635,-2.8678,20.9514,30.1291,-3.12913,20.9469,30.0505,-3.15496,20.9813,30.1808,-3.0474
0.604621,0.28695,17.5952,9.51209,6.54391,17.6497,9.86053,6.52138,17.3513,9.69728,6.67981,17.4976,9.79058,6.5631
14.4971,0.38385,12.5833,35.932,-4.97897,10.5222,34.8977,-5.52342,12.3644,35.1242,-5.66995,10.6566,35.1146,-5.12698
169.792,0.887892,-13.5651,30.9797,-6.55782,-4.91395,32.428,-7.19297,-4.85221,30.9241,-7.34331,-4.48189,32.6508,-7.2562
21.7529,1.93859,-10.5231,9.84595,6.19934,-10.6324,4.70419,6.88551,-10.5572,4.74427,6.90654,-8.68939,4.49186,7.10857
5.20947,0.0666911,6.62488,17.939,7.45679,8.77793,17.344,7.64229,8.21285,17.6514,7.7165,5.93345,18.1087,7.24784
0.93807,0.0326778,-7.0952,4.46348,7.22245,-7.62697,3.93465,6.9785,-6.74677,4.23521,7.19283,-7.56881,3.92453,6.97969


