
0.0334384,0.0728829,2.29787,10.8233,-6.40092,2.34225,10.6345,-6.38775,2.23121,10.747,-6.38461,2.28669,10.6882,-6.38758
4.34234,0.700039,16.7296,11.2274,4.28917,16.6618,12.3812,4.2459,17.1017,12.361,4.08378,16.8242,12.3308,4.1553
1.93204,0.102356,11.5403,2.96547,3.18366,10.1841,2.93408,3.28156,10.0054,3.12066,3.37407,10.4731,2.86481,3.24734
5.48713,0.481903,12.0652,23.6943,4.82908,12.128,23.0603,5.09559,11.2629,24.4968,5.6013,13.1687,24.1595,5.67279
5.0949,0.387941,-8.90822,10.231,4.57254,-9.16424,10.6165,4.83611,-6.74975,10.0303,5.20776,-9.598,9.46405,5.18332
5.36096,0.450214,-2.89769,29.0338,-4.07616,-3.23305,29.7438,-4.56995,-1.3746,29.3195,-4.61518,-2.98062,28.5832,-4.48914
1.1104,0.0129338,6.26575,0.180032,-0.696509,6.63923,0.560957,-1.28418,6.89771,0.632547,-1.39842,7.0375,0.607619,-1.35765
11.4725,0.0835292,-15.2366,24.8164,-3.36596,-15.1476,23.4419,-3.53579,-15.7916,23.7444,-3.10611,-14.4583,23.7954,-3.88972
3.70492,0.500459,1.52607,6.04151,5.28203,3.01031,5.86343,5.29931,3.04092,5.20043,5.07297,3.03747,5.14102,5.04994
24.6488,0.199212,-18.1399,27.144,3.11392,-17.7024,25.7918,4.41363,-18.3564,26.9169,1.971,-17.8466,25.025,4.36005
0.840728,0.107454,11.5221,14.5734,5.78201,11.9089,14.4457,5.82511,11.3922,14.6809,5.90359,11.8935,14.5325,5.79492
0.701044,0.00416084,11.9963,25.936,5.66995,11.9605,26.6799,5.27458,11.8566,26.6766,5.27981,11.7856,25.9323,5.68374
7.97341,0.869231,13.7282,32.1952,-1.75564,13.7384,29.8539,-1.98435,14.6423,30.6843,-1.97652,13.3861,29.8723,-2.09119
4.80611,0.279085,-9.82403,5.98401,4.09275,-10.1201,7.22458,5.15211,-9.46263,5.9436,4.07342,-10.1323,5.01583,4.8054
53.929,0.248821,-14.5163,3.50374,-1.2296,-15.4527,3.41589,-1.21935,-12.2326,3.33672,-2.075,-12.0199,1.03419,-0.250137
4.61755,0.58978,-5.78435,15.2412,-5.71899,-5.73041,17.1874,-6.35824,-5.89512,16.9323,-6.31473,-5.79805,17.1945,-6.34139
14.2869,0.155586,-2.11656,23.2183,5.61591,-2.27936,20.1912,6.49352,-1.46888,23.3222,5.80399,-2.13503,20.287,6.48212
3.65082,0.251636,6.02455,3.65316,-2.93234,7.40291,3.61005,-3.06488,5.70728,3.56667,-3.19749,5.68112,2.81216,-2.99393
5.96272,0.13252,9.63565,21.4744,6.0276,10.1729,22.8224,5.74269,9.88973,22.7362,5.60697,9.94794,22.9883,5.49223
7.53168,1.76288,10.888,21.637,5.95937,10.8255,23.9585,5.12508,11.0436,23.7102,5.05026,11.4088,23.7014,5.14022
469.795,0.377698,6.63705,19.6452,-5.82994,5.1724,24.0862,-5.70895,12.4346,23.1029,-4.29622,11.6592,24.5926,-4.44019
30.5212,0.255468,-13.8934,9.47735,-4.14268,-16.6164,8.21091,-2.44403,-16.7123,9.50278,-2.55545,-14.3959,10.3027,-4.22643
3.9853,0.247623,-5.52717,12.2115,-5.38237,-5.75561,13.4229,-5.90682,-5.74164,11.8938,-5.52635,-4.81485,12.1497,-5.74131
1.48184,0.31999,17.4027,15.4675,3.52912,18.0791,16.0448,3.30139,18.1557,15.9072,3.30954,17.9365,16.2296,3.3137
17.7354,0.442394,3.44489,3.60311,-3.22195,3.84669,4.69229,-4.75558,3.0612,2.73029,-3.11753,5.65533,3.57151,-3.25487
1.87645,1.19418,-9.52461,5.89229,4.07746,-7.91485,5.85656,4.46479,-7.97002,5.70391,4.42186,-7.91336,5.80152,4.43279
0.490179,0.199555,-18.3566,27.0308,1.72763,-18.2945,26.7341,1.51736,-18.3857,26.5782,1.43684,-18.3632,26.6071,1.3062
11.3594,0.400216,9.66235,20.6656,5.36207,9.61239,17.7499,6.4634,10.25,20.9279,5.64592,9.29339,21.024,5.73486
8.06708,0.131695,17.2249,7.9342,0.413094,17.8033,11.1322,-0.957127,17.8117,11.1959,-0.878245,17.7174,10.5003,-1.16961
14.3185,0.225128,3.85022,17.5854,-6.16359,0.97209,20.9937,-6.21467,3.69645,14.3977,-5.63779,3.63195,15.7052,-5.9105
35.8834,0.591065,-0.830789,9.82986,-6.12863,0.967226,9.41875,-5.73195,0.280152,7.82281,-5.38545,0.358251,7.81578,-5.39612
2.98914,0.672154,-2.17883,12.0149,-5.45892,-0.643545,11.3824,-6.4623,-0.97457,11.2445,-6.34544,-0.652514,11.3378,-6.45119
0.94832,0.0711768,17.2367,19.5382,-0.748952,17.3533,19.8857,-0.789839,17.4511,19.3293,-0.762495,17.5483,19.7322,-0.734873
1.72042,0.124583,13.846,13.1635,-3.07114,12.8311,12.9992,-3.4115,12.8206,12.9049,-3.42784,13.0861,13.033,-3.29232
0.695164,0.0163533,-15.2847,10.4394,-3.76111,-15.5856,10.377,-3.55015,-15.4727,10.7273,-3.60233,-15.5933,10.6732,-3.51246
3.54355,0.0540785,-18.1036,7.13622,2.00675,-18.2965,7.52424,1.43208,-17.8383,7.14306,2.79889,-18.0144,7.83754,2.79952
27.4758,0.283639,-18.5287,24.2801,0.77904,-18.506,25.5284,2.59422,-18.3329,26.1453,0.734872,-18.4357,26.2347,1.62882
37.9038,0.101637,-5.98588,29.4617,-4.22618,-6.0961,32.816,-3.15295,-5.01749,29.1112,-4.43236,-4.89163,32.5045,-3.50875
49.5822,0.659182,4.67159,28.1338,-4.31847,5.86393,29.2989,-4.35748,5.96063,28.8371,-4.28295,4.25434,26.9872,-5.34875
7.92556,0.520329,-10.1453,22.7866,5.02226,-10.5915,22.2825,5.73684,-10.4491,23.3197,5.34195,-6.28534,22.634,6.04857
4.43076,0.324932,15.5552,22.5274,4.76506,16.9831,22.5941,4.27344,17.4107,22.8962,3.92155,16.826,22.7403,4.32338
1.87757,0.0267706,-4.10387,30.8215,-4.42778,-4.56012,30.9405,-4.2277,-5.68495,30.7437,-3.77009,-5.67189,30.835,-3.75552
0.640664,0.0981701,17.3394,13.303,-1.64258,16.962,13.3545,-1.90657,16.974,13.4457,-1.88791,16.8409,13.3032,-2.04209
2.32128,0.135068,18.3755,10.9579,-0.0744967,17.8399,11.25,-0.794142,17.7795,11.3989,-0.98325,17.8139,11.4687,-0.98119
55.7667,0.833067,13.7264,4.67501,2.66033,15.343,4.71116,3.11633,12.3884,3.92107,4.16333,14.449,2.153,-0.00829661
61.7341,0.0112262,-5.60618,15.5925,6.67316,-6.87172,16.9097,6.68213,-8.84343,17.734,6.6543,-8.72208,16.6929,6.60816
2.47765,0.0506226,15.0256,8.29971,-2.36181,13.091,8.09792,-3.07236,13.5148,8.20612,-2.95721,13.1412,8.04982,-3.03238
10.2668,0.431893,6.71697,30.9222,-3.66493,6.8192,32.3245,-2.27194,6.4451,31.9252,-2.39709,6.34871,29.491,-3.91672
8.38022,0.687661,11.2348,6.9087,4.83292,11.0024,8.83502,5.04615,11.6332,8.86778,5.66334,11.1125,8.86616,5.14669
0.510535,0.0252119,13.6004,19.0469,6.28613,14.0759,18.8533,6.1977,14.0104,18.8496,6.21189,13.8187,19.4228,6.28326
7.80995,0.66982,-15.4492,6.26262,-1.86404,-13.2846,6.25804,-3.50603,-16.0014,4.90945,-2.08128,-16.1309,6.83371,-2.4432
2.64125,0.0428401,-18.4089,13.0146,-0.714784,-18.043,12.8756,-1.49785,-18.1441,13.1225,-1.34997,-18.178,13.3414,-1.32788
2.10163,0.120836,17.0643,9.51584,-1.68295,16.6282,8.68915,-1.58844,17.025,9.14966,-1.61727,16.666,8.6019,-1.49167
80.9421,0.721744,-0.413602,28.9407,-4.3182,4.35749,30.2917,-4.30445,4.1687,28.1604,-4.86201,3.47274,31.2381,-4.14173
0.046779,0.0143205,-14.9786,11.6579,5.21913,-15.2027,11.5319,5.13628,-15.1189,11.518,5.13604,-15.0559,11.6409,5.19138
20.3863,0.0334019,-0.630524,20.6036,-6.22644,-0.370074,22.3378,-6.16357,0.415753,22.2103,-6.16492,0.213778,22.5088,-6.1501
2.46039,0.119762,12.2435,17.4165,5.70191,12.0965,17.6257,5.83927,13.0151,17.6458,5.7816,12.2525,16.6953,5.79412
3.78229,0.333887,-8.75437,15.083,6.54682,-8.36108,13.7528,6.42527,-8.28479,13.7597,6.42852,-8.71468,13.6047,6.42719
1.10795,0.155339,-0.641426,12.8839,-6.56056,-0.389716,12.8908,-6.72455,-1.12719,12.8288,-6.70278,-0.497687,13.1713,-6.79381
2.59024,0.935104,-1.47374,27.9,5.42356,-0.00113749,28.0163,5.33532,0.116734,28.1834,5.23096,0.117845,28.225,5.23123
0.385494,0.0364211,1.18366,15.8306,-6.36402,1.34561,16.052,-6.43999,1.43743,15.7746,-6.3818,1.47486,16.0631,-6.438
4.18616,0.329497,-11.4752,11.4368,5.8142,-10.9271,9.7575,4.81508,-11.1518,9.80103,4.84056,-10.3108,11.0438,5.97388
0.00222717,0.00654938,6.14871,12.4362,-6.1496,6.18596,12.4053,-6.11129,6.18905,12.4264,-6.11617,6.13433,12.3618,-6.14526
2.61682,0.038525,-13.5051,32.5245,2.22933,-13.669,32.3678,1.72567,-12.8582,32.8614,2.21934,-13.7093,32.5143,2.38936
2.78421,0.00168826,-17.2189,22.8561,-2.01676,-17.7477,24.5636,-1.09261,-18.0264,24.1347,-0.761614,-17.1369,22.0544,-2.21919
4.94837,0.434531,5.0845,1.13717,1.22777,4.47672,1.13598,2.11035,6.32135,1.24712,1.5114,5.02938,0.247221,0.973979
37.8715,0.0693137,-11.208,16.1597,-5.59655,-12.6116,16.0754,-5.1156,-14.4471,18.107,-4.2896,-14.7248,17.5417,-4.2051
0.328695,0.188452,3.5176,26.9211,5.77249,3.4691,27.1264,5.67999,3.35,27.0426,5.72947,3.55947,27.1831,5.702
4.26407,0.35838,5.8821,20.5777,5.87249,6.56256,19.1437,6.64293,6.2131,19.6921,6.46286,6.7058,19.1634,6.69137
2.55096,0.652001,-6.46093,9.07993,5.12334,-6.38032,8.25819,5.20979,-6.57027,8.18481,5.129,-6.46454,8.19131,5.13811
6.20136,0.531567,-13.7959,13.8783,-3.47492,-14.9076,13.3645,-4.15777,-13.29,13.5378,-4.02181,-13.8705,15.0904,-3.85798
22.3378,0.127341,16.7287,17.3938,3.24989,17.3864,16.3149,3.34399,18.2851,17.966,3.06947,18.2758,16.7182,3.16134
5.12635,0.0929025,0.749596,28.6587,4.58552,0.676255,26.9291,5.58066,0.490911,27.9657,5.02031,0.420953,26.9994,5.51408
1.02013,0.00914034,15.0106,30.8323,4.11503,15.6073,30.8886,3.87768,15.539,30.9348,3.8845,15.4552,31.2382,3.79187
6.71672,0.206506,-14.191,17.1825,-4.39805,-13.9549,15.1865,-3.87515,-14.1222,15.0688,-3.87446,-13.9803,16.1716,-4.22197
6.22287,0.951897,7.68055,7.71746,5.27346,5.66502,7.65165,5.14918,6.84242,6.97289,5.66617,5.61851,7.95385,5.22038
0.633994,0.0918143,-17.4599,4.14704,-0.106959,-17.3783,4.50647,-0.541655,-17.3475,4.44971,-0.538565,-17.31,4.32192,-0.500006
27.2513,1.38578,10.0428,31.4117,3.80193,10.3047,26.012,5.61335,10.7029,27.8025,5.45441,10.1667,25.9603,5.62306
2.86234,0.173035,0.610821,10.6817,-6.27213,0.605107,10.0565,-6.07727,0.832037,11.3724,-6.01708,0.684866,11.3424,-6.07199
9.70908,0.083021,11.3059,1.68571,0.719995,12.4746,1.63588,0.116344,11.5751,2.23586,-0.124974,12.443,1.36236,0.542489
0.874782,0.14223,-6.17129,5.72156,-4.69999,-5.99515,6.55461,-4.92453,-6.07064,6.56071,-4.93716,-6.22067,6.48822,-4.92097
0.554066,0.0327958,-11.5394,7.9961,4.81425,-11.7913,8.6029,5.26913,-11.7825,8.65715,5.29126,-11.4109,7.98778,4.78827
0.027652,0.000732031,5.94781,4.19408,-4.46839,5.86388,4.1168,-4.42598,5.9207,4.10804,-4.41688,5.87753,4.19514,-4.47283
4.68716,0.352558,-4.47736,13.6439,-6.05949,-4.2643,12.4729,-5.66867,-4.24218,12.2972,-5.54583,-4.51896,12.4925,-5.689
1.37615,0.00906741,1.0098,35.0788,-0.680748,0.605383,35.203,-0.21024,0.866031,35.0989,-0.668794,0.812856,35.2169,-0.0744201
11.1775,0.893869,8.41066,30.9442,-3.54378,8.30865,28.6398,-3.93076,7.81157,28.6877,-4.33296,9.11634,29.7387,-3.72194
0.836919,0.029063,16.2844,3.45817,0.0322581,16.3522,3.48478,0.381798,16.2662,3.43988,0.541345,16.1916,3.41554,0.505804
0.168351,0.00970139,13.0106,32.066,3.86273,12.801,32.0182,3.88625,12.8032,31.9318,3.90976,12.8704,31.887,3.9155
5.01627,0.0891894,-15.0444,29.3526,-1.85598,-15.4948,29.1468,-2.09217,-14.3073,28.4157,-3.10765,-14.8616,29.5718,-1.80323
6.04174,0.152478,-2.96087,35.1037,-0.929679,-2.21874,35.3368,-0.345257,-0.290989,35.1988,-0.79123,-0.596705,35.2869,-0.339502
5.7221,1.39708,5.71205,22.4483,5.30877,7.19595,23.4553,6.03828,7.03269,24.1227,5.92386,7.17905,23.7637,5.96416
11.5258,0.252226,-12.9639,9.27334,3.8872,-14.5275,5.97404,4.13788,-13.7471,6.8348,4.24428,-14.0615,6.60874,4.1404
1.63907,0.00319584,-9.6307,11.9506,6.14956,-9.22099,10.6263,4.87401,-9.15464,10.6822,4.87018,-9.55491,11.5487,5.79261
0.334278,0.0312349,-15.7201,24.8582,-3.04266,-15.9813,24.9095,-2.82549,-16.2594,24.8194,-2.65219,-16.2664,24.7749,-2.653
0.666413,0.0180372,8.32795,30.0467,4.99373,8.30741,30.4382,4.8782,8.57318,30.9715,4.73586,8.42261,30.8813,4.76363
0.0793713,0.00408636,16.8927,4.64045,-0.277955,16.9545,4.75789,-0.275774,16.9442,4.6027,-0.164567,16.977,4.65774,-0.161877
0.615026,0.541282,-3.93832,0.786066,-0.172926,-4.46473,0.707643,0.240746,-4.39192,0.700736,0.326997,-4.24332,0.672916,0.48151
31.4049,0.369485,-16.3399,18.8804,-3.14807,-12.3705,18.3569,-5.10069,-12.2039,17.4584,-5.1834,-14.619,17.8037,-4.23611
2.07686,0.41471,8.2412,26.9958,-4.63946,8.41743,27.7641,-3.91586,8.55717,27.746,-3.83174,8.59493,27.7295,-3.833
1.10339,0.128327,12.9822,27.5462,-3.01489,12.4758,27.7121,-3.4855,12.4851,27.631,-3.54375,12.8609,27.5785,-2.91388
4.71023,0.298999,8.73115,16.7886,5.86376,8.35071,17.3578,6.56169,8.74967,16.0343,6.22861,8.53211,15.4569,6.40123
171.535,0.0142541,-11.5534,23.9831,-4.93754,-9.79244,20.8726,-5.49644,-8.45634,23.5645,-5.43001,-8.79979,21.3612,-5.59712
5.68747,0.149205,-7.62333,34.8486,-0.926258,-8.92682,34.3702,-1.36226,-8.90696,34.0215,-1.76468,-8.74527,34.6687,-1.00101
0.0764463,0.0259517,-17.6363,26.7436,3.99107,-17.7405,27.0471,3.99849,-17.7638,26.7852,3.91082,-17.685,27.0699,4.05962
68.5306,0.660298,-14.8544,30.6775,-1.28369,-13.4248,28.7956,-3.24284,-13.319,31.853,-1.81001,-11.5037,30.7223,-2.75095
4.03345,0.172996,17.1117,24.7632,3.75504,17.5156,24.6423,3.44354,15.7613,24.5459,4.19095,15.9023,24.4456,4.17708
12.2833,0.0325322,0.0398257,4.90304,-4.58684,-1.25496,2.90272,-3.24302,-0.872865,4.63316,-4.4276,-1.73177,3.28921,-3.55063
9.70877,0.205668,-6.09358,22.1692,-5.87036,-5.67821,24.0236,-5.79895,-5.90808,24.0511,-5.75568,-7.18596,23.5941,-5.631
4.98311,0.0300564,15.8333,27.6043,-1.97742,14.8353,27.8572,-2.25762,15.2498,28.1577,-2.0891,14.7288,28.2838,-2.2526
2.45379,0.0642721,15.845,24.4111,4.22088,15.5513,24.5421,4.22206,14.6901,24.2576,4.49441,14.6722,24.4812,4.47529
17.7013,0.358384,17.6795,23.8133,3.23665,17.686,21.7512,3.19357,17.9482,20.5567,3.25315,18.4642,20.5931,2.9169
2.86549,0.232945,0.321559,7.85967,5.18661,0.0652329,7.4795,5.38661,0.0304613,8.41429,5.57188,0.964337,7.81929,5.33238
0.120488,0.0641763,0.481486,31.5813,4.75807,0.37556,31.4859,4.75446,0.194375,31.527,4.7669,0.482764,31.4917,4.77034
21.2282,0.616185,2.14911,13.8104,5.83645,3.58874,14.2285,6.00371,1.58253,14.6922,6.66254,2.1202,11.3496,6.52505
2.40261,0.0999596,15.9624,8.43165,-1.99189,14.9822,8.39935,-2.44437,16.6593,8.50979,-1.48128,15.089,8.3033,-2.3412
43.9498,0.128874,-12.6991,2.69704,-1.14364,-10.098,3.05049,-2.09009,-11.0903,1.28436,-0.761878,-8.27678,2.82135,-2.59529
4.86675,0.384631,-1.05531,7.0581,-4.69947,-1.48815,5.70732,-4.86668,-1.31063,7.22321,-5.12678,0.439772,7.0632,-5.04573
1.27971,0.0782568,-2.63775,6.75776,4.92278,-2.26811,6.73905,5.00423,-2.21354,6.85678,5.08313,-2.93043,7.28326,5.36952
21.277,0.699815,13.1909,27.7707,-2.0288,13.3951,29.0439,-2.05177,14.8989,27.1677,-2.55541,12.728,27.7869,-3.06941
1.31389,0.868844,-12.4065,24.0863,6.2998,-11.6611,23.3801,5.35222,-11.6641,23.2783,5.30845,-11.658,23.4313,5.38268
8.52591,0.403995,1.23754,7.05031,-4.42613,0.820861,7.18919,-4.76151,3.58994,8.23646,-5.35039,1.41056,5.56804,-4.81306
6.38955,0.620068,-3.11649,26.3686,5.06389,-3.49486,25.545,6.15514,-3.41925,27.8468,5.65096,-2.21611,26.2228,5.31742
0.138414,0.0779252,7.70543,29.3592,5.12045,7.92433,29.4626,5.11886,7.76697,29.4868,5.08749,7.7012,29.5375,5.08553
0.176141,0.00978126,3.77775,34.7559,-1.01755,3.79047,34.8524,-0.856166,3.57866,34.7907,-0.969533,3.65556,34.8517,-0.855473
4.65357,0.0905881,-18.7689,16.5914,1.77396,-18.8052,15.5772,1.65992,-18.5766,16.0638,2.64211,-18.6978,16.1301,2.22513
20.8772,0.211599,16.7438,3.98489,1.22245,16.9056,5.74894,3.34216,16.2259,5.06825,3.03495,15.7351,3.27631,0.780002
22.1569,0.50875,5.21416,9.89788,5.16885,5.63266,8.05879,5.25922,9.97276,9.85768,5.88556,10.0527,9.66038,5.8405
1.7741,0.765768,-6.95202,12.7425,-5.60464,-7.07271,13.5179,-5.77885,-6.91841,13.5997,-5.73019,-6.99367,13.5623,-5.73586
3.98931,0.71837,10.9759,19.9386,5.47379,11.0059,18.0935,6.34299,11.0754,18.3215,6.30946,10.9305,18.0937,6.36115
0.0760907,0.0230505,9.95422,19.9806,-5.20208,9.97268,20.1625,-5.16909,9.8889,19.9854,-5.21799,10.0332,20.2075,-5.16083
0.0267576,0.00329115,-9.97086,19.3303,6.62519,-9.89925,19.3344,6.63054,-10.026,19.4056,6.62638,-9.96593,19.4223,6.62801
4.26756,0.131614,4.54839,6.17638,-4.23274,4.20347,6.27967,-4.62601,4.7928,4.52343,-4.6455,4.75808,5.41905,-4.44048
4.97907,0.513895,0.874517,12.1033,-5.61955,0.54765,12.7776,-6.4921,0.756687,11.5211,-5.98846,1.82964,12.1991,-6.0136
0.216073,0.00577403,8.73389,9.14617,6.06267,8.89049,8.91776,6.04105,8.82156,8.87131,6.04379,8.72962,8.96393,6.05726
7.63729,0.384599,-14.2866,5.38945,4.20797,-16.4174,7.47194,3.74026,-13.9766,6.61966,4.17002,-16.5545,7.80618,3.7835
0.0893552,0.00686427,13.774,26.1192,-3.38329,13.7753,26.0238,-3.4006,13.9075,26.1552,-3.32014,13.9056,26.0718,-3.33005
13.4554,0.0752911,-18.7505,18.341,0.118233,-18.8597,19.0595,0.811389,-18.9206,18.7341,1.66472,-18.9149,18.4269,1.50274
1.35638,0.360902,1.33535,28.1685,5.41764,2.56625,28.2053,5.61882,2.44252,28.0714,5.65466,2.56898,28.1598,5.62514
6.12368,0.425007,0.742512,13.5296,-6.13402,0.553147,12.8287,-6.48274,2.88579,13.6967,-6.46806,0.515875,13.9616,-6.63151
6.3275,0.119558,-1.32217,22.4402,5.79237,-1.21877,21.3421,6.28844,-1.34188,20.3775,6.56665,-0.721968,22.599,5.99709
3.53318,0.208731,3.56437,22.067,5.36828,2.76784,22.227,5.74949,3.90336,22.5778,5.50453,3.67606,21.7926,5.56066
5.65964,0.574536,-6.67952,11.8047,-5.07617,-6.86968,12.7802,-5.58442,-7.15942,11.3162,-5.79239,-5.61536,11.6074,-5.5125
10.3278,0.993609,4.08577,8.59126,5.73878,4.6433,10.2688,5.23827,4.64708,10.2139,5.19321,5.1662,8.44973,5.79539
6.74871,0.550768,6.36864,3.41099,3.31617,10.0082,3.08966,3.33781,9.5971,3.16456,3.40977,10.1212,2.90679,3.27706
7.23696,0.360123,9.34419,29.0746,-3.66098,10.2316,29.6876,-3.56606,10.2741,28.8247,-3.77043,9.80014,30.7615,-3.4542
63.3519,0.0756886,8.50932,23.154,-5.2769,6.97741,25.5681,-5.25341,7.77561,26.5884,-4.92983,10.1601,26.2569,-4.52172
3.70221,0.263166,9.25969,7.01492,-3.86304,9.42976,6.66044,-3.94351,8.76179,6.68203,-4.41327,9.80943,7.93488,-4.17701
14.773,0.349255,-8.3396,30.045,-3.36614,-8.72205,30.2962,-3.55291,-6.27101,31.1517,-3.5823,-8.3037,28.8278,-4.46192
56.165,3.12252,4.01885,9.75846,-5.7774,3.76244,6.09549,-5.02898,6.18609,7.42677,-5.39652,4.97458,6.80842,-4.99507
3.47399,0.551344,-9.82848,7.76239,5.19347,-9.6176,8.89822,5.36652,-9.63828,9.20179,5.27244,-9.79208,9.12002,5.33667
1.41064,0.204661,-11.1948,34.1943,0.56139,-10.833,34.614,1.4511,-10.8671,34.6004,1.45477,-10.9888,34.5585,1.47915
2.43563,0.0778946,2.67013,31.3783,4.82004,3.00478,31.8592,4.6369,2.68952,32.3617,4.42798,2.61747,32.4031,4.41585
0.0593445,0.00431412,-11.5269,27.1414,-4.32958,-11.7443,27.3202,-4.25092,-11.6712,27.2143,-4.29172,-11.6719,27.3157,-4.25645
4.43134,0.847128,-4.91012,8.0668,4.05012,-5.99332,8.24374,5.28051,-4.33328,6.91315,4.44412,-4.26188,6.95917,4.44259
7.03257,0.426302,16.2613,15.9721,3.52037,16.46,15.8032,4.31316,16.645,16.3172,3.5057,16.9104,15.0562,3.74738
0.422795,0.285685,7.89663,3.6012,-3.04252,7.53803,3.58602,-3.03642,7.5755,3.58981,-2.98148,7.51676,3.50215,-3.02263
2.32276,0.231346,-18.8389,15.2981,1.5948,-18.2929,15.1237,2.95452,-18.8157,15.4093,0.476465,-18.8194,15.2977,0.677347
2.67038,0.100918,-18.7537,13.7793,0.524103,-18.6586,14.0096,-0.077357,-18.4488,13.6573,-0.751426,-18.5378,13.9744,-0.452086
0.626776,0.00994353,-18.6832,16.5053,2.28264,-18.4818,16.4346,2.79072,-18.4421,16.5176,2.97905,-18.4505,16.5754,3.00305
0.0797524,0.113048,-3.35226,22.0419,6.37456,-3.19218,22.1874,6.4351,-3.1976,22.1118,6.42569,-3.24333,22.2541,6.47759
5.30707,0.165861,-10.7433,30.4159,-2.67116,-10.7401,29.3299,-3.28139,-11.9105,29.8068,-3.01473,-10.8896,29.9123,-2.85425
0.870145,0.0136847,9.3647,34.8128,1.89161,9.62449,34.5137,2.53697,9.56278,34.4924,2.58328,9.67741,34.6085,2.3254
4.20324,0.352938,7.97765,3.63765,-3.06727,10.0909,3.52577,-3.04153,10.7601,3.68994,-3.07663,10.9487,3.63274,-2.98025
5.54733,0.131728,8.83042,13.8854,-4.81597,9.31116,15.408,-5.14826,10.1321,13.2567,-4.77384,9.19686,14.7292,-4.95791
8.10759,0.0621452,3.91654,13.7766,5.67084,5.73753,14.465,6.52583,3.8363,12.4662,6.25819,6.18035,14.7943,6.66409
3.38222,0.339468,-18.879,17.873,1.40579,-18.7082,18.8834,2.43041,-18.7695,18.9042,2.29644,-18.6882,19.005,2.69016
3.40371,0.0336692,-10.2484,28.4697,-4.13214,-10.2702,28.9644,-3.80576,-10.829,29.2729,-3.30444,-10.5766,29.419,-3.32279
30.1251,0.148817,-3.3962,31.3825,-3.79857,-1.54742,30.612,-4.42227,-1.42796,31.414,-4.08487,-3.35585,29.945,-4.58346
4.98908,0.193693,-5.93476,8.29933,-4.90643,-8.1673,9.37735,-5.03584,-7.47083,8.85585,-4.96739,-8.35759,9.31382,-4.94444
1.53233,0.0507287,-7.82129,3.76983,-2.8195,-7.43977,3.27906,-2.7419,-7.40611,3.6708,-2.90872,-7.22723,3.37942,-2.87626
2.74931,0.213588,9.89454,23.7904,4.92459,10.5121,23.8714,5.19198,9.83736,23.0956,5.36426,9.71653,24.0035,5.06272
19.542,0.119161,9.71755,15.6196,-4.97258,11.0086,14.9235,-4.26383,7.71533,16.1889,-5.75064,7.49639,15.002,-5.884
0.577852,0.210675,15.6915,5.96829,-1.9828,15.8556,5.75663,-1.75925,15.7738,5.62542,-1.7775,15.7774,5.67229,-1.77446
0.246716,0.0112544,-18.1461,6.39766,0.453791,-17.9563,6.14389,-0.210112,-17.9731,6.24627,-0.181559,-17.9714,6.13208,-0.139536
5.55306,0.594963,11.3765,2.27165,-0.121297,10.7346,0.713123,0.401038,11.7012,3.4073,-1.75853,11.5354,3.31308,-1.65334
1.09371,0.0128944,3.04999,9.5018,-6.05422,3.6218,10.3364,-5.43664,3.57156,10.2417,-5.49473,3.5047,10.3411,-5.54828
7.58252,0.0966814,-13.9855,4.71814,-2.50282,-12.928,3.7131,-2.32845,-13.495,5.36319,-3.40429,-12.8948,3.78843,-2.43073
7.13765,0.237528,18.0115,20.4488,3.20274,17.9351,18.1747,3.46373,18.4896,19.9462,2.97755,18.0311,18.1509,3.35249
4.99757,0.204773,-14.206,7.61125,-3.31531,-13.5089,6.63585,-3.61195,-14.56,7.32374,-3.24462,-13.9017,8.51276,-4.09305
5.40243,0.448598,16.9535,6.79751,0.906362,17.9924,6.25302,1.19798,17.0396,6.40285,0.43322,17.2017,7.76621,0.451727
13.498,0.00446294,-18.5543,11.6524,-0.0196499,-18.758,13.3356,1.71216,-18.7796,13.531,1.56024,-18.7874,13.6078,1.34438
0.820846,0.0189622,-0.842523,22.8962,-6.13163,-1.30061,23.3582,-6.09908,-1.22611,23.3988,-6.0972,-0.812166,23.1678,-6.12727
0.247234,0.012637,-18.1786,26.6206,0.321666,-18.0787,26.6598,0.0731989,-18.0253,26.9438,0.0205536,-18.0534,26.8174,0.0572308
1.67219,0.0318582,-3.77717,5.4751,-3.89359,-3.23163,5.1582,-4.25019,-3.90246,4.74514,-3.97843,-3.91041,4.51256,-4.03562
11.2304,0.286622,9.80482,14.6816,5.92329,9.60801,16.1394,5.97917,9.73687,14.1287,6.35257,11.3447,14.5384,5.87059
28.188,0.0598905,-17.3369,28.9005,-0.742527,-18.1146,25.5345,-0.260875,-17.4189,26.4938,-1.20596,-17.7944,25.3304,-0.892485
0.23405,0.00702147,-18.3895,8.77684,0.26088,-18.3717,8.5094,0.259389,-18.3488,8.47262,0.165827,-18.3449,8.58611,0.130107
9.84406,0.180326,-0.949925,33.8309,-2.64215,-0.782746,31.2335,-3.61976,-0.695089,31.2151,-3.65996,-0.305067,32.8355,-3.37343
35.8577,0.634015,-11.5095,8.4972,-4.30398,-9.12649,8.99999,-5.14954,-9.27309,7.30708,-4.73813,-10.4968,10.078,-5.3671
2.97963,0.398894,-4.2555,6.86826,4.4359,-3.36686,5.20302,4.84582,-3.49441,5.67291,4.83799,-3.50759,5.24804,4.85013
0.334008,0.0382403,-8.62894,0.971908,2.27657,-8.38329,1.23853,2.61902,-8.37847,1.17076,2.54637,-8.44637,1.24145,2.62202
2.12547,0.217241,8.51644,5.1273,-4.15487,8.1914,4.75379,-4.47166,8.82451,5.13275,-4.23867,8.30863,5.55188,-4.71764
15.2559,0.532426,6.3622,32.3087,-2.10969,6.18689,31.2423,-3.73898,5.30403,32.1966,-2.7082,8.24836,33.6849,-2.00367
0.944168,0.16695,1.29234,5.0668,-4.42244,1.27747,4.83778,-4.47595,1.44213,4.86228,-4.51805,1.02545,5.33439,-4.7441
0.237183,0.00467312,-6.1951,31.4817,4.95452,-5.97111,31.4048,5.01137,-5.99069,31.6164,4.91965,-5.91213,31.6221,4.92761
0.0463877,0.0605738,15.5981,7.62246,4.27638,15.2978,7.5139,4.27801,15.2956,7.46634,4.26375,15.451,7.53664,4.29991
25.689,0.463039,14.64,20.9654,5.18859,17.7605,21.118,3.8408,14.1779,21.6629,5.84047,14.366,20.1485,6.10876
0.00873763,0.0272605,9.74054,16.3826,-5.23833,9.69047,16.4516,-5.2885,9.68655,16.3754,-5.28044,9.69514,16.4125,-5.27174
2.13285,1.71763,-10.7737,24.8267,6.25,-10.2997,23.4234,5.35006,-10.3804,23.4178,5.33477,-10.4614,23.3775,5.36511
1.60661,0.0408498,6.39052,1.2697,1.55284,7.3094,1.23152,1.7075,7.33994,1.38246,1.89549,6.95919,1.23084,1.60589
0.831905,0.0135845,-4.62953,0.738056,1.49641,-4.90662,0.722643,1.50129,-4.64378,0.651983,0.865218,-4.71299,0.646156,0.819342
2.87349,1.67265,-2.26417,6.69538,5.00767,-0.164489,6.83387,5.36517,-0.167489,6.80134,5.35172,-0.218991,6.65612,5.33518
1.03016,0.0228183,-13.672,18.8216,-4.59307,-12.5575,19.179,-4.98111,-12.9593,18.9575,-4.84934,-12.74,19.1997,-4.89871
0.0822326,0.00444118,7.681,20.2045,6.62435,7.67765,20.1038,6.62699,7.55838,20.2015,6.65216,7.55673,20.1152,6.65805
8.93915,0.51702,2.3933,16.7404,5.91597,3.29301,16.8318,6.17833,2.25337,14.7297,6.34362,2.00635,17.18,6.62085
3.43205,0.305326,-5.79172,14.4457,-5.38449,-6.11289,14.1701,-5.66439,-5.88249,15.1979,-5.73073,-4.86946,14.2744,-5.71014
1.48222,0.155881,-11.4642,9.21917,-4.80028,-11.351,9.957,-5.1028,-11.6739,9.90534,-5.02819,-11.4941,10.0208,-5.08362
19.8282,0.0519156,4.99465,17.8411,-6.14613,5.87773,15.3097,-6.21249,6.93536,15.6413,-6.01186,6.77192,15.2833,-6.07419
0.0330458,0.0012826,-15.4682,19.9682,-3.642,-15.2857,19.9599,-3.77544,-15.2915,19.9138,-3.77228,-15.441,20.0386,-3.66166
0.328111,0.00691989,6.5541,15.621,6.75307,6.55209,15.8004,6.72042,6.30162,15.856,6.63359,6.31613,15.9109,6.63063
14.8677,0.478824,0.659913,29.9316,3.81123,2.64372,29.0893,5.19857,0.651828,28.6537,4.56999,2.08449,30.5468,4.71928
5.12122,0.201585,3.45938,3.85358,3.59191,3.35922,3.49422,3.46087,5.00172,3.55822,3.74413,3.14606,4.56491,4.73563
1.23143,0.339937,-9.06555,3.64999,-3.34537,-8.26465,3.93909,-2.94969,-8.29894,4.07055,-3.02514,-8.08859,4.18778,-3.04506
23.031,0.451273,11.9134,30.9623,3.22659,11.824,30.083,3.46112,13.5056,31.6285,3.92314,10.1754,31.6473,3.80975
2.65261,0.118829,15.3041,22.5006,4.88763,15.1931,21.9607,5.58889,15.496,22.4808,4.7909,15.0273,23.1693,5.39315
1.16687,0.0935062,-2.69794,8.7569,5.36727,-2.6215,8.51609,5.36871,-2.69801,8.47783,5.4159,-2.78984,9.19331,5.6642
3.08307,0.323642,10.9186,20.4755,5.1873,10.4075,20.9386,5.6159,10.973,19.9829,5.45502,11.5806,20.608,5.46344
5.08023,0.210897,-0.739579,29.1083,-4.10948,-0.748037,30.084,-3.86144,-0.72334,28.8121,-4.49546,-0.923752,29.9094,-3.92536
0.106859,0.00561641,6.80895,19.1197,-5.82984,6.59339,19.045,-5.85655,6.52739,19.1456,-5.86477,6.74407,19.1724,-5.83288
44.8059,1.3463,-16.2101,22.7124,5.28515,-13.6565,22.673,5.59093,-15.8146,24.7549,5.80066,-14.3336,23.8727,5.41254
2.25637,0.0918412,-3.46854,20.014,6.49185,-3.50557,19.1427,6.76498,-3.09058,19.6569,6.70954,-3.22716,19.1573,6.79728
0.0718219,0.00108707,7.24687,1.30313,-1.85784,7.12845,1.40415,-1.87997,7.1215,1.35892,-1.87143,7.25248,1.38672,-1.87274
6.43225,0.216714,-1.86188,9.45569,-5.83263,-5.11837,10.8274,-5.05254,-4.36533,10.6051,-5.27194,-5.04618,10.8184,-5.07188
10.7612,0.238036,4.72615,31.2963,-3.3379,5.06255,32.4595,-2.68029,4.93887,30.6148,-4.19121,3.87911,31.8479,-3.23566
1.42231,0.0173681,18.0079,27.309,0.814173,18.1796,26.8683,1.51796,18.159,26.8696,1.32143,18.0482,27.3494,1.10419
2.74868,0.483665,13.5797,29.8241,-1.99033,13.3276,29.0926,-2.08366,13.2661,29.0904,-2.15026,13.4605,28.994,-2.03187
7.53273,0.219625,8.61368,27.9703,-3.62678,12.3695,27.8092,-3.53972,8.30577,28.5001,-3.91869,8.48957,27.7815,-3.84102
2.66076,0.0355982,10.3152,5.68698,-4.10017,9.66341,6.64,-3.95719,9.42672,6.61737,-3.9644,10.2853,6.01632,-4.07222
1.03002,0.0417433,10.8862,34.5151,-0.429517,11.1816,34.6141,-0.28594,10.2381,34.4008,-0.834648,10.5877,34.4073,-0.709839
39.819,0.269793,-17.3453,9.01962,3.43866,-13.7719,9.64035,4.52903,-14.8679,10.2146,4.33097,-16.4757,7.81977,3.82229
0.0732676,0.00548,-14.2545,27.0859,5.95516,-14.4079,27.035,5.95642,-14.2538,27.0006,5.98489,-14.406,26.9932,5.97402
0.53658,0.069756,13.7571,24.2905,5.78663,13.2557,24.1219,5.70849,13.2648,24.0346,5.73648,13.4182,24.0527,5.79347
197.64,2.90439,-2.51905,18.9893,-6.3215,-1.69604,25.5034,-5.86318,0.192383,25.8657,-5.83649,-0.315377,25.78,-5.84873
21.7647,0.441314,-10.7484,6.71848,-3.79519,-8.41086,6.87261,-4.56835,-11.8639,8.34032,-4.32282,-11.0145,5.38738,-4.02677
1.84963,0.0375117,17.3128,30.7193,2.03462,17.1536,31.3491,1.05679,17.1564,31.352,1.01047,17.2726,31.0785,1.11323
1.71734,0.0142685,9.8921,34.868,0.177516,9.70101,35.0203,0.614841,9.72473,34.735,-0.246685,10.172,34.8873,0.154778
4.06608,0.0177684,15.0377,4.554,-1.68312,15.7664,4.21815,-1.17042,15.2388,3.87653,-1.26189,15.5448,4.44675,-1.39689
0.615823,0.0746878,-10.9205,1.58661,-0.884146,-10.8223,1.47487,-0.953832,-11.0224,1.66116,-1.01172,-10.5402,1.72533,-1.40709
0.146059,0.0273223,9.02227,23.6694,-5.15534,9.10469,23.8484,-5.12141,8.95594,23.9079,-5.15464,9.02652,23.9017,-5.13422
4.05708,0.204003,8.29068,6.28613,5.55001,6.1228,6.22121,5.37523,6.0651,6.11144,5.32849,6.25251,6.27628,5.39508
0.119671,0.025065,-18.201,10.6367,-0.822094,-18.3137,10.8371,-0.601439,-18.2852,10.7344,-0.635055,-18.2714,10.8227,-0.675259
5.23641,0.156042,-18.2833,18.0852,3.29164,-18.5611,18.8819,2.93221,-18.4507,18.8709,3.14924,-18.6557,18.7538,2.77411
87.2485,3.98994,17.6346,18.4188,-0.830481,17.2179,24.6241,-0.453947,15.9386,22.7511,-1.19234,15.4988,21.6597,-3.00229
1.88521,0.336658,12.6984,8.83657,4.84214,13.0788,8.69055,4.93478,12.473,8.38433,5.1224,13.9338,9.93037,5.49089
0.163086,0.0128334,-15.9047,26.255,-2.76371,-16.1574,26.1644,-2.58295,-16.0755,26.2858,-2.64389,-16.2422,26.2006,-2.53269
5.056,0.157359,-15.8098,8.91186,3.9528,-13.9244,8.80604,4.41351,-15.6618,9.14798,3.92932,-15.856,9.54514,4.03286
0.112215,0.0109175,5.78609,10.8862,-6.01513,5.63788,10.9453,-6.00672,5.56375,10.8707,-5.97115,5.56912,10.9153,-5.98771
12.7712,0.0298293,-10.3323,13.6849,-4.22232,-10.2164,14.2055,-4.47093,-8.99951,12.2509,-5.19404,-9.26913,16.4537,-5.7749
1.82321,0.290807,8.65173,1.58806,2.15456,7.41078,1.37425,1.84603,7.35617,1.31023,1.76934,7.36548,1.27022,1.73993
0.622996,0.00540413,-6.55937,0.634226,1.20364,-6.42639,0.730651,1.59595,-6.62704,0.720157,1.54939,-6.21674,0.760932,1.72779
25.4825,0.148715,-15.6477,31.2825,0.644809,-16.4009,30.6772,2.82287,-16.4338,30.6053,3.3586,-17.4421,29.8145,2.97328
1.81415,0.665384,0.652772,26.5072,5.5782,2.46813,26.5526,5.93844,2.33693,26.3665,5.95873,2.46638,26.5987,5.93937
7.80841,0.0513596,0.0968716,27.7287,-5.44504,-0.572204,26.753,-5.67754,-1.69974,27.5348,-5.47622,-1.27772,26.8265,-5.63804
3.86132,0.256835,-1.56178,29.0416,4.90908,-1.8263,29.5274,5.01911,-1.90872,28.7644,5.39149,0.134784,29.0379,4.88
12.5868,0.0321344,16.2631,30.4481,-1.19695,16.8874,29.1361,-0.997354,16.9204,30.6429,-0.290641,17.359,29.1012,-0.384277
0.720359,0.0764878,16.8848,10.0318,-1.65457,17.5332,10.1503,-1.24017,17.2629,10.0177,-1.42992,17.5848,10.1047,-1.18159
8.85694,0.0335495,-6.93556,3.28404,4.0741,-8.49831,2.93522,3.88795,-7.33092,2.23043,3.44616,-8.45875,2.4029,3.58227
0.930256,0.220548,17.4837,23.3349,3.99217,16.9597,22.9565,4.23533,17.0835,23.1686,4.13035,17.0766,23.0166,4.07631
424.463,0.211769,-4.40734,29.8561,5.58368,-6.44034,24.0923,6.34226,-4.54224,25.1957,6.23307,-8.08753,26.6511,6.10784
8.56406,0.0766982,-5.01868,6.50437,-4.48334,-5.285,8.13677,-4.98848,-3.86678,6.12932,-3.97136,-5.23295,7.40933,-4.83212
5.02938,0.0897608,0.427345,31.5922,-3.29191,1.90067,31.2427,-3.88112,2.30624,31.0986,-4.19103,0.395755,31.0019,-4.24456
7.94855,2.04307,14.567,6.29668,4.57618,13.7642,9.03868,5.31681,12.7954,8.26086,4.95536,13.006,8.67715,4.90371
11.2649,0.593317,7.72073,13.2007,-4.947,7.53366,12.8944,-5.81302,8.15579,15.3548,-5.45046,8.68067,12.5986,-4.94911
8.92313,0.034792,10.4366,17.4797,5.99174,11.2771,16.6833,5.8961,10.3797,16.8136,5.95509,11.9127,17.5411,5.8621
1.57362,0.294945,6.6876,9.57839,-5.41192,7.96528,9.21964,-5.43869,7.9962,8.9981,-5.36451,7.97277,9.26244,-5.45833
1.95837,0.0240112,4.82848,23.229,5.77249,4.01566,22.5385,5.52769,5.35147,23.8581,6.01071,5.20587,23.9928,6.01823
6.6939,0.558295,10.8217,9.74917,4.96936,10.1151,10.1046,5.95396,10.9117,8.83017,5.03655,12.4614,10.5605,5.94472
9.595,0.574841,-11.9132,18.4283,6.41796,-11.5543,20.8719,5.82325,-11.7419,20.8622,5.8043,-11.0569,19.7339,6.49051
2.62163,0.40844,12.1373,7.92596,-3.36808,13.0107,8.05615,-3.08345,12.1497,6.91358,-3.8555,12.2105,6.95755,-3.79817
4.2808,0.117785,-0.952224,30.1195,-3.85909,-0.78673,31.1835,-3.62896,-1.01982,31.1008,-3.71895,-0.732001,30.6508,-3.76896
6.285,0.170562,3.95438,2.37297,-2.10424,4.62505,2.28783,-1.87826,3.61107,2.36786,-2.53258,3.77902,3.431,-3.13537
0.47149,0.0451888,16.1503,20.7411,-2.39291,16.2854,20.7282,-2.15949,15.7654,21.1001,-2.81187,15.764,21.0098,-2.80631
8.34588,0.586395,0.586894,26.499,5.56012,-2.1492,26.37,5.3302,0.384348,25.864,6.05427,-1.99524,26.2876,5.36936
0.271353,0.0283174,-13.7675,31.4848,4.49569,-13.4216,31.3915,4.44514,-13.5708,31.5298,4.46282,-13.3493,31.4409,4.44624
6.63704,0.763613,-12.8391,8.92313,-3.61631,-13.0605,10.2771,-4.11105,-12.8015,10.302,-4.13367,-12.9752,10.5492,-4.06706
15.7758,0.557192,-13.0707,22.7555,5.25845,-12.4958,21.5493,6.24084,-13.586,21.5128,5.63598,-13.4331,23.9607,5.66909
0.331103,0.0803185,2.84769,12.2664,-6.14966,3.12674,12.4382,-5.99107,2.71295,12.2779,-6.13127,3.07734,12.4815,-6.07251
5.77472,0.19185,4.43513,2.87228,3.08374,4.274,2.90277,3.31104,4.41835,1.17332,2.20003,5.07271,2.82821,3.3797
5.725,0.712512,3.53909,16.6005,5.97619,3.40096,14.842,6.46449,4.26524,16.523,6.14965,3.55659,15.176,6.46336
1.22094,0.58671,12.5518,10.0942,-4.20867,12.5651,10.7118,-4.42019,12.6378,10.7527,-4.40118,12.4374,10.6267,-4.46952
6.44845,0.50637,-5.03583,20.1857,6.03132,-2.49572,20.4209,6.51977,-4.02412,19.7874,6.58505,-2.54384,20.2414,6.53894
4.15607,0.0536064,18.2768,8.96004,2.43137,17.191,8.80494,3.03341,17.511,9.23652,2.7426,17.0382,9.08776,3.05228
7.41397,0.503503,-8.66187,9.31028,-4.8363,-9.16269,8.58539,-5.16807,-8.48636,10.3651,-5.58695,-8.9794,10.5482,-5.59691
21.6483,0.115738,-14.5358,18.7623,6.00874,-14.262,17.7541,6.0635,-13.6207,21.2094,5.73717,-16.6435,21.2306,5.22417
0.998268,0.104186,-18.4031,10.4565,2.28157,-18.0156,10.3195,3.13451,-18.0692,10.2699,3.04499,-18.031,10.4074,3.10806
43.8748,0.115114,-8.04814,31.9026,4.79739,-5.66416,30.9877,5.18373,-7.17641,30.0763,5.47388,-5.98419,30.3776,5.41693
1.7122,0.12485,14.1768,24.1519,4.75393,14.778,24.1725,4.52881,14.5473,24.3591,4.5588,14.1494,23.9916,5.03688
2.48098,0.480365,-3.85373,32.1431,-3.72063,-3.60156,32.3264,-3.08474,-3.12608,32.4672,-3.34033,-3.38397,32.5257,-3.10456
0.0747456,0.00609308,-6.89822,33.3766,-2.71959,-6.89758,33.4424,-2.65734,-6.81713,33.495,-2.62755,-6.74954,33.4671,-2.66196
2.52326,0.0856729,17.6942,19.9164,-0.687707,17.983,20.7842,-0.146014,18.0184,20.8594,-0.0711705,18.1325,20.6382,0.0200483
3.82076,0.357943,18.7378,9.77162,1.49645,18.4361,9.26555,2.1721,18.2138,9.67544,2.47812,17.9739,9.48063,2.66336
6.91108,0.0173682,-2.85581,28.5207,-4.56022,-1.44222,28.6518,-5.02857,-1.68426,28.4964,-5.10405,-3.22216,27.7609,-5.29748
11.1559,0.140054,-1.4205,18.6117,-6.24616,-0.426588,17.8383,-6.49578,-3.20658,18.1731,-6.40837,-3.53304,18.9047,-6.31623
7.68474,0.149259,-6.64402,8.14536,5.17081,-5.81897,7.14535,5.39533,-6.75375,6.16951,5.01199,-6.488,6.73614,5.16284
5.72325,0.81319,-4.66247,8.21183,4.2103,-2.96345,10.0468,5.89636,-3.1711,9.6846,5.79684,-3.35238,9.74573,5.71654
13.6623,0.663207,-7.201,14.2804,-5.24824,-6.13582,13.9318,-5.69931,-7.86338,13.567,-6.02761,-7.37713,16.9238,-6.06676
41.576,0.384328,-11.8186,34.1237,1.3874,-11.5968,33.532,-1.35618,-11.9683,33.2995,-1.03127,-13.0588,32.5294,-0.947012
6.30954,0.806176,-12.5509,7.29436,-3.47776,-12.0428,8.28126,-4.16645,-12.8475,8.87927,-3.59764,-12.3123,8.39289,-3.77249
0.0826932,0.0128708,12.9841,22.3473,6.32081,13.0425,22.2263,6.35612,13.1334,22.3131,6.36267,13.138,22.2234,6.38694
3.61602,0.322623,1.93084,30.394,4.67624,3.88455,30.378,4.97736,3.53407,30.4157,4.97951,3.05754,30.2675,4.99269
25.0663,0.956272,8.42566,20.8762,5.47886,8.4307,17.4581,6.56399,8.86019,17.7094,6.58669,7.85505,21.4088,6.3765
11.0085,0.375647,-11.2069,7.72542,4.63075,-11.6692,6.94806,5.18595,-8.97686,7.56815,5.27388,-10.6542,6.69154,5.35049
9.92271,0.0391723,-6.13802,27.666,-5.13439,-8.21575,26.7188,-5.10779,-6.65801,26.8157,-5.28285,-8.22038,26.3848,-5.17525
23.2441,0.0275976,-2.64517,7.69244,5.27933,-0.291043,8.56801,5.84273,-0.300771,7.55133,5.7309,-1.51948,8.57073,5.6132
8.60337,0.166387,14.3548,23.0233,5.45587,14.6762,22.3229,5.81509,14.2374,21.7066,5.80742,14.3989,23.9467,4.80581
3.08457,0.102104,6.96199,17.1394,6.59541,5.28437,16.4111,5.73036,5.26285,16.5961,5.71001,6.56075,17.189,6.47043
8.7338,0.332896,11.8096,29.5042,3.38874,11.7088,28.908,3.85604,13.5359,30.7996,4.15769,13.9174,30.7114,4.33451
6.20793,0.328419,1.45602,28.3841,-4.66559,1.64999,27.5694,-5.38755,1.13408,28.6042,-4.93887,2.7705,29.4625,-4.48863
6.2154,0.494362,5.47973,3.66337,3.35984,5.16094,2.87307,3.43197,5.18361,4.09277,4.45229,7.16753,3.40313,3.37873
19.7632,1.16916,11.2144,6.66319,4.79713,12.0196,4.62748,4.63129,11.6416,3.71729,4.17861,11.897,3.17699,3.73086
22.5681,0.975557,1.79427,21.8788,5.38186,0.942783,22.3492,6.30322,4.02821,23.9366,6.12589,3.18951,19.0122,6.71964
1.12389,0.201478,-12.7397,23.4434,-4.63819,-12.9087,23.1815,-4.53288,-12.6782,23.012,-4.69895,-13.3865,23.1631,-4.44198
23.7659,0.0491657,-0.315009,28.0532,-5.37731,1.37964,27.4984,-5.45808,1.26447,25.9032,-5.82834,2.06716,26.5259,-5.68488
27.4804,1.27088,10.4707,28.8981,-3.71228,10.7182,30.9106,-3.16168,11.748,29.9668,-3.04682,12.6073,29.0815,-3.11701
1.1262,0.0286488,9.73981,24.3118,-4.94571,9.50145,24.8924,-4.92354,9.43301,24.8972,-4.94106,9.18304,24.0273,-5.08924
28.8941,0.740006,8.05694,31.22,-3.46877,7.89626,30.518,-4.04432,12.6027,30.8287,-2.57874,13.4339,30.8498,-2.0055
11.2925,0.542118,0.378764,15.1535,-5.95731,0.185629,15.7145,-6.43388,3.29914,15.3476,-6.11976,0.0472793,13.9035,-6.78019
3.37646,0.0810092,10.6618,5.53893,4.86359,11.1991,5.13728,4.69336,9.27757,6.8378,4.9718,9.20076,6.83693,4.9908
2.89499,0.130827,8.72631,21.5718,5.96343,8.7271,22.6521,5.59171,8.83275,22.6543,5.58989,8.68883,21.2816,5.89381
29.3523,0.135184,-9.01828,33.473,3.2924,-8.02643,34.8771,2.20059,-9.51655,32.9138,4.00671,-12.5605,33.2958,1.62164
6.80476,0.264759,8.87876,23.913,5.18451,8.64401,22.6997,5.62588,9.51174,23.9733,5.14448,8.40011,24.4446,5.73549
1.69901,0.147973,-18.8684,16.8615,0.822914,-18.6875,16.9859,-0.222365,-18.7115,17.0863,-0.190341,-18.6879,16.8715,-0.177082
29.5599,1.12308,-13.7511,11.4888,5.33326,-12.0742,9.44234,5.04832,-14.642,10.1434,4.39773,-12.7824,9.23711,3.91991
7.66905,0.0595407,11.6243,5.14902,-3.60305,11.7037,3.43454,-1.79335,11.7184,3.50256,-1.86845,11.5315,3.34,-1.69078
11.9109,0.201894,-14.0539,23.7291,5.37224,-13.8679,23.0878,5.59703,-13.0601,25.3789,6.12856,-12.8145,25.1786,6.20233
1.35747,0.00827084,-3.40599,7.56351,-5.20878,-2.76409,7.25178,-5.34135,-4.03354,7.69547,-4.92497,-2.57307,7.10106,-5.31635
0.0302575,0.0228122,4.67984,19.5463,-6.05127,4.72224,19.3982,-6.01848,4.6518,19.428,-6.01601,4.73167,19.4442,-6.02316
5.1869,0.328048,0.7744,17.7598,6.69834,-0.49914,19.5592,5.76385,-0.833721,19.5207,5.82895,0.920163,18.2,6.74672
5.28381,1.93337,1.0103,9.9997,5.37698,3.75666,9.79109,6.25889,3.54822,9.94291,6.33356,3.61588,9.89094,6.31392
2.78926,0.257117,-15.3959,22.072,5.45991,-15.373,22.4712,5.5436,-14.2087,22.0364,5.74941,-13.7913,22.0877,5.7168
0.303019,0.000702682,-11.2795,3.18663,4.06638,-10.6217,3.25251,4.13056,-10.9338,3.1463,4.06235,-10.7219,3.01714,4.00627
11.1843,1.23522,12.0201,14.5843,5.79047,15.7099,14.5014,5.37261,15.834,14.7772,5.33975,15.7044,14.7871,5.40349
1.07652,0.144344,-18.7508,22.613,1.26492,-18.669,23.0687,1.1161,-18.6886,23.1822,1.27939,-18.671,23.0916,1.04149
9.02193,0.111262,-3.68914,32.6657,-3.05722,-1.2801,32.6036,-3.39674,-1.2467,32.808,-3.26616,-2.4877,32.8064,-3.18159
11.868,0.351271,-11.106,31.8943,-1.98336,-10.1275,33.4068,-2.01433,-12.2193,31.6464,-2.29667,-10.6528,30.5282,-2.81312
6.79704,0.158164,11.6329,9.55509,-4.08461,13.6699,9.67527,-3.19859,13.8298,9.57817,-3.08282,14.5234,9.77974,-2.76542
2.94095,0.0219283,0.07579,18.359,-6.33043,0.803376,18.4645,-6.34874,-0.840932,18.637,-6.3234,-1.03177,18.7942,-6.30921
20.7789,1.21086,-13.5621,28.8899,3.31839,-10.9459,32.2271,4.32705,-15.0312,29.5403,3.90274,-12.3331,26.5156,6.07301
0.21224,0.0107232,-17.7204,5.99617,-0.760028,-17.6044,5.85193,-0.949071,-17.5281,6.02514,-1.12183,-17.4976,5.9179,-1.14965
0.148206,0.0485364,-14.4995,21.7935,-4.01571,-14.2143,21.754,-4.13552,-14.1083,21.7817,-4.1949,-14.1185,21.6378,-4.21032
11.229,0.490408,-9.43023,30.7472,-2.85768,-9.73058,31.426,-3.10905,-7.68444,30.9842,-3.4945,-9.89082,30.1122,-3.5499
3.24075,0.489039,-13.4049,12.3262,-3.80772,-13.3336,13.0345,-4.05182,-13.5875,13.2961,-3.94455,-13.6721,13.1655,-3.99594
7.60763,0.358097,-17.06,22.246,4.82213,-16.2451,22.3426,5.31742,-16.6457,21.2755,5.2133,-16.5552,22.7916,5.28558
3.99397,0.0107007,-8.6525,27.4922,-4.80605,-7.51285,28.1082,-4.87387,-7.75914,27.3295,-5.02231,-8.5638,28.2463,-4.64591
17.9475,0.167965,3.38225,31.8378,-3.30645,4.76363,32.2459,-2.77339,0.5434,32.1775,-3.13677,0.118107,31.7162,-3.43289
2.89958,0.826654,3.19216,7.74266,5.85392,0.985932,7.78097,5.34209,0.987733,7.73753,5.3568,1.05262,7.84458,5.36895
0.189871,0.0131136,3.66806,30.7381,4.94764,4.025,30.959,4.89272,4.02433,30.8818,4.90059,3.87801,30.9244,4.90417
1.29936,0.068593,-2.3574,10.283,5.22994,-2.62401,11.3368,6.28632,-2.60156,11.3899,6.33326,-2.8703,11.3417,6.36899
5.39663,0.51857,12.1479,21.1823,5.84144,11.7335,20.7306,5.55791,12.0331,23.001,5.07461,11.9665,22.9711,5.14025
3.73477,0.887102,0.643361,33.7013,-2.75043,0.471799,32.3172,-3.11762,0.265173,32.1428,-3.24081,0.153853,32.0545,-3.3225
8.94352,0.350577,-7.5095,2.45405,-1.37336,-6.60395,3.31494,-2.9695,-8.72402,2.06109,-1.82598,-7.02202,3.10914,-2.23998
83.481,1.82865,17.5108,23.7324,-0.344161,17.7854,21.1326,-0.702529,18.3708,21.8172,2.02812,18.1062,21.9769,2.00282
0.916567,0.439868,-9.94078,8.25339,-4.6278,-9.59195,8.10584,-4.88456,-9.60617,7.92532,-4.84028,-9.59939,8.32781,-4.99799
0.692056,0.39884,11.7501,30.0072,-3.04921,11.6964,30.7792,-2.92649,11.8326,30.6691,-2.90126,11.735,30.7251,-2.9098
4.73923,0.436357,16.3901,25.6203,-1.58101,16.4079,24.5031,-0.790904,16.8022,24.38,-0.430491,16.755,24.599,-0.509221
3.65203,0.210924,9.04712,12.2044,-4.42,9.16372,10.967,-5.14869,8.85786,12.5107,-4.77616,9.39649,12.3197,-4.34079
2.14509,0.119325,15.5266,13.5238,-2.46216,13.9097,13.1559,-3.05891,13.915,13.1993,-3.04966,14.1877,13.1914,-2.98285
0.869493,0.0228737,15.2689,26.8267,5.09116,15.0146,26.8909,5.18425,14.6842,26.4131,5.37754,14.7466,26.4083,5.34767
0.55497,0.0916616,14.1652,16.0261,5.8716,14.7977,15.675,5.88607,14.5909,15.4842,5.92611,14.7267,15.6749,5.89672
7.16644,0.0168561,13.232,14.4183,-3.51182,10.7206,14.9264,-4.42527,11.1022,15.009,-4.26105,11.7638,14.875,-4.01565
1.46809,0.0149236,16.0466,18.2823,5.30375,16.0875,17.7809,4.61657,16.1465,17.9014,4.66639,16.2905,18.0033,4.56167
18.071,0.10719,15.7209,23.3314,-1.2023,15.0408,22.597,-3.23702,15.3772,22.7283,-1.92044,16.3858,24.3368,-1.1763
2.95488,1.21038,4.80583,6.25007,-4.33645,7.09136,7.1948,-5.04466,6.97655,6.97984,-4.99682,7.14004,7.14357,-4.9884
2.38996,0.221179,-1.93107,28.0339,5.23403,-2.1032,27.8162,5.54762,-2.32781,28.8989,5.41319,-1.54769,27.9344,5.38595
27.7179,0.208211,-15.8549,8.66186,-2.68046,-15.1231,8.44916,-3.19245,-14.6407,6.65711,-3.11272,-16.1494,7.0718,-2.5262
190.532,0.0726716,-13.1654,22.8011,-4.56267,-13.9876,18.9682,-4.43468,-14.752,19.4537,-4.08699,-12.4457,19.5314,-5.0211
1.55899,0.0156857,3.87811,11.6834,6.50423,4.02381,11.9489,6.42259,3.84059,12.4225,6.27156,4.01903,12.4306,6.28316
4.36099,0.128152,15.1605,33.3761,0.350127,15.4086,33.4211,0.144572,15.6632,33.3196,0.8609,15.9807,33.2047,0.209825
0.0835358,0.0266783,-8.79864,34.2202,-1.55438,-8.65838,34.2833,-1.49381,-8.78916,34.3132,-1.44471,-8.72544,34.3079,-1.45223
12.1587,0.16258,-6.02789,0.925719,-0.393254,-6.85114,2.50185,-1.60075,-6.42299,1.89934,-1.23008,-7.37898,2.07735,-1.23398
2.83076,0.59626,5.52113,26.219,5.09148,6.52625,25.2427,5.79377,6.8644,26.0641,5.67805,6.59037,25.2879,5.78622
3.13062,0.327304,3.74805,10.7654,-5.18183,4.75135,10.4653,-5.31523,3.72975,11.225,-5.62314,3.56674,10.3844,-5.46161
5.12808,0.181717,-11.6535,20.9486,5.7661,-11.4191,22.4505,5.35005,-11.5293,22.8436,5.2413,-11.6083,22.8459,5.26478
70.5077,1.35014,14.4977,10.279,4.52221,16.6049,10.8256,4.39829,16.9715,8.87521,3.09225,15.011,5.77493,4.1289
4.30826,0.0784135,8.7238,1.58708,2.15657,11.0262,2.3457,2.80875,10.8955,2.36133,2.80984,11.1606,2.52157,2.91554
11.3628,0.121431,-4.23262,7.06085,-4.61085,-3.44483,9.43909,-5.73155,-4.43964,9.82351,-5.63168,-3.76298,6.99052,-4.82699
25.5461,1.28683,0.26254,8.7036,5.37513,3.38942,8.53595,6.17714,0.432256,10.5179,5.46297,-0.0174215,11.6034,6.49627
100.202,0.990771,9.4308,16.682,5.72959,15.7388,16.3157,5.51892,13.6472,15.0093,5.81462,14.721,18.0905,5.84757
5.21553,0.128677,-9.62648,2.31568,3.56806,-10.4592,3.54207,4.26575,-10.0741,3.59437,4.30437,-10.5526,3.3776,4.18402
11.5748,0.277027,17.573,24.1282,2.73974,18.5295,24.2927,1.60357,17.8051,23.1414,3.01851,17.4585,24.3971,3.46581
10.9332,0.621337,1.25254,9.39324,-5.70247,3.68505,8.50076,-5.38952,3.28819,9.12151,-5.9406,1.0639,10.7747,-6.3225
8.98641,0.366127,-2.7133,12.2283,-5.19478,-2.35573,11.989,-5.37768,-2.97745,14.1041,-6.01647,-3.53502,11.3527,-6.02947
3.32072,0.617302,16.9954,6.52401,0.336115,17.0215,5.92608,-0.699828,17.1104,6.63394,-0.75858,17.1555,5.80822,-0.428113
213.33,0.243825,-7.14048,25.7887,-5.40446,-8.63589,20.4567,-5.68926,-7.58048,19.6373,-5.89244,-8.45591,19.7873,-5.75048
1.09956,0.0927584,7.09625,11.3794,-5.80049,6.98433,11.1963,-5.89414,7.25617,11.5827,-5.89215,6.84318,11.746,-6.0238
4.81755,0.113988,4.48436,30.3302,-4.25402,6.08363,30.0485,-4.08141,4.60905,29.8318,-4.47355,5.94498,29.9112,-4.20824
13.9661,0.365098,3.11012,30.9932,4.91521,5.49415,32.4732,4.362,4.91209,32.7544,4.23383,5.65271,32.2646,4.43199
4.63787,0.563367,-12.2672,6.57365,-3.0325,-12.4172,7.23991,-3.43494,-13.0862,6.14778,-3.50697,-11.4028,6.21279,-3.95059
4.64726,0.0503064,17.9724,22.0616,1.20108,18.1179,21.6742,1.04474,18.0413,20.8185,-0.00280174,18.0911,20.7129,0.0214089
5.84915,0.401454,16.0238,17.4698,3.5527,16.3981,16.5717,3.6604,16.5236,17.5819,3.39623,16.0646,17.7191,4.52424
7.70746,0.663269,4.97139,16.5202,5.63829,4.17599,17.2153,6.49661,4.85172,14.5479,6.21668,4.92239,14.5003,6.20123
0.928,0.02651,-18.5233,24.0849,0.585302,-18.3029,24.1049,-0.146097,-18.3275,24.0026,-0.0995283,-18.4231,23.8144,0.135672
0.286051,0.241497,-18.679,12.0256,0.611264,-18.71,12.1079,0.918549,-18.6927,11.9603,0.879068,-18.6963,12.0086,0.893325
44.0476,0.154575,-18.4742,21.9577,3.65687,-18.4759,24.3504,3.12159,-18.6942,23.5739,1.18251,-18.7141,23.0346,1.48803
4.48915,0.110224,-3.65893,6.05818,-3.90834,-1.81364,5.87524,-4.93489,-1.58607,7.00934,-5.2694,-3.69206,5.60261,-3.92897
2.65865,0.520261,6.61376,9.58844,-5.40845,4.6578,10.336,-5.33514,4.90836,10.4565,-5.33648,4.8986,10.4086,-5.32409
7.32252,1.05976,11.8258,28.822,3.87143,12.541,26.6391,5.61487,11.8452,26.704,5.26272,12.036,26.7318,5.28533
1.42962,0.0649282,9.34526,34.451,-0.607303,9.89059,34.4156,-0.863454,9.39181,34.355,-0.957784,9.3618,34.5742,-0.502823
16.0151,0.876668,4.71068,2.37187,-1.91162,9.53109,2.41091,-2.38763,9.59778,2.40157,-2.36096,4.18417,0.932902,-1.59099
13.2534,0.12125,15.999,13.6401,-2.24739,13.344,14.3133,-3.48381,13.9223,14.3705,-3.30021,17.1572,13.9392,-1.83903
0.391039,0.00224195,12.7127,25.709,5.80228,13.277,25.7299,5.821,13.2059,25.7717,5.81428,13.0742,25.5406,5.83015
8.42725,0.486595,7.73254,7.38139,-4.35832,7.20039,7.19628,-4.94452,8.89966,9.30202,-5.09808,8.69042,6.59079,-4.45628
96.28,0.0469773,-3.98482,18.5815,-6.3244,-7.97315,17.9127,-5.96671,-8.51641,19.1029,-5.78118,-3.29076,20.3137,-6.27811
4.62434,0.0438219,-5.36873,10.8612,-4.94776,-6.23276,9.76164,-5.68434,-5.64436,11.4736,-5.5062,-5.42285,11.0006,-5.00158
3.68374,1.39293e-05,14.5643,9.73629,-2.70628,16.8337,10.0766,-1.72193,16.8614,9.8963,-1.65958,15.2736,9.7461,-2.37229
5.4327,0.187177,-12.4978,25.1927,-4.48764,-14.6583,26.0317,-3.55347,-14.9197,25.9366,-3.43585,-14.6936,25.4759,-3.59488
14.1096,0.19996,-4.26345,1.71462,-1.96584,-3.74599,3.34864,-3.49266,-3.06261,3.15556,-3.40588,-4.13675,3.51693,-3.5859
3.31525,0.0141005,7.94232,18.6124,-5.64473,7.60798,17.6225,-5.78927,7.43719,18.1437,-5.77908,7.95661,17.6401,-5.71379
25.3336,0.0813317,-12.7168,32.8863,2.46189,-14.2239,31.0429,-1.36975,-13.6594,31.989,0.439898,-11.019,32.459,4.03125
10.6824,0.145666,-0.42255,23.4536,5.22636,0.726546,21.4373,6.61276,1.00998,21.1842,6.70841,-1.24625,23.3259,5.78512
11.3076,0.677936,-13.2863,11.1912,-3.53229,-11.6473,10.5539,-4.98005,-13.4113,12.2844,-3.79471,-14.1457,10.7867,-4.23811
9.17951,0.680666,-4.78449,23.2498,5.29936,-2.61432,23.1557,6.02203,-5.4708,24.9367,6.21915,-5.19511,22.7209,5.90086
3.69448,0.264032,-11.0109,9.65147,4.791,-9.65169,9.33058,5.21888,-9.64003,9.24591,5.25301,-11.4032,9.01419,5.3274
6.82936,0.497048,-16.5114,13.9112,-2.21872,-15.9308,14.0155,-2.78454,-17.1522,14.5207,-2.7346,-17.2474,12.6393,-2.50883
3.85209,0.039159,-18.3606,20.2964,-0.634228,-18.7329,20.976,-0.091784,-18.8135,19.7652,0.0593891,-18.7331,19.8229,-0.0769717
161.969,0.708523,-12.5104,28.6905,-3.54722,-8.4805,24.5036,-5.30131,-8.51364,25.3057,-5.21871,-12.0866,24.1521,-4.7719
35.5275,0.21552,-1.97723,25.6283,-5.8394,-3.13611,27.4042,-5.45179,-2.19761,27.6814,-5.41514,-2.70402,27.6969,-5.38357
9.81278,1.12404,5.84703,28.7404,4.89073,5.1817,26.5337,4.73911,5.43109,26.293,5.04898,6.63044,26.4025,5.56022
1.94218,0.41163,4.58617,10.2776,5.27395,4.15279,11.6795,6.46868,4.18818,11.3616,6.29943,4.22302,11.6849,6.47682
42.5842,0.263982,-4.91218,21.979,5.93401,-5.00273,20.6069,6.24643,-3.41573,20.4522,6.35793,-2.64335,21.6001,6.36436
1.36628,0.146483,-1.35087,20.492,-6.23874,-0.868151,20.1661,-6.26631,-0.0649574,20.4088,-6.25524,-0.302654,20.2482,-6.23647
8.42829,0.313023,1.72666,1.27965,2.63684,2.09647,2.97595,3.95752,0.947571,4.07516,4.46613,0.272837,2.32199,3.44702
1.47667,0.124591,-15.297,29.4644,4.01422,-15.6435,30.0386,4.52355,-15.0767,29.3221,3.98018,-15.4447,29.3802,4.28388
6.16593,1.02578,1.16116,9.18143,-5.64434,0.697113,7.4259,-4.83236,0.838462,7.3687,-4.8182,0.627775,7.47958,-4.83691
3.48222,0.206223,-2.28077,9.95651,5.08415,-2.3737,10.2214,5.18751,-2.63743,9.18722,5.60807,-1.10503,9.89752,5.43727
161.942,0.229081,-5.23549,16.6021,6.74449,-7.90785,21.1702,6.61245,-10.8299,19.0133,6.57788,-9.26299,18.848,6.66313
10.0009,0.773116,-16.0067,12.1034,-2.20419,-14.1191,12.2625,-4.19824,-16.7157,12.6771,-2.71692,-16.7416,10.8853,-2.61182
0.914048,0.0313614,3.24302,17.9425,6.75692,3.31207,17.5714,6.72493,2.95914,17.6445,6.7136,3.10357,17.4037,6.67912
1.67597,0.0743776,-17.8634,19.1653,4.15563,-17.3467,19.1163,4.70524,-17.1623,18.8744,4.82015,-17.3548,18.5765,4.58905
64.7109,1.73898,-0.413825,17.7416,6.75925,-5.07771,17.2694,6.76838,-4.94474,19.5272,6.59954,-5.14836,17.9681,6.76069
0.428896,0.487476,-16.8797,13.8014,4.44002,-17.5433,13.5397,3.93441,-17.5781,13.6403,3.9096,-17.5212,13.4552,3.95459
0.254662,0.00361279,1.71935,24.3969,6.19008,1.57522,24.3462,6.18768,1.79174,24.63,6.18743,1.7222,24.6717,6.18157
0.777004,0.0123085,3.42271,20.8111,-6.08448,3.93785,20.9942,-6.05685,3.54231,20.3331,-6.11157,3.39237,20.3512,-6.11991
8.48365,0.329513,15.9583,7.75857,-1.49068,15.7534,7.39063,-2.20879,17.0325,6.68146,-0.872119,16.3705,8.26588,-1.51012
3.33729,0.765451,3.62603,13.3667,-5.41972,3.61909,14.3539,-5.67803,3.77893,14.3458,-5.61158,3.09418,13.7781,-6.37349
34.2429,0.949457,-7.66438,7.04343,-3.97227,-4.76454,8.60578,-5.27406,-7.3523,5.52281,-4.61504,-5.29545,9.961,-5.56737
11.598,0.37222,6.26554,28.1086,-3.97366,7.7888,27.4469,-4.6971,6.04701,27.8821,-4.42915,6.36228,29.4471,-3.92061
4.06047,0.0919086,-0.249316,30.2804,4.2523,-1.68518,30.5796,4.11582,-1.6046,30.2181,4.16534,0.300931,30.3242,4.15465
4.00757,0.113536,12.4143,11.6038,6.02228,13.2214,10.6033,5.83584,13.5662,10.5499,5.77051,13.8354,10.7303,5.69852
0.653672,0.0205219,12.7192,4.21062,4.34936,12.8245,4.3298,4.46079,12.8277,4.63423,4.67857,12.6565,4.60077,4.6531
1.25361,1.18794,-9.34718,12.3519,-5.02261,-8.54752,11.4197,-5.66443,-8.39919,11.4492,-5.6878,-8.30811,11.4823,-5.72406
11.0904,0.739595,-0.641803,19.6829,5.70152,-2.27808,20.1007,6.49814,0.0456953,21.9206,6.39482,0.114292,21.8303,6.39315
1.64523,0.00775474,-18.6527,23.9203,1.32831,-18.6629,23.9371,1.7815,-18.6282,24.5024,1.54287,-18.6783,23.6511,1.60844
4.71031,0.296515,3.09005,1.01358,1.58301,4.51484,0.647528,1.51516,2.90449,0.96571,2.16998,2.90487,0.671806,1.55382
3.80123,0.417215,3.73949,6.43706,4.87267,3.55247,6.06975,5.11833,3.35466,7.32878,5.67934,3.3328,7.69543,5.85308
10.8456,0.137262,-1.37537,7.51045,-5.12385,-0.407214,7.62915,-5.24925,-1.6703,9.35247,-5.75162,-1.41632,10.2871,-6.24241
24.1474,0.67529,3.55988,28.3022,4.29361,4.70595,26.8702,4.78937,2.51121,28.9175,5.27866,4.37504,29.8808,4.57761
9.26179,0.016638,-0.273029,23.8726,5.39399,1.4347,24.2061,6.19338,0.943053,25.2433,6.11298,0.867711,25.6642,6.13651
5.30722,0.160336,-1.91595,30.3207,4.03738,-2.31815,29.9642,4.56394,-2.42071,32.1319,4.67825,-2.17928,31.0051,4.1974
0.100357,0.0272915,16.1633,24.5545,-2.09555,16.3037,24.6548,-1.92714,16.1559,24.4152,-2.11978,16.3533,24.6205,-1.82292
9.98002,0.0282329,-6.37028,13.3129,6.48075,-7.29209,13.5652,6.45944,-6.91574,14.2953,6.55334,-7.48919,14.3669,6.51486
4.28617,0.0342459,-18.8662,20.029,1.00761,-18.9218,20.7382,0.555537,-18.8811,19.3586,1.0392,-18.8794,19.2477,0.342572
14.8003,0.610672,11.2016,8.14439,-3.9349,11.2331,10.7959,-4.86178,11.8708,8.04858,-3.78366,11.5654,9.56202,-4.10774
7.21766,0.470843,-6.34166,10.1823,4.98561,-4.73159,10.6866,6.25855,-6.56627,9.16806,5.11178,-6.80543,10.5233,5.44233
132.156,0.218585,-1.74842,23.2227,-6.08565,-6.14637,20.2628,-6.02377,-6.7968,21.5459,-5.87093,-6.76348,20.795,-5.923
9.047,1.12969,5.85669,6.05394,5.31633,5.76401,7.54892,5.1215,4.09789,6.37192,4.94368,5.50696,7.24095,5.40435
5.09384,0.436908,-6.1295,28.8347,-4.53904,-4.84855,28.9658,-4.64551,-4.49732,28.9722,-4.86853,-6.09234,29.2715,-4.39949
0.311904,0.00504693,-13.649,2.19897,3.23291,-13.8585,2.19784,3.18862,-13.7821,1.96705,3.02299,-13.4913,2.02132,3.13557
0.0501351,0.0279808,14.7034,14.2286,5.72575,14.621,14.1921,5.74214,14.5529,14.1997,5.72833,14.558,14.2619,5.72322
1.99581,0.202225,3.28372,0.987217,2.25177,2.95599,1.70523,2.66584,3.14551,2.10434,2.75378,3.03349,2.16441,2.77685
6.59858,0.497299,5.27875,21.6895,5.12441,4.31759,22.1897,5.78436,5.72,22.3993,5.2986,5.89307,20.664,5.83574
2.26714,0.171686,-11.4958,23.1457,5.1186,-10.71,23.5078,5.61183,-11.6055,23.4187,5.34585,-11.4456,22.8455,5.2354
2.75826,1.06777,-6.99821,5.00387,-4.35649,-7.90042,4.0896,-2.90465,-7.86477,3.95415,-2.83348,-8.1336,3.97376,-2.89658
3.12576,0.139815,-14.5573,3.11501,-0.917432,-15.4457,2.41292,-0.605518,-15.1818,2.75532,-0.641331,-14.3682,2.37192,-0.898364
4.04074,0.360411,-15.8146,13.9923,-2.84251,-15.3394,13.6073,-3.65792,-15.2694,13.9531,-3.3932,-14.9155,14.3453,-4.05439
8.68061,0.286217,-18.668,21.227,2.73877,-18.8257,21.5804,0.856444,-18.2455,21.3828,4.08578,-18.7951,21.7823,2.23793
3.87638,0.183902,16.3691,30.6223,3.44733,17.109,30.7987,2.5279,17.0633,30.9242,2.50637,16.6974,31.405,2.72236
38.8684,0.0909151,8.61003,12.9804,6.01609,15.6696,13.1426,5.17473,8.6125,15.4083,6.37205,15.7447,13.4838,5.22959
6.44653,0.0646892,11.6209,2.88281,3.0714,11.0969,2.35024,2.81283,12.8638,2.93378,2.91018,12.8758,2.89576,2.87378
3.22827,0.285657,3.90255,7.66669,5.43972,5.19983,7.48807,5.6841,3.83219,8.38752,5.89399,3.71104,7.33712,5.66001
13.0909,0.263933,9.64657,2.04359,-1.73424,10.0158,1.34882,-0.990365,8.81832,1.12613,-1.55305,10.3633,2.83448,-2.80317
11.5307,0.584555,-4.25544,14.8603,-5.29568,-2.9814,14.148,-6.00223,-4.34218,17.4144,-6.38015,-4.80177,14.3139,-5.69262
2.22242,0.0179026,-11.2814,15.1966,-5.60454,-11.9041,14.0846,-5.38355,-12.4573,14.8958,-5.21405,-11.3085,15.8485,-5.58095
3.7798,0.130713,14.6189,11.8337,5.31311,14.1461,12.3187,5.45117,13.9494,12.9278,5.48034,15.1844,10.9785,4.81739
0.0484605,0.0022541,-12.4724,18.1928,-5.05133,-12.6208,18.3016,-4.99989,-12.4746,18.1486,-5.05194,-12.6247,18.1646,-4.9954
18.8275,0.369778,8.13381,7.72663,5.10404,9.14859,8.88145,6.04811,9.2852,6.88868,4.97982,10.5921,7.76627,5.33185
5.38927,0.0307002,12.6898,12.9151,-3.44725,9.45737,12.2227,-4.34458,9.4153,12.4073,-4.36103,10.0389,12.5455,-4.19419
43.8417,0.437796,-7.60091,9.61766,5.15612,-7.77673,6.78458,5.15156,-8.70132,8.19247,5.25115,-8.72744,6.96459,5.062
72.4337,0.190494,-2.30422,23.5125,-6.06726,-5.56502,23.5447,-5.84762,-6.44794,25.1014,-5.54219,-5.02262,25.6799,-5.64866
12.541,0.761579,9.64429,8.34409,-3.90396,9.4571,10.4098,-4.95085,9.18637,10.7406,-5.11141,9.22763,10.9678,-5.09702
3.16708,0.238483,-12.5034,4.66366,-2.9782,-11.6207,3.48113,-2.48563,-12.012,4.98648,-3.61061,-12.8762,4.46457,-3.07155
15.295,0.671276,5.5627,29.7015,4.02673,6.89185,32.1327,4.32549,6.8744,28.0256,5.28695,4.53347,29.8815,4.54474
3.78732,0.13454,3.143,2.94841,3.07962,3.13644,3.37744,3.44752,2.95113,2.14029,2.84108,3.49232,3.49069,3.47218
14.1689,0.262018,6.67431,14.7622,6.67698,7.66797,14.3225,6.65414,8.14868,15.2129,6.5989,7.29005,12.4734,6.60673
4.13599,0.0705568,2.86933,20.7695,-6.1425,2.25863,22.3099,-6.08683,1.18325,21.9456,-6.18988,2.16502,21.9,-6.1359
1.90912,0.380157,-1.03102,9.90043,5.4664,-0.273,9.82148,5.75873,-0.00183317,9.91494,5.74394,-0.0843413,10.0134,5.76833
2.27768,0.0150077,7.54569,12.0816,6.51426,9.14525,11.3976,6.37707,8.30304,11.2384,6.41271,8.23808,11.5288,6.44142
24.6174,0.245741,16.8793,14.9534,3.80564,16.7773,12.3722,4.1695,17.9074,14.9772,3.56001,16.6707,12.6071,4.22016
1.52421,0.113758,12.7831,1.55911,1.54794,13.0698,1.71428,2.01723,12.5804,1.37619,1.51547,13.3411,1.46111,1.3921
0.14078,0.087931,7.00926,13.7435,-6.07563,6.88204,13.8447,-6.11017,6.95362,13.8779,-6.08679,7.02078,13.8765,-6.08833
8.59242,1.28269,4.73789,19.193,6.67524,4.4046,20.9684,6.33932,3.59887,21.6065,5.59235,3.23196,21.8238,5.54483
8.75325,0.160103,-18.497,22.3522,0.359069,-18.8899,21.0007,1.01327,-18.5014,21.5377,-0.150295,-18.3118,21.1557,-0.729064
2.84772,0.00640569,1.78141,22.3977,-6.14334,0.366726,22.6338,-6.13648,0.638542,22.4213,-6.1489,0.739339,21.9057,-6.18575
3.37448,0.40603,-7.83784,5.75811,4.43853,-5.56438,5.57406,4.92655,-5.4177,5.69568,5.01088,-5.55822,5.47663,4.91167
10.5681,0.774969,-2.81719,30.3719,4.54472,-3.10211,27.3937,5.46321,-2.94498,28.0116,5.48112,-3.34539,31.0386,5.13255
5.18326,0.0744901,-5.92927,22.6187,5.75425,-5.1664,22.5932,5.95885,-5.78454,21.668,6.07037,-5.94742,21.657,6.0469
6.02267,0.449164,3.68108,11.9819,-5.06712,4.11053,11.539,-5.40311,2.94773,11.5597,-6.22966,3.62233,13.3258,-5.41215
0.314521,0.266522,-18.6161,13.6765,2.25148,-18.6675,13.5057,2.04786,-18.6598,13.4386,2.09871,-18.6969,13.6512,1.94379
4.00685,1.18091,-11.6828,13.118,-5.16796,-10.3981,13.6944,-4.22878,-10.4126,13.5622,-4.19627,-10.4864,13.6122,-4.19952
0,0.00242218,-0.250618,16.6223,-6.54307,-0.250454,16.5812,-6.54465,-0.302658,16.5973,-6.54153,-0.298313,16.6259,-6.54241
4.82419,0.0180177,-13.5349,12.2374,5.68154,-12.5746,12.742,5.90168,-13.2998,13.0718,5.80412,-13.1575,12.7965,5.7988
7.08912,0.313667,0.25842,6.77425,4.97075,0.183063,6.31662,5.23939,0.135729,7.42649,5.34611,3.24777,6.77299,5.3684
0.112149,0.00853086,-0.378215,25.5991,6.21764,-0.380001,25.6887,6.19613,-0.591427,25.6825,6.19728,-0.524776,25.7271,6.18239
5.01028,0.239605,-8.5655,7.56131,-4.28736,-8.30219,8.94405,-4.91344,-8.88988,7.14728,-4.59864,-8.20472,7.42865,-4.33373
2.15766,0.310301,-4.32244,12.0483,-5.35576,-3.45893,11.9539,-5.88158,-4.42772,12.3111,-5.55569,-4.83271,11.6801,-5.83181
11.1575,0.435126,-5.85332,21.4862,6.10258,-5.79433,19.8824,6.24161,-5.85166,18.6861,6.7239,-5.17789,20.1699,5.99174


