
26.1758,1.54172,4.22614,5.98414,0.557742,6.9913,4.85491,1.04116,6.84664,4.34075,1.1362,7.08483,4.9909,0.990456
40.2566,1.15581,-15.3909,18.7324,-2.46444,-14.2059,22.8864,-3.1046,-13.0358,19.3703,-3.1239,-12.5739,23.3235,-2.74273
3.57612,0.663129,0.933942,20.628,3.43311,2.24344,20.0844,3.64835,2.24979,20.2348,3.64121,2.29168,20.1644,3.62693
1.95663,0.0865894,-7.31902,7.45142,3.21705,-7.62907,8.48299,2.52735,-8.0212,8.92825,2.4965,-7.88873,8.85042,2.41661
0.0502991,0.010761,-10.7738,1.0001,-0.715978,-10.7545,0.896106,-0.695954,-10.8172,0.930739,-0.698021,-10.7902,0.898419,-0.69553
8.15466,0.0143477,-16.3225,14.36,-2.76196,-16.2612,15.4055,-2.70568,-16.9415,15.1297,-2.62603,-15.8998,14.9881,-2.79108
4.87638,0.410374,7.58059,6.54429,3.07313,8.88573,6.19275,3.05628,8.97456,6.04964,3.11544,9.1628,6.18736,3.1275
0.473126,0.00807827,-8.02027,30.2031,-3.51096,-8.05532,30.4256,-3.4895,-8.29137,30.4215,-3.45922,-8.33877,30.2808,-3.46893
3.94861,0.145437,5.56251,6.5378,0.425322,4.05163,6.54089,0.553263,4.00695,6.61091,0.550137,4.33479,6.98732,0.42874
20.5081,0.599929,-2.64899,15.3489,3.7282,-1.07312,16.3366,4.11642,-1.87725,13.7329,4.25114,-0.771231,14.0877,4.10284
12.6897,0.0369116,3.51147,10.4799,-0.748564,4.99905,10.4939,-0.655706,4.5161,9.02491,-0.503478,4.74443,9.01843,-0.482339
4.54001,0.139481,3.90698,24.1884,-1.78625,2.91103,24.2258,-2.18503,2.6472,24.7277,-2.25687,2.64843,24.8702,-2.25782
21.9046,0.0209146,9.17691,29.3851,2.41315,7.49752,29.9536,2.49982,8.1659,31.3617,1.07464,6.97794,31.5846,1.26966
1.8228,0.0902545,-16.735,7.88732,-0.311692,-16.5153,9.00968,0.345247,-16.4789,8.88219,0.431834,-16.461,8.74448,0.477839
96.5136,0.0841061,0.399486,25.9816,-2.79467,-1.56896,27.3718,-3.28251,-2.43169,24.4645,-3.49185,-2.87312,25.0419,-3.62408
8.25711,0.16207,5.21709,10.5605,3.01111,3.60504,10.4186,2.90263,3.65642,10.4925,2.95736,6.317,10.7903,2.83892
6.4667,0.540797,3.05811,14.3337,3.68235,4.51227,14.2526,3.62068,3.01064,13.0712,4.00122,3.77316,13.8744,3.85775
6.34173,0.0775661,-1.38765,24.5157,-3.35999,-1.40258,23.5305,-3.26168,-0.962858,22.8179,-3.10999,-0.547958,23.4186,-2.99492
0.422928,0.0524185,1.68059,3.46619,0.11169,1.44922,3.23601,0.200113,1.58835,3.47336,0.100292,1.48515,3.17999,0.187128
3.45379,0.0592919,0.378126,31.13,2.0402,1.09341,31.0986,1.82156,1.77979,31.0109,2.05155,2.09099,30.9713,1.63036
0,0.0146293,-13.7119,1.57676,-1.2762,-13.7082,1.52133,-1.36397,-13.6379,1.57487,-1.29413,-13.6928,1.59946,-1.20256
0.812993,0.168561,-8.88326,11.3094,-1.81459,-8.73824,11.3885,-1.99466,-9.04956,11.3968,-1.98305,-9.15928,11.3462,-2.05471
3.87792,0.296438,-6.52284,19.8798,3.98976,-8.14874,19.8803,3.5622,-7.77283,19.9383,3.72534,-7.82214,19.7777,3.73796
2.18974,0.14662,14.2461,9.91386,0.572225,14.1622,10.2885,0.215965,13.5474,8.79728,0.534228,13.8257,9.21447,0.492344
3.74904,0.102305,-16.7519,16.7153,-2.34237,-16.4414,15.5446,-2.67522,-16.3032,15.7519,-2.6469,-16.806,15.6846,-2.62723
29.771,0.232916,10.5079,10.299,-0.0835262,12.0089,12.3187,-1.1868,11.0103,12.6072,-1.09109,9.73193,10.0262,-0.110823
143.315,0.222498,3.50043,21.5339,-1.82188,7.6511,15.8367,-1.40663,8.30099,17.2153,-1.21876,3.28624,19.258,-2.18119
11.1332,0.166343,13.4424,20.0478,-0.859624,11.8139,20.637,-0.856378,13.2938,18.8774,-1.18834,11.1202,19.8156,-0.93755
87.361,0.578556,-12.9627,9.0845,-2.2558,-10.3046,8.70677,-1.44016,-9.82374,7.68941,-1.23068,-8.80447,10.6582,-1.69615
40.9657,0.187809,4.22417,24.3084,-1.66938,5.27009,21.41,-1.51135,4.49636,21.0939,-1.71701,5.55734,22.315,-1.45273
14.4336,0.0311192,13.4941,19.0752,1.53728,14.4609,20.2312,0.743766,14.0011,21.103,0.796648,13.2448,21.3196,1.14704
0.161213,0.00501183,14.4677,8.51655,1.18358,14.4938,8.5514,1.1484,14.4973,8.5403,1.49327,14.4398,8.483,1.48074
1.97565,0.083156,-9.55573,15.5903,-2.87412,-9.44384,16.5112,-3.06395,-9.75833,16.6599,-3.09964,-9.25372,16.7978,-3.15422
3.49848,0.270348,12.1695,10.3513,1.85372,13.1337,10.1639,1.60047,12.1478,10.6788,2.10218,12.143,9.7303,2.40329
117.13,0.548789,-15.6214,15.2558,-2.80085,-16.4581,9.31923,-2.65287,-16.8763,10.4181,-2.64809,-15.7315,9.37132,-2.56107
3.37548,0.0978164,-11.1118,30.8745,-0.85719,-12.2209,30.7165,-1.5764,-10.9054,30.8172,-1.17585,-12.0756,30.5142,-1.98066
50.0195,1.93587,2.39977,17.5502,-2.52188,0.130451,18.1459,-2.54086,0.962944,19.2239,-2.14417,1.33995,19.9897,-2.16945
2.52931,0.0789599,-2.82962,7.58114,3.24885,-2.87539,9.17796,2.59502,-2.74126,9.16456,2.54246,-2.76939,6.67832,3.46197
3.36253,0.192247,3.07641,20.3006,-2.03964,2.76138,20.9848,-1.8474,2.63666,21.6852,-1.8239,2.45065,21.2821,-1.87058
0.709857,0.0616907,-15.6683,0.556302,0.596448,-15.7956,0.748614,0.810975,-15.201,0.298889,0.409697,-15.1965,0.279999,0.316145
2.45615,0.0230861,4.77675,3.73895,1.58354,5.85298,3.98058,1.32313,5.98283,3.97142,1.23154,4.88141,3.44665,1.14331
11.7199,0.162713,12.3999,22.3817,1.06027,12.2262,23.3265,1.24648,12.4146,22.4014,1.51491,12.9878,22.5598,-0.265489
9.82925,0.244836,-0.04928,30.4027,3.37921,-0.108681,29.4267,4.04086,0.0306969,31.0611,2.33982,0.504079,31.1039,2.271
2.24416,0.10162,-2.90049,0.605982,0.590457,-3.43911,1.06557,0.381618,-3.66153,1.14398,0.339522,-2.39315,0.82555,0.462806
5.77945,0.0631549,10.3046,20.1643,-0.910413,10.857,20.6543,-0.916934,11.062,19.1878,-1.00605,10.8768,18.9085,-1.03279
27.0066,0.185167,10.0646,22.1448,2.61659,7.56903,21.6339,2.73596,7.94512,21.8101,2.4418,11.7701,22.3212,2.16783
48.8309,0.336232,-12.5418,19.1489,-3.04614,-11.2538,14.9158,-2.81024,-12.2197,14.3109,-2.87204,-11.3973,16.8159,-3.01446
8.88032,0.334064,-12.4258,17.7464,2.69135,-12.8053,16.9382,3.15018,-12.5635,18.3861,2.89786,-10.6488,17.8847,3.17827
3.24946,0.14483,1.85854,19.5438,3.73763,2.7381,20.065,3.4913,2.60431,20.0767,3.55078,0.717221,18.7568,3.59858
1.28078,0.100062,15.3264,10.4836,1.16239,14.5207,10.3478,1.28201,15.8461,10.4398,0.956098,15.9014,10.5697,0.893462
72.9417,1.63451,-1.46879,22.4768,-3.18111,1.39887,20.8264,-2.18933,-1.11103,19.5904,-2.87401,-1.38518,19.3892,-2.98438
66.4438,0.681377,7.74107,5.84298,0.814062,7.98893,9.30457,-0.342537,6.08351,7.67087,0.282486,7.52687,9.02504,-0.258082
2.43754,0.00977567,-4.65867,32.2144,2.18863,-3.83505,32.0887,2.64285,-3.83326,32.0809,2.59638,-4.98589,32.3713,2.59269
37.2053,0.596409,10.9919,17.0632,2.32414,10.2512,15.3683,3.0902,11.1883,15.4433,2.45224,12.4539,17.1694,2.07668
3.37381,0.483121,6.49668,4.27551,2.23776,6.49634,5.18263,3.38684,6.17716,4.2828,2.82932,6.58308,5.02462,3.28262
9.82781,0.468556,3.21507,4.54,2.14585,4.54392,5.51784,3.6913,4.83222,5.71226,3.8264,0.920905,4.04491,3.30069
1.20486,0.00135807,8.54364,18.8833,-1.08072,8.27273,18.4014,-1.11198,8.18311,18.8202,-1.09542,8.63881,18.5318,-1.09253
1.19761,0.0146595,-15.3184,19.7939,-2.73574,-15.3882,20.9189,-2.79536,-15.3075,20.5706,-2.81418,-15.2099,20.5039,-2.86238
19.4462,0.305067,-5.09408,31.6965,3.14449,-5.53306,29.2767,3.60522,-2.51353,31.58,3.24486,-3.98041,31.9077,2.90993
15.9087,1.00329,-6.28368,2.74135,-0.0126981,-6.58477,1.64484,0.0664199,-6.89272,1.67188,-0.09393,-7.70879,1.95664,-0.197018
26.6239,0.192589,-16.0684,29.5649,-1.22938,-16.2782,31.2722,-0.650277,-14.7387,31.9907,-0.458639,-14.0585,31.3875,-0.790767
117.944,1.02342,-7.81237,22.9172,-4.00831,-1.99001,23.7502,-3.31706,-3.00906,25.0495,-3.66773,-3.01074,24.9765,-3.64668
69.7058,0.34258,9.6399,12.5595,-0.994709,8.24605,13.2054,-1.80352,9.4859,8.96358,0.0132647,8.08062,9.51196,-0.388705
54.3117,0.224512,-8.67034,6.3112,-0.867822,-9.33004,3.1765,-0.220526,-8.37677,3.08198,-0.162682,-8.15221,4.71013,-0.38643
5.11259,0.208857,2.78445,19.0615,-2.25309,3.77527,18.5477,-2.12629,3.82075,18.4799,-2.14227,3.63479,18.069,-2.26151
3.69223,0.054433,-15.9668,4.35719,-2.20212,-15.8542,5.43445,-2.31793,-15.5341,5.62003,-2.22428,-15.4581,4.97319,-2.05953
1.63292,0.11027,4.60554,31.119,0.929143,4.12493,31.1004,0.93558,5.01976,31.6179,0.964312,4.12622,31.2958,1.05181
9.81517,0.734519,7.92604,8.2626,2.81181,6.75307,8.38894,2.98855,7.05159,8.08417,2.82755,8.59429,6.63039,3.14929
5.34772,0.382069,5.36964,15.7823,2.72218,6.52595,14.9657,2.81733,5.51153,14.6039,3.1093,6.44281,15.1964,2.83465
22.8288,0.0680673,-2.82094,20.6008,3.31269,-3.85241,18.1839,3.34317,-4.00541,16.5328,3.76243,-2.98973,18.5891,3.75158
4.24118,0.263694,7.32857,9.5926,2.21884,6.66022,9.85087,2.32787,7.72254,8.81973,2.72702,6.33029,9.64888,2.31993
1.02448,0.430998,-12.4847,6.55493,-1.33188,-11.9351,6.89029,-1.3172,-12.0373,6.46251,-1.22789,-12.034,6.60713,-1.21395
0.0893577,0.0068153,7.76444,14.3172,-1.62787,7.93959,14.173,-1.61909,7.98506,14.2405,-1.58968,7.94249,14.3099,-1.58532
0.0241612,0.00891462,10.7932,26.1604,0.153574,10.7756,26.1054,0.168591,10.7258,26.1049,0.159669,10.7063,26.1727,0.144997
2.59045,0.116352,-4.82126,13.7804,3.88199,-4.71912,12.807,4.14238,-5.34013,12.2053,4.13553,-4.94608,12.8072,4.11098
9.88784,0.178809,9.79622,13.5587,-1.27508,11.9704,12.7504,-1.32276,11.43,13.1761,-1.30276,10.2834,12.757,-1.03955
2.86693,0.300767,-0.791119,10.3495,2.83423,-1.27945,10.013,2.60607,-1.60419,9.89379,2.66114,-1.21883,9.37903,2.57438
8.32958,0.483271,-14.8685,29.5128,1.24745,-13.3213,29.6921,2.30948,-15.3852,30.7574,1.51652,-15.4302,28.9367,1.5869
1.58822,0.023634,11.8721,9.70075,0.0419477,12.0388,8.69271,0.269203,12.0842,8.76654,0.259226,12.1821,9.18551,0.189014
3.00614,0.0490038,4.64609,15.8159,-2.21516,4.39454,14.4704,-2.01733,4.48266,14.3229,-2.00192,4.72185,15.1039,-2.15518
8.21721,0.13466,-2.09828,21.2025,3.44606,-2.69132,20.5293,3.32894,-2.72677,21.3678,3.52538,-0.837673,21.3494,3.82367
0.199864,0.00202235,1.50259,29.8494,3.88527,1.61262,29.4774,3.76152,1.4904,29.6272,3.84795,1.66295,29.558,3.75212
128.891,0.13867,-7.67055,30.814,-0.775781,-4.55337,31.0885,-0.543298,-5.04968,30.4301,-2.46018,-3.92542,30.8392,-1.55803
18.0982,0.272967,-16.7946,2.26975,-1.7881,-15.4824,3.71351,-2.00704,-16.2835,4.37311,-2.26038,-15.879,4.21418,-2.15681
0.552761,0.0851619,0.0564722,8.30617,3.49503,-0.071081,8.65178,3.39134,-0.0136395,8.78876,3.4029,-0.20408,8.72785,3.36965
4.99136,0.31561,-10.9016,9.69543,2.7095,-9.82683,9.86391,2.8951,-12.1829,9.44611,1.35807,-11.776,9.72118,1.84704
4.26405,0.0868026,-16.6256,22.1443,-2.02765,-16.7681,21.3957,-2.20979,-15.974,21.819,-2.61592,-15.869,22.6558,-2.49487
35.2048,0.1712,4.47214,30.5544,0.379154,6.12471,31.4351,0.748937,5.92389,30.4472,-0.153389,6.6779,31.1067,0.158458
2.98933,0.117112,-4.12286,5.00115,3.65443,-3.22484,5.79644,3.51492,-4.65173,4.60342,3.55719,-3.21881,5.87568,3.53449
2.79808,0.981828,7.07012,13.1203,2.79912,8.40365,13.2128,2.85644,8.32091,13.3669,2.89034,8.39965,13.1393,2.88393
76.9241,0.48758,-3.17562,2.77311,0.0525421,-0.681707,1.87129,0.330084,-1.43895,0.521317,0.564606,-1.15786,0.733753,0.507562
33.2834,0.76117,7.39642,10.352,1.98886,8.25905,9.77504,2.38812,10.2424,12.5658,2.83118,10.2083,11.2956,2.39699
16.9328,0.303434,-13.1133,21.0762,2.23079,-14.8666,20.7655,0.905544,-14.4921,20.1119,0.816705,-11.3075,20.9236,2.67382
16.1361,0.752704,5.04252,30.9065,3.34645,1.85034,30.9988,2.05161,3.18389,30.7957,2.22357,3.84864,31.224,1.28284
6.34729,0.606142,-5.68072,18.5008,3.097,-5.8345,17.6608,3.57208,-4.54571,18.6566,3.65389,-6.72849,19.4718,3.97836
5.06004,0.0216804,6.02893,20.4825,-1.39331,6.52826,20.473,-1.30128,6.00668,22.1633,-1.3501,6.23284,21.9439,-1.30737
3.10046,0.147978,-1.96154,17.8464,-2.77698,-2.0719,19.1308,-3.08585,-2.3897,18.9295,-3.15381,-2.02679,19.1319,-3.07355
45.0162,0.352323,-13.5732,4.67142,-1.22793,-15.2188,5.19221,-2.03004,-14.685,2.97355,-1.73495,-15.6026,4.21086,-2.05012
18.1453,0.300421,-16.1203,19.3446,-2.18514,-16.1665,21.4018,-2.47755,-16.8199,20.832,-2.18745,-16.7219,21.3972,-2.22717
2.25599,0.0800673,-8.08453,5.19054,3.78067,-8.36029,6.38602,3.51986,-8.23473,6.04016,3.62977,-8.54167,6.53287,3.44491
4.79284,0.149316,-6.87349,29.3376,3.21936,-7.62952,29.1373,3.05372,-8.31745,29.2439,2.93493,-7.7714,28.9424,3.11565
15.9279,0.608341,5.96346,16.8839,2.54891,6.19553,15.7583,2.81981,5.71922,18.3229,3.6541,9.97851,17.265,3.00755
7.39638,1.08148,4.42631,3.9448,1.52504,4.55175,4.05173,2.68515,5.97291,4.25271,3.08685,3.76239,4.47977,2.40545
5.9619,0.29232,-14.6272,20.1867,0.762318,-15.0136,18.9556,1.46939,-14.3919,19.2891,1.60288,-14.5958,18.7389,1.75089
3.78699,0.135757,0.519575,19.5913,-2.22274,0.0973812,18.6424,-2.59412,0.964201,19.2975,-2.13126,0.841437,20.1402,-2.20965
3.17811,0.379211,11.99,11.5482,1.94493,10.2972,11.2869,2.38363,10.7625,11.4898,2.33359,10.2465,11.147,2.4232
15.6559,0.646047,2.26678,7.46922,2.87536,1.7815,8.28555,3.30183,2.30944,6.3896,3.86025,1.52818,6.36296,3.8509
6.31977,0.108785,15.3011,15.7884,0.718831,16.6131,15.3391,0.0422437,14.4999,16.2647,0.953486,16.5229,14.9967,0.0604823
19.56,0.0197947,-0.620387,30.1658,-2.43995,-2.48792,30.1123,-3.20234,-2.89528,30.7394,-2.34477,-2.07424,30.3462,-2.66608
8.50124,0.0821815,4.94417,17.3917,-1.84765,4.099,18.8141,-2.04433,4.26289,17.4234,-2.16915,4.50724,19.146,-1.8583
39.3033,0.284972,-2.3827,6.42581,-0.0818059,-0.655135,8.12415,-0.562381,-1.16305,10.2499,-0.97641,-1.68075,9.54619,-0.694919
59.2662,0.00764332,2.20067,30.1211,-1.49212,4.3457,26.262,-1.59814,3.65922,25.7999,-1.85858,4.36713,28.053,-1.27915
38.9538,0.0444794,-3.65234,19.4581,-3.42951,-4.28422,16.9466,-3.39396,-3.0636,16.7088,-3.17372,-2.62188,18.6588,-3.1747
20.5112,0.737832,-13.2017,7.01117,1.0732,-11.5949,8.34368,2.95895,-14.8382,8.64528,1.47193,-13.3423,6.12716,1.65028
2.10395,0.0937219,15.8915,15.8102,-0.87287,15.165,15.9106,-1.12521,16.2033,15.3865,-0.929573,15.3408,15.5569,-1.11115
114.945,1.22346,9.01793,10.433,2.24567,11.947,10.4049,2.25076,9.42971,6.87561,3.21076,10.3859,7.81242,3.11306
6.31158,0.295211,-14.4351,10.3037,1.39307,-14.5105,10.7523,2.04133,-13.8541,9.42321,1.08559,-13.2953,9.6197,1.10521
16.3033,0.151162,-4.77538,15.1178,-3.09237,-4.92438,16.6858,-3.42006,-3.51872,16.6516,-3.24075,-4.56097,16.7462,-3.39439
10.3599,0.558717,-6.20973,30.2456,-2.78079,-5.31416,29.5355,-3.79918,-5.22742,29.4746,-3.81772,-4.74239,30.2638,-2.97457
13.0228,0.43768,3.58939,17.8676,-2.29784,3.29163,16.5381,-2.26437,1.91116,15.5119,-2.33711,2.09197,15.5759,-2.29074
48.9811,1.04223,11.2372,13.353,2.75678,6.99809,14.3944,2.88585,7.2845,14.6615,2.92753,7.19012,13.5488,2.9795
2.69028,0.111101,-5.97713,16.6885,-3.23694,-5.62391,15.9157,-3.28134,-6.14903,16.9747,-3.37041,-6.21159,16.1288,-3.24015
0.662141,0.129787,-6.92419,22.5598,4.25065,-6.57438,23.0299,4.35458,-6.76988,22.8987,4.28049,-6.90377,22.9081,4.27884
20.8807,0.0226544,2.79221,15.7232,3.43367,3.70219,14.4322,3.67916,4.25707,15.7241,3.43899,3.01554,14.4008,3.69307
6.53854,0.173556,6.54554,25.9714,3.50761,7.22761,25.9358,3.28232,5.39154,25.6659,3.58918,6.25662,25.3564,3.83708
4.48392,0.241588,-6.77323,1.35104,1.99012,-5.56881,1.38009,2.22944,-6.88638,0.856156,2.05525,-6.90613,1.93352,2.48746
0.105396,0.0138195,-10.2268,5.54642,-0.690058,-10.0464,5.5581,-0.746752,-10.1311,5.48565,-0.66936,-10.2744,5.6601,-0.802359
3.61533,0.323489,-12.8028,9.07988,0.558359,-12.2412,9.45267,1.27545,-13.046,7.84525,1.2814,-13.0108,9.28469,0.745376
6.67984,0.284138,-0.726405,7.52892,2.3762,-1.00236,7.39305,2.47331,-0.912864,8.62093,2.97987,0.760866,6.6058,3.83316
2.3512,0.321424,5.1084,29.006,-1.06267,4.41955,28.6797,-1.19776,4.96144,28.2433,-1.15895,4.73727,28.4595,-1.15518
10.126,0.337523,12.81,15.0321,1.42954,13.6345,15.7132,1.23032,13.2263,13.0604,1.95515,12.4781,15.3147,1.95641
19.0261,0.472827,0.567587,23.174,3.65527,3.93087,23.3046,4.09425,0.277785,24.1021,4.21811,4.39286,23.429,4.09896
29.0486,0.114208,4.75102,26.2474,-1.41941,5.40056,23.925,-1.35408,3.82248,24.6747,-1.81016,5.75195,23.2797,-1.31051
5.22253,0.118867,-10.6641,14.769,-2.80436,-10.9332,17.3126,-3.06549,-10.4611,15.8208,-2.92143,-10.7578,17.0195,-3.02087
3.21558,0.489694,2.99699,21.3646,2.86602,1.8456,21.9849,3.86338,1.90934,22.2827,3.97658,1.93889,22.0585,3.79425
4.23939,1.29141,-5.6343,27.9393,3.69313,-4.14847,27.3221,3.06507,-4.1597,27.1709,2.9872,-4.21874,26.9465,2.98677
26.1134,0.775142,-7.17093,10.0849,2.72611,-2.90717,10.0233,2.92303,-2.19125,10.3668,3.1653,-1.7884,10.7597,3.53323
32.2934,0.251912,-16.605,23.741,-1.86221,-15.6567,25.2854,-2.16578,-15.3913,26.6997,-2.44987,-16.6982,26.1227,-1.84805
1.72811,0.110858,-4.01412,6.0528,3.82068,-3.98061,7.15196,3.42782,-3.93356,7.15165,3.44728,-4.03989,5.56487,3.81262
14.6998,0.186878,10.4606,7.16141,0.409818,9.07703,6.33272,0.504282,9.29286,5.6084,0.699692,10.1727,6.24994,0.483792
1.59887,0.056903,4.83123,8.89207,2.40382,3.96682,9.49646,2.90925,4.32194,9.33369,2.74829,4.61725,9.0336,2.46341
58.5136,0.81193,1.98005,12.9484,-0.898068,0.0208717,12.033,-1.41819,1.28065,11.9022,-0.842038,2.94689,10.4701,-0.816476
61.5769,0.267035,-6.50403,19.6643,-3.78977,-8.24785,17.0633,-3.16818,-8.4061,20.1916,-3.80474,-7.34695,16.3507,-3.19399
9.45093,0.199454,-14.3052,23.6268,1.69671,-14.8869,24.2185,1.55814,-13.3967,23.7472,2.19558,-15.3434,22.9799,1.72624
2.83863,0.0490386,-2.03783,24.2246,4.375,-0.883653,23.3985,4.5186,-1.89283,23.3053,4.50588,-2.37717,23.7492,4.45796
3.03587,0.200787,-10.8842,4.17851,2.93504,-12.1747,4.22047,2.71498,-12.1704,4.29773,2.71632,-10.1653,4.12663,2.74444
26.13,0.149201,12.3897,19.5086,-0.915048,12.5151,18.6757,-1.10149,11.1685,16.9636,-1.24785,11.269,17.585,-1.21179
5.93084,0.14728,-1.41671,25.7876,3.4433,0.298785,25.8234,3.82976,-1.15097,25.6264,3.4755,0.531408,26.0428,3.72696
79.3164,0.243835,2.90426,5.83397,0.141983,1.47438,7.30723,-0.380342,3.15073,9.26154,-0.669106,3.8058,7.79645,-0.0506701
39.6327,0.0125496,1.21451,5.587,-0.0290924,1.22152,3.26775,0.203716,0.263018,3.09448,0.141046,0.843711,2.76491,0.220155
4.6553,0.462012,15.61,17.6175,0.641778,13.6844,15.7589,1.23079,13.9055,16.0973,1.13307,13.6753,15.8307,1.26892
12.2811,0.502845,-11.4146,26.6644,-2.97425,-11.4266,28.823,-2.9272,-11.1971,28.7608,-2.99069,-12.346,28.4181,-2.84711
6.76956,0.227562,1.77244,28.5689,3.17738,1.62128,28.2197,3.38663,3.06028,28.1436,2.85109,1.6964,29.4075,3.68025
6.66973,0.213376,-10.5572,16.8235,2.61886,-10.3109,16.9507,2.72096,-11.8383,16.8206,3.30647,-9.4128,14.7563,3.49001
18.338,0.562998,12.2557,5.30304,1.2577,10.0503,4.7268,1.15879,9.54101,4.1522,1.30152,9.53128,3.72341,1.3352
3.41892,0.0152688,1.62566,29.4046,-2.0779,1.02864,29.8696,-1.97953,0.476999,29.9765,-2.02085,1.10869,30.2312,-1.83674
1.4217,0.00623571,-14.9765,1.33313,1.89195,-14.983,1.57342,1.75802,-14.508,2.31004,1.46948,-14.5607,1.96563,1.63865
23.8275,0.200372,4.94833,18.0039,-1.75658,5.84853,14.2111,-2.13833,6.79179,16.7002,-1.50988,6.67965,14.9707,-1.76323
10.7386,0.45021,0.282921,16.7441,3.34865,0.232241,15.635,3.55056,1.94332,17.1781,4.17124,1.80791,16.4874,3.99006
2.11329,0.121148,-2.81661,3.82245,3.54367,-2.9237,3.47409,3.61435,-3.40004,3.99771,3.53778,-2.51528,4.09992,3.76606
5.72868,0.0318159,9.11956,18.5629,2.80591,8.66,17.3967,3.0185,9.05116,18.0126,2.93562,9.81606,17.6215,3.07183
20.4405,0.450425,5.88379,13.2533,2.6712,6.97758,13.1229,2.78604,5.13681,14.3441,3.2078,5.67389,11.9522,3.50628
20.7203,0.257497,-0.784345,17.337,-2.66438,-1.90006,15.8988,-2.90836,-2.2753,17.7869,-2.84935,-2.43396,16.3365,-3.04516
90.3057,0.523016,-0.0814469,11.7571,-1.32589,-3.49148,11.6512,-1.96888,-0.995018,9.53137,-0.714949,0.788438,9.73408,-0.773625
3.82979,0.815935,-7.86171,31.4719,3.33361,-7.81835,32.4159,2.55554,-7.53975,32.2566,2.71329,-7.89293,32.4538,2.60988
3.47351,0.786524,-11.7843,19.4507,2.06913,-10.4647,19.5362,2.60842,-10.3196,19.7438,2.54415,-10.2784,19.6776,2.54748
6.51706,0.250229,11.4218,19.3597,2.43476,13.2307,19.4591,1.80759,11.4276,19.9851,2.78078,11.0184,18.8938,2.87201
39.0585,0.113376,3.31917,25.3543,3.5323,5.35231,25.812,3.55098,3.15903,28.2917,2.81747,3.03535,23.6285,4.13374
2.43346,1.05895,1.82154,24.19,-2.43376,2.15819,22.9038,-2.13088,2.20679,22.972,-2.12761,1.97525,22.6386,-2.17667
3.20693,0.128941,4.30454,17.4098,3.68002,5.0232,17.2305,3.5928,4.21455,18.1866,3.85791,4.67112,16.477,3.68449
1.29665,0.184075,12.9516,11.6227,1.55603,12.0765,11.4659,1.94968,12.1251,11.5414,1.88013,12.018,11.5464,1.94491
24.3351,0.760683,2.58361,9.75426,2.29792,2.28096,11.1933,3.17765,5.13043,9.28962,2.48111,1.82841,8.4865,3.22774
6.63722,0.138728,15.1669,14.552,0.738511,13.2194,14.3831,1.31354,15.8368,12.8588,0.632792,16.5648,14.7456,0.0574821
44.0774,2.91181,-9.87203,20.2543,-3.43273,-10.0713,16.9514,-3.16594,-8.97809,17.0016,-3.15544,-8.75015,17.0011,-3.12812
12.3116,3.19594,-15.484,4.54197,1.68541,-12.2262,4.22297,2.70205,-12.1702,4.36403,2.73896,-12.1603,4.44591,2.80854
12.0088,0.0717575,-5.92929,16.2825,3.89046,-7.50597,16.2665,3.45372,-5.78927,17.5871,3.60373,-5.94721,15.5931,4.1811
15.165,0.539497,15.4462,13.4481,-1.02356,14.6455,14.6779,-1.40977,13.9423,13.3676,-1.5312,14.2905,12.3973,-0.888039
4.4318,0.199223,-1.53234,31.1561,0.754466,-2.50767,31.1467,0.314184,-2.97961,31.263,0.316649,-2.69904,31.1368,-0.265965
9.93349,0.673506,2.78364,7.51827,3.04924,4.40009,7.47667,3.47802,5.27677,7.9002,3.05132,4.4085,7.81599,3.29571
6.5823,0.146478,7.59868,25.6869,3.05483,8.2351,27.4831,2.87157,7.66476,27.3701,2.43165,8.1927,26.232,3.19553
16.5739,0.147733,-3.96428,23.3314,4.14027,-3.91311,26.7314,2.90789,-4.21796,22.006,4.09807,-3.19631,25.1797,4.09688
2.7935,0.142627,-9.99761,26.5928,3.10925,-10.5147,26.4925,2.74506,-8.7837,26.6927,3.36141,-9.017,26.5482,3.41051
49.9549,0.182065,-16.2607,6.38813,-1.97887,-15.5572,9.07384,-2.45399,-15.0742,8.42233,-2.25418,-16.54,7.61291,-2.41723
2.7075,0.481656,-11.9332,29.8339,2.45718,-11.9378,28.3729,2.80617,-11.9505,28.0916,2.76181,-12.072,28.5095,2.7543
3.22641,0.133663,-1.42684,25.5639,3.46325,-1.89579,26.7156,3.90324,-1.71384,25.0291,3.82597,-1.90008,24.3493,4.31117
31.5124,0.361129,-7.32627,24.248,-4.23366,-8.05556,27.6416,-3.78454,-8.58645,26.0463,-3.72549,-8.47822,27.0781,-3.63886
31.1871,0.639021,0.839262,27.2052,3.30586,2.30077,27.9065,3.50576,1.47269,26.5551,3.73769,2.81854,27.386,3.30618
218.702,0.683002,7.72951,9.96728,-0.59128,4.45013,12.8075,-1.42508,5.66161,13.8291,-2.13104,5.16253,9.49106,-0.446394
6.66566,0.259875,12.6711,8.38963,0.47411,13.1554,9.96408,0.00627093,13.7206,8.34654,0.789648,13.2751,8.94512,0.361698
4.1624,0.00855819,11.9237,29.173,1.53339,10.2735,28.428,2.42406,10.6104,29.0343,2.20913,11.1751,29.4646,1.89409
14.0907,0.0357136,2.6134,30.7957,1.31203,3.15962,30.4644,0.0790498,4.67981,30.2986,-0.33859,3.49108,30.8267,1.82351
6.53035,0.116433,-9.40001,3.72705,2.19929,-9.24275,1.05548,2.36117,-9.44284,0.953152,2.3239,-9.27804,2.18399,2.34872
14.6753,0.631786,-2.76373,29.2836,-3.43473,-1.94393,26.5516,-3.44994,-1.60597,27.9989,-3.25543,-1.80463,26.7493,-3.34926
208.218,0.155061,-9.56289,3.10811,-0.26531,-11.0489,7.79826,-1.42434,-12.8625,6.05756,-1.30685,-12.7097,6.85143,-1.46662
32.8979,0.497669,10.786,10.234,-0.191782,11.3551,8.78465,0.222243,14.0898,11.3152,-0.393662,14.0728,10.2884,0.191536
1.15106,0.0157131,9.23697,19.3146,2.53747,9.39455,18.6211,2.75508,9.34265,18.4851,2.81502,9.08238,18.8329,2.75959
8.16365,0.495865,-2.31775,16.8002,3.45262,-2.73843,17.9535,3.95025,-2.73212,16.129,3.96968,-0.454932,17.0058,3.8851
5.82704,0.161132,15.7407,17.1872,0.0589486,15.7638,17.0393,0.437883,16.027,18.0356,-0.548047,16.3879,16.5863,-0.481602
4.6082,0.0661927,11.0699,8.14339,0.34203,10.5194,8.07848,0.365674,10.3179,9.52605,-0.0700261,9.90959,9.6063,-0.0415598
3.58183,0.0428823,6.67278,14.5536,-1.79412,6.07849,14.1703,-2.09734,6.34799,14.0184,-2.05054,6.08455,14.718,-1.97786
3.39642,0.189767,-13.097,14.7134,3.17112,-14.3396,15.113,2.68377,-13.9875,14.8159,2.73267,-14.5204,14.5459,2.53176
0.472946,0.26077,-3.44734,31.0144,-1.19219,-3.86226,30.9688,-1.17181,-3.73107,31.0247,-1.05021,-3.9389,30.9744,-1.22519
3.04564,0.0536884,-9.23336,25.2821,-3.65609,-9.49924,25.9733,-3.54439,-9.82772,25.3604,-3.60626,-9.01667,24.3889,-3.90757
0.0156356,0.0127428,-6.43555,4.19431,-0.233877,-6.39202,4.26968,-0.292512,-6.43494,4.26603,-0.281856,-6.35818,4.19101,-0.262787
12.628,0.148709,8.98742,3.94155,1.32057,8.79693,6.0508,0.607923,7.71516,4.53967,1.20158,8.20252,6.04993,0.703305
7.1185,0.158567,5.72816,30.5339,3.03301,7.49718,29.9856,2.42347,7.49331,29.9973,2.70931,5.28246,30.8862,3.20701
10.9372,0.154204,-3.0375,20.9695,-3.16585,-1.68321,20.6574,-3.00988,-3.09441,20.2837,-3.36229,-3.01632,22.5093,-3.26542
8.88245,0.48661,-2.3154,31.6384,2.18503,-4.28955,32.1005,2.11288,-3.81259,31.4346,1.11886,-4.47569,31.6,1.39748
2.68875,0.134024,2.59362,30.1347,3.46607,2.50545,29.2891,3.47615,2.67954,29.1476,3.46026,2.53757,31.1833,3.17871
49.7606,0.0081278,9.15448,22.7543,-0.634598,11.0843,24.0282,-0.108265,11.3226,24.8446,0.120334,12.5203,23.0741,-0.198067
13.3903,0.0698577,-11.2953,25.161,-3.27318,-11.1295,24.2381,-3.25892,-12.4341,23.4611,-2.74724,-12.0831,22.4841,-2.87989
28.82,0.465286,13.3951,18.224,1.03682,14.1011,16.4565,1.06783,13.3255,19.0889,1.66103,12.4702,16.7714,1.94819
13.8682,0.170221,11.9459,16.9504,-1.2711,12.1868,18.0632,-1.23231,13.278,17.6404,-1.42535,13.3519,16.6525,-1.36453
4.86645,0.114697,-12.1411,31.7103,0.349604,-13.3385,32.1076,0.695995,-13.8913,32.1903,0.613104,-14.1047,32.1911,0.416813
0.242697,0.336113,-16.0625,0.516134,-0.806637,-16.3893,0.727001,-0.585104,-16.3941,0.727262,-0.682241,-16.3865,0.729559,-0.631176
104.285,1.24104,-14.1512,26.5639,-2.84375,-12.5508,30.6589,-1.84575,-13.7263,31.182,-0.897461,-12.1013,30.3257,-2.2287
23.2265,0.96097,-0.205515,21.0226,3.05111,2.03028,21.2182,3.75073,-1.47697,20.127,4.13043,0.155118,22.7109,4.07179
9.26174,0.172828,0.313717,10.3034,3.03827,-0.655901,10.2732,2.88386,1.94838,10.2849,2.82262,0.820848,9.17369,3.32845
5.17967,0.359237,-6.53817,8.29468,2.5203,-6.06081,6.43639,3.7217,-5.82509,6.49843,3.78928,-5.50755,7.72287,3.4993
9.62209,0.164381,14.2446,15.4323,-1.12318,13.4396,16.3661,-1.31655,15.6901,14.501,-1.13386,13.8689,14.6237,-1.49995
9.25063,0.0774348,-7.86148,20.5883,-3.73586,-7.70425,21.2989,-3.87128,-6.47799,20.9375,-4.02656,-6.47537,21.0767,-4.03377
16.5964,0.230505,-1.7074,3.26026,0.0162651,-0.137623,1.63765,0.391417,-0.344905,2.65534,0.118548,-0.243703,3.13415,0.0189328
9.02051,0.0411208,6.31989,14.6382,2.80596,9.18132,16.8121,3.03953,9.19917,16.1928,3.14013,8.98097,16.4059,3.06604
1.17301,0.187586,2.21958,0.892958,1.27671,2.63981,1.35606,1.28121,3.13182,1.55697,1.56201,2.71489,1.43337,1.16358
37.6677,0.259696,-15.1,16.7121,-2.66632,-16.9836,18.9189,-2.22995,-16.4369,19.3598,-2.2454,-16.8316,16.8713,-2.30584
0.406801,0.116385,3.93347,23.0031,-1.91991,3.66634,23.3561,-1.94354,3.66304,23.0771,-1.91919,3.71068,23.2149,-1.91076
12.1979,0.323682,4.86718,15.7975,2.83743,5.21705,12.7504,3.64232,4.42354,15.4272,3.31444,5.55746,16.6256,2.90372
18.1988,0.552932,-7.97773,24.5506,3.42504,-8.3761,23.1116,4.0142,-4.58625,24.9512,3.87245,-8.35852,22.4742,4.02444
0,0.00376893,-15.9311,0.808482,-1.80468,-15.817,0.805198,-1.79944,-15.8711,0.813979,-1.80649,-16.0008,0.79282,-1.80788
1.55125,0.0329908,0.869422,9.23582,-0.665302,1.0904,8.73385,-0.63544,0.324231,9.24889,-0.731613,0.420371,9.52316,-0.753428
1.96099,0.0603876,2.28439,28.3952,-1.75533,2.33588,28.7375,-1.70691,2.19326,27.8612,-2.02783,1.93271,28.9737,-1.9137
0.99802,0.0969552,13.6845,14.3122,-1.62701,13.7345,14.7727,-1.51301,13.8247,14.6958,-1.49105,13.3289,14.7083,-1.61332
5.75544,0.0772951,-10.7645,31.1121,0.261615,-11.5011,31.7421,0.610584,-12.2833,31.1735,-0.401313,-12.4247,31.2289,-0.423625
7.86917,0.215278,2.24361,12.0563,3.47953,2.63237,12.8142,3.98604,2.58439,10.8981,3.02912,1.55976,11.0946,3.47243
2.6065,0.1094,-15.761,26.437,1.16141,-14.8785,26.3206,1.39721,-16.3312,26.4092,0.843606,-14.9288,26.2455,1.40541
21.1476,0.447913,-7.2892,21.5083,-3.95261,-8.26125,23.0639,-4.06837,-9.9123,20.4623,-3.47016,-9.80203,21.5864,-3.50729
37.486,0.185981,-10.8316,30.715,-1.57041,-9.37935,30.9462,-0.103364,-10.2978,30.9793,0.0747311,-9.5849,30.8848,-1.29985
30.1779,2.74617,-12.5195,12.3644,-3.03238,-13.5955,15.4821,-3.26457,-13.0892,16.1644,-3.10967,-13.1386,16.0986,-3.11497
7.36791,0.554545,-15.202,16.9597,2.17986,-14.5879,18.6662,1.80271,-14.3981,18.0463,2.50693,-14.9343,18.6851,1.5647
3.82855,0.169914,-11.9329,25.9677,-2.84027,-12.1972,26.192,-2.92303,-11.8637,27.227,-2.90792,-11.2912,25.3554,-3.25238
6.80873,0.193166,6.64544,11.2577,2.66613,6.75804,12.0333,3.16173,7.23834,10.5927,2.19659,6.5965,10.2637,2.54071
0.460222,0.18991,-11.3766,14.352,3.02303,-11.0324,13.7785,3.2212,-11.1742,13.7107,3.19594,-11.0828,13.7071,3.20867
18.8431,0.137151,-2.9495,31.2799,0.711052,-2.16987,31.3085,1.49554,-5.79571,31.681,1.34185,-5.88159,31.5143,0.819738
9.49172,0.165707,-14.897,22.5369,-3.01694,-14.4705,23.8559,-3.06852,-15.4329,24.12,-2.52308,-15.0134,24.4746,-2.76092
6.01517,0.526026,0.24366,15.2118,3.19637,1.45288,15.733,4.00658,1.57215,14.4638,3.99927,-0.0305838,15.652,3.68719
3.63266,0.256732,1.48756,8.01511,-0.512689,0.345531,7.82431,-0.554164,0.392207,7.89501,-0.562463,0.669508,7.68699,-0.395466
25.8444,0.59866,-11.9097,12.673,2.51274,-8.93083,14.3082,3.48551,-12.493,13.2029,2.97981,-11.4755,11.2126,3.31626
48.3924,0.0509723,-14.8984,31.655,1.28655,-12.8143,30.4385,2.5669,-14.0035,30.2091,2.04335,-12.8896,32.1815,2.07644
66.5832,0.0945482,-14.3965,8.3961,-2.04854,-13.7864,6.68179,-1.72605,-14.3111,6.04969,-1.7112,-12.0074,7.61211,-1.55977
33.5139,0.0445999,0.987667,26.0367,-2.64177,3.29741,25.8817,-1.95045,1.14759,24.4266,-2.6491,3.42259,25.1841,-1.9579
3.80412,0.137887,-16.729,22.5308,-1.92294,-16.6027,23.6682,-1.87225,-16.8384,23.3864,-1.85334,-16.3717,23.536,-1.97737
0.130796,0.175279,15.9786,11.9973,0.00989091,16.1694,11.5941,0.266194,16.0208,11.7683,-0.0253815,16.133,11.6095,0.292739
4.38106,0.133104,-9.13611,10.0235,2.73014,-9.51992,10.2811,3.11806,-7.34926,10.1608,2.76422,-7.35556,10.0871,2.71418
4.09635,1.17212,8.11702,19.1108,3.30482,8.54197,21.0257,2.46344,8.72445,21.0198,2.43406,8.37355,21.2519,2.54128
4.06066,0.0285671,-12.4791,25.6377,-2.97265,-12.8703,23.8391,-3.13365,-12.1236,24.8025,-3.15945,-12.6817,24.4666,-3.07952
1.58774,0.106797,-9.58779,30.6236,-1.82567,-9.44732,30.7578,-1.58762,-10.2093,30.702,-2.05139,-9.37454,30.693,-2.1904
6.06572,0.0908474,-12.4349,10.1596,1.98831,-10.3301,10.4471,3.19367,-11.262,10.1205,2.48386,-9.9748,10.2976,3.1334
2.81215,0.166577,13.7711,7.14946,1.74767,13.8066,7.12447,1.37489,13.9162,7.72334,1.31894,13.8545,6.36322,1.94168
20.1839,1.02448,1.11685,22.6777,-2.61521,0.601545,24.4433,-2.72136,-0.0829737,23.9089,-2.95913,1.69881,24.9667,-2.53445
14.7537,0.154459,-2.51336,27.31,3.76182,-4.03908,26.9332,2.88418,-0.164891,27.5452,3.86972,-2.97499,27.3511,3.53658
110.16,0.0931799,-6.10696,4.60435,-0.344192,-2.59986,4.51013,0.0750657,-1.47624,6.04712,-0.0138018,-2.59883,7.01945,-0.331053
13.413,0.317311,8.91652,7.74499,0.435699,10.5194,7.93721,0.382879,9.89318,8.89347,0.0621463,10.3486,8.72863,0.18611
34.9113,0.280876,3.1268,15.0498,-2.02005,3.01877,11.9356,-0.892549,4.37756,13.6071,-1.7419,3.97235,11.8628,-0.916291
132.093,0.599014,11.2123,14.3024,-1.14587,7.31832,15.4338,-1.50831,13.2848,15.1965,-1.52942,7.07402,14.0637,-1.84761
3.54698,0.267527,5.2251,8.71012,2.17246,5.39942,8.16511,2.59049,4.82115,8.81044,2.39672,6.32907,9.57873,2.31503
5.85369,0.441609,-7.09424,7.01914,-1.08959,-6.71468,5.98763,-0.701284,-6.12121,6.00846,-0.563086,-6.21507,6.01127,-0.590155
11.453,0.238099,6.18047,28.1613,3.15045,4.24641,27.9399,3.06202,6.9787,27.9683,2.79406,4.01867,27.9501,2.99547
1.46959,0.0306435,-2.49683,11.6479,3.98525,-2.70929,11.8723,4.08364,-2.29462,10.7079,3.44463,-2.47107,10.7756,3.49312
5.90696,0.0768546,10.9135,18.2144,-1.04596,9.82751,18.7867,-1.02223,10.4282,19.3393,-0.998544,10.8554,17.4424,-1.19126
13.3873,0.323365,-2.03558,15.8355,-2.94095,-3.82836,14.6778,-3.00757,-1.94336,13.8388,-2.38873,-3.20695,14.0886,-2.77412
0.461073,0.00491004,-2.55488,31.0506,-0.570773,-2.90239,31.0631,-0.625651,-2.82682,31.0353,-0.709786,-2.68897,31.0787,-0.485902
0.0208146,0.0208078,8.06503,11.1237,-1.17624,8.06639,10.9766,-1.12778,8.02191,10.9783,-1.1218,8.02295,11.0577,-1.13668
4.62904,0.333475,-8.67491,7.13901,2.90072,-9.24963,7.39453,3.12686,-7.71815,7.74164,3.18921,-8.44875,6.59879,3.40143
4.69575,0.0151568,-9.24106,18.0485,3.63473,-10.0456,17.9363,3.31206,-8.16429,18.1284,3.98869,-10.2106,17.0204,2.78631
10.655,0.14792,8.22678,4.52802,1.90907,8.78988,3.87618,1.66887,9.02082,5.07412,2.8797,9.40138,4.82103,2.75448
193.852,0.0966933,-4.92643,4.50664,-0.12898,-6.3585,1.13368,0.103673,-8.29038,2.79998,-0.173403,-4.25538,0.449154,0.321782
21.0836,0.0928924,-11.6412,30.5206,2.16991,-10.1482,31.305,3.5198,-11.2487,28.7681,3.3406,-11.492,32.2489,1.82443
7.39145,0.590905,-5.51561,21.0028,3.01184,-5.57577,19.1198,3.59566,-6.47914,21.8333,3.93988,-4.7621,20.9623,3.40219
7.78505,0.0403272,-4.90568,9.25314,-1.53652,-4.44331,7.86465,-0.94778,-4.59174,7.30083,-0.794686,-4.85387,7.65206,-0.962232
1.68326,0.197326,0.369794,27.6607,3.54028,0.0951719,28.1665,3.89722,0.276315,28.1563,3.87622,-0.251612,28.3262,4.12424
1.82415,0.131311,-8.63374,13.9482,3.39852,-8.34688,14.145,3.48971,-9.06417,13.0075,3.87879,-8.71149,14.2347,3.417
5.10892,0.179709,-9.38567,4.00566,2.09852,-10.1442,4.33153,2.89789,-7.98961,4.18877,3.10304,-10.1801,4.40838,3.02913
0.0874982,0.120407,2.43796,5.99442,-0.0229264,2.59361,6.06201,0.017976,2.52471,6.03867,0.0676853,2.58827,5.9885,0.0141643
0.301695,0.0161461,5.7346,15.8505,-1.89124,6.0071,15.6196,-1.83169,5.87012,15.5537,-1.89112,5.91252,15.5528,-1.87516
1.59074,0.00145285,-5.58224,9.70695,-1.78364,-6.03645,9.70337,-1.69038,-6.07316,10.0786,-1.85357,-5.98266,10.0821,-1.87309
8.79556,0.628055,14.1034,18.2723,0.786091,16.188,18.4111,-0.172446,14.4729,16.8926,1.05448,15.6857,18.6093,0.303712
2.19345,0.134261,5.98954,31.6666,1.04382,7.02118,31.5963,0.638248,6.46912,31.57,0.893174,6.95001,31.7352,1.01738
88.9924,1.60104,-4.21765,5.83975,-0.21333,-6.51244,6.98912,-0.953408,-6.22267,7.62144,-1.08805,-5.5839,9.4057,-1.66903
19.5099,0.561852,-3.44043,26.2499,-3.83868,-4.98824,29.6697,-3.51077,-4.58198,29.3138,-3.44132,-3.86072,29.992,-3.30431
109.349,1.97285,-8.44533,10.3685,-1.65032,-6.57554,12.1441,-2.25581,-4.00796,10.7507,-1.89974,-7.65025,12.5803,-2.48688
17.9639,0.383218,1.71074,30.6057,-1.15849,3.70918,30.4079,-0.0920448,3.72086,30.1891,-1.17042,4.0583,30.2768,-0.718819
2.48111,0.144086,11.8758,22.2554,1.81318,12.2452,22.5526,1.60459,11.949,21.64,2.44957,11.8203,21.8771,2.32624
4.07891,1.37491,-1.04787,7.39046,2.49065,-2.8601,5.50786,3.7206,-3.08779,5.71399,3.54024,-3.13183,5.77985,3.49751
4.34319,0.0865927,-11.1357,15.6657,3.03016,-10.6012,16.2033,3.01453,-11.5304,15.2587,2.87926,-10.4383,14.4531,3.48001
0.586238,0.0502917,12.9437,5.37334,1.21641,13.0732,5.0775,1.21851,13.3141,5.72078,1.21552,13.3584,5.64405,1.23179
1.81337,0.0165503,-13.9652,23.5803,-3.13194,-13.8336,23.3642,-3.14276,-13.5431,24.2095,-3.22447,-13.9113,24.0765,-3.18801
4.54916,0.359186,9.18158,25.4693,2.72229,9.0086,26.2531,3.06896,10.2368,25.6362,2.62893,9.0339,24.7203,3.30364
7.01395,0.197277,14.7984,20.158,0.485042,15.2437,19.3077,0.617507,15.8902,19.031,0.358049,15.5074,19.889,-0.147509
233.417,3.31109,8.38453,19.728,-1.11066,7.17979,24.8935,-0.644159,5.69752,25.714,-1.1457,8.49332,24.427,-0.384393
4.90995,0.0998288,-11.6682,21.7168,2.88444,-10.7605,21.164,2.44339,-11.5943,23.2425,2.85249,-11.7869,21.2807,2.79038
51.5703,1.16976,7.64106,28.1293,2.01921,6.62497,30.4993,3.2845,10.4006,29.0595,2.28844,6.25181,29.2583,3.54687
2.17234,0.314549,2.08873,11.251,-0.698877,1.98046,10.1972,-0.675602,2.1157,9.98495,-0.707297,1.71022,10.2745,-0.706846
1.37355,0.121284,13.0745,16.2366,-1.34305,13.3859,15.745,-1.33156,12.3867,16.0384,-1.3925,12.4757,15.8318,-1.44897
5.28926,0.460618,-8.4876,16.3193,3.08112,-7.54635,16.3518,3.44276,-9.14521,15.4456,3.56925,-9.04276,17.4041,3.66755
5.55483,0.10649,7.63036,23.9599,3.42506,8.27304,24.9678,3.4233,7.58185,22.9094,3.4643,7.6984,25.6264,3.05338
14.9985,0.379457,-14.5139,13.6424,1.87761,-15.0834,13.0906,2.02079,-12.064,13.534,3.09148,-15.1096,14.2187,2.15165
23.8823,1.48891,8.44089,27.0043,-0.140825,7.45625,25.094,-0.541567,7.27319,25.0329,-0.604473,8.37158,25.3428,-0.511256
229.567,0.57172,3.41151,3.69373,0.382359,-0.250315,7.90527,-0.531605,-1.76254,7.54985,-0.308336,-1.88138,6.35259,-0.0899253
9.3233,0.152585,1.70549,7.797,-0.38753,2.19223,9.0709,-0.677036,2.8189,8.47712,-0.459254,2.59311,8.85489,-0.566172
7.29766,0.54111,-2.94115,13.2115,3.64547,-3.36463,14.1324,4.234,-3.23906,12.1766,4.1448,-1.08461,13.2637,4.16491
14.0721,0.197124,-7.07948,28.5531,-4.04856,-6.10112,26.7502,-4.38333,-5.7745,27.364,-4.311,-6.15462,26.1185,-4.44669
4.79453,0.150509,-15.106,20.7758,0.797349,-15.9711,21.4552,1.0499,-16.0247,21.3847,0.98597,-14.9366,20.4075,0.82784
33.8202,0.25192,7.43083,18.1618,3.31678,5.65536,19.9954,3.47997,6.56429,18.1376,3.33872,6.54819,20.7869,3.11763
8.28486,0.705429,-6.31009,5.11026,3.70924,-7.60788,7.1755,3.17641,-7.79417,7.1172,3.21048,-7.05903,7.1566,3.20045
12.4153,0.0790399,5.56855,26.274,-1.05141,6.07185,26.7521,-0.925111,5.33082,25.4573,-1.30134,4.22592,27.5728,-1.39809
1.95862,0.348346,-5.21172,1.45225,0.150807,-5.97076,0.799698,0.151506,-5.9198,0.672876,0.129142,-6.06819,0.811588,0.130367
20.2489,0.955574,-12.1005,18.4371,-2.97543,-12.6415,21.4545,-2.98599,-11.7792,21.0922,-3.08032,-11.1037,20.6,-3.22433
5.2547,0.0947586,-4.68456,15.0159,3.62406,-4.85844,13.9934,3.86675,-4.49158,13.6402,4.13808,-4.34586,13.7746,4.18532
8.40053,0.100058,-8.22451,21.2154,3.43202,-9.43352,20.8378,2.55421,-6.30487,21.0367,3.60381,-8.93652,21.1691,3.04276
8.28293,0.630716,-4.54919,16.2182,3.21054,-2.94789,16.3557,4.0209,-5.57231,16.961,3.96654,-4.6769,15.1565,3.5892
18.6718,0.05391,1.36179,21.5201,-2.15563,2.38477,22.8256,-2.00962,1.84376,20.1195,-2.21131,3.60398,22.3035,-1.86932
28.8371,0.298863,0.640653,26.7285,3.55512,2.24378,25.1918,4.12743,0.584952,24.0152,4.07265,1.73851,25.1488,4.085
60.4638,0.46684,10.2001,30.4666,1.45407,10.3644,27.868,0.186047,8.11669,31.3695,0.733171,7.27909,28.5085,-0.355043
10.9206,0.0444678,4.85641,7.84485,0.0728716,5.78989,8.62373,-0.222107,6.17949,7.88296,0.191836,4.14573,8.80992,-0.429734
3.84188,0.601013,-0.440218,18.0356,3.23805,-1.26672,18.7144,4.185,-0.195095,16.9865,3.70786,0.666183,18.7582,3.58045
1.60491,0.61297,-14.8696,30.2494,-1.27244,-14.3693,29.3531,-1.71453,-14.325,29.4772,-1.6198,-14.3714,29.4677,-1.57849
5.69412,0.169243,14.9819,11.8243,0.697004,16.0258,12.0831,-0.0254757,12.9614,11.5432,1.53841,13.2587,11.5357,1.32881
27.5139,0.180768,0.194232,13.978,-2.05247,1.19812,16.3738,-2.53223,0.985566,12.6661,-1.51969,0.0753126,17.1106,-2.71614
2.94775,0.828021,-2.76463,9.593,-0.988269,-1.85627,9.77643,-0.847912,-1.97727,10.3064,-1.24002,-1.94072,10.0838,-1.05164
0.466971,0.084995,-12.8717,15.5925,-2.91278,-12.825,15.8745,-3.00832,-12.7894,15.4374,-2.98556,-13.0117,15.6645,-3.01027
137.374,2.70408,-6.28081,31.6731,1.27379,-8.90956,30.6842,-1.11289,-11.4715,32.2383,1.59016,-10.7638,31.4232,0.619327
1.30932,0.0257929,-0.184197,0.144766,1.06361,1.05121,0.0427179,1.15654,0.631239,0.0587397,1.06735,0.676778,0.372092,1.71306
1.10465,0.0808021,-10.5128,12.8574,3.46226,-9.89976,11.9249,3.7956,-10.0827,12.0054,3.72954,-9.94724,11.9277,3.77917
10.9665,0.114749,-5.52058,14.307,3.95607,-5.06581,14.2805,3.89431,-8.12771,13.7852,3.60647,-8.05656,14.3503,3.54816
3.32596,0.737954,-11.9677,19.4545,2.02894,-12.5152,18.4519,2.89728,-12.5064,18.7372,2.8198,-12.2837,20.823,2.52183
0.0345286,0.0460688,-7.32518,13.0918,-2.58877,-7.23724,13.1006,-2.55938,-7.28205,13.0265,-2.57378,-7.23565,13.1624,-2.59447
11.3451,0.528412,1.37487,30.9712,0.397596,0.0604466,31.047,0.217337,0.811678,30.7935,-0.357148,1.09572,30.7961,-1.08638
22.0521,0.330981,-9.79259,2.93336,-0.247709,-11.0899,1.07713,-0.75934,-10.2624,1.53785,-0.560036,-9.12189,1.9715,-0.25856
2.84397,0.483781,-6.97695,4.09187,3.30827,-7.04447,3.58541,3.35033,-7.86009,3.9703,3.12066,-8.0032,4.04254,3.03907
14.3752,1.16776,-6.79109,29.1662,3.27013,-5.52397,29.6785,3.38182,-6.38271,31.8269,3.29747,-5.81959,30.8197,3.63268
0,0.0170431,-6.09359,24.3186,-4.48005,-6.17446,24.3113,-4.4701,-6.1451,24.2587,-4.45115,-6.14748,24.3122,-4.46702
49.0511,0.53253,-8.24656,27.0005,2.88306,-8.13576,24.7696,3.54542,-4.92419,26.8525,3.51257,-8.06252,28.3304,3.34643
5.7672,0.300449,-8.46627,29.0372,2.89909,-8.96097,29.6997,3.26097,-8.78889,28.7128,3.07711,-8.80757,27.8651,3.52576
9.97867,0.519552,-14.0457,2.6359,1.23526,-14.3727,2.16481,1.51752,-14.7998,4.1034,1.95239,-11.4003,2.672,3.22639
43.519,0.29508,-2.50679,12.8428,-2.2269,-0.204869,14.3557,-2.2959,0.0851723,13.1226,-1.7948,-0.418795,14.8596,-2.50887
112.384,1.02485,-10.9107,29.4586,-3.08632,-8.33048,27.9158,-3.63512,-6.38515,29.2402,-4.13505,-6.42942,29.1709,-4.13637
19.7985,0.89984,-1.55606,9.38717,2.24185,-4.53334,9.75382,2.89729,-3.98195,8.941,2.61563,-1.19824,8.54443,2.91718
99.7182,0.125188,-14.977,8.70618,-2.30096,-13.2809,12.9467,-3.17157,-13.8384,14.6461,-3.34124,-14.6949,15.2842,-3.2842
6.0577,0.0931029,3.38862,18.2892,3.61606,3.13929,16.6285,3.95464,3.36737,19.1867,3.26955,4.08959,17.5594,3.78415
20.9957,0.927303,9.1315,24.4264,-0.331067,10.3684,25.014,-0.0166709,9.42395,26.0787,-0.0749905,9.51992,25.9998,-0.0408706
0.584629,0.00308857,-14.4849,12.3814,-2.91604,-14.4568,11.5284,-2.77711,-14.4982,11.6702,-2.78458,-14.4094,11.5251,-2.79738
6.09222,0.36314,12.9221,27.6539,1.03585,12.0382,28.4559,1.88982,12.4651,28.8147,1.23003,12.1092,28.6626,1.79824
13.7388,0.429411,-16.2383,26.2567,-1.917,-16.627,28.0619,-1.64709,-15.8481,27.9873,-1.76721,-16.7896,27.5178,-1.54956
52.9196,0.696944,12.4868,26.4239,1.59141,9.72246,23.357,2.83311,12.0706,23.8004,1.5343,9.96194,22.7729,2.82653
40.0202,0.625076,13.181,10.9381,1.16582,14.6146,11.1246,1.13037,13.7855,8.00171,1.99891,12.216,8.11329,2.76219
64.6583,3.60452,-13.7632,3.9018,-1.39363,-10.5725,2.3,-0.536294,-10.6217,2.22654,-0.543523,-11.6542,0.636657,-0.976152
11.2106,0.268233,-16.8024,29.0956,-0.754896,-15.1938,28.7537,-1.96081,-16.7507,30.0162,-0.865075,-16.1239,27.9879,-1.67555
2.62381,1.13705,-13.3869,6.05051,1.70781,-13.4939,4.69464,2.46249,-13.4446,4.76713,2.51384,-13.5883,4.76812,2.44667
9.41765,0.34983,-9.78375,20.781,2.1814,-10.3565,17.3715,3.0664,-9.48726,20.917,2.52712,-10.722,21.1617,2.43273
8.99147,0.500166,-6.57735,8.71104,2.24882,-5.38398,9.93202,2.88126,-5.2352,8.9599,3.1583,-7.61617,8.83018,2.42626
41.3097,0.117736,1.72695,27.0465,-2.35048,-0.171193,27.1823,-2.90618,-0.337885,28.0974,-2.94747,0.122355,28.775,-2.76783
38.9198,0.308619,-15.0795,25.476,1.07933,-13.4426,24.4367,2.3492,-14.1756,24.1125,1.91207,-13.503,25.9033,1.71809
46.0391,0.478232,-6.37637,4.45571,3.08845,-5.20407,3.61645,2.68534,-6.76142,2.06136,2.46042,-5.59795,2.22202,2.58295
0.835388,0.0319583,0.935622,17.0212,-2.59146,0.79132,16.5332,-2.57083,1.11142,16.5881,-2.55437,0.749835,16.6005,-2.58266
0,0.00915408,5.78032,8.83055,-0.284489,5.74341,8.82313,-0.28094,5.71462,8.83189,-0.286269,5.74168,8.77375,-0.278355
15.4225,0.00304094,-12.6187,25.574,-2.95922,-12.9881,28.0176,-2.88948,-13.7036,25.8638,-3.00965,-12.4077,27.3777,-2.87843
9.38987,0.264595,11.1331,15.2401,2.33337,12.483,15.3985,1.97372,11.4791,13.6192,2.71523,11.0197,14.4164,2.80746
1.01118,0.0833376,10.3509,30.0545,1.81181,10.6507,30.2531,1.6703,10.5979,29.9069,1.89251,10.0625,30.2185,1.94499
32.4968,0.0490529,5.82925,28.5036,-0.937176,7.90512,27.8514,-0.171984,7.98854,27.2975,-0.197945,6.44571,27.156,-0.7923
4.20618,0.00709865,-3.98817,8.80454,2.70015,-3.56985,8.4618,3.11029,-3.65542,7.08725,3.64847,-3.9379,7.22849,3.41622
10.2949,0.56789,9.5487,20.6172,1.96341,8.92527,21.4362,2.42302,9.28397,19.3759,2.5013,11.1122,20.9888,2.81826
33.4645,0.155197,-10.6203,27.6454,-3.1639,-9.96373,25.4348,-3.57075,-8.81743,25.5579,-3.71916,-8.47687,27.3573,-3.6359
1.19915,0.00680347,-10.8251,30.3953,-2.80052,-11.091,29.8634,-2.88731,-11.321,30.064,-2.703,-11.3179,29.9231,-2.7612
0.508192,0.046192,-15.0006,21.9694,-2.9857,-15.1,21.56,-2.96779,-15.0523,21.559,-2.98043,-15.1878,21.628,-2.95087
1.24811,0.30818,8.71003,22.4965,2.57051,9.28813,23.5264,3.15999,9.2764,23.3862,3.10051,9.29017,23.5966,3.19145
16.524,0.00439517,-0.603599,3.50082,-0.0154831,-1.55559,4.11079,0.0156619,-2.56504,3.69205,0.0182491,-2.37417,4.23908,0.0290774
13.4163,0.439273,-9.81579,7.33329,2.86946,-10.8556,7.89236,3.41683,-8.86522,5.15601,3.76765,-9.23135,7.80959,3.05937
5.39518,0.502726,-2.40804,2.18145,3.28829,-4.72325,2.19435,2.78783,-4.67119,2.27604,2.81634,-4.67677,2.12108,2.80469
47.1168,1.61875,-9.97862,9.23173,2.47048,-7.5162,9.67256,2.69534,-8.31139,7.77051,3.18925,-7.56687,9.60321,2.67575
0.290566,0.0576114,16.8749,13.0291,-0.496851,17.0012,13.662,-0.362537,17.0082,13.5901,-0.454449,16.9963,13.3645,-0.564881
19.7361,0.107646,10.9443,27.4763,2.05984,12.3687,26.5134,1.64438,10.7515,26.0251,2.38799,12.7329,27.5831,1.39301
20.0293,0.333396,0.578704,3.91009,3.34324,-2.32579,2.67262,3.49876,-0.258528,4.41571,3.80731,-2.09787,4.21762,3.81035
4.09332,0.675035,-13.3505,23.6543,2.23388,-11.9861,23.8205,2.70373,-11.9456,23.6685,2.74921,-11.7609,23.7381,2.69966
0.828757,0.0329787,2.58609,26.7443,-2.11151,2.70875,25.9637,-2.11996,2.75601,26.1779,-2.04022,2.75555,26.1054,-2.05462
1.54494,0.162786,12.1182,16.3932,1.90279,12.0116,16.593,2.16415,12.4141,15.5842,2.01469,12.4919,16.4386,1.80647
142.329,0.654467,-9.33231,9.38805,-1.47579,-6.47644,4.53929,-0.356793,-9.6504,5.33814,-0.709573,-6.89969,3.97134,-0.159213
1.64088,0.0649077,-14.6669,26.0724,-2.69222,-14.8629,25.176,-2.77993,-14.3456,26.1443,-2.83329,-14.9824,26.2895,-2.66437
7.46743,0.313384,-4.98571,4.09636,2.854,-3.33337,4.26772,3.71222,-3.39074,4.13115,3.6026,-3.97726,3.80474,3.24679
10.2589,0.0828061,0.304595,1.05042,0.67699,1.7906,2.17746,0.442373,0.789503,2.27801,0.259587,1.87432,1.73679,0.599207
1.05315,0.041833,-8.41132,15.6559,-3.03412,-8.55341,15.3766,-3.02961,-8.49374,16.023,-3.12781,-8.09086,15.7258,-3.09894
12.4999,0.0569053,-2.61561,30.9623,-1.60805,-0.560088,30.8556,-1.80076,-3.11115,31.0543,-0.866102,-0.486362,30.9803,-1.17213
3.22281,0.168382,-0.13954,18.146,-2.57693,-0.284944,17.3955,-2.66185,-0.586844,18.311,-2.75375,-0.530556,18.8721,-2.8157
100.981,0.138447,-8.25587,14.3801,-2.8262,-4.65955,11.989,-2.46567,-4.5205,12.1244,-2.4863,-8.52519,12.5403,-2.44468
5.13433,0.0887039,-6.9377,8.60247,-1.20214,-6.21309,9.93278,-1.76396,-6.52162,8.56642,-1.40322,-6.63524,9.55919,-1.57228
10.1351,0.0916927,13.1572,21.5153,0.738217,13.4606,21.3252,-0.487414,14.0869,21.2081,0.555045,13.8466,21.1403,-0.680817
0.0506854,0.0277629,-2.56755,2.44811,0.169617,-2.49295,2.41749,0.107814,-2.58695,2.48798,0.121153,-2.50856,2.47548,0.0825315
0.381756,0.108573,8.236,12.6284,-1.76597,8.01558,12.8606,-1.85914,8.05801,13.0855,-1.89088,8.08044,12.9084,-1.82361
17.1031,1.03022,11.9904,4.41772,1.80143,9.61611,4.24337,2.38577,11.7216,5.15626,2.75691,9.88368,4.2892,2.43702
16.1589,1.04096,-13.5703,6.65395,-1.6771,-14.2355,5.34175,-1.54028,-13.5517,5.29332,-1.37665,-13.2417,5.38167,-1.21657
0.197378,0.0866041,3.84254,2.62109,1.14017,4.19504,2.97952,1.2022,3.98036,2.72846,1.28358,4.12382,2.91816,1.27259
21.8789,0.69493,-4.36504,20.9534,3.25807,-3.81502,21.9943,3.97344,-4.34082,19.0744,3.68833,-2.84172,21.0261,3.43315
1.65307,0.215109,-9.10348,9.45262,-1.48795,-8.94722,10.3761,-1.6415,-8.7758,9.95037,-1.55455,-8.8604,10.2278,-1.59693
8.93184,0.0173493,-4.11995,26.0016,-4.07327,-5.18907,27.2044,-4.20626,-5.65532,26.26,-4.43049,-5.59617,27.2204,-4.30243
2.8181,0.139715,-0.00877994,30.7907,-0.454873,-0.693989,31.0268,-0.794903,0.679806,30.8234,-0.615616,0.811801,30.8177,-0.0751131
24.2507,1.25575,-12.3022,16.6331,3.37259,-14.2456,16.4216,2.51552,-14.6882,15.677,2.58893,-14.4131,17.5641,2.59394
46.5097,1.08893,13.1877,6.4918,1.1736,11.2995,8.14157,0.342212,9.9728,5.38619,0.828658,10.9105,6.7295,0.52899
5.27014,0.34487,10.9073,27.6271,2.09761,9.17007,27.5699,2.15002,9.08487,27.4929,2.24321,9.03709,27.2187,2.50501
6.10413,0.154112,-8.13056,30.7037,3.25921,-8.07075,29.937,3.43341,-6.82792,30.8628,3.53785,-8.13484,31.4103,3.40119
6.12583,0.408113,3.56218,21.0657,2.52534,3.41562,19.2518,3.23156,4.2348,21.2415,2.9127,3.0486,21.4467,2.87532
32.5652,0.0236555,-13.7592,26.6837,1.43336,-11.7927,26.459,2.2893,-14.4892,26.0087,1.33779,-12.5134,24.2657,2.74262
2.89591,0.11482,-14.2785,27.2033,1.3775,-14.0178,26.9921,1.38422,-14.6898,28.4192,2.01833,-14.3673,26.6365,1.30065
12.1925,1.12783,-6.99521,7.72234,-1.21035,-8.34225,8.73651,-1.37961,-7.37028,9.42862,-1.47604,-7.46291,9.3567,-1.46043
13.0843,0.0417724,-3.59479,12.8824,-2.53384,-3.7104,9.93423,-1.48243,-2.9351,12.0632,-1.99779,-3.4503,9.63276,-1.26056
7.0137,0.0250112,-12.4228,31.0239,-0.682971,-11.9982,30.8124,-1.17663,-12.4744,30.865,-1.44355,-13.665,31.2397,-0.827432
1.68157,0.396959,5.39154,8.09162,2.66924,6.10207,7.02914,3.1792,6.09501,6.94796,3.20767,5.88665,7.17318,3.21547
1.54634,0.274478,-13.2798,29.6099,2.34113,-12.6193,29.5809,2.63552,-12.5711,29.7306,2.60259,-12.3894,29.6448,2.62358
5.91899,0.0249398,-16.1966,31.9756,-0.0882002,-14.578,32.156,0.529169,-14.2322,32.1939,0.364404,-14.1108,32.2038,0.517979
65.0552,0.119484,-2.06562,30.966,-1.02253,-0.817104,31.1835,3.32649,-0.11835,31.1076,2.29953,-0.693263,31.0376,-0.3641
1.42304,0.0561829,13.2973,12.8828,-1.41709,12.9059,14.0924,-1.63277,13.4415,13.377,-1.54172,12.9512,14.0917,-1.63311
109.681,0.579224,-9.37084,11.4775,-2.21071,-11.4847,14.7102,-2.81297,-9.22784,15.8794,-3.024,-11.2526,12.5318,-2.71854
54.7564,0.352083,-11.1039,26.7084,2.10603,-9.95284,23.6756,3.92776,-11.5905,23.3107,2.82619,-9.66158,27.3658,3.45142
11.6988,0.327389,-1.96258,4.2919,0.034092,-1.05169,4.61095,0.0607467,-1.35762,5.05768,0.137304,-1.03909,4.95515,0.193339
1.71587,0.246908,11.071,23.218,2.40896,11.0569,23.9912,2.31935,10.615,23.0414,2.65296,11.0122,23.9242,2.33931
1.19242,0.0148121,-8.91348,29.7707,3.26578,-9.39585,30.5678,3.70268,-9.30533,30.5629,3.68191,-9.05927,30.2079,3.48807
0.566268,0.0288852,8.35751,8.8784,2.68063,8.2282,9.01192,2.6237,8.08494,8.67108,2.79754,7.90009,8.67994,2.77054
12.5192,0.110863,-11.337,12.9487,-2.66251,-12.527,11.6699,-3.04313,-12.2252,11.093,-2.98024,-11.9641,13.1865,-2.91186
12.7089,0.0521364,9.48937,20.6053,-0.955905,10.7347,21.6888,-0.714298,10.2162,20.4504,-0.915027,10.2455,22.5349,-0.591226
27.6979,0.0863943,-2.9035,9.67672,-1.06845,-4.29743,8.06957,-0.978729,-2.60685,8.72435,-0.636843,-3.92809,6.40928,-0.433362
0.468995,0.340618,-8.01288,17.4864,-3.1871,-8.04943,17.9788,-3.23158,-7.91471,17.8985,-3.22158,-8.13757,18.05,-3.26769
6.69097,0.143427,0.0690882,12.7847,3.9245,0.166682,11.8746,4.01274,0.0958187,14.9323,3.29516,0.200797,13.885,3.60736
41.6024,0.338447,-6.08262,15.7774,-3.21784,-7.29844,14.2301,-2.87894,-6.53599,13.8561,-2.8098,-3.8598,13.3879,-2.61027
7.45928,0.450475,5.28622,21.7599,3.46596,4.28544,21.2285,2.94764,5.30739,21.2153,3.58478,7.01269,21.8057,3.1762
2.55147,0.0439443,8.27661,7.7574,0.353043,8.72822,7.33999,0.334594,8.40313,6.83585,0.349715,8.17697,7.13591,0.333134
1.27985,0.859143,12.792,20.9348,2.23718,11.8376,21.026,2.56668,11.7324,20.7396,2.69977,11.7898,20.8764,2.60303
89.7754,0.654262,6.66003,20.1844,-1.26369,12.3421,16.106,-1.38286,10.6589,16.4756,-1.18222,9.82264,15.364,-1.12856
7.61673,0.0984823,6.18805,6.95896,3.16266,7.52863,6.38558,3.08186,6.4786,6.04479,3.49702,7.28881,6.00145,3.28041
2.63084,0.317758,-11.8708,15.0489,2.68736,-12.4714,15.2996,3.07627,-11.4319,14.2791,3.01899,-11.5601,15.41,2.92825
4.04662,0.122821,-0.718398,4.82043,0.151833,-0.685088,4.08159,-0.0292952,-0.0517776,3.78303,-0.00671523,0.139316,4.19873,0.0411931
67.9303,1.49676,2.1613,1.26917,2.02763,3.2089,3.93414,2.18343,0.672278,3.38545,2.40387,1.39536,4.24028,3.02556
5.19199,0.133555,-12.0343,27.8074,2.45861,-11.2287,26.924,2.11538,-11.0299,26.9978,2.18103,-12.5895,28.1885,2.81689
1.43053,0.142242,-11.7145,8.46013,-1.6748,-12.0427,8.04906,-1.62197,-11.9145,7.68204,-1.56818,-12.1742,8.11779,-1.6679
0,0.0185129,3.27324,4.71441,0.292963,3.27816,4.73086,0.279207,3.29236,4.681,0.250797,3.25979,4.68295,0.206915
2.11293,1.55327,-0.637996,10.483,2.99355,0.237976,11.5953,3.96225,0.197911,11.6693,3.9683,0.115411,11.807,3.98597
7.46053,0.0377669,-5.38187,1.43978,2.22445,-3.2255,1.14395,2.59073,-5.15483,3.55013,2.69621,-5.40489,1.01952,2.18119
1.62934,0.0290378,-12.0717,28.4784,-2.84686,-11.8313,29.4509,-2.74102,-11.4138,29.9257,-2.73117,-11.8399,28.825,-2.80367
14.2122,0.158638,-2.67722,30.3275,3.84423,-5.05938,29.6529,3.53787,-4.50163,29.7662,3.62999,-0.607891,30.6966,3.72976
3.04207,0.50649,-8.25135,19.8069,3.53801,-9.55728,19.8627,2.90729,-9.75967,19.7234,2.75167,-9.81161,19.6553,2.72492
14.2669,0.261527,7.41266,21.2186,2.57754,7.09159,19.6428,3.2743,6.63846,20.8538,3.08485,7.97306,21.3477,2.71202
13.8056,0.0273436,-7.58458,1.2433,-0.15674,-7.64314,0.673345,-0.242195,-6.49407,1.20988,0.0838878,-8.98511,2.11956,-0.251905
2.33226,0.189772,-4.90981,20.3904,-3.6135,-4.68749,19.6373,-3.74118,-5.25655,20.8449,-3.82631,-5.21858,20.5481,-3.63821
56.4234,0.028951,-10.8621,18.5717,-3.17582,-10.2481,22.4196,-3.37602,-11.47,23.3249,-3.0729,-11.1597,22.5596,-3.14763
38.2679,0.077979,-5.27478,17.3275,-3.53967,-4.28923,19.1246,-3.57054,-5.98498,20.581,-3.95791,-5.21887,22.9436,-3.98483
3.87106,0.0585787,-0.557674,30.1625,-2.43922,0.860669,29.5727,-2.38684,0.475159,29.8948,-2.08193,-0.353746,30.0105,-2.7164


