
0.343512,0.118317,-18.8338,6.72358,-1.08826,-18.8001,6.74557,-1.313,-18.7775,6.67347,-1.36632,-18.7792,6.57016,-1.40105
81.1064,1.14761,8.46388,1.0549,0.127031,11.5705,2.36034,0.531693,10.1185,2.86532,-0.0167433,6.41584,2.78358,-1.71098
0.404351,0.00845674,7.28806,2.7976,5.43892,7.12857,3.14292,5.57023,7.25922,3.28432,5.60907,7.33594,3.1955,5.56958
51.934,0.0525326,15.8085,1.65466,3.27952,12.336,1.31552,3.08673,11.47,0.776527,1.82958,14.7974,0.881136,1.58514
2.35954,0.599052,-11.0476,6.29223,5.35272,-10.6614,7.1365,4.93765,-10.2317,6.91152,5.04224,-10.5003,6.90956,4.96039
21.8988,0.202664,-17.4903,13.2854,-1.83005,-15.8853,14.9041,-2.95184,-17.8643,13.1796,-2.73974,-15.7697,15.0782,-1.56095
21.1362,0.365248,5.38098,25.5606,0.615794,3.53274,27.1333,0.985894,3.23045,27.8784,1.29776,4.18055,27.3249,1.54018
0.113597,0.0308854,9.91693,20.8854,0.196962,9.60254,21.0173,0.0832552,9.65243,20.9653,0.0763424,9.63782,21.0405,0.114492
13.0789,0.0145786,-3.19676,25.4262,-2.20078,-4.46852,23.2846,-2.21055,-2.73234,24.4351,-2.04741,-4.61724,23.3666,-2.24184
11.8589,0.17231,-13.7651,13.5272,4.50173,-14.0464,11.4313,5.02799,-12.195,14.0326,5.04375,-12.4874,14.645,4.83329
8.92318,0.453074,-1.20153,26.9228,4.7814,0.0321365,27.3252,3.17602,0.299117,27.6316,3.31952,-1.88692,26.4855,3.99412
44.9428,0.617389,-6.86342,19.0039,4.98756,-7.78791,21.2315,4.8659,-6.00315,21.7771,5.15567,-5.02137,19.0345,6.07216
22.1012,0.426973,-9.88524,8.98464,4.70839,-8.22428,8.99391,5.23755,-10.3916,10.4858,5.40244,-7.50529,9.82321,5.43582
0.188207,0.00195758,-16.1617,1.41746,2.28841,-15.8335,1.41093,2.4576,-16.1166,1.44091,2.37331,-15.8375,1.39426,2.40962
1.25956,0.0429896,-16.7913,11.335,4.01985,-16.5271,11.9676,4.12172,-16.5721,12.0322,3.91201,-16.4857,12.0048,4.22156
1.84022,0.346096,-5.48176,24.2807,-0.7323,-4.92493,25.0839,-0.515029,-5.04368,24.9069,-0.379203,-4.93881,24.9377,-0.588476
4.71314,0.265726,-12.0017,17.3677,2.63889,-11.8639,17.9502,2.51163,-11.9103,17.8993,2.11343,-12.4088,17.3058,1.64359
6.57998,0.225022,3.19657,14.619,5.63042,4.28634,13.094,6.08073,3.44537,15.4111,5.62312,2.6794,15.3139,5.77065
1.68269,0.353341,-16.2616,14.1644,-3.90411,-16.0341,14.6002,-4.03654,-16.5574,14.1557,-4.55471,-16.4261,14.2378,-4.48631
30.1353,0.259366,-8.01528,19.5848,5.08109,-7.59653,16.1581,5.08487,-7.79448,17.3193,5.24125,-7.45895,18.4756,4.96959
0.853398,0.144757,17.8145,8.59798,0.068281,18.1466,8.82946,-0.148074,17.8385,8.48941,-0.0448802,18.5454,8.93826,0.111912
3.98189,0.0351193,8.37144,6.52155,-1.71812,7.52004,6.69541,-1.66914,7.59139,6.60521,-1.68145,7.73854,7.58865,-1.53399
0.882234,0.0701304,10.2951,16.1665,5.238,9.94417,16.1035,5.23783,10.4922,16.7041,5.01159,10.4186,16.7506,5.0134
15.919,0.22226,7.34103,9.996,-0.833363,8.79233,11.1947,-0.429779,8.53535,11.853,-0.260573,9.71447,11.0127,-0.535566
1.59204,0.082205,3.30151,18.996,5.9334,3.28989,19.6652,5.73883,3.20488,19.6545,5.76366,3.32339,18.3518,5.94847
14.1756,0.0654894,15.0992,16.2608,0.964508,14.9273,16.3251,-0.893824,15.6367,15.4653,-0.352742,15.1142,16.1097,-0.27318
94.8056,0.27435,3.70367,19.172,-0.795185,0.0634948,19.9064,-1.43533,2.18734,20.7144,-1.35008,0.594518,19.0595,-1.30642
1.98122,0.0889149,9.59529,4.63726,5.42392,9.56318,5.29735,5.2572,9.71442,5.689,5.09623,9.85666,5.69686,5.08872
13.0657,0.138762,-14.1251,16.2245,2.14706,-12.578,17.0161,1.97907,-12.2126,17.1121,3.73064,-12.1195,17.1687,3.14045
10.5645,0.0571082,-7.84915,7.38559,-2.88084,-7.12115,8.36426,-3.01505,-5.81747,7.3679,-2.85335,-6.65299,7.52379,-2.86813
2.20601,0.141568,10.4892,5.76052,-1.48838,10.7096,5.30446,-1.29704,10.9759,5.40973,-1.28682,10.9696,5.9687,-1.65664
49.6937,0.689571,10.7202,12.1901,4.82728,11.3449,14.7443,4.82894,12.3464,11.9555,5.04258,12.8766,13.5579,4.52693
37.585,1.29779,-6.88787,22.7679,4.03891,-4.07818,24.7336,4.26051,-3.33369,25.8798,4.51474,-3.5345,25.4998,5.52091
0.247638,0.0745451,0.440299,27.888,4.76114,0.173678,28.0683,4.53661,0.111901,28.0149,4.52429,0.285978,28.087,4.61214
3.60229,0.039012,-11.2309,7.77427,-4.93291,-12.1429,7.86558,-5.14321,-12.2963,7.29336,-5.31713,-11.8844,7.2491,-5.20402
1.28659,0.13233,14.239,17.8461,0.344898,13.9553,18.3124,0.283214,14.0105,18.3463,0.549969,13.9486,18.4778,0.443312
37.7802,0.0951148,0.796835,4.93863,-1.89139,2.76675,7.64704,-1.39659,-1.14018,5.16419,-2.20866,1.98386,4.85448,-1.84605
2.61342,0.0803543,-1.10156,14.3375,-1.36138,-1.901,13.9757,-1.53759,-2.09772,13.7316,-1.54477,-0.524653,13.9467,-1.30773
1.30327,0.122125,-10.5588,19.3753,3.05868,-10.6987,19.3839,2.95651,-10.4138,19.8185,3.57088,-10.4128,19.7937,3.41979
89.1803,0.21234,6.15449,17.6566,-0.565079,4.54826,14.8324,-0.478816,7.7703,18.5746,-0.380089,5.3553,14.211,-0.580898
35.5281,0.794406,6.52548,23.1656,-0.0918198,7.79987,21.5154,-0.436425,7.39782,22.6756,1.13973,8.34303,21.575,-0.0541284
7.58536,0.33487,1.98618,4.79766,-1.87232,3.15131,4.25289,-2.1027,3.50223,5.2017,-1.78372,3.47413,4.63851,-1.93268
3.24282,0.157861,9.75382,20.8303,4.22176,9.32755,19.8377,5.00995,8.83562,20.4666,4.58202,8.62671,20.1477,4.77072
0.612233,0.0635018,13.9296,20.4541,4.0382,13.8148,20.5945,4.25155,14.2849,20.272,3.84638,13.9163,20.5047,4.26451
1.72796,0.157374,3.93861,29.081,2.82042,3.97845,28.9339,2.35128,4.35947,29.0262,2.98256,3.62402,29.3902,2.46377
1.37437,0.0173585,10.7554,15.0853,-0.301442,10.7809,14.245,-0.263401,9.96741,15.1189,-0.273934,10.8437,14.2501,-0.264403
57.9989,0.0512251,-5.25463,18.3134,-2.05514,-7.06179,17.1754,-2.34076,-5.50426,14.9601,-1.80916,-4.22049,15.44,-1.60953
6.67701,0.263239,18.3204,6.73974,1.83229,18.1689,6.29495,1.1193,18.5259,8.5522,1.75137,18.5614,7.56414,1.75724
9.20571,0.348875,9.74318,16.663,-0.158358,9.71387,18.5217,-0.128693,9.18558,17.8352,-0.135949,8.77074,17.978,-0.261776
85.3309,0.364982,-12.5946,16.5132,0.88945,-11.9822,18.0673,1.11622,-11.3907,19.0325,-0.516537,-13.0133,16.6479,-1.09231
232.582,1.84511,-5.24031,23.266,-2.34844,-2.48571,20.914,-1.76441,-3.63077,17.5888,-1.78762,-3.37701,17.8771,-1.65096
19.5308,0.0872186,2.68562,0.339086,-2.43506,2.84754,2.87584,-2.4592,3.97075,1.39046,-2.52955,2.50555,2.53494,-2.45891
2.61264,0.0389749,4.34041,23.6304,-1.22601,4.05521,22.2062,-1.18616,4.33033,22.2776,-1.12656,4.50944,22.8959,-1.14788
41.9326,0.719935,10.2205,7.64525,4.5941,9.78585,5.74069,5.07328,8.42396,7.51208,5.50616,11.9378,7.65973,5.13868
2.48853,0.138312,0.242312,8.49545,5.11297,0.545358,8.12944,5.21824,0.77179,7.29717,5.3268,0.771072,7.43424,5.36581
1.65401,0.0881008,-1.3151,24.6905,5.54647,-0.903664,24.9369,5.54995,-1.29621,24.2157,5.67537,-1.96067,25.0574,5.70381
2.84035,0.0614937,11.5874,9.90984,4.96046,12.7769,9.98314,4.82814,13.7746,9.85692,4.66666,13.7685,9.94974,4.66677
0.499347,0.205542,-16.1964,13.0464,-5.22342,-16.4006,12.9361,-5.56902,-16.0476,13.1522,-5.36182,-15.9683,12.8995,-5.42172
4.0115,0.145055,14.2534,7.67973,-1,13.9018,8.47598,-1.46818,14.2478,8.45632,-1.41106,13.6539,7.63828,-1.22828
1.28009,0.0846156,16.0223,1.16435,1.28675,15.3369,0.908345,1.09308,16.3067,1.14841,1.32127,15.8187,1.02384,1.32603
6.43478,0.15355,-12.7995,8.09002,-4.96948,-12.2727,9.04364,-4.48625,-12.7436,7.66961,-5.3064,-12.8293,10.07,-4.31446
5.02249,0.0158421,-17.4928,12.5729,0.176719,-17.9258,11.9349,0.601882,-18.1985,11.8128,-0.00296194,-18.3894,11.4004,0.538566
7.14819,0.432845,-3.79928,20.4288,5.63576,-5.95839,20.531,5.25194,-5.98126,20.9902,5.22344,-6.51761,20.4055,5.27453
1.7769,0.00802206,6.77552,0.54088,1.55932,5.83193,0.477579,1.30608,4.83232,0.520354,1.40476,4.91136,0.533268,1.44731
3.64606,0.230694,4.60868,19.3338,-0.828628,6.17298,19.8018,-0.708047,6.10342,19.9463,-0.707219,5.86087,19.325,-0.676475
23.3348,0.54327,12.8878,17.1716,-0.557824,12.1944,14.0941,-0.304949,11.4392,15.3589,-0.2856,12.2211,14.7187,-0.25633
21.8488,0.0288974,-4.48711,24.3592,1.23671,-3.7325,25.2618,1.1654,-3.11199,25.7176,2.38461,-3.68609,24.8816,2.88712
11.698,0.0611149,-5.55326,0.451658,0.529275,-4.42455,0.727812,1.61061,-4.24002,0.615309,1.26026,-4.84635,0.764433,1.72002
10.4595,0.425841,-7.54824,6.38991,4.99568,-7.6486,4.47026,5.73283,-5.7531,8.019,5.39484,-7.93258,6.69918,5.33037
7.53962,0.0847762,4.10094,14.9529,5.46981,4.80979,14.2776,5.9693,5.56271,14.6963,5.8241,3.83271,14.4437,5.79893
87.2406,0.268566,9.22322,14.7511,-0.319755,11.3382,16.9575,-0.152998,10.9332,19.2534,-0.0395955,11.8238,18.3972,-0.144465
0.834841,0.00708686,3.69155,24.4881,-1.24355,3.33611,24.6878,-1.21384,4.45248,24.3959,-1.03834,3.49343,24.7803,-1.09324
49.9293,2.35038,13.8052,20.0522,2.26511,14.9196,16.5464,1.79084,14.4841,16.9107,1.16907,14.5163,17.0095,0.202959
9.90853,0.100201,17.5116,11.0545,1.0972,17.1687,12.2068,1.52762,17.7116,10.5935,1.56122,17.1668,12.6536,0.427906
1.3612,0.136026,14.4314,7.13576,4.63241,15.3559,6.55237,4.83661,15.7788,6.4801,4.84168,15.7811,6.38725,4.85386
56.4282,0.0610454,4.3353,16.411,5.29281,6.47148,14.7797,5.8127,7.29213,15.6288,5.55432,7.09445,15.0501,5.72651
1.25094,0.49367,14.2506,16.6927,4.21575,15.0832,16.3652,4.42224,14.9106,16.8568,4.50553,15.1436,16.4068,4.40164
61.286,0.414619,1.87496,16.8907,5.35197,0.66367,14.694,5.98578,-0.37536,14.5709,5.89971,-0.888771,17.0366,5.4724
2.93272,0.115163,5.67419,24.0014,-0.344297,5.5456,24.4168,-0.301852,6.29977,23.9243,-0.052743,5.60803,23.6791,-0.829715
26.62,1.27845,-8.01736,1.45585,-4.02581,-9.93765,0.750665,-3.28875,-9.50725,2.63428,-4.50243,-10.0454,1.6109,-3.39425
7.45786,1.18275,2.04271,10.1591,5.63471,0.210675,9.17094,5.21628,-0.425489,9.11442,5.46196,0.434587,8.95734,5.17343
4.66662,0.98549,-0.677857,24.3736,5.71931,-0.647124,26.1066,5.16502,0.185563,25.6651,5.64459,-0.730642,26.1025,5.17568
31.1008,0.0519789,3.67287,21.5763,-1.19144,1.72832,22.8262,-1.39817,0.454719,20.703,-1.52922,0.213999,21.2099,-1.54478
2.7231,0.0956086,-0.277501,21.4393,5.76269,-0.780844,21.4984,5.84932,-0.697464,20.9871,5.93275,0.197256,21.5868,5.8361
1.06064,0.101178,11.4577,20.6929,2.09852,11.0978,21.0159,2.3039,10.9882,21.1205,2.21657,11.8062,20.6011,2.00224
2.17322,0.0677753,-11.4777,19.1442,-2.3505,-11.9119,18.8159,-2.51396,-10.2895,19.6789,-2.63569,-12.0451,18.7203,-2.74541
3.952,0.012567,3.60252,9.83454,5.47817,5.07341,9.81002,5.43336,5.13929,9.90554,5.43749,3.22048,8.90508,5.41997
3.34816,0.24438,0.832794,19.5562,5.76439,1.4598,19.6485,5.99203,0.68381,18.0128,5.91703,0.751158,17.9238,5.90889
54.5313,0.23575,-8.96319,20.8416,1.0117,-6.55293,22.9589,2.99451,-6.75323,22.8618,3.64828,-7.49652,21.9521,1.80722
2.48988,0.315201,-7.77156,22.5085,-0.542294,-7.20081,23.1618,-0.0863613,-7.27589,22.8902,-1.00513,-7.27316,22.9711,-0.0811545
33.4154,0.0545076,2.01217,11.9708,-1.05423,-0.265955,13.0648,-1.26788,0.852963,13.8758,-0.896205,-1.27098,12.6716,-1.54231
17.4129,1.49597,2.38379,1.16512,-2.46536,-0.0518674,1.13237,-2.62673,0.705583,2.40694,-2.53843,0.273569,1.6719,-2.58455
1.52792,0.0719077,-9.30873,12.8525,-2.59611,-9.65065,13.1141,-2.79601,-9.03849,13.1954,-2.58864,-9.48038,12.428,-2.71975
12.0842,0.0223263,-3.97542,0.239608,-0.990404,-4.23325,0.450831,0.255991,-5.15814,0.44866,0.0412691,-3.95204,0.368948,-0.138464
1.34591,0.0427185,-14.7027,15.4858,2.28106,-14.8074,15.3136,2.63825,-14.6269,15.7379,2.00679,-14.5571,15.6651,2.55127
1.06856,0.320926,-5.7385,16.6096,5.37819,-5.18303,16.5219,5.54237,-5.41534,16.9659,5.58648,-5.11595,16.5751,5.51687
28.1604,1.14171,3.25442,8.76513,-1.17581,4.95106,10.2368,-0.692318,5.51497,10.1906,-0.763583,6.0854,10.0985,-0.821198
1.24906,0.0767526,1.61023,27.2574,5.42702,1.14955,27.6128,5.16898,0.501433,27.9091,4.78471,0.433854,27.8451,4.79425
0.576468,0.185698,5.87305,20.1127,5.24315,6.84256,20.4276,5.32729,6.70583,20.4694,5.26507,6.8414,20.3714,5.38452
2.16235,0.0417162,3.109,0.0764458,-0.940224,3.54663,0.15232,-0.6045,3.93507,0.193812,-0.0996713,2.7344,0.130046,-0.474641
2.03319,0.0705031,-2.5338,6.49785,-2.3431,-2.64426,7.16101,-2.30116,-3.07147,6.45533,-2.73527,-2.32182,6.46139,-2.31907
3.07093,0.138735,-0.617679,26.7394,4.8755,-0.644054,26.1578,5.14234,0.434645,27.0562,5.32455,-0.770423,27.0698,4.90052
9.54197,0.400797,14.4496,1.47218,0.884293,13.0567,1.39305,0.932322,13.0598,1.58867,0.776058,13.4882,0.86619,1.1896
0.637246,0.0412334,2.4613,13.6485,-0.705702,2.86636,13.7699,-0.674755,2.11904,13.5623,-0.807082,2.07075,13.3651,-0.841612
3.6213,1.73814,12.8185,17.4169,4.20638,14.8609,17.7962,4.26227,14.9319,17.6528,4.24348,14.3017,18.5333,4.63621
12.918,0.0830715,11.7739,6.58937,-1.37662,13.0971,7.81057,-1.38559,12.8131,7.86263,-1.50191,11.5077,5.53549,-0.904396
0.10541,0.0234907,11.2053,0.489673,0.525454,11.3442,0.656592,0.396711,11.2694,0.638826,0.393692,11.09,0.43865,0.508935
15.9976,0.689076,-16.6079,9.75652,-4.79066,-15.3867,9.33356,-5.57423,-17.0597,8.16767,-5.00051,-17.1947,10.3945,-5.60662
20.6413,0.0209016,-3.18243,1.42459,3.60752,-4.96033,0.972158,2.43174,-5.94127,0.944211,2.40548,-4.13441,0.833215,1.97113
8.0648,0.543696,8.25686,18.3779,5.24787,8.06179,20.0592,4.95809,8.20924,19.9407,4.85682,8.62291,20.4428,4.68677
24.8583,0.0932423,3.92412,26.9001,5.52917,2.52969,28.2039,5.11191,3.81245,28.2944,4.90695,2.34833,27.3461,5.46597
11.5224,0.67901,-3.58193,1.10316,2.52454,-4.1199,0.417836,0.409568,-3.96564,0.406878,0.08369,-4.67166,0.44002,0.313732
3.67263,0.255014,7.39999,9.83438,4.92217,7.08971,10.0965,5.32526,8.02212,9.76048,4.98983,6.99568,8.95732,5.18657
2.47075,0.0509991,-1.83749,11.7208,-1.65013,-1.55599,11.7248,-1.65908,-2.00834,11.0955,-1.67965,-1.99025,10.7919,-1.7424
17.8075,1.37021,-10.4386,7.05275,4.97076,-10.8866,9.03002,5.15358,-8.2337,7.07381,5.57674,-10.8127,8.98927,5.09941
7.32988,0.128831,-8.69292,4.65794,-4.11441,-9.13344,5.55491,-4.36004,-8.17611,4.15722,-4.09795,-9.74214,5.42836,-4.57086
6.28642,0.731628,5.16595,23.1396,4.44135,6.86629,22.8537,4.32295,7.01415,23.0857,4.50172,5.62725,22.2466,4.34556
2.23855,1.3131,8.34434,13.9382,5.1031,8.37777,12.5417,5.65747,8.30835,12.5382,5.65341,8.09948,12.5696,5.67556
1.73843,0.0720403,-1.65528,23.0674,5.52616,-2.22524,23.0032,5.4724,-0.472581,23.0824,5.44988,-0.465257,23.0274,5.48023
1.37388,0.0538412,-18.4889,12.3201,-2.34545,-18.4643,12.3081,-1.94229,-18.2079,12.8767,-2.6265,-18.2599,12.6004,-2.00893
33.3878,0.24757,1.98965,0.0458059,-1.54056,4.41624,0.0403003,-1.79654,7.98324,0.276385,0.472929,7.79081,0.216891,0.150691
3.7834,0.188465,-11.1241,4.94393,-5.12049,-11.0384,5.76419,-5.06043,-11.6141,5.37131,-5.37865,-10.6994,5.76163,-4.9406
14.27,0.0455696,-14.5046,12.1336,-4.82402,-13.9916,14.3591,-4.36468,-13.2585,12.2006,-4.06245,-15.1007,12.9829,-5.06475
2.88377,0.0341196,0.187252,25.7557,5.62084,1.19612,26.8838,5.44985,1.52738,27.1348,5.44653,1.93512,27.1193,5.55298
7.8939,0.224914,-1.32069,14.2366,5.69103,-0.698403,14.1213,5.70288,-0.70053,15.9373,5.85201,-1.60131,15.2723,6.11283
16.5668,0.261069,6.77701,3.87414,-1.73258,5.54178,1.96125,-2.36381,7.51384,3.97456,-1.45337,7.33064,3.2247,-1.25664
3.46504,0.0996566,16.2658,12.8863,3.85573,16.8022,11.7764,3.49686,16.8443,11.9907,3.22335,16.7919,12.1913,3.22012
2.5984,1.03982,6.23474,8.92345,-0.97733,6.49586,10.1339,-0.708222,6.72621,9.92799,-0.825306,6.36304,10.2129,-0.784955
0.617802,0.0333547,-13.7095,16.4136,1.32263,-14.2189,15.9399,1.09336,-13.9834,16.1241,1.14354,-14.2578,15.9401,1.19736
1.35345,0.478727,9.06497,16.0165,4.85957,8.84305,16.6149,4.50376,8.92437,16.5689,4.48452,9.04991,16.6181,4.47567
2.84414,0.11488,4.35758,0.456541,0.910415,4.06844,0.212234,-0.0022947,3.9469,0.213985,-0.0127365,4.31332,0.35347,0.363123
11.1459,0.134163,-0.452453,11.4832,-1.31892,-1.53613,11.3908,-1.69386,0.345674,11.0743,-1.35652,0.114675,12.4381,-1.1944
24.5934,0.155429,6.62677,23.0719,0.135852,5.78801,25.3265,0.722204,6.18459,25.8499,1.98345,6.39553,25.426,2.0536
34.7195,0.307843,-13.0845,16.6087,-1.40333,-12.4774,18.3873,-2.1186,-14.3374,15.6748,-1.68993,-14.8982,15.5673,-2.72687
4.70372,0.236755,6.81999,8.43813,-0.926065,4.95164,8.1056,-1.02398,6.24362,8.73647,-0.969469,7.46009,8.5596,-1.23714
22.3201,0.154589,4.06253,29.099,4.41862,4.20858,28.0039,5.05151,4.88009,27.6209,5.30673,5.93675,28.4187,5.14219
1.88336,0.0821975,-4.00009,15.0224,-1.44722,-3.83566,14.7911,-1.60976,-4.0057,15.2923,-1.49074,-3.38359,15.5159,-1.61541
3.59436,0.0473027,-15.0736,4.27518,4.66282,-14.7897,4.08482,4.83488,-15.4519,3.48464,4.63327,-14.4183,5.23834,4.88416
8.14666,0.112179,11.6093,10.0774,-0.902465,12.7095,9.51333,-1.16658,10.8941,9.40773,-1.15936,12.3264,8.84037,-1.31486
0.021928,0.0660517,-10.3086,1.01499,2.50869,-10.3113,1.04029,2.59604,-10.3608,1.03366,2.55135,-10.3902,1.05527,2.49988
3.83875,0.072286,1.98024,17.401,-0.808315,0.958997,17.2324,-1.10941,0.948857,17.5088,-1.12883,1.38981,16.9167,-0.927929
4.78992,0.0904499,13.0626,16.8998,4.01236,12.2085,16.9971,4.00902,14.1832,16.5961,4.22027,11.995,17.4065,4.00103
1.65677,0.214052,-13.8312,15.5072,-3.85084,-14.1758,15.1133,-4.36233,-14.0794,15.6457,-3.99706,-13.4229,15.895,-3.87188
9.12547,0.573526,8.59416,9.96456,4.64202,9.55725,11.2524,5.32074,9.62604,11.3028,5.32369,10.0382,8.28213,4.99635
39.6469,3.53899,-0.786561,10.5124,-1.70104,-4.22525,9.05702,-2.25307,-4.20707,8.8445,-2.30999,-4.31172,10.2521,-2.02845
5.15192,0.0325041,-10.7063,1.96754,-3.2233,-10.9103,1.42607,-3.0984,-11.0124,0.466219,-2.88306,-9.34497,1.94954,-3.60337
0.39641,0.0105865,-0.305958,27.2742,-0.653073,0.354443,27.5882,-1.04377,-0.108459,27.4033,-0.694821,0.288515,27.6107,-0.91441
1.07574,0.0979347,2.44751,17.6897,-0.687545,2.67393,17.4988,-0.713183,2.44974,17.9331,-0.83957,1.9757,17.49,-0.820755
8.0438,0.439181,-12.4923,13.2006,4.32988,-13.0086,13.6423,4.59911,-10.8642,13.6986,5.237,-12.7318,12.0193,4.81412
1.66147,0.0500573,1.60671,29.0323,3.13666,1.96186,29.6687,2.53284,2.14129,30.0145,2.92744,2.08735,29.932,3.01194
1.29184,0.0456086,-11.9754,13.9445,5.10187,-12.0753,14.738,4.96904,-12.0071,14.7383,4.98799,-12.1505,14.6912,4.95151
2.68889,0.0919657,3.07153,28.3957,4.76708,2.31676,28.8699,4.59547,2.30011,28.6873,4.7406,3.53734,28.2482,4.94885
2.91224,0.153908,12.8566,12.512,4.43373,13.3672,11.747,4.47598,12.2554,12.8918,4.87779,13.1891,12.5751,4.41269
28.6269,0.100861,-4.93163,24.2345,2.32264,-6.01985,23.5389,1.92924,-4.82327,24.2522,3.8876,-6.50882,22.9963,3.09737
2.81091,0.231148,16.7859,11.5662,-0.306611,17.0537,12.0515,-0.74114,17.1115,12.2383,-0.785183,17.2168,11.6819,-0.0934357
0.855432,0.041134,12.0482,20.2375,4.92684,11.6951,20.4122,4.84588,11.5518,20.6163,4.68277,12.4775,19.9242,4.995
19.3101,0.273891,7.73115,17.3089,5.14672,7.26709,16.3239,5.51155,4.91832,17.4971,5.27616,5.02514,16.6149,5.37916
1.61327,0.076339,-5.96488,3.61621,-3.44421,-6.5234,3.83232,-3.60787,-6.28454,3.02346,-3.50604,-6.17961,3.558,-3.45647
4.83631,0.50704,4.73651,16.6667,-0.548225,3.76927,17.4263,-0.433283,4.04256,16.2396,-0.468331,3.84494,17.5859,-0.547622
1.22748,0.0859208,-7.85382,17.8088,-2.51817,-7.20852,17.4506,-2.34617,-7.42051,17.7366,-2.47793,-7.27636,17.3158,-2.32765
67.7485,0.143655,-6.00016,7.87706,-2.72748,-1.86745,8.11749,-2.19158,-2.29184,8.23626,-2.21637,-4.75221,9.74344,-2.2726
12.1127,0.140264,-10.6682,19.4595,2.53491,-10.0145,19.994,2.45366,-11.8164,18.4015,1.32895,-11.8209,18.0427,2.33997
3.74361,0.132609,7.21809,24.3423,4.93366,6.2563,23.4972,4.84268,5.82696,23.52,4.88501,5.95188,23.7479,4.95839
15.1432,0.181083,-1.3258,18.4866,-1.42686,0.0536873,18.7464,-1.34381,-1.14915,19.4228,-1.65372,0.217292,19.6429,-1.38441
1.00955,0.0372097,2.53205,23.2642,5.38044,1.96227,23.3733,5.44124,2.68593,23.1946,5.30417,1.89642,23.3243,5.43647
4.84148,0.486673,-3.43012,25.022,3.01331,-4.09635,24.7146,4.05857,-3.01212,26.0027,3.83539,-3.15539,25.858,3.77669
11.7659,0.20898,-16.9187,12.2654,-5.87217,-17.5581,11.3328,-5.77996,-16.0962,11.2358,-5.9296,-16.849,10.5752,-5.67503
12.713,0.363425,17.495,9.69495,3.32836,16.5141,12.07,3.88918,16.2123,9.74624,4.22567,16.0042,10.258,4.46079
21.3742,0.659075,2.44387,16.8677,5.01234,1.46019,17.7886,5.78001,2.33427,15.3932,5.76601,4.8515,17.535,5.29279
12.7134,0.323764,-7.65293,0.643725,1.42351,-5.58962,0.634814,1.35665,-5.77519,0.505983,0.748254,-5.68071,0.409907,0.437506
7.52805,0.0791977,14.4153,10.269,-1.20039,14.6883,11.431,-1.13962,13.5534,11.6515,-0.881722,13.8201,11.8469,-0.900694
1.73834,0.140488,6.43515,17.2481,-0.374741,6.59934,16.9285,-0.380259,7.02871,16.9507,-0.482966,6.30167,17.2923,-0.541451
2.03414,0.188144,-8.01282,18.4249,-2.64906,-7.63045,19.3064,-2.76969,-7.6254,19.0496,-2.67263,-7.48955,19.3536,-2.78351
3.04345,0.154136,-1.96046,25.153,5.67744,-1.88574,26.6511,5.09804,-1.95917,26.6221,5.0732,-1.84343,26.2483,5.34082
2.06774,0.286867,-6.80138,6.53483,5.20049,-5.37316,6.79985,5.81785,-5.30032,6.70835,5.84942,-5.89847,6.00095,5.80294
1.12222,0.0611715,5.31881,1.02462,2.8506,4.68121,1.07536,3.00306,4.68549,1.04767,2.91704,4.90632,0.946365,2.67034
1.61546,0.192947,5.17184,27.2052,5.25702,4.79698,27.2528,5.39981,5.71621,27.3027,5.49627,5.83963,27.51,5.42692
2.05069,0.168401,16.5356,4.49429,4.1853,16.9127,4.96666,3.79544,16.6492,4.15422,4.32756,16.647,3.82933,4.3205
3.37752,1.11109,1.41499,10.2926,-1.09238,2.57681,10.4229,-0.919187,2.48653,10.6766,-0.860629,2.4028,11.1727,-0.92124
0.656705,0.082332,-18.5535,6.75708,0.755635,-18.6605,6.37321,0.813457,-18.6051,6.82577,0.897986,-18.6829,6.52399,0.62125
16.8685,0.320556,2.7667,13.0928,-0.712398,6.46314,13.2272,-0.686357,5.87015,13.8344,-0.630017,4.52529,12.6773,-0.538201
18.5553,0.806358,-7.01597,17.7173,-2.42941,-5.84631,19.592,-2.48307,-6.49245,20.0268,-2.70806,-5.4914,19.3046,-2.36745
5.87151,0.202101,4.40705,7.84939,-1.04863,4.77792,8.7707,-1.00899,2.48645,8.85984,-1.2596,2.36385,8.69615,-1.31035
17.8388,0.00282984,16.5332,7.92263,4.17603,16.2769,5.19574,4.84505,17.5216,7.54163,4.1294,17.2517,8.70507,3.89366
59.4272,2.02833,-6.65156,4.68315,-3.59834,-9.57801,7.88129,-3.41974,-8.52672,7.32045,-3.03505,-6.26441,6.8213,-2.93711
13.7492,0.173746,-4.21415,9.54566,5.47165,1.0832,9.82071,5.47215,0.873134,9.89713,5.49789,-5.11702,9.666,5.31748
3.35609,0.190888,5.37422,6.8401,-1.06236,5.90411,7.45533,-1.11427,7.10178,7.5276,-1.33979,5.84812,7.23737,-1.04776
9.03821,0.113139,-3.35162,11.4399,-1.78665,-1.59098,13.313,-1.57254,-1.28918,12.9608,-1.51908,-3.38417,11.9418,-1.7034
3.30469,0.130548,-0.169341,8.61823,-1.95362,-0.955114,8.74583,-1.9089,-0.870773,7.73564,-2.15366,-1.36833,7.84859,-2.20344
62.0891,1.11744,-10.941,19.4036,-0.806109,-7.86671,21.9731,0.775752,-7.4604,23.0184,0.494776,-7.05538,22.911,1.82855
1.6893,0.0563509,-4.16729,25.4272,-1.53318,-4.48889,25.221,-1.66232,-4.90675,25.003,-1.42749,-3.98728,25.7572,-1.1761
35.5538,0.0821541,14.3253,10.0685,4.63867,12.741,13.3684,4.54213,12.5794,11.4214,4.999,13.6607,13.5834,4.20535
3.24249,0.338855,-6.27341,9.35424,4.83137,-5.6076,8.03357,5.38809,-5.68149,7.97952,5.3998,-7.0547,9.28146,5.21163
4.05153,0.468763,14.4545,4.87914,1.42245,14.8278,5.12246,0.741255,14.2641,5.02607,0.81688,14.1886,4.49334,1.10913
43.8331,0.31288,-11.7338,3.93592,-5.27854,-10.0739,2.69539,-4.38132,-10.8242,1.99408,-3.44837,-9.56097,2.87448,-4.6469
5.62659,0.365867,-4.56803,12.8773,5.89563,-4.49723,15.2459,5.35366,-4.21029,14.776,5.49626,-4.40041,14.5441,5.44233
1.07346,0.205951,17.3225,7.76819,3.78218,17.6073,7.51993,4.00185,17.7724,7.53863,3.93697,17.4353,8.16856,3.82891
2.594,0.00280356,0.0292167,8.57141,5.1692,2.3931,8.51121,5.36352,0.590682,8.6014,5.1333,2.19429,8.50071,5.37402
2.27536,0.0606157,6.90206,27.7939,4.42893,6.41928,28.4583,4.68903,6.94736,27.7028,4.23816,6.40865,28.6433,4.49122
1.33842,0.0140843,-14.8947,9.6791,-5.7377,-15.3354,9.7426,-5.64109,-15.6793,9.92892,-5.76274,-15.8447,9.94377,-5.70182
25.0975,0.223124,17.1953,11.8594,-1.25169,15.5687,15.337,-0.883685,16.7674,13.3102,-0.131122,15.5718,15.2557,-0.961609
19.3494,0.137599,-14.0531,9.44159,-5.02641,-14.0165,10.7757,-4.65293,-15.4102,11.9873,-5.53189,-14.8274,9.19842,-5.46168
13.921,0.04428,-11.0653,18.785,4.89401,-11.7325,17.688,5.02808,-12.2257,17.0784,3.86836,-12.3686,16.7239,4.37028
4.00976,0.129959,-15.3936,13.8186,4.0861,-15.5089,14.2924,3.64171,-14.989,12.3837,4.80682,-14.8455,12.5689,4.81616
54.8299,0.245052,-11.6995,17.296,-3.02611,-13.0661,15.7268,-3.86459,-12.6305,13.2299,-4.01216,-10.263,16.5595,-2.93712
2.04382,0.129245,2.08955,26.4071,-0.357024,2.09661,26.1567,-0.59181,1.49219,27.4324,-0.493994,1.34004,27.5395,-0.541767
5.43193,0.304893,-11.8532,10.514,-3.85501,-11.2259,11.766,-3.83845,-10.884,11.6887,-3.66282,-11.023,11.6688,-3.70972
5.53721,0.184358,-11.8692,4.53522,-5.16061,-11.2571,4.87201,-5.17758,-11.9258,5.00156,-5.48354,-12.5008,3.93836,-5.505
8.69239,0.0375063,16.966,2.14629,1.26281,16.7846,3.50136,2.92756,17.1478,3.34337,1.63452,16.7376,2.83958,2.61992
2.70709,0.0487339,3.19996,11.9166,-0.90516,2.67555,12.3785,-0.866891,2.54641,12.2582,-0.940793,3.01897,12.426,-0.752188
2.64954,0.404358,11.5265,9.90654,4.96328,9.42022,9.91688,4.94153,9.7674,9.82748,5.02921,9.83061,9.92499,5.02564
0.992382,0.118093,17.1756,3.49175,0.382898,16.0175,3.0628,0.307086,16.1414,3.20147,0.285121,16.018,3.01786,0.315442
4.7773,0.134226,-13.9166,16.1444,-0.724225,-14.8372,15.3161,-1.22034,-14.6574,15.4969,-0.664294,-14.9153,15.2937,-0.953227
110.876,0.173157,2.43594,0.947715,2.5729,3.14455,0.131447,-0.414015,1.93758,0.331471,0.568389,6.15852,0.651773,1.8445
20.3158,0.00812054,0.23762,27.0581,1.35933,1.37619,28.5631,1.21661,1.26735,28.4107,0.688315,0.41142,27.3145,2.1837
5.63882,0.0177371,-6.01353,9.54888,4.83185,-5.62974,9.99911,5.06218,-4.14824,11.2134,5.76427,-4.23068,11.3911,5.77863
3.51345,0.0573064,18.1214,9.68938,1.54911,17.791,10.4701,1.40086,18.1191,10.1158,1.0602,18.3814,9.63505,0.954161
0.497273,0.00527685,1.0872,12.7712,6.11181,1.79152,12.5754,6.07906,1.79361,12.5283,6.07946,1.37177,12.6002,6.09638
14.7081,0.321395,8.33081,15.064,4.52632,8.9931,15.9241,4.86111,8.34444,14.0352,5.07122,10.3879,15.4717,5.30376
2.50442,0.090012,-12.3754,18.4888,-1.70679,-11.7613,19.0554,-1.51396,-11.28,19.3542,-1.8665,-11.0899,19.4941,-1.81776
0.553683,0.0912908,2.89555,5.90487,5.90126,2.8252,6.13703,5.84373,2.60005,6.21851,5.83391,2.66694,6.21785,5.81664
18.9427,0.0740122,2.69902,25.9304,5.49735,6.67256,26.0645,5.52835,2.53061,26.4167,5.59918,7.03162,24.8259,5.45865
4.30234,0.164043,13.5649,15.4681,4.55477,15.2981,15.6889,4.43367,15.1988,15.7029,4.49593,12.3831,15.0664,4.77333
7.57025,0.187461,13.4133,15.6503,-0.803669,13.7059,16.7171,-0.916452,14.6501,15.9779,-1.00645,14.7628,15.334,-1.06147
10.9671,0.205708,4.56492,0.256104,0.294992,5.747,0.120831,-0.360058,6.05073,0.223569,0.300695,6.00105,0.383225,0.952718
35.4155,0.651821,-14.1272,16.2248,1.8006,-15.6764,14.3068,0.0706464,-16.3026,13.783,0.441385,-16.3234,13.8009,0.00949674
1.59491,0.438032,-6.77049,16.519,5.00803,-5.87484,16.5089,5.37451,-5.8155,16.6582,5.35024,-5.87823,16.5623,5.33514
3.10415,0.19033,0.0847043,24.7926,-1.48194,0.669555,24.097,-1.34305,0.729894,24.211,-1.29609,0.299478,24.3676,-1.3514
1.98218,0.210509,8.41348,8.80191,5.07321,8.22176,7.7863,5.47375,8.14391,7.77937,5.48858,9.2496,8.73731,5.15054
0.817645,0.140558,-2.57193,25.1958,-1.92823,-2.33979,25.0611,-2.07927,-2.63112,25.03,-2.03683,-2.426,25.378,-2.12062
0.247336,0.00457481,2.32419,4.26703,5.9783,2.10348,4.48743,5.95219,2.04154,4.44188,5.9523,2.32068,4.35809,5.97529
23.5846,0.64302,-7.8042,6.98547,5.30868,-7.55666,9.4253,5.31473,-8.71578,8.70705,5.16545,-6.54805,8.93889,5.1322
7.06163,0.470248,18.1789,7.3438,0.672574,16.9428,7.02528,0.230314,18.6397,8.35561,1.13528,18.6433,8.27981,0.919802
5.73356,0.0158555,2.18657,29.3568,3.92887,2.94569,29.969,4.4443,2.59362,30.1015,3.95249,2.71615,29.0529,4.70286
1.05163,0.118019,-18.7813,8.26252,-1.11953,-18.7647,9.13991,-0.782388,-18.766,9.0819,-1.00855,-18.7612,9.07432,-0.91382
14.9024,0.487836,3.42691,23.1995,4.49262,2.42784,23.9247,5.58606,4.31807,21.6199,4.51068,4.40554,22.9128,4.52714
100.616,0.157603,0.39276,10.1001,-1.29426,0.678677,7.05546,-1.92482,3.33462,9.75351,-1.03603,-1.95657,8.31067,-2.1413
8.46877,0.392828,-14.0295,8.1312,4.22714,-12.7298,8.21739,5.13417,-14.686,8.66984,4.48193,-14.4018,7.17924,4.38436
42.5586,1.49831,7.66332,23.2631,2.76901,6.68688,25.7767,3.58318,7.0485,27.2418,3.9783,6.36112,26.2354,2.75291
45.3031,0.336032,-13.889,1.80602,3.70739,-13.7246,0.758172,0.215517,-14.3782,0.716989,0.462466,-14.1894,0.686019,0.184559
6.04759,0.457025,-1.29386,8.47447,5.12763,-1.76993,7.63721,5.84189,-0.0317975,8.56644,5.16718,-1.63551,9.40658,5.66043
7.88897,0.0641255,16.4402,13.9172,0.0829037,16.1529,14.6346,0.400211,15.5052,15.704,0.174313,16.0528,14.5717,-0.479037
16.3094,0.663169,8.84699,16.8197,4.38619,10.4715,17.4707,4.79668,11.3264,17.4808,4.6399,8.11796,18.2756,5.272
28.1618,0.263082,-6.56574,10.9371,-2.33688,-9.8196,10.7204,-3.35474,-9.60414,12.1724,-2.78125,-10.1382,11.2897,-3.28345
11.5791,0.722067,-4.04801,16.6127,4.81787,-4.35462,15.4032,5.24543,-4.14328,14.8748,5.4841,-5.21791,17.0657,5.59914
13.4209,1.42536,-8.64494,21.8558,-1.16921,-6.72793,23.1695,-1.42979,-5.76123,24.1755,-0.335186,-6.94153,22.8932,-1.64908
5.30149,0.0800593,5.80265,27.169,2.28712,4.12745,27.7064,1.6584,4.36764,27.8761,1.87906,5.52366,26.9822,1.93569
0.811001,0.230617,12.0274,19.2569,0.301446,11.3375,19.1858,-0.0075571,11.7076,18.9596,-0.00809297,11.4942,19.1361,0.0679874
5.52295,0.239749,-1.99792,16.8501,-1.40886,-3.00623,16.148,-1.61642,-2.63044,17.147,-1.63577,-2.98638,15.8125,-1.61358
10.5667,0.448871,4.9599,22.9064,4.37899,4.63104,22.3684,4.49145,4.18064,24.1336,5.32488,4.12961,24.858,5.71789
3.05175,0.00694904,6.96147,9.9107,5.30329,5.20433,9.75838,5.48571,6.25437,9.95952,5.36522,5.20128,9.99726,5.45195
17.9695,0.188829,-14.7347,15.2377,3.18286,-15.9566,14.1642,1.55757,-16.1211,13.8264,2.89822,-16.1932,13.9067,1.91824
1.83143,0.0452795,-14.5103,7.56619,-5.58982,-14.1553,6.64037,-5.89186,-14.1556,6.69926,-5.86201,-14.4985,6.75357,-5.94644
0.460863,0.279834,-5.53903,9.26255,-2.53218,-5.61838,9.56979,-2.40992,-5.55553,9.65639,-2.46753,-5.69737,9.50431,-2.50099
1.97088,0.118124,10.4593,21.0762,4.01923,11.5646,21.0259,4.3229,10.6523,21.3513,4.03696,9.89355,20.8859,4.17667
4.87253,0.111605,-17.2697,11.5216,2.83744,-17.2294,10.748,3.73477,-17.0702,11.1556,3.68692,-17.5717,10.6399,3.24581
13.0865,0.488551,-10.2481,8.28253,-3.253,-10.1488,6.60765,-4.68019,-10.5548,9.25027,-3.48217,-10.1485,6.66108,-4.66935
11.0405,0.138597,12.7058,8.58117,-1.44363,11.1068,7.32582,-1.71275,10.4943,8.15052,-1.39658,11.0549,8.05989,-1.44392
6.85515,0.113436,6.83334,14.074,-0.571195,6.26596,15.2722,-0.459038,6.06532,15.0692,-0.471861,5.9698,14.5259,-0.544389
7.6384,0.781989,1.14684,6.89982,4.96386,2.68916,8.34851,5.30226,0.191954,7.21989,5.81742,1.99816,5.63485,5.90904
9.21086,0.503864,11.1949,15.2061,4.762,11.9368,16.4796,4.46477,11.2903,16.5084,4.68115,10.7718,16.8192,4.9683
5.61717,0.149138,-16.8921,12.7645,1.55703,-17.1177,12.9132,1.02942,-17.7392,12.1158,0.766438,-16.7175,13.3239,1.46143
19.2636,0.24995,12.6382,13.7933,-0.417129,13.9572,14.5962,-0.734461,15.1321,13.9491,-1.31792,14.7168,15.0895,-1.07543
0.0757005,0.000249651,-0.333639,1.35058,3.19034,-0.332159,1.35607,3.28743,-0.426347,1.38636,3.19982,-0.398372,1.38085,3.27933
77.8405,0.0127555,-1.25983,0.260827,-0.587385,-2.87164,0.1517,-0.848738,-3.23474,0.5529,0.868895,-3.60837,0.384105,0.22633
19.2834,0.179465,15.4646,8.84509,-1.17989,16.9249,8.33741,-0.650391,16.4511,7.61567,-0.314334,16.5278,7.22515,-0.0371359
46.2023,0.692674,-1.75151,1.46355,-2.5741,-4.03543,3.24232,-3.00222,-3.73715,4.14924,-2.98906,-5.01223,2.5059,-3.32288
0.650555,0.110876,-1.70079,26.3307,3.55925,-2.22632,26.2658,3.63106,-1.90834,26.3966,3.79484,-1.71483,26.4298,3.41139
0.609668,0.393005,-8.47354,18.4859,5.61855,-8.12572,18.7812,5.34347,-8.05193,19.0064,5.381,-8.12251,18.8529,5.32956
0.668554,0.131879,-7.40636,0.8533,2.14202,-7.04258,0.893253,2.13514,-6.97603,0.807719,1.97746,-6.92121,0.883842,2.19625
0.697541,0.0178905,-6.44804,16.2341,-2.2054,-6.65883,16.0286,-2.24123,-6.50539,15.7353,-2.13527,-6.43764,15.7887,-2.12716
3.22176,0.136655,-7.11529,21.2001,-2.67725,-6.896,22.2608,-2.66051,-7.94186,21.7401,-2.72199,-7.02133,22.3436,-2.6462
1.37952,0.111657,16.599,13.4231,0.347965,16.5702,13.6773,0.337002,16.6446,13.6172,0.766502,16.891,13.1442,0.160794
0.921849,0.0255091,8.68746,20.8657,-0.286414,8.43374,20.6226,-0.447336,8.30404,21.459,-0.157264,8.2151,21.4808,-0.180687
25.699,0.133269,-3.43588,25.439,0.791859,-5.18229,24.5851,0.119221,-0.734079,26.4567,1.21453,-3.78556,25.0546,1.49412
9.59101,0.609938,5.09259,18.0722,5.47122,5.32342,20.507,4.83861,6.23556,19.1433,5.78073,4.97689,20.0067,5.06006
6.08831,0.164993,-16.3746,13.6426,0.166099,-17.41,12.5687,0.789701,-17.0843,13.2324,-0.236921,-16.9855,13.0866,0.617629
1.18823,0.108731,-4.73172,4.30672,-2.97716,-4.4102,3.84819,-3.15544,-4.71272,4.42671,-3.04874,-4.88671,4.24258,-3.17377
18.4292,0.0179333,-4.22848,20.1689,-2.16449,-7.93171,20.8855,-2.86591,-5.64876,19.7409,-2.48254,-8.54472,20.7227,-3.00924
9.14956,0.107756,-6.57697,23.2928,1.44664,-5.01996,24.2299,1.03018,-5.68703,23.8571,1.46588,-6.77197,23.3792,0.743198
0.111987,0.00104943,-3.89675,19.7801,-2.01817,-3.98315,19.8381,-2.05597,-3.91433,19.8916,-2.0501,-3.99509,19.9126,-2.07662
5.13803,0.00823106,15.6254,13.92,4.40028,15.4956,15.4894,4.1342,15.2987,16.5932,4.13531,15.5743,15.3882,4.03246
2.37139,0.235344,-8.21028,15.867,4.97401,-8.42643,15.3658,5.18578,-7.67311,16.055,5.12386,-8.81186,16.2006,5.41717
0.516085,0.0713375,-14.2345,0.591564,-0.275426,-14.076,0.588377,-0.472034,-14.2096,0.532285,-0.763701,-14.1382,0.512234,-0.795775
13.5489,0.450286,-14.5288,1.91902,-1.89505,-13.6768,1.24576,-3.07007,-15.5273,0.995214,-1.88276,-14.2863,2.40751,-2.54105
3.41917,0.0145048,5.11542,28.7111,3.18133,4.4226,28.998,2.96324,4.88548,28.9182,3.30526,5.57259,28.1086,2.72682
33.0131,0.194889,6.9495,8.40072,5.2222,8.52505,6.95813,5.59822,6.75566,7.18557,5.72756,8.74299,9.14081,5.06523
14.3083,0.731984,-9.30298,16.5089,-2.73907,-8.89083,18.0237,-2.78928,-8.66056,17.1313,-2.30514,-8.17398,17.2568,-2.41965
1.07096,0.146896,6.57424,8.89815,5.15771,6.7335,8.72045,5.16309,6.99052,9.13915,5.21239,6.13536,8.83331,5.5699
10.4537,0.0872011,9.99428,8.19702,-1.33252,10.331,6.55806,-1.83498,10.5119,7.01009,-1.73152,9.98232,6.58611,-1.81496
14.4406,0.486083,1.8905,13.9244,5.97607,-0.631775,14.1262,5.70533,2.47325,15.0179,5.87056,-1.65914,13.4505,5.97647
2.97793,0.0656286,2.09806,8.2989,-1.34634,1.53823,8.70027,-1.55066,2.36126,7.62241,-1.44054,2.22955,8.54717,-1.32532
5.19046,0.338016,13.5764,7.76389,4.47609,13.8962,8.4773,4.74868,12.7428,6.97246,5.03238,14.3756,7.18032,4.61574
0,0.0511155,6.19712,0.444147,1.18589,6.19689,0.455756,1.09036,6.13483,0.445283,1.12476,6.13034,0.422789,1.08643
3.50459,0.0674037,9.05875,16.5792,-0.203274,8.14347,16.7741,-0.408301,8.85017,16.3404,-0.331887,7.67369,16.4379,-0.522669
29.5852,0.688022,-10.9485,19.262,3.50944,-10.4473,19.6665,5.2366,-9.62869,20.423,5.19443,-9.55368,20.9107,4.50649
8.76019,0.000259913,-2.16332,20.1402,-1.68514,-1.60816,21.5209,-1.74045,-0.875927,20.9924,-1.68132,-2.34854,20.8803,-1.73401
0.196952,0.0226205,-17.5889,12.5096,-6.03925,-17.4803,12.7035,-6.02352,-17.4512,12.6162,-6.02396,-17.4402,12.6987,-6.01509
0.497247,0.0808444,6.54869,1.02618,2.69015,6.78634,1.07119,2.98232,6.61882,0.896377,2.50635,6.54512,0.870868,2.46482
1.48127,0.628168,-11.7508,17.9511,4.14652,-11.0134,18.7823,4.39826,-10.9546,19.0157,4.31065,-11.0587,18.7679,4.59295
11.8921,0.448638,6.75667,0.841279,-1.12706,7.01935,2.2042,-0.991758,4.60984,0.521614,-2.18896,7.35162,2.03938,-0.611645
44.3992,0.776505,14.6062,5.38199,0.67871,16.6887,5.6414,0.685155,14.8078,7.68724,-0.860717,16.7915,6.86086,0.342105
8.89567,0.224829,-1.84289,0.46732,-2.40837,-0.189696,1.26111,-2.65146,-2.53999,1.12937,-2.83403,-0.18651,1.21657,-2.6422
8.75195,0.24951,-13.2097,12.3905,-4.06659,-13.5207,14.3424,-4.15028,-13.2451,14.0807,-3.94259,-13.6115,13.4933,-4.13398
9.62538,0.427171,-17.677,11.3318,2.09313,-16.8667,12.2601,2.06187,-16.5903,12.741,2.83926,-16.2648,13.8384,2.06007
8.11056,0.26369,11.8549,17.2631,3.99028,11.4167,16.7962,4.62107,12.1489,17.0427,3.99309,12.0637,19.3467,5.04256
42.8213,0.0900276,1.65416,5.53184,-1.74842,5.75891,6.3901,-1.2,4.34554,5.87047,-1.52519,4.60246,6.86496,-1.05552
0.456343,0.0801874,-1.78329,26.9487,-1.64605,-1.87186,26.9902,-1.17396,-1.92815,26.9525,-1.26174,-1.80089,27.0368,-1.1923
19.7691,0.134631,-6.94556,10.583,-2.54019,-6.6231,8.03414,-2.92032,-4.88604,10.6804,-2.11267,-7.29023,8.83701,-2.9974
7.23627,0.548826,2.327,25.9103,-0.563164,2.01206,26.08,-1.18652,3.60593,24.924,-0.919671,4.90276,24.72,-0.637408
5.77716,0.32738,2.74219,8.63029,5.26021,4.76246,8.48833,5.60407,3.1394,8.99768,5.41384,3.98887,8.59923,5.58449
24.4212,1.25783,2.46328,26.1559,-0.22797,5.34904,24.7034,-0.152081,4.05713,26.246,0.761419,4.81196,25.3424,0.130139
20.291,0.0112496,1.33631,0.484748,0.78055,0.970739,1.01342,2.52476,2.34212,0.192038,0.0880824,0.142161,0.212744,-0.767413
69.6278,0.464913,11.5586,21.4719,3.5641,8.49547,21.8522,0.416576,7.89351,22.4267,1.26932,8.1885,22.0324,0.427875
10.4214,0.713457,-0.720625,3.20658,-2.69105,1.56602,3.53614,-2.63359,0.426163,2.40986,-2.4905,0.894942,3.03773,-2.65862
1.01938,0.0724358,8.10472,18.4776,-0.253147,7.97098,18.5446,-0.334067,8.35013,18.1478,-0.281274,8.41061,18.4661,-0.330171
72.5697,0.0161631,-3.32188,0.61474,1.09277,2.19348,1.23936,3.28778,-1.58909,1.16974,2.87124,1.17394,1.06695,2.72394
13.3221,0.143351,5.7532,10.948,-0.764637,7.91831,10.7347,-0.613657,6.49463,11.3348,-0.671538,7.69228,11.0799,-0.546045
0.556882,0.105644,-18.6313,8.19611,-2.30991,-18.6575,7.84848,-2.25974,-18.5968,7.97106,-2.30552,-18.5958,7.78967,-2.49966
10.1114,0.276947,-5.42647,21.5976,4.95331,-3.83596,21.5261,5.2876,-5.68761,22.6611,5.19618,-5.84201,21.0773,5.22836
27.2937,0.442263,-7.27382,4.82271,-3.68907,-8.54806,2.81444,-4.48071,-7.77168,2.60586,-3.80864,-7.82625,1.61777,-3.97768
35.8127,0.0173957,15.693,11.4696,-1.45447,16.0199,13.0928,-1.45028,13.5512,12.972,-0.75099,13.5054,12.2032,-0.775543
2.01773,0.103761,-4.54784,5.32737,5.77969,-3.7701,4.97778,5.91465,-4.9056,5.52861,5.87548,-4.04282,4.78778,5.86757
0.245699,0.00232026,-3.09297,12.5666,5.93015,-3.08411,12.4793,5.92938,-2.96102,12.6174,5.93781,-2.80668,12.4884,5.95133
3.54441,0.152189,-7.129,21.8987,4.58617,-7.5349,21.729,4.14016,-6.95442,21.3155,4.88339,-7.83669,21.6114,3.58889
8.34661,0.144552,-16.8502,7.21447,3.98861,-16.9746,8.64454,3.8794,-17.4289,8.37535,3.49125,-15.6305,6.09007,4.6232
0.843237,0.286147,2.26645,9.94723,5.60356,3.37963,10.046,5.53812,3.38231,10.0035,5.5255,3.24291,9.94751,5.56114
6.44067,0.177989,1.65176,24.0005,-1.28775,3.10249,24.4591,-1.34862,3.07268,23.8236,-1.39762,2.88458,24.8367,-1.33312
14.2051,1.42871,-15.6944,5.21513,-4.79037,-14.5874,2.80547,-2.59752,-13.9705,2.50247,-3.08327,-14.6572,2.40677,-2.3327
0.274447,0.0406803,0.020084,14.1038,-1.15417,-0.26166,14.1174,-1.24057,-0.191002,14.1286,-1.20503,-0.192128,13.9769,-1.23094
97.0338,0.909717,15.6501,10.0212,-1.53224,11.2628,10.9529,-0.5675,10.121,11.3574,-0.526892,11.1179,12.0025,-0.373915
5.78788,0.32193,-12.5513,1.31396,-3.8143,-13.9601,2.30883,-2.94706,-13.6104,1.2318,-3.13347,-13.5424,1.61743,-3.2753
1.34593,0.149173,10.1792,13.7953,5.03598,10.4585,13.7931,5.15393,9.90836,13.4842,5.24494,9.74963,13.702,5.24532
4.43366,0.104384,-9.31014,20.7884,-0.450523,-9.86916,20.2039,-1.0093,-10.407,19.7825,-1.88958,-10.3944,19.7752,-1.29488
20.0546,0.317172,7.84374,4.74807,-1.75169,10.7172,3.53657,-0.0485262,10.6515,3.48399,-0.059165,8.87248,5.07294,-1.7424
2.95292,0.367888,-1.62348,26.6821,4.67933,-2.44531,26.2767,4.58188,-2.50518,26.3726,5.01188,-2.56409,26.2188,4.32736
4.25887,0.0456893,0.343185,0.295249,0.165946,0.829563,0.599875,1.40456,0.608875,0.663916,1.47288,0.0961105,0.427836,0.551397
5.99767,0.0426509,-16.6083,14.1852,-1.49641,-17.4184,12.9946,-0.871187,-16.9863,13.6782,-1.52472,-17.6195,12.8224,-1.1213
1.11965,0.101487,4.83144,8.54334,5.60561,6.01945,8.54178,5.64193,6.09155,8.50254,5.63678,5.52409,8.60941,5.67121
1.95097,0.055303,-8.54391,1.39608,3.35669,-8.80399,1.69858,3.94324,-8.64971,1.64712,3.75799,-8.87258,1.18133,3.03938
0.748983,0.177375,-6.12948,23.5927,-1.07389,-6.18041,23.7527,-1.37075,-6.42006,23.4898,-1.21369,-6.16491,23.8322,-1.07695
0.875628,0.067395,12.7962,18.3637,0.0119566,12.9812,18.5478,0.0842324,12.575,18.4508,-0.0537326,12.9633,18.0565,-0.237491
14.7072,1.22698,16.6382,10.8402,-1.61025,17.2451,8.91139,-0.821742,15.9273,9.31018,-1.26571,16.4793,9.25336,-1.02051
9.43342,0.14031,-11.4489,9.38638,5.02042,-14.7118,9.30763,4.50467,-10.2585,9.3971,4.97941,-14.5652,9.21076,4.59738
19.1927,0.192495,10.5745,10.9738,4.89454,9.9643,11.7005,5.16872,10.1116,13.3557,5.22414,11.8868,11.2082,4.98753
8.19738,0.631729,-11.6118,10.0116,-3.81738,-10.3328,8.60817,-3.25764,-10.9328,8.97847,-3.71446,-12.2838,9.21219,-4.39041
1.77054,0.343471,2.43361,28.4852,1.28547,2.68855,28.75,1.77129,2.89062,28.1716,1.19825,2.69895,28.1614,1.34586
98.4694,0.754551,-0.516917,26.5348,2.21295,-0.791566,26.9749,3.85717,-3.14649,25.632,2.07847,1.8069,29.1525,2.00951
4.60528,0.276856,3.64986,16.505,5.03257,3.05687,16.6689,5.31353,3.57507,15.5065,5.6272,4.28644,15.4993,5.58077
13.3869,0.0534164,-14.8062,8.77551,-5.45795,-14.3453,8.9721,-5.31414,-13.6046,7.46421,-5.57348,-14.7147,7.54202,-5.66595
1.89953,0.0111819,-12.8639,16.6753,-3.70292,-12.917,16.4702,-3.74035,-12.0714,17.0463,-3.34045,-12.1568,17.3619,-3.3809
4.57316,0.108441,4.29353,14.0575,-0.340633,4.39048,13.712,-0.399164,3.21542,13.6624,-0.595293,4.55191,14.7373,-0.476707
4.73908,0.319365,9.90494,20.2761,-0.0429947,11.372,19.4347,0.142015,10.9882,19.8764,0.547512,10.7016,19.8289,0.33083
17.6938,0.139683,-17.4248,13.5136,-4.59017,-16.8371,14.1309,-2.55584,-17.5428,13.5555,-2.63448,-17.8268,13.1557,-3.70724
4.31179,0.0779744,0.497213,27.961,3.48612,1.41795,28.7542,4.51403,0.908659,28.3497,3.83262,1.22456,28.6842,4.82812
38.0707,0.439823,-13.6346,11.4217,-4.09956,-13.5865,10.2346,-4.60721,-11.5443,13.3925,-3.73527,-11.349,10.3036,-3.81706
3.16212,0.324682,13.905,5.46768,0.76104,13.6411,5.30628,0.366913,14.4241,5.31523,0.639067,13.9994,5.93191,0.0441615
13.791,0.0882811,-13.4642,0.829701,1.30703,-12.1444,1.65933,3.8472,-12.4788,1.07081,2.34801,-12.3282,1.67205,3.8357
2.46821,0.824094,15.7348,13.2689,4.309,14.5062,13.3897,4.22833,14.4319,13.14,4.33619,14.3538,13.6008,4.31674
70.9167,1.66657,15.1261,7.23855,4.80837,13.8344,9.95679,4.64303,15.9728,9.47818,4.40299,14.645,9.47528,4.33683
14.8449,0.33217,-15.5347,9.03587,4.19323,-16.5202,9.29608,3.97514,-16.9426,7.86708,3.87026,-16.1678,7.28926,4.38309
2.2121,0.0765337,-11.2409,15.3465,-2.92008,-11.5921,15.4026,-3.17642,-11.0941,15.3454,-2.93491,-11.24,14.6158,-3.32382
109.288,0.0428034,17.3472,3.49271,1.18462,16.7183,4.0582,3.45095,18.3496,7.17698,2.78666,16.9951,5.51727,4.4667
4.42635,0.106895,-18.6777,9.75651,-2.22567,-18.5097,8.19645,-2.95132,-18.6836,11.5977,-1.22528,-18.5926,8.55838,-2.64543
7.22124,0.0303001,0.611527,18.8334,-1.27923,-0.399457,18.1074,-1.37251,0.178102,17.5478,-1.23325,0.597108,17.6327,-1.16666
14.2139,0.104789,7.13799,20.1152,-0.575169,6.88128,21.2442,-0.728829,6.67212,21.1816,-0.760359,8.00406,20.7648,-0.553523
57.299,0.509739,7.20245,4.80421,-1.65478,4.93602,6.16775,-1.22073,8.43281,5.57192,-1.91525,3.57747,4.91353,-1.82996
0.504369,0.0915723,13.5597,9.10114,-1.19989,13.4094,9.32233,-1.25392,13.4065,9.08088,-1.27369,13.8632,8.98016,-1.34354
15.8317,0.175982,14.8886,17.0207,2.76424,15.4521,15.7323,2.58437,16.0166,14.8613,1.96307,15.4023,15.9449,1.76654
4.34827,0.100757,10.0264,19.6198,5.08245,8.78128,19.4974,4.94565,12.1231,19.7643,5.04914,8.56903,19.6808,4.89481
8.31862,0.129142,0.866831,14.7551,-0.803168,-0.469869,14.2857,-1.27688,1.4627,15.3869,-0.816157,0.641588,13.9051,-0.940188
0.532915,0.318809,12.587,11.1398,5.0541,11.9524,11.2565,5.00118,11.889,11.1598,4.99331,11.8931,11.1124,5.01202
74.3829,0.037656,3.47516,15.1043,-0.389773,0.394704,16.0645,-1.13417,2.61659,17.0778,-0.683675,1.57239,14.4589,-0.751729
2.0268,0.0909332,-0.138762,21.1621,-1.514,0.0965322,20.8299,-1.53975,-0.0154176,21.7475,-1.64169,-0.319141,20.8427,-1.60435
2.16983,0.0612441,-5.32999,14.4484,5.89856,-4.97017,14.3362,5.85197,-6.7152,14.3837,5.59253,-6.64491,14.4309,5.61963
3.19377,0.0257564,14.9086,15.0034,4.70298,13.78,13.7634,4.30401,13.9339,13.6353,4.27092,14.6621,14.5526,4.54413
2.272,0.108304,11.2994,3.8795,0.27255,10.2871,3.96301,-0.314107,11.7148,3.95035,0.301262,10.1576,3.77515,-0.302877
8.91151,0.0623957,-1.86135,2.547,-2.72612,-2.84389,2.6343,-2.79485,-1.12694,3.21202,-2.78412,-2.55261,3.82136,-2.79355
0.683185,0.020611,10.1995,0.715788,0.373651,9.92334,0.543519,0.469067,10.176,1.17918,0.353264,10.2508,1.13183,0.342551
35.332,0.607113,-10.2927,15.8413,4.46639,-12.0706,16.3513,4.55959,-10.7508,12.5246,5.51787,-8.34577,16.9999,5.41688
10.8294,0.183397,4.55252,12.2702,-0.648588,3.71902,11.2788,-0.86931,5.52583,11.3681,-0.778969,4.85158,10.8686,-0.810433
270.959,0.253953,0.0111917,16.8395,-1.19985,-7.29077,13.8172,-2.28076,-5.03562,12.9284,-1.84837,-6.67039,12.5478,-2.15126
2.32394,0.407073,-8.76201,21.1271,4.48314,-8.12063,20.2597,5.19993,-8.30707,19.8809,5.183,-8.4432,20.0286,5.12557
4.37873,0.364175,-3.69684,21.5908,5.28761,-0.860737,21.6714,5.88404,-1.8223,21.5097,5.76312,-0.784389,21.6343,5.87469
8.35438,0.208657,16.9984,6.53356,0.799096,17.2943,5.88262,0.804097,16.1189,5.96587,0.565807,17.5653,6.25694,0.756587
1.56691,0.121931,-6.04405,23.4192,3.75873,-6.33155,23.1276,3.18982,-6.67068,22.9245,3.50014,-6.59162,22.9713,3.4485
14.7316,0.21953,-9.80061,20.2985,1.18359,-10.8302,19.3431,1.06908,-8.97283,20.5425,2.4841,-11.4306,18.9302,1.26885
28.7822,0.0629078,8.69374,12.5437,-0.00938895,9.88184,14.0672,-0.120234,10.8968,12.2536,-0.296978,10.8108,13.787,-0.221725
4.06012,0.449764,14.4175,16.9449,0.00974487,13.9283,16.9551,-0.748392,14.2003,16.5358,-0.891575,14.293,16.5781,-0.826889
1.18382,0.0441846,7.10859,15.2169,-0.419932,6.82974,15.2385,-0.474958,7.34193,14.9814,-0.440395,7.44505,15.6385,-0.48195
35.1587,0.425651,11.5935,20.449,1.72527,12.8692,19.83,1.22918,10.4197,20.8104,0.722509,13.0484,18.6172,0.134074
0.671197,0.0548581,-11.7873,5.76978,-5.28511,-12.1356,5.95346,-5.42557,-11.7332,6.05749,-5.26779,-11.6276,5.51814,-5.34042
0.754834,0.140161,-5.43817,2.44157,-3.16728,-5.21517,2.54783,-3.32201,-5.35964,2.32637,-3.26579,-5.70774,2.51389,-3.38061
1.99545,0.200612,-9.994,5.90221,-4.35229,-9.92699,6.28528,-4.51818,-10.2008,5.95131,-4.66503,-9.95391,5.51939,-4.57942
19.1889,0.0254188,-9.22025,19.3458,-3.10163,-10.8142,17.8643,-3.12416,-12.0572,17.9871,-3.37211,-11.9781,17.6749,-3.30631
67.7588,0.485812,4.94352,19.6329,-0.824689,5.4983,22.5242,-0.912156,2.5813,21.1318,-1.26993,4.33459,22.1445,-1.09979
4.44809,0.525763,-15.1617,15.1254,-4.45521,-15.8482,14.7843,-3.65699,-15.5236,14.9562,-3.40606,-15.545,15.1151,-3.05064
5.54636,0.0817999,-14.832,6.80563,4.33654,-15.1129,5.5103,4.66581,-15.2674,5.65292,4.60367,-14.4058,7.08419,4.43906
13.5582,0.456953,-14.7593,15.3295,-3.89149,-13.3605,16.8292,-2.33418,-13.7805,16.4098,-2.57973,-13.21,17.668,-2.73158
0.791164,0.241193,3.33688,20.1934,5.58273,3.3584,19.6663,5.75203,3.20672,19.7061,5.74792,3.28921,19.7141,5.72111
2.49206,0.104978,11.7895,0.771367,0.543927,11.511,1.01614,0.447564,12.6599,0.956402,0.93817,12.7202,1.21734,0.849934
2.22398,0.327723,6.96993,22.7812,1.55952,7.03511,23.1533,1.88415,6.81146,23.6103,1.31729,7.59482,22.5689,1.34235
2.1082,0.151266,6.10992,25.9771,2.36456,6.24494,25.7251,2.08105,6.03973,26.8469,2.47303,6.44887,25.8561,2.66446
30.3102,0.141139,8.3869,22.2055,3.64181,4.66404,21.6369,4.47032,3.48137,20.8119,5.08196,5.46644,20.4664,4.8562
7.86044,0.443457,-15.5557,14.5632,-0.312797,-13.6421,16.3275,0.004698,-13.3819,16.5061,-0.0453814,-13.6783,16.2339,0.569958
10.7291,0.22935,-8.01496,14.4255,5.22349,-8.70162,13.3255,5.68421,-6.70186,14.2837,5.61302,-8.19274,15.2354,5.23694
5.40267,0.466854,-10.7947,18.8348,0.0573957,-10.607,19.6322,0.707762,-10.5199,19.8775,0.483459,-11.6771,18.4195,0.0307095
3.62748,0.88743,15.8816,11.7379,4.49151,14.3451,11.3479,4.69048,14.4906,11.5617,4.52505,14.4013,11.9235,4.52784
20.16,0.214184,-10.0387,13.8812,-2.90289,-10.134,12.2456,-3.1088,-8.27473,13.7389,-2.28203,-7.67428,13.1867,-2.27408
37.5484,1.39724,11.3399,2.80388,0.46103,13.876,4.83795,0.68347,13.4798,2.64527,0.809312,14.0756,4.42157,1.02516
0.0345524,0.00644146,5.85795,0.198984,-1.47995,5.85482,0.121637,-1.36608,5.78243,0.122318,-1.41684,5.78578,0.168731,-1.49214
12.776,0.620179,-8.9041,20.5728,2.52185,-7.95034,21.5028,3.67884,-9.63068,20.584,3.68487,-7.66075,21.7512,3.34922
28.4306,0.379362,-1.48077,4.91393,-2.21127,-2.57216,4.0687,-2.7566,-2.25937,6.46206,-2.3043,-0.752662,6.91783,-2.21888
28.2028,0.227302,-16.913,11.6845,3.43994,-15.7805,13.8434,3.89435,-16.0516,13.8124,3.16892,-16.2074,13.6312,2.90257
6.84134,0.00212765,-7.74444,22.498,0.23656,-9.04448,21.2641,-0.235353,-7.49491,22.772,-0.0409942,-8.35798,22.0035,-0.793177
30.7574,0.323139,-2.23439,21.611,-1.8515,-0.00755085,22.7904,-1.64999,-1.70329,23.4274,-1.87566,-0.652726,23.2089,-1.77303
2.8517,0.122711,-2.67959,16.7711,5.50746,-0.869681,16.8574,5.42456,-3.57611,16.638,5.1757,-2.53243,16.6277,5.62297
5.7774,0.0430796,-10.2872,9.42598,-3.38007,-10.1734,10.8983,-3.37116,-9.85098,11.1418,-3.19638,-10.7072,10.8885,-3.66161
3.45096,0.0668827,16.2222,13.6971,3.49336,16.4797,13.2172,3.23529,15.9977,14.7435,2.7538,15.7295,15.4255,3.15582
2.72231,0.0618852,-1.15973,0.335035,-0.0835453,-1.76139,0.65821,0.975527,-1.68853,0.668752,1.01975,-1.31547,0.527003,0.441755
15.2043,0.888854,-4.03476,22.9214,5.1619,-1.38687,22.7294,5.73609,-1.93078,22.6025,5.47836,-4.19712,21.8865,5.26816
195.167,0.49403,-11.3136,0.254704,-0.560702,-11.8784,1.80836,4.0889,-12.2027,1.09392,2.44844,-8.98021,1.55187,3.8192
94.3145,0.915096,2.98169,21.1233,5.00404,-3.75522,18.7117,6.11797,0.297264,22.8636,5.61683,-4.53944,19.0126,6.0566
25.7269,0.53108,-9.53307,14.348,-2.6459,-9.26425,15.6593,-2.56497,-11.0444,15.4882,-2.94404,-9.8841,15.7033,-2.64702
1.62099,0.178794,-12.6551,11.9713,4.83456,-12.6346,11.1578,5.14966,-12.8432,10.963,5.16535,-12.8467,11.0072,5.15792
12.9754,0.0837205,3.24886,2.90505,-2.42214,3.37008,4.16065,-2.1466,4.7654,3.41899,-2.46704,4.35341,4.12596,-2.22792
5.50461,0.171032,12.2486,20.7399,2.64769,13.0688,21.0418,2.72495,12.1899,21.2927,3.36374,11.7449,20.6417,2.16197
68.6595,0.247803,9.89133,8.56086,-1.20194,10.3006,10.8097,-0.650071,9.24461,10.7466,-0.582918,7.82235,9.35299,-0.988862
6.4234,0.650103,7.25974,22.7597,1.76145,8.18354,22.544,2.66572,6.83442,24.2782,1.83491,8.10722,22.5327,3.3946
4.76338,0.0749046,-0.954134,20.5028,6.02464,-3.60196,20.6758,5.59702,-1.9276,20.1442,5.98017,-3.59396,20.4858,5.62731
0.0713738,0.106283,-10.1888,0.207337,-0.649434,-10.3015,0.215932,-0.623723,-10.258,0.238227,-0.570559,-10.28,0.323748,-0.635231
3.89975,0.0758671,-4.64279,24.5462,0.749522,-4.5482,24.4574,0.988717,-6.4025,23.7042,0.085172,-6.42116,23.7072,0.0258882
56.681,0.722373,9.75051,4.20318,-0.741854,13.8735,6.43727,-0.498573,12.6332,5.78159,-0.31886,13.3268,5.47983,0.0196391
0.774894,0.0521187,-12.3732,2.23574,4.6573,-12.7119,2.55819,4.91515,-12.2248,2.52263,4.96179,-12.4157,2.45101,4.83586
24.1018,0.0918066,-12.8499,5.39321,-5.64809,-12.8575,7.54112,-5.37588,-13.6539,7.26672,-5.59092,-14.1208,7.01702,-5.73226
28.2127,0.0166385,0.816229,27.9193,-0.38627,-0.100969,27.275,0.194008,-3.41686,25.7552,0.167476,-2.38291,26.4595,-0.48555
11.5071,0.161881,-9.00223,4.30084,-4.33258,-9.44644,2.96004,-4.68495,-10.2929,4.76573,-5.01906,-9.91828,5.06163,-4.6888
2.55474,0.239154,1.82749,23.2772,5.43055,0.218133,23.2569,5.4038,0.152895,23.207,5.39356,-0.406972,23.1325,5.44768
1.35989,0.114397,2.02235,14.021,5.9653,3.21137,13.9193,6.07634,2.99562,13.9089,6.10053,2.576,14.035,6.04968
2.99848,0.218953,2.27212,27.9485,0.289915,2.68471,27.4108,0.568514,3.08699,27.606,0.819339,2.96441,27.0864,0.59936
2.10454,0.176395,16.7741,13.0643,2.07944,17.1067,11.8566,2.49793,17.2089,11.6852,2.43047,17.0225,12.0506,2.52806
1.13901,0.0739745,1.9168,28.8176,4.51412,2.23976,28.7658,4.68143,1.28665,28.6824,3.98771,1.58781,28.7177,4.31221
15.3818,0.16462,-9.47314,0.436293,0.387074,-7.94532,0.686971,1.59241,-8.78941,0.53836,0.523855,-8.02405,0.708966,1.63003
26.8335,0.391012,7.17484,12.7416,-0.470809,9.10729,14.1239,-0.170402,9.12777,13.3452,0.083088,9.5786,14.6355,-0.254603
7.58401,0.127564,12.0362,15.0657,4.72175,12.7715,16.2125,4.61043,11.2694,14.8344,4.82973,12.009,16.2415,4.50921
13.3318,0.0731835,11.7003,14.1594,-0.186152,12.3461,12.5262,-0.353821,10.8156,13.5031,-0.234737,11.0216,12.4026,-0.285751
1.82516,0.0289584,17.4905,6.53914,4.35176,17.9884,6.51452,3.72428,17.5875,6.21083,3.80107,17.791,6.78882,4.39124
3.05112,0.0981926,-15.1781,9.00578,4.19929,-14.8237,8.76046,4.4193,-14.6727,9.7019,4.67056,-15.4599,8.99732,4.18083
3.03885,0.0909358,-14.36,14.8699,3.94431,-15.1999,14.1966,4.06564,-13.9262,14.7774,4.43419,-15.2346,14.2152,4.02792
63.0259,0.0434044,-4.18931,22.9388,-2.11382,-0.771732,26.7197,-1.80942,-0.260769,24.9081,-1.70716,-0.289563,25.3807,-1.72075


