
6.32297,0.0113773,-7.56711,20.2684,-2.36165,-8.23222,20.8341,-2.17657,-8.8202,20.8727,-2.10072,-8.88883,20.5443,-2.16263
44.9364,0.361974,10.6658,11.4142,-2.00539,12.5796,12.7715,-2.22397,11.4936,13.7745,-1.97909,11.6367,15.1097,-2.08778
44.9965,2.67821,-4.4969,29.129,1.49958,-5.26145,26.0043,2.37555,-5.98608,25.8482,1.65675,-7.3383,26.997,1.52227
11.9534,0.0461319,-14.1161,12.5099,-2.87354,-13.2952,11.166,-3.70069,-13.6318,12.9507,-3.11856,-13.0545,11.9969,-3.66383
27.172,0.483877,-10.2717,22.9969,-1.66503,-11.9787,24.6825,-2.60699,-8.74501,22.2345,-1.7639,-10.5791,24.0178,-1.69453
12.52,0.27038,-8.56992,26.0669,-1.37794,-9.40232,25.5368,-1.57659,-8.45183,24.835,-1.38922,-9.34894,24.6915,-1.39569
13.344,0.192777,-10.8015,2.8261,-0.180069,-10.7557,5.3764,0.0293292,-9.76245,5.34942,1.15658,-10.5608,5.65188,0.300302
0.167917,0.00227661,-6.13326,14.2088,-2.19078,-6.22335,14.3428,-2.21873,-6.17087,14.3904,-2.21766,-6.09118,14.3658,-2.20536
8.45308,0.11578,5.83512,21.1789,3.39267,6.75613,20.4582,3.46727,8.50915,19.2944,3.04787,8.7926,19.245,2.84672
0.104289,0.0172068,-13.9564,5.0486,-2.51653,-13.6917,4.91359,-2.46266,-13.7526,4.96961,-2.46419,-13.8703,4.92824,-2.50686
2.38028,0.107505,14.5648,16.1129,-0.169837,14.7211,15.5627,-0.695977,13.9431,17.1761,0.640618,13.9736,17.1025,0.628492
0.2976,0.0904615,8.89608,3.99027,-2.18882,8.90559,3.6923,-2.02831,8.83274,3.72468,-2.038,8.98003,3.75258,-2.03953
0.0166646,0.0532751,-1.62715,20.1549,-2.64989,-1.63725,20.2178,-2.64653,-1.60829,20.1833,-2.59395,-1.5991,20.1898,-2.61317
22.8377,0.00388975,-6.82554,4.34086,-3.21202,-5.35581,5.72989,-3.49404,-5.93464,4.04794,-3.05214,-6.29053,5.97118,-3.6467
3.60508,0.477863,0.469722,17.5919,-2.52456,-0.601134,17.6608,-2.6076,-0.626189,17.3775,-2.61953,-0.518899,17.8602,-2.625
4.29023,0.199106,7.97062,15.6127,3.41679,6.24168,15.6272,3.39972,8.85532,15.6528,3.11251,6.41854,15.5257,3.39552
0.124505,0.169089,-0.268334,14.9688,-2.14903,-0.0579236,15.0439,-2.09477,-0.0548242,15.0048,-2.0911,-0.170032,14.9946,-2.01359
1.62047,0.0358806,-1.68995,29.6423,-3.17367,-1.25063,29.9941,-2.84678,-0.798718,30.4241,-2.46995,-2.06737,29.4335,-3.13075
1.75654,0.0454381,1.22274,12.8469,3.96202,1.38662,13.4535,4.00105,1.36903,13.9196,4.0017,1.28005,13.9484,4.00518
20.2596,0.876494,3.7625,21.2826,3.46529,0.814875,20.4659,3.95159,1.2101,21.9543,3.67791,1.40612,21.0071,3.63747
1.78752,0.19528,-12.2971,9.38839,1.0538,-12.4631,10.419,1.10851,-12.5135,10.2286,1.04605,-12.7216,9.74422,0.873104
11.4691,0.177784,-7.37808,30.314,-0.431595,-7.63525,29.9893,0.259437,-7.17214,31.4188,-1.62105,-6.30828,30.4894,-0.00515111
10.6038,0.936158,0.811677,2.37597,-1.40696,2.5273,2.86863,-0.69971,2.64174,2.67775,-1.15007,2.56504,2.35893,-1.55799
19.3409,2.75623,-10.5674,24.667,1.67422,-13.7586,24.1498,0.0655314,-14.4206,22.5576,-1.27436,-14.0002,23.5895,-0.222456
3.53708,0.00762473,2.30184,9.85794,3.31172,1.97325,10.0821,3.36705,3.00014,9.95178,3.29907,1.80591,8.77464,3.07665
4.3506,0.14277,9.82471,4.55013,-1.61722,9.80146,4.34015,-2.1431,9.64824,4.23894,-0.951428,10.4634,4.88179,-1.25223
370.42,0.19203,-6.55565,8.9212,-3.03084,-6.40308,19.0499,-2.23254,-5.45659,18.8644,-2.12738,-7.60134,17.7796,-2.51027
0.132029,0.224254,-1.52162,16.5954,4.23448,-1.62654,16.8002,4.1835,-1.58667,16.7944,4.15042,-1.69543,16.793,4.19938
3.68301,0.269947,-3.75216,22.4646,2.97829,-3.83274,20.8762,3.41341,-4.3616,22.7507,3.19038,-3.0698,22.6977,3.25858
0.30993,0.0358493,-4.90432,21.2043,3.29988,-4.86673,21.3893,3.26042,-4.53806,21.4665,3.32646,-4.51802,21.381,3.33576
4.9594,1.08304,12.4351,5.93882,-0.621989,11.124,5.36981,-0.654101,11.1419,5.34797,-0.84375,11.0487,5.33562,-0.153085
5.18627,0.0625063,10.0223,20.2084,0.782265,10.454,19.6864,1.16319,11.0674,19.2233,1.28513,10.9371,19.4464,0.943998
9.46192,0.903845,1.52665,17.6047,3.62961,1.42888,13.9824,4.019,1.25804,14.3722,4.02874,1.35657,13.9638,3.99623
19.9987,1.03683,-4.00933,23.1127,3.24785,-6.2268,24.8533,2.6083,-7.14029,24.0594,2.61658,-6.60698,23.5434,2.50807
2.48969,0.132836,-0.32512,1.37548,-2.021,-1.39075,1.00377,-2.01823,-1.58636,0.959669,-2.3638,-1.58091,0.960574,-2.48821
16.6751,0.397246,0.943461,13.8101,-1.31991,2.01916,14.7092,-1.96923,0.491889,14.625,-1.76911,1.4459,12.5322,-1.62588
19.7906,0.557129,14.1074,6.79313,-1.7703,12.3645,5.97299,-2.5297,14.5978,7.13759,-2.84455,12.5075,5.99761,-2.62587
3.03087,0.137715,-13.5095,13.0731,-3.20726,-13.9645,14.16,-3.06176,-13.4211,13.9269,-3.31116,-13.7641,14.3234,-3.12954
50.1695,0.48214,-0.685485,9.61415,-2.93862,-2.55498,7.70113,-3.41432,-1.75222,11.4991,-2.66824,-0.70093,6.61118,-2.73671
12.1634,0.715909,4.46306,15.6321,3.07154,6.21769,15.5223,3.38463,3.43511,14.9208,4.07197,4.34676,16.6662,3.81613
1.3649,0.433168,-9.71942,7.75011,1.61834,-10.5213,8.51271,1.53953,-10.4403,8.47903,1.52266,-10.3266,8.61234,1.60936
0.0398442,0.00229267,13.2326,18.9401,-2.45733,13.0834,18.9129,-2.40756,13.2251,18.9831,-2.45548,13.0747,18.9467,-2.40713
2.31968,0.233543,-1.47298,18.7155,-2.51101,-1.45684,18.08,-2.60287,-1.48579,17.9042,-2.7225,-1.35596,17.9619,-2.63331
0.0295394,0.0128176,7.45265,20.4902,-1.83118,7.34107,20.4304,-1.90652,7.45498,20.4613,-1.82422,7.33337,20.4756,-1.89524
115.335,0.319712,-4.00726,9.28771,-3.42348,-5.86974,12.0622,-2.43732,-4.80837,12.9104,-2.27431,-4.08802,11.532,-2.5967
38.04,1.23886,0.973346,6.19654,-2.72225,-0.891796,4.28356,-3.29095,-0.960667,4.77591,-3.21573,-1.38138,6.0164,-2.89542
0.0763412,0.0353538,1.65383,27.0044,2.74255,1.66194,26.9187,2.73041,1.72667,26.8999,2.70426,1.79344,26.9503,2.72003
0.614814,0.11314,-3.30037,2.48164,-0.0643547,-3.26601,2.28092,0.185619,-3.48137,2.29426,-0.194141,-3.08806,2.43016,0.0285177
0.0973171,0.0705207,-8.18647,21.8957,2.8046,-8.16576,21.8226,2.81598,-8.11873,21.8375,2.78622,-7.98092,21.9457,2.81618
87.2342,0.781828,-4.6466,1.84525,-0.611817,-5.5372,0.320553,-1.80655,0.337542,2.43491,-0.148429,-2.12807,2.29545,1.1871
8.34525,0.0205893,9.80732,6.14746,-2.61459,8.93104,5.90347,-2.53633,7.72774,5.90521,-2.59406,7.82791,6.70282,-2.90836
5.20623,0.0687828,-9.04823,14.5681,-3.21842,-9.64469,13.7314,-3.28003,-9.15657,13.8599,-3.24978,-9.93652,14.334,-3.20402
8.22457,0.16419,-3.06072,31.3408,-3.03671,-4.33394,30.7968,-2.52378,-3.9424,30.4794,-2.38646,-3.53088,30.1127,-2.22587
0.0143636,0.0127299,7.54429,6.88942,-2.93168,7.5872,6.81817,-2.9501,7.56632,6.8863,-2.93659,7.56818,6.81576,-2.96059
1.2869,1.0708,-6.4825,29.3111,0.759808,-7.58954,29.1348,0.428724,-7.60522,29.1566,0.339384,-7.62721,29.2458,0.30721
3.84415,0.151524,-8.01989,28.187,1.31431,-7.52958,26.4346,1.47079,-7.4142,27.0266,1.51296,-7.43487,26.4602,1.52158
4.36614,0.245058,5.79496,26.6817,-0.121718,5.14935,26.7471,0.786825,5.07487,27.1351,0.656304,4.95718,27.4663,0.594151
25.599,0.180351,-14.9509,13.9407,-2.52118,-15.0256,16.3276,-1.93968,-14.18,17.2561,-2.52164,-14.546,12.2856,-2.81728
0.0368477,0.00561768,-15.0112,13.7395,-2.43792,-15.0307,13.6732,-2.3966,-15.0751,13.7518,-2.33505,-15.0601,13.6714,-2.35351
7.4715,0.174465,3.43883,30.4556,-0.183794,3.7076,30.5232,-1.25253,4.0134,30.1409,-1.22747,4.06388,30.0339,-0.839899
6.63599,0.0219861,-0.586288,26.5849,-3.25766,-0.175084,26.39,-3.42309,-0.689828,27.8926,-3.51502,-1.49482,27.5131,-2.93926
10.4271,0.185843,5.49091,21.6173,3.0363,5.29813,22.3543,2.90184,4.55997,23.1856,2.90151,5.91973,21.1994,3.2801
0.64258,0.0674738,-9.60479,26.9191,1.28821,-9.49393,26.7775,1.42446,-9.27029,27.0508,1.4114,-9.75075,26.8941,1.32917
12.9884,0.546217,9.02197,8.45526,1.29173,8.46242,8.44007,1.89375,9.81668,9.86694,2.24494,10.6674,7.05268,1.33439
0.973151,0.0494148,-5.88352,20.2278,-2.07909,-6.48754,20.5182,-2.20652,-6.35525,20.1188,-2.19128,-6.76239,20.5076,-2.24257
102.058,0.456443,-6.21602,8.44413,-2.95155,-3.79866,5.74982,-3.19579,-6.94227,7.84741,-3.58822,-4.93204,5.33119,-3.42567
1.45884,0.198993,-4.10798,15.2908,-2.62706,-4.53844,14.8247,-2.33897,-3.39536,14.8151,-2.73003,-4.18688,14.9599,-2.58145
2.99936,0.22025,-0.684438,25.3144,-2.75921,-0.379211,24.8802,-3.02944,-0.858182,24.7832,-2.85272,-0.239336,25.8985,-3.23544
3.80067,0.124561,-14.0863,12.3179,-1.01607,-14.3091,12.2013,-1.14825,-13.8849,13.7829,-0.449135,-13.8493,12.0789,-0.360841
46.051,0.0802956,2.13937,6.31823,2.10825,3.46886,3.57833,1.86547,2.24669,4.35702,2.10563,3.50144,4.82018,1.90115
0.530332,0.0221593,11.8609,9.626,-2.84294,11.7254,10.0829,-2.59545,11.6257,9.84568,-2.691,11.7805,10.0885,-2.60756
0.710058,0.117538,6.34434,20.4312,-1.69042,6.17672,20.6369,-2.04733,6.21569,20.3438,-1.89912,6.48862,20.5596,-1.79216
120.378,0.0889775,-1.8071,10.1746,3.5263,-0.407473,2.44484,1.35218,-4.31266,9.86001,3.36226,0.396142,6.4902,2.4341
108.381,2.29796,3.92368,8.53583,-2.47766,5.48459,10.6757,-2.03418,3.832,11.007,-1.78909,4.44402,10.8969,-1.79037
5.82711,0.120466,-13.0372,22.3359,-2.19897,-12.34,22.3752,-2.36766,-13.5779,23.117,-2.43618,-12.9738,21.4091,-2.15371
6.89421,0.143432,-11.0909,25.5709,-1.8178,-10.0956,25.488,-1.7147,-10.6379,24.9627,-1.93507,-11.4363,25.1322,-2.12311
2.26781,0.0496577,-4.94136,26.4376,2.34205,-5.10188,26.229,2.39464,-4.71816,26.8186,2.37938,-3.79909,26.5173,2.52945
173.994,1.19049,-5.34947,9.29205,3.19394,-8.5119,6.39873,1.92887,-11.5973,9.19908,1.3245,-12.5377,10.6179,1.08563
1.94361,0.293921,-1.41455,31.5211,-2.37047,-2.4396,30.8212,-2.88231,-2.76797,30.6876,-2.97923,-2.19706,30.9064,-2.75506
5.77028,0.061702,7.54326,7.94609,1.48342,9.58625,6.08772,1.67686,7.9986,7.56737,1.48373,8.3504,8.6225,1.99001
0.439476,0.0701207,5.52487,6.49123,-2.92017,5.373,6.41117,-2.96789,5.72627,6.66164,-3.01762,5.67372,6.76655,-2.99384
114.324,0.0393585,5.31367,23.1656,2.53763,4.87631,26.7283,1.07745,4.42159,27.5956,1.01646,3.211,27.4014,2.09013
125.044,1.3085,10.4639,5.5581,-2.31962,12.6343,7.14916,-3.21444,11.6481,10.6072,-2.44252,11.5138,8.78329,-2.87324
5.05561,1.59093,0.264848,13.8825,-2.0621,0.979415,12.3552,-1.90806,0.641128,12.3403,-2.23278,0.575483,12.3395,-2.31345
61.808,0.469582,-11.62,3.10384,-1.81329,-13.1187,4.58335,-2.19495,-9.41483,2.67742,-2.58402,-13.1444,5.27485,-2.25203
0.134512,0.0419434,2.88324,31.6255,0.0344977,2.71633,31.5843,0.165632,2.64399,31.6273,0.157034,2.76582,31.7023,0.0683362
5.3742,0.186756,-5.79937,31.5331,-1.08545,-5.93882,30.717,-0.033063,-5.99193,31.8064,-1.19569,-4.75896,32.1356,-0.769375
39.2217,0.728331,2.95222,31.2495,-2.09124,2.45365,28.9379,-3.81725,1.50759,28.992,-3.75434,3.226,29.8235,-3.4832
3.9555,0.262596,-7.47166,26.1042,1.37911,-7.42549,26.4163,1.50128,-8.2034,25.3532,2.06795,-6.48626,26.0871,1.82554
9.07271,0.404409,1.64799,1.6507,-1.98328,3.83458,2.72058,-1.48719,4.31684,2.71156,-1.333,2.87933,1.83195,-1.9805
1.15579,0.00901305,3.65506,15.6177,4.05076,2.92119,15.3421,4.12535,3.08823,15.5617,4.11092,3.41409,15.3403,4.08075
4.79746,0.130708,-11.2061,4.15148,-1.96762,-11.2702,3.50401,-1.94919,-10.5344,3.39024,-2.26591,-11.3664,4.63119,-2.14033
9.48978,0.0781472,0.880022,25.4196,-3.15262,2.11611,26.5706,-3.41457,0.805088,25.0076,-3.295,1.8485,26.482,-3.34349
0.185616,0.0641698,5.21115,14.2449,-1.94693,5.48661,14.2386,-1.91634,5.39286,14.1884,-1.84059,5.26373,14.3483,-1.97354
0.669379,0.306251,-6.23372,22.519,-2.34616,-6.18682,22.2019,-2.29997,-5.952,22.1476,-2.35204,-6.04326,22.1719,-2.31536
2.71617,0.0510971,4.85454,21.4631,3.50291,4.14994,21.444,3.40658,5.33585,21.6385,3.67775,5.63678,21.182,3.68261
3.04541,0.122211,2.21226,29.577,-3.06856,1.93979,29.5036,-3.21499,1.54933,30.0265,-2.86462,2.57473,29.8805,-3.08659
0.414688,0.0532596,-8.27467,25.0689,2.10789,-8.12264,25.3269,2.07964,-8.44041,25.1214,2.10165,-8.05691,25.0744,2.2202
11.3539,0.431758,0.326897,25.8098,-3.28966,1.25688,26.6658,-3.41259,0.678697,27.232,-3.48787,0.829105,28.1347,-3.89933
1.21537,0.088495,7.76081,23.7715,-1.13061,7.43942,23.998,-0.82857,7.2569,24.2756,-0.699468,7.23884,24.3432,-0.74335
6.45161,0.0664633,1.74394,27.6706,-3.8358,1.03378,28.5827,-3.94331,0.90363,28.0966,-3.87616,2.29404,28.1969,-4.0124
0.0619584,0.0581142,3.36135,21.2137,-3.31327,3.26963,21.3207,-3.33252,3.2269,21.2818,-3.35176,3.21836,21.3218,-3.36822
16.0043,1.94806,6.5372,5.31658,1.68991,3.50635,5.50581,2.04771,3.43546,5.77629,2.04653,3.24893,6.08481,2.16365
3.58594,0.29254,-14.5406,11.3434,-2.73359,-14.4601,11.9934,-3.01196,-14.7821,11.8418,-2.56167,-14.5643,12.0168,-2.81115
4.12839,0.627735,10.803,10.9788,-2.06996,11.3184,10.572,-2.2273,10.1961,9.9177,-2.45907,10.6033,10.0971,-2.29207
17.003,0.382965,11.2529,6.84347,0.494065,10.7685,5.18186,0.530064,11.3739,8.72723,1.40727,11.9127,7.13362,0.845703
0.980037,0.155462,-2.01417,13.9392,-2.12044,-2.72296,14.0706,-2.26365,-2.8514,14.0076,-2.27341,-2.83886,13.8622,-2.18474
12.7385,0.650774,-14.751,6.62729,-2.58241,-15.2797,8.52924,-1.96424,-15.3376,7.97199,-2.16014,-15.0261,8.40207,-2.53775
2.38633,0.358493,1.34599,7.102,2.14663,2.09597,6.86975,2.36387,0.98506,7.79797,2.76801,2.05701,7.06641,2.4256
45.0287,0.260226,-12.6903,8.79232,-2.95973,-10.6519,9.29318,-4.25739,-14.6005,10.1976,-2.98438,-13.4682,8.37356,-2.79175
8.80991,0.085868,5.31261,23.5491,-3.38251,6.27153,23.4237,-2.86068,4.71647,22.0664,-3.25422,5.04976,22.1897,-3.10283
15.4588,0.0363293,9.17186,14.1495,3.02574,8.94438,19.0058,2.67532,9.12442,13.9483,3.06113,9.1559,18.4524,2.39931
15.8164,0.307955,7.5437,3.77581,0.425932,7.30352,4.37355,1.2128,6.72495,2.58964,0.0678769,8.54688,3.73443,0.693983
1.63848,0.154776,-0.502582,29.7037,-2.74533,-0.196254,29.6614,-2.93263,-0.448706,30.0242,-2.66899,-1.16353,29.8873,-2.90934
18.5698,0.521242,-6.35714,15.7824,3.28939,-7.54479,15.0588,3.82987,-3.74612,14.572,4.10963,-5.96567,16.7345,3.72685
23.8397,1.02363,-6.61979,21.3783,-2.26698,-4.40315,20.2146,-1.91528,-3.04547,21.0957,-2.41891,-4.27671,20.7533,-1.97786
0.141061,0.0649397,11.55,18.1907,-2.21072,11.8674,18.3056,-2.29688,11.7785,18.2259,-2.29856,11.977,18.3591,-2.35373
0.0571433,0.0671292,-12.139,14.4273,-3.52803,-12.1767,14.3916,-3.57227,-12.1472,14.3378,-3.56783,-12.103,14.3193,-3.60672
0.654011,0.00277281,-12.0909,9.64301,-3.68073,-11.6271,9.5721,-4.03076,-11.6863,9.98251,-4.03219,-11.7878,9.67119,-3.91918
0.337722,0.068311,-4.37174,8.42267,2.98892,-4.26973,8.56174,3.13418,-4.47066,8.46326,3.07288,-4.30092,8.35887,3.04202
6.82257,0.0270984,10.3388,17.5432,-2.07327,10.4155,18.3766,-1.93092,10.8105,18.9832,-1.81281,11.2013,18.7281,-1.87175
12.9596,0.123739,-12.2806,22.8935,-2.37285,-11.2026,24.0695,-2.1818,-11.6345,24.203,-2.44425,-11.6851,22.6834,-2.14865
0.960922,0.0133453,-1.29237,30.7367,0.938696,-1.08304,30.7854,0.970463,-1.64206,30.6617,0.924176,-1.14922,30.424,1.17544
23.1189,0.249781,-10.3141,18.7855,-2.17397,-10.6523,20.9145,-1.81217,-9.74238,20.5302,-2.03085,-10.7347,20.0617,-1.80303
31.3864,0.0858617,2.30791,17.5458,-2.38027,2.05537,16.8076,-2.33033,4.45851,17.7378,-2.34212,4.11228,18.6122,-2.28164
15.8241,0.291995,3.85179,29.7672,-2.25502,4.48202,28.5727,-3.73471,4.67741,28.1543,-2.10433,4.79728,28.0708,-2.91382
5.73198,0.231385,-4.93561,14.5189,-1.94769,-5.024,15.6527,-2.26865,-5.38508,13.8727,-2.20817,-4.51346,13.6702,-2.06379
1.18703,0.16907,3.19497,29.3354,0.53211,3.46487,29.4375,0.413989,3.2166,29.539,0.78908,3.32461,29.2254,0.655942
7.84683,0.323685,1.34875,30.8191,-0.269244,1.54872,32.4725,-0.452063,1.05012,30.7743,0.0703317,2.44393,30.4329,0.252523
31.8576,1.69465,-5.23302,5.64172,1.84522,-4.64977,8.28129,3.02637,-3.84583,7.32836,2.26938,-3.29517,7.15645,2.51367
6.61224,0.108709,3.01951,7.62867,-2.73756,1.92376,6.84716,-2.67763,1.72532,7.21918,-2.60439,2.38171,6.69821,-2.78837
7.8886,0.0205172,-3.28181,25.1118,3.0496,-5.1046,24.9323,2.80908,-2.61693,26.937,2.52108,-5.20963,24.7294,2.86468
2.11397,0.0634572,-0.52607,28.5549,-3.85516,1.07375,29.0201,-3.6563,0.169475,28.6586,-3.81763,1.15545,28.9665,-3.73002
1.44062,0.140541,-7.8991,26.2512,-1.26059,-7.89839,26.6876,-1.42265,-7.59526,26.1305,-1.40538,-8.13937,25.9969,-1.38116
53.7579,0.0720528,-14.0023,7.14612,-0.852635,-13.7963,4.78249,-1.15741,-11.9747,6.63678,0.583888,-12.6048,5.56718,-0.086472
20.8484,1.28936,-6.65749,3.75003,1.03366,-5.73339,4.55639,1.57527,-6.67379,4.99286,1.97115,-3.51567,3.12847,1.60834
1.14354,0.655129,2.99888,28.5261,1.64115,2.46893,28.8343,2.01317,2.46927,28.7414,2.03903,2.48987,28.9443,1.99647
3.8149,0.00319427,-4.58719,25.1381,-2.68674,-4.60623,24.771,-2.76245,-3.57893,24.59,-2.92961,-3.42374,24.9751,-2.87077
7.59971,0.113447,-10.7574,4.45549,-2.22644,-10.4436,2.7495,-2.23948,-10.0185,2.9193,-2.35455,-9.97427,4.01589,-2.4778
19.6463,0.333709,-10.8954,12.7878,-3.20226,-10.9283,12.2367,-3.66894,-10.1895,13.281,-3.27811,-10.3784,14.8874,-3.01058
3.21356,0.315856,-2.79055,22.9425,2.88995,-2.2005,22.6074,2.99168,-2.72106,23.4211,3.22487,-3.05181,22.2835,3.29204
15.4856,0.407829,13.3526,18.761,-0.238314,11.4833,19.6123,-1.73231,12.0335,19.3933,-0.851867,12.6604,19.5561,-1.84002
0.598554,0.0455986,6.56009,23.742,1.27611,6.45515,24.1804,1.19628,6.74743,23.6235,1.21671,6.45193,23.844,1.40511
1.88986,0.153433,-3.48214,10.0087,-3.37735,-3.09895,10.3158,-3.47514,-2.21903,10.1875,-3.54662,-3.28404,9.74794,-3.61043
2.07009,0.0826545,5.1195,27.7489,-3.61086,4.95799,28.0784,-3.63687,5.61274,27.3095,-3.15036,5.59863,27.3352,-3.05458
246.725,0.81134,8.45997,20.4818,-1.60846,6.38325,16.2122,-2.0727,4.96455,16.7826,-2.50912,8.8139,17.3067,-1.73991
13.9505,0.415952,-11.0141,17.3859,2.0396,-9.66207,17.2371,2.84733,-10.8708,15.7762,2.61164,-10.8878,15.2122,2.64255
4.70643,0.0217161,-10.6437,5.04347,-2.26716,-11.6592,4.72129,-2.12692,-11.6805,6.40584,-2.60759,-11.2636,5.95118,-2.48822
8.4163,0.312693,3.09411,22.0477,3.27065,3.86334,23.4684,3.64358,2.4852,21.6557,3.61915,4.26905,21.5649,3.39634
9.58946,0.047104,-0.157399,1.55124,-1.88427,1.54929,1.8134,-1.81701,0.75058,2.32844,-1.44275,1.02024,1.30738,-2.14349
9.8646,0.0409778,-5.16152,22.4634,-2.36216,-5.68735,22.6593,-2.38876,-2.44671,23.191,-2.51114,-4.00836,21.8682,-2.43155
2.00793,0.0717958,6.75197,20.6251,3.15491,6.06597,21.0683,3.29859,6.04907,21.1427,3.26462,6.92243,20.9301,2.99781
6.02808,0.333287,-5.98348,18.451,3.06038,-4.59213,18.6977,3.6957,-6.23998,17.729,3.56537,-6.39457,18.7238,3.23404
4.82688,0.0509235,-3.70317,12.6172,3.86419,-4.87922,12.7463,3.85622,-6.16334,12.4139,3.73737,-6.25957,12.5357,3.74523
0.226872,0.0276888,-6.04842,12.2698,-2.45302,-5.89329,12.1935,-2.41602,-5.81563,12.26,-2.37642,-5.85772,12.4255,-2.38672
18.9131,0.539414,-14.5275,21.7823,-0.494234,-14.6048,19.0252,-1.12709,-14.7952,18.791,-0.993418,-14.8038,19.7447,-0.365036
25.8694,0.223819,-4.93716,27.2747,-2.00312,-5.79551,26.9158,-2.10709,-2.95834,27.3203,-2.47941,-5.59238,25.6035,-2.08194
0.340043,0.00738607,-12.9335,15.495,1.52167,-12.6926,15.6283,1.74741,-12.9341,15.3468,1.5514,-12.7112,15.7147,1.7178
20.1141,0.63009,-4.9167,13.5739,-2.16078,-2.37194,13.0717,-1.92816,-2.72306,12.6043,-1.99081,-2.31561,13.5979,-1.96987
0.825283,0.0323209,13.5483,17.7197,-2.34895,13.6219,16.8547,-2.35096,13.8133,17.0716,-2.35361,13.7401,17.0141,-2.35344
0.572047,0.0423236,-7.54164,19.1212,-2.36689,-7.72745,19.0018,-2.43041,-7.60844,19.5996,-2.27419,-7.52766,19.5707,-2.288
7.82528,1.85949,3.2141,30.2345,0.520979,1.44777,29.9933,1.54817,1.15309,30.2381,0.3603,1.00176,30.5347,0.180489
19.0019,0.070826,-8.13854,19.2371,3.125,-3.80063,20.0667,3.59371,-4.31843,19.1285,3.6787,-6.37482,19.7296,3.33395
9.74861,0.175684,4.04526,7.36313,-2.69093,4.28351,6.38098,-3.01669,4.94539,6.64058,-3.07546,3.6519,7.78317,-2.76711
1.83995,0.313301,7.19895,4.44588,1.28046,7.01284,5.28387,1.46628,7.17813,5.35945,1.4547,7.07419,5.38708,1.45023
4.5612,0.386226,-11.0607,8.2563,-3.64972,-11.9236,8.11077,-3.12017,-12.0963,8.41334,-3.26313,-12.1874,7.81423,-2.96616
4.04654,0.0615144,1.85877,4.31379,-3.33723,3.06779,4.66131,-3.40925,2.80178,5.0111,-3.24825,2.96954,4.86373,-3.32235
3.06501,0.0532389,-14.88,17.0074,-2.01314,-14.7811,17.7781,-2.05898,-14.3157,17.8378,-2.32519,-14.3824,17.1538,-2.35173
6.02011,0.221259,-4.43945,17.283,3.74338,-4.54001,18.1264,3.87353,-3.88381,15.956,4.12894,-3.8114,15.971,4.13052
15.9322,0.348787,-1.68333,3.92527,-3.30681,-3.57703,2.8834,-3.00346,-3.32876,2.6305,-2.89922,-3.4779,3.18441,-3.0612
3.63709,0.155044,-5.08531,30.7644,0.366685,-6.24676,30.5088,-0.0137626,-5.54061,30.6166,0.324744,-3.97956,30.6773,0.76548
8.92325,0.537169,7.03455,13.3165,-1.46167,7.45183,15.2312,-1.7665,7.26853,15.0137,-1.73723,7.53495,15.7914,-1.65884
3.87574,1.63092,0.221064,31.9575,0.088092,0.756392,30.2732,0.378382,1.05153,30.2671,0.336617,0.396364,30.1981,1.30951
0,0.0336722,-0.33838,19.9639,-2.47957,-0.248991,20.033,-2.43949,-0.341529,20.0054,-2.47277,-0.260004,20.0379,-2.42801
5.52359,0.131851,-9.18066,21.4283,-1.80762,-9.80208,22.2484,-1.73813,-8.58718,22.1764,-1.82674,-9.1603,20.8621,-2.05854
1.65701,0.0327666,4.79756,6.49144,1.8401,5.80288,6.45152,1.76766,5.80812,6.4096,1.78526,4.46005,6.09162,2.09246
7.07716,0.0577471,-3.73804,4.6282,1.80499,-4.36349,5.60899,1.95311,-4.5404,3.97416,1.74191,-3.56923,5.87792,2.02639
0,0.018797,0.379258,11.5341,-2.25649,0.412739,11.5585,-2.24593,0.269388,11.5471,-2.32115,0.365698,11.5464,-2.23957
0.202066,0.00202267,15.4117,11.4964,-1.71059,15.3699,11.6745,-1.81447,15.2794,11.5398,-1.85114,15.2759,11.6018,-1.87776
1.32061,0.0672314,-0.43278,32.041,-1.65992,-0.647032,31.6009,-2.0363,-0.00462296,32.1822,-1.54005,-0.376095,32.2651,-1.60209
12.5845,0.358385,11.3468,15.5754,-2.09228,10.0858,15.0796,-1.96579,10.0941,15.0349,-1.96214,10.5021,14.2192,-1.98414
85.3729,1.29131,-7.67479,12.0524,-3.20704,-10.8485,9.66792,-4.20449,-9.62792,8.88321,-4.19721,-10.9588,9.84156,-4.21252
18.6741,0.0243259,-10.9824,22.8799,1.90356,-12.9187,23.4958,0.850323,-12.7543,22.0339,1.22888,-10.7347,23.8156,1.86297
0.57186,0.0484295,10.5043,11.7593,-1.97898,10.2606,12.1329,-1.95576,10.1897,12.1204,-1.94195,10.2336,11.8973,-1.96451
0.283316,0.129046,11.6197,17.1886,-2.29984,11.8758,17.2682,-2.3445,11.7945,17.2034,-2.28544,11.8014,17.1269,-2.3496
11.5296,0.311408,-14.0287,15.4758,-2.6023,-12.9802,15.1527,-3.2531,-13.4076,14.7904,-3.20522,-13.4822,15.6789,-3.03397
19.0804,0.0312631,13.492,7.92182,-3.1002,12.1928,9.81691,-2.83899,12.0009,9.33536,-2.95199,13.6598,8.62405,-2.91515
32.486,0.268202,2.52735,26.656,-3.57607,2.27662,27.8663,-3.96169,1.26935,23.4685,-3.31322,0.258293,22.6292,-3.08872
1.1674,0.0195635,-4.21609,0.395381,-1.94579,-3.58256,0.366142,-1.9162,-4.16645,0.475987,-1.78066,-4.5084,0.18985,-2.24823
6.73295,0.030593,0.348644,2.57679,0.923524,1.37837,2.78978,0.6965,-0.472687,2.56046,0.302399,-0.475282,2.44573,1.24267
53.1056,0.259426,-1.60405,20.8448,-2.24943,-0.214939,22.8957,-2.87475,-2.39695,22.9002,-2.37083,-0.953095,23.5485,-2.7164
66.1892,0.602463,-11.4908,20.406,-1.79636,-12.1941,22.4816,-2.32093,-11.1866,23.0292,-2.042,-11.3678,18.071,-2.66588
13.9383,0.186092,-11.2667,15.5689,-2.92015,-10.4286,16.8714,-2.58606,-11.4976,16.6547,-3.0001,-10.5744,18.258,-2.38045
9.25675,0.602586,3.4428,22.5656,-3.71205,3.96697,23.8123,-3.74705,3.24721,23.9028,-3.9457,4.51288,23.4308,-3.71381
7.25678,0.103755,-4.58002,19.534,-1.89786,-5.38273,20.1535,-1.94457,-5.57288,19.1213,-2.06836,-6.30698,19.802,-2.20066
0.981189,0.104503,11.8796,15.5099,-1.9985,11.583,15.8896,-2.07597,11.8807,15.3377,-2.0929,11.8,15.9299,-2.12037
5.40421,0.814703,4.58578,28.3087,-1.49536,4.00174,29.8421,-1.8512,4.06277,29.9793,-1.30839,3.99411,29.7525,-1.73229
77.6177,0.0873155,-13.0973,14.1481,1.10737,-13.3121,16.1614,0.97562,-13.745,13.1413,-0.20231,-14.6548,17.0428,-0.89358
1.07043,0.142972,-11.4472,12.3744,-3.61629,-12.4959,12.0049,-3.83622,-11.7827,12.0445,-3.7902,-12.5068,12.0491,-3.83564
8.12387,0.239552,5.62328,6.0235,-2.89674,7.32799,5.31803,-2.53655,7.26459,5.26559,-2.53579,7.24873,5.8927,-2.72844
6.58631,0.344734,-2.44625,0.645429,-1.72231,-4.07617,0.654126,-1.40472,-4.17324,0.543592,-1.65355,-3.68146,0.808854,-1.28337
12.558,0.305987,-13.0808,19.8596,-2.07317,-13.8732,19.5218,-2.26075,-13.587,21.155,-1.93009,-12.8187,21.2259,-2.13028
25.346,0.219705,3.39534,28.9988,0.919995,3.73695,27.2636,1.70999,4.26632,27.1277,1.43402,4.40526,27.8422,0.774726
13.3396,0.822973,10.5163,4.88157,-0.607662,11.8726,5.98979,-2.34245,12.2666,6.06818,-1.98565,11.3301,5.34906,-2.06263
78.8715,0.126927,-0.316878,26.4686,2.42893,-1.69808,24.9977,2.94007,0.0981479,22.1922,3.64418,-1.89813,23.2425,3.38685
91.5447,0.446089,-11.2609,14.9889,-2.73843,-8.00337,15.1114,-3.21288,-11.6842,12.9234,-3.46778,-8.29667,15.9267,-3.09696
17.0972,0.0864891,-14.5206,18.7558,-1.55518,-14.9628,17.938,-1.50608,-14.1449,20.4796,-1.60809,-14.3357,21.902,-1.22299
0.0862696,0.00928621,5.1277,14.5759,3.83966,5.33087,14.6592,3.80106,5.09837,14.7096,3.82223,5.25334,14.6902,3.8048
19.7126,1.45988,-11.8997,5.82984,-2.36289,-12.8796,8.29036,-2.84083,-13.4308,7.19724,-2.60848,-13.2409,7.82924,-2.62205
1.66081,0.498519,-6.41045,18.8667,3.26407,-7.16047,18.9897,3.24601,-6.85081,19.2412,3.24353,-7.0357,19.0593,3.20395
0.0249845,0.0211547,-3.8147,18.8822,3.7289,-3.69309,18.8956,3.77907,-3.72073,18.9839,3.75863,-3.82916,18.8973,3.74502
0.274449,0.0171128,12.8834,9.1812,-2.93207,13.1909,8.93019,-2.99776,13.0484,9.31315,-2.94226,13.2581,8.93451,-3.00101
10.6295,0.218088,-12.4475,11.0936,-3.53198,-11.4564,11.7171,-3.90246,-12.2183,10.1376,-3.76697,-13.2871,10.5993,-3.62559
53.5266,0.526156,4.49724,17.0128,3.74754,5.46604,18.4828,3.44481,4.48506,21.2246,3.63882,4.64897,18.6268,3.39157
2.90982,0.0368389,0.0708488,8.86908,3.26402,0.615445,9.0282,3.24413,0.114399,9.4262,3.42483,1.55366,8.97171,3.15698
68.4238,0.0671863,11.8394,17.8093,1.62372,13.2491,17.6884,0.947238,8.90759,19.4933,2.66096,12.0012,14.4837,1.81153
0.453793,0.0372635,-13.0488,26.6083,-0.27899,-13.3373,26.4155,-0.493094,-13.0785,26.1748,-0.184332,-13.0547,25.9555,-0.0786904
5.07768,0.162315,-14.641,12.8186,-1.38206,-14.7616,14.9452,-1.19238,-14.8711,15.5728,-1.30932,-15.1268,16.2016,-1.61403
1.26905,0.17462,-8.17934,6.26727,-3.49598,-8.71426,6.63852,-3.56627,-8.8216,6.50646,-3.47882,-9.05941,6.52565,-3.50291
12.0161,0.0248806,-10.5161,6.70633,0.29168,-10.5619,5.70105,0.297059,-9.33352,6.8838,1.60828,-9.04984,7.98123,1.89604
6.64661,0.47318,7.28658,15.7554,-1.66692,6.11107,14.1568,-1.61672,5.81072,14.3754,-1.8293,5.98249,14.63,-1.75784
1.27768,0.00106986,-8.26693,5.00244,-3.05468,-8.65654,4.77194,-3.05942,-8.6359,5.29059,-3.26767,-8.45228,5.21474,-3.19007
3.967,0.37878,-6.1861,22.457,2.50608,-5.23183,21.7639,3.12098,-4.94425,21.4201,3.23712,-6.11499,22.9077,2.59516
39.1717,0.136991,-0.278613,21.9776,-2.98219,2.07524,23.249,-3.54679,2.48739,21.5083,-3.50419,3.09742,22.6047,-3.75223
2.71156,0.0907619,2.03499,31.7661,-1.52738,2.05677,31.59,-1.88717,1.79104,31.9038,-1.42913,1.18275,31.3829,-1.85032
0.034807,0.0739673,4.4044,26.7972,-3.85187,4.45198,26.7797,-3.77927,4.47874,26.7216,-3.78302,4.43415,26.7521,-3.78076
11.2458,0.0333609,-5.84105,28.7021,1.44505,-5.77843,27.7713,1.73994,-7.47255,27.6786,1.55501,-7.22602,27.5099,1.64502
45.0276,0.148024,4.77662,14.3527,-1.96162,2.36873,15.8943,-2.26585,1.12945,15.4212,-2.19068,2.12844,14.5349,-1.94076
21.3296,0.0582458,2.28145,19.5654,-3.05279,1.44192,19.0779,-2.78149,0.860657,19.1098,-2.65468,-0.153136,20.2184,-2.48958
5.69338,0.206135,1.37803,2.77629,0.60647,2.42476,2.86482,0.228566,1.77358,2.67104,-0.24922,2.3047,2.82619,-0.265243
11.9145,0.710061,3.32888,8.10545,1.7402,2.35518,7.3612,2.41876,3.59441,9.80341,3.07905,4.34344,7.73096,2.18029
0,0.00730459,-11.8883,21.307,-2.05977,-11.9286,21.2655,-2.00615,-11.9346,21.2371,-1.98546,-11.8794,21.2549,-2.05564
219.878,1.79379,5.51653,5.65951,-2.7671,3.36322,2.15314,-1.94323,0.924323,5.7248,-2.89415,5.08901,2.6655,-1.12811
0.393966,0.296544,7.77421,19.1631,3.53153,7.82405,19.5552,3.45086,8.08119,19.2212,3.40942,8.03213,19.2737,3.4035
1.33382,0.0213012,-5.84308,9.45173,-3.19128,-5.63018,8.92422,-2.98176,-5.54143,8.89129,-2.93915,-5.49442,8.83876,-2.91002
1.01704,0.0448409,7.60317,21.3538,2.32282,7.08615,21.8414,2.34338,7.03154,21.9684,2.30591,7.75413,21.5474,2.03094
0.0100757,0.00257271,-8.41488,10.0116,-3.88615,-8.52952,10.014,-3.95107,-8.4474,10.0568,-3.8999,-8.6101,10.0975,-3.98215
2.83367,0.00256987,-5.06328,24.1688,-2.5706,-5.06462,23.2407,-2.55609,-5.50826,23.7959,-2.366,-4.70115,23.6417,-2.72207
16.5484,0.334877,3.88929,3.13687,-0.875351,3.8133,2.81734,-1.33281,2.52196,2.87596,-0.603279,6.5917,2.62209,-0.15772
10.863,0.270716,-1.61724,13.9901,-2.1097,-0.994191,15.6039,-2.22068,-1.71981,15.7101,-2.46674,-1.58519,15.7999,-2.42345
0.0199723,0.0268848,-5.7811,31.1166,-2.88921,-5.65138,31.1329,-2.92524,-5.77432,31.073,-2.88283,-5.69051,31.09,-2.88778
0.857169,0.118578,-2.5588,32.4154,-2.36489,-2.85248,32.4793,-2.56333,-2.27375,32.4217,-2.4131,-2.2759,32.5343,-2.34779
0.108698,0.0633736,4.82318,16.7614,-2.52498,4.62994,16.7237,-2.53671,4.6422,16.797,-2.4872,4.61466,16.7691,-2.51387
32.6536,0.537464,-2.78351,5.8153,-3.09859,-3.83827,7.40864,-3.13953,-3.79769,5.67398,-3.21543,-4.05543,7.00981,-3.04902
24.7608,0.112524,14.0932,12.5493,-2.19621,13.9549,14.281,-2.52261,14.5813,15.6501,-2.3433,15.0912,14.78,-2.03872
28.3779,0.0697484,-13.4825,6.07257,-2.29485,-14.7405,5.607,-2.05771,-14.3016,8.01219,-2.96405,-11.775,5.03574,-2.1988
33.1548,1.62187,3.02231,20.3575,-3.23441,5.73514,21.3187,-2.16876,6.03558,21.0805,-2.16249,6.11536,21.5745,-2.28031
1.93931,0.00341298,7.75936,18.3199,-2.01784,7.08545,18.4847,-2.30071,7.48353,18.0792,-2.07414,6.79172,18.1682,-2.35343
3.01783,0.172464,9.06161,20.3543,-1.581,9.82945,20.7415,-1.54262,9.20286,21.1009,-1.50821,9.90608,21.1235,-1.41159
78.6939,0.259528,10.3984,13.5547,-2.00112,7.98669,15.3858,-1.92527,8.80386,16.0669,-1.82723,9.8883,12.2423,-1.82558
3.12418,0.141784,-3.85458,29.4447,1.48936,-5.03165,29.2709,1.31176,-3.75139,29.9462,1.23348,-3.40667,30.3135,1.0193
37.8915,1.15748,1.02691,17.635,-2.53444,0.675648,20.7313,-2.99567,-1.14092,20.6201,-2.49234,-0.612779,20.4387,-2.50487
88.223,1.27614,-11.4021,27.9984,-1.60277,-7.8505,26.8358,-1.39505,-7.66283,27.0082,-1.44912,-7.47643,28.153,-1.47966
32.9383,1.62775,-5.34308,7.81521,-2.67163,-3.59577,7.9814,-3.29008,-3.66958,8.27258,-3.29437,-3.89722,8.98738,-3.34609
1.25568,0.142442,3.45608,25.7506,2.47485,3.00875,25.9312,2.54646,3.03109,26.097,2.53582,2.8366,25.9698,2.63555
0.564158,0.0354391,-14.0013,8.02198,-0.209112,-14.0345,8.21918,-0.125166,-13.7446,7.91408,-0.0496889,-13.7895,7.88551,-0.0847651
11.044,0.724771,12.4136,8.47129,-0.181039,11.9303,8.53179,0.995337,13.6651,10.0403,0.252254,14.0223,7.13611,-0.594794
17.5534,0.424176,2.10834,24.8873,3.18656,1.44693,25.9484,3.09065,4.33057,23.6149,2.63527,4.71901,23.3156,2.748
65.7005,1.06501,1.78883,26.6752,2.76055,0.00383258,26.0305,2.81231,-2.70633,28.7437,1.81517,-1.13332,27.8833,1.71882
0.579608,0.0566115,8.27205,4.79476,1.55225,8.4891,4.85114,1.62048,8.39474,4.94979,1.66619,8.15442,4.6355,1.55833
5.066,0.218227,-1.53527,13.1428,-2.20795,-0.606266,11.8724,-2.69403,-1.46547,12.3078,-2.29688,-1.36054,12.4853,-2.25968
21.73,0.330968,13.6538,10.3946,-2.2578,14.036,12.4431,-2.21716,14.5617,8.70718,-2.46281,13.3789,12.6045,-2.45624
5.12134,0.488773,-8.23984,29.0745,-0.00689262,-8.78596,30.6818,-0.131255,-7.67602,29.1401,0.340673,-8.75201,28.9497,0.838858
0.775784,0.45218,-3.66162,15.6155,-2.77961,-4.05418,15.8895,-2.50522,-3.93346,15.9543,-2.53861,-3.79117,16.0465,-2.68579
10.4949,0.0939039,-13.585,26.3184,-2.02777,-14.019,25.3515,-1.41105,-12.5028,27.0741,-0.163324,-12.5925,27.6109,-1.16522
89.8668,0.852881,-9.60354,11.5956,2.49694,-12.3926,12.8235,1.42656,-12.0229,14.9823,2.08955,-12.0803,14.9149,2.02944
1.6688,0.14793,-6.71886,31.5995,-1.61945,-5.97772,32.0803,-1.27454,-6.18049,32.0259,-1.35171,-6.20354,31.8491,-1.29283
0.409359,0.000530882,-3.47678,30.6462,0.81786,-3.93423,30.7669,0.697303,-3.92375,30.727,0.722128,-3.7188,30.7669,0.719962
21.6199,0.0014011,8.0861,16.2045,-1.67961,11.0322,17.1637,-2.22481,9.12306,17.1881,-1.87592,10.8064,16.7995,-2.18052
5.42157,0.138063,-9.97179,21.5299,2.46843,-9.71431,19.5916,2.64874,-9.35676,20.2809,2.67903,-8.86553,20.3122,2.83527
2.15017,0.0170321,0.981389,24.7949,-3.25839,1.10399,23.9945,-3.31958,0.646257,24.2342,-3.2255,1.50021,24.1047,-3.39298
5.86238,0.0585435,-4.92241,0.799599,-2.51043,-4.1082,1.3168,-2.87466,-5.76377,0.485949,-2.33591,-4.53466,0.287542,-2.45965
8.51707,0.784857,-5.51107,0.926965,-2.58801,-6.68529,1.22819,-2.67638,-7.61665,1.05997,-2.11889,-7.34748,1.00978,-2.31918
28.6315,0.267205,-8.28132,6.87385,-3.71309,-10.4099,8.01925,-3.71868,-10.5706,7.09994,-3.33439,-10.0214,5.80398,-3.04939
9.73052,0.0112567,8.85159,21.4741,0.500241,8.10375,21.4554,1.69368,8.36704,21.6992,0.765556,8.98695,20.8398,1.58276
0.0169447,0.0352571,14.9047,7.238,-2.39098,15.0677,7.21904,-2.215,15.0444,7.25701,-2.31085,15.0115,7.15815,-2.19258
0.561562,0.109341,4.19735,11.3885,3.35674,4.50699,11.3196,3.42323,4.12731,11.7311,3.53184,4.05864,11.7171,3.53702
0.0518161,0.0897448,0.595134,5.07345,-3.23652,0.659607,5.16978,-3.19198,0.776435,5.18043,-3.1159,0.585139,5.16045,-3.1934
3.65786,1.93974,-5.4291,24.1312,2.92799,-5.78634,25.8576,1.81077,-5.97945,25.8046,1.7089,-5.86804,25.8241,1.71055
8.11254,0.0355299,-2.21399,20.3541,-2.49312,-3.9251,18.9517,-1.95571,-4.39492,19.239,-1.88591,-4.50242,19.501,-1.8897
0.570717,0.0826716,4.08533,29.2153,-3.31435,4.16718,29.1992,-3.03582,3.75063,29.4826,-3.62265,4.02527,29.3367,-3.37132
5.14091,0.0273309,14.6085,15.7381,-0.807542,15.5244,14.0168,-1.43783,15.5193,14.0129,-1.47663,14.8936,15.3061,-0.803252
49.8155,0.675392,6.6346,2.41543,-1.47479,5.56064,3.98174,-2.35529,6.80572,5.04443,-2.50074,7.62673,5.6964,-2.55855
0.0190859,0.0265642,-2.9101,18.0101,-3.14867,-3.00265,18.1741,-3.14446,-2.95389,18.1602,-3.11295,-2.96776,17.9972,-3.15939
19.3331,0.110387,-3.32075,4.71389,1.80388,-2.62316,3.33664,1.7489,-3.25502,6.89433,2.3781,-1.95763,6.48186,2.50629
0.376365,0.052122,-5.80006,32.2532,-2.68689,-5.89066,32.4125,-2.40865,-5.82126,32.3971,-2.45001,-6.05819,32.4861,-2.21137
28.8875,0.849637,1.19791,7.51104,-2.6547,1.03283,9.47429,-2.56372,2.55405,10.7079,-1.66076,1.5622,9.63502,-2.10798
3.75749,0.712261,-1.50068,25.739,2.62707,-1.43336,27.0757,2.07011,-1.51352,27.1065,2.08306,-1.29149,27.0039,2.07039
4.12923,0.166277,-11.5358,3.99343,0.0656224,-12.5345,4.1314,-0.553318,-13.865,4.3866,-1.68324,-12.7541,4.01516,-0.871549
14.8167,0.687571,-6.86594,6.56372,-3.66031,-6.90912,5.60054,-3.66615,-8.09589,5.58598,-3.48187,-6.72732,5.51216,-3.60336
1.79387,0.0241158,2.91231,26.0292,-3.61485,3.33582,26.0265,-3.74464,2.65215,26.2591,-3.56206,2.70295,25.534,-3.61666
9.79465,1.19992,-8.61141,19.8197,2.95499,-7.32477,20.1532,3.08403,-8.12038,21.5929,2.8394,-7.6483,20.5998,2.79372
109.368,0.294025,7.47104,12.8387,-1.53692,1.30093,13.8601,-1.27628,4.86729,13.7309,-1.57738,2.20901,12.712,-1.40189
34.9789,0.0840065,-7.47381,20.504,2.84145,-2.38611,20.7864,3.6256,-6.47047,22.2045,2.77998,-2.52684,22.1246,3.37285
177.468,0.813594,3.95914,7.84304,-2.6454,7.14664,8.49982,-2.40832,6.9078,9.28953,-2.08583,7.1952,6.71749,-3.00364
3.54118,0.0548066,5.50623,22.3928,-2.95779,6.29545,22.2828,-2.54614,6.18404,22.0733,-2.49628,6.27846,22.3782,-2.59456
30.2879,0.708588,2.44243,24.0642,-3.6495,4.62032,24.5752,-3.45864,4.58556,25.7292,-3.87825,4.02958,26.0052,-3.88148
0.198495,0.0808296,-11.5432,28.5775,-1.3979,-11.4351,28.3948,-1.51887,-11.3604,28.4229,-1.52028,-11.5516,28.4344,-1.50295
10.032,0.05698,-0.584456,8.40295,-2.7828,0.191552,7.63165,-2.69052,0.462523,8.3944,-2.87048,0.613609,7.66263,-2.75585
8.79156,0.0325097,-1.7577,27.6767,-2.69939,-2.14776,28.0574,-2.53106,-3.70491,26.6997,-2.5304,-3.27883,26.6846,-2.63938
6.32733,0.0146095,-7.83925,24.5249,-1.46428,-6.84814,24.5955,-1.92712,-7.17799,26.1687,-1.54002,-7.42903,25.9787,-1.44317
191.141,0.283901,-8.00148,29.627,-1.36672,-2.4279,29.9239,-3.10509,-6.01002,32.1275,-2.73061,-2.037,28.2178,-2.56505
41.2637,0.102403,6.97175,23.7447,-2.21251,7.57703,20.6811,-1.75006,8.23,21.011,-1.64879,6.40413,21.0398,-2.06593
12.8787,0.115466,-9.72236,2.05127,-0.749582,-7.69868,1.50944,0.104097,-8.10561,1.30204,-1.13394,-7.95208,1.24371,-1.09139
1.40218,0.0315409,15.3534,8.3205,-1.91314,15.2408,7.77493,-1.59984,14.913,8.35174,-1.1768,15.1209,8.80121,-1.56528
8.07517,0.221162,10.006,20.2864,-0.0772802,10.1878,20.7634,-1.19545,9.75955,20.99,-0.165782,10.4234,20.3463,-0.810872
18.8798,1.10041,-3.75092,18.8536,-2.03747,-4.47884,16.2824,-2.44047,-5.48246,16.7539,-2.37011,-4.79914,16.541,-2.35262
1.71383,0.436621,-6.41491,29.3306,0.774366,-5.25201,29.2768,1.29662,-5.33368,29.3427,1.1961,-5.29125,29.4811,1.19287
27.4668,0.430204,-11.8819,26.5896,-1.7152,-9.13343,26.0839,-1.51071,-12.9094,27.3677,-2.28735,-12.2508,25.1037,-2.61151
32.4512,0.186899,-2.64393,6.22643,-3.03274,-0.519009,6.36019,-2.71471,-1.29821,4.69317,-3.33058,-0.726309,5.07905,-3.09946
5.60397,0.25111,-1.3055,2.79983,-2.80533,-1.1,2.35819,-3.04576,-1.91388,3.10781,-3.02932,-0.835421,3.43594,-3.1355
7.95084,0.0946591,0.412012,31.5889,-1.70308,2.11195,32.2414,-1.19075,1.63839,32.425,-1.01072,1.93876,32.0512,-1.37832
21.0984,0.696136,-6.87316,0.763725,-1.90044,-6.99616,2.20052,0.762341,-5.58651,1.76323,0.708817,-6.73177,2.04721,0.461615
0.00552677,0.00544075,14.2503,11.7718,-2.33778,14.2179,11.7131,-2.37968,14.2765,11.7288,-2.34843,14.2063,11.7511,-2.36008
52.0379,0.5788,4.23279,18.2487,-2.18678,6.85366,19.1306,-2.1684,6.25745,20.1246,-1.96573,6.23567,20.2581,-1.95253
171.631,1.33614,-7.15612,3.7118,-3.087,-4.4069,2.29352,-3.0893,-4.84212,1.50302,-2.9101,-2.24567,4.82454,-3.40424
21.9279,1.21294,8.2162,12.3502,-1.89153,9.84928,13.4742,-2.05291,9.9671,11.8022,-1.93204,9.67293,12.7072,-1.74149
4.5994,0.422282,-2.15703,31.5557,-1.24694,-3.03325,32.3825,-1.09309,-1.42984,32.2528,-0.70653,-2.37044,31.1488,-0.823497
23.6011,0.0509849,12.4024,19.0283,-2.32315,12.7986,15.3635,-2.23725,12.9725,19.2631,-2.38902,12.4066,15.1105,-2.22352
29.2149,0.318409,-2.17415,20.0928,3.71758,1.62017,20.3556,3.98758,2.43678,19.846,4.14814,2.32184,20.7176,3.87953
11.5866,0.483041,11.9784,19.2642,-2.20356,11.2229,18.5954,-1.90777,10.5305,19.9321,-1.66248,10.6506,19.4941,-1.63325
28.2039,0.430403,-7.85707,7.03414,-3.73002,-6.30228,6.91325,-3.7961,-7.07778,8.10768,-3.51172,-7.87597,8.19107,-3.7188
10.527,0.220874,-4.26617,28.3555,-2.01345,-4.83758,28.9193,-2.09668,-6.36469,28.2692,-1.77462,-6.40891,28.5388,-1.7572
104.916,0.170135,8.1104,21.8708,1.0086,5.44012,27.5365,-0.340361,5.41253,27.5989,-0.383882,6.16219,26.3166,-0.812994
120.973,2.1335,-3.90772,1.7741,-2.75787,0.894078,5.031,-3.24253,0.891153,2.80632,-3.30086,0.903044,4.04901,-3.27494
28.6271,0.164598,-2.72219,17.4908,3.42637,-3.2105,16.0432,3.82912,-2.74278,19.3329,3.20767,0.845979,17.5341,4.09898
127.232,1.3951,0.810723,15.8176,-2.00623,-0.860972,12.9612,-2.41098,-2.89721,17.1265,-3.13781,-2.98179,16.1631,-2.8679
33.8733,1.08997,-2.92895,27.4692,2.34363,-2.2582,31.1346,-0.749406,-2.45519,30.3004,0.570248,-5.16767,27.2424,2.06177
0.43245,0.652323,11.9957,10.6272,1.57158,12.6136,10.746,1.22945,12.6561,10.5584,1.20091,12.624,10.6985,1.2179
6.05222,0.144034,14.3749,10.4199,-0.876031,14.3427,9.44005,-0.765503,15.0176,10.1834,-1.60891,13.882,10.2958,0.0804342
6.35967,0.466251,-5.41434,5.05312,1.36211,-4.91803,3.72327,1.53504,-6.10671,4.64309,1.73682,-4.45985,5.73847,2.01285
0.816438,0.257753,-15.081,8.68765,-1.26802,-15.2482,8.68397,-1.64264,-15.1306,9.09564,-1.4352,-15.0745,8.91228,-1.47911
0.328055,0.00941441,5.49831,2.64538,1.19659,4.9381,2.62955,0.944408,5.09075,2.63054,0.913847,4.93588,2.62991,0.993487
18.2532,0.41922,5.67753,7.38537,1.57764,4.39612,7.73951,2.14637,6.45884,7.81003,1.99602,6.44475,5.43813,1.69084
8.05629,0.533986,3.38041,18.7554,-2.13597,1.74785,18.4266,-2.74541,2.23932,18.9326,-2.78539,3.91893,19.4707,-2.7449
3.91949,0.225916,-14.1217,18.603,0.133351,-14.1449,18.0266,0.411268,-14.084,19.047,0.53005,-14.7425,19.2998,-0.168739
9.10058,0.00255789,-10.1079,16.6582,-2.71505,-10.1304,17.7358,-2.47807,-9.1494,18.2336,-2.5903,-9.60556,16.7043,-2.81426
5.92626,0.0135698,-10.4942,29.5823,-0.920283,-8.54496,31.0413,-0.594881,-8.9911,30.5316,-1.04309,-8.48087,31.052,-0.666467
5.16835,0.0392551,2.39614,2.8801,1.00913,2.9499,2.91539,0.801784,3.17778,2.97521,0.00890371,1.43195,2.72232,1.07416
0.134304,0.053643,2.1918,19.6419,4.09471,2.26384,19.5834,4.11399,2.19682,19.5706,4.12368,2.38578,19.7371,4.14949
0.00782688,0.0177861,3.51672,18.7709,4.19536,3.56548,18.8175,4.17544,3.4916,18.8303,4.18177,3.64101,18.786,4.16827
18.6786,0.368365,14.159,16.4641,-1.68138,14.54,15.8846,-0.894022,13.852,19.0684,-2.10516,13.5633,18.589,-0.341122
101.572,1.71881,4.81916,27.7588,-1.61399,6.33794,25.8991,-2.6851,6.74656,24.5946,-2.36932,7.32884,24.0807,-1.79325
0.505713,0.0161763,-4.69591,22.1704,-2.39253,-4.9134,21.7068,-2.30185,-4.8747,21.9941,-2.3511,-4.83736,21.7182,-2.30129
14.0503,0.0281195,-6.71076,25.9394,-1.72801,-6.60397,28.4556,-1.71316,-6.67664,28.438,-1.68479,-7.43542,27.8207,-1.39316
12.6211,0.0699586,-1.87576,23.5631,-2.5236,-1.74923,25.5169,-2.83538,-1.68341,25.5727,-2.84736,-1.02896,25.4511,-2.83476
21.8085,0.472693,-9.95975,23.2437,2.31447,-8.63913,24.4086,2.31263,-7.49307,23.7057,2.61745,-8.16587,24.1977,2.44425
3.69171,0.00505975,-9.16839,25.9108,1.79938,-8.53553,25.9221,1.92382,-8.37361,25.5491,2.05487,-9.90038,25.2458,1.81364
8.94894,0.122789,-13.6484,10.2176,0.231719,-14.3349,8.92417,-0.482288,-14.144,8.62311,-0.151487,-14.4575,8.44517,-0.502847
26.8999,0.218681,3.43716,17.042,-2.47362,-0.190841,16.8759,-2.49537,1.67165,16.1421,-2.31528,-0.236112,17.1511,-2.51738
8.18621,0.172023,-11.9427,7.25424,-3.00659,-10.8493,7.5806,-3.43759,-10.4737,7.5002,-3.47371,-10.549,6.91454,-3.30956
5.90436,0.27203,-13.4144,16.5628,0.922212,-14.2313,17.1031,-0.304973,-14.7359,18.1173,-0.52476,-13.7994,16.8716,0.131381
0.364177,0.0214746,7.45221,8.8919,-2.29588,7.12269,8.83865,-2.30337,7.00342,8.9484,-2.25258,7.47944,8.7657,-2.33234
1.71187,0.063821,-13.6697,19.0922,-2.28084,-13.1696,19.4428,-2.26455,-13.2609,19.5681,-2.22458,-13.5392,18.7237,-2.45959
16.7077,0.633314,6.91259,8.79402,1.63876,8.01904,8.91221,2.18378,6.00319,9.03202,2.51711,7.04571,6.28618,1.50242
0.141927,0.0877944,-2.99665,0.365833,-2.25145,-3.15108,0.315514,-2.24621,-3.154,0.304882,-2.18683,-3.19167,0.275382,-2.32595
14.7332,0.118525,6.14662,22.5707,2.31513,6.15404,24.1369,1.51631,5.60698,23.5572,2.20591,7.18896,21.9998,2.17538
0.0670195,0.0132015,-8.10736,14.4475,-3.3015,-8.06881,14.1781,-3.2987,-7.93865,14.2461,-3.26506,-8.00029,14.1877,-3.2804
4.39439,0.137273,-5.76093,17.3856,3.43716,-5.49552,16.1384,3.81646,-5.23914,17.6822,3.72056,-5.33724,16.0855,3.87502
1.82285,0.0180906,-7.66669,12.9162,-3.06503,-8.21293,13.6914,-3.28443,-7.87918,12.7307,-3.18995,-7.99027,13.5797,-3.19156
35.8211,2.87573,13.8201,16.1003,-2.38471,13.2926,13.1523,-2.48855,12.1734,13.0112,-2.06792,11.7564,12.9893,-2.04865
34.9624,0.433289,1.09759,21.1945,3.72386,-2.20538,20.9136,3.59897,-1.73773,21.376,3.53089,-2.20169,22.5511,3.00992
68.0068,1.79331,0.661139,31.1065,-1.7663,-1.72426,30.5583,-2.93613,1.42339,29.3352,-3.34779,1.00777,29.264,-3.22369
0.49797,0.0524454,2.49105,29.6963,1.6269,2.3663,29.635,1.74208,2.60882,29.8519,1.57827,2.71158,29.6281,1.70383
0.455784,0.0555292,-2.43079,13.7102,4.06489,-1.97661,13.9495,4.10411,-1.76961,13.9528,4.13104,-1.75883,13.9062,4.12501
0.222085,0.129602,8.1114,10.7015,-1.79278,8.17059,10.5964,-1.96663,8.00296,10.7441,-1.89699,8.23033,10.7519,-1.93927
5.30458,0.602701,-2.62668,19.5209,3.12981,-3.4339,19.9013,3.57502,-1.79174,19.6286,3.83281,-0.857059,18.2359,4.20958
1.62952,0.288414,5.03018,16.7921,3.41936,4.79957,16.4646,3.74462,4.79977,17.5466,3.71583,4.88492,17.5142,3.70702
6.68154,0.0443227,-13.3957,10.6333,0.490509,-13.4103,12.1276,0.409616,-13.6319,11.9941,-0.109237,-13.633,11.3955,-0.0472824
10.5458,0.7468,14.2893,9.34122,-0.734879,14.7385,7.16771,-0.972457,14.2677,6.91952,-0.816252,14.3544,6.91625,-0.865243
2.20432,0.0993378,-1.3003,9.56987,-3.14647,-1.30894,8.79154,-3.01413,-1.45743,8.84486,-3.1299,-1.26271,10.0864,-3.00071
19.4313,0.505556,-12.6857,16.1144,-3.18238,-13.0538,19.1933,-2.38034,-12.9119,18.2937,-2.46243,-12.4827,18.8303,-2.72904
23.4647,0.998633,5.25206,14.8699,-2.05507,6.22777,16.289,-2.1117,3.25205,16.4461,-2.38694,5.50988,16.4212,-2.28366
55.2763,0.617258,12.5733,14.4789,1.42535,14.3889,16.3503,0.455718,14.6679,12.0606,-0.212267,14.9471,13.3285,-0.424732
3.17933,0.276427,-9.40924,24.1387,-1.0589,-9.55948,24.7527,-1.44676,-9.24769,24.135,-1.29338,-9.86601,23.9273,-1.51703
170.583,1.0065,9.19844,6.88733,-2.62295,6.45296,11.2385,-1.92011,8.89343,9.08985,-2.6982,7.39295,11.4954,-1.68346
7.8746,0.219864,0.56836,10.3854,3.5471,3.92509,10.613,3.30305,-0.421634,11.0391,3.5955,3.09085,10.8882,3.43492
36.0041,0.198717,-3.04514,11.6168,-2.26995,-1.74882,12.2386,-2.24337,-0.901197,14.0191,-2.0382,-1.87782,13.3441,-1.9486
0,0.006112,-8.16564,29.404,-1.42023,-8.16101,29.4137,-1.42431,-8.1127,29.4314,-1.42885,-8.11005,29.3965,-1.44285
6.71377,0.463131,1.54788,18.5244,3.46085,1.44069,17.6782,3.61217,0.815489,19.0388,4.10732,2.8447,18.9109,4.22525
0.039197,0.00289194,4.52583,22.8786,-3.65556,4.38238,22.8963,-3.67352,4.51575,22.9146,-3.65327,4.37035,22.9446,-3.66629
0.00574694,0.0253009,9.4421,7.59097,-2.72394,9.48424,7.70481,-2.80374,9.45562,7.55296,-2.74742,9.43673,7.69194,-2.7793
0.0805441,0.268151,-6.34061,27.2166,-1.83808,-6.0648,27.327,-2.04343,-6.05667,27.2805,-2.03912,-6.07028,27.3753,-2.07559
13.944,0.141074,-14.8738,11.506,-1.86625,-15.2142,15.0773,-1.9575,-15.2462,13.8852,-1.69857,-14.8898,13.1536,-2.44763
0.720631,0.0480092,9.62214,10.8413,-2.25392,9.91864,11.1234,-2.19181,9.99054,11.0586,-2.21627,9.61694,10.5912,-2.40319
3.25595,0.0309761,-9.01275,22.4553,2.6212,-9.30846,22.1554,2.59155,-7.0389,22.2429,2.86442,-7.189,22.9432,2.75487
1.50431,0.656536,7.12267,6.2557,1.49333,7.05252,5.48004,1.47109,7.16651,5.40464,1.44186,7.2499,5.38414,1.49776
4.21076,0.0903306,5.88156,16.7872,3.44752,7.70099,16.9719,3.75304,5.18523,16.7319,3.45793,7.58353,16.8526,3.73034
208.025,0.717729,2.94874,11.8921,-1.24839,5.26502,12.0197,-1.5507,-1.07947,11.2477,-2.78351,1.90855,7.9032,-2.641
4.64636,0.00968007,-8.85861,24.2578,-1.37355,-7.97103,24.0493,-1.55134,-8.29391,23.8085,-1.53029,-8.02278,24.8177,-1.44592
0.837942,0.00984779,-2.0449,4.43792,-3.36681,-2.48374,4.08511,-3.37216,-2.3249,4.00836,-3.31322,-2.14114,4.61101,-3.42501
107.306,0.0458168,-5.31735,11.6754,3.63147,-1.5702,15.4164,3.93756,2.3004,12.7794,3.90904,1.12431,15.4244,4.02892
8.00165,0.244522,-6.87108,3.1326,-2.92288,-8.13906,4.06301,-3.05868,-7.71486,3.1411,-2.96117,-8.05034,4.93117,-3.27926
2.82999,0.291016,5.37994,24.6705,-3.66593,5.82384,24.5981,-3.57065,5.64421,25.612,-3.48077,5.6811,25.5818,-3.43787
2.80163,0.0445899,8.04355,23.0872,-1.30655,8.66068,22.1708,-1.39475,8.00872,23.2319,-1.6665,8.21571,22.8915,-1.17572
30.388,0.361762,12.9871,18.3528,0.814513,12.1028,19.3268,-0.471656,10.7707,19.9924,-0.867324,10.47,19.9937,0.205957
71.3245,0.505773,-8.04801,16.747,3.58052,-11.675,22.0528,1.732,-10.6278,18.7615,2.14153,-11.7888,20.4747,1.72047
10.4773,0.199146,8.79052,22.1172,-0.997826,9.66545,20.851,0.209798,9.6026,21.3034,-0.444279,8.19778,22.3252,0.113222
18.7311,0.0371277,-5.55023,25.3791,-2.08974,-5.69543,22.7039,-2.39277,-7.15425,23.8141,-1.98603,-6.84015,24.9724,-1.88222
2.72762,0.0246981,-12.8732,23.6067,-2.5433,-13.5503,24.3074,-2.33192,-13.5349,24.1275,-2.34528,-12.5604,23.7502,-2.65605
0.445938,0.0191547,-12.6152,19.61,-2.47837,-12.4338,19.3717,-2.54336,-12.2875,19.3977,-2.54977,-12.338,19.7136,-2.45506
84.9922,0.417578,-6.55891,2.11997,-2.9269,-10.2994,5.13113,-2.50394,-9.41481,2.26008,-2.60567,-10.1767,2.02654,-2.39196
34.7135,0.468661,1.24662,6.77425,2.23001,1.02222,4.00078,2.05595,2.60567,3.95128,2.05055,-0.238952,2.79348,1.76593
10.0446,0.0168144,5.4592,2.56955,0.540519,4.02564,2.98845,-0.251234,3.10189,2.84607,0.90615,3.0287,2.86359,0.884483
4.65031,0.170598,-11.998,27.7616,-0.100668,-10.5318,29.6446,-0.448471,-10.9828,28.8584,-0.0130305,-10.9801,28.7863,0.0709841
0.587566,0.0335448,-2.81223,24.903,3.23094,-2.36763,25.1758,3.17931,-2.27898,25.1027,3.20062,-2.29644,25.1899,3.17438
1.35175,0.0367199,-7.63217,1.10287,-1.68858,-8.28527,1.34698,-1.70338,-7.24377,0.876764,-1.74144,-8.3804,1.35807,-1.82851
33.964,0.464679,7.126,12.3129,-1.47328,8.92106,11.6767,-1.89459,8.37468,13.3448,-1.82205,8.50361,10.9674,-1.95505
25.5918,0.00076888,-10.5142,25.4882,1.48102,-13.7949,24.9101,-0.208057,-12.055,27.4772,0.0256292,-12.0833,26.5337,0.286124
2.12801,0.040789,7.31633,18.495,3.77707,5.53896,18.3566,3.46003,5.47378,18.4358,3.43961,6.69755,18.4011,3.69789


