
0.0847796,0.0128028,-15.516,3.72862,-6.14196,-15.5954,3.68727,-6.18145,-15.7319,3.72421,-6.21709,-15.7322,3.77107,-6.21316
14.6208,0.898187,10.5752,20.4716,-3.61201,10.5039,22.2759,-0.633556,10.7963,22.3741,-0.368371,10.659,22.4247,-0.162241
6.95265,0.200229,-7.20947,19.1772,4.32322,-8.20966,19.1191,4.65827,-6.94254,18.9619,4.60661,-6.35436,20.6572,3.84139
63.6619,0.520448,-10.4328,7.53323,-5.52258,-13.2956,7.12581,-4.96418,-14.0988,5.98553,-4.81924,-14.2779,5.16026,-4.88258
2.77431,0.108461,-7.81213,8.89056,-5.92718,-7.02795,8.29374,-6.13301,-8.14726,8.46834,-5.93465,-7.23365,8.10113,-6.0757
18.5773,0.47108,-6.90514,4.1345,-1.13523,-4.5711,4.90249,-0.549436,-6.56337,4.12884,-1.95897,-5.33585,4.89998,-1.75158
2.72179,0.0339341,6.07887,4.97394,2.22743,6.68864,5.2485,1.80286,6.30527,4.943,2.37355,5.66436,5.12481,1.407
21.5716,0.543391,11.0898,7.43598,-6.35232,12.0607,5.9154,-6.30642,14.3036,7.20836,-6.68714,12.0429,6.47518,-6.52066
9.34709,0.355878,-12.321,3.9347,5.70529,-9.87446,3.90928,6.74754,-10.4958,3.99465,6.76745,-11.2198,3.33993,5.64704
5.43538,0.61246,-0.349948,10.5737,7.41151,2.3098,10.5804,7.60054,2.38954,10.5714,7.56673,-0.458163,11.1891,7.62759
20.0527,1.42719,-18.0055,1.67454,-5.69156,-20.9049,2.1376,-5.28968,-20.1928,1.96765,-4.8954,-19.3998,1.38525,-4.17275
13.1509,0.143483,7.02053,12.0162,-6.94422,5.10669,13.063,-7.39252,4.02123,12.2074,-7.52296,4.92168,12.3219,-7.32924
84.6261,0.833031,-11.2864,5.64103,-4.94313,-8.02557,4.68514,-5.23392,-6.37535,3.50319,-5.82329,-7.57084,5.67305,-5.4084
4.25533,0.201453,-5.01823,4.41135,7.53348,-6.05226,4.83169,7.95219,-6.47308,4.33339,7.60635,-3.50051,5.06765,8.30442
15.8287,0.257844,15.7967,16.0722,-6.81688,16.9956,13.9091,-6.39217,17.483,13.9211,-6.36013,14.9647,16.1983,-7.18107
7.01776,0.293796,-14.7573,4.59333,-4.85782,-15.0381,5.03564,-5.53574,-14.4367,3.45778,-4.81647,-14.1971,5.0697,-4.84489
0.00293397,0.000568091,10.8188,5.18465,-6.28901,10.8246,5.23855,-6.36821,10.9597,5.28295,-6.3393,10.8972,5.2791,-6.37816
11.9189,1.11882,8.18583,14.4545,-7.46083,9.28555,14.9743,-7.93356,9.50901,14.5107,-7.57138,9.75381,13.6316,-7.12466
18.343,0.471811,15.0846,7.22364,5.77871,15.0201,9.06779,6.01272,16.5546,7.21509,5.38369,15.0428,5.79703,6.67583
3.07883,0.155135,17.8957,20.9937,-1.0318,17.6055,21.0856,0.362322,17.0994,21.2309,-0.528037,17.2506,21.137,-0.797429
20.8646,0.491455,-7.66933,3.54462,6.27603,-4.68716,3.94898,6.75618,-6.47674,3.89497,7.03341,-3.72722,4.04709,6.25848
5.8182,0.168721,-16.5106,16.5131,-6.87584,-16.4218,16.1544,-6.93193,-14.0495,16.6845,-7.50801,-13.7763,16.5085,-7.48124
2.64399,0.108206,-3.96316,14.6595,7.47786,-4.70331,15.3265,6.9512,-5.1802,15.5644,6.78632,-4.63094,15.4935,6.87444
1.8953,0.0844679,18.3022,14.2963,-5.87248,17.5937,14.1059,-6.30847,18.8023,14.1938,-5.44351,17.6744,13.9715,-6.285
0.684676,0.00702259,-20.369,2.56682,-6.6294,-20.1786,2.54918,-6.75321,-20.2708,2.12539,-6.68085,-20.3687,2.20351,-6.61409
38.8387,0.0515953,-2.23375,22.1697,2.14721,-5.19891,22.0213,2.03763,-6.10802,21.6443,2.59804,-5.40067,21.3031,3.23925
5.19191,0.0836848,-11.715,10.7258,-6.2221,-10.6165,11.3315,-6.5342,-10.8119,11.0003,-6.43825,-10.9814,12.0437,-6.5027
13.2978,0.112824,5.2333,5.79774,-1.49162,6.09125,5.82428,-0.613805,5.14682,5.62286,-0.366957,6.21519,5.88355,-1.52417
0.884425,0.181524,2.23422,23.1579,-0.286645,1.61381,23.1189,-0.241943,1.68044,23.2028,-0.597077,1.68267,23.1649,-0.467274
13.2532,0.247227,6.6618,4.75872,3.04733,8.36746,4.59149,2.94119,8.3756,4.91487,2.26508,7.71755,4.21378,4.12229
7.95614,0.0527887,-7.82035,9.30596,-6.01201,-6.89742,11.0599,-6.55321,-7.02097,10.4997,-6.40617,-7.58575,10.9392,-6.48899
18.494,0.553049,3.44862,18.4309,-7.63222,5.36679,19.3134,-7.30799,3.92499,17.0193,-8.16249,2.73974,17.232,-8.66597
1.17529,0.179095,-0.761735,16.5169,5.83702,-0.00893988,16.5518,5.97821,0.334466,16.727,5.94702,0.264187,16.7281,5.95027
3.8462,0.34378,-8.83072,21.2034,-2.9542,-8.55096,21.3211,-3.69529,-9.92836,21.8457,-3.1123,-8.44647,21.5829,-2.41405
4.19429,0.143755,-17.8535,0.737925,-3.21968,-16.755,0.701842,-3.54929,-18.311,0.758124,-2.36897,-16.8392,0.799929,-3.80207
18.8355,0.616533,9.45382,5.96626,-2.16927,11.575,6.26418,-3.85511,11.2109,6.07848,-3.46518,11.1775,5.84255,-2.44709
2.61523,0.0774585,19.4652,7.87749,-0.613606,20.3113,7.81757,-0.521297,19.696,7.74131,-0.282528,19.3006,7.91063,-1.20119
2.56954,0.264583,2.04994,21.9889,-3.46106,2.07575,21.753,-4.2293,2.33878,21.5755,-4.50386,2.27099,21.5738,-4.49726
33.845,0.158457,1.14052,4.90042,2.38652,1.90628,5.12581,-0.00277399,2.77316,5.18727,0.604385,1.84113,5.11656,-0.00762638
0.667429,0.0129338,-1.86249,15.492,7.23224,-1.86227,15.0087,7.36317,-1.57245,15.6197,7.17504,-1.79308,15.0085,7.36192
38.6935,0.139547,-21.7261,5.64519,1.33246,-21.6815,9.15961,0.587063,-21.5557,8.41267,1.13915,-21.1335,8.31087,2.16479
8.06452,0.642946,18.6157,19.0731,-4.51071,19.0442,15.2132,-4.82376,19.2023,15.0177,-4.65044,19.1434,15.1402,-4.68151
53.3418,0.288799,0.283368,7.60026,-7.53101,-3.37622,6.58811,-7.37833,-1.61,7.83227,-7.24034,-2.58852,5.89117,-7.43551
5.50002,0.0873766,-13.4657,8.37514,-5.34168,-14.2606,7.12104,-5.53541,-14.269,7.3915,-5.50971,-12.2768,8.24235,-5.46083
5.52763,0.328953,-12.1319,21.2672,-2.93038,-13.9571,20.8428,-3.20619,-13.6126,20.9791,-2.82616,-14.1657,21.0291,-2.71676
37.4035,0.692348,14.771,15.2839,-7.25919,15.7804,12.9531,-6.44577,14.1866,12.1965,-7.06416,15.4662,11.8622,-6.67241
10.0284,0.116368,-12.2581,3.21544,5.336,-9.27321,3.37727,6.04699,-8.92079,3.15764,5.99611,-9.12989,3.54577,6.15515
1.70963,0.90142,-8.67001,18.3577,-7.82721,-8.47929,17.4685,-8.15506,-8.70433,17.322,-8.13291,-8.62494,17.3703,-8.12607
12.8387,0.445558,-15.7048,19.802,-4.20634,-16.3545,20.6528,-3.71077,-16.5822,19.6803,-5.65503,-14.668,19.8827,-4.75102
0.182655,0.22029,6.39219,6.02442,-2.37864,6.45955,6.10262,-2.58636,6.3849,6.12935,-2.57427,6.32067,6.11642,-2.5874
4.81056,0.0259421,15.9289,20.7844,-3.02232,16.5438,21.1237,-1.86729,15.6832,21.1088,-2.46371,16.4061,20.6112,-3.20303
1.42301,0.0719908,18.4596,7.89888,-4.05675,18.8307,7.89558,-3.89193,18.0565,7.84864,-3.82184,17.7381,7.65733,-4.49582
2.30009,0.080578,-19.4975,2.13876,-1.08886,-18.5814,2.02922,-0.738476,-18.5839,1.9212,-0.89371,-19.7004,1.999,-1.22468
8.08815,0.0552382,-16.1921,0.754688,-3.14624,-15.0838,1.38492,-4.62476,-14.6573,1.50618,-4.50177,-15.944,1.01903,-4.02243
5.09606,0.0517227,-4.27195,21.4188,-5.88781,-3.41911,21.8747,-5.53511,-3.15811,21.7082,-5.76117,-3.40923,20.9901,-6.57263
7.7025,0.340116,-15.2786,20.4803,-2.72609,-14.0365,20.8357,-3.08468,-15.8047,20.4276,-3.80154,-15.9505,20.8674,-2.46169
5.36615,0.00322778,-11.8757,6.26,-4.92615,-12.536,5.18228,-4.89473,-12.5885,4.76704,-4.89142,-11.2977,5.82669,-4.95738
4.50012,0.0609616,-3.13513,3.48644,-6.03756,-2.43777,3.7777,-6.18329,-3.77905,3.01579,-6.15817,-4.71952,2.67575,-5.36
43.7291,0.00146962,-6.09555,3.18889,5.55744,-4.61271,3.49283,4.2094,-1.58962,4.61817,5.93913,-1.53662,4.55677,5.24656
5.54747,0.161633,-7.81747,3.2465,6.08277,-9.18853,3.86474,6.49671,-8.98245,3.60717,6.2225,-8.56688,3.75742,6.38696
21.0633,0.113725,-10.8595,1.24581,2.837,-13.0086,1.22129,2.33359,-11.3717,0.299467,1.7834,-12.7501,0.325161,1.59388
3.4465,0.572806,0.609679,21.8697,-2.92232,0.136672,22.7959,-2.86901,1.49303,22.0293,-3.4585,1.23835,22.1717,-2.8895
6.91664,0.0832644,8.02696,14.9671,-7.82764,6.32296,14.1223,-7.6322,6.66427,14.2698,-7.59861,8.49421,15.6537,-8.42871
1.86556,0.743256,13.242,7.77752,-6.97532,13.9887,8.48413,-6.90465,14.2617,8.41037,-6.97209,13.9685,8.63226,-7.02486
59.7758,0.684745,-3.4151,4.0061,3.77847,-5.39561,3.77572,2.01515,-9.1207,2.2934,3.49918,-8.86426,2.50494,4.8783
9.62942,0.161347,-3.50846,19.716,-7.48679,-3.02293,20.0956,-7.37513,-4.53882,17.5947,-7.69538,-3.8848,17.2332,-8.19321
24.8992,0.381827,-16.1778,0.739699,-2.91712,-14.2966,0.508685,-2.26085,-14.5629,0.505472,-2.01556,-15.5709,0.606192,-1.49557
2.09368,0.0870233,-7.07655,3.92788,-2.34137,-7.27669,3.64753,-2.46052,-6.47863,4.1869,-2.26429,-7.51283,3.77721,-1.95842
42.0122,0.0803545,-17.0987,4.82104,-6.29846,-16.3957,6.45676,-5.68784,-17.1325,8.05675,-6.22895,-16.2577,8.56127,-5.59035
7.98422,1.16445,7.6492,14.118,-7.415,8.23297,13.2023,-6.9939,8.91981,13.558,-7.17722,8.78339,13.4988,-7.11384
2.00421,0.14751,-11.8518,20.0609,-5.34022,-11.7508,20.3581,-4.68098,-11.5638,20.0992,-5.446,-12.1855,20.2459,-5.66496
81.8958,0.0720174,-3.4287,4.53477,0.957726,-2.33015,4.68053,0.0565175,-0.480066,4.64355,1.84608,0.146562,4.76456,-0.291329
10.3799,0.0446354,-10.65,2.21279,-3.4226,-12.6853,1.2764,-3.35987,-11.3276,1.96623,-2.98778,-12.6508,1.41994,-2.82092
11.7171,0.224988,3.9701,5.49489,0.115643,3.91744,4.9008,1.84744,3.64975,5.0214,1.53703,2.82293,5.0756,1.23491
3.46414,0.0513722,15.8175,21.4341,-1.1671,15.6474,21.4783,0.116223,16.1417,21.4444,-0.0834763,15.6524,21.485,0.216297
7.54834,0.582699,10.1866,7.17662,-6.42472,9.46127,6.19887,-6.53504,10.0246,5.94193,-6.49674,10.0923,5.89847,-6.49949
4.46377,0.425752,19.0143,18.8485,1.6747,19.9406,18.8273,1.5732,18.8141,19.3563,2.12752,19.0024,17.8392,2.81618
7.2086,0.133037,17.648,9.43583,-5.15929,17.1347,8.18796,-5.24545,17.8899,8.79434,-4.98565,18.3158,8.4379,-4.87977
7.10029,0.208141,12.1725,12.1899,-6.62187,12.2889,12.9755,-6.7757,13.5079,11.895,-6.9932,12.661,12.2548,-6.67097
16.3671,0.247615,-14.0191,14.9963,-6.62251,-15.6822,14.6177,-6.64593,-15.3754,13.7494,-6.41825,-13.0481,15.6953,-7.15625
1033.33,1.02736,-12.1935,9.88968,7.17,-1.05211,12.9576,7.58048,-1.11052,12.0154,7.74857,1.59934,6.62686,8.68605
1.67664,0.0726164,-7.47985,16.9091,5.78795,-7.41824,16.656,5.90336,-7.70141,16.6064,5.89215,-6.67858,17.9785,5.75455
4.44369,0.0802241,-17.3561,3.32817,3.58313,-16.6803,2.49017,2.69203,-17.0715,3.45227,3.8175,-17.9865,3.26078,3.68873
2.47518,0.0819456,-20.2839,2.16373,-0.0941678,-20.8681,2.06434,-0.808626,-20.2617,2.0898,0.245564,-19.8054,2.08042,-0.169511
3.47013,0.141454,12.1612,4.7063,5.38758,12.9422,4.20976,6.06551,11.3972,4.58301,5.43341,12.9398,4.17606,6.14447
3.47997,0.149583,10.2659,19.5959,-5.45415,10.226,19.9396,-5.13881,9.35932,19.8109,-6.14301,10.471,19.485,-5.88067
3.61668,0.130101,-12.7922,21.7246,-1.95228,-13.9001,21.5522,-1.72387,-11.8123,21.7164,-1.8353,-13.834,21.5161,-1.86379
5.57566,0.125396,21.3931,14.3863,-2.43894,21.1049,13.8628,-3.13885,21.6016,15.4726,-3.30383,21.5626,15.4292,-3.37187
7.45912,0.218576,20.7434,17.056,-0.724152,21.6827,17.0367,-2.67942,21.7095,16.9732,-2.66515,21.2983,15.9323,0.0308391
2.94452,0.728897,16.4283,17.7103,4.26725,14.4221,18.3567,3.82855,14.3511,18.4843,3.77972,14.0526,18.3911,3.97036
1.87608,0.1348,11.777,18.3507,4.2404,11.8304,17.9563,4.51681,12.6136,18.6954,4.28072,11.5342,18.3417,4.38156
36.9054,0.189435,8.64581,5.95522,-0.247798,12.4482,5.39632,0.256417,12.9644,5.31242,0.0256244,12.3546,5.44591,0.600351
24.3244,0.031934,-9.89653,12.9688,-6.75378,-11.6265,12.4289,-6.40673,-11.7317,13.6234,-6.58955,-11.4942,12.3892,-6.42218
1.73112,0.0395448,20.5553,10.0424,3.3541,21.2703,10.7437,2.61605,21.3827,10.414,2.51598,21.2108,10.7815,2.67676
1.74167,0.00982569,15.6114,21.4761,-0.971683,15.2578,21.551,-1.10693,14.6229,21.5653,-1.73066,14.8301,21.5245,-1.66293
3.29458,0.185358,11.6912,15.9866,-8.04685,11.7142,15.2189,-8.21242,11.3844,16.5006,-7.70492,11.5934,16.7208,-7.47364
6.87983,0.372379,13.1872,6.4706,-1.90731,13.0122,6.50544,-2.46414,11.7433,6.08007,-1.85715,11.8538,6.32761,-2.13125
19.6923,0.305594,-10.3046,2.37038,3.22303,-8.48027,2.56684,4.10163,-11.2648,2.06158,3.53147,-8.79247,2.10089,2.97416
1.75748,0.116272,3.74394,21.9453,-3.95695,3.69458,22.1665,-3.55556,3.77685,21.3394,-4.4257,3.85591,21.369,-4.39418
58.042,1.82756,16.0883,6.01186,3.7266,15.8825,5.34045,0.795091,14.2224,6.19793,2.21376,12.9739,5.83211,2.46583
6.41009,0.857855,14.3047,5.47824,4.74444,14.7393,5.51027,6.32274,14.4555,5.45623,6.72577,14.4872,5.51801,6.7776
10.2233,0.151281,-3.40534,5.00105,-6.8237,-3.89151,4.93812,-6.84174,-1.77865,4.45261,-7.31044,-3.7804,5.90518,-7.05543
4.86106,0.139048,-13.468,12.9403,-6.17305,-14.0101,12.1334,-5.97212,-14.5784,12.4338,-5.96842,-14.7228,12.7543,-6.04458
44.8468,0.484634,9.62688,9.16393,-6.43192,8.26528,6.38561,-6.63019,9.49823,10.9654,-6.92936,10.6365,10.2894,-7.12852
42.6977,0.766817,3.40538,10.843,6.20943,8.79407,10.1095,6.82054,5.65471,12.6301,7.16492,2.66567,12.2013,7.15438
35.3351,0.413672,-15.1503,0.57207,-1.15022,-14.3152,0.627212,-2.92494,-12.3245,0.123046,1.48753,-12.9406,0.349175,1.58754
56.5322,0.133051,14.2752,15.7677,5.75483,12.5996,17.8327,4.59634,13.5168,18.2522,4.38938,14.5719,17.8773,4.57181
49.9979,0.0906348,1.7044,22.6036,1.2989,0.125444,22.0158,2.50123,-0.232306,22.5103,1.47616,1.85254,21.6624,3.0881
48.8713,0.0427959,3.43017,5.74431,-2.78754,4.44373,6.0568,-4.49663,6.20957,6.36264,-4.04067,5.8679,6.26305,-3.27601
6.39069,0.00823358,1.36996,5.54032,-6.06076,3.05256,5.76866,-5.89283,2.72641,5.4727,-5.20127,2.29016,5.56578,-5.67341
22.7302,0.285926,8.37772,19.4801,4.07576,8.33273,17.8737,4.99927,9.95512,19.5815,3.89595,9.51601,20.6429,3.63074
5.1717,0.234979,-8.6497,20.8139,-5.90628,-6.66694,21.5267,-5.29047,-7.50988,21.4335,-5.45731,-10.1892,20.457,-5.96493
16.2979,0.127712,-13.9181,11.5825,-5.87446,-14.8012,10.853,-5.61511,-13.3063,10.0619,-6.02216,-14.1335,9.64757,-5.6867
143.981,0.553423,-17.3228,13.4996,-6.54643,-18.2901,9.30982,-6.50409,-16.8477,9.51042,-5.85712,-19.2455,10.9829,-6.87493
4.12203,1.54388,5.91774,21.0472,-4.72336,8.40141,21.1493,-4.59842,8.33143,21.1959,-4.57115,8.61374,21.0596,-4.71504
1.89496,0.055707,8.13294,11.6717,6.5002,7.67282,11.6366,6.92214,9.00474,12.3936,6.74377,7.85511,11.5181,6.63888
2.68536,0.0424164,-14.1991,1.35679,1.87246,-13.0115,1.19959,2.29542,-13.0169,1.12985,2.2248,-14.5529,1.32221,1.58512
13.1737,0.123188,-0.959923,4.68561,6.20083,-2.2542,4.39508,4.16281,-2.19289,4.42222,6.36622,-1.63121,4.46766,4.31429
90.762,0.86563,1.95386,15.462,-7.69963,5.59642,15.2176,-8.07287,6.70149,13.1659,-7.3263,6.6552,14.5527,-7.74169
3.09335,0.159827,-12.1558,17.2669,4.97563,-10.5969,17.5893,5.91954,-10.6626,17.7506,5.80908,-10.9994,17.4984,5.7304
14.5671,1.77768,10.0173,14.748,6.59587,6.74292,16.0898,6.54329,6.03649,15.7881,6.66263,7.95338,16.494,6.27419
1.66361,0.231226,-0.236183,17.8951,-7.77824,-0.991248,18.0343,-8.47861,-0.164816,18.1703,-7.8897,-0.0728206,17.7772,-8.03405
61.9802,2.18059,-11.1709,2.01743,-2.33564,-8.99195,2.093,0.0830735,-10.0681,1.41847,0.122464,-10.5483,1.49573,0.0626963
9.43648,0.148405,3.69951,4.63609,4.08573,5.23025,4.94343,2.14744,5.44852,4.90376,3.2155,4.41315,4.8703,2.93293
13.4462,0.352711,-2.46467,19.0545,4.55828,-2.95615,18.5309,5.45441,-1.16129,18.8648,4.90028,-3.12527,19.7296,4.63223
12.4501,0.274228,-13.1392,17.9541,-6.72726,-13.44,18.3538,-6.7357,-12.0643,19.4473,-6.68037,-12.5831,16.8888,-7.80339
24.8501,1.09655,18.8141,7.98672,-2.89088,16.2979,7.59494,-3.71377,15.4579,7.23743,-3.57255,16.9427,7.45486,-4.55647
8.73296,0.300318,-15.3573,19.3596,-6.36048,-16.2569,17.2897,-6.74283,-16.5506,17.5469,-6.55325,-16.8472,17.356,-6.56698
3.97975,0.0529615,5.40768,20.0146,-6.39351,6.35609,19.8903,-6.79669,6.04117,20.4222,-6.21397,4.59596,20.0372,-5.98538
3.04442,0.150597,-15.8108,9.1974,-5.30477,-16.2578,8.60149,-5.58831,-16.0277,9.69592,-5.382,-15.4373,8.81116,-5.50524
46.602,0.772888,-15.2176,3.13847,3.53435,-12.599,4.05187,5.85477,-13.6352,4.00355,5.65143,-12.9622,2.74608,4.57641
6.29094,0.177203,-4.02292,19.2989,4.5962,-3.29159,20.7231,4.07022,-3.43425,20.7987,3.99996,-2.40691,20.6284,4.27964
17.6508,0.23816,-16.0828,3.96337,4.48916,-15.4958,3.00277,3.3594,-14.3972,3.95684,5.33418,-17.271,3.7645,4.3715
0.622438,0.0385488,-14.538,9.12192,-5.53927,-14.31,8.67413,-5.56288,-14.0257,8.68157,-5.58425,-14.2299,8.6324,-5.57327
18.4067,0.406418,-13.3075,1.43553,-4.72717,-12.1581,2.50304,-4.97796,-12.5375,3.40324,-4.95336,-12.6902,3.6263,-4.92039
1.20268,0.147181,-7.54751,3.78298,-1.11896,-7.94581,3.44627,-1.13704,-7.18334,3.78615,-1.185,-8.0404,3.58347,-1.38509
8.73763,0.147843,-1.34664,22.9644,-2.52319,-3.93606,22.2684,-2.51645,-0.0337903,22.9839,-2.76673,-4.00031,22.1781,-2.72013
17.7499,0.40093,7.3928,5.86582,-2.50585,6.48635,6.11585,-2.76928,6.71719,6.47059,-3.89713,6.44875,6.38056,-3.83128
6.27151,0.0369482,3.75556,4.70407,6.99926,1.73002,4.42073,6.1723,3.26683,4.69362,7.02156,2.2114,4.41461,5.74926
11.3106,0.0902025,-8.8979,2.90162,-3.02116,-7.97721,3.6536,-1.50642,-8.71503,3.04069,-2.30465,-7.84864,3.70144,-1.68868
0.696866,0.0128399,20.7516,6.50414,2.70548,20.3183,6.31775,3.08723,20.5291,6.35718,3.1144,20.8631,6.4789,2.87542
0.0987187,0.0934909,-1.39738,4.8109,-1.32226,-1.33663,4.85376,-1.44637,-1.28695,4.86147,-1.43454,-1.29941,4.88749,-1.38367
1.73517,0.192409,-0.438273,11.5918,7.36016,-0.535355,11.3234,7.612,-0.0204439,11.6669,7.46903,-0.617896,12.012,7.53487
124.558,0.133553,16.3867,13.4349,-6.54543,17.3592,9.84179,-5.25778,18.6563,10.59,-5.47218,18.5535,9.55758,-5.08234
4.33938,0.068068,-1.93938,21.472,3.20843,-1.04132,21.6993,3.02984,-2.35549,21.2371,3.61379,-2.21683,20.987,3.92759
3.4724,0.23599,5.07383,19.8618,3.35974,5.85107,20.6701,3.78947,4.07253,20.4873,4.01604,4.98442,19.6203,3.53897
4.35522,0.0791561,9.58165,14.6574,-7.69969,10.5542,14.5153,-7.74963,11.2485,14.6418,-7.89892,9.56695,15.2765,-8.30867
14.8994,0.303924,6.20574,5.88333,-1.43503,8.19092,5.88535,-0.609381,7.52556,5.99113,-1.45235,7.88165,5.93099,-0.419522
40.0335,0.600498,2.93045,10.2641,6.90827,3.79782,6.99349,8.46169,2.63342,5.24811,8.62612,3.48468,10.7939,6.20088
2.64029,0.173264,19.7036,14.8485,-4.54148,20.888,15.9674,-4.13667,20.7431,15.9573,-4.2195,21.0153,16.2086,-4.08001
2.97161,0.0803421,-1.69013,22.8654,0.0878608,-1.07143,22.9159,0.285038,-1.97513,22.7185,0.754997,-1.41694,22.7733,0.670481
3.62474,0.709351,-6.38081,8.0007,-6.20557,-6.42616,7.13135,-6.1726,-7.34824,7.63028,-5.89786,-7.2798,7.58641,-5.89982
6.55407,0.0289331,2.47306,21.9495,2.64579,3.91763,22.2825,2.02577,2.95922,22.3694,1.87598,4.12762,22.2196,2.14449
10.9871,0.0168628,3.72325,12.8313,-7.45962,3.12748,11.9515,-7.61098,1.85097,12.691,-7.84163,1.66137,12.2324,-7.90417
3.05367,0.0434441,1.92886,11.5095,7.58013,2.21238,11.546,7.53751,0.322647,11.6346,7.5175,0.0381807,11.4931,7.52113
4.04813,0.574016,-9.64464,18.215,-7.56742,-9.44201,17.1542,-8.09472,-9.6761,17.1911,-8.07168,-9.51665,17.061,-8.08008
4.67194,0.0290877,-12.8743,4.6138,-4.85123,-12.2601,3.54994,-4.97854,-13.3325,4.23787,-4.89041,-12.3551,4.00139,-4.94295
2.44622,0.169402,-20.2059,2.91953,2.589,-21.2746,3.10677,2.5058,-20.914,3.24575,2.78493,-20.9841,3.24801,2.78431
97.5192,1.12351,-4.69416,15.5714,6.80445,-6.09391,20.0488,4.23018,-6.05262,17.904,5.82734,-7.49394,16.5731,5.93909
1.29996,0.0479721,-8.55616,21.334,-3.75655,-8.01513,21.6194,-4.63463,-7.95364,21.6449,-4.75786,-7.87744,21.6865,-4.63154
4.30503,0.0837196,10.3514,17.014,5.30717,7.74102,17.1768,4.83682,8.15264,17.2358,4.87859,7.73908,17.2218,4.82659
1.43025,0.0857927,12.5566,8.5134,6.82069,13.0487,8.19405,6.85212,11.7192,9.29807,6.56139,11.9971,9.17546,6.64262
72.0524,0.834384,-21.3541,2.45119,1.6879,-17.8128,1.94642,1.67826,-17.8979,3.61553,4.26474,-17.9442,2.52102,2.49783
12.0482,1.4466,-6.25312,22.2332,-1.00995,-6.35691,21.4036,-3.71015,-6.12954,21.464,-3.7632,-5.84879,21.7541,-3.64169
21.3105,0.26983,8.35777,6.22827,-1.64396,9.59369,5.88407,-0.64064,9.49131,6.04139,-2.88789,6.45438,6.00475,-2.23667
1.17643,0.20245,-4.18839,17.9817,6.11372,-5.29089,16.8596,6.1441,-4.80582,17.2046,6.21546,-5.08314,17.1453,6.17937
29.685,0.201317,-16.0764,5.47034,-5.81228,-16.2614,3.21962,-6.4695,-16.4795,3.34843,-6.502,-15.2704,4.21414,-5.74881
14.0079,0.29738,20.7705,10.274,-4.26452,19.4461,10.1543,-5.27423,20.2804,12.2451,-4.92951,20.0747,12.3186,-5.18386
2.62423,0.026639,-12.5607,15.7638,-7.28091,-11.9769,15.1442,-7.1769,-11.8576,15.9029,-7.54632,-12.1149,15.188,-7.16253
2.14479,0.0764923,18.7956,16.6801,3.07657,18.8526,16.8496,3.01628,19.847,16.4352,2.57008,20.0084,16.5073,2.39137
5.10767,0.141299,0.448502,18.5529,-7.72517,-0.0335414,18.3179,-7.90118,0.349895,17.344,-8.22962,1.11539,19.4848,-7.65149
8.07167,0.267493,1.17489,15.7931,-7.5767,0.137677,15.5238,-7.50487,-1.05518,15.849,-7.5882,1.74817,15.4132,-7.69735
6.45155,0.271341,-4.91222,21.7844,-2.46851,-4.0012,22.2797,-2.46593,-5.8342,21.6889,-2.89377,-5.93059,22.0927,-2.07538
22.4693,0.0571228,12.8252,5.68799,2.79979,11.0571,5.65141,2.06786,10.4942,5.3032,2.4791,11.506,5.03476,3.56463
16.5778,0.0471141,5.88262,8.00459,7.61897,3.90082,10.4615,6.37833,5.98322,9.39816,7.56221,6.84483,6.68134,8.14692
13.5169,0.275978,18.7368,13.5424,-5.2479,17.855,13.3374,-6.20034,18.9201,12.4127,-6.01695,19.0664,14.2526,-5.06728
13.1449,0.384206,5.87387,18.7475,-7.53619,6.92489,16.9498,-8.1935,6.5556,17.3376,-7.94228,6.37,16.8015,-8.2191
12.7531,0.373075,17.8923,6.64093,4.11232,18.7388,6.55717,4.55077,15.8204,5.86794,4.54081,16.261,6.09549,5.0258
14.5825,0.241699,10.6709,19.0085,3.85795,9.86313,19.0269,4.12698,11.1748,20.8866,3.25154,11.4033,18.3897,4.39891
7.14851,0.0128181,5.04126,22.3397,-2.82855,8.22084,22.2616,-2.94764,4.01316,22.2131,-2.95756,7.74348,22.3572,-2.81884
2.77764,0.244144,-2.52086,16.9501,5.72909,-3.07811,17.8503,5.96916,-2.91095,17.3618,5.8842,-3.209,18.1542,5.87325
18.4807,0.458497,-1.60073,4.97535,-5.36428,-4.65486,3.75736,-4.58059,-3.12589,4.62121,-5.09954,-3.16524,4.68742,-4.39347
2.2319,0.122968,-16.6124,15.3217,-6.79138,-16.3549,15.1114,-7.08644,-16.2745,16.1181,-6.9948,-16.8999,15.4448,-6.76967
5.95202,0.0499492,4.09225,5.84059,-2.18269,3.79016,5.61706,-1.73199,3.88725,5.92618,-2.67618,5.19511,5.8718,-2.12952
18.3438,1.23893,-6.72042,9.77712,-6.31544,-6.172,8.10882,-6.31341,-5.84511,8.54301,-6.52858,-4.62086,9.70738,-6.91857
19.738,0.998553,6.01844,5.82152,-0.571639,7.95759,6.04207,0.534013,7.29543,5.66499,0.897558,8.5153,6.09153,0.474541
14.2652,0.364682,-19.3824,10.6144,-6.93654,-19.8631,8.49266,-6.85023,-18.9676,8.87853,-6.61194,-19.3689,8.40848,-6.62166
2.75061,0.128872,17.4505,16.5703,-6.40322,18.5617,17.6035,-5.55462,18.6627,16.546,-5.62995,16.9087,16.2856,-6.57322
24.938,0.253306,14.0426,6.15055,2.11345,14.9534,5.36119,0.134657,14.7854,5.43366,-0.151766,13.8489,5.9335,1.20598
18.5762,0.794228,-15.8972,1.80434,0.984622,-17.17,2.13355,0.315573,-15.9238,2.52835,2.54712,-17.2593,1.96079,1.65649
1.33082,0.121243,14.1478,21.7012,0.812733,14.2684,21.8227,0.0947893,14.6946,21.7265,0.204457,14.413,21.7429,0.258507
1.44109,0.156185,-17.0963,17.0184,2.82797,-16.9518,16.4374,2.73879,-17.0971,16.6674,2.72162,-16.8721,16.4783,2.72317
16.5561,0.363873,-1.17949,5.02594,-5.22926,0.522211,4.93783,-4.53351,1.39164,5.37572,-5.58695,1.66056,5.48052,-5.7625
73.0957,1.74142,18.8504,17.7895,2.95239,19.8698,15.8041,2.42818,20.8331,16.8725,1.43267,18.3734,13.4066,4.66453
6.20911,0.462979,-9.07511,17.0216,5.49674,-8.5891,15.962,6.53022,-8.3279,17.8661,5.49351,-10.0462,17.1564,6.05891
29.9886,0.270972,-9.70214,11.3216,-6.52772,-8.80366,9.74296,-6.26182,-8.54901,10.1277,-6.40116,-10.4111,9.07287,-6.00828
1.3129,0.0696697,-13.4975,0.910779,-3.21594,-13.266,0.903164,-2.76892,-13.0688,1.00219,-2.80112,-12.9428,1.10575,-3.24471
4.01398,0.0324811,-6.1616,20.8042,3.7684,-6.56895,21.1369,3.34961,-4.91139,21.1662,3.47818,-4.56477,21.0425,3.67339
8.69653,0.255142,8.61881,8.34342,-6.3369,7.71325,6.18049,-6.60292,7.27853,6.75723,-6.59211,7.55825,6.53813,-6.57414
19.8417,0.0667878,-2.69615,10.8531,-7.33024,-3.11183,12.9277,-7.21823,-2.77589,13.2594,-7.18189,-4.01878,12.8515,-7.28669
4.63947,0.165696,17.5618,17.6394,-5.87698,18.4722,18.4262,-5.12021,16.5323,16.7169,-6.35259,18.4545,18.506,-5.09287
2.65209,0.554807,-13.5119,18.3517,-6.76404,-14.5331,18.1081,-7.24882,-14.6814,18.287,-7.24782,-13.8936,17.7712,-7.27218
4.50952,0.0495252,-11.1378,20.6357,-3.81086,-11.1694,21.0481,-2.94453,-11.3613,20.7342,-3.43032,-11.3935,21.1013,-2.75066
4.79474,0.107567,-6.03672,6.18349,-6.10306,-5.7373,5.42328,-6.161,-5.45228,5.16021,-6.21336,-5.18145,5.7331,-6.46034
6.23896,0.0348531,10.1833,22.4972,-0.146018,8.52529,22.777,-0.969139,9.42469,22.6034,0.185661,9.33202,22.6264,-1.34484
7.02294,0.321742,-8.51815,21.6198,-2.32806,-7.1749,22.5561,-0.958423,-7.33126,22.6244,-0.674766,-7.24801,22.5326,-0.936101
1.83471,0.143549,11.0726,8.21637,6.93734,11.993,7.38038,7.17518,11.9887,7.29231,7.19651,12.7742,7.71571,7.00396
4.56248,0.107396,-3.13452,22.3206,1.63483,-2.80647,22.7161,0.665726,-4.24681,22.438,1.30505,-2.66302,22.7541,0.583259
4.53761,0.100765,6.72753,22.8596,-0.418964,4.44726,22.8611,0.545036,4.86696,22.9171,0.228467,4.57662,22.842,0.583712
8.80089,0.0215954,1.86397,8.28286,-7.27811,0.189904,8.23454,-7.53693,0.372885,8.97009,-7.50592,1.88748,7.59825,-7.25258
2.92732,0.108261,13.1867,16.2494,5.432,12.9295,16.6315,5.06597,13.351,14.9667,6.13221,13.2848,14.9727,6.13164
9.65882,0.525222,8.36384,4.10616,6.07927,8.45665,3.91777,7.42096,9.14045,3.92751,7.34733,9.83,3.87911,7.05053
29.0589,0.323324,6.12519,4.48166,4.89409,7.02527,4.23649,4.53649,5.78635,4.91616,2.48869,6.39091,4.8976,2.50538
8.61895,0.267378,9.30885,5.95301,-1.80422,11.9606,5.82416,-1.3008,12.4231,5.95507,-1.53533,12.4102,5.92564,-1.44894
22.3767,0.330234,7.57007,6.36592,-4.51215,9.79169,6.05157,-3.01772,10.2147,5.97316,-4.1913,10.1998,6.02898,-3.20138
6.05313,0.463121,-9.00299,19.1308,4.14026,-8.6405,18.6394,4.83482,-8.09875,20.5844,3.74044,-10.0522,19.2924,4.81825
8.69434,0.663142,10.6337,20.3478,-3.80774,11.2325,19.4503,-5.90057,10.1875,20.2734,-4.38257,11.1038,19.4376,-5.76599
17.2996,0.243169,-11.0938,1.96608,-4.06078,-12.0152,1.36121,-4.24276,-8.68611,3.44996,-5.03849,-8.68177,3.15954,-4.63834
5.32536,0.640149,-14.7216,19.608,3.84106,-14.2571,20.6794,2.66776,-14.582,20.6623,2.57217,-14.614,20.6574,2.574
4.61568,0.214563,11.0194,7.753,-6.35038,9.65135,8.57391,-6.49186,9.85724,8.81477,-6.57345,10.0008,8.7313,-6.53553
7.33472,0.0471558,1.6631,4.64749,3.47125,3.7606,4.73422,3.48208,3.55384,4.73827,3.4293,3.99888,4.81971,2.95247
21.9377,0.261321,-5.86895,13.6672,-6.77255,-5.44853,11.637,-6.89497,-7.30654,12.6926,-6.60101,-7.84189,11.9913,-6.69694
7.87454,0.206498,3.11656,19.0079,4.89767,0.674362,18.9725,4.76535,0.603813,18.848,4.83638,4.41851,18.9956,4.62379
1.20027,0.00840532,-22.1378,4.93907,-0.13124,-21.9546,4.88713,0.720535,-21.9357,4.90879,0.806992,-21.9864,4.78044,0.568794
17.134,0.237059,20.3059,18.5873,-0.365846,20.766,16.1217,0.675352,20.7805,19.7437,-1.66669,20.3968,19.4287,-0.455558
1.43831,0.00878112,-21.5407,10.9247,-3.6296,-21.3617,10.8194,-4.19799,-21.5233,11.1305,-3.63274,-21.2689,11.3475,-4.27384
0.0753974,0.0622866,14.6553,5.56438,0.459094,14.6029,5.51377,0.422231,14.6581,5.50067,0.512847,14.735,5.47221,0.419121
0.0203754,0.181164,4.94978,4.99524,0.924202,5.15325,5.06371,0.954241,5.1512,5.04771,0.997603,5.15384,5.07348,0.911
4.97022,0.073363,2.43432,4.65189,6.8075,3.20447,4.68004,7.08212,1.81181,4.48925,6.5975,1.71551,4.26112,7.70706
34.2784,0.19757,13.3542,10.274,-7.44516,11.0161,11.3007,-6.98327,11.0614,10.0871,-7.26114,10.6428,11.6879,-6.82712
1.07352,0.0690565,-19.0114,13.7095,-6.51395,-18.0903,13.6728,-6.85524,-19.5225,13.5336,-6.27793,-19.5427,13.4569,-6.29955
11.9247,0.284863,4.44132,5.62491,-5.88491,5.72264,5.26957,-6.24077,6.55678,4.85774,-6.17965,7.38257,4.49536,-5.63883
13.7062,0.115424,16.5669,10.1903,-5.47211,15.7221,8.42164,-6.2247,15.711,8.60338,-6.22717,17.0301,9.14971,-5.32931
3.66303,0.145175,22.1545,13.6689,-0.614668,21.895,13.6611,0.00418564,22.1734,13.0366,0.0948085,22.1739,13.5174,-1.29109
6.80076,0.103909,-1.36147,21.5988,-5.56995,-1.5139,22.3007,-4.78239,-1.2658,21.124,-6.39485,-2.09478,21.8015,-5.38993
22.4171,0.217356,10.9232,5.60314,2.19029,8.14564,5.93931,1.26213,7.71092,5.97194,0.645184,10.0906,5.87227,1.3754
3.53091,0.296793,-6.16199,22.2649,-0.929146,-5.98661,22.5613,0.134595,-6.06247,22.5197,0.311338,-6.21663,22.4866,0.019113
1.50629,0.0902866,-1.05892,4.48585,-6.78606,-1.22149,4.35053,-7.13152,-1.56058,4.2217,-7.09966,-1.76175,4.13231,-6.87762
163.09,0.202553,4.76064,6.99415,-6.81367,6.6582,8.52011,-6.66269,7.81792,11.2222,-6.95447,5.42305,11.9698,-7.27615
0.250726,0.00810598,-20.6575,10.6791,-5.56968,-20.6612,11.0377,-5.46099,-20.641,11.0265,-5.49914,-20.7097,10.9905,-5.39398
23.2949,1.28726,-18.6998,6.71112,-6.06611,-19.0157,8.23288,-6.54223,-19.9256,8.1692,-6.79345,-17.8971,8.00288,-6.50014
13.1946,0.671678,-0.685583,4.7734,5.92496,1.70906,4.58336,5.04181,2.04105,4.43447,4.65358,2.12909,4.46294,5.31238
8.67744,0.853919,3.72274,22.2167,-2.83472,1.30954,22.3083,-2.8237,1.63228,22.0481,-3.31912,1.89384,22.8348,-2.50153
2.59525,0.268037,-8.33176,17.9866,5.42538,-7.7673,18.4952,5.39857,-8.57663,18.6093,4.88943,-8.71166,18.5268,4.95563
1.01503,0.561313,17.4866,7.59393,-2.50373,16.8396,7.58815,-2.85117,16.9882,7.33837,-2.30664,16.8352,7.59493,-2.8971
21.8501,0.200066,-21.3929,5.11504,2.1822,-21.9214,5.00941,0.818144,-20.414,6.23628,3.57992,-20.9072,7.22663,2.74167
0.211588,0.000238246,8.78229,4.47006,-5.47145,8.84801,4.51396,-5.65066,8.77787,4.50358,-5.60171,9.00283,4.46553,-5.47834
25.9956,0.0737035,-3.73441,10.6261,-7.27182,-7.45401,11.1282,-6.49133,-7.48137,11.726,-6.59417,-5.39053,9.89489,-6.70826
5.31078,0.111386,-12.3091,17.0544,4.87634,-13.5664,17.0581,4.11322,-11.932,17.1916,5.2487,-13.2452,16.7167,4.44132
26.6396,0.432935,-19.8832,2.36659,-6.71745,-19.8889,5.09149,-6.45133,-19.3023,4.14774,-6.35304,-19.543,5.00099,-6.25674
56.3457,0.811333,-1.85785,4.42302,3.98078,-4.18149,4.15685,2.33404,-3.10758,4.31632,1.62172,-3.58376,4.47917,1.13207
16.5814,0.129829,-2.30935,13.8649,-7.14508,-0.31524,14.7303,-7.44522,-0.485366,13.403,-7.44198,-2.0551,12.3794,-7.31139
7.18757,0.0600113,7.02751,15.7286,-8.21417,6.09344,16.7877,-8.25318,6.85126,16.9028,-8.18441,5.90153,16.0998,-8.32883
3.40438,0.097777,20.1433,12.9586,-4.90388,21.0045,13.7748,-3.37217,20.6833,13.2748,-3.91277,20.9893,13.6193,-3.3014
1.53111,0.224119,-18.231,0.728684,-2.23858,-18.4993,0.988176,-1.13592,-18.5738,0.947788,-1.31883,-18.4258,0.850922,-1.42906
2.25735,0.181505,-4.48702,14.1905,-7.03518,-6.02699,14.0283,-6.80835,-6.29828,14.115,-6.86826,-6.37504,14.2022,-6.9196
1.46708,0.00361875,-20.7819,19.86,-2.921,-21.0259,19.9647,-2.39001,-20.9052,19.4499,-2.89126,-21.109,19.8735,-2.27837
7.18542,0.163401,0.318408,12.9309,6.52098,3.07667,13.0012,6.97281,4.3977,12.901,7.11609,4.32864,12.8492,7.111
3.5427,0.078487,-15.1284,17.2697,3.27747,-15.5507,18.0555,3.40721,-15.7858,17.9248,3.45874,-14.8333,16.7689,3.32076
6.31767,0.0427022,-18.1931,3.76589,-6.15837,-17.1353,4.23654,-6.44293,-17.498,4.58237,-6.34677,-17.4166,3.80987,-6.38705
12.8344,0.0115209,3.39508,5.35097,-0.498106,2.65701,5.20152,0.137133,0.863651,4.92114,0.19111,1.01733,4.98173,-0.30334
3.93141,0.133509,3.89914,16.7692,6.08987,2.21321,16.7085,6.04956,2.3549,16.628,6.10663,4.75806,16.61,6.00392
4.52923,0.00315853,-14.7288,19.9412,-4.62156,-12.5072,20.5529,-4.87947,-12.6483,20.447,-5.06837,-13.342,20.2487,-5.01343
4.81202,0.688199,-16.8048,16.2225,2.82229,-15.8411,16.6533,3.81581,-18.0438,15.9591,4.26321,-15.6448,16.6294,3.92663
13.4462,0.125279,-12.635,10.9993,-6.00668,-12.4851,12.9889,-6.35684,-12.77,12.9745,-6.30953,-11.7786,12.7431,-6.40952
2.10344,0.0939075,13.6004,11.3609,-7.15149,13.2702,10.7715,-7.48037,13.9341,11.6472,-7.18691,13.366,11.7109,-7.03508
2.24869,0.229801,17.4397,14.8012,-6.55462,18.8703,15.0039,-5.60653,18.9313,15.0373,-5.54012,18.4274,15.032,-5.95273
5.01521,0.189516,-3.09537,4.29943,6.71913,-1.55378,4.22723,7.54669,-1.4863,4.2334,7.28859,-4.24706,4.01797,7.05573
6.34468,0.05103,-7.77462,16.4303,5.93619,-6.54742,14.9659,7.40768,-6.47637,14.9263,7.43072,-8.36089,16.4845,6.17693
0.834416,0.0190919,3.82967,4.86365,2.11557,4.74885,4.87995,2.15705,4.68072,4.89733,1.97188,4.67681,4.88769,2.05804
15.7393,0.189038,-9.64332,14.0382,-6.9362,-8.51571,13.4399,-6.92251,-7.49045,14.1697,-7.07388,-7.29364,14.5434,-7.1011
2.10351,0.0284514,22.0889,12.1774,0.611166,21.9972,12.1418,0.812539,21.519,12.7761,1.08068,21.4695,12.9633,1.03244
15.1289,0.532641,-10.9937,18.5313,-6.73745,-11.651,17.8263,-7.70752,-11.7279,19.374,-6.74007,-7.86205,19.2296,-7.39655
5.504,0.332712,0.486603,14.4585,7.20189,0.307394,16.3446,6.28472,0.350491,15.898,6.59807,0.513017,15.8239,6.66445
128.006,0.097048,-19.4668,20.1009,1.57857,-15.2786,20.5268,2.59552,-14.628,20.8309,2.34525,-14.9783,21.5832,0.782517
3.61811,0.322154,-2.00672,5.22954,-7.46642,-1.425,6.4763,-7.33532,-1.27398,6.2993,-7.34169,-1.34415,6.29601,-7.33114
26.4048,0.281502,11.8534,5.0041,4.09183,8.49205,4.12989,5.54651,9.92023,4.53773,3.87095,9.83094,4.14387,6.44029
16.111,0.0825166,-7.47205,3.08446,0.306792,-5.1142,4.35113,0.289499,-5.69948,4.05062,-0.413761,-5.14571,4.36986,-0.405317
14.364,0.325123,-10.2085,2.6132,-3.07581,-10.617,2.10557,-2.52202,-8.98728,2.70856,-3.79107,-7.92769,3.0213,-3.30987
5.22821,0.446723,9.29898,16.4694,-7.71432,8.5701,17.3727,-8.17465,8.69863,15.7538,-8.44241,11.1097,16.6735,-7.74209
17.0451,0.387968,19.3844,7.39308,4.20473,20.1506,10.0615,3.54521,20.2704,8.64926,3.71972,19.1119,9.76984,3.51522
13.2239,0.515943,-11.2202,20.6007,-3.84487,-10.2574,20.4694,-5.91615,-11.5027,20.0998,-5.39035,-10.721,20.3169,-5.51136
147.255,0.515856,-3.20506,4.51095,-1.69041,3.11048,5.31089,-1.4502,3.49115,5.70107,-2.46904,-0.756494,4.85814,-0.772458
2.30414,0.0225241,-19.1117,20.8106,-0.943767,-17.6744,21.1411,-2.39265,-19.173,20.7818,-0.639335,-17.7405,21.1361,-2.38354
9.91084,0.390658,-10.2794,22.329,-0.127922,-10.4574,21.2932,2.62725,-10.3891,21.3039,2.63071,-10.2479,21.5196,2.27001
0.307492,0.0169482,4.67333,19.5803,-7.15085,4.53837,19.611,-7.16334,4.41714,19.7734,-7.04745,4.74127,19.6249,-7.12942
6.16911,0.173657,-1.51949,14.9105,-7.39674,-0.0530779,15.0137,-7.45577,-0.203932,15.3699,-7.46643,-1.04216,15.5773,-7.5314
2.09472,0.0195345,-6.74153,3.71299,-2.70427,-7.13399,3.58571,-2.71387,-7.66703,3.06129,-3.40075,-7.73046,3.06916,-3.35877
66.7157,0.192365,4.41853,10.9392,-7.43921,1.30838,10.1016,-7.53767,2.0836,11.7422,-7.84377,0.539525,10.3029,-7.5939
4.72637,1.02936,7.82176,8.74047,6.40021,6.63825,9.58671,7.37211,8.12834,7.64621,7.66322,8.19831,7.6402,7.65883
23.8668,1.1426,-2.08058,15.2124,-7.49359,-5.06368,15.084,-7.19898,-4.34778,14.1942,-7.05397,-4.35376,14.467,-7.03464
2.18119,0.163321,20.6895,18.4288,1.17837,20.8491,18.1933,1.07161,20.7081,18.0993,1.58534,19.6082,18.5773,1.80876
12.6358,0.418017,-6.43336,21.27,-4.47966,-6.28236,21.4083,-3.71537,-5.02996,22.1669,-4.28621,-4.33471,21.6385,-5.65392
14.8012,0.61391,20.4328,14.2336,1.30055,21.1643,11.5926,2.48252,19.74,15.6971,2.94111,20.0921,16.296,2.11877
4.43872,0.0205015,13.5641,19.5796,2.45983,13.3115,20.7318,2.38761,13.2759,21.035,2.32439,12.8618,19.6709,3.63909
5.76556,0.19092,15.1286,7.70478,-6.05431,16.1777,7.5867,-5.76862,14.9836,6.73523,-5.82895,15.2598,8.18583,-6.48742
2.89805,0.0343494,-14.7603,1.41994,1.5396,-14.4135,0.930365,1.60199,-15.8403,1.23048,0.739438,-16.1072,1.6161,0.729978
0.30695,0.109477,-5.15632,3.47448,3.17583,-5.30606,3.45943,3.15848,-5.42416,3.30787,3.2212,-5.29861,3.46645,3.02815
3.98499,0.0346691,1.80625,13.8329,-7.89753,2.70344,13.8554,-7.75291,2.94069,13.313,-7.63103,3.41612,13.5555,-7.56669
36.3985,1.0131,-15.9144,10.0635,-5.328,-16.501,11.6252,-5.91576,-15.748,12.0184,-5.84325,-17.1851,11.384,-6.12483
3.00033,0.0541913,9.27552,19.6908,-6.33244,9.47506,19.586,-6.48844,8.22301,19.3535,-6.98948,8.2925,19.3122,-7.02084
3.27464,0.826311,8.51333,10.4112,6.72293,8.27042,11.4944,6.53626,7.91008,11.4203,6.61454,8.07137,11.4058,6.54466
25.3891,0.179297,-17.4108,2.11333,-6.22714,-18.0241,3.45374,-6.19968,-19.0998,3.73553,-6.36253,-18.4874,2.6154,-6.22027
8.34381,0.0562337,-4.93524,2.71988,-5.81032,-7.64902,3.27067,-4.97723,-5.95442,3.16901,-5.71466,-7.52656,3.50892,-5.30723
52.5052,0.00345729,21.7831,8.52069,-1.12407,18.6356,7.8972,-3.32342,19.0299,7.95638,-3.97444,18.7444,7.93393,-2.52736
3.85071,0.104494,15.5915,10.5222,-6.37879,15.1944,9.62043,-6.80551,15.9188,10.8472,-6.21723,15.6802,9.74016,-6.17145
7.83201,0.175109,17.2657,18.7237,3.55315,14.9269,19.2084,2.84314,18.0036,18.4976,3.53192,16.855,19.2249,3.31895
148.145,0.461548,-9.46101,14.7269,-7.00954,-5.36888,17.7335,-8.35465,-7.24108,17.6078,-8.25421,-1.42903,16.5704,-7.69527
41.8902,0.805819,8.05895,6.07889,0.0312823,12.8283,5.63349,1.85451,11.7551,5.61153,0.841093,12.6834,5.34842,1.23643
11.1833,0.658238,-14.2368,16.1862,3.2368,-13.2455,16.6322,4.50733,-16.1152,16.3054,5.11755,-14.7551,16.8137,3.30609
4.97317,0.289567,7.33081,17.1202,4.79108,6.98097,17.0306,5.80772,6.8205,18.7367,5.09395,7.66976,17.0879,4.86551
4.23957,0.108785,-2.53724,14.2242,-7.1977,-3.89685,13.311,-7.28144,-3.08026,13.9283,-7.17839,-2.89401,14.6295,-7.30149
10.8662,0.0806443,12.9886,5.28951,4.63158,11.6047,4.77191,4.94962,12.7008,5.3084,3.99824,14.1031,5.30088,5.27399
15.6878,0.549036,12.2776,10.34,5.64566,12.8773,11.8461,6.2117,11.569,10.5824,6.26145,14.5465,10.8635,6.04266
4.34431,0.379037,-18.363,1.99365,-0.781373,-17.1648,2.12276,0.265317,-17.0191,1.95966,0.193316,-17.814,0.999657,-0.846802
25.7077,0.151378,-15.1181,11.9016,-5.82254,-16.2159,14.0888,-6.56215,-16.5537,13.2832,-6.21196,-15.0872,13.657,-6.40474
8.91892,0.727445,3.65074,16.7657,-8.06823,3.67537,15.8746,-8.25916,3.0547,16.2269,-8.47793,4.58777,15.9211,-8.43964
2.98436,0.062934,3.83176,22.8549,0.411239,3.88838,23.0989,-0.226491,4.38457,22.9017,0.413954,4.25238,22.8189,0.72183
31.1827,0.21568,14.1219,18.0545,-6.59822,15.2938,18.3636,-6.54862,12.4131,16.9844,-7.43114,11.1793,18.3831,-7.17294
1.51276,0.130459,3.50699,6.95643,-6.95405,3.98439,7.33989,-6.9234,3.70166,7.55874,-6.97576,4.25636,7.30216,-6.91719
16.9981,0.138524,1.76323,5.66081,-6.74378,-0.866576,4.46062,-7.17,0.676473,5.33179,-5.79856,0.515612,5.22457,-6.18437
10.268,0.50991,-9.19808,15.3387,-7.16101,-9.90891,13.4311,-6.85284,-10.7849,14.4891,-6.80957,-10.6314,14.0404,-6.83995
5.0951,0.379872,2.37454,19.9742,-6.09478,3.75377,19.9428,-6.15233,1.82909,20.3902,-6.67037,2.33236,20.5138,-5.69709
16.988,0.141028,17.2626,11.1386,4.28215,15.1013,11.4693,5.26886,18.2383,11.0329,4.05628,17.5375,9.37453,4.96084
1.55141,0.0129249,-18.0946,18.528,2.85659,-18.8232,19.2228,2.84552,-18.9709,19.2648,2.83619,-18.695,18.8951,2.8405
3.89358,0.0162471,5.8437,21.0744,-4.68267,5.00374,21.0772,-4.64069,3.55078,21.0289,-4.58481,4.1092,20.8806,-4.79059
15.8683,0.266017,-11.1831,4.68817,-4.94765,-12.1863,3.46107,-4.99469,-10.6312,3.10577,-4.96023,-11.633,3.43701,-4.99965
16.4021,0.156643,-1.61984,12.2172,-7.38485,-0.532981,12.8544,-7.45514,1.02384,12.4786,-7.83851,1.02972,12.1597,-7.85276
15.9735,0.280866,-13.6881,2.47684,3.24952,-15.673,1.96285,1.46129,-14.8947,1.73109,1.88376,-12.5008,2.3245,3.61415
65.4385,0.568089,6.23648,4.06809,6.98468,5.2114,4.74568,3.9838,3.84868,4.5551,4.85229,3.65636,4.46659,5.87934
4.4959,0.0379727,-15.4267,18.1068,3.45173,-15.1952,18.6406,3.90212,-16.7156,19.0263,3.57641,-16.0588,18.3905,3.43648
2.92443,0.165254,16.2655,16.6221,-6.48899,16.165,17.4,-6.63057,16.2057,18.0782,-6.45072,16.1341,18.0307,-6.52261
3.82694,1.01069,18.8215,15.7746,-5.53798,17.2556,15.7526,-6.58014,17.2651,15.4358,-6.65077,17.1931,15.9367,-6.66885
3.58948,0.45026,-8.98562,2.70404,-1.95037,-8.16096,3.07325,-0.561151,-8.38281,3.12271,-0.911712,-8.61504,3.06508,-1.74999
24.9641,0.294046,-12.4562,14.3757,-6.76703,-13.6593,14.7358,-6.60476,-15.0131,13.4805,-6.30783,-13.8275,13.2018,-6.18796
3.28944,0.151399,20.3641,13.3587,3.15212,19.5981,13.0067,3.95363,19.6087,12.9285,3.95634,20.8512,13.3886,2.27805
19.3868,0.117106,-17.736,16.7922,-6.10317,-16.3235,19.5385,-6.00495,-17.8796,18.9434,-5.857,-17.3607,16.5463,-6.32108
1.10266,0.00658954,-5.20181,12.5649,-7.03142,-4.37687,12.9265,-7.23563,-4.22262,12.8895,-7.27829,-4.42791,12.5609,-7.24231
6.47282,0.507625,12.7509,9.96629,5.84054,14.5917,8.13188,6.41198,14.4487,8.41292,6.40832,14.0666,8.50079,6.39252
6.24804,0.00928795,-4.35678,4.58535,-3.07202,-3.23475,4.67797,-4.43805,-3.3497,4.52909,-3.95704,-3.76707,4.72169,-3.99033
1.40771,0.0831001,17.6252,9.0809,4.91656,18.5865,8.97585,4.49016,18.6711,8.91725,4.44307,18.5889,9.02193,4.48996
10.7418,0.150762,20.6604,13.9295,1.12042,21.5728,11.5997,1.80853,22.0112,13.9301,-0.267822,21.4443,12.9536,1.06903
3.76606,0.23294,2.28699,16.6675,6.0711,0.0594715,16.5408,5.98551,0.0545181,16.5065,6.02336,0.338929,16.6362,5.95056
1.24113,0.09579,15.7814,6.14373,-0.477398,15.9655,6.2569,-0.672657,15.5501,5.97236,-0.475542,16.0849,5.89965,-0.421683
0.316987,0.0499974,2.46417,22.1477,2.28997,2.056,22.099,2.41011,2.20494,22.0625,2.44864,2.20714,22.0453,2.48942
4.92215,0.580935,2.11336,21.421,-4.66108,2.48392,20.6406,-5.57234,2.2001,20.633,-5.65769,2.05545,20.7246,-5.65741
3.54707,0.474486,15.403,11.8736,5.00062,17.3021,12.2895,4.96093,17.5291,12.237,4.90933,14.9807,12.2479,5.55679
30.6577,2.67521,7.53926,5.29037,1.80133,4.12756,5.59369,-1.349,4.31817,5.51153,0.0855825,4.41781,5.37022,0.431448
43.6219,0.529714,14.1448,6.78512,-1.01584,16.2613,6.62098,-1.18782,13.8013,5.7523,-0.497423,14.2923,7.08839,-2.42808
0.0978436,0.0963969,-19.0885,3.69568,4.09184,-18.8606,3.6739,4.09788,-18.7877,3.75772,4.25911,-18.8603,3.73531,4.16908
7.13245,0.162509,17.4694,9.18108,4.93991,17.3125,7.92097,5.3922,15.3012,9.26646,5.86467,15.3037,9.62872,5.79988
110.255,0.654515,-2.69274,13.4968,7.68139,-13.1236,14.0112,6.9866,-12.7282,12.0264,7.09375,-12.3446,13.1998,7.10973
8.43182,0.527483,20.3477,9.54186,-2.90153,20.8213,10.0337,-2.69007,21.1508,8.02385,-2.54822,20.8541,9.04451,-4.33055
27.918,0.706441,-5.62104,19.2558,4.62331,-3.28335,19.1227,5.01731,-3.18893,18.3419,5.68509,-4.69747,20.5521,4.16323
6.69361,0.386022,15.7581,11.3154,-6.51609,14.8332,11.5398,-7.10958,13.9176,10.3378,-7.42621,14.7283,10.8132,-7.19665
21.6537,0.253911,-4.77936,3.67428,-4.49677,-7.29614,3.02539,-4.30845,-6.12464,3.74459,-3.41042,-6.87379,3.56904,-3.00355
0.416328,0.185999,4.54616,14.9939,7.06104,3.77359,15.1321,7.05661,3.92187,15.2136,7.01766,3.86577,15.1235,7.03405
25.015,0.00396773,-18.5356,4.02607,-6.16736,-19.4065,6.69006,-6.13539,-18.4862,6.49036,-6.06983,-19.6497,5.81887,-6.18633
0.469154,0.0602883,-14.2606,18.6585,4.36973,-15.0704,18.8499,4.01757,-14.4612,18.7794,4.2824,-15.0017,18.7978,4.00817
1.19232,0.57494,13.702,6.62653,-6.47804,13.0147,6.78097,-6.50608,12.9159,6.97828,-6.69525,12.9949,6.6016,-6.50394
0.361809,0.0593033,-20.8539,7.56683,2.75636,-20.7668,7.32185,2.90842,-20.8228,7.28681,2.8409,-20.7029,7.20668,3.06872
6.65263,0.18467,20.3072,7.15528,1.11762,21.3045,7.53026,1.42974,21.7372,7.81074,1.78727,21.3068,7.43724,0.616452
3.84611,0.000163029,9.87422,15.3197,6.46512,11.712,15.3336,6.2913,10.5767,15.0028,6.48761,11.4974,15.6004,6.23762
3.265,0.00786434,-7.86186,14.9018,7.34392,-8.2115,15.0201,7.25742,-8.52312,15.9654,6.5407,-8.60157,15.8499,6.63319
137.262,0.172575,-2.01795,11.563,-7.3636,-2.62136,8.79333,-7.19112,0.649944,9.16488,-7.53166,-1.34617,8.34566,-7.26159
0.967668,0.0905453,-10.5963,21.8076,-2.82904,-10.2496,21.9941,-2.75564,-9.96319,22.0465,-2.74805,-10.1712,21.9372,-2.93869
5.55403,0.0193312,-10.73,14.9078,-6.92127,-12.7873,13.4774,-6.34293,-12.1745,14.1973,-6.58952,-12.8618,13.7094,-6.38728
14.9416,0.00345161,14.2828,13.7571,-7.26109,12.0483,13.6219,-7.04103,13.6359,14.0679,-7.49752,11.328,14.2639,-7.55037
1.41299,0.074698,13.0677,4.25538,6.60681,13.6939,4.45921,6.73672,13.331,4.1603,6.39284,12.5818,4.14786,6.36328
1.7244,0.127111,-6.20796,19.495,-7.73543,-7.8678,19.2731,-7.37743,-7.85485,19.0992,-7.49959,-7.78798,19.1379,-7.48727
5.43202,0.405267,-17.2351,17.109,2.80554,-18.028,18.2718,2.76652,-18.0335,18.5363,2.87429,-18.4838,18.5648,2.84305
0.136086,0.0192863,-20.8536,19.7304,1.76319,-20.9225,19.7452,1.60008,-20.9849,19.6965,1.61869,-21.0646,19.657,1.59807
7.63685,0.193572,-8.23419,2.92424,0.106991,-8.23036,3.01291,-0.526068,-7.30348,2.66769,1.32151,-9.5289,1.49662,0.534437
12.4966,0.156113,-11.4333,21.376,2.28512,-13.638,21.0381,2.30273,-13.3708,20.9532,2.46329,-12.4692,21.7889,1.24026
10.4249,0.101831,-1.25468,4.72192,-6.31086,0.450479,5.21805,-6.13946,0.360225,5.09527,-6.48053,-0.575564,5.12382,-5.79111
10.0081,0.568321,-10.1006,8.01219,-5.61042,-9.91814,9.08644,-5.97557,-8.71552,9.00518,-6.08434,-10.8075,8.91722,-5.94459
28.3226,0.0942804,19.3353,7.58807,-0.111353,18.9508,6.57023,1.73269,18.1503,6.76935,0.862028,17.9101,7.10683,-0.0225863
13.283,1.12723,8.67118,8.75946,-6.37735,8.19238,10.3583,-6.74375,7.57635,10.1054,-6.66724,7.09595,9.99772,-6.7237
63.7731,1.69063,20.8862,10.1014,-2.57165,20.64,12.4714,-4.23897,22.2078,14.1168,-1.43391,21.5363,14.1018,-2.22652
34.997,0.244637,-18.1327,16.4116,-6.00611,-19.2444,15.5499,-5.97231,-17.1966,14.3477,-6.92502,-16.5821,16.554,-6.83922
1.33954,0.437954,14.9495,19.2755,2.7649,13.941,19.4367,2.67753,14.0468,19.5876,2.50508,13.8916,19.5016,2.5355
5.16648,0.713403,-12.3644,2.2683,3.5923,-10.7243,1.94502,3.00955,-11.0744,1.87743,2.99773,-11.679,1.42137,3.02099
5.68682,0.0826114,-20.7066,2.03448,-2.25562,-19.7656,1.98181,-1.26123,-20.9495,2.0465,-3.45499,-20.9354,1.99948,-3.01023
2.63064,0.0749235,8.79574,22.3025,-2.45709,8.64612,22.6775,-1.45513,9.26947,22.1526,-2.60201,8.14753,22.6704,-1.47415
5.28728,0.246261,15.3537,6.64168,-5.31603,17.738,7.66864,-4.6371,16.5278,7.23156,-4.63578,17.7388,7.66245,-4.59238
50.8431,0.509519,4.25831,9.28325,-7.24062,1.55299,9.1026,-7.46399,0.67834,6.42129,-7.40954,1.57396,6.48554,-7.15954
30.7713,0.158173,-19.219,0.942006,-2.93884,-20.041,1.779,-4.43488,-20.7051,2.02079,-4.21828,-20.3035,1.40443,-3.20686
1.37651,0.0783137,6.72104,22.8512,-0.327334,8.15437,22.6947,-1.38066,7.88963,22.7573,-1.08946,8.08461,22.6871,-1.42617
2.60573,0.157159,3.20987,20.9362,-4.66887,3.48665,21.0007,-4.61411,2.95755,21.6137,-4.45324,2.83767,20.8687,-5.36214
6.75944,0.469718,7.32707,3.92076,6.36607,6.89173,4.26643,4.63075,6.60199,4.36534,4.88456,6.0572,4.48754,4.89367
4.20743,0.0656256,-17.8323,0.94388,-4.46656,-17.8547,0.808682,-3.53017,-18.3564,0.801517,-3.41859,-18.3014,0.953218,-4.12645
0.824535,0.116096,-16.5199,0.675814,-2.68794,-17.0727,0.595131,-2.49876,-17.2142,0.552079,-2.5496,-16.6199,0.684609,-1.80874
5.07836,0.0418422,10.7863,10.6998,6.35076,11.6441,9.65791,6.4898,11.58,11.7721,6.52181,11.289,10.209,6.45204
0.400716,0.0292427,9.09834,21.0357,-4.5596,8.47405,21.1737,-4.56589,8.54282,21.131,-4.59265,8.54492,21.1009,-4.62752
96.7502,2.69782,10.1929,5.84823,-4.44712,13.8566,6.94637,-3.38346,13.0452,6.5187,-2.92532,15.6138,6.85729,-4.25993
52.1848,0.324788,-16.1437,20.9723,-2.02835,-16.5463,20.7098,-3.67635,-14.0313,21.6085,-1.53602,-14.5559,21.8114,-0.883769
13.2138,0.365636,16.603,6.31091,-0.654447,17.0381,5.57592,0.760101,17.7183,6.76874,0.315871,17.299,7.01751,-1.41392
2.58132,0.164654,14.8267,16.7259,5.04181,15.0607,15.6628,5.69026,15.2995,15.9958,5.51694,15.0623,15.5362,5.74811
0.111108,0.00432981,-16.2866,1.99364,-6.62605,-16.0104,2.028,-6.50136,-16.2957,2.03561,-6.63105,-16.0157,1.95361,-6.51085
2.91021,0.0938177,1.90702,4.78236,8.44965,0.182076,4.73877,8.30606,0.17566,4.46438,7.99693,1.15099,4.43411,8.09654
16.354,0.15347,0.967638,14.0166,-7.67034,-0.495225,13.7197,-7.40892,0.297584,15.0754,-7.5303,-0.485254,13.4472,-7.43654
2.59681,0.407629,20.811,16.1129,0.547146,20.9199,14.959,1.05774,21.0159,14.7717,0.979072,20.9153,14.3198,1.09363
8.71464,0.14493,-17.5263,1.50156,-5.51396,-16.0198,1.59013,-6.01697,-15.8761,1.51783,-5.76112,-17.7161,1.18562,-5.0247
5.64423,0.157972,-9.21634,1.35669,2.16549,-10.4591,0.798585,2.14984,-10.1189,0.840564,1.6492,-10.2318,1.02451,2.42801
0.358983,0.311936,-8.77896,11.0387,-6.60889,-8.42919,11.0556,-6.64319,-8.44051,11.2375,-6.66151,-8.43407,11.1005,-6.64252
33.1004,0.521786,3.46846,5.80362,-5.75984,7.3796,6.23797,-4.15948,2.92891,5.6802,-6.7908,5.47683,5.42507,-5.65567
19.2564,0.800409,16.3979,7.58736,-3.21621,13.4403,6.85234,-3.10881,14.494,7.11123,-2.41433,13.3591,6.77263,-3.30535
1.12826,0.0856472,11.1672,4.82626,3.94725,11.3729,4.85882,4.02719,10.7465,4.77574,4.29864,10.6176,4.71328,4.4371
6.11067,0.211548,19.4355,14.0434,3.9428,20.3531,14.6609,2.593,20.2068,14.6177,2.92074,20.4589,14.5358,2.28727
0.578419,0.006512,-20.8792,14.228,2.62182,-21.1504,13.9048,2.1114,-21.008,13.6961,2.37384,-21.0006,13.8648,2.3867
0.0477175,0.0209153,16.4576,5.33394,0.91674,16.3774,5.39235,0.905472,16.3546,5.41493,0.930554,16.3945,5.29717,0.718057
6.01075,0.207033,16.7832,5.54246,1.42579,15.9505,5.44468,1.48189,16.0993,5.80578,2.17517,16.5811,5.71294,2.12112
8.06366,0.055107,-2.3039,21.907,-5.18061,-2.73441,22.5196,-4.37467,-2.42371,21.346,-6.15542,-3.22132,22.4762,-4.48211
21.9879,0.337105,-2.6501,17.96,-8.3384,0.799065,16.8544,-7.9614,-0.590343,16.5101,-7.71008,-1.44471,16.939,-7.76616
34.9607,1.69935,-21.9216,8.47939,-0.305999,-22.156,4.13875,-3.12628,-22.0807,6.47845,-0.113531,-22.2002,5.86487,-0.928874
1.61565,0.565237,11.1981,17.4266,5.27533,10.7239,18.2708,4.87549,10.427,18.2413,4.94478,10.5805,18.1817,4.90284
3.02415,1.61623,2.49151,9.25308,7.55547,0.899582,9.22316,7.27242,0.903041,9.26808,7.24736,0.90167,9.36439,7.25385
8.71237,1.62745,-14.5812,1.69637,-4.55313,-14.359,3.36802,-4.78131,-14.9746,3.42208,-5.32216,-14.2881,3.36705,-4.76229
5.42353,0.522248,-2.42143,16.3803,5.51046,-0.828951,16.5081,5.81266,-2.90058,16.0292,6.94959,-2.67727,16.9106,5.75183
57.6456,0.437094,-6.23407,4.42493,-2.48783,-2.36325,4.54933,-3.52966,-4.42594,4.50598,-1.93102,-2.91058,4.37328,-2.31493
86.8134,0.293754,0.412414,4.95906,0.50711,-0.0971433,4.51901,4.81307,0.401235,4.5678,4.9293,-0.519917,4.48371,4.43091
2.74805,0.219972,17.9388,18.9214,2.73285,18.7949,18.494,2.27707,18.2362,18.442,3.26547,17.7052,19.608,2.84812
10.6673,0.860419,14.6927,15.4171,-7.26376,14.3291,17.8822,-6.72132,14.563,17.4458,-6.90007,15.0022,16.7872,-7.06393
23.1798,0.10123,12.0189,16.8112,5.03595,11.7496,17.9538,4.53269,12.2793,14.733,6.32177,10.3527,16.9698,5.33119
4.03873,0.214953,13.1612,18.7908,3.69896,13.2362,19.4292,3.42057,14.2739,18.5245,3.76148,12.7013,18.7355,4.23212
4.00518,0.0845053,-6.11032,6.31788,-6.09116,-7.0622,7.27817,-5.96009,-7.13175,7.27496,-5.93801,-5.70577,6.57433,-6.32792
24.7233,3.55052,5.33163,14.5962,6.96381,6.07117,19.2135,4.74608,5.05597,19.5767,3.54788,5.13608,19.5819,3.54795
14.7639,0.0936585,-9.32188,7.95239,-5.65871,-7.41693,7.58033,-5.86399,-7.86059,8.20484,-5.95169,-8.15729,6.47096,-5.37533
3.36326,0.287194,9.57783,9.79714,6.69439,7.94732,9.02523,6.42933,9.36973,9.13749,6.87407,7.88364,8.92424,6.40097
7.23539,0.0541766,-1.81142,4.45122,-3.52496,-0.897971,4.25991,-2.95431,-1.61429,4.30164,-2.74261,-2.76284,4.40938,-2.57999
22.0707,0.269223,17.0115,6.17339,3.53939,19.4827,6.26056,3.03983,18.3158,6.41776,3.70996,18.4267,6.16844,2.18196
2.01698,0.072355,-22.2011,2.21763,-1.70951,-22.1934,2.09822,-1.20854,-21.7107,2.09196,-1.58073,-21.9534,2.16774,-2.18695
8.33198,2.89771,16.5534,7.26336,5.37722,20.1312,6.67529,3.94305,20.3909,6.99021,3.73292,20.2225,6.77155,3.83822
12.0181,0.0530209,11.5927,5.36044,-5.85923,12.6599,5.38704,-5.29139,14.2016,6.257,-5.77348,13.7917,5.92405,-5.50284
2.14256,0.0554783,1.08126,16.7661,-7.95827,0.96641,16.1117,-7.7181,1.43151,16.7424,-8.13107,1.37498,16.1805,-7.88537
9.4751,0.832105,-0.39291,9.33626,6.77118,-1.04576,8.69806,7.97513,-1.22172,10.9651,7.66814,0.836619,9.222,7.27094
2.50682,0.309149,19.2373,14.4163,-4.57773,19.1117,15.1202,-4.70951,19.1249,14.1967,-5.01737,20.5843,14.2886,-4.6037
5.33209,0.177924,3.96981,19.87,-5.9524,4.70885,19.8586,-6.41474,3.74968,19.9532,-6.10513,3.62663,20.9072,-4.72444
0.614574,0.0826835,-3.92988,22.9438,-1.2874,-3.87452,22.8258,-1.80446,-4.03392,22.7477,-1.96186,-3.95813,22.7511,-1.96925
3.62646,0.302978,0.0964831,13.0113,6.45517,-0.448644,12.3583,7.22582,-0.53233,12.0887,7.47068,-0.217898,13.3761,6.78331
0.452938,0.0593391,-2.90876,9.23833,-7.1634,-3.39968,9.13134,-7.20611,-3.19307,9.27081,-7.1597,-3.32985,9.09091,-7.19315
13.7173,0.0918964,-4.98253,3.90051,-6.22242,-5.16101,5.18149,-6.32323,-6.06402,4.71501,-6.02652,-4.82331,3.45712,-6.34668
3.56941,0.0347953,18.1682,7.30528,-1.24733,17.5853,7.12523,-1.30651,17.6409,7.22955,-1.51895,17.6194,7.61649,-2.46224
15.3205,0.477579,10.1953,8.55607,6.429,10.913,7.19004,7.35851,8.87682,8.82588,6.95132,12.2336,9.84868,6.31232
11.727,0.20189,0.728644,4.93779,-4.40266,2.61307,5.18947,-4.56197,1.88106,4.96216,-3.65602,2.9266,5.21136,-3.64408
5.18446,0.50212,18.7347,10.7315,3.22248,18.9512,9.76742,3.51494,20.6617,11.6489,3.18146,18.3837,11.0597,3.96214
20.2073,0.126274,-17.9942,21.1394,-1.38747,-20.9672,19.9053,0.917806,-20.8994,19.8395,1.31469,-17.9731,20.9574,0.106795
1.68935,0.0325769,-2.25733,20.6764,-6.80276,-2.35619,21.2627,-6.26701,-2.05558,20.5571,-6.95068,-2.49682,21.2108,-6.33234
9.24069,0.0319335,7.46303,13.1804,-7.10705,7.91494,12.187,-6.96209,7.32591,11.3393,-6.88163,6.57676,12.463,-7.09951
2.43733,0.0903792,-15.487,0.615376,-1.03575,-16.4632,0.71292,-1.1584,-16.479,0.668728,-1.72455,-16.539,0.701343,-1.48213
0.574253,0.0989087,-6.26522,14.5365,7.56653,-6.33515,14.8433,7.47439,-6.62334,14.881,7.44045,-6.40619,14.8392,7.46531
8.34275,0.244901,-12.8171,1.01986,-1.93249,-12.1995,1.00077,-1.81755,-13.3228,0.779278,-2.56284,-12.2903,1.56463,-2.80551
12.2139,0.423159,-5.88918,7.93728,-6.32498,-4.77672,6.40473,-6.71698,-4.923,6.35142,-6.67495,-4.11887,7.637,-7.09449
3.43679,0.0443771,0.446462,4.51766,-3.58634,-0.724969,4.36574,-3.86198,-0.65709,4.49414,-4.25826,1.25754,4.79334,-3.71451
3.73219,0.179199,11.7779,17.1274,-7.19349,11.4105,17.9862,-7.30584,12.2019,17.1945,-7.30305,11.7232,16.7252,-7.4438
4.90591,0.0606268,-15.9468,21.2395,0.971832,-16.1158,21.5818,-0.481794,-15.94,21.6855,-0.944978,-15.7908,21.3344,0.856237
5.55966,0.084749,15.7266,17.0496,4.45316,17.6048,17.4313,4.05408,17.8978,17.4577,3.97551,14.9257,17.1071,4.68098
49.4719,0.551468,-3.31434,5.17573,-0.855983,-3.90686,4.50447,-1.45226,-3.79549,4.41262,1.88949,-5.64712,4.05322,0.762074
29.9123,0.0974883,-11.5742,15.5354,-7.38622,-9.23517,16.9299,-8.01342,-7.78764,17.4004,-8.14061,-9.21499,15.9041,-7.50602
3.23646,0.210948,16.4292,16.3003,-6.22285,15.8736,16.1196,-6.76155,16.4492,15.5802,-6.49335,16.6158,16.6755,-6.34152
2.72309,0.065536,13.9457,21.2394,-2.83855,14.6837,21.537,-1.77647,14.6831,21.4984,-1.90667,13.2621,21.4264,-2.71004
19.6753,0.60097,-11.1593,21.1301,-2.78546,-10.8398,22.2169,-0.390958,-11.3422,21.9868,-0.735849,-11.1825,22.1801,0.257981
6.19202,0.128761,0.274351,19.7377,4.25079,0.48113,19.169,4.60036,1.65722,20.3164,4.50871,0.408966,18.9988,4.67609
12.2038,0.101197,0.254312,18.7388,4.77818,-1.00789,19.066,4.77317,0.33349,16.7728,5.94501,-1.03194,18.8242,4.9411
31.5818,0.280922,-20.4451,17.2767,-4.0513,-20.3428,14.5928,-4.91511,-20.1641,14.8332,-5.10855,-21.1278,14.2613,-3.72488
0.181071,0.0160669,16.5642,21.2281,0.88501,16.4343,21.2983,0.727796,16.3626,21.2898,0.85889,16.4908,21.281,0.716562
6.05793,0.171904,15.0267,11.2132,5.36892,15.0222,9.11237,5.99981,14.9329,10.0595,5.83305,14.9304,9.12052,6.03181
27.3797,0.680484,12.0543,13.3453,-6.96092,9.41401,11.2381,-6.95967,10.0526,12.7983,-6.68899,8.30355,13.0696,-6.98549


