
4.03294,0.392962,9.90768,28.1346,-4.04069,9.84518,30.1957,-4.15667,9.72919,29.5199,-4.19281,9.69738,29.5198,-4.62241
0.442853,0.0746953,-14.1259,11.3103,-2.21511,-14.145,11.1793,-1.90038,-14.1393,11.0517,-1.96447,-14.2045,11.5805,-2.01104
1.59938,0.284644,-14.7019,8.22086,1.96769,-13.8026,7.6351,1.9588,-13.813,7.58342,2.04216,-13.9048,7.7451,1.83277
8.6792,0.38575,-1.54484,49.3789,-0.453219,-3.58957,49.0292,-2.04682,-2.43382,48.9554,0.0415188,-3.12811,49.4582,-2.16796
0.557339,0.122111,-0.846655,19.6655,-7.86493,-0.703402,19.4226,-8.00723,-0.193314,19.7253,-7.82917,-0.538143,19.4162,-8.07238
2.56423,1.18383,10.8335,26.7052,2.80954,10.5438,27.4098,1.03128,10.5464,27.1225,1.08689,10.6307,26.9353,1.00891
13.7604,0.888602,-6.26458,8.03682,6.04691,-6.06001,5.57949,5.81742,-4.82595,5.46641,6.01681,-5.48242,5.98234,5.78615
16.8339,0.448425,-1.65495,4.24719,1.10993,-0.298687,4.31702,1.13954,-3.86487,5.35634,1.27581,-3.00663,5.07914,2.20328
10.047,0.725665,-2.11363,10.6466,7.61474,0.45564,10.1229,7.96731,-2.43174,9.33793,8.17348,-1.96996,11.5936,8.49711
46.9412,0.0264462,-4.79315,46.7818,4.11451,-6.89655,42.3846,2.83366,-5.78091,43.7019,4.30556,-6.3611,44.1825,2.67066
2.15512,0.27417,8.602,38.1285,7.72101,9.40042,38.2134,7.87798,9.49839,38.0766,7.89096,8.38364,38.7198,7.91879
7.57641,0.210828,8.49003,42.6143,-0.980202,8.33,43.8904,-1.53785,9.08424,41.2292,-0.864337,8.6357,43.1139,-0.159342
56.2981,0.0865685,3.70887,18.0289,-6.91855,6.91086,20.6499,-5.81939,7.9974,18.078,-5.87668,8.12268,19.8642,-5.60595
5.76776,0.265583,-14.1451,11.1527,-1.49947,-14.3009,9.88306,-1.18693,-14.5864,9.02115,-1.02418,-14.4138,10.3631,-0.547749
3.83404,0.152985,-8.07625,34.9997,7.81755,-7.55541,35.3587,7.81132,-8.48253,35.3166,7.86942,-8.65095,33.927,8.45445
1.76731,0.355131,10.7849,34.5785,5.46564,10.6065,35.5737,6.03193,10.9013,35.3441,5.54506,10.6728,35.3259,5.72499
6.8102,0.399313,0.830267,26.2794,-6.12102,2.29231,28.0904,-5.76061,0.0465385,27.7889,-6.14372,1.46379,27.6354,-5.83751
8.27962,0.460977,-1.9545,10.121,-8.66019,-3.06276,11.2594,-8.11566,-3.87073,10.5328,-8.00573,-3.01077,11.7019,-8.13573
12.7435,0.635914,15.6558,14.1324,0.747526,14.9321,15.1904,2.96228,14.7086,15.3365,2.37766,14.6275,15.4225,1.23065
2.46036,0.0177759,4.92411,48.6907,5.69918,5.33645,48.1975,6.11302,5.67497,48.8168,5.57208,4.97119,48.3012,6.04739
6.85263,0.110669,4.04,35.3294,-6.36507,4.11485,37.703,-6.24668,3.99177,37.7302,-6.24814,4.33046,34.8922,-6.25202
11.4341,0.129452,2.90492,43.3675,-5.31702,3.72751,41.5787,-5.62034,2.95052,41.0419,-5.97733,3.10681,44.4553,-5.14428
0.906463,0.062319,-7.30842,5.91061,2.51758,-7.93697,5.82128,2.62407,-7.95162,5.81353,2.56113,-7.80902,5.84225,2.7451
46.9041,1.48787,-5.80431,33.6219,5.23887,-7.01932,34.0632,3.92396,-8.57639,33.9333,4.96476,-2.64104,37.3283,5.39397
0.56952,0.00154752,15.4805,10.6063,-0.985591,15.4991,11.1561,-1.62724,15.6061,11.2407,-1.58049,15.6608,10.9791,-1.1845
1.4972,0.743981,9.50439,39.2215,-2.532,9.50456,38.5099,-1.81544,9.4554,38.5076,-1.99102,9.42153,38.4916,-2.33302
1.77186,0.0767781,9.36588,46.5059,3.9709,9.06722,46.752,4.36761,8.93689,46.1735,5.06011,9.11389,46.0291,4.91516
1.64011,0.213031,-11.453,30.148,7.85485,-11.2693,31.1756,6.98693,-11.4559,29.8658,7.41332,-11.628,29.3358,7.32383
1.45332,0.441066,10.0275,28.9835,-1.93189,10.0604,29.5016,-1.16934,10.101,28.6744,-1.17933,10.0423,29.0435,-1.22322
0.214296,0.0229731,5.19439,42.6034,7.56803,4.96007,42.5875,7.7698,5.0332,42.6713,7.6632,4.96804,42.4889,7.83133
6.0491,0.187299,10.314,39.586,1.84326,10.1937,37.9026,0.961695,10.1129,38.2335,0.865502,10.0092,38.0083,0.282742
9.29258,0.0600796,-2.1928,15.565,-8.07204,-4.09413,15.4445,-7.88759,-3.6633,13.3893,-7.97112,-3.71049,15.1418,-7.92135
7.43757,0.180234,-10.0218,23.5178,8.07668,-10.9598,21.6592,6.95585,-10.3993,22.6961,7.42838,-10.1817,24.3257,6.91089
4.47904,0.0327868,4.23749,40.9959,-5.73934,4.25508,39.416,-6.05655,4.7292,40.5904,-5.79565,5.31926,39.5417,-6.02837
2.7522,0.341133,-10.5682,30.5443,5.08857,-10.6747,31.0114,5.29574,-9.9144,31.5332,4.89795,-9.9203,31.5804,5.02761
4.46081,0.403216,12.3101,6.89168,0.334981,11.386,6.90245,-1.44882,12.3675,7.02601,-0.799243,12.2649,7.07177,-0.977556
5.06128,0.094016,10.6498,43.2772,3.07381,11.4167,41.1216,4.08502,11.4723,41.2116,4.31685,10.7696,42.4264,2.67526
0.73906,0.00820906,-9.80072,39.4718,-1.52755,-10.0247,38.4652,-1.4717,-10.226,38.352,-1.74965,-10.0537,38.5182,-1.54175
38.8103,2.78202,3.5686,15.2517,-7.30687,0.677423,17.7664,-8.08636,0.1457,13.2595,-8.62476,0.571207,17.3364,-8.3412
5.19751,0.0799986,-10.86,23.8021,-2.85013,-10.6131,23.8766,-4.11492,-11.3781,22.3559,-2.03811,-10.5949,24.4328,-3.83568
6.79172,0.17644,10.953,10.5803,-4.78046,10.2145,10.1957,-4.79901,10.876,9.36159,-3.75787,11.0631,9.29902,-3.64849
2.40767,0.0291964,3.06858,11.1915,7.73536,3.82415,10.6983,7.88358,3.91273,11.0774,7.94248,3.21613,10.9303,7.72542
1.82343,0.0200583,-5.07852,15.4042,-7.68135,-5.24497,14.0825,-7.73029,-5.36716,14.1136,-7.73292,-4.97219,14.3224,-7.70956
1.91872,0.129884,10.1533,29.5719,1.98879,10.1251,29.1629,1.18332,10.431,29.3897,2.20937,10.0217,30.3634,1.87725
2.01143,0.00969353,10.1861,29.113,1.32595,10.2575,27.779,0.212851,10.2106,27.8758,0.129597,10.1594,28.4216,0.48451
12.7701,0.344503,-10.6025,22.4844,-4.79831,-11.3201,19.8707,-4.97633,-11.2558,20.4708,-5.16978,-10.7586,23.2622,-3.79134
3.00808,0.749,8.20098,36.3438,8.33581,6.262,36.4042,7.61529,6.53403,36.4616,7.62112,6.57041,36.6171,7.64747
12.6974,0.263179,10.6592,5.21857,0.840773,8.92787,4.54284,-1.03807,8.50612,3.59748,-0.0839468,8.46166,3.90507,-0.831301
1.92363,0.212433,-4.14803,40.9002,5.72641,-4.72876,39.589,5.41893,-4.635,39.6964,5.64053,-4.653,39.9714,5.42593
5.48699,0.159137,-5.21593,41.6551,-5.59282,-5.42988,42.7251,-4.95153,-4.95892,41.3273,-6.26747,-5.98978,42.0628,-4.88032
2.33532,0.10444,-12.2524,17.29,-4.38467,-12.0369,18.1821,-4.41459,-11.8476,18.1845,-4.67587,-11.7445,17.9403,-4.94346
0.600634,0.526342,-1.18713,43.9053,7.71669,-0.644667,44.005,7.83366,-0.666482,43.8801,7.82901,-0.694404,43.7554,7.8775
1.53115,0.10497,0.768114,48.9926,0.761467,0.467454,49.1746,0.23667,0.388343,49.0427,0.575414,1.25246,49.2295,0.875411
0.296302,0.0112336,0.892592,1.65424,-3.1081,0.755263,1.85123,-2.48331,0.930012,1.77229,-2.54063,1.01418,1.62051,-3.10579
5.13323,0.0167676,8.12354,45.7235,5.8669,7.19052,43.8777,6.44924,7.13508,44.7729,6.42045,8.54161,45.3057,5.71012
1.14866,0.139709,-12.7705,16.6112,6.0023,-12.6151,17.2796,6.45147,-12.5714,17.2944,6.40321,-12.5211,17.1987,6.17032
1.9865,0.566502,6.9005,38.2739,7.55306,7.69436,38.6427,8.18573,7.79794,38.5339,8.1508,7.71834,38.3828,8.11642
4.07548,0.0298053,10.5877,41.8699,2.41173,10.4875,40.3237,2.6656,10.3382,39.8415,1.9324,10.45,40.2461,2.4467
1.34301,0.0143815,-2.14187,35.9022,-7.41597,-2.09395,37.5396,-7.0214,-2.20188,36.7548,-7.24218,-1.91844,37.3983,-7.00536
22.1368,2.17911,7.78717,44.6953,-4.59122,7.76629,41.7221,-5.58068,6.91676,42.1572,-5.03885,6.28174,42.3434,-4.90862
4.21076,0.179503,2.53257,16.6251,7.74499,1.84872,16.9549,8.40071,2.16263,16.453,7.78283,4.24367,16.9414,8.6008
1.65604,0.155824,-11.9142,6.71531,-3.50875,-13.2058,7.27339,-3.38463,-12.6019,7.08794,-3.38106,-12.8407,7.15901,-3.18975
3.31997,0.612934,-13.5133,13.3739,6.6595,-13.5301,12.1537,6.65422,-13.8404,11.6954,6.28759,-13.4689,12.1753,7.16408
0.773678,0.173695,13.3043,18.8126,-0.901648,13.399,18.1916,-0.703246,13.4615,18.1447,-0.242856,13.3963,18.2483,-0.468467
6.66977,0.137691,3.1074,2.97487,2.43168,2.62086,3.61032,3.09012,3.40472,2.27067,2.03153,2.50467,2.65176,1.96011
1.69194,0.0400621,10.1532,41.809,1.59884,10.2314,41.9622,1.84835,10.2636,40.5079,1.86378,10.2205,40.8163,1.63818
5.57969,0.257644,6.93494,7.95889,7.46707,8.58649,7.80972,7.72679,7.14691,6.06357,7.62756,7.05561,5.66972,7.60652
1.46779,0.125469,-5.17169,33.2995,8.60937,-6.45627,34.4793,8.33302,-6.31603,34.5768,8.3045,-6.42984,34.5967,8.29567
3.20576,0.244105,-8.17932,5.47759,-2.87848,-7.24256,4.89053,-2.5143,-7.4691,4.81062,-3.79395,-7.4093,5.0144,-2.75881
0.371621,0.169704,-8.39759,36.9241,-7.65741,-8.50564,36.6158,-7.59007,-8.50731,36.7373,-7.45883,-8.5107,36.5748,-7.6705
0.781554,0.235105,-10.1279,11.3218,8.0503,-10.5987,11.5335,8.39874,-10.6821,11.7203,8.48153,-10.6516,11.811,8.52228
1.95799,0.271067,-0.781032,6.44732,7.41058,-1.19281,7.34001,7.70245,-1.18121,7.51813,7.91064,-1.35909,7.31859,7.56985
3.75891,1.01896,4.43426,49.5732,2.99879,5.01493,49.3898,1.67878,5.27292,49.3781,1.7917,4.3824,49.4691,1.44598
8.78365,0.264359,-3.95178,29.7717,-7.78322,-3.44592,32.0082,-7.70332,-2.04494,28.1761,-7.08211,-1.91094,28.2682,-7.07499
2.39333,0.0569517,-0.221056,22.8886,-6.82711,-0.153832,23.7689,-6.69294,0.424046,23.9644,-6.50542,0.715948,24.1095,-6.40786
20.6573,0.10818,13.8601,8.80872,-1.65407,13.7608,10.0318,-2.90324,15.3798,10.6552,-1.18523,14.653,11.1187,-2.51331
10.6231,0.250681,9.49096,33.2904,0.214749,9.02492,34.3517,-1.54017,9.29845,35.1533,-0.615458,8.98005,35.7198,-1.35279
0.677759,0.00786638,5.11631,49.1294,3.47363,5.26335,49.2474,2.94142,5.02924,49.3643,2.8763,5.14919,49.3188,2.86828
19.5763,0.0203382,-9.3032,8.46748,0.301307,-6.27894,5.67867,-0.462517,-7.11909,6.45188,0.431428,-7.12823,6.45897,0.293302
19.0211,0.375431,9.44162,4.40677,0.531514,11.4233,5.73572,1.5701,11.5628,5.25407,2.26585,10.9355,3.83272,2.67118
2.91976,0.0295256,4.43806,30.0925,-5.63912,3.75708,29.3879,-5.69375,4.3998,31.1984,-5.75733,3.56297,29.7058,-5.74023
14.0332,0.114908,9.93342,21.815,-5.17252,10.2224,20.0886,-5.06425,9.12316,17.3707,-5.66122,8.96865,17.7668,-5.69048
5.45978,0.0695893,9.14953,27.6944,8.16978,9.93863,25.9902,7.77805,9.39575,18.6861,8.31275,9.82517,26.04,7.85112
21.5735,0.0298805,10.5342,18.1707,4.58387,11.9362,20.8326,3.01718,11.6431,22.0026,2.66267,11.1614,22.1483,2.77485
9.74189,0.0135614,2.76637,4.81755,6.01443,1.88809,5.15841,6.38449,1.27253,4.85421,5.74006,1.76829,4.26961,4.84972
3.22987,0.0204564,-4.96244,35.3511,8.28989,-3.15643,35.2819,8.49088,-3.06597,35.4447,8.42403,-3.55231,34.8784,8.6384
2.00409,0.206342,6.86397,9.50424,7.28511,6.99422,8.2037,7.4086,7.04903,8.45749,7.4103,6.7853,8.18213,7.44726
6.01852,0.0843291,14.201,10.0141,4.27381,13.382,9.78694,5.50406,13.8453,10.8583,4.9376,14.6575,10.4406,3.824
3.14861,0.217219,-5.14312,35.3195,8.24725,-7.18226,35.2942,7.84307,-7.4031,35.4621,7.79047,-7.56515,35.8958,7.7808
1.93807,0.0530075,-6.26012,45.8436,1.02762,-6.37608,44.6331,2.17837,-6.48394,44.5974,1.99848,-6.19827,45.364,1.77925
32.61,0.0327001,-1.31134,44.9469,-5.42066,1.13401,48.7681,-4.79917,1.05711,45.1113,-5.28268,-0.782318,49.4294,-4.77967
2.31567,0.0439497,11.2761,5.91412,1.05167,11.1776,5.83371,0.520825,11.9674,6.3971,0.750177,10.9949,5.66686,0.879061
1.28348,0.243076,-4.31487,47.5112,3.23946,-3.0442,47.572,2.97345,-2.99725,47.5903,3.0953,-2.99801,47.6145,3.221
5.19473,0.241143,11.8352,8.02859,6.46246,11.6758,7.66949,6.96225,12.2091,7.31806,6.21132,12.314,9.30201,6.56994
3.29915,1.40051,0.986568,47.2238,5.45522,0.805459,48.8715,5.39861,1.06078,48.7435,5.31366,1.11539,48.903,5.72175
1.28867,0.049317,7.80266,36.9183,8.19545,8.30189,37.9143,7.84833,8.10153,37.7234,7.92595,8.41651,37.883,7.83162
20.4883,0.152804,-10.5392,6.5204,-3.65446,-8.24535,5.61698,-1.84801,-11.6053,6.73594,-3.26509,-9.92882,6.20306,-1.59322
1.52186,0.0226603,-12.2829,12.9554,-6.0387,-12.5672,12.2573,-5.2342,-12.5453,12.1687,-5.28171,-12.3963,12.15,-5.64508
0,1.76627e-07,-1.86338,33.4917,-7.63618,-1.83577,33.5485,-7.65383,-1.86079,33.4911,-7.63623,-1.8717,33.5568,-7.65318
1.01065,0.445643,-4.48175,36.8729,8.29111,-3.67561,37.0255,8.0055,-3.71036,36.8752,8.00349,-3.61825,36.8614,8.02418
1.71572,0.514195,-8.89869,33.3606,-2.37848,-8.78874,33.7705,-1.48808,-8.7984,34.0646,-1.42691,-8.82741,34.1742,-1.3611
2.11461,0.199811,1.63659,35.3377,8.62891,0.093308,35.4083,8.20631,0.0902223,35.6181,8.21468,0.532652,35.6158,8.39876
2.04847,0.259361,-8.82797,32.5249,-3.20102,-8.92279,33.2376,-2.34769,-9.13162,32.3761,-3.20735,-8.91007,33.2873,-2.49881
2.54735,0.209017,-2.22047,4.37765,5.28876,-2.09366,4.24555,5.70535,-2.746,4.15163,5.18614,-1.37196,4.09931,5.02188
11.4246,0.111015,6.0649,42.2364,-4.99996,5.18227,41.1612,-5.66827,3.99239,41.6019,-5.57278,5.65294,40.6558,-5.91168
1.58015,0.041093,-12.1779,7.68106,-6.97401,-11.3675,6.51945,-6.7854,-12.0342,6.85656,-6.61662,-11.9205,6.93628,-6.70824
1.98605,0.0578751,-6.75593,45.8662,-1.32672,-6.11061,46.4767,-1.8122,-6.0147,47.0748,-1.63443,-5.87135,47.0535,-1.84757
6.11368,0.0787933,-7.72308,43.3132,0.974919,-7.34657,44.8909,-0.149822,-6.72167,45.6342,0.465671,-6.77999,45.6109,0.356202
2.3537,0.0727957,-8.69329,32.8021,0.969673,-8.40314,33.5289,0.984005,-8.02091,33.4114,1.62239,-7.92446,33.6751,1.66376
8.01475,0.542407,0.994435,10.7965,7.49065,1.81367,8.62544,8.04885,2.00496,9.24435,8.21126,1.44967,8.66497,7.9217
1.56968,0.0681283,-12.2443,14.4916,-6.25852,-12.0132,13.7465,-6.70886,-12.1752,13.7763,-6.29412,-12.2526,13.0377,-6.14449
20.549,0.0876237,9.5527,39.9018,-0.533242,9.88518,38.5063,-0.458071,9.10369,41.046,-0.585598,9.25833,42.6092,-2.87054
20.0841,1.28374,-11.4686,8.39092,-0.226683,-13.3235,7.6731,-1.25065,-14.2758,8.24805,-0.488542,-14.2229,8.3277,0.166603
27.0203,0.28174,3.65305,28.2046,-5.55638,2.61505,24.9935,-5.88212,5.65621,26.2351,-5.08486,6.99336,25.4178,-4.90242
12.1187,0.250157,-12.1947,18.2945,8.06,-11.284,20.6714,7.02719,-11.3019,19.9379,6.45228,-11.3061,19.6576,6.21943
16.68,0.0903938,-14.3708,16.7462,-0.255026,-14.2707,17.2284,0.753494,-13.0131,18.9945,0.220395,-13.0245,18.9572,0.100592
25.0578,2.8971,-4.95372,7.37943,6.53181,-1.75965,4.54209,6.55257,-1.20917,5.21266,6.98061,-2.33041,4.35703,5.95519
8.99525,0.333685,11.7894,18.0563,3.87908,11.733,20.6693,3.20511,11.3864,17.4651,4.46698,12.6378,18.9323,3.90115
0.372436,0.145584,-8.01407,40.1954,-4.66083,-7.87661,40.6416,-4.38769,-7.76894,40.5693,-4.51055,-7.68125,40.5811,-4.58062
10.1202,0.509895,-5.6206,16.0461,7.95599,-3.87326,16.0268,8.14012,-5.7906,14.9027,8.30682,-6.04632,17.1405,8.76783
2.94709,0.0782083,-8.04473,9.78399,6.89309,-6.3443,9.32817,6.61344,-7.11926,9.33781,6.54788,-6.78549,9.64292,6.80771
1.51462,0.0430354,-10.8146,24.2766,-2.82202,-10.7166,25.0292,-2.12666,-10.8251,24.6487,-2.15305,-10.6635,24.8935,-2.49853
4.87555,0.120794,6.49402,38.6131,7.31077,6.49067,38.0302,7.31462,6.60919,36.7821,7.68615,6.1243,38.5689,7.85124
5.37219,0.21896,12.7924,20.0937,-2.71056,12.6664,20.8545,-2.93413,13.7604,18.6055,-3.26221,12.4152,21.3691,-2.42911
4.69698,0.43365,8.46467,43.1711,0.399836,9.38492,42.6355,1.01313,8.38084,44.5211,-0.0171104,8.33591,44.4915,-0.136314
20.9488,0.0116837,-5.36674,14.7098,8.2272,-4.69774,11.8173,8.691,-4.43639,13.528,8.362,-6.4622,12.8947,8.6237
3.98405,0.181144,-4.2458,46.9237,0.675347,-5.17411,46.5969,0.60372,-5.54775,46.3304,1.59973,-5.67614,46.2606,1.50008
5.35218,0.403478,5.67723,34.6564,-5.63132,4.76073,32.8909,-5.79402,4.65164,35.0156,-6.2064,4.8119,34.6478,-5.97952
7.30459,2.78902,9.86182,12.7564,7.94747,7.1741,14.9392,7.53669,7.45287,14.9183,7.17163,7.4374,14.8357,7.16166
5.70358,0.4793,-3.86428,37.4136,-7.527,-2.81622,35.3665,-7.61726,-4.38476,35.7433,-7.83573,-4.53101,35.699,-7.89015
3.87933,0.100749,9.84942,34.4336,-3.62807,9.74964,32.5816,-3.16519,9.3651,35.2605,-3.10309,9.79136,36.208,-3.6398
34.5859,2.4556,5.31676,34.4792,8.53639,2.56529,35.4573,8.39183,3.84781,37.7597,7.63101,2.73181,36.1649,7.77461
3.96734,0.802577,8.18001,45.609,-3.94517,6.45373,45.9878,-4.11494,6.1818,45.9219,-4.37359,6.40603,46.3571,-3.98738
9.78885,0.00856956,7.55683,47.9931,2.82081,8.12557,47.6368,3.28382,9.04419,47.084,3.6268,8.62127,47.4531,2.26583
7.27399,0.0313478,-10.6694,25.7553,2.53266,-10.4244,28.6814,3.12816,-10.4915,28.1677,2.55726,-10.5154,26.9403,3.34076
0.479614,0.0130957,-10.8176,12.2072,8.58827,-10.6431,12.5224,8.57955,-10.6351,13.2053,8.50114,-10.7434,13.0951,8.50486
1.9002,0.0567891,9.7851,33.9657,7.26482,10.226,33.8885,6.6093,10.2713,34.1222,6.51968,9.88831,34.6207,6.95138
34.4994,0.620433,-6.9846,41.1051,-4.32759,-9.00608,41.6548,-3.21299,-5.31623,43.2656,-4.88296,-8.0015,43.2179,-2.77811
6.64835,0.0334397,-2.16698,41.8892,5.19761,-1.06745,42.4325,5.13761,-1.80013,43.1772,4.97655,-1.01504,42.8876,5.06715
1.76747,0.0954245,-5.84626,44.4299,-3.5279,-5.54098,44.2253,-4.05726,-6.24312,44.1833,-3.50504,-5.98902,44.8727,-3.25169
23.0745,0.265655,10.5454,32.4877,5.66454,10.606,27.9732,5.61968,10.4237,27.1912,6.41065,10.795,31.1366,5.42143
40.4978,0.59262,0.31715,7.96077,-5.56103,3.28158,8.50598,-4.97996,1.00943,9.19426,-6.71355,3.10726,9.61735,-5.77558
3.25081,0.075442,4.14512,6.90097,-4.08493,3.24374,8.09667,-4.80743,3.68781,7.9649,-4.66444,3.47366,6.97926,-4.33768
4.36146,1.59126,15.8495,13.5054,1.19117,15.5995,11.47,1.44329,15.62,11.7951,1.81294,15.6374,11.2638,1.24873
7.10632,0.504308,7.45241,44.876,-1.23991,8.33689,43.6917,-1.0523,7.67373,45.9972,-0.547502,7.87908,45.1462,-1.74109
0.187244,0.00436198,-6.78644,41.4545,2.97326,-7.06417,41.4912,2.64157,-6.80155,41.6499,3.00398,-6.98583,41.3766,2.70333
3.24251,0.0123748,2.66843,48.4026,6.15013,1.87686,47.7635,6.52858,3.25753,48.8662,5.90144,3.61664,48.1659,6.35543
2.06563,0.414046,-11.4088,19.8583,-6.70495,-10.9733,20.4922,-7.15339,-10.9219,20.3998,-7.19662,-10.7448,20.2032,-7.44882
4.16259,0.14207,8.96742,36.8367,-2.10869,8.90495,36.4324,-1.51417,8.80936,35.7019,-2.56048,8.83566,35.0438,-2.51473
1.10372,0.0374544,11.3323,24.3857,-2.20595,10.8934,25.2275,-2.42531,10.9371,25.1618,-2.45281,10.822,25.2764,-2.11572
0.297909,0.0201094,8.61008,45.7736,-3.71742,8.41385,46.0152,-3.67118,8.33676,45.7191,-3.83287,8.20991,45.8315,-3.80937
9.58935,0.241887,-11.9584,18.6051,3.22809,-11.7199,18.7848,4.54209,-12.2414,19.084,2.83712,-12.791,16.385,3.13649
3.44536,0.00815415,7.33694,1.15245,2.11105,7.21004,1.47628,3.51176,7.37313,1.3675,4.0281,7.75677,0.942072,3.89784
1.86024,0.0961946,-9.2635,30.9845,1.08823,-9.0617,31.8872,1.23575,-9.36147,31.1565,0.459609,-9.07818,31.86,1.14278
15.2202,0.435922,-10.1147,27.7463,-7.01774,-9.43189,31.9202,-7.07139,-9.61379,31.0219,-6.62964,-9.7886,31.2621,-6.02647
17.7482,0.0141658,10.848,11.2361,7.31016,13.2485,10.6873,5.65206,10.3835,10.396,7.73574,10.9426,12.6191,7.0415
3.01326,0.216789,-13.2214,6.76707,-4.94745,-11.0742,6.49973,-4.37486,-11.3076,6.57405,-3.92429,-11.3479,6.46429,-4.75659
8.03127,0.214683,-11.9335,22.6744,2.4676,-12.4802,19.5938,1.97251,-12.2171,20.3131,2.24116,-11.3884,23.5477,2.75777
3.14375,0.00967749,-4.80967,35.0391,-8.04049,-5.20183,35.5305,-8.09278,-5.3776,36.2857,-8.05012,-4.89997,36.3197,-7.92585
2.29049,0.157221,-1.53224,16.0762,7.77468,-1.52451,14.9634,8.10824,-2.01308,16.2266,7.91082,-1.01032,16.0839,7.93202
0.956212,0.49518,-12.5275,19.4418,1.89181,-12.6805,18.3709,2.04156,-12.7209,18.4203,1.95591,-12.6188,18.356,2.23958
4.27265,0.183768,9.95675,27.4831,-0.797163,10.1421,27.3661,-1.41024,10.2311,26.3984,-0.611789,10.0643,28.4738,-0.583262
4.52005,0.138454,-1.03682,47.2514,4.67632,-0.167375,47.974,4.98659,-0.639175,49.3532,4.77047,-0.594538,49.3878,4.79436
0.0350402,0.00897238,-3.24094,48.4739,0.244077,-3.16616,48.4848,0.243908,-3.06659,48.6539,0.162328,-3.1987,48.6661,0.124122
19.4713,0.966694,9.011,26.844,-4.53031,6.37717,25.015,-5.2301,7.94878,25.075,-4.90941,9.51098,24.5704,-5.05652
3.51648,0.457035,10.4364,29.0823,7.46755,9.62324,30.5274,7.88562,8.8954,30.4538,8.20416,8.72181,30.3751,8.29813
0.433682,0.00671333,-0.683095,18.645,-8.30008,-0.370335,18.9948,-8.29722,-0.668805,18.8407,-8.23751,-0.294887,18.8823,-8.35897
3.41532,0.120563,4.59555,4.22876,4.97369,5.29795,2.7827,4.69532,4.79791,3.62306,4.57365,5.29706,2.75965,4.3029
10.2676,0.126626,0.0540044,4.74921,1.20995,-1.48045,3.93049,0.5892,-0.0803615,4.19051,0.96472,1.22112,3.11215,1.12179
3.81393,0.415237,-5.71489,38.8334,8.04448,-6.32235,39.0294,7.44541,-3.29586,38.6473,8.30382,-3.39808,38.7629,8.32673
4.64464,0.0158939,5.53277,48.8487,0.343775,7.11038,47.9217,1.02517,7.4467,47.6767,0.670333,6.60937,48.2414,1.03056
1.65074,0.134946,-9.38446,5.57855,-4.82586,-9.82742,5.78198,-4.94523,-10.1948,6.31393,-3.88192,-10.2282,6.33661,-3.9275
1.36882,0.0216005,0.385689,49.9946,4.02687,0.339266,50.2001,4.37437,0.0377994,49.3913,3.40884,0.865983,50.3198,4.2681
8.55694,0.357451,12.6698,5.89577,3.32731,12.0193,6.26386,4.86087,11.3942,5.81086,4.79385,12.5566,6.69197,5.07609
0.990677,0.0301211,9.48828,17.022,8.01633,9.64016,16.9962,7.88837,9.59615,17.9958,7.31629,9.52584,18.077,7.35643
133.029,0.512257,4.77501,21.456,-6.10424,9.94303,22.3932,-5.22486,8.91523,20.9012,-5.36858,9.30982,24.2674,-5.16139
1.97926,0.1285,-1.93754,37.667,-6.93718,-1.30557,38.3664,-6.66343,-0.891488,38.4534,-6.59378,-1.72881,38.6138,-6.71257
0.361556,0.0751636,5.50251,41.4817,8.07771,4.97795,41.9029,8.17297,4.97982,41.8069,8.21279,5.04362,41.6387,8.23941
2.61591,0.128464,-14.3967,12.0335,-0.00555497,-14.3036,11.2433,-0.68453,-14.5113,12.3652,-0.0628254,-14.5898,11.178,0.149528
3.71225,0.216606,9.74376,31.3942,-3.0399,9.14929,33.2329,-2.51908,9.25943,32.5457,-2.53087,9.12305,33.4585,-2.57757
5.14962,0.249194,-11.5592,9.11997,5.64146,-10.4932,8.76991,6.01783,-11.9951,7.34764,5.48758,-12.5962,9.40607,5.77261
3.40081,0.0347697,4.01873,3.36949,-3.02241,5.21523,4.10857,-2.81082,4.34837,4.58646,-3.26534,4.95721,4.93107,-3.16703
2.43795,0.183131,-3.15297,3.14916,-2.73578,-3.78756,3.68712,-1.66245,-3.68794,3.43491,-2.4719,-2.94685,2.88523,-1.88358
0.976632,0.01254,-5.06109,18.82,-7.9825,-5.42566,19.4748,-7.89349,-5.45753,19.8955,-7.87493,-5.33718,19.8588,-7.90379
7.11615,0.35629,-11.7572,23.4885,0.291924,-11.2431,24.2697,-0.65306,-11.0642,25.2994,-0.73432,-11.0809,25.2203,-0.575554
5.22722,0.288862,10.3136,25.849,5.43576,10.6843,27.0336,4.07429,10.5927,27.0403,4.44044,10.6933,27.5116,4.5636
1.6886,1.01751,-13.9795,9.95151,5.55178,-13.1049,9.37362,5.66868,-13.2396,9.14293,5.55272,-13.3101,9.01319,5.52328
5.59354,0.0504348,-2.23167,47.4548,1.81102,-0.745164,48.5004,2.61455,-0.757647,48.3556,2.18888,-1.75724,48.1558,3.07242
30.2462,0.107293,3.90961,9.28778,-5.26644,6.10798,10.4338,-5.61373,5.00932,12.4634,-7.22091,4.99571,11.2777,-6.38143
4.35776,0.148159,-5.8328,37.1522,3.73151,-5.7482,38.8448,3.95454,-6.13464,36.494,3.58996,-5.66321,38.7362,4.11744
9.25343,0.0372083,-10.6255,28.1081,4.31558,-10.4991,28.8297,3.72453,-10.3864,24.6447,5.10365,-10.2915,26.0215,4.40293
27.3372,0.169859,11.959,15.5085,-4.8374,12.8833,12.1807,-4.39293,13.6994,13.145,-4.0028,13.3909,14.4336,-4.22322
44.8132,0.0616265,-0.189887,12.3464,8.48293,-2.63722,14.38,8.20619,-0.991578,13.6183,8.30503,-3.30844,12.8026,8.57001
3.10934,0.0989495,10.7724,38.6405,6.77297,11.5895,38.8972,6.46642,11.1483,37.3749,6.49025,11.2753,37.6443,6.45857
5.18928,0.117707,-4.31272,9.88488,-7.97931,-2.96904,8.9808,-8.46846,-3.53045,8.49403,-8.42285,-3.44496,8.48996,-8.44892
38.3441,0.273088,2.33193,26.5826,-5.77622,0.786882,21.6538,-6.84497,1.32758,21.6449,-6.71984,0.79149,23.2871,-6.51518
9.55554,0.455616,-13.9952,8.72184,-2.71692,-13.1588,6.98111,-1.99498,-12.6783,6.99759,-2.75147,-13.1678,7.42557,-2.78688
5.31134,0.437894,-12.6539,6.34848,3.24694,-13.3489,7.3241,2.04954,-12.0243,6.94053,1.88081,-11.756,6.99379,1.73168
4.10705,0.0680188,6.06901,48.436,-1.38212,6.82904,47.8853,-0.399288,7.45115,47.3232,-0.279557,6.83229,47.8892,-0.268295
11.4021,0.416849,-8.80762,16.6941,7.79277,-8.94965,15.2902,8.15249,-8.02427,15.5884,8.44976,-7.21643,16.9466,8.73485
14.3659,0.489165,-13.1552,10.1003,6.32713,-9.05286,8.81155,6.4681,-8.95615,8.85072,6.5288,-9.57417,9.32018,6.91094
11.3646,0.291482,11.4226,37.2569,5.91347,10.6596,36.3757,6.82987,9.90294,34.7487,7.14184,10.2865,35.5242,6.46727
3.13948,1.21863,9.09753,33.5239,-2.5451,9.30838,35.2353,-3.0232,8.81777,34.9508,-2.36388,8.91513,35.1047,-2.65154
2.31852,0.122207,5.40205,1.46044,-1.57254,4.51297,1.37119,-1.71867,3.69805,0.791701,-1.56757,3.59737,0.923023,-1.7296
10.5635,0.479551,-1.44977,30.8079,8.67165,-3.25083,28.1695,8.6764,-3.23331,28.8129,8.58166,-3.93796,28.5557,8.66057
42.935,1.52979,8.43632,14.9137,7.00644,10.6807,12.7848,7.3624,9.7395,16.4374,7.82381,10.8695,14.9494,7.0577
2.6181,0.0192681,7.16233,35.694,-5.3356,6.50364,33.693,-5.45434,6.75986,33.9686,-5.40128,6.45054,34.3116,-5.48493
1.40467,0.0845419,-10.3901,24.1061,5.34863,-10.3667,24.6917,5.22727,-10.5339,23.7807,5.25801,-10.382,24.6332,5.47406
1.07205,0.732354,-10.9388,22.0671,-4.23996,-11.055,21.3873,-3.75193,-11.0429,21.4668,-3.63294,-11.1165,21.5666,-3.41601
3.30138,0.155381,6.81209,34.2507,8.31789,7.04616,32.4436,8.57492,6.65205,32.9619,8.55168,6.87152,32.2462,8.58957
7.07155,0.10303,10.2291,37.432,3.18641,10.3673,35.4074,3.31641,10.0053,36.5668,2.05739,10.3465,35.9282,3.50585
3.15019,0.0945137,9.46815,37.4615,-2.94831,9.329,36.3249,-3.19333,8.9952,36.6285,-2.507,9.18402,36.159,-2.97389
3.22854,0.387637,6.61598,36.244,7.78103,7.0189,34.4097,8.38444,7.12567,34.9891,8.39687,6.73658,34.4858,8.29179
1.16243,0.163303,-6.43985,5.09478,5.29976,-5.47978,4.83506,4.90022,-6.19026,5.09844,4.74611,-6.06845,5.06589,4.74531
13.3407,0.321643,9.53735,39.6517,-2.44121,9.37291,37.4847,-2.33876,10.07,41.9064,-3.86383,9.57561,42.5569,-3.47783
25.1506,0.503156,-0.740049,2.15289,-2.7138,-3.41764,3.21544,-3.9252,-2.32622,3.13136,-3.28357,-1.49372,2.2892,-4.05169
4.21643,0.130362,2.01956,49.6453,-2.76887,0.926125,49.482,-3.9443,-0.00164143,49.4309,-4.53777,1.50219,49.1938,-4.17109
1.5834,0.156779,8.32751,41.4503,7.34598,9.03668,41.7362,7.15106,8.76165,41.6647,7.15846,8.69414,41.9361,7.11222
1.92381,0.161224,9.7591,17.1593,-5.55239,9.87195,18.3336,-5.4257,10.1576,17.8735,-5.45404,9.46874,18.2634,-5.54953
1.24855,0.00329739,-12.2997,17.7563,6.77102,-12.6775,17.3031,7.61541,-12.4285,17.6568,7.60876,-12.5824,17.4464,7.68843
7.85337,0.400953,-0.395832,43.2328,4.9731,-0.00195247,44.6165,5.20328,-0.997745,42.93,5.13921,0.324731,45.0385,5.45512
177.957,3.79842,-4.18904,21.6249,-7.68635,-9.56065,20.3441,-7.8663,-9.6626,13.2159,-7.75258,-9.73665,16.472,-7.69199
12.7399,0.43896,1.58304,4.47328,-4.16881,-1.57427,3.33566,-5.23196,0.297164,2.76332,-4.05557,-1.77005,4.11876,-5.86704
6.60171,0.305909,-6.55547,39.6609,2.21355,-6.04009,41.2442,3.62445,-7.38418,40.0714,1.77633,-5.96388,41.65,3.79487
22.6647,0.935417,-3.49716,45.5564,-5.33845,-1.02778,43.8277,-5.77122,-2.44869,42.0354,-6.11962,-1.3617,42.5226,-5.86759
2.92177,0.0930165,10.9485,38.9046,3.60896,10.9063,37.9451,3.96112,11.0831,37.6545,4.20269,10.7639,39.2278,3.23126
2.19979,0.0048499,10.5476,30.4239,3.0035,10.7059,30.0083,3.09046,10.9945,29.9144,3.65258,10.9525,30.3714,3.82598
0.666456,0.251765,11.5579,40.9608,6.11046,11.4351,41.4494,5.87058,11.0713,41.36,6.36216,11.3079,41.3992,6.04173
6.39419,0.0517315,7.8045,10.475,-5.29736,8.24907,10.1441,-5.06922,6.18852,10.3472,-5.51268,6.0037,9.80028,-5.16753
8.66993,0.0234363,1.39383,49.9162,2.35995,0.210657,48.4855,2.07208,-0.14542,48.6835,2.7864,0.144166,49.4521,3.4118
33.4359,0.259941,1.32622,28.6209,-5.87791,-1.12033,28.3928,-6.65595,2.66157,30.8451,-6.21,1.74541,32.1357,-6.62318
5.79799,0.782835,9.8093,4.47383,6.27267,11.3058,5.23681,4.32984,11.7352,5.18021,3.85173,11.2228,5.61784,4.86965
0.354624,0.531079,4.50908,10.7404,7.92516,3.97555,10.795,7.86854,4.00055,10.9025,7.87949,3.94861,10.6759,7.90035
1.96788,0.775165,-9.40041,9.32485,6.80068,-8.0052,9.64936,6.7319,-8.17211,9.77966,6.90858,-8.18173,9.73478,6.78064
3.20223,0.189952,7.59654,46.5398,-1.18281,7.4395,47.0752,-0.730972,7.93454,46.3068,-1.26464,8.39715,47.1425,-1.70129
221.905,0.140187,-3.83675,31.5123,8.69539,-8.09622,28.768,8.57493,-11.2658,19.5179,8.47769,-7.47685,17.9495,8.76381
1.82268,0.210963,-3.99876,46.862,4.93449,-3.21782,45.9185,4.90942,-3.23077,45.797,4.94349,-3.93202,45.7208,5.02012
4.18803,1.39154,-14.6477,12.6652,3.18585,-14.8667,12.3333,1.63179,-14.8758,11.3599,1.31814,-14.8429,11.795,1.45535
0.830617,0.280815,7.7983,7.47019,-3.58859,8.35644,7.09593,-3.13617,8.33132,6.98309,-3.08421,8.50506,7.18305,-3.18196
0.137174,0.027757,5.55398,17.9468,-6.49043,5.31799,18.4261,-6.49835,5.46527,18.3606,-6.47454,5.36672,18.4672,-6.48057
2.73139,0.042688,-11.6573,23.9157,1.23437,-11.7611,23.8522,0.973584,-10.9332,25.3421,1.92907,-11.0835,25.4461,1.60665
2.01486,0.0918534,-9.13603,34.6896,-3.2527,-9.2145,34.8837,-2.64744,-9.18179,34.2086,-3.29245,-9.31219,35.5961,-3.09982
13.4976,0.33409,9.77666,25.2477,6.27901,10.1164,23.1237,6.6296,9.81085,24.7919,7.35079,10.2458,25.6827,5.83836
1.90286,0.762902,0.648837,3.98258,3.81626,1.8876,3.89991,3.86299,1.31875,4.0484,4.26533,1.68785,4.01232,3.98854
6.06799,0.132509,11.6842,23.2747,-0.626738,11.035,24.7386,-1.35775,11.0596,24.3645,-0.840127,12.0721,22.6851,-0.0867482
1.5063,0.622657,-10.859,24.7353,2.60371,-10.7556,25.4493,2.3711,-10.8875,25.3599,2.01344,-10.6841,25.5864,3.64683
3.33991,0.126206,-12.7893,16.3229,5.80584,-12.9763,15.6653,5.58696,-13.1363,16.3169,6.36901,-13.4986,15.0751,6.67699
1.17538,0.0281683,-12.1402,13.2199,8.34405,-11.4898,13.8137,8.1197,-11.7402,13.8488,8.12911,-11.8846,13.7795,8.15689
0.71186,0.206574,-7.29192,44.7659,-1.8615,-6.58511,44.9983,-2.66038,-6.58884,45.0565,-2.54574,-6.78012,45.2097,-2.05234
3.41914,0.515362,-13.4826,14.6137,6.6678,-13.5707,13.4764,6.517,-13.4656,13.4475,6.9885,-13.5088,13.2053,7.36493
2.31504,0.312339,-10.4226,24.2807,6.01915,-10.686,22.9487,6.32691,-10.9593,22.4,6.12562,-10.6155,23.0869,6.40022
0.945784,0.139701,-11.9607,20.0591,-2.10377,-11.9845,20.4417,-2.07915,-12.2045,19.7353,-2.20421,-11.9181,20.1531,-2.49317
1.96846,0.162945,-7.48204,11.293,8.66361,-8.86452,11.3505,7.99234,-8.80042,11.1765,7.91416,-8.81675,11.3771,8.04337
21.8288,0.640004,-0.641999,24.4631,-6.80159,-2.52196,26.9996,-7.36399,-2.38305,26.9976,-7.31413,0.205968,26.4711,-6.27073
9.37333,0.259372,-0.479442,16.2287,7.77654,1.46908,16.3183,8.30084,-0.954928,16.2763,7.96853,-0.310204,13.6568,8.35546
0.684027,0.051571,8.94852,35.7722,-1.43999,9.024,36.127,-1.16413,8.96043,36.4643,-1.39248,9.02498,36.2476,-1.18389
5.12552,0.325362,7.99501,44.9757,-1.92529,8.54091,43.874,-2.26012,8.76818,46.7187,-2.94298,8.48974,43.8153,-2.14498
14.697,0.327402,10.4085,16.6187,6.22028,12.1894,15.7392,5.0354,12.1716,15.3644,5.25806,9.64448,18.6222,6.64406
19.8485,0.469633,-1.17854,4.44111,4.19422,-4.66021,5.52054,2.69794,-4.16437,4.96343,4.06033,-4.07354,5.51359,2.04047
6.19342,0.194402,-11.5738,17.8479,-5.51344,-11.5136,19.3959,-6.53297,-11.5146,19.31,-5.97601,-12.0106,16.6021,-5.87953
3.16432,0.149365,-13.6005,17.4211,-1.02163,-13.5357,17.9377,-0.859579,-13.4902,17.4845,-1.782,-14.1127,16.8865,-0.949094
4.07906,0.158121,10.2794,43.8097,3.01188,10.2163,43.9351,4.9692,10.7804,43.3918,3.73761,10.0655,44.0964,5.13656
3.87297,0.355676,-4.22687,38.5522,4.80135,-3.18959,37.5566,5.62025,-2.80941,37.6202,5.31153,-4.81303,39.2313,5.07855
0.52286,0.538509,10.1178,2.39044,3.05836,9.66852,2.03447,3.34769,9.74595,2.19314,3.42881,9.86308,2.27179,3.52095
2.30442,0.153408,-15.1488,9.4951,2.05839,-14.8205,10.6646,2.5906,-14.8128,10.7688,2.83266,-14.8341,10.6597,2.91392
46.4755,0.1528,-3.80089,35.4681,-7.79425,-6.30191,28.0203,-8.10546,-4.56077,29.5308,-7.87458,-6.64391,28.2221,-8.13822
11.6669,0.0938345,-10.815,11.7416,-7.41204,-12.0214,12.6875,-7.04005,-11.0342,14.7579,-7.49599,-11.8673,14.4901,-7.23175
4.24706,0.137048,-10.8171,23.1144,4.69687,-10.6386,23.2699,5.6922,-10.7711,22.9222,5.68036,-11.5078,21.9272,4.33532
16.5058,0.0817899,9.44012,39.9482,-4.47108,8.13409,40.7126,-5.50448,7.16598,39.0474,-5.45353,7.67478,38.3114,-4.942
0.30016,0.00149096,-3.54727,3.22371,-4.0486,-3.64446,3.34467,-3.81267,-3.96079,3.46692,-3.79146,-3.98692,3.38134,-4.05828
3.20878,0.0313147,-3.05347,19.1152,-8.15258,-3.51573,21.0192,-7.81753,-3.70885,21.0757,-7.82391,-2.95322,19.551,-8.03361
16.2258,0.248257,14.9854,15.0439,-2.52447,16.0952,13.0511,-0.808981,15.2319,14.4943,-0.586239,15.7538,13.4349,-1.82575
2.96024,0.238827,-0.508504,45.3305,4.93689,-0.62968,47.0873,4.857,-0.959521,47.0575,4.73279,-0.680113,47.0476,4.8336
22.3433,0.190431,10.1083,37.9217,7.83777,7.57655,39.9813,7.9103,6.68433,41.6644,7.42306,6.72296,41.7821,7.35735
47.3551,2.02658,10.0228,6.32871,-1.84848,3.93497,5.96097,-3.82176,4.98599,7.13494,-4.07208,3.86055,5.59597,-3.74477
7.71821,0.220551,11.2564,12.8717,6.78872,11.7451,14.8632,6.61188,11.9867,14.2202,6.45233,12.645,14.2861,6.22806
7.2481,0.0187461,-0.0289197,34.9315,-6.91097,1.16169,36.7162,-6.76755,0.794725,36.8027,-6.70717,1.10985,34.2796,-7.13868
5.20769,0.272015,1.52793,2.53982,-0.714449,-0.207844,2.6133,-0.581019,1.98751,2.28404,-0.147991,1.90841,2.10669,-1.1081
0.592296,0.102344,-10.3885,29.4844,3.7263,-10.4545,28.9978,3.69162,-10.3235,29.3495,3.36511,-10.4813,28.9753,3.75167
5.39282,0.0316605,-8.06253,5.05732,-5.38221,-7.46783,4.96989,-7.15648,-8.06411,5.14715,-6.62816,-7.2514,4.86065,-6.34679
0.332954,0.00248902,-11.9451,6.46538,5.20822,-11.8214,7.02079,5.45347,-12.0656,6.50582,5.17971,-11.9336,7.05817,5.42942
21.1031,0.391326,4.2995,44.4427,7.38012,6.79065,43.8162,6.57938,7.98362,46.6067,5.78428,5.50079,42.9246,7.30114
2.76777,0.372792,-5.87638,39.5787,7.5131,-4.96791,39.4114,5.80284,-4.88407,39.5195,5.7906,-5.34249,39.4656,6.24554
18.5143,0.788492,8.58473,35.2508,7.7721,10.222,35.797,8.18158,8.10992,34.2542,8.52362,9.93698,34.8765,7.99276
0.853877,0.02462,3.97786,37.7575,7.68993,3.83686,38.3474,7.33308,3.69088,38.032,7.50496,3.73328,38.2482,7.37813
6.02952,0.0569459,-10.2181,25.5503,-5.52665,-10.5937,24.074,-5.91331,-10.581,23.8323,-5.22174,-10.7667,22.9774,-5.46769
2.12685,0.0494773,-9.28986,33.9969,-4.40905,-9.34035,33.8057,-4.60971,-9.34153,34.9128,-4.95582,-9.34023,35.0566,-4.68957
0.633467,0.0211533,-4.46649,41.6419,5.43882,-4.30176,41.2243,5.57654,-4.69826,41.5972,5.44934,-4.24871,41.4646,5.52395
11.4455,0.179179,13.4358,17.5422,-1.52749,14.6139,15.9478,-1.84634,13.6393,17.0004,-0.365133,13.5105,18.1597,-2.30961
1.64131,0.157654,4.53683,44.6527,7.16124,5.24201,45.4518,6.78267,5.35438,45.4235,6.76593,5.57804,44.7084,6.8084
3.72879,0.0399482,-6.20555,46.0856,-2.01007,-5.42127,46.7857,-2.32859,-5.26882,46.5488,-2.73542,-4.80047,47.5431,-2.32773
2.39724,0.463678,-10.1847,13.8527,8.27245,-11.5535,14.0984,8.11599,-11.8602,14.4484,8.14442,-11.4197,13.8,8.12593
2.12735,0.463988,-12.1756,22.2944,1.0583,-12.1575,20.7523,1.18366,-12.1994,20.556,1.38134,-12.2027,20.6828,0.944451
2.80387,0.0898365,-10.1358,37.4495,-2.76032,-10.5152,38.1932,-2.62836,-10.1311,38.6732,-3.57559,-10.4787,38.8684,-3.22414
2.53301,0.493978,-14.2953,13.5677,-2.33969,-14.2044,12.4964,-1.74786,-14.1312,12.9357,-1.82035,-14.1513,12.6072,-1.78727
16.8534,0.26681,-9.56835,32.4318,-6.44294,-8.58144,33.318,-8.00852,-8.48937,37.471,-6.89263,-9.28621,33.4029,-7.00621
0.534905,0.108565,11.2883,9.96453,7.42886,11.9199,10.5554,6.80545,11.8266,10.7116,6.80358,11.6383,10.5936,6.93389
0.417831,0.0566297,14.7843,15.5256,-1.30021,14.9259,15.1108,-1.21521,14.9522,15.0459,-1.12139,14.8492,15.2284,-0.980058
0.804983,0.122147,-9.48812,36.9051,-4.37309,-9.58304,37.8556,-4.79426,-9.49444,37.4416,-4.80528,-9.55304,37.7011,-4.88115
3.51047,0.415633,-1.91369,3.29195,-0.374521,-1.70685,2.58359,-1.35828,-0.926141,2.39078,-1.31982,-1.8266,2.60238,-1.37195
8.15737,0.333979,-11.1289,16.6449,7.89424,-9.67103,16.6685,7.85392,-11.5866,17.0953,8.29413,-9.7069,15.9452,7.97703
0.663779,0.00662916,-7.83149,41.6458,1.32952,-7.75669,42.8816,1.28722,-7.7803,41.9,1.4331,-7.82785,42.8113,1.10939
17.2007,2.67651,16.1296,12.2248,-0.834283,14.9136,10.3916,3.44178,15.1054,10.1874,2.95831,15.2499,9.54847,1.95257
18.0851,1.63671,-3.54819,32.1332,-7.72001,-1.52459,35.8014,-7.22079,-0.988986,34.7223,-7.2706,-1.72808,36.0843,-7.24587
5.00088,0.171409,2.00101,2.68266,0.365696,2.50225,2.11605,0.257804,1.80607,2.97059,2.04088,1.49878,2.86846,0.642952
0.182426,0.011164,7.78758,21.2032,-5.60448,8.04937,20.9745,-5.54194,7.9498,21.1838,-5.56629,7.99976,20.9121,-5.55936
82.5973,2.52118,-9.82514,12.4482,-7.7027,-3.90499,12.0592,-7.93076,-4.21865,10.0889,-7.94926,-3.85121,12.8542,-7.95388
2.45964,0.0773494,10.5702,29.943,5.80194,11.0691,30.3038,4.63935,10.813,30.8992,5.3712,10.8273,30.8141,5.32921
4.05016,0.218805,-15.4296,14.8114,1.93002,-14.6613,14.0529,3.02579,-15.8267,14.1171,2.02369,-15.0322,15.5706,2.40424
18.9375,0.338543,1.25962,11.3002,-7.85627,-1.79044,8.05277,-8.03766,-0.984301,8.79869,-7.79781,-0.842274,9.88732,-8.30667
4.35015,0.262735,-13.2857,15.8981,7.23847,-12.6915,15.4987,7.9563,-12.3528,17.1805,8.10345,-12.0464,16.9937,8.311
3.86323,0.0521355,10.7492,4.73417,4.73912,10.2751,3.48204,5.25006,10.0525,3.43422,5.45305,10.1576,3.94261,5.35379
3.46473,0.00412969,-6.17771,37.4987,-7.81102,-5.24556,38.1753,-7.5111,-7.34632,38.0319,-7.71887,-6.19442,36.8818,-8.01263
17.1727,0.341708,-10.2618,25.3522,-5.12877,-9.80117,28.8297,-3.14463,-9.73734,29.5436,-2.18108,-9.93593,28.8175,-2.46095
13.8692,0.65018,3.72724,15.7095,-7.07543,5.64789,15.2144,-6.67683,5.11169,13.5313,-7.29159,5.60759,14.503,-6.81441
0.865582,0.0272902,5.37817,36.9779,-6.38458,5.1993,36.2949,-6.46463,6.41967,35.3213,-5.72556,5.05977,36.5942,-6.56266
8.14606,0.254179,-14.2797,12.678,-1.27173,-14.841,12.9048,0.271934,-14.6454,13.8595,-1.60088,-15.3313,13.4741,0.433353
0.27249,0.0465891,-14.3921,16.0375,2.00766,-14.7667,16.3617,1.73208,-14.8764,16.3267,1.80663,-14.697,16.1325,1.94596
2.13374,1.23477,-9.94365,37.0417,-2.53195,-9.32473,35.9636,-2.62787,-9.35118,35.9689,-3.25852,-9.30257,35.992,-2.91174
2.4252,0.140674,2.17404,40.7572,-5.92491,3.16895,39.7517,-6.03445,3.29168,39.7232,-6.037,2.48242,39.5856,-6.11929
2.38044,0.156397,7.90641,19.3522,-5.71875,8.28973,18.075,-5.82964,8.41606,18.2008,-5.74795,8.48226,19.0379,-5.6213
5.73036,0.748723,-3.23149,12.007,8.67953,-4.60006,9.52735,7.55795,-4.76488,9.75601,7.59573,-4.54508,9.42223,7.54089
2.09567,0.0151098,1.07383,4.94403,6.0449,1.53961,5.1793,6.67437,1.40681,5.0842,6.31856,0.279772,4.91128,6.73946
27.6085,0.140811,-9.76782,13.9745,8.31553,-8.75146,12.6949,8.61647,-7.87797,14.9782,8.48569,-6.56087,13.6364,8.66728
1.21483,0.11348,4.03537,49.4009,0.50119,3.15075,49.6411,0.628772,4.49503,49.4274,1.05136,4.55568,49.4223,0.949337
5.58605,0.94885,-10.9652,25.8023,0.0270454,-10.954,26.5807,0.708377,-10.7989,27.4795,0.282607,-11.2265,25.8501,1.05499
1.35076,0.0951572,12.1676,17.3322,4.48772,12.7663,17.2272,4.16897,12.9435,17.4431,4.11259,11.7737,17.3815,4.52916
12.9642,0.847097,7.56312,1.9017,4.76307,4.79024,2.39671,2.74646,8.74738,3.56796,6.39626,4.67474,2.94716,3.64477
3.24839,0.701527,-2.82241,47.6328,3.1642,-2.10302,47.9312,3.24503,-2.0224,47.992,3.00696,-2.5943,48.0902,3.83088
6.17035,0.319544,-6.85436,33.9961,2.792,-6.93978,34.5484,2.09695,-7.18817,34.0395,3.9014,-7.40309,33.6035,2.57886
7.12642,0.314094,-3.12576,16.3937,7.91478,-3.57274,15.6863,8.06383,-2.04959,16.095,7.87746,-3.13291,17.4182,8.71485
1.69781,0.179654,10.4164,25.4769,-0.340344,10.7486,24.6338,-0.150214,10.9166,24.2682,0.125061,10.724,24.5575,0.0519429
10.9705,0.786347,-2.61768,13.7785,-8.05541,-3.76234,12.1181,-7.94612,-2.28543,11.8103,-8.39254,-3.18415,11.8582,-8.0736
4.75526,0.0941844,-11.9691,28.3582,7.80918,-10.82,25.7273,7.20634,-11.654,27.8688,7.39574,-11.3292,26.1615,7.7667
22.2714,0.0484534,-5.41194,9.46041,-8.02132,-7.93419,8.385,-8.08875,-9.4563,9.29606,-7.85773,-7.17683,7.43798,-8.28029
7.20881,0.163228,-9.28035,35.791,-4.21265,-9.58475,36.6315,-3.51444,-9.34262,35.1559,-4.63423,-9.73285,37.755,-4.14378
3.64485,0.176326,10.9724,23.5566,0.744321,10.8963,24.2729,0.20087,11.223,23.0715,1.53171,11.6386,23.0556,0.758498
1.60819,0.0631979,10.3332,34.1086,3.06311,10.5579,32.6602,3.57523,10.4415,32.7261,3.27819,10.3701,33.2822,3.05319
6.57947,0.261396,-15.5674,13.728,0.63075,-15.3519,12.6763,2.01268,-15.9942,14.9305,0.694391,-15.0545,12.6228,1.53132
3.14928,0.244817,8.54497,42.9542,-2.16499,9.07766,42.596,-2.5112,8.89397,42.3725,-1.64487,8.49073,43.6796,-2.06224
7.47439,0.296783,12.0636,21.8238,-0.402773,12.7235,21.0127,0.138404,11.8804,23.2389,-0.804519,13.0672,20.2967,0.820332
1.80114,0.372492,10.18,40.5265,7.14505,8.63164,40.7967,7.52251,9.20348,40.1897,7.51313,9.10784,40.3378,7.48553
7.58282,0.146204,3.92262,38.5879,7.26732,5.80146,38.8423,8.24339,3.41456,38.6704,7.68472,6.16842,38.7086,8.02772
5.73939,0.004949,-7.0237,4.52196,-4.80406,-6.49223,4.42717,-6.3586,-5.80254,4.10306,-6.37295,-5.61051,3.98508,-6.09037
9.96366,0.269499,7.72974,2.16989,1.71605,9.34793,1.96984,2.49706,7.14654,1.89743,1.23272,8.55718,3.0168,0.75556
4.55243,0.19079,-10.7101,5.74121,3.48305,-9.68471,5.59457,5.43586,-9.48312,5.48487,5.02282,-11.0896,5.75834,4.3187
0.685781,0.0030953,9.75574,37.6242,-0.634325,9.93624,37.8223,0.0824906,9.95137,37.6064,0.12201,9.78424,37.862,-0.512512
3.10026,0.0657231,1.06957,2.28744,-1.38925,1.69921,1.45394,-2.42781,1.9478,1.65194,-1.93218,1.02067,1.862,-2.24559
6.95892,0.0566729,-7.06665,37.28,6.02434,-6.78304,38.1521,7.31611,-7.70945,36.6368,6.5484,-7.65161,36.976,7.4309
4.68129,0.222604,10.6153,21.749,3.15685,10.8845,21.4681,3.30119,10.8565,23.2951,2.10135,10.6908,23.4803,2.37935
4.57872,0.441835,1.05254,11.5183,7.33441,1.87428,11.3472,7.80458,1.15168,11.002,7.40286,-0.000353959,11.7975,8.38029
10.0184,0.821688,4.7683,4.94307,6.90714,4.46886,4.42766,5.056,4.4333,4.72702,5.23265,6.43274,5.71695,7.66829
4.74875,0.349185,-6.04917,5.17618,-1.33353,-6.14344,5.45682,-0.869119,-7.15181,5.33725,-1.46964,-5.41971,5.15471,-0.574851
31.5316,0.180028,-12.284,20.4115,-1.43553,-13.2432,17.8591,-2.22175,-13.5253,16.6042,-3.2261,-12.7525,17.359,-3.85523
2.32489,1.29894,9.29226,11.0935,8.02262,7.63255,11.0898,7.36072,7.68828,11.2578,7.5415,7.63205,11.0147,7.34214
2.03142,0.872441,1.26282,8.56559,7.90486,1.29394,6.2868,8.12617,1.54474,6.40734,8.13855,1.34847,6.15024,8.07949
2.0539,0.157444,1.85693,3.43531,2.88056,0.749719,3.41984,2.26059,0.772411,3.49966,2.49859,2.37786,3.68039,3.15264
5.2861,0.781342,2.55658,31.0821,-6.2332,3.63371,31.6724,-5.92353,2.75036,32.4287,-6.28776,2.50995,32.5689,-6.43694
7.95849,2.42854,-3.9594,15.6312,7.97498,-3.77369,11.9464,8.57741,-3.93058,11.8991,8.58236,-3.8433,11.9049,8.56705
4.90397,0.234501,-13.3987,16.5297,1.9372,-14.623,16.7383,1.13355,-12.8915,17.2802,2.49485,-13.6819,16.1218,2.11693
1.77027,0.0439044,13.4072,18.8639,0.73804,13.2473,19.7833,1.31755,13.3253,19.4996,1.47043,13.2439,19.75,1.05224
1.60653,0.313691,-0.754252,4.40499,4.42277,-1.10189,4.13807,4.85003,0.127165,4.1796,4.69221,0.429603,4.08659,4.67707
1.06136,0.378176,-5.9276,42.4028,3.70466,-6.12144,42.0108,3.4468,-6.08022,41.889,3.51684,-6.3503,42.0442,3.39249
0.130472,0.0291879,-6.59053,38.1571,6.2298,-6.65713,37.8036,5.96044,-6.53452,37.9787,5.91692,-6.7014,37.7217,5.94867
3.48704,0.127883,-1.50409,28.4453,-6.75579,-1.76355,28.457,-7.07845,-1.14165,27.5535,-6.64279,-1.7938,26.9116,-7.04784
2.16774,0.0359553,-14.7855,10.7703,0.831859,-14.8835,9.69365,0.184963,-14.9467,10.3601,1.09576,-14.8303,9.74979,0.060036
5.84252,0.102075,9.26473,9.45905,-4.41186,8.32608,10.443,-5.306,10.286,9.32819,-4.07211,8.89777,10.7503,-5.57473
9.83081,0.0137437,-10.8376,15.5235,8.04959,-12.3253,14.6773,8.10999,-12.1832,15.4533,7.95741,-10.0835,14.2605,8.35177
5.14254,0.351599,13.7639,16.9682,1.35628,14.6182,15.4746,1.87885,14.5775,15.5727,1.98435,13.7988,17.7152,2.57707
2.2555,0.0155083,-6.20932,10.9278,7.96653,-6.73351,10.2801,7.51051,-6.58949,9.90691,7.12699,-6.85743,9.86865,7.15631
0.785288,0.0630251,13.5362,18.3181,1.47539,13.6507,17.5172,1.5923,13.6709,17.609,1.79366,13.6102,17.8704,1.7453
3.4731,0.0411927,-3.63753,4.98053,-7.19107,-2.8363,6.33976,-7.25768,-2.11091,5.65936,-6.36327,-2.28889,5.26097,-6.31527
3.65389,0.181368,6.92442,1.8349,0.874056,8.21591,3.17653,-0.123213,5.81308,1.2375,-0.29582,5.7879,1.24965,-0.836958
7.17515,0.139015,-11.0559,20.9527,5.79189,-11.4862,19.2476,5.96637,-10.9279,21.8147,6.83585,-11.3517,20.6067,4.96104
1.26437,0.0756538,6.80557,11.9322,7.94696,6.4606,12.586,7.99295,6.59368,13.1583,8.04598,6.46121,13.1571,8.06242
6.36411,0.28301,-4.37119,4.44445,-0.780357,-4.18281,3.80522,-2.14339,-3.24368,3.26233,-1.17294,-3.04306,3.11556,-1.01262
16.8449,0.262966,0.51902,45.3626,5.35624,-1.01769,45.3662,7.18371,1.11926,47.2179,5.62409,0.745474,47.421,6.3893
2.41806,0.0881494,-5.23689,46.7014,2.24817,-6.11241,45.5242,1.77022,-5.67337,45.9203,2.21292,-6.0526,45.6334,1.73069
2.18745,0.177959,4.69886,6.63605,8.09238,4.77505,5.33618,7.33441,4.56391,5.75013,7.62489,4.02827,5.29178,7.79602
0.0711064,0.0314562,15.9654,13.6109,0.349588,16.0412,13.319,0.316221,16.0001,13.4768,0.391499,16.0884,13.2601,0.187162
3.54297,0.333665,-0.926867,6.40831,7.33023,-0.618558,5.51833,7.13155,-0.22983,4.45686,6.41236,-0.461791,4.5671,6.48251
4.24042,0.234361,-5.02085,37.9257,7.94748,-3.92583,38.1576,8.32635,-5.34485,38.4204,8.09967,-5.0637,36.4155,8.29537
2.00382,0.00319932,1.72158,36.2597,8.16489,2.07183,36.1448,8.08418,2.91157,36.4525,7.67713,2.72099,36.6004,7.69299
4.63766,0.374015,-13.2764,17.734,-2.55251,-13.4701,16.1763,-2.43475,-13.5811,15.8879,-2.96797,-13.6748,15.6402,-2.51368
17.0363,0.351731,9.92544,30.4519,1.59327,9.6487,33.5904,0.636745,9.93112,32.8906,1.89018,10.1802,33.7812,2.38426
0,0.0416609,6.32787,2.08047,6.01941,6.44457,2.02521,6.02617,6.15162,2.16749,6.19611,6.33779,2.11403,6.14052
3.95062,0.0661001,11.7863,17.613,-4.97006,10.0573,18.8555,-5.31967,9.9041,18.3112,-5.41972,9.93984,18.756,-5.35989
10.4787,0.915223,10.9315,24.5094,-0.682847,10.2507,26.3462,-0.729763,10.2384,26.5447,-0.12565,10.3135,26.5349,-1.33034
2.43299,1.08703,1.79049,36.0997,-7.03891,2.45431,37.2583,-6.57426,2.86137,37.3393,-6.55424,2.18494,37.2156,-6.62131
46.9644,0.534185,-9.82005,28.2346,-4.94442,-9.46263,32.5241,-4.46294,-9.49279,32.4911,-4.58241,-9.27759,31.2826,-2.35705
24.686,0.282439,0.673617,5.85965,-4.68725,-0.274264,7.3962,-5.82086,2.0221,5.06038,-4.14813,-0.955138,4.82802,-5.63344
0.502897,0.14051,-10.9431,6.46555,-4.40281,-10.225,6.24767,-4.26001,-10.3299,6.34457,-4.14835,-10.505,6.38653,-4.35558
10.5636,0.931498,-0.544906,8.31978,-6.50467,-2.61381,7.48798,-8.14496,-2.77566,6.66532,-7.46241,-2.66096,7.39241,-8.08014
8.1111,0.822387,-7.10465,4.60941,-3.89637,-4.03816,3.50227,-3.75253,-4.24947,3.53577,-3.95041,-4.40605,3.57147,-4.24045
3.74234,0.416416,10.9705,15.2124,-5.13394,9.14031,16.8347,-5.60264,9.27818,17.0312,-5.59509,8.9075,16.6889,-5.65118
1.22814,0.206576,-5.74592,14.1565,-7.76933,-6.77785,13.6163,-7.8744,-7.10098,13.9001,-7.91017,-7.03709,13.8014,-7.90914
42.3036,0.0994377,7.26266,16.1736,-5.97071,9.45551,11.962,-5.78728,10.3174,14.6406,-5.34108,10.4802,12.7225,-5.44328
4.41026,0.455782,6.7492,11.1106,7.01937,7.56427,11.0482,7.31978,6.93607,9.65945,7.27346,6.31659,11.5997,7.63163
2.13764,0.0300192,3.36515,1.34187,-0.323344,4.31535,0.519284,-0.213032,3.52355,1.09968,-0.708933,4.31189,0.567655,-0.0835817
4.6037,0.306658,-4.38758,46.2181,-3.54471,-4.31284,47.1528,-3.53982,-4.90422,45.2984,-4.06459,-4.6904,45.6089,-4.13528
5.23816,0.0747985,0.950306,18.3959,-7.64275,2.25001,16.9353,-7.34718,1.36778,18.0849,-7.4487,1.98193,16.9427,-7.46813
2.03504,0.161776,6.1718,14.7204,7.68287,6.07242,14.167,7.99302,6.49165,13.2764,8.04832,6.30157,13.4611,8.06676
4.97933,0.440689,-9.61162,11.3813,7.53677,-9.56061,9.87173,7.77947,-8.83696,11.2963,7.95724,-10.0524,11.3639,7.98641
13.227,0.232293,-0.415533,34.9408,-6.95311,-0.553418,36.0078,-6.74239,-1.48212,37.5451,-6.86999,-0.163243,37.1342,-6.69836
1.46267,0.0257178,5.67588,2.00648,-1.87995,6.76224,2.2664,-0.801649,6.69759,2.17963,-0.747876,6.34165,2.36359,-1.58122
3.15316,0.0528793,14.509,9.54144,-1.42359,15.1099,8.29858,0.551219,15.1333,8.41907,0.521057,14.638,8.14656,-0.224051
4.25322,0.147306,-10.3145,25.633,-3.29492,-10.5128,24.9038,-3.98182,-10.6186,25.0891,-2.69626,-10.3762,26.223,-3.20521
0.951102,0.117401,-2.82468,34.6422,-7.6345,-2.41557,35.2438,-7.4577,-2.11357,35.4629,-7.39365,-2.56931,35.4575,-7.52539
1.09454,0.00481825,-3.63799,3.808,-6.55028,-3.04648,5.24559,-6.79433,-3.2001,5.18561,-6.89143,-3.468,4.59441,-6.80884
14.9532,0.0867949,-2.64038,36.5451,-7.4299,-1.7282,39.5483,-6.49678,-3.71477,38.0418,-7.26563,-2.54651,39.6877,-6.59267
2.92086,0.453972,-6.02418,40.9692,-5.85821,-7.55063,39.2962,-6.49365,-7.96128,39.2316,-6.18463,-7.71386,39.3288,-6.25197
0.827592,0.056507,6.31048,46.4777,-3.98668,6.30149,47.1835,-3.76489,6.51444,47.0279,-3.74785,6.60947,46.6433,-3.86971
2.32274,0.298143,12.9597,19.2299,-1.86236,12.7488,20.4229,-2.15018,12.8681,19.7383,-2.48265,12.7134,20.3911,-2.26955
0.523081,0.0152008,8.95647,42.0582,-5.19711,9.2359,41.9591,-5.02921,9.31997,41.7812,-5.02632,9.1137,41.6128,-5.20517
2.59011,0.250343,1.02092,44.9568,-5.31109,0.925503,43.4565,-5.7418,1.24287,43.6974,-5.56998,1.71247,43.4911,-5.57544
9.86997,0.352246,5.88937,16.4238,-6.46081,5.41212,17.6012,-6.59857,8.61989,16.5596,-5.71012,7.3244,17.4058,-5.90316
6.59913,0.0528862,-12.2183,14.8052,-6.11472,-12.2557,16.272,-5.40516,-11.9827,16.3225,-6.31631,-11.9908,15.5799,-6.48919
11.8185,0.139435,-1.44685,48.6901,4.20241,-0.292797,48.699,2.89474,-0.179197,48.8843,3.05083,-0.183416,49.9403,4.5331
18.4902,0.00172974,-7.99458,36.1099,6.26515,-10.1794,33.7833,7.04112,-9.862,34.508,8.07059,-10.1708,34.0641,7.83973
1.03723,0.365474,8.41377,9.86691,7.67116,8.96492,10.0582,7.80244,8.93349,10.3565,7.82908,8.8938,10.2008,7.74689
0.936351,0.22324,9.1422,33.5572,-1.42377,9.35723,33.0084,-1.40756,9.19785,33.1896,-1.58239,9.18591,33.2258,-1.85762
1.0685,0.0231181,6.45135,24.1781,-5.32808,5.88139,23.455,-5.58114,6.26588,23.4339,-5.505,6.00115,23.4121,-5.56302
2.86709,0.338982,-5.38678,5.72766,3.23049,-5.61929,5.401,3.84072,-4.32067,5.14225,3.74781,-4.4735,5.1692,3.83647
0.607665,0.0481213,2.0513,27.0487,-5.78942,1.67492,26.0299,-5.99348,2.04974,26.5026,-5.83224,1.76231,25.9071,-5.95129
1.20267,0.299686,0.0464862,7.18517,8.33472,0.209871,6.26655,8.04787,-0.0751943,6.13585,7.8458,-0.00448802,6.03702,7.79013
2.13958,0.0399831,-6.93151,35.7395,1.19372,-6.5385,36.2144,2.06983,-6.74427,35.7275,1.51667,-6.94502,36.2748,1.15914
7.12239,0.025381,-12.9488,15.9153,-4.17278,-13.6273,15.107,-3.71322,-12.7778,13.8991,-4.72784,-13.0154,13.4879,-4.60685
6.90815,0.714209,-11.3978,19.4421,5.10254,-12.0775,19.1736,3.16989,-11.9815,19.6615,3.75208,-11.587,21.2485,4.51952
3.5103,0.0993417,-0.875721,42.386,-5.85762,-0.362891,42.0858,-5.85016,-1.36396,40.8568,-6.18493,-0.42357,43.7762,-5.754
0.864255,0.112508,8.4549,47.0926,0.894617,8.87934,46.3457,1.15378,8.85775,46.2662,0.917363,8.93655,46.2951,1.23311
2.16372,0.152352,6.14104,37.7621,-5.71694,6.68083,37.0243,-5.59051,7.02321,36.8717,-5.45298,7.13677,36.9971,-5.30325
3.88923,0.168386,-6.27941,35.9878,2.77001,-6.63657,34.9314,2.91577,-6.47509,36.7396,2.05867,-6.21757,36.3339,3.46109
8.16071,0.245714,-9.03384,31.3419,2.2872,-9.12845,32.053,2.93324,-9.99185,29.6481,2.44682,-9.66037,29.9898,1.25006
5.69786,0.202628,1.25413,50.2506,4.45952,1.83633,49.6296,5.00218,1.4098,49.1551,5.60918,2.72428,49.2485,5.58554
1.27626,0.0186404,10.0593,36.5634,8.21152,8.93297,37.012,8.17685,8.95048,36.8015,8.1775,9.99494,36.8428,8.19147
18.8486,0.606978,-14.8515,10.5437,3.21184,-14.0376,11.6943,5.3355,-14.0281,11.3329,5.88784,-13.9039,13.8039,5.23644
0.72628,0.0758037,-11.7565,17.3611,-7.09869,-11.9072,16.6993,-6.74102,-11.9126,16.2659,-6.85149,-11.9273,16.3031,-6.72108
15.5837,1.84754,-5.25218,17.4202,-7.82951,-5.69863,15.4695,-7.61162,-6.63864,15.2861,-7.85173,-4.43808,15.6896,-7.80267
14.4432,0.0377764,4.44486,47.9357,-3.80597,3.28283,46.8649,-4.71299,5.52799,45.9338,-4.55868,5.9081,46.1485,-4.34469
0.787987,0.0564321,14.4246,6.97709,1.58354,14.8378,7.4062,1.33457,14.6879,7.27319,1.25586,14.8606,7.42918,1.44809
0.970406,0.0112275,-3.40201,4.34174,5.27419,-2.95657,4.23755,5.31446,-3.68147,4.48631,4.67709,-3.4369,4.42583,4.66965
13.0635,0.639327,4.37559,8.97307,7.15297,3.60763,7.48794,8.29126,4.80218,7.07403,8.11146,6.62511,8.29801,7.46065
1.45584,0.052004,-1.01137,15.6105,-8.3238,-0.0139814,16.1294,-8.59275,-0.0274894,15.4585,-8.56087,0.00276852,15.5825,-8.57517
10.724,0.458486,-9.13576,5.38176,-4.4826,-8.18025,5.23386,-7.00881,-8.57042,5.44653,-6.99048,-9.22745,5.70907,-6.70351
7.40566,0.347899,-5.54202,42.7548,4.83781,-5.71085,41.3676,4.21746,-5.67703,38.8667,4.06837,-5.63975,39.6248,3.97088
6.00505,3.80998,3.3344,43.7241,8.04615,-0.521472,43.9782,7.83639,-0.575516,43.7394,7.89809,-0.550788,43.8508,7.84178
21.7665,0.721927,9.44066,32.6393,-1.39289,9.88879,30.3471,-3.76627,10.0153,30.491,-1.47469,9.98481,32.2434,-4.40499
29.8578,0.31545,11.3918,24.4742,-2.72615,12.7024,21.0439,-3.13979,12.3399,21.4479,-2.55319,12.8967,21.5978,-3.8232
4.88083,0.101057,-9.53862,24.3982,-7.94726,-9.40309,26.6285,-8.05908,-9.59693,26.6251,-7.99029,-10.1559,24.1912,-7.83932
2.32531,0.0377903,13.6097,17.1051,-0.117017,13.5255,17.5878,0.918985,13.6017,17.5632,1.24447,13.8988,16.7359,0.626621
1.83182,0.0291218,-3.43974,41.9803,7.54023,-2.91958,41.9595,6.83738,-2.87818,42.0781,7.19409,-2.72067,41.9827,6.71389
11.3117,0.158147,9.06227,32.4007,8.07969,10.0131,33.1392,7.24558,8.30331,32.0903,8.43774,9.46147,34.463,8.0837
8.92144,0.158757,4.1766,37.9686,-6.22283,2.62086,37.9703,-6.45294,4.29996,39.0564,-6.13529,2.72459,39.5127,-6.10093
3.0948,0.136574,-11.2063,21.3009,7.55162,-11.546,20.3524,8.14386,-11.838,19.439,8.05828,-11.8064,19.5946,8.13926
6.21606,0.607473,3.71995,9.14254,7.63985,1.93871,8.62683,8.10072,2.76616,8.33072,8.2149,3.23138,9.69823,8.15456
6.73804,0.091643,-5.63751,9.87036,7.38513,-5.86421,11.8169,8.71837,-6.07666,11.4659,8.44235,-5.14039,10.1603,7.79521
14.9669,0.193306,-3.01359,32.1521,-7.73923,-1.14541,32.7143,-7.54329,-0.494383,32.3908,-7.36999,-0.758536,31.4465,-7.36636
13.5195,0.0357877,6.63162,15.5549,-6.21562,5.76482,14.6365,-6.71424,7.84654,13.627,-6.15954,6.79928,12.4518,-6.82425
3.58453,0.12746,2.0136,19.733,-6.95462,3.41596,18.4796,-6.88914,3.05732,18.5705,-6.93018,2.41589,19.0353,-6.92667
1.08722,0.0805286,12.1749,5.48168,3.15897,11.9495,5.78144,2.36793,12.3072,5.62288,3.31282,12.0691,5.97396,2.15544
1.96498,0.472562,12.8651,7.16186,5.00078,13.2046,6.4893,3.49103,13.2744,7.71026,5.223,13.2575,6.58939,3.85248
2.11443,0.136105,-1.65053,18.6695,-7.9176,-1.88219,18.5442,-8.07467,-1.36857,19.2898,-7.86899,-1.01909,18.2367,-8.35243
1.14601,0.0493199,10.1303,44.1177,3.26402,9.90855,44.5171,2.89407,9.83927,44.7452,2.86434,9.8266,44.9004,2.91411
1.92863,0.0698644,-10.6322,27.9583,-0.279671,-10.2227,28.8622,-0.0692168,-10.0338,29.2644,0.450521,-9.97774,29.4992,0.172955
10.4806,0.634404,5.26028,10.6819,7.12407,6.10366,12.5248,8.12422,4.68131,10.2741,7.89972,6.44238,10.3205,7.29391
1.56873,0.0332558,3.80272,19.0256,-6.7746,4.58759,19.6019,-6.48856,4.68813,20.0286,-6.37438,4.80977,19.9945,-6.36407
6.28142,0.67663,2.15375,43.7108,-5.43315,1.97491,46.2858,-4.73368,1.64236,46.0845,-4.76683,1.42009,45.7709,-4.88983
25.1158,0.549937,-7.86667,40.4035,1.34701,-8.5546,42.1735,-0.133366,-9.41071,40.9977,-1.81725,-9.43203,39.9555,-1.1653
0.438898,0.126039,-4.63231,37.1964,4.42796,-4.56941,36.8082,4.39704,-4.68264,36.7249,4.33984,-4.36055,36.8714,4.52138
1.55346,0.0651256,-7.61915,14.8612,8.53477,-7.01009,14.5229,8.70619,-7.41966,14.0338,8.67525,-7.07603,14.9191,8.67467
5.50442,0.137489,3.59328,44.6774,7.57257,2.29913,46.1534,7.30198,2.87126,47.2725,6.76742,2.5777,47.4024,6.7554
16.3252,0.076756,-2.91941,47.1359,0.893054,-4.25295,46.8267,1.0741,0.706293,48.9069,1.33939,1.01707,49.4416,2.01332
5.73382,0.433735,-13.3155,10.6393,-4.27785,-13.0108,12.9764,-4.59014,-12.7841,13.434,-5.14655,-12.7857,12.1846,-4.78472
1.46333,0.138728,-10.8316,20.6226,-7.26503,-9.92692,21.2944,-7.87955,-10.1305,21.5002,-7.84322,-10.0109,21.461,-7.88016
5.51119,0.0885763,6.60312,48.5573,2.53538,7.49299,47.8298,1.2808,6.32302,48.4919,1.31169,7.54443,47.8501,1.46502
2.27886,0.170011,8.76058,36.6831,-4.44759,8.50747,35.339,-4.92388,8.28472,35.736,-4.79292,8.40367,35.4464,-4.88223
2.78082,0.00420885,-2.39293,14.6152,8.07676,-0.979638,14.4936,8.27332,-2.26114,15.1348,8.09739,-1.24972,14.4002,8.23359
5.22598,0.999141,-2.57158,42.1362,5.50901,-3.96974,40.9543,5.80712,-3.86321,40.8883,6.07504,-3.99027,40.8428,6.22305
12.2362,0.332681,-10.9092,29.1213,5.29247,-10.6766,30.2764,5.09464,-10.2888,25.7522,5.66803,-10.2944,25.6319,5.34223
3.75487,0.00877879,-1.67289,19.3679,-7.86159,-1.51858,20.695,-7.6695,-0.946895,19.8548,-7.80321,-0.68428,20.3915,-7.72386
6.84771,0.00714167,8.5034,47.1692,-2.38029,5.55057,48.6963,-2.92945,4.40469,49.3512,-3.01059,6.35883,48.4548,-2.43047
4.27887,0.0290025,-11.3523,20.1045,-4.16248,-11.8032,18.1977,-4.73441,-11.5647,18.4576,-5.30741,-11.4259,19.0374,-5.10371
7.47299,0.778593,5.91156,16.4292,7.35431,6.04326,15.2511,7.52317,7.40215,16.6405,8.29962,4.60409,16.4489,8.38667
1.63087,0.198361,-4.56772,3.7378,-2.65987,-5.41355,3.9959,-2.66436,-5.50898,4.12463,-2.43101,-5.62018,3.85634,-2.94166
5.68213,0.240043,-1.16934,37.0143,7.6682,-2.2235,35.4739,8.49542,-1.60483,35.8758,8.46334,-0.171863,37.0503,8.0335
5.97561,0.0725532,-0.923371,21.9177,-7.16345,-1.5303,22.8532,-7.35963,-0.942711,23.6592,-7.00772,-0.452352,23.3765,-6.84713
10.2789,0.0299186,-4.78884,33.1876,-8.07189,-6.59357,35.4252,-8.24773,-5.49531,34.8795,-8.1594,-6.04635,34.1767,-8.20322
19.4754,0.553626,-8.04711,7.10993,1.55768,-9.1721,6.36951,2.01872,-5.51474,6.17419,2.03931,-5.67863,5.76822,3.01539
3.08568,0.0882428,-9.95938,28.8407,-1.94127,-10.0609,29.0801,-1.34449,-9.6459,29.8053,-1.74114,-9.62047,30.1253,-1.5785
0.0281205,0.00472511,-10.9882,6.31324,-1.64323,-11.0686,6.28552,-1.67419,-11.0547,6.33675,-1.55785,-10.9845,6.32625,-1.60163
3.16132,0.082801,3.87207,4.4963,-3.36923,2.45531,4.71705,-3.9128,2.82205,5.94598,-4.21065,2.91789,4.90865,-3.79958
13.6829,0.28497,-3.49905,37.2312,7.99188,-3.15868,36.4136,8.23973,-2.19572,39.7598,8.5221,-1.35121,38.2023,8.45981
1.26982,0.489135,13.4355,14.8378,4.91499,13.9703,14.5407,4.92785,14.3078,14.9123,4.53852,14.1253,14.6664,4.73665
2.70166,0.105009,-12.8773,15.7659,-4.2804,-12.5441,17.3363,-4.03485,-12.4502,16.6512,-4.39772,-12.3746,17.2389,-4.2128
3.71686,0.359795,3.76822,15.2168,7.57451,3.56993,14.2789,8.3552,4.21589,15.2329,7.56669,3.81586,16.0808,8.25755
2.42889,0.187999,-6.76809,25.5409,8.65505,-8.87847,26.4907,8.56222,-9.02952,25.8294,8.5577,-8.64503,26.1025,8.54727
1.4869,0.126279,-14.9961,9.30621,0.778651,-14.9837,8.6372,0.844541,-15.014,10.0062,1.64533,-14.9806,10.1942,1.62855
37.6239,0.468142,-4.9083,28.9869,-7.92106,-5.87413,21.4417,-7.73975,-7.62977,22.6874,-7.97064,-7.48707,25.1345,-8.19323
3.77321,0.319757,-0.637907,35.3686,8.09053,-0.000973901,35.5471,8.16294,-1.02207,34.3334,8.71083,-0.763897,36.0405,8.40744
2.3619,0.303168,12.9965,19.1216,-1.7759,13.4545,18.2375,-2.27635,13.218,18.6797,-1.24982,13.4369,18.2494,-2.19502
9.45398,0.274023,-6.24502,8.15437,6.08097,-9.67236,8.39559,6.1255,-9.60856,8.66676,6.19219,-6.10443,9.24613,6.62144
5.68052,0.442101,-4.75713,3.64885,-4.86756,-4.12122,3.37688,-6.2272,-4.03295,2.88039,-5.3514,-5.36759,3.86845,-5.67625
4.47544,0.331011,10.5741,24.734,2.39533,10.6577,23.602,2.43894,10.6622,23.5353,2.50102,10.721,25.1994,1.43718
1.91962,0.0220157,10.649,22.2078,4.23862,10.7018,20.9717,4.64031,10.7684,21.1836,4.34218,10.5955,21.9311,4.59497
1.1157,0.55549,4.58713,0.598258,0.147056,5.59189,0.874271,0.102708,6.22562,0.896886,1.12606,5.57298,0.853752,-0.0216748
5.86966,0.475709,-1.07484,9.11105,7.55626,-1.3918,9.95676,7.84298,0.650892,8.71366,7.93622,0.799346,8.80017,7.8885
1.55269,0.0198859,8.3578,9.62136,7.71154,7.14187,9.9963,7.20066,7.158,10.1177,7.19066,7.5777,9.69763,7.41369
2.98683,0.0509786,-3.97554,6.24776,-8.28034,-3.44959,6.19133,-7.76161,-3.6349,5.48722,-7.50274,-3.86215,5.57419,-7.80286
1.8755,0.217995,-0.269514,2.13353,-2.40738,0.0551188,2.36993,-1.32364,0.485295,2.09796,-2.06123,0.146101,2.25303,-1.9578
1.30355,0.0214723,-7.90026,22.2016,-7.90057,-6.97365,22.2883,-7.83007,-8.01527,21.6999,-7.85394,-7.03021,22.0407,-7.79624
9.29619,0.188164,-11.2654,31.5405,7.26997,-10.8166,32.9895,7.43892,-10.6189,32.2983,6.31221,-10.255,33.4859,6.84008
0.345119,0.0471153,5.69753,46.5418,6.68586,6.03434,46.7025,6.58038,6.26171,47.1399,6.41628,6.23587,47.0246,6.46027
55.4332,0.338556,9.40021,18.8659,6.81673,10.7056,23.1376,5.03048,10.4508,19.206,4.98198,10.239,22.9817,6.2861
1.1346,0.422159,12.3173,7.80857,-1.91449,12.4587,7.35075,-1.23131,12.6087,7.43975,-1.29616,12.2858,7.15547,-1.11048
0.420959,0.00070284,-3.03849,6.72284,-7.875,-3.18066,6.41292,-7.67834,-3.46545,6.44061,-8.03519,-3.4365,6.38438,-7.93685
2.65641,0.0632293,2.65095,49.7873,1.76749,3.8676,49.6419,2.68894,3.62436,49.6338,2.16087,4.17484,49.5997,2.61639
3.90191,0.094546,-7.89299,38.3971,-6.97097,-8.18482,37.9725,-7.00083,-8.33025,38.9384,-5.83371,-8.4002,38.3448,-6.23238
3.71626,0.282146,-11.6204,11.4991,8.39813,-13.307,11.6241,7.32544,-13.1639,10.8365,7.22526,-13.0851,11.5004,7.48635
2.3057,0.136086,9.46705,43.6849,-4.00367,8.29108,45.0387,-4.26901,8.47665,45.0489,-4.0766,8.75984,44.7618,-3.94253
3.92823,0.883868,-13.6974,7.52297,2.03906,-12.5916,7.69317,1.00714,-12.0606,7.59443,1.11035,-12.513,7.69198,1.01455
3.44699,0.218622,5.91015,38.7123,-5.6732,6.8771,38.8429,-5.44337,7.49524,38.2881,-5.03809,7.5449,38.4244,-5.03376
21.9259,0.109007,-1.78662,43.1247,7.68922,-2.27038,42.1172,6.72959,-1.91892,42.1377,5.76397,-0.487908,44.1946,5.6543
0.326398,0.123784,10.2187,26.9694,-1.71679,10.1616,27.4279,-1.78559,10.1725,27.2744,-2.07302,10.1529,27.3925,-1.91725
12.681,0.0753855,-6.63426,35.5417,2.02382,-8.22839,34.0121,0.800609,-8.29282,33.9684,0.677429,-7.58776,34.7261,0.521624
4.58208,0.103207,-2.79849,37.0894,8.14311,-2.59114,35.5306,8.3918,-2.40485,35.7741,8.43327,-2.6366,33.6291,8.70091
3.16329,0.106201,-2.21675,23.2457,-7.48055,-3.03337,21.9761,-7.66241,-3.53743,21.4759,-7.69491,-3.92037,21.4982,-7.69956
9.46955,0.598153,-9.13133,36.1636,-1.78829,-9.65594,36.6263,-0.832146,-8.98427,35.6444,-0.314142,-9.04047,33.992,-2.30993
8.09043,0.160564,2.05938,5.58591,7.70008,0.22804,5.77991,7.5311,3.0583,6.23776,8.17801,0.518698,5.35656,7.14369
13.6373,0.0913254,7.16402,42.0278,7.15218,5.52135,42.6046,7.38459,6.01114,43.3819,6.9914,8.84658,43.7844,6.24112
2.54018,1.31152,11.8595,6.74929,6.50092,10.335,6.2865,6.91136,10.4071,6.58849,7.06272,10.238,5.89843,6.77256
2.83398,0.165073,-12.8562,9.78944,-6.1122,-11.9916,8.34957,-7.01421,-11.6407,8.36113,-7.22915,-12.0673,9.09426,-6.87758
20.9626,0.403483,-7.87457,5.73682,3.36317,-8.9568,5.43714,4.76025,-5.64579,5.26123,4.16295,-8.61929,5.46982,5.99218
2.50704,0.935012,-6.65987,6.20774,0.33389,-4.93718,5.79692,0.567406,-4.96372,5.69958,0.468076,-5.02755,5.95968,0.794392
5.33617,0.100002,5.68777,48.7978,3.54974,3.77676,49.7301,3.74251,3.87712,49.6696,4.47641,4.86954,49.1278,4.1589
2.41722,0.213655,-8.98394,7.74659,1.20164,-9.01011,7.16293,1.21966,-9.56816,7.72547,1.10095,-9.3439,8.20042,0.84928
5.18206,0.169832,9.40263,35.5777,0.291594,9.13943,36.2637,-1.0584,9.80627,36.0874,0.901724,9.46437,34.7829,0.015439
12.6988,0.0108728,1.86897,40.3283,-5.96701,1.5133,42.6459,-5.80139,1.74092,42.2334,-5.82842,-0.236332,42.352,-5.82655
11.8951,0.135119,-13.6801,10.0692,-3.38168,-13.6051,14.1596,-3.68883,-14.0751,11.5298,-2.82991,-13.5234,12.9849,-3.89884
1.89857,0.0750082,-10.3235,25.9541,-7.43212,-10.2808,27.4133,-6.30325,-10.3122,26.8511,-6.985,-10.2775,27.3304,-6.54174
4.67085,0.197239,1.02703,49.8534,-1.37205,1.08834,49.3005,0.341907,0.63174,49.6302,-0.629146,1.6604,49.5732,0.0747548
3.14236,0.441415,6.48126,43.3585,-4.79173,7.0448,44.7935,-4.65957,6.92644,45.2627,-4.48158,7.19273,45.3474,-4.4297
9.11845,0.434821,-8.18832,39.9942,-4.58749,-9.12092,38.7848,-4.79107,-9.37252,38.7373,-4.60309,-8.71021,38.7005,-5.40214
29.0346,0.407327,0.706257,36.9773,-6.67641,1.30683,40.3656,-5.98949,-0.713244,40.869,-6.11657,1.62493,39.8074,-6.11551
0.243537,0.0045655,8.10569,1.11178,2.23007,8.03174,1.13833,2.13679,7.66938,1.04316,2.28276,7.63879,1.07942,2.16251
0.00190077,0.0132209,5.27619,48.9934,-0.28699,5.19665,49.0312,-0.21301,5.21229,49.0147,-0.279188,5.28139,48.9997,-0.0782941
1.64635,0.343962,9.37561,42.729,1.11619,10.011,41.9874,1.29084,9.98602,41.9355,1.17683,9.95739,42.719,1.71161
0.846337,0.00546317,-8.80443,11.9641,8.5863,-9.34965,12.4031,8.59142,-8.92397,12.5631,8.57464,-8.94977,12.4512,8.57739
5.17945,0.0838738,-1.88808,5.83514,-6.27088,-0.529168,7.71121,-6.06653,-1.19762,6.27914,-5.93179,-0.377009,7.40401,-5.8668
1.99038,0.0344129,0.94771,21.2362,-6.87739,1.74791,20.7707,-6.79453,1.8065,21.0182,-6.71375,1.72324,20.0812,-6.98933
2.58184,0.688721,-8.17229,38.8955,0.8619,-9.42426,38.1764,-0.104127,-8.88867,38.1314,0.530169,-9.56992,38.2273,-0.457438
7.48583,0.225252,7.43448,36.5317,-4.92824,7.45054,35.7188,-5.15831,7.13746,36.9038,-5.31103,9.29666,37.0324,-4.3528
3.1812,0.0307724,-7.77828,39.5853,1.3011,-7.72906,38.6817,1.06464,-7.55343,37.9151,1.03806,-7.38162,37.615,1.13248
2.09416,0.130257,2.17164,10.7105,-6.63962,2.33699,11.0305,-6.93086,2.60803,10.8292,-6.64607,2.15573,9.95525,-6.32172
0.497586,0.0460787,4.13982,46.3089,6.97324,4.51703,45.6979,7.02449,4.05631,45.9421,7.03872,4.26811,45.7579,7.05166
1.83111,0.132017,-14.8511,15.7101,-1.49984,-15.5278,15.1547,-0.915777,-15.5591,15.2991,-0.787152,-15.6557,15.3646,-0.639409
3.18094,0.0458211,-9.33509,33.3626,-4.53077,-9.70425,31.7714,-5.66333,-9.69778,31.733,-6.18193,-9.34849,33.4816,-4.77266
6.93942,0.596061,-10.6052,26.0466,6.30539,-10.6557,24.8823,8.0975,-10.496,24.6849,7.92201,-10.1878,24.3886,6.89177
4.40927,0.0310753,-11.3028,7.30621,1.34484,-10.2689,6.69476,1.8091,-11.2419,7.72303,0.750279,-10.0536,7.08616,1.11893
6.3441,0.00028098,4.4112,15.1495,7.37485,5.01677,14.9118,7.47766,7.07906,14.8954,7.59787,7.05042,14.7769,7.63046
5.07,0.052749,-3.40727,40.9767,8.30315,-3.64546,41.8993,8.04692,0.627498,40.509,8.38882,-0.905497,40.5896,8.41114
0.37097,0.0291164,-3.15906,49.909,-4.81228,-2.72882,50.0024,-4.94833,-2.96401,50.0952,-4.82584,-2.66435,49.8878,-5.00078
8.85843,0.550872,-1.63208,7.29545,7.46973,-2.5711,9.25797,8.18599,-3.18526,8.37527,7.52598,-2.62407,6.36675,7.2326
3.91944,0.505104,12.5221,7.04348,1.75679,12.0127,6.0137,2.09433,12.4895,6.82663,0.545414,13.0107,6.73955,1.70291
1.50417,0.0463828,-13.1468,6.53533,4.4789,-13.6815,6.89707,4.47333,-13.7914,7.4323,5.19564,-13.674,7.39227,5.2365
2.39205,0.215202,10.3395,24.302,5.24264,10.2526,25.3612,5.47428,10.2405,25.3581,5.67536,10.4772,24.7808,4.5095
6.66974,0.410801,-10.4151,6.62103,1.97302,-8.88207,5.66827,2.75497,-9.33919,5.56451,3.45218,-10.0704,5.7779,3.20186
18.9854,0.654322,-9.80723,31.7142,4.89902,-9.8615,33.5787,6.06058,-8.63046,33.8463,4.96361,-8.75543,32.7876,3.73872
2.34875,0.0995969,2.52036,13.5729,8.39354,2.58798,12.0181,8.50452,2.77539,12.2672,8.53678,2.80663,12.9218,8.54278
9.13642,0.370926,-9.09084,31.6947,1.76896,-8.64255,32.5291,1.62008,-7.7915,33.3097,2.90972,-7.44378,33.5884,2.84009
2.75094,0.169342,-10.3182,27.0814,-5.85961,-10.31,25.9414,-6.03971,-10.6067,25.5663,-6.55668,-10.1939,26.2826,-5.75784
20.7695,0.9282,-0.518355,37.8251,7.74951,1.78198,38.2499,8.0933,1.76311,36.4878,8.09006,0.285046,39.0171,8.50006
0.929482,0.0131967,-7.37508,35.9422,7.8924,-7.9718,36.4266,7.5021,-7.83655,36.4235,7.55315,-7.8851,36.1894,7.60998
0.578769,0.11563,-14.3159,8.10192,-1.42362,-14.5668,8.8422,-1.23499,-14.5524,8.79481,-1.13133,-14.5072,8.55612,-1.14849
3.29276,0.139052,-10.7714,23.6056,3.73629,-10.7763,23.311,4.49921,-10.5737,25.3518,4.24026,-11.0177,23.6946,3.24544
1.00992,0.387957,1.88831,46.0393,7.49774,1.28802,46.8361,7.0382,0.721455,46.9593,7.25937,1.16709,46.8708,7.06066
1.4027,0.0264789,6.62069,48.0682,0.358436,7.17406,47.6692,-0.194048,6.71974,47.9524,-0.145406,7.29037,47.6084,0.0432541
4.1166,0.0318152,10.055,34.714,1.83881,9.97945,34.2208,1.23286,9.98526,36.4919,1.81944,9.88629,36.3518,1.34186
1.28284,0.970769,11.7553,38.7687,5.9052,11.6289,37.6253,5.52785,11.5565,37.7306,5.79534,11.5608,37.7696,5.91527
1.09354,0.310523,-13.9416,12.5663,5.72728,-13.8065,12.0317,5.68921,-13.8488,11.852,5.9365,-13.9144,11.7549,5.6007
8.50098,0.381595,9.71435,30.4127,-0.0548801,10.1464,29.2327,-0.69548,9.85562,31.3875,-0.945592,9.88054,32.1933,-0.139809
10.4223,0.119615,-10.6754,25.465,-2.01365,-10.569,27.7539,-1.18462,-11.2025,24.0777,-1.6755,-10.3982,26.225,-2.80633
2.32043,0.00898741,-4.75164,40.2821,6.47005,-4.39064,40.8723,6.90429,-4.24396,40.9972,6.86014,-4.23125,40.6663,6.16744
4.72921,0.109322,5.72515,38.4733,-5.70035,4.83635,38.9946,-6.10525,6.44652,38.225,-5.55087,5.6591,37.2005,-6.18746
5.74673,0.710376,1.43885,3.51584,3.2244,-0.88379,4.11032,3.2519,-0.247162,4.23333,3.87428,-0.343149,4.18603,3.57701
1.12305,0.270198,2.98038,27.7009,-5.64998,2.76106,26.5548,-5.744,2.8594,26.6214,-5.71112,2.98307,26.5963,-5.70309
38.9127,0.249892,1.66477,40.5254,8.32301,6.04634,40.4766,8.26581,2.61847,37.1214,7.9173,1.93229,43.1135,8.23486
2.28548,0.0263446,3.10137,4.688,6.28976,2.86955,4.97059,6.7523,3.27712,4.87025,7.40947,3.20026,4.9324,7.47197
19.7761,0.472934,-11.2468,30.0697,6.53569,-11.5674,28.0212,7.09975,-10.8165,27.1505,5.80769,-11.0579,26.6938,6.59619
3.37341,0.00549421,5.84279,48.6639,4.00099,7.35544,48.1873,3.43396,7.23482,48.2251,3.43301,7.22863,48.2292,3.03477
4.12959,0.147622,-9.13248,31.6604,-0.379955,-8.84212,32.6695,0.470851,-9.33284,31.2701,0.422659,-8.76553,32.7717,0.829504
5.0816,0.330178,10.5218,37.9549,3.32311,10.5561,39.0072,2.83621,10.5261,40.3348,2.72491,10.6782,40.2148,2.87503
12.5623,0.260114,-1.32007,21.6889,-7.32432,1.38509,18.6845,-7.38262,0.886106,18.8059,-7.59418,-1.58304,20.9711,-7.60592
4.98731,0.219253,-14.1271,15.1513,-1.9634,-14.2638,16.8255,-0.585264,-14.1538,16.8536,-0.862398,-13.7133,15.7405,-2.27656
2.11706,0.435113,7.71649,15.2181,7.34912,8.7317,16.2576,8.03598,8.68908,16.351,8.07228,8.50514,16.3941,8.1087
15.6268,0.0084453,-2.40113,43.3358,5.04533,-1.40235,43.7499,4.92453,-3.63324,44.1603,5.05785,-2.31598,47.6568,4.65011
5.89527,0.333592,6.71931,4.55168,6.56332,7.23572,3.69424,6.70778,8.03364,5.99416,7.57297,6.3343,4.33956,6.79445
0.918841,0.0486225,3.48317,48.4281,-4.05032,2.49871,48.8152,-4.32663,2.58492,49.0051,-4.15309,2.40661,48.9974,-4.24546
1.18008,0.205772,-5.02752,36.1878,8.31209,-6.71706,36.1539,8.29229,-5.98019,36.5494,8.23083,-6.17055,36.2845,8.23801
5.13468,0.168638,2.40465,11.3163,-7.12367,3.59302,10.8013,-6.34645,3.38834,10.0682,-5.92555,2.02705,11.6423,-7.78646
24.9365,1.49111,-7.69337,35.1095,0.235532,-9.28737,31.2262,-3.41034,-9.20253,31.5845,-1.80748,-9.10804,31.7892,-1.09788
9.08426,0.442444,9.48298,45.1489,2.20484,8.84957,47.114,2.5087,8.45168,45.2795,0.269358,8.59213,44.5473,0.427398
0.0151074,0.0210851,-7.68988,37.658,-7.82294,-7.79813,37.7588,-7.76191,-7.73429,37.5828,-7.84769,-7.77876,37.8416,-7.74667
20.4719,0.589442,-6.36669,39.5945,2.99809,-7.0452,38.4261,1.81242,-6.45095,36.8981,2.10471,-6.58143,36.9348,1.75759
8.08751,0.329354,4.80462,49.1869,-0.226378,3.66183,49.5165,-2.61969,3.32736,49.5397,-0.601116,3.04706,49.535,-1.74743
14.5516,0.281209,-11.2452,20.53,-3.52735,-12.1375,18.5437,-3.83161,-11.3407,22.1044,-2.36035,-12.1767,18.7499,-3.43454
13.7209,0.962158,10.392,35.2994,3.41661,10.4378,33.5915,5.77932,10.7057,32.7635,4.51019,10.4995,32.94,5.26862
2.28291,0.177543,-7.08523,36.6969,0.731983,-6.73151,36.9898,1.41354,-7.03034,37.0932,1.057,-7.30729,36.2234,0.761985
0.890934,0.199686,-10.5092,8.01814,0.352832,-10.7108,7.71454,0.440042,-11.1897,7.85292,0.616296,-11.1649,7.68373,0.741061
4.16822,0.567054,-4.83136,37.3688,5.40643,-5.31525,39.1619,5.63083,-4.96479,39.6231,5.21502,-5.57045,39.2575,5.74554
7.54852,0.535311,-10.108,8.73964,-0.337155,-9.14156,8.20043,0.0668774,-11.403,8.36463,-0.152602,-11.2477,8.24783,-0.493748
4.57802,0.236705,11.2368,9.35291,-3.64549,13.0432,8.5837,-2.24808,12.7072,8.4502,-2.20893,12.9807,8.52501,-2.21142
4.00229,0.275036,-3.76404,47.8019,-3.27308,-3.63446,48.8326,-2.93276,-3.55331,49.0567,-2.61264,-4.24772,47.3668,-3.37217
1.77015,0.0386614,-10.3371,25.1391,-7.45678,-10.7541,23.6818,-7.01413,-10.8253,23.6563,-6.72438,-10.579,24.2125,-7.341
24.6732,0.959435,-12.7035,15.6175,4.56113,-12.1443,17.4931,4.45426,-13.6116,16.115,2.1792,-11.8854,18.3279,5.09738
27.5012,0.0201922,12.7728,12.9247,6.08398,14.5415,13.4118,4.32143,14.9237,11.3988,3.64704,15.2268,12.3767,3.46126
2.51814,0.258141,11.6112,41.0346,4.51708,11.8135,39.965,5.33849,11.8325,40.0005,5.45816,11.7454,40.3159,4.30735
15.8836,0.0774603,-0.287996,13.7683,-8.52991,-1.79002,14.1179,-8.20561,-2.16743,17.3754,-8.32743,-2.12887,14.1673,-8.14852
1.47841,0.280211,1.92269,11.3915,7.84676,2.49568,11.6355,8.28368,2.55818,11.3558,8.18188,2.61906,11.6097,8.28321
1.94459,0.577962,-10.8686,9.84842,7.25991,-11.2263,10.9807,8.2758,-10.997,10.8491,8.27168,-11.3457,10.9039,8.21929
3.82449,0.114572,-10.996,11.5236,-7.37989,-11.7485,11.0787,-7.17268,-10.8331,10.2804,-7.5158,-11.3517,10.1711,-7.29631
30.2566,0.761897,-14.5016,11.7069,3.4285,-13.9147,15.1373,3.28709,-14.909,13.6204,2.90974,-13.0104,15.1684,4.60647
1.79986,0.475938,-9.72781,36.9023,-1.3047,-9.87941,37.8977,-1.20311,-9.73767,37.7926,-0.652989,-9.81699,37.8375,-1.05741
9.23409,1.25987,2.37723,3.71423,3.20917,4.44112,4.37495,4.95777,4.21504,4.51985,4.73442,3.77734,4.54798,4.58278
3.39561,0.324116,5.59973,36.6089,7.31359,5.29608,35.8759,8.05716,6.15925,36.5202,7.60433,5.50475,36.8541,7.58342
6.80519,0.0185998,9.96148,28.7314,-2.24461,9.97146,29.0398,-3.40776,9.85516,29.9304,-2.87498,10.0114,28.3952,-2.92912
27.9204,2.21097,3.76628,30.3625,-5.83308,5.47871,32.6397,-5.6467,6.65299,31.8291,-5.45278,3.33026,33.756,-6.39606
1.76464,0.685792,10.6267,17.0098,-5.3465,11.7874,15.9297,-4.87493,11.0281,15.8039,-5.11497,11.529,15.9645,-4.91445
2.17639,0.0658776,9.76737,30.2098,-0.0439273,10.0756,29.0365,0.829809,10.0802,28.9097,0.736544,10.0292,29.3421,0.746409
3.19824,0.741423,11.4135,20.843,-4.95195,12.3595,19.5216,-4.78809,12.5906,19.9563,-4.71033,12.3511,19.2662,-4.86432
0.433758,0.0180195,6.69301,48.5682,4.70459,6.42237,48.5786,4.46411,6.3357,48.6484,4.7067,6.30713,48.6091,4.45657
6.46269,0.187029,-14.7238,7.81076,2.84592,-14.6366,8.59116,4.35327,-14.6622,9.1511,4.63199,-14.7406,9.58515,4.64354
4.84219,0.23429,-4.7077,5.97291,1.20071,-5.43692,6.13916,2.0217,-6.1042,6.31866,1.04416,-3.95423,5.37227,1.14637
2.83506,0.917572,13.3109,6.65234,1.92458,13.8478,6.85425,3.19077,13.9739,6.87473,3.16531,13.5956,6.71464,3.37295
6.44679,0.380426,10.7824,29.2507,3.0851,10.5205,24.7376,4.4089,10.8647,28.359,3.98535,10.7457,25.8647,3.86784
2.81446,0.44979,10.0968,38.7312,7.40656,10.7339,38.5178,6.78826,10.6709,38.1548,6.91121,10.7273,37.528,7.07371
7.01683,0.248665,14.7758,15.6515,-2.96083,14.0139,17.8402,-3.21872,13.7123,18.3827,-4.11657,13.4274,19.8689,-4.02563
0.149767,0.000569629,13.2126,10.0308,5.69543,13.358,9.88526,5.52807,13.2885,9.84719,5.61228,13.2993,10.1558,5.58852
4.61188,1.40636,-8.20122,43.5236,-1.12545,-7.07405,45.6997,-0.799038,-6.83235,45.6831,-1.36302,-7.06941,45.7195,-0.721456
46.5129,0.0267198,-12.7913,11.2521,-5.33996,-14.065,7.75805,-3.64974,-13.7866,9.74321,-3.20238,-13.6897,7.2562,-5.22514
10.1632,1.1309,1.26937,49.35,1.63121,2.47557,49.7574,1.39514,2.26691,49.6646,0.19293,2.3452,50.0976,2.36054
3.30881,0.137152,-14.2469,15.5317,-1.66939,-15.2995,14.865,-1.48986,-14.5834,13.8263,-1.6802,-14.6247,13.9745,-1.67094
20.4369,0.176121,10.8053,25.3233,-1.77568,10.6458,26.2083,-4.06963,10.2516,26.4015,-2.60219,10.0696,27.3428,-3.94725
2.48871,0.0259997,-4.17158,43.5011,5.16137,-4.46706,42.0006,5.44828,-4.39744,41.9036,5.48195,-3.47509,43.7579,5.17801
13.0892,0.453015,12.8836,15.4788,4.3694,14.4262,16.0352,3.74911,13.3601,17.8576,3.83178,12.2469,15.1305,5.45554
3.02151,0.0186028,9.62821,5.76263,7.05394,9.905,5.32,6.75824,9.03062,4.88105,6.97976,8.93464,5.15771,7.14237
2.72609,0.483208,-5.55261,37.8539,8.06715,-6.5163,38.0282,7.93964,-6.09845,37.0244,8.20743,-6.72623,38.1592,7.78365
46.8571,0.138808,2.01586,21.3575,-6.6131,3.76655,19.8479,-6.6365,5.59886,20.0385,-6.20062,4.6235,21.9665,-6.07792
24.0937,0.772301,-11.369,22.1886,-2.13132,-12.319,20.2208,0.701887,-13.2051,18.7467,0.977714,-12.3736,19.7952,0.0448657
2.3177,0.19606,-5.81696,42.3897,3.87899,-5.64311,43.2176,4.57509,-5.57886,43.3569,4.88733,-5.72748,43.3932,4.522
0.976599,0.156601,-9.22055,39.6122,-4.15042,-9.88049,39.0763,-3.79538,-9.83724,38.9833,-3.86389,-9.95063,39.8661,-3.53497
4.82021,0.326421,2.59215,13.7254,8.39409,2.19952,15.2281,8.15584,2.39397,16.2769,7.76676,2.26972,16.3001,7.75238
3.58023,0.0978878,9.77468,21.6776,7.20197,9.95058,24.2178,7.37813,9.98938,23.7623,7.16206,9.85134,22.5003,7.4331
2.99032,0.176592,-4.7834,46.8082,-3.05623,-4.58577,48.4304,-1.93087,-4.32508,48.4591,-2.0928,-4.68514,47.6277,-2.36707
2.41377,0.0385232,11.0944,35.7185,4.54647,11.0037,37.3168,4.17913,11.0524,37.1179,4.43044,11.0726,36.7482,4.55599
10.398,0.782714,4.37952,2.316,2.51848,6.51718,0.994466,1.7043,7.0735,1.29161,2.41876,5.45459,0.89826,1.38561
1.3864,0.0752321,-9.801,7.83913,6.11641,-9.68752,6.64636,6.16351,-8.77167,7.4266,6.43247,-9.55492,6.63367,6.19623


