
3.72526,0.307649,-19.0996,33.2051,-1.55614,-19.1475,33.4522,0.1064,-19.0094,33.2207,-0.493042,-19.0061,33.1274,-0.48572
11.453,0.332612,10.4211,35.3436,-4.67911,10.1251,34.9917,-5.29345,12.394,35.2973,-4.7057,10.0287,36.9827,-4.29714
5.27866,0.413593,-6.81473,8.95151,4.92364,-4.52418,8.33672,5.13566,-4.53139,8.542,5.15072,-6.7172,9.53576,5.37389
2.52692,0.456685,15.0048,35.7305,1.66693,14.9998,34.6879,2.28921,15.1546,36.0357,2.15892,15.7006,35.6737,1.63414
3.17595,0.149756,-4.96225,3.49837,2.74517,-4.6163,3.78754,3.45813,-4.9115,3.34819,2.754,-5.45871,3.21692,3.40391
0.247595,0.0586592,11.9236,39.5104,-3.17832,12.2836,39.7248,-3.02341,12.2637,39.6076,-3.10446,12.2947,39.5245,-3.17132
4.34416,0.0671632,-12.567,11.2021,4.38829,-12.6072,9.86375,4.65894,-11.4449,11.5469,5.04488,-11.4405,11.4205,5.06771
11.4097,0.126896,2.86093,24.0611,5.61851,5.05932,22.6624,5.66071,5.03334,23.5996,5.65737,7.41046,24.0694,5.55632
5.9659,0.239913,-14.7317,22.8567,3.40764,-13.385,21.636,4.19908,-13.3327,22.254,4.18579,-15.1013,21.4218,3.60575
21.1561,0.246978,-15.4589,22.9737,3.26708,-11.9769,23.4331,4.6131,-11.8146,24.4707,4.61767,-14.9515,24.0977,3.6369
20.5562,0.22375,-7.28422,40.3866,0.904878,-8.18079,40.8289,-1.31224,-8.62226,40.4356,2.30288,-6.53898,40.7239,-0.00786395
2.00554,0.036814,-0.994739,12.0731,-1.15528,-1.51575,12.0175,-1.16999,-0.646941,12.9438,-1.30297,-1.62064,12.26,-1.24811
8.96373,0.152712,-11.8717,20.68,-5.77641,-9.95816,19.6907,-5.70964,-10.954,19.3296,-5.90169,-10.1734,18.9285,-5.93864
1.59398,0.0468736,-6.89284,14.3469,5.55866,-8.12583,13.9657,5.38799,-8.32689,14.1479,5.35892,-7.88633,14.3256,5.43801
6.60271,0.131926,18.6221,29.4059,-0.430304,17.5173,29.4057,2.07318,17.5038,29.6988,2.10532,18.7979,29.3584,-1.25392
9.91698,0.240789,-6.84415,8.99615,-1.77228,-6.30727,7.94076,-2.2238,-6.49957,7.28735,-2.40834,-5.28689,9.76881,-1.96083
1.3106,0.021764,1.93754,14.747,-1.42555,1.02895,14.2892,-1.47538,1.95393,14.2774,-1.31025,1.5412,15.266,-1.57225
5.40445,0.89154,-16.2335,22.5895,-5.0545,-17.7519,22.2589,-4.00259,-17.4886,22.4071,-3.99783,-17.8717,22.4154,-3.94247
6.83617,0.386297,-1.54925,9.88493,-1.44071,-1.08166,8.08744,-2.02884,-0.800979,8.36081,-1.96949,-1.87309,8.37547,-2.05706
3.37676,0.129149,-16.5517,33.6384,-3.91287,-15.8909,35.7262,-3.95521,-15.6881,35.6496,-4.01463,-15.9669,33.8786,-4.16189
1.2568,0.743958,-3.41932,0.18574,0.0918173,-2.98398,0.163045,-0.647495,-2.62626,0.0677205,-0.639696,-3.22575,0.182503,-0.650794
5.82481,0.082794,6.43769,1.40719,1.71544,7.61293,1.46912,2.38519,5.59421,1.21732,1.23628,6.62289,0.97865,0.189141
1.21423,0.108211,6.34513,36.8544,-4.93317,7.17519,38.0198,-4.44971,7.30119,38.0218,-4.43631,7.00645,37.444,-4.72341
0.564765,0.143008,-12.0849,1.38603,-0.161513,-12.2208,1.4017,0.5495,-12.0875,1.37101,0.51324,-12.0121,1.32297,0.615165
6.78641,0.393403,-4.49442,25.6475,-4.41616,-5.26449,26.0365,-4.46343,-3.50845,27.8392,-4.70483,-4.29868,27.2587,-4.54188
0.831928,0.0180237,-15.2624,19.7641,3.88342,-15.003,19.5541,4.01553,-14.728,18.8235,4.21671,-14.851,18.8116,4.18099
2.95485,0.166769,5.9575,4.27236,3.92876,3.97588,3.26136,3.68018,4.36629,2.91554,3.60355,3.91609,3.16928,3.64936
6.78744,0.520292,8.37837,32.4655,-4.13996,9.90298,31.8876,-4.38373,9.80369,31.3734,-4.38629,10.5577,30.8155,-4.82421
2.71997,0.0726717,-7.3229,5.59317,-2.10685,-8.34681,5.9478,-2.55125,-8.4248,5.84626,-2.60682,-7.98844,5.07557,-2.58614
4.00754,0.151942,-2.07083,39.0744,3.58039,-2.41812,38.1886,3.7702,-0.928421,39.6166,3.70885,-2.3435,39.6572,3.70794
3.39009,0.0227413,-12.7069,8.42285,-3.48093,-12.5868,9.39605,-3.65389,-13.4453,7.69724,-3.86671,-12.3636,9.14365,-3.37787
5.49045,0.341294,-10.6381,36.9145,2.44719,-9.99513,36.8435,2.89719,-10.9485,37.0577,2.72838,-10.9971,34.7618,3.39704
6.39617,0.200704,14.1973,5.30822,0.228363,15.7148,5.17707,-0.237246,12.8797,4.68653,0.200602,14.099,5.87175,0.0798534
4.78607,0.431877,-16.5176,8.10301,3.41022,-17.2906,9.33156,4.07314,-17.1055,7.60943,3.80593,-15.8842,7.87503,3.7789
6.53606,0.370472,10.1498,35.7375,3.31775,11.2485,36.7632,3.41633,9.94645,35.8943,3.67085,10.9862,33.7763,4.1124
2.99094,0.10827,-15.8286,29.334,-5.12694,-14.753,30.4362,-5.17965,-14.5511,30.4892,-5.2244,-14.9135,28.9283,-5.69152
3.42366,0.394097,-2.65005,34.1737,-4.46725,-1.5303,34.6048,-4.71325,-2.81938,35.41,-4.61911,-2.58305,35.1825,-4.59047
1.64749,0.190204,-7.63176,40.5727,-1.54795,-7.85929,40.7816,-1.73041,-7.67341,40.7347,-0.969167,-6.91684,40.7471,-1.76744
4.37683,1.4967,7.1819,2.89438,-0.675065,9.0068,3.68298,-0.210586,8.85511,4.45613,-0.620604,8.86119,4.24537,-0.489853
7.18966,0.61415,3.89105,38.1075,3.14315,3.50469,38.5301,3.86533,6.21374,38.3651,3.86831,3.6859,37.4054,3.60823
1.27324,0.375195,1.94488,39.7487,-3.69196,1.72924,38.7185,-4.27601,1.96698,38.9927,-4.20907,1.60322,38.7171,-4.2855
6.6723,0.169879,-12.0626,9.77186,-3.40782,-12.0366,11.3061,-4.10849,-11.1196,9.61643,-2.97578,-12.777,10.1636,-4.1916
5.58847,0.0345745,-6.0975,6.10958,-2.00274,-6.87158,7.11134,-2.48694,-6.82263,5.70508,-1.93361,-7.99855,6.89325,-2.59696
5.5683,0.322112,-11.009,38.9197,-3.15395,-10.0682,38.0454,-4.34928,-11.6551,39.0907,-3.35867,-10.5425,39.9026,-2.85044
1.81335,0.31602,-12.932,7.31377,4.75526,-14.6979,7.60354,4.23369,-14.6633,7.68385,4.31187,-14.0337,7.29511,4.45619
6.25214,0.0481114,7.85365,29.4611,-4.60999,7.97086,31.505,-4.25413,8.17151,31.1768,-4.29706,6.61768,29.4823,-4.77973
3.51748,0.168212,18.7501,28.4926,-1.72185,18.3342,31.1898,-1.71069,18.4051,31.1244,-1.54014,18.4211,30.9991,-1.52731
0.00111134,0.00015963,-12.5599,39.7892,2.88222,-12.6855,39.7776,2.86377,-12.6814,39.6583,2.90463,-12.5515,39.5507,2.9638
30.1613,0.376344,10.7312,16.6361,-1.42362,13.5953,16.6199,-2.54996,12.5188,15.0142,-1.68185,11.4289,17.5611,-2.3558
11.0608,0.114528,16.6625,19.1485,-4.62271,15.1001,20.5663,-5.01323,15.9856,20.481,-4.96399,14.995,19.9637,-4.81386
20.1154,0.477387,3.63311,13.1297,-1.20936,0.173079,11.1225,-0.839316,2.91636,11.8788,-0.888661,1.77504,11.4297,-0.744975
1.65422,0.0140425,3.401,39.4417,3.66601,3.17699,40.4493,2.43165,3.19309,39.9791,3.00446,3.62041,40.3702,2.49219
0.713935,0.0220962,7.39006,17.4806,-2.87882,7.09017,18.6106,-3.06339,7.21524,18.8749,-3.10747,7.34114,18.8801,-3.10559
2.27543,0.330704,12.869,19.2879,4.66069,12.8803,20.7678,4.46072,12.4468,21.2889,4.44613,12.5453,21.336,4.38482
1.78973,0.6321,15.2642,27.8316,-4.94394,14.691,26.5995,-5.97538,15.011,26.7183,-5.78451,14.775,26.6014,-5.92373
8.84722,0.252358,18.674,36.3379,-1.41232,17.2996,35.6116,-2.79251,17.7036,35.2228,-2.33354,17.2124,35.0063,-2.96616
1.73184,0.330482,-11.2195,16.1053,-5.41251,-11.6829,16.8879,-5.92935,-12.0791,16.6671,-5.9739,-11.4945,17.0824,-5.99072
4.20062,0.426266,-18.4886,12.9555,1.07308,-18.1337,13.7316,2.61189,-18.1251,13.4732,2.61492,-18.1111,12.7845,2.92894
8.12623,0.410509,17.2061,22.9758,1.00963,17.628,21.5891,0.452663,18.0038,22.7894,-0.296366,17.9292,23.8526,0.405515
1.88701,1.06843,-1.50339,1.34192,2.43874,-2.96743,1.62062,2.65311,-2.96766,1.52546,2.40233,-3.03943,1.49649,2.49108
4.04296,0.309833,10.0914,16.4209,-1.5229,8.75477,15.7428,-1.90352,9.60061,15.6398,-1.58578,9.47528,15.7502,-1.60763
3.29449,0.162404,-12.2558,32.7277,-4.84977,-11.4364,33.064,-4.65352,-12.5259,31.9787,-5.30244,-11.3042,32.8879,-4.64853
5.69866,0.591745,-1.34762,25.8,-4.72159,-0.629912,25.0729,-4.73445,-2.53667,23.7487,-4.41803,-2.91215,23.6715,-4.4831
2.14092,0.252234,-9.00432,11.277,-2.04362,-9.21015,12.6752,-2.25985,-9.30808,12.7728,-2.34733,-9.4644,12.4847,-2.36174
12.1702,0.270255,15.5347,35.9187,-3.57398,16.7252,35.2932,-3.21253,15.9109,34.3767,-3.8128,15.0499,34.8926,-4.29916
3.7879,0.177334,-9.69503,35.91,-3.63906,-9.96785,35.3839,-3.81092,-8.20405,36.1157,-3.56013,-9.72444,36.587,-3.90624
1.56535,1.73706,5.53425,1.24239,1.29463,3.80419,1.03065,0.335896,3.80781,0.931732,0.10404,3.80566,0.990949,0.216122
2.03036,0.147372,-6.33255,40.6132,-1.92403,-6.80135,40.7421,-1.78445,-5.79529,40.8146,-1.38514,-6.18622,40.7536,-2.25571
1.62801,0.224335,-12.7178,28.0487,-5.72218,-12.2729,28.1758,-5.76369,-13.1573,28.5356,-6.04446,-12.6316,27.5861,-6.02869
1.54048,0.10816,8.53833,24.0629,-4.49815,9.01847,24.754,-4.87906,9.03152,24.637,-4.73611,8.48203,23.7023,-4.37951
9.45408,0.256202,18.6133,26.8452,-0.409837,17.501,26.6304,1.56416,16.4796,26.9041,3.03771,16.509,27.032,3.01486
0.86222,0.124182,15.0613,39.5336,1.09637,14.5914,39.7283,1.01789,14.4513,39.874,0.956434,14.5442,39.9012,0.853877
1.43857,0.152389,10.9917,25.1349,-5.3147,11.4578,24.5215,-4.97054,11.185,24.3465,-4.70285,11.047,24.6896,-4.85142
5.90231,0.00308484,10.773,25.5586,-5.38878,11.0774,27.4342,-5.45232,11.1575,27.324,-5.49637,11.906,27.2305,-5.8641
57.2193,0.0292624,-5.32464,40.582,-1.07757,-3.88071,40.3653,2.88758,-1.66418,40.7965,2.56054,-3.26922,40.9811,-1.13781
3.49485,0.0879125,10.8602,37.1926,-4.07834,13.6303,37.2963,-4.08759,13.3907,36.9378,-4.13083,14.1456,36.9838,-4.15497
1.08779,0.741634,-10.3854,13.5626,4.89465,-11.5059,13.313,4.70973,-11.4664,13.4243,4.65317,-11.3892,13.562,4.65201
30.6094,1.39273,-2.32342,22.8594,6.09685,-6.38508,22.0328,5.79076,-6.00918,21.9099,5.76022,-5.21955,20.9598,5.98644
1.03785,0.265064,7.29873,2.06073,-0.393909,6.32934,1.87799,-0.428164,6.46185,1.67279,-0.333711,6.72342,1.4637,-0.259655
5.93212,0.332388,4.31784,40.1418,0.179375,4.22946,40.4475,-0.0899879,6.83639,40.41,-0.225059,4.43686,40.5117,0.512737
2.49692,0.380826,-8.47084,39.4134,3.40205,-9.54893,40.2192,2.6759,-10.1555,40.1558,2.68105,-9.93942,40.2151,2.66599
8.34572,0.662565,5.37342,39.0458,-3.38361,8.2261,39.168,-3.62531,5.03243,38.0066,-4.5866,4.77998,38.0155,-4.62114
2.56725,0.925701,16.7517,12.1431,2.34885,16.35,13.5432,2.4986,16.6082,13.9885,2.23057,16.4238,13.7847,2.34669
17.1324,0.0252489,15.5653,15.7401,-3.89092,15.9195,13.8526,-3.89799,14.6,14.2059,-2.88509,15.2372,13.3784,-3.28908
4.2499,0.111616,2.92515,4.55004,-0.911694,4.90858,5.51665,-1.04098,4.40045,5.6259,-1.06271,5.03799,5.42134,-1.01951
0.757891,0.0103369,-3.70208,6.60118,-1.9984,-3.20927,7.07789,-2.21853,-2.9577,6.95003,-2.21042,-3.30422,6.69199,-2.08718
12.983,0.230865,2.00231,38.2502,-4.33885,-2.47893,38.58,-4.05217,-2.52256,38.7489,-4.08137,3.87018,38.7859,-4.24661
1.62215,0.0459194,-0.559191,35.4848,4.64097,-0.0474971,35.2824,4.78229,1.34089,35.2367,4.88755,1.34511,35.1155,4.92347
1.92715,0.108309,13.296,15.2065,-1.95027,14.0604,16.1144,-2.80834,13.3933,16.1508,-2.31339,14.1735,16.7198,-3.17321
2.14204,0.110659,16.4334,23.0166,2.4609,16.8038,23.4229,2.18204,16.1444,23.1067,3.06622,16.5682,22.4539,2.3966
0.569324,0.0962107,18.0834,30.5075,-2.99815,17.7701,29.7804,-2.84286,17.7201,29.9309,-2.90645,17.8958,29.9279,-2.88998
4.53579,0.64675,13.1565,12.6446,4.08925,12.4584,15.344,3.97324,12.756,15.231,4.00644,12.5365,14.982,4.07917
10.8858,0.207955,2.15004,30.5461,-5.04095,0.752262,28.8444,-5.1496,2.94743,29.1701,-5.49779,1.36006,31.2845,-5.05924
0.92035,0.1938,9.91694,6.49882,-0.597868,9.58357,6.75169,-0.543308,9.41084,6.90413,-0.63673,9.77407,6.94073,-0.60784
4.66451,0.187418,1.19725,10.6751,-0.638759,1.17774,11.2318,-0.650737,-0.899674,10.2932,-1.26159,1.71123,10.4037,-0.859817
1.98579,1.07235,-1.3748,29.9747,5.52863,-1.58012,28.6315,5.92063,-1.40566,28.5639,5.87104,-1.3702,28.5652,5.87106
0.483312,0.0354057,-17.7705,26.5838,2.86506,-17.3336,27.0561,3.11754,-17.2486,27.0283,3.15232,-17.4926,26.6662,3.02723
4.23676,0.446796,-1.52908,16.4045,5.14855,-0.887704,16.4886,5.27813,-1.85215,15.5722,5.8158,-2.16358,17.4147,6.16801
1.96901,0.659858,-8.24307,34.2455,-3.76467,-8.94501,33.904,-3.65658,-8.6911,33.5172,-3.7333,-8.55039,33.2148,-3.8489
1.48952,0.318041,10.1938,2.1526,1.79727,10.3208,2.26642,2.09909,9.7205,1.92507,2.23621,9.5762,1.81527,2.28186
6.13818,0.465574,-13.3549,13.4927,3.80722,-11.485,13.5454,4.61836,-13.634,13.1898,4.22078,-13.9284,14.0749,4.19562
10.7515,0.186924,11.2943,24.2263,-4.67374,11.1231,22.508,-4.20501,11.5736,21.94,-4.19889,12.2538,23.7405,-5.13134
2.41394,0.209915,1.86538,20.4332,-3.15094,1.94663,18.9813,-2.63694,1.80646,18.5061,-2.5344,1.66045,18.9999,-2.63311
10.4496,0.341455,0.756484,3.32159,3.38273,0.480044,2.28776,3.39517,0.442333,4.48676,4.11687,2.45977,3.34996,3.79674
5.87711,0.0573281,0.632085,26.877,-5.07393,0.84435,28.1452,-5.1399,1.4626,28.3657,-5.3362,1.86536,27.668,-5.42283
0.0240743,0.0155667,-4.44967,24.0112,6.15305,-4.44899,24.1501,6.14928,-4.32046,24.0187,6.16061,-4.362,23.9641,6.14858
3.90985,0.316008,-5.67858,24.1396,-4.21961,-4.58502,25.3454,-4.41732,-4.14235,24.6257,-4.53008,-4.2189,24.9825,-4.47944
3.54084,0.194786,16.743,31.1802,-3.31602,17.1117,29.8674,-3.44809,16.9947,30.0042,-3.55566,16.0456,31.2539,-4.27074
35.5989,0.252076,-16.3717,4.45474,-1.16857,-17.8065,3.80657,0.330522,-18.6226,5.63236,-0.388605,-16.1965,5.77295,-2.82458
2.51593,0.38825,14.8699,37.4623,1.46307,15.6774,36.3279,1.92101,15.6127,36.6504,1.8541,15.5041,36.4662,1.94318
1.5798,0.0185705,-6.29025,4.90239,-1.82376,-7.20394,5.63113,-2.07554,-7.0666,5.66796,-2.01837,-6.6797,4.86138,-1.99625
1.82051,1.59788,14.2477,29.5214,3.41704,14.355,27.5802,3.93869,14.4693,27.5987,3.92356,14.2324,27.609,3.99319
3.58562,0.292929,-4.37056,11.2398,5.03293,-2.87828,11.7275,5.56075,-4.68008,11.442,5.40028,-4.30586,10.4531,5.07747
1.9331,0.441459,-4.39501,3.7602,3.39115,-3.76073,4.55839,4.28702,-3.63845,4.66589,4.32267,-3.78637,4.18837,4.0453
3.06832,0.288267,16.0674,34.0761,-3.4829,16.7148,33.095,-3.70291,16.9788,35.0246,-3.20262,16.8384,32.9425,-3.67665
10.9023,0.179834,-14.3168,39.6574,-2.36344,-11.7297,39.6003,-3.15221,-17.663,38.8934,-2.18035,-16.9493,39.215,-1.77394
1.84962,0.116957,3.92329,4.77664,4.0353,4.70538,4.08734,3.91843,4.28535,5.2135,4.14353,4.7081,3.94851,3.89994
11.4076,0.00434846,-16.46,22.3662,2.79547,-15.3869,19.8802,3.81935,-17.7416,21.9336,2.74362,-15.2782,19.8895,3.83346
4.60402,0.00130567,7.75825,20.6357,5.09367,8.62891,20.3241,5.05343,9.16388,19.7845,5.00291,10.0524,20.9808,5.07892
9.49875,0.0237883,-1.01958,5.59442,-1.3516,-0.307656,6.5843,-1.99195,1.75849,5.474,-1.55861,1.64379,5.14559,-1.35033
5.93049,0.00620575,-10.217,17.1483,-5.36405,-10.2326,18.2171,-5.88068,-8.41691,18.879,-5.49849,-8.95717,18.7312,-5.63601
3.71155,0.113363,-6.57647,20.1403,5.47514,-5.19956,20.3939,5.77343,-4.68548,20.364,5.84896,-4.65026,20.2354,5.86122
21.5271,0.1546,-3.35068,0.471992,0.575116,-1.46313,0.232019,0.43861,-1.74552,1.06438,2.00279,-3.22806,1.16907,2.21097
0.456966,0.180002,-0.423391,13.4745,5.5218,-0.431963,13.8689,5.76635,-0.689297,14.0155,5.82235,-0.760718,13.9266,5.81822
7.35432,0.283757,11.749,8.26306,-0.875333,11.2086,9.21066,-0.476109,12.2598,10.7325,-0.833323,10.4279,9.89951,-0.293769
10.4915,0.189504,16.9195,12.1499,-4.15286,14.8316,11.5672,-2.38057,15.5235,10.2769,-2.38829,15.5412,10.8327,-2.58776
1.64315,0.535243,-7.20325,27.2026,5.54222,-6.86035,28.2103,5.53861,-7.23297,28.0521,5.44234,-7.4875,28.119,5.48594
10.8563,0.26898,-8.44586,26.8631,-3.80409,-7.48227,28.3341,-3.93464,-9.18409,25.3732,-4.21068,-7.74547,24.9714,-4.21629
2.46225,0.467097,16.6481,22.4183,-4.48418,16.7236,21.0085,-5.01575,16.6063,20.7127,-5.10064,16.4987,20.9584,-5.17319
33.7606,0.145683,-9.85617,30.2206,-3.98144,-9.62678,35.2709,-3.6918,-11.1237,34.2552,-4.40919,-9.53725,32.8163,-3.65831
1.55885,0.165627,-12.8655,26.9056,4.25727,-14.1327,27.1081,3.84872,-14.129,27.2577,3.85848,-13.6241,26.8072,4.07466
2.84149,0.248727,12.119,17.1009,3.80494,12.935,17.4187,4.03831,12.3463,16.2339,3.83449,13.1421,17.3481,3.99735
25.9959,0.777455,-8.0905,17.543,4.71018,-9.09552,14.6543,5.32978,-8.2864,18.5414,5.55389,-5.70244,16.7646,5.39941
13.9644,0.372241,11.893,5.22859,2.76839,15.1812,5.20297,2.58103,11.6872,6.14931,3.42637,14.075,6.49912,3.10079
1.71622,0.140449,-12.3101,7.4631,4.70832,-12.0071,6.01797,4.54115,-12.2266,6.10705,4.53485,-12.0157,6.34744,4.62018
4.38756,0.446891,16.0368,4.55127,-0.34733,16.3237,3.43069,-0.467644,15.5683,3.53004,-0.433519,16.0803,3.31044,-0.405172
1.60569,0.241023,10.9889,33.6559,4.15062,12.1889,33.303,4.0088,11.9061,33.1354,4.12419,11.383,32.9105,4.28738
0.5309,0.00865561,-11.4077,6.89653,-3.65602,-10.9775,6.62497,-3.48084,-10.8937,6.77754,-3.39598,-11.1278,6.97647,-3.4847
1.69382,0.954465,-15.642,23.4071,3.38848,-16.2424,22.5634,2.82114,-16.3789,22.5725,2.82696,-16.1431,22.4534,2.87705
11.5735,0.571336,1.12935,8.76199,4.10466,1.95929,8.62227,4.40481,-0.0596545,10.4507,5.33741,0.306308,7.21508,4.81819
2.04207,0.208069,-14.571,18.2048,-5.63428,-16.3528,18.6159,-4.80608,-16.3435,18.4703,-4.78616,-15.8868,18.315,-5.05379
1.25669,0.0329885,1.70374,37.4869,4.15872,-0.31431,37.5111,4.10025,1.14016,37.3795,4.15349,-0.335432,37.7271,4.03195
3.71875,0.192212,-11.6971,15.458,4.6435,-10.9179,16.9719,5.14529,-10.6056,16.3738,5.18464,-10.9284,14.7971,4.99445
5.37914,0.327377,12.0171,20.6432,-3.40158,11.1067,21.065,-3.58444,12.2019,19.1736,-3.22265,11.4154,21.5441,-3.92285
7.29182,0.187735,-11.425,3.82019,3.40548,-10.0765,3.53856,3.68262,-11.6337,3.60835,3.48533,-12.0638,5.93235,4.49812
0.56568,0.111509,-17.7397,38.6767,-2.39943,-18.2556,38.6024,-2.28469,-18.1813,38.408,-2.50753,-18.3088,38.4451,-2.38859
6.90728,0.113635,-7.64364,21.9764,-4.50489,-8.34702,20.4751,-5.15897,-8.44978,20.5596,-5.14553,-7.83909,20.3707,-5.09412
1.30432,0.0496966,-14.7295,37.0782,-4.05141,-14.4698,36.5341,-4.20121,-14.584,35.8449,-4.19587,-14.4992,35.8977,-4.24248
24.3455,0.0529872,-3.26,17.4914,-2.79346,-0.853559,17.7361,-2.64191,-0.9592,18.4313,-2.81544,-0.795716,20.5534,-3.29197
0.601209,0.0795972,-11.3937,38.8862,3.16743,-10.5779,39.4475,3.21537,-10.5745,39.2714,3.28387,-11.3835,38.5965,3.19018
1.68958,0.043588,6.10984,21.6435,-3.54903,7.00819,21.1962,-3.73189,7.09116,21.8016,-3.92231,6.64586,21.2349,-3.60168
64.4487,0.966223,1.76509,17.2775,5.90179,0.200388,13.8138,5.71953,1.22133,13.4629,5.69351,-0.771281,16.3631,5.32047
3.68823,0.276458,-3.22801,39.8507,-3.48837,-3.68968,38.6759,-4.16686,-3.79322,38.0094,-4.394,-3.66975,38.0832,-4.37484
19.6628,0.331635,13.1062,22.3031,-4.71974,13.4652,25.862,-6.04421,14.2051,20.9214,-5.06447,14.0077,25.3268,-6.07476
2.67698,0.188572,-10.7136,25.6863,4.41176,-9.37125,24.3159,5.2856,-10.132,24.4447,4.99212,-9.92243,24.3585,5.09849
5.77619,0.0123754,4.89886,10.515,-0.869222,3.76978,9.23116,-1.15283,3.63381,9.51231,-1.1047,4.21351,9.16101,-1.15284
1.64066,0.0168583,8.5095,14.4084,-1.11863,8.74426,14.9629,-1.46856,8.88704,14.4587,-1.03168,9.11127,15.1097,-1.4825
19.9721,0.453562,-5.14229,5.88553,-1.62416,-3.77972,7.02141,-2.19362,-2.40197,5.47076,-1.54328,-2.6839,6.32925,-2.0354
7.40366,0.191515,-1.06131,21.2041,-3.34304,0.540246,22.2754,-3.51676,-2.21543,21.7682,-3.87274,0.172986,20.8156,-3.23931
6.55648,2.24134,15.9639,29.2341,-4.54948,17.7074,29.6243,-2.81759,17.6591,29.3809,-2.81541,17.5627,29.3939,-2.77378
3.21415,0.229102,-11.1293,40.2109,2.63776,-10.5411,39.7455,2.92541,-10.565,40.4372,2.42748,-9.95487,39.5506,3.31918
4.74776,0.223698,5.17438,12.3113,-0.671477,4.47909,11.9618,-0.901166,4.93927,13.444,-1.21484,6.01618,13.5209,-1.10281
2.73565,0.0852674,-5.72577,35.4347,3.95112,-5.94926,34.6109,4.28733,-4.89332,35.8965,4.01789,-5.19002,36.7071,3.69412
2.45508,0.0507743,16.2247,3.87886,1.48225,17.864,4.41737,1.03105,17.0075,4.24213,1.37656,17.8329,4.46644,1.08239
3.78342,0.00359175,-11.5862,40.8303,0.583056,-11.5794,40.6058,2.13977,-12.3426,40.8166,1.24551,-11.37,40.7161,1.19651
251.124,0.0212654,6.2019,15.391,-1.88716,1.13667,18.3139,-2.5108,1.95381,21.5135,-3.51184,7.78011,20.752,-3.55186
1.97219,0.48731,14.8486,33.042,3.13046,15.1901,34.1587,2.55149,15.1087,34.562,2.30389,14.9571,34.7298,2.39928
1.26209,0.134295,17.3022,25.3485,-4.41976,18.0206,25.9837,-3.55911,18.0745,25.7445,-3.50179,17.9679,25.5245,-3.67554
3.17291,0.185864,-2.9408,12.2795,-1.29016,-3.29178,12.8701,-1.60021,-2.94018,11.6556,-1.43574,-2.05844,12.7937,-1.32512
2.37501,0.303448,-4.21962,10.4395,5.03524,-3.78824,8.92428,5.02328,-4.09596,9.23574,5.0644,-3.91045,8.81474,4.98141
2.42726,0.0255759,-18.0594,11.4935,3.27816,-18.4552,11.6851,1.36381,-18.4453,11.4373,1.49887,-18.4891,11.1449,1.38103
23.1308,0.062978,-9.56965,26.3365,-4.35351,-11.9635,26.3075,-5.95065,-12.5504,25.3979,-6.15831,-10.7584,24.3492,-4.82315
4.25454,0.113643,5.79424,23.1048,-3.91827,6.84663,22.7687,-4.19724,5.765,22.1695,-3.55939,5.66165,23.6526,-4.293
7.04966,0.246029,11.4544,31.8046,3.63549,11.4766,29.593,4.45689,13.6702,32.414,3.60532,11.3536,31.8715,3.87855
0.297062,0.0933254,-3.23764,21.2002,-3.84845,-3.56922,20.8228,-3.74527,-3.69871,20.9216,-3.82699,-3.57337,20.9421,-3.78618
5.39341,0.237902,5.34071,5.30565,4.01895,6.97319,3.84276,3.78,6.01981,6.08427,4.27729,7.1394,4.72491,3.89102
1.93968,0.0498028,-6.71562,40.3439,1.26205,-6.31641,39.9141,2.82495,-6.47453,39.9184,2.82918,-6.77198,40.1369,2.13443
36.4289,1.80463,10.0629,13.1143,-0.0970811,12.9799,12.6445,-1.30678,12.6811,13.9744,-1.24021,10.2502,15.6535,-1.65289
5.83686,0.167687,16.9592,5.23739,-0.926254,17.944,3.80407,-1.05839,17.9944,4.15918,-1.17118,18.3881,5.07312,-1.6375
4.32763,0.0292533,-1.48918,40.7873,0.292542,-1.63061,40.9835,-0.676304,0.318376,41.1094,0.518022,0.381699,41.0992,0.629034
3.2124,0.115649,4.04693,15.516,-1.30769,3.72239,16.4284,-1.67527,4.01853,16.138,-1.58522,4.21638,16.1955,-1.70158
8.40099,0.381363,-12.8376,15.3284,4.10457,-11.6694,14.1243,4.75982,-12.0453,17.8869,4.92838,-11.2732,17.4362,5.1236
7.06005,0.235109,17.2983,8.31756,-2.95737,18.114,7.40175,-2.58113,18.3893,5.31019,-1.72373,16.7334,6.28172,-1.51916
5.89162,0.141081,2.11775,9.59914,-0.973314,3.04684,8.28023,-1.42468,1.95992,10.5023,-0.851794,1.66277,8.48515,-1.54442
1.48379,0.0253565,16.3678,10.6887,-3.36999,16.6564,9.89221,-3.454,16.8839,10.2831,-3.75704,16.9574,10.3218,-3.8322
26.6561,1.16481,10.977,9.24949,2.59271,8.20707,8.68371,4.01212,12.527,11.0851,3.59598,9.70618,8.82818,3.87957
17.3896,0.0121089,-7.46278,23.8196,-4.3651,-6.29617,23.0961,-4.33261,-5.48823,25.2256,-4.4381,-4.79892,23.5441,-4.36905
12.3228,0.155682,5.96501,11.3333,-0.472159,4.99258,10.6267,-0.834548,5.99553,8.07288,-0.97631,6.71215,10.8511,-0.583109
1.07343,0.203084,19.0297,36.8785,-0.417462,18.8132,37.1721,0.00406836,18.7307,37.3683,-0.00323987,18.7254,37.4979,-0.0642961
4.81714,0.188255,17.1414,20.6732,0.922196,17.7432,19.5574,0.431222,17.1998,20.6558,1.1909,17.7221,21.376,0.247651
3.95018,0.158271,-8.40795,4.06193,3.93005,-7.19881,5.51924,4.7265,-7.20151,5.59531,4.76423,-8.00595,3.38767,3.74154
2.41765,0.715489,17.11,18.985,1.79889,16.4196,21.1077,2.30909,16.3282,21.2915,2.56293,16.3862,21.326,2.45484
3.6067,0.0297986,11.6484,3.846,0.313545,12.2117,4.80204,0.124726,12.231,3.65498,0.307468,13.0851,4.3203,0.192017
6.64751,0.593301,15.4064,16.9858,2.26072,15.6872,16.0786,2.35372,15.4739,17.1844,3.21935,17.018,17.4532,1.83476
0.556465,0.068139,-14.1257,12.4405,-5.13828,-13.8842,12.992,-5.16887,-14.1358,12.8563,-5.15083,-13.867,12.8546,-5.1413
2.89898,0.168493,3.28516,12.1408,5.35088,1.38718,12.3374,5.22999,0.879796,12.4266,5.15731,1.11532,12.6158,5.22832
4.13395,0.402918,1.91917,19.6667,5.48937,1.4703,20.7387,5.99979,2.89734,19.5994,5.644,1.53203,19.2942,6.02163
5.95445,0.0560625,-14.0078,4.25275,3.06068,-13.413,3.0169,3.09534,-13.027,3.98162,3.75257,-14.1882,3.53441,2.72319
18.7036,0.101086,3.86466,35.3495,-4.33161,3.02908,37.4246,-4.86797,0.484442,34.8833,-4.55572,2.00986,34.3336,-4.36105
2.22143,0.0645187,13.4867,12.4729,4.0454,12.4006,11.1448,3.66015,12.6454,11.1445,3.63658,12.5729,11.4035,3.75264
6.1944,0.619254,17.6292,32.2755,1.777,18.6313,32.6451,0.330609,17.6675,31.301,1.79901,19.1866,33.3924,0.00767696
7.09598,0.35671,1.67493,33.0852,-4.72616,-0.434517,32.1237,-4.95644,0.163611,31.9476,-4.91835,0.355693,31.1645,-5.12287
4.56362,0.327621,-1.16654,40.1448,-2.19204,-1.36739,40.4842,-2.13028,-1.58332,40.1631,-3.09363,0.944372,40.6844,-2.39562
30.2512,0.285137,-8.73855,6.41996,-2.39741,-11.157,7.9958,-3.07969,-10.3965,5.05935,-3.41736,-10.9132,5.51261,-3.60451
1.6902,0.0912783,6.86764,10.7622,-0.567717,7.88727,10.4467,-0.484735,7.88064,10.6353,-0.46418,7.76796,10.3029,-0.526447
1.35298,0.0146198,1.66211,1.0385,-1.92401,0.971931,1.41041,-1.94816,1.00671,1.75329,-1.99352,2.16283,1.14113,-1.92978
18.9997,0.0462845,-8.44643,28.043,-4.03127,-7.38268,28.9041,-3.87657,-9.02291,29.9866,-3.8538,-7.44151,30.5792,-3.74699
17.1242,0.888836,-8.51424,22.5444,5.28676,-6.61871,20.1634,5.44192,-7.81498,19.4786,5.59578,-6.49049,22.4847,5.76255
9.93711,0.66697,-0.9208,1.92861,-1.9224,-0.397341,3.55808,-1.16799,0.569178,3.43425,-1.46962,-1.80606,3.0603,-1.50225
19.5046,0.236126,-10.3714,31.7167,-4.066,-11.3862,29.2662,-5.08844,-12.2191,29.3824,-5.59196,-10.9102,32.4039,-4.63765
1.99335,0.156871,-13.9098,13.7215,-5.09213,-13.2837,13.8658,-5.42308,-14.2955,13.9357,-5.14485,-14.3283,13.1536,-5.15209
0.452296,0.0505805,-5.78726,7.64906,-2.32899,-5.62141,7.72733,-2.39292,-6.04019,7.38971,-2.38259,-5.74456,7.32933,-2.43406
5.55069,0.138555,13.8207,15.208,-2.33667,13.299,13.8456,-1.62149,14.1671,13.0552,-2.14433,14.0867,12.5411,-1.90657
12.6911,0.0487422,9.98807,26.1327,-5.3014,10.3283,27.2156,-5.25514,9.55158,27.7904,-5.10344,8.56765,27.0858,-5.08526
3.14943,0.640936,19.085,9.2945,-1.81197,18.423,9.85836,-2.91794,18.4602,9.39579,-3.24995,18.4316,9.72728,-2.89729
1.81289,1.638,-2.93311,20.4731,6.02389,-4.56395,20.2431,5.8731,-4.57156,20.4594,5.90368,-4.55996,20.1282,5.92501
5.40484,0.426647,14.4129,38.0618,1.14151,14.7906,37.5012,1.47466,14.2702,38.3189,1.67632,15.5656,39.3164,0.918249
3.83158,0.34949,7.01937,16.3972,4.98675,8.04339,16.7228,5.08966,7.37183,14.2528,5.09877,7.36191,14.5353,5.12178
0.564539,0.0323913,4.4181,8.72524,4.39449,4.3952,9.30472,4.50152,4.53445,8.89105,4.40596,4.19326,9.33194,4.57658
2.41745,0.0267607,11.6331,27.0606,5.02796,11.407,28.9807,4.62859,11.579,29.4068,4.48748,11.4619,29.4014,4.51967
10.8238,0.226203,5.43058,13.974,5.0833,5.4342,15.7387,5.54715,6.99688,13.8552,5.11355,4.50038,15.0912,5.57061
5.51255,0.0251333,16.0127,15.9932,-4.3141,17.6757,17.4514,-4.3679,17.0932,17.6455,-4.34866,16.8522,16.4139,-4.35783
4.69437,0.133033,17.8906,30.9759,1.21097,17.9807,29.8262,1.18395,18.3743,30.9274,0.40806,18.8362,30.9543,-0.673915
1.29639,0.364662,-12.3955,24.4843,-5.96932,-13.265,25.3337,-6.14481,-13.1791,25.2601,-6.07817,-13.1738,24.9688,-6.10764
1.30901,0.00441609,4.91475,19.5917,5.78999,3.02076,19.6111,5.65983,3.02589,19.5281,5.69315,4.54134,19.4538,5.81688
37.1605,0.494289,-15.5036,16.9563,3.3132,-13.8823,16.3529,4.28856,-16.3806,18.5108,3.6352,-16.3209,14.0029,3.45551
2.99124,1.83594,-5.95244,40.2363,-3.12791,-8.85528,40.0681,-3.08157,-8.79427,40.377,-2.89776,-8.67831,40.6613,-2.67943
0.575636,0.357081,17.2263,2.99202,-0.62667,16.7124,3.16622,-0.513066,16.8611,3.44846,-0.639628,16.6714,3.07374,-0.481407
3.05561,0.161873,15.1763,17.2784,-3.90731,14.8241,17.628,-3.84871,15.5768,15.9276,-3.93658,15.3465,16.3365,-3.76717
5.87725,0.606735,16.6208,23.9187,-3.86164,17.3783,23.8918,-3.99671,16.2362,24.854,-5.23653,16.6352,22.5786,-4.39941
10.0938,0.224889,2.2879,1.11209,1.09443,0.409838,0.459621,-0.0204346,1.5025,1.02914,0.844869,1.30305,0.480006,-1.30284
10.31,0.646395,-16.1989,27.653,2.51413,-14.5703,27.3328,3.56155,-14.3661,27.1913,3.72025,-16.9553,28.5043,3.17391
1.2751,0.235882,3.75806,5.86368,4.4104,3.21075,7.09014,4.39733,3.43723,6.8996,4.4404,3.08311,7.06318,4.39926
4.20386,0.419259,15.798,36.717,-2.95131,16.2518,35.9072,-3.10936,16.6416,37.4511,-2.88646,15.4564,36.8069,-3.72011
4.72124,0.411225,-5.22895,28.6181,-4.44857,-3.81709,30.2791,-4.7289,-2.54053,30.8308,-4.9253,-2.86732,30.6488,-4.85472
2.02019,0.140539,10.0225,37.1974,-4.11177,9.83258,37.7373,-4.23785,9.90354,37.1109,-4.29892,10.7341,37.1938,-4.07793
29.4209,0.04662,6.70956,8.08517,-0.8716,9.62112,7.74441,-0.618069,8.94099,9.16186,-0.553593,9.73707,8.03272,-0.584403
0.679412,0.00573801,3.7639,2.1261,3.14154,3.6872,2.51115,3.37606,3.93916,2.51648,3.38903,3.63883,2.27563,3.23301
14.8687,0.426708,7.5108,31.7366,-4.22266,6.10956,32.7322,-4.29963,7.33719,33.3935,-4.10007,4.50887,31.1197,-4.8179
15.9883,0.137947,-14.7799,31.6054,-4.6272,-14.7064,32.8334,-4.56578,-17.441,31.704,-3.79217,-17.536,30.6768,-3.95614
5.45483,0.624368,19.0258,36.6272,-0.709545,18.3803,34.5846,-1.69211,18.2817,34.6047,-1.9599,18.47,33.9453,-1.77048
12.0141,0.670555,-10.3934,2.35624,2.8179,-9.31109,1.09053,2.01842,-8.8343,2.0782,2.43631,-8.33349,1.96496,2.53859
20.9624,0.492589,-10.1281,11.5209,-2.42894,-11.3121,9.97848,-3.07161,-8.50203,10.4493,-1.7814,-11.7839,10.5916,-3.53726
5.59334,0.892638,-9.88346,3.1204,-2.64079,-8.34901,4.05595,-2.72239,-8.27222,3.91089,-2.57597,-7.8842,3.70639,-2.44001
1.87851,0.00353931,-7.12216,20.3186,-4.91481,-6.36319,21.415,-4.49301,-6.29743,21.3378,-4.50959,-6.84367,21.0346,-4.66498
5.0625,0.0707372,16.2459,2.70938,-0.225795,14.5204,2.8486,-0.149009,14.7514,1.64521,0.300356,16.1226,2.09872,-0.0452697
5.12455,0.112169,-17.0518,15.7349,-3.92082,-17.842,15.5057,-3.59856,-17.3266,16.8268,-4.07412,-16.1304,15.6115,-4.51282
0.203337,0.0301176,-17.7411,36.5736,1.69297,-17.9825,36.2595,1.64645,-17.9151,36.2216,1.67305,-17.6752,36.369,1.75734
2.10538,0.0703195,6.17112,1.85988,-0.460136,5.39778,2.34881,-0.870336,4.90086,2.14077,-1.0105,5.44272,1.87794,-0.693802
1.89664,0.194811,14.0027,31.9522,-4.70824,13.2369,32.9694,-5.2802,13.1383,33.3735,-5.35067,13.5279,33.047,-5.18193
5.29837,0.0925723,14.0616,3.43718,2.11494,14.0016,1.77229,1.28801,13.3973,3.28286,2.37667,14.8112,3.50285,1.9953
7.33216,0.490601,-5.101,15.0546,-2.68736,-5.51776,16.5135,-3.05863,-5.15795,16.6954,-3.13088,-4.75073,16.4859,-2.9552
9.2995,0.0882222,-14.199,25.5852,-6.19473,-13.253,27.3725,-6.2129,-12.7094,23.596,-6.00328,-13.5759,27.5904,-6.22322
11.3428,0.494161,-12.2552,33.7242,2.76313,-10.1049,34.4823,3.64055,-12.5489,30.5239,4.26523,-12.7404,34.1495,3.0287
0.677068,0.433259,13.1894,17.4294,4.04036,13.9342,17.6844,4.17081,13.9312,17.77,4.20479,14.0053,17.4551,4.13154
4.18329,0.0875958,18.0337,20.6405,-0.27084,18.5282,21.7954,-2.88507,18.4237,20.8403,-2.205,18.4153,21.0987,-2.15413
4.7502,0.231784,-13.9739,2.43985,1.96148,-13.333,1.86913,0.460266,-13.4357,1.93474,1.97302,-13.6788,2.0301,0.501966
0.723686,0.0133142,8.02823,6.43372,-0.841983,7.64329,6.4919,-0.849726,7.87152,7.30788,-0.883522,7.99737,7.31443,-0.878018
1.59379,0.196135,16.1094,12.4394,-3.88414,15.9169,13.7289,-3.8677,15.8503,13.3625,-3.76868,15.9862,13.811,-3.98789
5.54704,0.228335,-1.47479,29.4327,-5.04569,0.582591,28.1734,-5.08366,-0.863929,29.9911,-5.13227,0.56934,28.4519,-5.05945
7.47066,0.218065,8.48071,23.5853,-4.33261,8.51391,21.401,-3.68915,9.01775,21.4146,-3.6991,8.18451,21.7033,-3.74275
1.66671,0.403921,-17.456,17.7185,-4.19238,-17.2489,16.8922,-4.12014,-16.7179,17.0304,-4.4139,-16.9382,17.0743,-4.25578
17.0622,2.13348,-17.1744,34.8848,-3.6527,-18.3479,32.3903,-3.42132,-17.3872,31.9078,-3.79713,-17.5753,32.0591,-3.66
3.54775,1.22095,8.87747,28.8404,5.18369,5.86002,28.5944,5.51348,6.03414,29.0297,5.11294,6.21904,29.1503,5.09391
2.61137,0.414744,9.204,19.7161,5.01409,10.7647,18.5706,5.08933,11.1344,18.4145,5.00449,10.741,18.8529,5.09067
23.7183,1.34366,-3.75238,4.42105,-0.993141,-5.68883,3.34185,-1.98576,-4.81924,2.51018,-2.23558,-6.10235,4.60549,-1.81743
3.13876,0.0817709,8.22241,40.4456,-0.849436,9.73489,40.4644,-1.15248,11.2525,40.4157,-1.6416,10.9969,40.4419,-1.7824
2.4538,0.277466,15.9512,5.00046,1.98672,16.2963,4.3041,1.60839,16.7574,5.52427,2.1815,16.2069,4.20709,1.60237
12.9153,0.0378389,-1.13629,16.1282,-2.11922,1.56443,16.0347,-1.74293,2.09781,16.4868,-1.82105,-0.230605,17.7392,-2.57961
1.85465,0.0207591,9.42084,24.129,5.30691,7.45339,24.1373,5.57726,7.53738,23.9216,5.5377,8.54479,23.9419,5.41338
12.5912,0.25166,-9.41955,7.8636,-2.41614,-11.2077,8.5319,-2.96924,-12.2971,8.38092,-3.39131,-11.2576,9.29121,-3.10113
4.66881,1.62175,-4.73742,3.45059,2.78706,-3.64552,1.14103,2.35165,-3.54674,1.26293,2.44025,-3.59874,1.22088,2.38508
2.00651,0.49278,4.43845,8.03432,4.35683,4.35326,6.68303,4.36677,4.5768,6.61696,4.30102,4.42893,6.59374,4.31762
0.947946,0.494807,6.53951,21.119,5.52961,6.2146,22.0776,5.5373,5.83666,21.9774,5.55182,6.09226,21.9717,5.50227
2.03427,0.0712574,12.9054,5.75378,0.0578463,12.6012,5.15838,0.147449,11.8777,5.44531,-0.118352,12.1083,5.11668,0.0588932
1.89027,0.307081,5.37799,29.1328,5.06877,5.09602,29.966,5.40793,6.13455,29.1611,5.07835,5.12358,28.8555,5.55345
17.9603,0.826014,-7.04858,35.314,3.95062,-9.97926,34.4951,3.66188,-6.41395,33.4824,4.21549,-8.66678,33.7188,4.1548
2.51493,0.236197,-0.0863385,7.95169,-2.01411,1.61847,9.45956,-1.17112,1.36537,9.48728,-1.21987,1.72013,9.37464,-1.1633
4.33864,0.174914,-17.8721,5.73869,2.45393,-18.6407,5.5377,0.945332,-18.4475,4.89765,0.282197,-18.3706,4.86804,0.400309
2.38649,0.0128789,-0.150758,2.44796,-1.87071,1.95723,2.64298,-2.00702,0.109956,2.15711,-1.92118,1.99043,2.72205,-1.9985
9.98251,0.436869,0.797451,27.8513,5.49078,1.58439,28.2738,5.87876,0.328812,28.1251,5.89819,0.797381,25.1992,6.25227
5.16336,0.377956,4.91881,14.8935,-1.18972,5.39387,14.7045,-1.55611,5.0332,14.0287,-1.31484,5.28354,14.2892,-1.41477
3.81622,0.191054,13.123,20.3556,-3.99787,13.0442,20.7561,-4.35009,12.2041,20.4267,-3.39261,13.2558,19.3768,-4.03707
12.2247,0.0775297,7.36217,36.9048,3.77503,8.26616,35.5049,4.26908,6.73628,35.9884,4.25557,9.88307,36.1459,3.68982
1.29415,0.551593,8.85467,36.8725,-4.8071,8.58002,38.3839,-4.05779,8.66962,38.538,-3.95524,8.72697,38.6987,-3.87922
1.36159,0.141903,12.777,14.1362,-1.35385,13.1376,15.3496,-1.91713,13.0112,15.3586,-1.88316,13.2325,15.2196,-1.91136
3.66225,0.0219463,-9.73856,28.8117,-4.34409,-10.1012,27.4791,-4.86641,-10.1377,27.5746,-4.86181,-9.48575,27.619,-4.52736
11.8646,0.497202,-13.0071,20.3534,-5.94547,-13.6337,22.7884,-6.12061,-12.3564,22.3854,-5.53705,-12.8191,22.1774,-5.68007
5.06682,0.0165469,-14.3129,38.8103,-3.09584,-12.6449,36.9719,-4.33621,-13.9896,39.2367,-2.92857,-11.8208,36.5837,-4.65866
2.17732,1.12408,-10.9499,24.31,-4.90363,-11.628,23.1432,-5.28266,-11.7162,23.172,-5.31651,-11.831,23.2624,-5.42115
9.47361,0.314776,-9.93699,40.8766,-1.20459,-10.6699,39.9311,-2.72755,-9.4387,40.8433,-0.352991,-11.6373,40.2351,-2.4132
7.3138,0.130448,8.43636,27.234,-5.05861,9.17817,29.9118,-4.65267,7.99175,29.1209,-4.73924,9.23734,29.5472,-4.73825
1.10044,0.186338,-7.05827,19.1943,5.86679,-6.89761,18.4812,5.82265,-6.65823,18.5568,5.91915,-7.03446,18.511,5.79776
0.742388,0.163158,-11.2915,21.754,-5.41951,-11.928,22.1704,-5.44853,-11.8276,21.6763,-5.52247,-11.8018,21.9252,-5.44667
5.2214,0.113588,5.60617,6.37997,-0.875457,5.97702,7.75346,-0.982519,4.78152,6.91045,-1.08048,7.32085,6.70172,-0.830504
17.3293,0.858247,-2.18851,24.1557,5.30267,-3.04552,23.3706,6.08021,1.17673,21.921,5.93589,-2.10958,25.5026,6.30927
2.1473,0.0758086,12.7799,21.8435,3.93276,14.4181,21.8739,3.52144,13.2782,22.0178,3.75641,14.5403,21.9847,3.49825
2.78069,1.42519,-0.499264,4.00981,-0.8401,0.921811,4.1562,-1.04644,0.926244,4.02938,-1.0248,0.932645,3.84737,-1.05321
6.70411,0.480806,-12.2126,37.0923,2.11077,-12.918,37.6279,2.41105,-12.5286,35.3038,2.84449,-11.0243,37.1532,2.77113
10.6065,0.89912,8.83393,19.4553,-3.15304,11.0556,20.0432,-3.31364,10.2896,21.0954,-3.58993,10.1609,21.1719,-3.63618
7.29868,0.533673,7.07518,12.9329,4.27737,6.54108,12.7012,5.01529,8.73548,14.9163,4.99614,7.69602,12.2125,4.35609
4.01509,0.128587,17.6158,20.7046,-3.58604,17.8109,21.3682,-3.90558,17.0241,19.7008,-4.63932,17.7911,21.676,-4.15424
9.66606,1.53181,-5.16999,37.7219,-4.39058,-8.54503,36.8823,-3.81622,-9.18162,37.0625,-3.99025,-8.1592,36.6639,-3.71682
2.88,0.295336,1.58565,40.0312,-2.28858,1.34693,40.3604,-2.53177,2.55775,40.2293,-2.69195,1.60758,40.3123,-1.67931
1.53563,0.0704691,-4.86331,39.7214,3.43582,-5.43655,39.7768,3.14301,-5.76242,40.0988,2.72372,-5.39174,40.1226,2.78127
2.55331,0.630382,-8.3339,34.4556,-3.7472,-7.54336,35.844,-3.5693,-8.25504,35.7973,-3.50039,-7.87994,35.6763,-3.49246
2.81794,0.620144,-12.3057,7.60687,4.72121,-12.429,9.86883,4.65608,-12.5157,9.73289,4.66264,-12.6414,9.13696,4.79799
2.78045,0.265948,16.0169,5.11818,-0.282433,16.1959,4.49189,-0.379906,16.9103,5.17697,-0.875168,16.8927,5.06983,-0.826216
2.41892,1.18977,15.9867,23.7686,-5.22905,15.0583,22.7249,-5.49199,15.5313,22.6524,-5.14412,15.3142,22.7085,-5.21412
1.27816,0.0105304,-0.955259,17.3276,-2.53417,-0.9428,17.0098,-2.40639,-0.632461,17.372,-2.52301,-0.963501,17.4879,-2.61625
10.22,0.0626378,7.15543,18.3152,4.86911,8.95147,15.9453,5.12086,9.04491,16.8745,5.20612,8.44681,19.6241,5.2288
6.75237,0.0456246,13.5709,29.2954,-5.55057,13.442,28.0835,-6.0778,13.4817,30.5276,-5.06931,12.6266,30.842,-5.63785
0.716806,0.0444822,-6.95552,19.4545,-4.85515,-7.31957,19.9281,-5.00224,-7.5747,20.0141,-5.09496,-7.66782,19.8985,-5.14272
3.62912,0.333961,-7.59899,21.7794,5.33427,-6.61243,20.781,5.73132,-6.59082,20.6487,5.70743,-7.22595,22.5468,5.5861
33.9831,3.52746,13.6801,1.94353,0.328152,9.27672,1.70913,0.347148,9.4033,3.15563,0.1354,9.39911,3.27585,0.0969936
2.87732,0.0327857,12.2847,18.9384,-3.14842,12.728,17.9529,-2.66194,13.3704,17.7432,-2.92129,13.2714,17.6686,-2.79056
3.2303,0.179343,18.1061,33.6336,-2.19942,17.9131,33.8774,-2.77473,18.3808,34.1054,-1.89385,18.7134,32.927,-1.84734
0.127554,0.0732192,2.63201,6.50989,-1.75791,2.73625,6.35729,-1.72712,2.6138,6.25476,-1.77531,2.86249,6.35231,-1.71828
6.60599,0.0240914,-7.33796,2.33637,2.63995,-5.15902,2.2432,3.04053,-5.3108,2.04656,3.00051,-8.40161,1.57824,2.42619
0.483217,0.00786447,-4.04557,16.4131,-2.8584,-3.74822,15.9094,-2.74468,-3.66819,15.9773,-2.75723,-3.79385,16.4255,-2.84929
3.25992,0.157612,-7.89327,32.6787,-3.88126,-6.92672,34.1153,-4.07991,-7.01795,34.5984,-4.07684,-6.94573,34.4244,-4.07954
0.745822,0.0149747,14.6536,18.9047,-4.37626,14.5048,19.8579,-4.69265,14.6206,19.8522,-4.71982,14.8553,19.3633,-4.60581
4.9701,0.536126,-17.4828,8.408,-2.29725,-15.959,7.40175,-3.02668,-15.7114,7.53285,-3.04354,-16.1236,7.94801,-2.98521
8.827,0.145104,-11.5355,12.134,-3.77129,-13.3545,10.8975,-4.68514,-13.3554,11.1327,-4.77579,-11.6544,13.9142,-4.7141
0.660265,0.164813,4.48012,6.5381,4.30741,4.76072,5.99008,4.32074,4.4441,5.92209,4.30736,4.51545,5.83989,4.28318
1.07487,0.0754664,5.56466,11.9654,-0.552011,6.20294,11.7395,-0.509411,6.62513,12.287,-0.689273,6.69421,12.1135,-0.619988
26.186,0.0776225,-4.0214,29.76,5.91656,-7.37568,28.5256,5.47629,-7.40476,29.5802,5.42482,-6.70099,30.8576,5.48882
50.7728,0.0489234,2.05136,31.4485,-4.96031,5.65538,34.6174,-4.28417,4.13731,31.2305,-4.81086,6.16815,34.3756,-4.25555
3.30777,0.234558,-4.69045,14.2158,-2.18806,-5.12479,14.9224,-2.67219,-5.18812,13.2939,-2.43649,-5.36854,14.8059,-2.72514
15.7966,0.35762,-9.70649,3.88001,3.82221,-8.44351,5.06432,4.54484,-8.61128,2.41731,2.87321,-7.87414,3.11817,3.55577
8.92652,0.414644,7.64774,20.7663,5.09101,8.22281,22.3393,5.33054,4.99999,20.7646,5.36478,6.38325,20.8289,5.43213
3.26052,0.355608,-4.74479,27.6434,-4.36896,-5.56662,27.4579,-4.26833,-5.54131,26.7383,-4.37741,-5.96287,27.9725,-4.30297
6.08046,0.118254,18.2685,19.7885,-1.42173,17.7783,20.0878,-3.71338,18.0648,19.9453,-3.18021,17.8225,19.5773,0.144604
6.62872,0.216466,-10.8261,19.7075,4.72343,-8.7919,19.4388,5.58115,-8.85457,19.4287,5.56089,-11.0671,20.66,4.91764
3.01644,0.526225,18.003,22.8836,-3.17456,18.2074,22.6929,-1.61403,18.167,22.9699,-1.59215,18.1079,22.86,-1.27888
4.0753,0.293237,-11.0057,26.1693,4.10426,-10.8091,25.7889,4.33678,-10.2266,27.2143,4.82475,-11.5787,26.1624,4.32078
1.07579,0.0201372,-6.663,37.861,-4.20798,-7.27955,38.3483,-4.15278,-7.0861,38.4287,-4.14715,-7.32394,38.1294,-4.17927
4.41187,0.783905,4.61388,40.1463,-1.64307,4.57459,40.2393,-2.6282,6.95895,40.5233,-0.903615,6.70697,40.5216,-1.08342
5.42191,0.524789,-18.0508,4.56351,0.974601,-17.2436,4.91816,2.83451,-17.2588,5.03493,2.78832,-17.2744,5.48581,2.87823
1.84903,1.21537,10.3346,33.3271,-4.87707,10.4742,31.8885,-4.60846,10.6686,31.8772,-4.771,10.2909,31.8255,-4.54514
0.585767,0.0176691,16.4087,32.7477,2.7429,16.9571,32.1818,2.63398,16.6114,32.3462,2.73779,16.9527,32.3058,2.60513
1.90258,0.0639014,2.53836,8.38655,4.37385,3.2088,7.20811,4.41966,2.95917,7.07281,4.45452,3.07492,7.47408,4.42188
8.38161,0.443873,13.3899,15.2586,3.67312,16.3286,11.9092,3.06224,15.6661,12.4999,3.35005,15.4845,13.0382,3.3567
3.14913,0.0370694,-13.6982,16.5407,-5.27417,-12.453,16.6956,-5.96855,-13.8677,16.1227,-5.42853,-12.2522,16.804,-6.02408
1.41782,0.209603,7.50644,37.4918,3.71067,8.0422,37.9881,3.3951,8.0751,37.763,3.48293,8.31281,37.7843,3.51585
4.17374,0.0145851,17.9667,22.9091,-3.22291,17.1961,22.949,-4.08914,18.1986,21.9509,-3.49102,18.0695,21.6905,-3.79836
1.53631,0.0124334,-4.56898,27.8348,-4.41562,-3.69502,28.1743,-4.6633,-3.21769,28.7966,-4.86111,-3.35582,28.8144,-4.83538
10.8389,0.650999,-11.162,3.40416,-1.9892,-11.9187,1.92705,-1.66424,-9.8853,3.17352,-2.67775,-11.9294,3.94933,-3.18692
0.135695,0.0056565,1.77384,40.9498,0.549516,1.86764,40.9306,0.53051,1.65757,40.9611,0.701792,1.88625,40.4359,2.95655
3.60722,0.0559084,3.67949,0.993635,0.213238,2.49657,0.593246,-0.932791,5.19787,0.84449,-0.112345,2.42887,0.71805,-0.508919
12.5084,0.568504,-4.03327,37.5206,3.12097,-5.41274,37.5553,3.57642,-1.6476,37.7859,3.86268,-4.12915,36.6466,3.79085
35.9197,0.409508,-1.97732,29.3814,-5.01492,-1.23929,26.3079,-4.81764,-3.49559,25.9292,-4.54807,-1.9359,26.3855,-4.72665
2.2748,0.0453223,-2.04199,30.86,5.74878,-1.25733,30.2214,5.45682,-0.234269,30.0678,5.35148,-1.00544,30.229,5.45371
2.52561,0.799915,10.7802,30.2608,4.66065,8.32183,30.5057,4.9923,8.1962,30.0326,5.14727,8.31771,30.6236,4.97231
4.23824,0.281557,-13.7854,15.5639,3.90457,-13.8085,14.2508,4.20658,-14.3664,15.932,4.08628,-12.9869,15.9855,4.31853
2.74241,0.664701,-9.17964,14.5232,-3.07453,-8.43903,15.8752,-3.44134,-8.81806,15.8673,-3.46976,-8.91576,16.2241,-3.84751
1.315,0.026267,10.9889,18.9671,5.04426,10.7522,20.0747,4.92188,11.0973,19.4703,5.01964,10.9634,19.8955,4.97387
0.188891,0.00363677,-13.727,8.31707,4.9592,-13.6754,8.64305,4.97393,-13.4805,8.62159,4.99222,-13.3546,8.48117,4.99887
3.90461,0.0904466,-6.42063,1.43583,-2.15303,-7.28938,2.6321,-2.28163,-4.70648,1.36221,-2.28492,-4.53828,1.83568,-2.31341
0.680839,0.0634098,-2.05806,17.2562,-2.61376,-1.95897,17.736,-2.75017,-2.44772,17.5852,-2.77619,-2.57347,17.5761,-2.78799
1.75883,0.190912,-12.544,3.49474,-2.91081,-14.0525,3.40081,-2.68031,-14.0448,3.14371,-2.63753,-13.557,3.61723,-2.8544
9.77064,0.159687,-7.26572,36.044,-3.63922,-4.38699,36.9636,-4.32078,-4.57174,35.0685,-4.27752,-5.11234,36.0725,-4.11109
2.65476,0.183815,4.75147,8.54424,4.10482,4.65018,8.1402,4.26297,8.072,8.68767,4.02689,8.07618,8.56865,4.01611
8.67024,0.127075,-10.0827,30.3627,-4.05843,-11.4209,26.896,-5.65699,-11.7554,27.6158,-5.71436,-11.4082,27.6879,-5.45774
1.93449,0.175472,-12.7569,31.4848,-5.41779,-14.4693,31.4785,-4.77479,-14.216,31.4164,-4.92036,-14.2879,31.6886,-4.79706
1.97524,0.307145,4.30244,20.8209,5.34883,4.99754,20.8343,5.36991,4.08665,21.4488,5.73823,4.25736,20.3628,5.74177
5.63268,0.340737,7.94565,1.58067,0.0499678,9.47236,2.98252,0.205808,9.44127,2.66464,0.261533,9.20267,3.41678,-0.0506928
6.66759,0.27744,1.4027,29.8696,5.36071,1.32622,28.4451,5.87887,0.88508,30.2457,5.53683,2.89955,30.3219,5.68849
8.67633,3.11037,8.81399,34.2593,4.49841,5.83904,36.4075,4.26149,5.72649,35.9434,4.2239,5.52165,35.5946,4.395
0.407219,0.0123417,-18.9355,7.65119,0.0178333,-19.0127,7.46758,0.18496,-18.9612,6.98013,-0.033379,-19.012,7.02809,0.0917117
3.71468,0.114167,2.79938,4.54144,-0.922399,3.59837,6.389,-1.46237,1.65587,4.79812,-1.20158,1.71202,4.48782,-1.11528
1.27755,0.0441318,6.66147,40.4267,-0.444882,7.34076,40.4107,-0.353444,8.22653,40.4339,-0.611723,8.22294,40.4286,-0.75401
8.1423,0.0233721,-8.47832,38.5802,-4.07333,-8.96235,39.3131,-3.59983,-8.85166,39.8576,-3.27118,-7.89656,39.9506,-3.22091
20.1085,0.0588069,9.74951,33.145,-4.57885,7.95199,34.4935,-4.45758,8.27539,35.4167,-4.89415,10.1075,34.5264,-5.25214
1.83084,0.468251,15.6976,35.7597,1.64885,17.341,35.8619,1.61566,17.0938,35.4888,1.72959,17.09,35.6,1.66833
20.3497,1.06247,-12.6192,5.5012,4.327,-17.1195,5.71864,3.01252,-16.2392,4.6981,3.20206,-14.2171,4.42263,3.33567
3.631,0.205018,-17.491,18.7498,-3.99376,-17.9743,18.3538,-3.91959,-16.3953,18.5955,-4.75845,-18.0005,19.1161,-4.02334
1.13305,0.0797152,19.0499,32.8295,-0.720699,18.6532,32.5623,0.273256,19.0615,33.1818,-0.85922,18.6692,32.6702,0.279453
1.94309,0.102964,-0.18406,30.0057,5.32498,0.759131,30.242,5.53597,0.596381,30.2418,5.50693,-0.0888729,28.7702,5.79715
2.76213,0.00779855,-11.0537,15.5976,-4.99618,-12.1698,14.7785,-5.2835,-12.162,14.9738,-5.34672,-11.2679,15.0785,-4.91922
4.93946,0.0876982,-15.5145,38.6721,-2.8941,-14.1069,37.3,-4.06869,-13.8551,37.3098,-4.08327,-15.1825,39.1821,-2.67675
7.25478,0.155102,-11.1079,11.8062,-3.2655,-10.5105,13.8306,-3.68295,-9.62008,13.2359,-2.86379,-10.3771,12.7214,-3.07083
1.14404,0.0584509,-7.16797,24.4962,-4.25315,-6.77902,25.0142,-4.30623,-7.86029,24.5548,-4.26605,-7.4703,24.2203,-4.30895
21.4433,0.507931,14.3216,6.37059,-0.0830772,16.6245,8.27214,-2.64788,15.5652,7.07755,-0.943969,14.9595,8.88471,-1.29049
4.54638,0.441785,-3.77451,1.46854,-1.60621,-3.36227,0.537122,-1.60431,-2.90461,1.8388,-2.11881,-4.22422,1.67158,-2.26527
59.3557,0.838322,-3.78429,37.7507,-4.17855,0.916171,36.4051,-4.46759,-0.97822,35.1091,-4.68352,1.22043,35.2543,-4.42719
2.09493,0.019709,10.8069,2.63167,2.54832,10.5662,2.51645,2.4345,12.4952,3.02705,2.448,10.4502,2.26459,2.10671
1.47408,0.0670956,-13.6636,28.2925,-6.12628,-15.1488,28.5414,-5.70043,-14.2908,28.2213,-6.02622,-15.3077,28.4301,-5.67727
1.91643,2.05383,-0.334975,2.16014,3.38182,-2.56232,2.53571,3.43565,-2.55997,2.39116,3.35164,-2.55996,2.68829,3.54091
6.12609,0.233977,-8.27889,9.74109,-1.71265,-8.90324,9.72392,-2.40507,-7.2219,9.05636,-1.85027,-8.49603,10.3119,-1.77815
4.71396,0.273498,-12.2951,27.2874,4.06706,-12.8522,27.3938,4.26935,-11.1467,28.2145,4.67193,-11.585,26.3428,4.33008
8.40612,0.574999,-9.775,36.9758,2.99828,-6.77623,36.6336,3.64785,-7.48575,37.2032,3.60528,-5.65248,36.9457,3.65282
4.72786,0.380183,-4.561,27.3575,5.46181,-4.26933,26.2224,5.8904,-3.57705,28.0507,5.99869,-5.05548,27.5029,5.77043
2.21555,1.28064,-5.21851,21.2215,-4.3158,-4.27415,22.2955,-4.15021,-4.50549,22.4909,-4.25111,-4.23837,22.2585,-4.14718
0.976403,1.01751,-18.6512,15.2398,-2.45486,-17.9222,15.4005,-3.51471,-17.9349,15.3303,-3.50173,-17.9057,15.5226,-3.55027
2.80622,0.0790276,-18.532,22.9378,0.191531,-18.2422,23.4065,2.04258,-18.2198,23.2487,2.17064,-18.3752,23.4054,1.36398
3.63318,1.43312,-13.6552,6.55877,-3.62487,-15.536,8.45675,-3.46533,-15.7068,7.40221,-3.03159,-15.5853,7.53342,-3.05323
0.844573,0.229285,18.0239,27.795,1.37797,18.046,28.6388,1.45608,18.1075,28.838,1.26841,18.0097,29.0084,1.36557
9.59582,1.0133,-13.6668,38.0073,1.19923,-14.5157,38.0525,2.19738,-13.8543,37.1744,1.86304,-13.0794,37.7469,2.43091
14.4292,0.366113,-17.3788,35.6241,-2.93877,-15.6199,36.3846,-3.8952,-18.4848,34.5804,-3.10313,-18.6285,36.4488,-2.67425
0.366001,0.0371158,-9.62746,13.6496,5.06244,-10.0731,13.777,4.98414,-10.259,13.6843,4.92709,-10.255,13.5724,4.92181
0.960897,0.116216,3.0074,38.2289,-4.59451,4.0261,37.9445,-4.74693,3.76606,38.1667,-4.6153,3.77564,37.9464,-4.70575
5.65455,0.273861,-7.26418,3.48828,3.39793,-5.11266,3.67237,3.63665,-7.73796,4.03716,4.06949,-7.35796,2.91638,3.3946
2.20515,0.0811984,-5.11077,10.8183,-1.94451,-5.08482,10.0791,-1.99093,-4.66682,11.1756,-2.08122,-5.61811,10.9056,-1.98814
2.94425,0.411797,1.53695,4.49549,3.94982,2.60485,4.59868,4.16855,1.65364,3.55665,3.70163,1.69656,3.63535,3.74817
2.43586,0.0527498,-13.98,30.1125,-5.43602,-13.3329,29.7184,-5.76612,-14.3382,30.1768,-5.37758,-13.5485,30.9888,-5.40103
9.10185,0.580301,2.87504,16.644,5.42953,2.8799,12.9085,5.51566,4.34238,17.0297,6.02512,2.76173,13.0369,5.53619
8.48026,0.701521,11.1056,15.7628,3.80788,10.7461,14.854,4.63399,10.7431,16.7413,4.72517,13.7395,16.0556,3.64523
6.06399,0.0552233,-1.52861,37.9879,3.8702,-1.43781,39.231,3.60996,-0.509089,37.6742,4.01562,-0.637169,39.2164,3.7282
3.7332,1.79055,1.07548,38.0333,-4.30535,-1.07296,37.9189,-4.44374,-0.915425,37.4017,-4.43456,-0.95069,37.2954,-4.55673
2.69537,0.271871,-11.7149,23.0419,-5.30321,-12.1867,23.3829,-5.77144,-12.2632,22.3311,-5.50334,-12.3861,22.4781,-5.56635
0.586018,0.011605,17.664,25.1514,-4.03717,17.7424,24.4724,-3.96131,17.8532,24.636,-3.83828,17.6441,24.4261,-4.07126
14.1934,0.706611,-8.07231,8.60821,4.52778,-9.17116,7.82728,5.10356,-8.35307,9.65977,5.39451,-4.76999,6.36134,4.97106
8.58563,1.06404,-18.9975,35.2297,-1.93695,-18.3306,36.5368,1.32811,-18.3688,38.6837,0.933974,-18.6503,35.8411,0.844551
2.24993,0.010196,-7.3154,30.5785,-3.7599,-6.72225,31.6425,-3.86326,-7.22217,31.5161,-3.79591,-6.79993,30.5741,-3.81408
0.936158,0.0137884,2.43489,22.1838,-3.91655,2.70337,21.715,-3.75442,2.98836,21.5781,-3.78328,3.19224,21.6676,-3.91784
5.61573,1.00074,-17.8936,22.1879,-3.83797,-18.718,22.596,-0.895409,-18.8,22.4719,-2.34778,-18.6938,22.7926,-0.841119
4.43442,0.458755,-0.140501,12.7106,4.9158,-0.72578,11.6757,5.47332,0.901155,12.6177,5.16696,-0.38251,13.4053,5.45552
3.94939,0.239414,-12.029,3.23721,3.02702,-12.0476,3.59666,3.56533,-10.4951,2.4776,2.94493,-12.6389,2.49711,2.74793
21.3177,0.513836,5.12539,29.3467,-5.03005,6.55466,26.968,-5.26407,5.10562,25.1441,-5.15744,4.97961,25.1423,-5.16272
1.84246,0.152054,14.943,3.53496,1.97084,16.142,3.83773,1.51771,15.4514,3.46474,1.7608,16.0666,3.80566,1.55058
9.10521,0.558019,8.66469,13.4343,0.045797,9.43381,13.0774,-0.172432,8.75852,14.3738,-0.996711,7.06719,12.2582,-0.596741
1.29196,0.0693683,6.77109,27.9843,-5.13069,5.75032,28.3304,-5.11662,6.11778,28.4898,-5.05996,5.96567,29.0467,-5.00352
3.69523,2.34036,16.359,13.7665,2.40317,15.7491,16.0323,2.31419,15.8835,16.0642,2.24598,15.7014,16.0352,2.4562
2.50084,0.219155,-13.5008,18.8514,4.22309,-14.1479,18.0104,4.28613,-14.1768,17.39,4.29287,-14.2979,17.4205,4.25743
12.8277,0.266877,13.9182,11.5027,-1.43229,13.693,12.9217,-1.72244,14.4362,11.3197,-1.94095,12.1745,9.67701,-0.828955
6.9675,1.15847,13.0579,6.93019,3.17569,11.2163,8.93218,2.5763,11.3648,8.36749,2.85992,11.2992,9.03841,2.62241
1.89449,0.661569,-9.3604,36.7655,-3.86865,-10.6298,36.1707,-4.40601,-9.94873,37.5611,-4.40012,-9.9628,37.8352,-4.37854
3.09695,0.143389,10.954,5.46841,-0.307855,10.6759,6.42687,-0.616027,10.2736,5.91259,-0.620155,11.5555,6.51065,-0.48113
0.68823,0.228873,7.51536,24.7363,-5.1087,6.87718,24.9598,-5.17309,7.24298,25.3341,-5.31623,6.99667,25.0754,-5.2153
4.78956,0.374523,3.61603,40.0784,-1.59404,4.09636,40.5576,-0.1874,3.34374,40.522,-1.90991,4.32468,40.1629,-1.98002
3.07776,0.384427,16.8551,2.40967,0.655739,16.3404,3.44689,1.34177,16.4122,3.8126,1.3973,16.5304,3.83006,1.37898
2.5944,0.340309,-16.1889,2.84733,1.35709,-17.2158,3.51913,1.0925,-17.8736,4.06183,1.13113,-17.6527,3.89503,1.11052
2.50169,0.860508,13.8649,15.9317,3.62893,15.2906,16.0467,3.31782,15.4504,16.2071,3.14847,15.4137,16.3121,3.19912
15.0803,0.264289,-17.5193,29.4778,-4.03736,-16.1705,28.8517,-5.17541,-15.4079,31.1322,-4.75018,-17.5319,30.5589,-3.96819
7.11803,0.0601396,-11.5888,21.2484,-5.63513,-8.8581,20.6691,-5.20511,-8.32885,20.0311,-5.3097,-8.2888,20.2187,-5.23888
3.81431,0.00629614,3.98207,29.6587,-5.16766,3.85579,28.5286,-5.48166,4.72445,28.7993,-5.18934,3.33817,29.7073,-5.3305
1.99056,0.128464,10.1094,22.6982,-3.98187,10.4562,22.0844,-3.99255,9.62752,22.2864,-3.96982,10.2814,22.0177,-3.96056
11.6848,0.160242,-4.80549,16.8587,-3.00428,-5.84359,17.3054,-3.5265,-3.41869,18.9552,-3.48722,-3.36136,18.5952,-3.24211
7.71038,0.290134,7.28971,9.47427,-0.811787,8.77071,10.4172,-0.29381,9.28513,10.1287,-0.270691,9.54142,10.3442,-0.227004
6.97556,0.92219,5.62461,35.4982,-4.45341,7.4316,34.5177,-4.35026,6.97246,35.8629,-4.85042,7.45032,33.7645,-4.20018
1.43406,0.0857874,-17.9755,39.7051,-1.25466,-18.0057,39.8372,-1.03624,-16.9657,39.3717,-1.6474,-17.2051,39.3153,-1.63176
1.8043,0.122442,-7.37962,32.2439,4.94025,-9.98265,31.7616,4.63423,-9.76667,32.0108,4.55976,-9.9065,31.904,4.57886
7.19631,0.210386,-3.79938,35.7998,3.79436,-0.813786,35.5662,4.59051,-4.1257,36.3943,3.85454,-0.684397,35.471,4.62954
1.02678,0.0677838,2.22699,16.8932,-1.8778,2.08786,17.1825,-2.12079,2.37362,16.6021,-1.79954,2.0491,16.917,-1.9391
1.17556,0.0607637,-13.424,10.6462,-4.62904,-13.3866,9.84399,-4.28463,-13.7254,9.82891,-4.44129,-13.2617,10.0863,-4.34497
10.0471,0.208165,5.23278,21.4805,-3.19763,4.6553,19.97,-3.118,6.81584,19.4815,-3.2522,5.33051,22.2953,-3.5456
1.31508,0.136649,18.831,27.6826,-1.82738,18.5173,28.6298,-2.73399,18.661,28.5134,-1.92327,18.5969,28.5374,-2.28786
5.46378,0.141146,-14.6968,28.8085,3.54125,-14.8973,27.7141,3.37271,-15.6251,29.0064,3.46184,-13.0554,29.076,4.24633
0.392608,0.0144385,-1.311,30.5533,-5.19318,-1.50543,30.7686,-5.1658,-2.032,30.6456,-5.07926,-1.90031,30.7821,-5.09681
23.7245,1.97314,4.48865,31.7614,5.39168,5.95917,29.6565,5.13612,7.04782,30.62,5.07543,4.09798,28.5027,5.78013
1.04593,0.0151769,8.83371,16.7285,-2.56131,9.58284,16.7985,-2.32039,9.8817,17.3485,-2.66337,9.65881,17.1458,-2.58538
8.15722,0.645423,-6.90003,11.2095,4.80661,-7.22307,9.79398,5.38167,-7.93241,12.0428,5.52153,-4.88461,11.4188,5.42146
2.27181,0.0972703,8.07035,5.23098,-0.772403,8.16724,6.0647,-0.843295,7.4511,4.91691,-0.946488,7.94167,6.14833,-0.867232
2.45649,0.112268,-0.371896,39.1603,3.73275,-0.271419,38.0874,4.01147,0.597485,39.3157,3.84547,0.5621,38.7201,3.935
7.99315,0.622171,-15.6663,10.7932,-3.37054,-15.1737,10.2023,-4.22784,-16.6914,10.3186,-3.45261,-16.2769,12.8952,-4.17173
5.97492,0.0949359,6.3781,3.07011,3.6235,8.15134,4.8701,3.80858,8.34944,4.3772,3.72355,4.63248,2.51823,3.45501
21.6219,0.161625,-10.8804,21.9093,-5.31363,-8.60822,24.3131,-4.36649,-10.2147,23.3957,-4.88191,-8.42797,22.7783,-4.88697
3.7241,0.120722,14.57,17.3254,-3.59565,14.9113,18.7491,-4.45006,14.6619,18.6673,-4.29182,13.7849,16.9024,-2.8477
2.40097,0.238375,-14.8237,22.9555,-5.93558,-15.9754,22.2932,-5.25893,-16.176,22.5214,-5.09914,-15.7228,22.2865,-5.47006
30.9201,0.207518,-9.13725,13.9764,-2.4231,-5.68363,16.391,-3.1136,-5.56841,17.0077,-3.30858,-9.00147,12.537,-2.14826
11.1294,0.273099,-10.0729,22.7609,4.84022,-10.7706,20.8884,4.99296,-8.837,22.3756,5.36587,-10.7479,24.0312,4.97652
3.25544,0.54528,-0.350519,0.907705,-1.95629,0.375332,2.02552,-1.94635,-1.46126,0.98711,-2.08381,-0.500437,1.58724,-1.93795
0.298213,0.00380411,-6.50634,14.5586,-2.88813,-7.00638,14.5576,-2.83534,-6.63256,14.6845,-2.89031,-7.00181,14.4272,-2.82279
3.16524,0.228817,12.0178,25.7873,-5.93405,12.9521,24.3,-5.3207,12.44,24.5241,-5.39456,12.8263,24.2939,-5.32503
5.23049,0.214933,10.575,4.54339,3.04911,11.3264,5.77715,3.39658,9.98801,4.39663,3.35492,11.4132,3.31174,2.84143
16.233,0.424114,5.40157,2.94557,-0.855639,6.0291,5.91906,-0.938933,4.33535,4.56912,-1.11103,7.54098,5.94871,-0.91827
2.29804,0.252566,-14.7578,26.9523,3.51141,-14.7346,25.2714,3.71425,-14.9362,24.8461,3.68421,-15.0586,24.7431,3.67082
2.09335,0.277189,-4.09798,26.1634,5.82699,-3.58183,24.5886,6.15401,-3.47781,24.9919,6.15155,-3.67957,24.681,6.14818
0.479311,0.00526449,17.9014,8.96262,-3.41535,17.8725,9.43377,-3.6245,18.1424,9.47061,-3.50189,18.1436,9.24591,-3.40557
0.0946185,0.0958537,-10.7902,18.2566,-6.06171,-11.1057,18.3513,-6.09014,-11.0539,18.2781,-6.08509,-11.1121,18.1824,-6.14702
3.14116,0.0219658,-1.17096,20.7274,6.09767,1.06386,21.5445,5.92763,0.931679,21.7187,5.9168,0.402608,21.5909,5.95574
1.56794,0.286096,-15.1016,11.3414,4.15966,-13.6981,11.0902,4.77275,-13.5768,11.2264,4.76384,-14.1681,11.3434,4.62861
3.2914,0.0989253,-3.52636,8.7855,-2.23522,-3.31679,10.3268,-1.89578,-2.79036,9.36466,-1.99458,-3.6569,10.313,-1.99188
7.83388,0.269124,9.93138,24.1375,-4.43469,9.08821,23.0088,-4.12993,10.3484,23.0256,-4.19859,9.00449,25.1611,-5.2047
10.1868,0.0793051,8.70899,12.1775,-0.291697,10.6976,11.8053,-0.474431,7.89594,10.9299,-0.452093,10.6796,12.3791,-0.423423
14.1225,0.309202,12.1336,11.7834,-0.578401,10.6883,11.4635,-0.387033,9.65413,10.0431,-0.282527,12.7507,11.9859,-1.13449
2.00682,0.230514,1.02447,21.7264,5.9017,3.0619,22.0923,5.9098,1.94013,21.7227,5.95874,3.24821,22.1724,5.91232
9.32495,0.220788,-5.41,19.387,-3.78763,-5.84644,19.2298,-4.32499,-5.80962,17.5261,-3.62228,-4.45541,21.1343,-4.0801
53.244,1.42059,-2.02985,16.4452,-2.26752,0.366626,12.7983,-1.07396,-2.29575,13.2266,-1.47143,0.489791,12.8162,-1.04826
1.0843,0.144843,3.87406,3.95084,-1.27738,4.46831,3.59223,-1.06766,4.83775,3.93857,-0.912984,4.72436,3.57882,-1.0132
4.43946,0.263161,-7.38656,3.64061,-2.29468,-7.29104,5.02674,-2.26391,-7.67431,4.92427,-2.47993,-6.78739,4.70265,-2.07346
1.58294,0.0798119,16.7755,37.4641,-2.8569,17.5111,38.059,-2.78758,17.5181,38.1975,-2.81207,17.291,38.1479,-2.8864
8.37728,0.259319,-3.64839,32.6102,-4.28551,-6.55505,30.4699,-3.87098,-5.56686,30.7783,-4.09636,-6.80422,30.6965,-3.81843
2.73266,0.410318,-5.65704,16.859,5.38997,-3.79059,16.1675,5.77844,-3.19007,16.1582,5.84769,-3.28911,16.2465,5.87208
0.257971,0.151319,7.81996,1.51913,2.49948,8.22512,1.51532,2.46604,8.32394,1.61007,2.60908,8.28533,1.56726,2.53675
3.36779,0.197735,15.5389,31.0589,-4.33344,15.8813,29.6506,-4.60416,15.0907,31.068,-4.83024,15.7459,31.2478,-4.41066
14.7534,0.12027,-0.706381,11.0375,-0.989788,-2.70485,10.5156,-1.68595,-2.90666,11.391,-1.49504,-2.79543,10.6035,-1.6905
10.6221,0.117227,-18.3885,33.6341,-2.65182,-18.1472,34.0164,-3.36226,-19.0756,33.2361,-1.7034,-19.1119,34.4161,-2.08087
7.84744,0.504468,17.1022,31.7431,-2.84327,17.811,33.1059,-3.00416,15.4598,31.6863,-4.64874,17.4915,31.4345,-3.17341
2.76176,0.0634476,1.06043,3.67166,-1.14675,2.18916,3.97174,-1.20725,1.80931,4.0166,-1.13519,2.32349,3.73897,-1.34566
11.5764,0.383722,4.08261,27.1301,5.57158,8.0721,26.6302,5.69596,3.52519,26.5983,6.15038,3.8635,27.9984,5.78119
72.5292,0.645451,-12.386,35.0712,2.92931,-14.4164,31.9204,3.38829,-17.2533,33.4255,2.27786,-17.2756,35.9336,1.9323
1.63541,0.134507,-10.3932,28.3047,4.61834,-10.769,28.2334,4.69066,-10.1037,27.234,4.84664,-9.99098,27.6358,4.85177
2.72086,0.401854,-9.76035,13.8444,5.04201,-8.26209,13.4079,5.49832,-8.37281,14.0832,5.33367,-8.37273,13.816,5.37378
0.59394,0.00440978,17.4509,34.204,2.03096,17.8821,33.9511,1.88433,17.8953,34.2035,1.83593,17.979,34.0999,1.81766
7.81944,0.0376314,18.442,13.8736,-3.37976,17.2606,13.5752,-4.7203,18.6695,14.475,-3.25243,17.5422,12.537,-4.28507
7.78875,0.154584,-10.6842,15.3025,-4.37841,-11.4575,14.0381,-4.53844,-10.8399,15.8548,-5.05609,-10.9139,13.7341,-3.8921
4.74238,0.0658433,-15.5921,40.1893,-1.41491,-15.1939,39.7089,-2.02287,-14.2366,40.9299,-0.424811,-14.3601,40.9156,-0.461429
22.9547,0.258258,-3.51946,23.0114,-4.38521,-3.69522,24.4313,-4.5489,-6.88547,21.9246,-4.33936,-7.64614,22.0475,-4.49619
3.55414,0.0354882,3.47682,4.43624,4.06361,3.10036,3.06211,3.63774,3.74762,2.58504,3.41359,3.36786,2.62627,3.47013
11.7182,0.230773,4.74175,22.8987,-3.8573,4.33828,21.9461,-3.64047,4.30615,24.0858,-4.86415,5.49956,24.6939,-5.03843
5.85924,0.152816,-16.5631,14.8559,-4.26621,-15.0418,15.6706,-4.94798,-14.3413,14.5908,-5.25979,-14.3735,16.1631,-5.33118
4.68833,0.155962,2.253,9.05093,4.34868,2.5808,8.43981,4.38196,3.41777,10.1644,4.94721,3.40517,10.522,5.04325
1.35324,0.0658432,-6.64508,2.44492,-2.21815,-6.21337,3.39757,-2.04499,-5.85121,3.17292,-2.06225,-6.47244,2.91375,-2.17064
2.94049,0.178085,-18.0693,6.38318,2.51185,-18.4226,5.91678,2.28413,-18.3307,6.61637,2.69198,-17.1701,5.80915,3.02162
14.2785,0.35669,-2.96576,5.26352,4.5669,-0.00759579,3.25856,3.80464,-1.22001,4.0182,3.94947,0.788643,6.32711,4.64609
1.47975,1.12082,-15.8551,7.93682,3.82273,-14.7472,7.67875,4.25195,-14.7312,7.48672,4.22277,-14.7331,7.54125,4.20128
5.9012,0.561307,-3.90788,8.74176,4.96793,-3.54793,5.67294,4.68672,-3.66094,5.30195,4.60297,-3.78656,5.2886,4.61631
7.14741,0.647336,10.5687,38.5037,2.4791,11.8247,38.3193,2.8442,12.064,38.6867,2.72393,9.85199,36.7978,3.60825
4.12323,0.205677,-13.675,17.8201,-5.53738,-13.9152,17.4813,-5.65437,-14.0704,18.3138,-5.74581,-12.0548,18.3666,-6.13359
13.7658,0.240934,-2.10097,4.06204,-0.719051,-3.61186,4.13656,-1.01958,-1.08712,3.91674,-0.908658,-0.629466,5.25309,-1.22065
0.827262,0.411384,11.544,17.67,-2.41891,11.7654,18.5481,-2.96329,11.5691,18.4834,-2.96443,11.8661,18.6086,-3.01044
0.206048,0.0027752,-2.94201,28.125,-4.82966,-2.9791,29.1845,-4.92936,-2.69599,28.3004,-4.85618,-2.84034,29.1746,-4.93267
3.547,0.116413,9.11834,36.5465,-4.93913,8.64241,35.7608,-5.05401,7.36205,36.2967,-4.9875,7.35767,36.4389,-4.98399
3.40634,0.535652,-4.77408,33.4489,4.67341,-1.49066,33.2823,5.33603,-0.734444,33.2887,5.3692,-1.23899,33.2959,5.34828
1.72326,0.66913,-9.90063,14.2467,5.18257,-9.84694,15.2474,5.1668,-9.68671,15.3362,5.22118,-10.3078,15.0727,5.08281
0.980911,0.331247,18.0971,22.801,-1.2558,18.0049,22.7012,-0.54074,18.0105,22.4268,-0.573834,17.9827,22.5281,-0.634113
4.35594,0.353742,-15.8884,11.4896,3.69661,-15.2684,11.2991,4.06638,-16.5222,12.5449,3.89988,-16.4556,10.6398,4.21744
7.22408,0.868296,14.9676,24.2492,3.9806,12.1219,23.1488,4.20855,12.1152,23.5467,4.18726,12.1722,22.5687,4.22407
18.562,0.701914,11.0629,27.5943,-5.42083,12.4891,29.3845,-5.87724,9.28011,29.0537,-4.87427,11.4543,29.545,-5.42164
10.5326,0.201176,16.1525,9.42388,-2.77824,14.5893,9.10762,-1.11987,14.6048,9.59761,-1.19806,14.9641,9.99777,-1.56106
6.64447,0.0447597,-4.72572,33.1108,-4.09605,-6.15337,31.6003,-3.94196,-6.65551,31.5371,-3.88039,-6.99797,32.3143,-3.85326
8.79206,0.412184,0.0237495,0.759198,0.65932,1.29001,0.814273,0.655527,0.514869,1.32717,1.6935,-0.569846,1.04616,2.0038
2.46383,0.227345,3.63559,1.92596,-1.13082,5.03452,1.81737,-0.829054,3.34689,2.02924,-1.50003,3.01823,1.9117,-1.74827
5.74278,0.0809154,-3.93359,13.8199,-1.88415,-3.41203,12.8577,-1.63439,-2.58184,14.4161,-1.8627,-4.06497,14.4817,-2.15635
5.68716,0.602115,5.81299,16.4771,-1.98808,4.81319,15.4358,-1.45763,4.93256,15.3815,-1.47406,5.3305,15.0866,-1.54537
1.35366,0.387484,17.3189,9.47427,2.29321,16.9063,11.245,2.46333,16.9752,11.4544,2.30076,16.9135,11.128,2.50951
4.61352,0.09898,12.0125,1.49724,1.26382,12.1221,2.29192,2.30252,13.616,1.64913,1.18241,14.6287,1.53779,0.925413
9.3661,0.112907,9.02775,2.763,2.9504,10.1813,2.49574,2.58774,9.20374,1.61403,2.31812,9.48622,4.18357,3.3828
6.78338,0.286217,12.9821,35.2899,-4.39613,13.357,36.756,-4.176,14.2182,34.6474,-4.89886,14.452,35.4447,-4.61348
1.7473,0.293806,1.90268,40.8831,-0.0764479,1.68244,40.5675,-1.18638,1.66601,40.3108,-1.62565,1.91396,40.5825,-1.17674
5.56758,0.475903,9.60903,23.6873,4.54033,9.42906,23.6549,5.06175,9.94157,22.7275,4.70731,11.484,24.6234,5.0135
2.10876,0.0156151,-3.16934,14.9108,-2.15101,-2.97449,15.703,-2.34813,-2.69894,16.1264,-2.3888,-2.86649,15.1327,-2.08558
0.61121,0.0547348,8.25345,21.6385,-3.72624,8.01712,21.1861,-3.67811,7.89071,21.196,-3.68914,7.79331,21.3565,-3.73838
0.13591,0.00523732,-10.5642,4.57057,-3.45026,-10.801,4.4221,-3.49029,-10.8392,4.53795,-3.50873,-10.6844,4.40571,-3.46082
2.97043,0.106095,14.6598,24.1447,-5.69407,14.677,24.8077,-6.07574,14.13,23.0707,-5.44933,14.4544,23.1446,-5.43334
5.30081,0.287945,-7.34943,26.4821,5.24173,-8.04395,26.0116,5.42591,-7.57258,26.9498,5.48292,-6.01994,25.8402,5.7821
1.54149,0.49981,4.17652,26.4717,-5.15924,4.53472,27.0434,-5.18049,3.8278,27.1226,-5.39447,4.02848,27.1014,-5.33252
26.6603,0.955659,2.26326,15.9631,-1.59455,2.32758,13.1467,-1.02159,3.25111,13.2378,-1.24504,1.86266,13.2791,-1.01777
4.25277,0.323919,18.1735,31.9022,-1.6854,18.8157,32.1345,-1.08814,18.4023,32.3246,-2.48816,18.3416,31.2502,-1.59831
3.72993,0.139455,3.67112,37.3839,3.6346,3.2361,35.1231,4.77594,3.57869,36.2812,4.24816,2.9969,35.1304,4.81535
12.9876,0.397869,7.99555,38.2339,3.30942,9.69237,37.9973,3.24684,10.1905,38.4744,2.71485,9.07567,39.4047,2.57287
0.390036,0.16108,13.9226,13.2448,4.01858,14.5941,13.2581,3.70722,14.3128,13.358,3.84757,14.724,13.1478,3.70182
2.36638,1.32016,11.1125,1.13627,1.07721,10.4596,2.05167,1.78317,10.2107,1.89511,1.69788,10.3251,2.00737,1.68993
35.8336,0.00642053,-6.47487,13.7773,-2.59261,-7.17598,10.386,-1.80479,-5.37421,11.1417,-2.01994,-7.42734,10.3632,-1.79375
4.78919,0.0154375,10.6873,30.2222,-5.01485,11.236,29.6825,-5.29424,9.33205,30.4446,-4.53815,9.21574,30.1665,-4.57112
2.69166,0.309609,14.3744,31.4522,-4.48975,14.7302,31.6641,-4.65429,14.1143,30.7058,-5.19101,14.0671,32.0415,-4.68659
6.6966,0.584228,13.9927,31.296,2.82952,15.7714,31.8478,3.0639,14.2707,29.6757,3.3886,13.8493,31.6771,3.44951
12.7016,0.718565,-11.9136,21.7661,3.87377,-13.4711,19.011,4.22129,-10.9224,21.8161,4.92478,-12.8524,22.7274,4.31563
4.97059,0.0351949,15.0378,21.9714,3.35741,14.6305,21.8618,3.47214,16.2195,19.937,2.91764,16.06,21.8021,2.94523
2.31508,0.1238,-13.7885,37.1256,1.91942,-14.3131,35.4751,2.40536,-14.353,36.2557,2.22478,-14.4379,35.4813,2.39922
11.0566,0.199162,-8.30505,30.0368,-3.71857,-9.78872,29.2108,-4.1476,-10.1279,29.6971,-4.17029,-8.34963,32.3264,-3.82555
3.02256,0.480027,-13.5001,1.9358,0.230924,-12.8633,1.77941,-1.14805,-12.6202,1.69043,-0.842879,-12.2281,1.86367,-1.55412
19.2377,0.175479,4.49635,24.7512,-5.11911,1.02927,26.3377,-5.13065,2.78568,28.3908,-5.56103,0.802961,25.5978,-4.98756
3.67851,0.0338745,-1.86396,8.11594,-2.09928,0.593128,6.35618,-1.96786,-1.13153,7.13659,-2.0717,0.453218,6.751,-1.98518
9.76065,0.597544,-4.80182,12.6966,-2.24988,-3.05415,11.4908,-1.51111,-3.60138,11.5265,-1.6484,-3.77601,10.6054,-1.98896
4.03399,0.0796118,-14.7796,2.22469,-0.416807,-15.1451,2.36537,1.03272,-16.191,2.86926,0.937553,-15.6746,2.73213,-0.353052
1.04704,0.315739,-5.20024,9.35042,-2.12852,-4.57533,9.93359,-2.10429,-4.23019,9.91578,-2.24781,-4.44233,9.90019,-2.15701
1.91095,0.123689,13.8775,4.94923,2.63416,14.1688,3.83976,2.28365,14.1772,3.60293,2.17779,14.3097,3.74018,2.24445
1.41299,0.62626,-2.80699,20.4714,6.03514,-1.16772,20.4622,6.12917,-1.17213,20.5885,6.10607,-1.3046,20.7706,6.11766
2.56055,0.021251,17.4895,27.804,-4.04072,17.505,28.646,-3.74727,18.2537,28.4703,-3.11533,17.2397,27.9873,-4.23583
5.25422,0.414009,5.96351,16.7056,5.10012,6.84367,16.1886,5.04127,5.34812,16.6696,5.79864,7.04371,17.7524,5.50129
3.8763,0.162433,4.11415,10.6456,4.54549,4.38819,9.45028,4.51587,5.46827,11.0136,4.94886,5.47129,10.928,4.93277
5.57628,0.317403,-12.4665,34.9572,-4.37946,-12.9239,36.1937,-4.50315,-11.3244,35.148,-4.7164,-12.9879,34.1657,-4.79555
9.47027,2.35084,-14.1457,12.954,4.40957,-16.7899,13.0685,3.5173,-16.5588,13.5009,3.22657,-16.8248,14.0837,3.33085
6.21262,0.0829086,1.85338,22.6753,-3.80976,2.17249,24.2926,-4.90336,2.85062,22.8216,-4.39794,1.15708,22.6638,-3.61721
3.62389,0.0712225,-18.208,7.77176,-1.56218,-18.7843,7.7199,2.51209,-18.2311,9.75565,3.50607,-17.8928,8.3613,-1.78041
5.42446,0.289908,17.0548,30.8912,2.10122,17.0176,31.4992,2.62962,17.8487,31.0967,1.43368,17.2243,28.6166,2.52845
0.259809,0.0120862,0.359877,34.6307,-4.60399,-0.141225,34.5408,-4.68461,-0.0841761,34.7444,-4.66344,-0.145674,34.6675,-4.6764
0.342619,0.0124872,16.8961,11.3738,2.42497,16.8154,12.1249,2.29722,16.7423,12.0279,2.40127,16.9106,11.7198,2.30048
3.27169,0.297418,-14.7827,2.53223,1.60217,-14.0195,2.65016,2.26656,-13.9949,3.42905,2.72221,-14.3116,3.45826,2.63908
1.5524,0.287403,7.70407,12.0899,4.38222,8.62712,10.8245,4.53406,8.88427,10.6827,4.49522,8.75737,10.9692,4.51422
5.55968,0.165862,10.0051,22.7139,4.66715,10.8179,20.1278,4.92569,10.7035,20.1249,4.92861,11.0413,21.072,4.87921
3.40105,0.0267639,-0.823354,33.4739,-4.71285,-1.54276,33.8535,-4.74202,0.85541,33.5343,-4.71381,0.583244,33.2779,-4.72327
1.12608,0.0214225,2.88616,9.26018,-1.06263,3.669,8.51243,-1.29182,3.71361,8.73952,-1.24757,3.7817,8.89248,-1.22028
3.4261,0.448026,11.5278,22.1286,4.07917,11.4548,22.7828,4.61384,11.5781,21.6486,4.57576,12.8357,22.0508,3.87209
9.71708,0.277573,18.0673,10.7121,-3.13015,18.6062,13.5585,-3.16253,18.1237,10.9597,-3.79733,18.5301,10.4151,-2.65361
5.99984,0.339518,15.5285,28.6229,-4.31669,15.2178,27.9165,-4.93783,14.2525,30.1678,-5.31161,15.7704,28.8715,-4.55169
0.695137,0.00735375,14.3828,26.4646,4.17034,14.4389,27.5325,3.9373,14.2818,27.4143,3.97878,14.4784,27.3386,3.97281
0.821317,0.77863,17.1537,27.5593,2.57755,17.3402,28.5959,2.46559,17.271,28.5526,2.49294,17.2017,28.5097,2.57809
0.625761,0.000509683,3.03311,37.3276,4.19858,1.77293,37.3103,4.22395,1.76942,37.4112,4.17854,2.53323,37.2002,4.26327
1.10514,0.0699832,17.3359,15.7731,-4.78902,17.9659,15.6425,-4.44545,17.5637,15.0295,-4.84234,17.927,15.7537,-4.45396
8.1663,0.349662,-2.20253,16.1842,5.86922,-6.76079,14.5836,5.60202,-6.74998,14.2753,5.60392,-5.96728,15.0052,5.58669
7.60619,0.80787,-14.6828,35.7476,-4.1727,-13.7878,33.0756,-4.8614,-14.846,33.2139,-4.3419,-14.7117,32.9836,-4.50837
2.84796,0.0323702,10.647,7.25405,-0.724908,9.95378,9.04102,-0.451913,10.5987,8.62811,-0.525078,10.721,8.73606,-0.516526
0.830466,0.277629,7.20968,13.8767,-1.34876,6.36205,14.4132,-1.56765,6.75866,13.8839,-1.29067,6.49478,14.221,-1.44365
10.7348,0.599102,4.2164,7.27944,-1.07783,4.16692,8.69359,-1.23391,2.16015,7.12595,-1.76246,2.55335,7.97284,-1.47719
10.2182,0.360814,-1.05195,27.9582,5.54105,-1.49923,28.2633,5.86378,-0.0561897,28.6579,5.82081,-1.42692,25.1829,6.25555
20.1019,0.621171,-0.934454,31.8382,-4.93224,-4.09463,31.6168,-4.28934,-4.47193,34.6025,-4.26166,-2.99063,33.0966,-4.28524
3.6487,0.0357257,-6.28346,33.3563,4.22804,-4.89578,33.3236,4.71009,-6.64868,32.9768,4.67249,-4.89399,33.2712,4.77768
0.497163,0.0843036,-2.30584,10.7237,5.44323,-3.15841,10.7305,5.40118,-3.09149,10.62,5.39367,-3.08536,10.4452,5.38672
1.16289,0.0834834,-3.52813,19.9877,-3.49473,-3.56083,20.5821,-3.66907,-3.0232,19.6283,-3.48423,-3.43504,20.5902,-3.65964
5.90682,0.202174,4.66797,30.4112,-4.88928,6.45349,29.8426,-4.70279,7.46324,30.4591,-4.48486,6.95502,29.9206,-4.65059
0.829637,0.00193643,-0.0461539,9.05919,-1.71364,-0.155071,9.70515,-1.40698,0.0166078,9.93347,-1.25673,-0.408743,9.79284,-1.41411
11.3568,0.42215,12.976,37.928,2.07725,12.4936,38.1456,2.68814,14.202,38.6719,1.77341,14.2154,34.8544,3.12454
2.95714,0.211565,-9.025,30.1522,5.14615,-9.65788,29.0581,4.99732,-10.2336,28.2486,4.68204,-10.396,28.3823,4.64355
9.63496,0.0921586,-8.36862,17.4805,-4.36188,-9.19445,16.4423,-4.04876,-10.4988,15.7933,-4.54883,-10.3544,16.1577,-4.72325
23.9263,0.200926,-8.24303,17.751,-4.56007,-7.4468,16.9128,-3.69687,-5.9555,18.3154,-3.9608,-6.27914,19.0163,-4.39354
4.41494,0.0523748,-16.6496,16.3355,-4.34892,-14.7086,16.7716,-5.29365,-14.5534,17.7018,-5.53697,-15.3,17.413,-5.17243
3.35095,0.0130372,0.970042,22.6039,-3.58082,-0.476484,22.5132,-3.85512,0.244016,22.7233,-3.72947,1.19338,21.6248,-3.41677
0.703765,0.0298041,6.10751,12.5562,5.08774,5.62715,13.6701,5.14259,5.5011,13.6691,5.1512,5.78284,12.8677,5.1376


