
7.68944,0.644291,9.99621,36.4692,-1.76728,10.501,36.2074,-2.68282,11.3624,36.882,-1.9401,10.8697,36.303,-2.51665
0.451673,0.0387636,-1.42165,9.90921,-5.49641,-1.58434,9.67684,-5.43556,-1.50826,9.52865,-5.44698,-1.43621,9.53477,-5.45707
1.21455,0.0385341,15.9067,3.85563,-0.0207606,15.7101,4.53994,0.667052,15.6419,4.5138,0.682633,15.5605,4.33447,0.56474
1.65421,0.165111,-14.0486,4.052,2.24172,-14.0979,4.5984,2.77198,-14.6921,4.6163,2.3658,-14.0517,4.54097,2.76883
11.3887,0.290723,-13.16,38.6495,0.0966014,-12.7045,38.3186,-1.81398,-12.0212,38.7959,-1.89908,-12.6839,38.389,-1.71781
4.04886,0.330902,-11.1618,32.235,-4.19425,-10.5651,33.3002,-4.47251,-10.335,31.3696,-4.83634,-11.6485,32.2119,-4.44675
3.50299,0.239122,16.5806,22.3184,3.0904,17.8813,23.3125,2.05035,17.8883,23.5549,2.05285,18.2287,23.7469,1.68435
25.4088,0.124558,11.7032,31.2781,4.77959,11.8793,33.3167,4.41709,13.6783,34.9352,3.92036,13.0602,34.8319,4.04609
4.32611,0.246774,-8.57289,23.3158,5.17966,-8.07672,22.4977,5.55789,-9.25687,23.2026,5.34156,-8.28568,23.8073,5.43454
1.87179,0.123275,-1.97208,13.5622,6.08506,-2.083,14.7075,6.12606,-1.78077,14.2606,6.15987,-2.0106,14.7059,6.12662
14.1937,0.0104252,-5.89788,30.7936,-5.48943,-5.32255,31.2694,-5.46347,-7.50857,30.0922,-5.53111,-2.89255,31.3083,-5.53102
4.85881,0.0306619,-7.12068,7.89885,-4.50914,-6.60069,6.95996,-4.29192,-6.47794,7.37711,-4.44515,-7.40658,6.84428,-4.15721
9.33278,0.99124,-5.5305,39.8452,-1.93206,-7.81946,39.2737,-2.40375,-7.1258,38.864,-2.75894,-7.12668,38.8258,-2.84062
19.7855,0.097385,-11.8383,38.1122,1.12996,-9.04299,38.4525,1.78294,-8.72351,37.7676,2.1788,-8.33836,38.1978,2.07681
3.39197,0.0740441,-14.2641,2.59816,0.701416,-16.2872,4.09466,0.77454,-15.7231,3.8009,-0.232636,-15.5859,3.63564,0.139311
0.435964,0.338709,5.33996,38.8708,-0.916706,4.79834,38.8408,-0.955197,4.77571,38.7587,-1.01509,4.77638,38.7889,-0.984296
2.94601,0.119288,13.8821,20.4473,4.44958,11.3246,20.5314,4.97295,11.3909,20.4431,4.95401,12.2964,20.3552,4.8059
4.58376,0.104145,-17.0326,7.04616,2.76764,-17.3932,6.41411,1.88959,-17.6315,7.55495,2.23399,-17.029,5.90547,2.21754
3.20628,0.27435,-0.247379,22.8499,5.9189,0.749931,22.6722,6.11871,1.09952,22.6945,6.07919,-0.256368,23.3491,6.12799
3.6559,0.246753,8.14059,35.0962,-3.14207,7.78958,34.6623,-3.59037,9.74492,35.4012,-3.21693,7.73603,35.5535,-3.24821
6.05905,0.331464,4.78782,27.825,-5.19872,4.73652,28.5495,-5.04742,6.17726,27.4169,-5.89368,4.23809,27.8708,-5.60762
15.2068,0.400944,3.10962,33.1852,-4.09438,5.8139,32.8446,-4.54923,2.8136,31.9936,-5.07421,2.56984,33.8249,-4.27741
1.09944,0.42534,12.7445,38.3756,2.12673,13.3492,38.0856,2.59432,12.873,38.1623,2.71354,12.8432,38.1748,2.71669
4.61695,0.118325,3.39346,3.03102,2.84558,3.25655,1.85598,2.35699,3.37697,2.18425,2.25625,3.69497,3.83004,3.19382
17.1015,0.0262587,-12.7741,13.2837,4.51939,-10.9361,12.2606,4.84511,-13.1057,11.1243,4.48957,-12.4024,14.5013,4.52725
6.56176,0.0414187,-14.6663,27.1307,-4.49272,-16.9847,27.4401,-3.66854,-16.6881,27.7833,-3.76641,-16.9237,27.3518,-3.69416
14.039,1.22168,-4.92483,40.1473,-0.879319,-8.65165,39.1466,-2.2158,-7.90407,39.3732,-1.61595,-8.17658,39.3431,-1.85222
0.312616,0.244007,-18.8454,17.7868,-1.48686,-18.6762,17.6612,-1.77135,-18.7129,17.5617,-1.66864,-18.6903,17.6137,-1.69943
4.19481,0.0224161,-12.6054,11.7871,-4.4637,-11.8446,11.7094,-4.55118,-11.7912,11.3801,-4.51339,-11.2565,12.2812,-4.68385
3.38498,0.00650049,-18.12,27.1033,2.44929,-18.2012,27.975,2.23921,-18.1197,26.4035,2.53646,-18.7566,27.8186,1.37001
6.43569,0.203709,-2.37732,38.6122,-2.67609,-1.66932,39.6185,-1.83238,-1.42855,37.7882,-3.54249,-1.56006,38.0071,-3.36117
4.15242,0.0341004,-17.1699,10.2089,-2.13301,-17.3659,11.0307,-2.18962,-17.5968,10.3838,-1.7008,-16.7599,10.7934,-2.73485
38.0927,0.0248943,4.59116,17.1949,5.9213,9.3964,18.5285,5.38077,7.58217,16.3594,5.32301,10.0407,17.6079,5.12568
0.216761,0.0298826,-9.30686,33.5486,-4.62898,-8.9642,33.5085,-4.6464,-9.10183,33.4997,-4.63663,-8.96553,33.5427,-4.63216
1.98189,0.308967,-13.9663,37.7552,0.573826,-14.0614,38.0601,-0.288019,-14.0785,38.0583,-0.686106,-14.1513,38.0268,-0.405086
0.939679,0.107995,-9.47923,15.4583,4.57759,-9.69943,15.7225,4.68894,-9.106,15.3854,4.78778,-9.78588,15.5945,4.63316
0.882316,0.0352318,-18.5528,28.5144,1.63638,-18.3556,28.8197,1.89596,-18.2507,28.6227,2.06725,-18.2641,28.6988,2.03628
1.07567,0.0082368,18.511,25.6211,1.56757,18.6533,25.5174,0.860187,18.4906,25.3765,1.17834,18.6196,25.4574,0.862868
13.1369,0.756208,-11.545,8.20256,-3.8425,-10.7914,4.54342,-2.23495,-13.4334,8.19933,-3.49712,-10.7843,4.50423,-2.20397
25.6604,0.190992,13.6339,25.6132,-5.10451,11.597,27.0215,-5.36821,12.6982,27.7214,-4.86348,11.3517,25.9566,-5.63698
14.6365,0.546237,8.53629,19.1095,-5.52113,8.57199,17.6764,-5.99935,7.58449,19.5253,-6.14574,11.0045,19.57,-5.9423
3.205,0.0207404,15.2805,10.9707,2.8377,15.0627,11.2175,2.94076,14.8434,11.9601,3.1663,15.3948,11.8469,2.95162
0.387014,0.0273081,-6.144,34.6506,-4.54239,-6.84228,34.3974,-4.61501,-6.91567,34.4841,-4.5823,-6.91144,34.5694,-4.55441
5.43211,0.401001,-4.57733,5.91214,4.76855,-3.4249,6.29829,5.33662,-5.25076,6.40397,5.27895,-4.81025,5.0304,4.94437
4.03037,0.316295,3.81533,3.97504,3.18727,3.68834,4.31075,3.57993,5.70613,3.76834,3.12798,3.76598,4.32372,3.56699
0.0168781,0.00855041,-15.3005,23.2111,-4.68531,-15.3531,23.1108,-4.67071,-15.4257,23.0988,-4.64266,-15.4146,23.1908,-4.65032
1.62814,0.290373,-5.19365,33.6764,3.65621,-4.70453,32.5996,4.57171,-4.94568,32.6323,4.50297,-4.86476,32.4936,4.58309
6.36574,0.533883,15.4468,6.22179,1.26293,16.2845,5.61097,0.816158,15.6806,4.58085,0.714325,16.2419,6.75878,1.67473
9.57443,0.4527,12.6555,16.2331,-5.4519,14.4323,17.1647,-5.45326,12.8364,15.1363,-5.91374,12.1927,16.7601,-6.01127
2.6115,0.150464,13.8998,32.5181,-2.41806,14.2195,34.0602,-2.15271,14.4292,34.1694,-2.05063,14.3575,34.0989,-2.0841
11.8745,0.55526,13.1781,8.50862,-4.7011,11.2847,8.37105,-5.29315,11.5416,7.77373,-5.12923,10.8213,8.62977,-5.59788
7.57404,0.504919,7.52054,14.2894,5.30429,6.98427,15.4917,5.42651,7.25104,15.9916,5.40598,6.66701,15.0813,5.51047
8.87726,0.377998,17.8158,15.4439,1.2503,19.0478,15.9,-0.149076,18.905,16.9266,0.16298,19.0683,16.5909,-0.147136
0.0150642,0.0611865,-9.53765,7.46314,-4.05258,-9.55387,7.37913,-4.01039,-9.66595,7.50898,-4.05513,-9.62023,7.45433,-4.03026
5.41453,0.169251,7.65712,38.8267,0.0241464,9.37389,39.2477,0.598443,7.72213,38.5788,-0.624951,7.40287,39.144,0.146062
14.9814,0.416227,12.0669,17.0925,3.92384,12.7035,14.7193,3.78882,13.4453,17.8589,4.08785,11.4183,16.8702,4.51455
0.656593,0.518269,-8.02114,20.8656,-5.42705,-8.5255,20.4206,-5.0943,-8.52862,20.3703,-5.09946,-8.57957,20.6659,-5.09463
8.39723,0.283592,-10.8326,20.8687,4.78705,-10.3209,19.8755,5.11448,-11.6722,21.336,4.96418,-9.1486,22.4575,5.38933
2.44002,0.0859762,3.24728,40.0761,0.8431,3.87355,40.0793,1.04691,3.80298,40.0824,1.08963,2.91483,39.8408,0.252228
12.4829,0.225821,-11.1664,38.1542,-2.5603,-10.6615,39.4947,-1.46182,-11.9328,38.2141,-2.55068,-10.4302,38.0708,-3.33167
3.76783,0.26891,-13.9444,28.0593,-4.24259,-13.1569,30.286,-4.56005,-13.0215,30.4023,-4.5931,-13.0934,30.1548,-4.59462
19.805,0.00569027,-1.33027,2.98401,-2.62362,-2.13284,2.46784,-2.57366,-2.01739,7.49532,-4.96886,-2.54095,6.59974,-4.66273
6.10464,0.0990724,18.2673,9.50982,0.346158,17.8265,11.2049,0.803514,18.5737,10.357,0.266817,17.778,11.0857,0.835506
2.03265,0.0776968,10.2191,10.4446,-6.1792,10.976,9.42009,-5.87681,10.4801,9.8008,-6.01177,10.8958,9.42243,-5.87455
5.71066,0.314246,16.1548,25.1261,3.25936,17.2858,24.9886,2.4595,15.8735,24.5203,3.83808,16.3035,26.4093,4.00392
5.08359,0.0236948,-14.6566,10.0749,3.87273,-13.1053,9.20563,4.4172,-13.8445,10.1652,4.29916,-14.8786,10.4792,3.89141
6.99232,1.02322,12.4196,25.2101,5.0829,11.1654,24.925,5.04685,11.4413,24.5894,4.76853,11.3881,24.1566,4.91427
0.615366,0.201622,-4.15254,10.151,5.3251,-4.81315,10.2092,5.69328,-4.75159,10.1791,5.64225,-4.6142,10.1175,5.5487
2.32818,0.0402057,-5.50318,5.67772,-3.75621,-5.38702,5.47491,-3.68973,-4.09909,5.80926,-4.2256,-4.10832,5.7637,-4.20867
2.6951,0.0457667,6.30724,4.60553,-3.78387,6.72695,3.4012,-3.12855,6.59079,3.38905,-3.14628,6.80078,3.645,-3.224
1.6623,0.0704092,-17.2047,24.3647,3.49175,-17.0917,24.6514,3.63234,-17.2028,23.9729,3.62114,-17.7351,24.6136,3.16576
18.2519,0.101048,8.58158,7.54348,4.08403,6.44432,7.39522,4.4561,7.83844,6.93055,4.17538,6.76817,8.36206,4.59327
9.81411,0.288462,11.6838,17.4697,4.60389,11.6995,19.7722,4.92529,11.4703,20.2976,4.96427,10.0949,17.9004,5.1202
3.89728,1.54275,3.05509,30.0757,-5.47239,3.22614,31.8157,-5.13643,2.95438,31.8569,-5.10869,2.88181,31.8624,-5.1171
7.92553,0.097014,14.9481,29.0725,4.03466,13.6061,28.6531,4.62897,13.9068,29.0431,4.23822,16.9442,28.9809,3.3916
12.6909,0.212755,2.29819,39.2833,-0.890085,4.00965,40.0428,0.533273,1.55565,39.5293,-1.20429,2.86014,38.8953,-1.64926
26.2848,0.145405,-5.30718,32.1979,-4.98684,-6.41853,32.0955,-5.15414,-5.45508,34.4407,-4.65511,-0.372807,32.2315,-5.14299
0.989838,0.0151225,-19.1129,17.071,1.52209,-19.0198,17.3571,2.00433,-19.0342,17.0991,1.93836,-19.0498,17.3362,1.87156
8.04236,0.404668,16.4424,8.52252,1.44896,17.33,9.59333,1.5825,16.4995,6.99431,1.55771,17.0956,7.35332,1.22781
34.139,0.0312901,1.32892,10.961,5.85631,-1.30636,10.3592,5.87749,2.43352,8.65725,5.44786,1.46872,8.2747,5.41576
0.40695,0.0818173,-18.6652,13.3441,-0.736491,-18.7856,13.3923,-0.248177,-18.7838,13.477,-0.269699,-18.7798,13.519,-0.319624
22.361,0.16966,-9.41299,14.7639,-4.97541,-5.40803,14.964,-5.41486,-5.5773,14.1111,-5.33397,-5.6092,15.3202,-5.43152
1.76931,0.188031,17.2851,24.9403,2.45741,18.2174,24.6604,1.6321,18.2395,24.7552,1.61814,18.0175,24.6804,1.86604
0.739052,0.233407,-3.38721,38.735,-3.23985,-2.77679,38.5257,-2.94341,-2.84096,38.566,-2.91836,-2.73067,38.6293,-2.81956
15.1371,0.569302,-14.9891,13.5151,4.24687,-14.0273,14.5389,4.38086,-13.1902,13.2897,4.50013,-14.6471,15.4444,4.28734
2.8872,0.55016,7.94416,3.45588,2.13908,8.02875,2.09316,1.77192,7.95514,2.12382,1.81821,8.17246,2.18221,1.79715
0.137229,0.000940749,13.9202,29.4522,-3.89346,13.922,29.5386,-3.86656,13.5695,29.5431,-3.97083,13.5718,29.4983,-3.98434
0.535295,0.0452964,-5.74774,27.2034,5.52329,-5.39052,27.3132,5.62282,-5.68574,27.439,5.53937,-5.75915,27.3917,5.53313
65.3084,0.311347,-11.5451,27.0519,-4.86988,-10.973,28.5676,-5.24154,-12.5494,29.8477,-4.80219,-14.6503,27.749,-4.42426
16.4252,0.39478,10.8872,7.58929,3.1748,11.1768,8.25757,3.74011,12.7866,6.06219,2.7646,9.8077,7.55562,3.7933
2.26117,0.0787949,11.4284,29.6401,5.10275,9.61603,29.7763,5.35948,9.95868,29.9478,5.28747,9.88958,29.8937,5.30582
5.26558,0.0844827,6.07873,38.4745,-0.728485,5.95337,38.1337,-1.51546,5.79968,38.6563,-0.47216,7.26704,38.7963,-0.706251
9.82768,0.434247,-12.7225,31.7042,-3.96678,-12.4821,32.6909,-4.18574,-11.3314,30.8993,-4.97141,-13.5463,31.8807,-4.19898
1.79431,0.18813,6.06533,28.5057,-5.64992,4.73221,28.8293,-4.79063,4.88486,28.9218,-4.78055,4.74025,28.8682,-4.76852
4.24417,0.075052,-7.92906,30.1095,-5.44445,-8.51702,31.4139,-5.21798,-7.94875,29.5129,-5.55629,-8.52161,31.2184,-5.22899
19.8919,0.239775,3.3618,28.5852,5.59102,3.87415,27.2454,6.04544,4.25853,29.4279,5.82533,1.07758,33.2375,5.04688
3.39201,0.0646224,12.3646,34.7663,-2.36219,11.1478,33.761,-2.50402,12.3472,34.2405,-2.63587,12.7761,35.0499,-2.24294
5.48561,0.10027,-18.4914,25.3917,1.9353,-18.1579,24.8745,2.69824,-18.1172,25.6274,2.60464,-18.6223,24.5285,2.09809
1.89214,0.0544522,-7.17906,37.5893,2.58255,-7.68392,37.7307,2.44297,-7.28593,38.2395,2.27324,-7.51942,38.2997,2.23761
29.4817,0.611255,-10.7409,17.549,-4.39976,-12.5896,16.3333,-4.74734,-11.447,18.8609,-4.99573,-8.85228,16.8376,-5.19903
0.717634,0.314962,5.33324,7.20134,-5.27521,5.64143,7.06005,-5.22892,5.79334,7.40794,-5.33475,5.71842,7.21998,-5.25399
2.26515,0.26138,-12.9331,37.646,-2.31308,-12.5135,37.4999,-2.79012,-12.684,38.3074,-1.84549,-12.44,37.4559,-3.0253
3.451,0.26327,4.95284,0.286358,0.360648,5.94747,0.779945,1.28291,5.0561,0.562427,1.17162,4.77,0.495731,1.01394
0.0667523,0.00216556,-12.8661,20.1932,-4.99813,-13.0142,20.2072,-4.99966,-12.8668,20.0941,-4.99687,-12.9452,20.0398,-4.9944
1.35334,0.0906359,9.8074,7.58946,3.82817,9.3423,7.50552,3.93712,8.71099,7.59409,4.07349,8.64597,7.67045,4.1334
15.0308,0.254077,7.81766,12.4649,-6.2751,4.02029,11.5387,-6.01411,4.69594,10.6598,-6.01413,4.82286,10.1906,-5.9873
3.25899,0.333883,-8.70343,39.0216,-2.33981,-9.13967,38.9683,-2.63701,-8.35005,38.6083,-3.31882,-8.57443,38.6479,-3.17735
5.52462,0.329867,-9.3672,33.983,-4.48557,-12.1019,33.3476,-3.96767,-11.1255,33.4165,-4.37096,-11.3947,33.5785,-4.17142
10.2388,0.068607,-18.7879,25.3168,-1.8972,-19.1446,23.6169,-0.976569,-18.6928,24.1628,-2.07969,-19.061,23.7642,-1.1886
12.3297,0.305483,-14.6195,8.00896,4.15115,-15.4867,7.0619,3.76161,-16.4356,7.86301,3.38654,-16.3724,8.56041,3.59534
27.2274,0.0131671,3.56918,4.02585,-3.32623,3.04775,4.60374,-3.69704,6.17386,4.69591,-3.85589,5.46633,5.53376,-4.37234
29.6472,0.072057,17.9863,6.47666,-1.11168,17.5809,8.04019,0.875958,18.2425,9.37234,0.321897,18.4672,8.74801,-0.533859
9.13667,0.614748,-8.66518,34.731,-3.74756,-7.69556,36.4386,-4.04871,-9.82562,35.0257,-4.23756,-8.17509,36.5741,-3.98686
5.71611,0.0905126,2.83413,32.3516,5.31066,3.51216,30.3332,5.73905,2.2032,32.3307,5.35132,3.72695,30.3246,5.75859
19.3918,1.21878,9.9174,16.9532,5.05803,8.44457,15.0897,5.10354,7.65162,16.3196,5.30399,7.16195,16.7175,5.53278
2.22599,0.0545584,-9.14911,18.3224,-5.23617,-8.98125,19.1784,-5.34365,-9.8399,18.6903,-5.22785,-9.20432,18.8471,-5.27583
1.18334,0.0698494,19.1491,12.8467,-1.19166,19.1992,12.5285,-1.32894,19.2035,12.6442,-1.0659,19.2481,13.2765,-1.16559
10.2393,0.146046,2.52342,2.63034,3.02386,-0.13347,4.01458,3.68303,1.96413,3.2131,3.38613,-0.544715,3.41111,3.47648
17.0948,0.448039,12.9873,38.1596,0.726438,12.5702,38.5189,1.66107,12.9602,35.7896,-1.4265,13.0979,35.0279,-2.17614
6.15068,0.233482,4.10877,38.6202,-1.09941,4.72879,38.8014,-0.975782,3.78499,39.1129,-1.11164,4.02509,38.3584,-1.74176
1.99676,0.127736,-6.69981,26.8389,-5.78314,-6.12236,25.8947,-5.4962,-6.12475,25.8424,-5.49209,-5.83732,25.7203,-5.44315
8.21678,0.0227118,-14.5167,5.32994,-2.18822,-12.1065,4.98325,-2.49063,-14.2775,4.40532,-1.92369,-13.6244,4.92533,-2.21731
28.4819,0.647704,6.2168,4.46921,3.10743,6.20578,3.33662,2.30317,7.47549,3.47409,2.34875,6.23574,2.09684,2.13909
1.20111,0.0239413,-1.50803,11.6614,5.74163,-1.76349,11.2481,5.80874,-1.45227,10.6912,5.88831,-1.52414,10.6939,5.8856
11.2946,0.0945814,-12.2484,3.14743,1.86431,-11.9362,2.93829,1.93693,-14.2881,3.90047,1.84483,-13.0476,2.56904,1.20353
5.20287,0.0884532,-5.21769,4.49302,-3.25252,-5.61922,4.66405,-3.3588,-5.61033,3.55602,-2.81841,-3.94404,4.53527,-3.61842
9.58493,0.51049,12.6271,14.5792,3.76914,13.2912,11.7097,3.71447,13.8223,11.9754,3.50903,14.1029,11.9028,3.44998
6.90068,0.00454785,-4.94435,23.0054,-5.90508,-5.38879,24.1641,-6.01089,-5.81928,23.8032,-5.96334,-5.69864,23.2742,-5.91103
4.62788,0.000446993,-2.13646,15.9394,6.06041,-2.0134,14.7525,6.12318,-1.5972,14.8867,6.17087,-1.36938,16.2026,6.14721
5.51655,0.00716623,3.64437,2.42252,2.29802,4.49249,2.16657,2.17678,5.79992,2.13262,2.25626,5.75756,2.03106,2.1817
54.0783,0.427891,7.52805,12.3463,5.33407,4.03029,17.3976,6.00587,3.67308,15.826,6.07095,3.63192,15.2885,6.08534
8.97455,0.28907,-3.70389,32.3923,-4.82471,-2.86563,32.4696,-5.02252,-3.64182,34.8096,-4.44684,-3.65063,34.457,-4.5459
0.795871,0.0217609,14.9792,30.3505,4.01939,15.3143,30.5023,3.8855,15.4331,30.8127,3.83944,15.5801,30.7818,3.79327
224.567,0.324243,2.42794,17.2677,-5.96963,-2.48252,16.8057,-5.67215,-2.35252,21.1108,-5.93063,-0.0309072,14.3606,-5.8332
20.803,0.180695,3.68351,32.0243,5.28556,5.42491,32.7444,5.33912,5.06567,30.235,5.77526,5.70393,31.4439,5.56382
2.40013,0.774375,-11.7828,9.95669,4.51236,-12.6771,10.166,4.03478,-12.598,10.0143,4.06968,-12.7434,10.2639,4.04706
7.95556,0.341587,-2.95892,39.6709,-0.00280453,-1.73651,39.7542,-1.64473,-4.24654,40.0656,-0.592521,-1.97575,39.8157,-1.2164
0.202512,0.0174812,-4.66321,25.3082,-5.90692,-4.80054,25.3768,-5.84005,-4.66647,25.1728,-5.93508,-4.87648,25.2689,-5.8022
24.6604,0.193091,-18.5851,11.1184,0.123255,-18.0803,8.93408,-0.0586817,-18.1604,9.0449,0.379239,-18.3365,9.64389,1.03888
8.12918,0.038204,7.24996,22.7498,5.74329,7.26111,20.4148,5.76639,7.58086,21.2654,5.8238,7.4198,20.4452,5.8049
20.2105,0.648638,11.9933,7.21584,3.02817,12.1402,11.1085,4.01039,11.3425,10.694,4.21729,11.2102,10.7218,4.26023
13.9273,0.555442,9.82955,36.8434,-1.46349,10.1465,39.065,0.350549,10.7025,38.8201,-0.124817,9.94173,39.0276,0.36362
11.7342,0.398455,-10.4376,39.1966,-0.590971,-9.55509,39.6961,0.689564,-11.1796,39.5339,-0.742311,-9.2177,39.6719,-1.53548
1.43917,0.058389,10.1575,13.2142,4.57232,9.68403,13.2439,4.75761,9.62601,12.9887,4.78443,10.6335,13.2385,4.50489
7.03586,1.49505,-3.58583,0.968279,2.13634,-2.36274,3.30087,3.29873,-2.43536,3.41055,3.44398,-2.22478,3.30207,3.34222
2.51267,0.519326,-16.9281,36.2523,-0.438267,-17.1787,35.904,-0.822369,-16.6596,36.3909,-1.37844,-16.8369,36.2486,-1.21535
10.6656,0.0110319,15.3287,30.0202,3.98822,11.8397,29.7233,4.99688,11.4623,30.2176,4.97763,13.6671,30.2089,4.38113
29.4336,0.261021,-16.1236,14.8209,3.98334,-14.2932,16.9199,4.23131,-15.5497,21.341,4.21889,-15.4581,17.3836,4.00811
2.45928,0.711849,15.4233,32.5964,3.5573,14.3753,32.6428,3.86327,14.2234,33.2355,3.88284,14.371,32.946,3.75295
0.0222517,0.00324586,9.43745,27.2373,-5.73801,9.44226,27.3214,-5.71699,9.36594,27.2971,-5.75067,9.4941,27.2975,-5.70163
0.580264,0.410814,6.4378,30.751,5.58281,6.0654,31.1124,5.52948,5.93338,30.9426,5.58063,5.99362,31.0052,5.54957
7.49136,0.105753,15.821,10.185,2.3326,16.4312,10.531,2.1925,15.9331,8.24105,1.97781,16.0768,8.17603,1.88454
1.00851,0.0595015,8.7876,23.4425,-5.662,8.15676,23.2353,-5.91773,8.37025,23.1887,-5.83268,8.92007,23.1848,-5.63374
4.93708,0.0547173,-18.2943,30.7063,1.56405,-17.3837,29.7627,2.61917,-17.078,29.708,2.87466,-17.6762,29.4474,2.54762
0.263469,0.298654,-19.2959,23.5874,0.244343,-19.2856,23.8672,-0.0790628,-19.2558,23.8047,-0.101574,-19.2803,23.7403,-0.0938141
49.2135,0.140267,13.3041,5.85071,1.93118,15.3132,6.00713,1.18359,13.2885,3.40412,0.997764,15.271,4.14065,0.598706
3.49333,0.0320004,-6.61114,1.94568,2.8704,-4.15491,2.21165,3.24519,-4.73198,2.51549,3.4806,-4.15945,2.06488,3.11937
130.84,1.03811,-5.24286,36.1601,3.62828,-10.0136,30.4313,3.93835,-9.63998,31.5181,3.63169,-11.5341,34.0108,2.71524
6.7535,0.263664,-8.16423,30.9479,3.98777,-6.5138,31.5323,4.52998,-8.6696,31.212,4.06181,-8.33991,29.7908,4.5645
0.193856,0.0395246,10.8175,30.4077,-4.54618,10.8808,30.0065,-4.65832,10.8092,29.9759,-4.69016,10.7362,30.0256,-4.68771
5.16748,0.0747397,-8.07162,15.2396,5.21973,-9.11414,15.4907,4.76874,-6.85291,13.9237,5.66599,-7.31284,14.4801,5.46241
8.11388,0.0201996,-11.6669,22.5577,-5.12953,-9.56951,22.545,-5.40487,-10.4509,23.2573,-5.27549,-9.04577,23.4242,-5.47234
18.1113,0.147939,-13.5282,3.93719,-1.73379,-12.2121,3.67914,-1.83011,-13.5097,2.5495,-0.842361,-12.3766,3.0113,-1.43111
0.603353,0.0924956,-18.0248,9.67995,2.48467,-18.2859,9.74423,1.84121,-18.3906,9.96429,1.73169,-18.353,9.85771,1.72301
60.2514,0.279899,-4.2553,24.6674,-6.05745,2.33545,26.6508,-6.13844,2.64659,25.2447,-6.04393,2.87021,25.7526,-6.06215
11.7417,0.413224,2.90498,10.2809,5.22412,2.16963,10.9754,5.83389,3.48993,10.7083,5.66148,3.80783,8.90491,5.32451
89.2634,0.30956,4.84146,8.42626,-5.71177,1.45184,5.88671,-4.38118,-0.545515,5.19697,-4.13088,-0.352795,5.77188,-4.36684
13.9083,0.0484878,-2.24237,3.55227,3.45662,-1.58235,5.24302,4.5338,-0.744779,5.01307,4.24438,-1.10907,4.17764,3.74738
12.9161,0.825324,3.10562,19.6021,-5.18989,2.72476,17.9736,-5.98733,4.73139,20.1189,-6.0157,2.10972,20.732,-6.04199
21.4457,0.705984,-3.84349,37.8769,-3.75072,-2.93381,35.4845,-4.20594,-4.39488,35.251,-4.39504,-0.830855,36.2256,-3.95623
18.2267,0.21922,-4.60554,2.75395,-2.18922,-4.84793,1.82542,-1.80293,-2.86164,2.39708,-2.54141,-5.25677,3.46792,-2.80101
0.349389,0.105618,-17.5467,7.69402,-0.207479,-17.6369,7.59892,-0.170793,-17.6947,7.77958,-0.183409,-17.6489,7.83593,-0.471
138.445,0.352343,-13.4394,8.67318,4.1431,-9.81515,6.59944,5.16453,-8.55617,10.1022,5.24852,-10.7844,11.8818,4.82264
2.14765,0.0113372,17.1821,27.4666,-2.92625,17.5532,27.4367,-2.61152,17.1739,26.5947,-3.182,16.8195,27.0433,-3.34082
17.6461,0.329445,-5.93387,12.0401,5.54935,-8.02049,10.4045,5.20482,-8.78962,10.3315,5.14298,-8.73384,10.5346,5.126
1.61362,0.360595,-10.4262,28.4339,-5.18008,-9.87409,28.521,-4.96763,-10.2027,28.7687,-4.95902,-10.1212,28.5528,-4.91045
56.9631,1.54595,11.5528,4.18675,2.18872,7.65534,3.83338,2.42623,7.65576,3.82144,2.4121,9.47501,2.57821,1.79111
1.72174,0.00940524,-13.2726,2.5822,1.07348,-13.017,2.42942,1.12659,-13.5239,2.32889,0.762124,-13.1179,2.11959,0.849782
3.42306,0.13095,15.4701,23.8953,3.92174,15.2593,23.8518,4.19112,16.0795,24.2762,3.71963,15.79,22.8351,3.92403
1.78344,0.297059,-18.2855,15.596,-1.78036,-17.905,15.6203,-1.98206,-17.8492,15.6761,-2.43479,-18.1375,16.009,-2.03366
1.16987,0.0241665,3.96204,0.618979,1.4812,4.06406,0.304274,0.931083,4.27411,0.416682,1.08323,4.17739,0.419916,1.09939
22.1918,0.144764,-14.5861,19.6461,-4.41448,-16.6553,18.945,-3.82479,-14.5845,20.5693,-4.66781,-16.5657,21.0745,-4.08418
4.20373,0.00671161,2.98343,36.6208,-3.33415,2.7256,37.3504,-3.17481,3.75778,37.1621,-3.13172,2.82859,35.9102,-3.51033
1.13879,0.0618059,-15.5269,4.5441,1.98538,-15.7777,4.56361,2.03846,-15.215,4.52977,2.08099,-15.8136,4.28644,1.89252
4.11734,0.127057,-1.41595,35.2102,-4.21174,-0.752814,33.6025,-4.74833,-0.388696,35.0467,-4.11056,-0.800741,34.8016,-4.32165
6.47788,0.00805448,16.1548,29.8763,3.61157,17.0537,29.8266,3.36579,16.0364,31.1882,3.32621,16.2455,29.4629,3.67541
5.5693,0.359078,8.62863,37.2299,-1.4308,9.4639,37.4717,-1.3197,8.51848,36.6514,-2.74603,8.25402,37.9262,-1.37648
774.58,0.0195742,1.83553,13.6644,-5.92907,-10.8255,10.6011,-4.50255,-11.943,14.7792,-4.70564,-7.43385,9.07001,-4.71513
0.659231,0.244453,12.4547,37.0068,3.66528,12.7145,37.3654,3.46172,12.8525,37.3834,3.41385,12.9228,37.3874,3.40027
16.1921,0.545635,-4.34889,15.5678,-4.9204,-2.34541,14.3489,-5.62565,-4.79662,16.2396,-5.47625,-4.59882,14.2409,-5.31647
0.583608,0.118526,-7.8712,29.4762,-5.58999,-7.88958,28.9865,-5.62633,-7.96827,29.0436,-5.62377,-7.80797,29.0539,-5.65031
0.414917,0.185277,13.7568,9.95412,-5.39149,14.0112,10.2209,-5.32899,14.1267,10.0424,-5.27741,14.0578,10.0941,-5.28733
10.9537,0.349905,3.26155,27.8023,-5.53425,3.04725,30.0303,-5.47925,2.63667,27.2773,-6.10683,4.51717,27.618,-5.72418
0.306526,0.0649105,-15.5051,27.7711,-4.1193,-15.7097,27.6306,-4.13059,-15.3418,27.9727,-4.22015,-15.7117,27.6757,-4.11751
22.9428,0.205835,-9.16028,20.337,5.06677,-8.45142,17.7886,5.40131,-8.38,21.1643,5.48053,-7.53888,20.0303,5.66108
6.48062,2.01652,19.184,21.4361,-1.12752,19.1344,23.4632,-0.822377,18.9125,23.4593,-0.166585,18.8762,23.4554,0.00587564
21.9258,0.581737,-1.17029,8.77682,5.04474,0.883174,9.1881,5.55291,-1.83576,9.38125,5.77002,-1.36229,7.38046,5.44037
7.28092,0.16858,-9.31017,20.4957,-4.69848,-9.59695,19.9573,-4.82728,-9.96041,19.3392,-5.21368,-7.98509,19.6138,-5.44054
3.16999,0.625823,-14.1737,31.6194,-4.14401,-14.1279,32.3316,-3.39656,-14.2559,32.3216,-3.50226,-13.9687,32.5735,-3.30176
5.04743,0.239146,-16.6975,14.5467,3.63779,-17.2055,14.651,3.74477,-15.895,13.2777,4.07207,-16.5595,15.2164,3.94984
2.04323,0.244912,-10.0831,21.6261,-5.24506,-9.5796,20.5311,-4.76871,-9.57851,20.4781,-4.76164,-9.48979,20.7421,-4.78127
4.20944,0.35414,7.23966,24.0732,5.58775,7.58721,24.1078,5.89782,7.15987,22.8351,5.77913,6.78932,24.4693,6.08496
4.23581,0.089154,18.1157,18.1345,-3.13167,18.0077,17.7416,-3.5523,18.1739,18.9302,-3.02086,18.3836,17.2358,-3.09712
4.56331,0.102134,-4.96486,15.0724,5.60191,-4.19465,14.7283,6.03605,-3.73763,13.9529,6.04388,-4.87854,15.6476,5.8789
14.771,0.164672,17.7506,14.028,1.35745,16.6496,15.6671,2.0298,18.9272,12.4144,0.157416,16.4042,15.2788,2.29534
62.3169,0.0937318,-9.09737,28.3228,-5.53832,-10.4769,24.5895,-5.33716,-10.8842,27.2653,-5.23895,-7.07209,26.1735,-5.73522
12.8924,0.0653343,5.57192,6.73159,4.4098,5.75823,7.78866,4.69551,4.16035,8.77916,5.27144,3.89183,7.96069,5.12945
11.4758,0.264589,5.07039,39.4214,0.492322,5.94427,38.6765,-0.42669,5.77838,38.5861,-0.648831,4.27154,39.9013,2.12682
7.29377,0.346934,-2.14286,35.0188,3.65916,-2.70472,35.0998,3.80842,-1.36862,33.7989,4.67905,-1.12071,36.5126,4.00397
19.8878,0.293604,-3.16014,27.7964,5.26387,-3.53692,25.7733,5.98172,-3.61059,25.82,5.98724,-3.57353,30.2584,5.2212
18.8025,0.149701,5.70649,39.132,2.22943,5.41829,39.0655,3.1568,6.82133,38.8924,3.21731,6.72292,39.4916,1.07682
5.36789,0.0152109,9.76124,14.5842,4.66447,9.74209,15.3177,4.76223,10.7463,14.0419,4.43252,10.0186,15.562,4.76131
8.29753,0.199599,17.546,18.002,1.55694,18.4897,19.2147,1.09166,17.4879,17.7654,1.86232,18.4202,16.5864,0.712377
0.536983,0.0333622,-9.85877,3.35024,-1.94869,-10.4606,3.63185,-1.85041,-10.3657,3.46036,-1.82437,-10.4857,3.57756,-1.82
30.2019,2.36995,17.1216,16.1026,1.90657,14.2087,15.794,3.11739,13.9916,15.0077,3.41168,14.2794,17.196,3.65866
1.21843,0.0339991,-17.1381,33.7034,-2.65012,-17.3865,33.6962,-2.4519,-17.6215,32.8563,-2.43918,-17.0081,33.8681,-2.78573
2.5251,0.129489,9.37947,31.6385,4.95293,9.54107,31.3358,5.0965,7.26327,32.2471,5.25673,9.71907,32.0058,5.00924
10.9049,0.138388,2.60604,4.08578,-3.2932,2.03567,2.36424,-2.61734,1.95495,4.78592,-3.91581,3.21565,3.77378,-3.19865
2.13762,0.101791,9.41201,23.8376,-5.45552,9.84718,23.8877,-5.55498,8.6097,24.5366,-5.8214,9.48092,23.4349,-5.43354
11.4583,0.343713,8.04701,34.2063,-3.58772,8.37871,33.2033,-4.12714,9.51085,33.9867,-3.70802,9.21683,33.3894,-3.91327
0.63774,0.168075,2.589,23.3849,-6.0319,2.81778,23.8284,-6.02959,2.81369,23.6604,-5.99482,2.8832,23.6213,-6.01617
3.65986,0.416145,0.556072,19.9953,5.87552,2.46796,19.6763,5.98407,2.66985,19.9833,5.95122,2.5977,19.9309,5.94765
5.91554,0.227452,-5.58263,35.1645,-4.16448,-4.53623,35.1801,-4.45655,-6.00234,34.9411,-4.42074,-5.60397,36.8928,-4.02343
56.9567,1.29719,2.33307,35.6887,-3.56089,6.21862,35.8568,-3.20357,3.66856,33.3557,-4.06006,4.93581,33.7624,-4.23454
3.23285,0.104826,-13.7698,37.9029,-1.69857,-14.1133,38.0315,-0.889423,-14.2131,37.966,-1.09117,-13.1426,37.6387,-2.26587
51.6472,0.538538,15.6162,12.3029,-4.82103,18.2007,15.7873,-3.32356,17.7462,17.0786,-3.7602,17.6893,13.9255,-3.73402
21.7374,0.266161,5.38236,37.2362,-2.31493,5.98109,38.0983,-1.56102,6.10576,36.9731,-2.8096,3.00435,38.9583,-1.47564
4.89947,0.0746439,-10.8644,4.4137,-2.09857,-11.2307,3.94319,-1.87409,-10.5459,3.58817,-1.79636,-11.3851,3.30785,-1.68753
1.0357,0.463144,-14.0005,5.80511,-2.44571,-14.5801,5.56941,-2.21879,-14.4999,5.7813,-2.22396,-14.4646,5.67337,-2.16096
4.66858,0.339894,12.0228,28.1607,4.75273,12.9232,27.0544,5.11727,10.9454,28.1065,5.39258,12.2881,28.8385,4.90096
3.32619,0.18059,13.5885,33.1281,3.88595,13.7413,31.8674,4.25863,13.2515,33.3227,4.15858,14.0256,33.1206,3.93221
0.129978,0.00273177,9.8959,29.5248,-5.08812,9.68877,29.5161,-5.16284,9.69347,29.429,-5.19302,9.82672,29.4079,-5.15661
57.5784,0.236255,-10.5366,20.3225,-5.27388,-11.5413,22.354,-5.1413,-13.4375,21.861,-4.98686,-13.5104,21.8129,-4.98462
1.56095,0.0333666,14.1375,38.197,0.637054,15.1604,37.9421,0.765562,15.2404,37.8563,0.608082,14.5498,38.0347,0.47108
71.8545,0.164205,1.98789,21.5428,-6.04829,1.33505,23.2312,-5.99127,3.36553,26.0596,-6.09092,5.47271,24.1421,-5.93373
10.6577,0.107267,-10.0568,3.7305,3.66032,-10.8074,4.65335,4.26352,-10.3343,2.64877,2.72905,-10.9936,4.42348,3.97251
2.22851,0.110449,-3.77152,10.9356,5.16335,-4.02008,10.4523,5.28316,-4.50505,11.6936,5.86681,-4.17902,11.3072,5.47767
12.7108,0.904041,12.4136,5.22773,-2.9972,14.2254,8.5347,-4.69824,13.8216,8.18587,-4.60764,14.2256,8.48271,-4.68722
1.7326,0.0616318,-1.47294,10.7088,-5.47177,-1.05431,10.6959,-5.56714,-2.08378,11.3425,-5.49316,-1.34268,10.2809,-5.5382
13.3497,0.179097,-9.84593,2.09611,2.35256,-11.954,3.0176,1.97396,-8.30129,2.95776,3.46382,-8.56619,1.8826,2.47403
0.484647,0.13412,4.0039,25.9091,6.22573,4.27166,26.2172,6.19523,4.27178,26.2607,6.19975,4.42484,26.1073,6.22867
2.80483,0.0254234,12.2345,28.3909,-4.77951,12.1651,28.6238,-4.72161,10.5558,27.774,-5.43079,11.3327,28.5176,-5.01279
8.04858,0.173964,4.20541,20.0063,5.8973,5.70816,21.2085,5.94687,5.40486,21.6955,5.94462,5.6648,20.2249,5.98614
36.2754,0.437846,-17.91,20.5119,-3.0256,-18.9893,19.1469,-1.21348,-18.4312,22.242,-2.52825,-18.9726,20.101,-1.10828
6.03243,0.334042,6.58737,32.4789,4.89063,7.2932,33.123,5.1352,5.43435,32.3312,5.25656,7.32342,31.1114,5.40699
16.3917,1.20402,5.88142,0.737556,-1.49352,7.61541,0.969132,-0.930748,7.29436,0.901043,0.785904,7.63463,0.923276,-0.723752
8.3567,0.473976,-1.00973,12.5237,5.36565,0.931578,12.5872,6.02526,-1.90476,13.1902,5.89609,-1.23309,11.6859,5.67621
0.948312,0.0504754,15.9654,34.1361,-1.4073,15.5936,34.0958,-1.64931,15.8117,33.9924,-1.5695,16.2314,34.1715,-1.33045
12.6771,0.942746,18.8931,23.5438,-0.117077,18.5652,25.3303,0.875953,19.0855,25.8156,0.0624682,18.8969,25.7701,0.641025
1.84919,0.813928,-0.138284,16.336,5.93678,1.9751,15.2102,6.26952,1.89902,15.1697,6.25712,1.75601,15.1632,6.26125
1.55577,0.0641181,-18.9075,27.9702,0.936075,-19.0362,27.888,0.453451,-18.9143,28.7143,0.690047,-18.9796,28.0953,0.577069
7.99197,0.387086,6.5635,10.3313,4.60905,7.68563,10.1864,4.63051,6.25947,9.65604,4.87324,6.31625,11.1426,5.44024
2.58242,0.123814,-0.928312,15.3488,6.1079,-0.800826,14.0313,6.14138,-0.72418,14.0374,6.13456,-0.358621,15.4689,6.18628
4.2527,0.134873,0.542865,2.20663,-2.56149,1.64416,2.65293,-2.75303,-1.04717,2.77566,-2.60795,1.5835,2.86125,-2.86921
4.22985,0.126588,-7.43622,4.6422,4.35422,-5.32774,2.90378,3.72659,-5.17656,2.93653,3.77739,-5.93144,3.49906,4.01689
60.2773,0.00659433,10.419,2.59593,-2.75905,6.86609,3.63992,-3.22608,7.76395,4.47245,-3.86929,9.73083,3.902,-3.62039
0.329541,0.10621,-17.5866,31.566,2.211,-17.2992,31.3417,2.44105,-17.2864,31.4953,2.40626,-17.2987,31.5801,2.38282
62.0491,0.0444788,-9.30608,17.5719,5.19549,-5.67194,14.4834,5.87949,-13.4053,18.1348,4.50853,-5.29902,15.8632,5.95177
0.941234,0.00489443,18.643,8.71914,-0.807956,18.813,8.6006,-1.35425,18.6407,8.38762,-1.12266,18.7878,8.54053,-1.34958
1.4871,0.0150137,1.05911,25.7804,6.15441,0.634717,25.6735,6.17455,0.690368,26.1115,6.15014,0.822477,26.1228,6.14979
1.59571,0.000117657,-8.30206,8.28705,-4.43442,-8.20162,9.24453,-4.63618,-8.51195,8.78659,-4.52018,-8.1307,9.24658,-4.64188
9.15512,0.161781,11.4613,4.89116,2.24796,13.2111,4.03592,1.4089,11.6955,5.32603,2.78109,10.6764,4.62515,2.38872
2.38703,0.0187525,9.18263,5.12521,-4.12247,10.4264,5.17632,-4.26348,8.81221,4.92752,-4.03053,10.1607,5.29998,-4.29406
4.10547,0.0998791,-9.84091,15.7166,4.68053,-10.7576,15.9787,4.74299,-11.75,16.0328,4.71552,-11.2334,15.5859,4.75397
12.8287,0.0903346,-1.41732,23.8698,6.01637,-1.90574,20.7131,6.13083,-1.71531,22.3231,6.11515,-0.766361,23.8245,6.146
5.37,0.562293,-8.36687,32.6357,-4.30825,-7.70232,33.712,-4.60025,-9.46286,32.8304,-4.78983,-7.12501,31.6076,-5.25996
1.85511,0.0475358,12.6841,18.4845,4.48856,13.0914,18.8774,4.49303,13.2321,18.5364,4.35456,12.8194,18.9426,4.5644
7.64687,0.255052,9.32706,20.4099,5.26871,11.2562,20.4775,4.97801,8.87578,19.7493,5.61596,9.17346,21.2443,5.64385
5.95634,0.155725,13.219,8.74247,-4.80134,14.7251,8.77459,-4.676,15.2771,8.5552,-4.56124,14.5682,9.02568,-4.81876
1.40244,0.0770383,1.95457,40.2327,1.04631,1.74127,40.1822,0.483266,1.92721,40.1697,0.488885,2.1309,40.1052,0.29923
15.0778,0.698702,-4.76589,20.0584,-5.00654,-5.54977,21.4012,-5.79066,-3.02872,19.6576,-5.71873,-5.49862,18.8386,-5.59718
0.196349,0.193345,-19.1801,22.7267,-0.580085,-19.2248,22.9578,-0.530294,-19.2221,23.0018,-0.585793,-19.2417,22.864,-0.427599
15.6106,0.642794,8.21868,14.0998,-6.22485,7.89239,18.0657,-5.94393,7.29017,19.0002,-6.09432,6.85659,18.7293,-6.12422
10.7994,0.238017,-3.65468,16.3111,5.81796,-4.19717,16.2105,5.95667,-2.72343,15.0719,6.17323,-2.81334,17.4579,6.26592
4.11341,0.246314,-8.0853,5.12737,4.47052,-7.90024,5.46659,5.00377,-7.50223,4.68673,4.36373,-8.88826,4.62032,4.52457
4.95202,0.106858,18.8564,14.3874,0.0656577,19.2143,13.8635,-0.528414,18.9226,14.7431,0.00947069,18.2487,15.3502,0.728075
33.2086,0.359246,1.20225,21.5722,5.96038,2.80376,23.636,5.91931,-0.500851,22.0719,6.15944,2.07735,23.8003,5.85804
2.64725,0.387963,-17.458,6.21929,0.281648,-17.1545,6.51827,-0.92279,-17.2448,6.8421,-0.9071,-17.1433,6.4811,-0.863515
2.85643,0.050822,-1.91055,40.2075,1.16549,-2.54556,39.7574,0.0157198,-2.75396,39.7558,0.159368,-2.61812,39.8785,0.452424
1.00304,0.0150736,15.614,3.44094,-1.57077,15.9557,3.55408,-0.77603,15.9509,3.55396,-0.82531,15.8143,3.48632,-0.792734
139.713,0.682301,4.19954,13.0301,-6.07523,6.5035,21.0416,-6.11869,3.35943,18.4213,-5.78676,3.88743,22.1406,-6.10372
4.59455,0.109553,7.26432,20.317,5.76366,7.39518,18.32,5.65679,7.5959,18.8096,5.64364,7.53313,18.5683,5.63966
3.64898,0.214897,-12.502,37.4371,-3.05311,-11.9378,36.9041,-3.58292,-11.1103,36.3679,-3.85662,-11.3177,36.414,-3.83842
26.2713,0.0212387,-9.66756,12.5931,5.02255,-7.92572,11.9889,5.38722,-7.69235,13.1198,5.33527,-5.76852,12.9127,5.67699
9.32847,0.309669,13.6874,35.8026,-0.871673,13.5013,35.555,-1.51928,13.4957,36.4153,-0.894974,16.7477,35.42,-0.432124
13.4123,0.603838,-13.8898,32.6163,-3.28775,-12.09,33.3043,-3.9814,-13.6098,33.7698,-3.8348,-14.9403,33.9813,-3.72023
8.06667,0.544068,-9.94111,28.7753,-4.86114,-10.4221,30.9547,-4.90934,-10.4084,31.3227,-4.83823,-8.72347,29.0784,-5.56367
21.1235,0.788116,-15.0143,10.7959,3.62909,-15.8702,11.7685,3.84155,-16.9723,11.2482,3.78553,-14.9696,11.7306,4.10206
7.4492,0.222303,11.4826,24.0588,4.92187,11.3225,20.7,5.04047,11.5317,20.7935,5.05222,11.4568,20.8466,5.03873
4.10441,0.129002,4.35412,6.30309,-4.5746,4.37022,7.17312,-5.12476,4.89492,6.71846,-4.99872,4.11207,5.65193,-4.37692
16.376,0.461769,11.5132,31.5204,-3.30856,12.4087,30.3681,-3.97772,10.6273,31.5495,-4.09727,12.4543,32.3976,-3.18793
2.44981,0.322313,-8.53366,27.6444,4.68375,-8.53422,26.2081,5.25259,-8.6227,26.2954,5.18557,-8.73239,26.5715,5.08075
4.14574,0.0448769,-16.2775,7.48004,3.37363,-16.378,6.32689,2.92674,-15.9668,5.61568,2.91662,-16.2641,5.74752,2.80934
2.8944,0.0597883,-5.89606,5.35371,-3.53758,-5.58097,5.59931,-3.69975,-6.1721,4.74421,-3.35221,-6.67904,6.00017,-3.88596
28.4385,1.88751,-14.1966,24.3124,-4.8169,-11.8636,22.8993,-5.10975,-13.4257,22.2703,-4.99502,-12.2224,22.7315,-5.052
14.417,0.170517,-15.066,7.38505,-2.57115,-11.9322,7.26251,-3.50632,-14.6669,6.00255,-2.39794,-11.8698,7.45685,-3.58654
0.305787,0.0152089,-18.8129,28.0128,-1.42451,-18.7547,27.729,-1.5817,-18.7868,27.671,-1.54355,-18.7342,27.9278,-1.58056
0.601699,0.126154,-18.5621,32.9858,-0.593773,-18.4788,32.8022,-1.0423,-18.5291,32.6157,-0.911424,-18.4931,32.7502,-0.925776
60.7405,0.925745,-11.4872,27.256,4.52829,-4.02981,26.0081,6.00693,-5.466,24.9536,5.9278,-5.63777,23.9753,5.93603
7.20449,0.203999,12.051,37.5248,-0.429055,12.4037,37.1929,-0.911586,12.6139,38.0259,0.15362,11.186,37.5691,-1.25451
17.1747,0.0924934,-18.6317,11.5086,0.140451,-18.6039,12.7197,-0.637377,-18.933,13.0719,0.784281,-18.8699,13.287,0.245987
17.8012,0.0441689,3.44119,12.6315,5.94773,3.89165,13.8136,6.02374,3.32891,11.7658,5.93843,6.97806,12.2989,5.459
5.19331,0.15011,16.3449,17.7846,2.60286,17.7452,18.9466,2.098,16.1521,17.7293,2.88741,16.9286,16.6019,2.26543
24.132,0.0660228,7.66232,13.8269,5.24209,11.5487,12.7181,4.23842,11.4946,12.3622,4.27868,9.9411,11.8363,4.77356
7.32173,0.0655344,17.7305,20.7459,-3.77734,17.9944,23.5865,-2.93806,17.4692,21.6423,-3.91632,17.7578,23.5241,-3.18629
10.179,0.771047,3.70687,24.5697,5.24371,5.66702,24.6653,6.19531,3.51167,22.7343,5.60515,3.11842,24.8962,6.06934
4.78162,0.426598,-4.88286,23.1122,5.3847,-4.26676,22.9917,5.85264,-5.84092,23.3034,5.78689,-5.99105,23.658,5.86294
7.68982,0.139603,14.7283,15.2233,3.10082,16.0446,12.583,2.66506,15.4223,12.6754,2.92694,15.8449,12.4439,2.76783
0.349808,0.209865,-2.83813,17.9478,6.25166,-2.47461,17.8472,6.26577,-2.53984,17.8091,6.24706,-2.61422,17.7053,6.26217
22.88,0.330329,-0.106061,35.0071,-4.03519,1.38267,33.54,-4.48399,2.18441,35.2138,-3.8142,0.0692564,33.1874,-4.50732
92.7273,2.11486,9.27289,5.4836,-4.41016,5.25323,8.22852,-5.63588,5.67979,5.84586,-4.62577,6.25148,4.70949,-3.84749
5.83826,0.145017,-3.94543,39.3739,-2.00254,-4.14336,39.3775,-2.49576,-4.10308,39.9869,-0.697682,-3.38533,39.3049,-2.5061
1.52708,0.0573972,-1.73539,2.65265,2.97561,-1.04733,2.24442,2.80828,-2.09529,2.71489,3.09299,-1.65816,2.80566,3.09884
1.5864,0.04514,17.8015,5.55867,-1.73968,18.0607,6.59441,-1.20883,18.0714,6.50854,-1.33169,18.0308,6.52247,-1.20241
24.4791,0.244499,-13.0334,16.1059,4.49143,-10.5578,13.7436,5.03415,-9.93706,14.1433,5.13536,-11.5233,14.2776,4.76253
0.564461,0.0404569,6.74854,30.5384,-5.22712,6.93694,30.344,-5.33733,6.32457,30.6569,-5.23221,6.39199,30.6974,-5.21711
7.16524,0.207052,13.0514,8.38546,2.86549,12.6665,8.71979,3.16116,12.5941,8.07715,3.18018,15.5453,8.57271,2.52477
2.35039,0.0430787,-17.6799,25.5068,3.00383,-17.3166,24.726,3.44595,-17.1432,25.2612,3.55981,-17.9766,25.1863,2.8212
12.1567,0.408073,-17.7163,13.4672,-2.13158,-18.6494,14.4002,-1.02274,-18.5698,14.461,-1.13051,-18.7281,13.625,-0.585065
8.17114,0.0744479,-11.2776,29.5044,3.64785,-11.7039,27.7415,4.29581,-10.8758,30.8257,3.03837,-11.974,27.1431,4.41863
2.45509,0.128512,-13.8859,16.7608,4.14618,-13.5033,17.2002,4.44875,-14.0934,16.7832,4.20811,-13.444,16.1109,4.40991
3.84819,0.107279,-14.9395,12.2047,4.12178,-16.1104,13.1989,4.04377,-15.9609,13.0352,4.06974,-13.7165,12.174,4.36377
12.2881,0.183926,12.1727,1.98872,-0.0715982,7.89579,0.979977,0.439612,9.43499,1.26341,-0.142413,8.85756,1.17048,0.515987
1.67452,0.611665,10.4714,32.2965,4.90525,10.7913,31.3236,4.8978,10.5776,31.2461,4.95809,10.9317,31.3251,4.89739
9.14183,0.157365,8.83776,28.644,5.62849,7.73098,27.3105,6.07094,8.08541,27.0492,6.10052,6.74565,28.791,5.8572
9.66117,0.313742,6.08702,28.8982,5.57149,6.74972,27.4805,6.10041,5.19017,29.0492,5.92872,7.09165,30.162,5.58912
7.6377,0.562675,-5.82126,20.8069,5.67983,-2.75269,20.6195,6.10162,-5.38994,19.9062,6.03785,-2.68012,20.7152,6.12055
2.14988,0.0566657,-6.09858,20.8378,5.61219,-6.75861,20.1431,5.77599,-5.95322,20.8684,5.64354,-6.54506,21.552,5.76991
30.4755,0.208655,-7.48215,7.82451,5.1594,-4.24085,8.37014,5.72297,-8.47499,7.88083,5.25446,-7.78578,10.0964,5.26595
5.09937,0.407448,13.8943,31.3545,-2.60088,13.8403,32.4376,-2.45486,14.9849,31.0237,-2.90605,13.4675,31.282,-3.30329
1.10156,0.0523195,1.23541,7.65168,-5.03858,1.20724,8.04338,-5.26889,1.53859,7.64253,-5.12106,1.09305,7.54838,-5.03622
3.05813,0.154857,-3.75021,39.6019,2.20535,-4.64977,39.912,1.6236,-4.37144,39.9614,1.46745,-3.70129,39.1447,2.65053
0.745391,0.00595214,-5.10309,39.6518,-2.33229,-5.66392,39.4582,-2.45554,-5.66556,39.5291,-2.33725,-5.5985,39.563,-2.30329
16.616,0.0174855,0.404861,13.5864,6.0652,1.52095,14.0189,6.21655,-0.717796,13.3251,5.95664,0.700914,15.1376,6.18757
2.89295,0.39441,7.68919,10.1026,4.58585,9.72094,9.88008,4.56607,10.2056,9.94627,4.53595,10.3414,10.0275,4.57845
1.46915,0.0627204,-16.3817,6.96869,-1.97478,-16.7319,6.88144,-1.63939,-15.8622,7.33907,-2.40937,-15.5846,7.20908,-2.49666
1.16883,0.00744181,-18.878,21.6356,-1.53165,-18.7402,21.1187,-1.81286,-18.7625,21.0657,-1.76937,-19.0053,21.6408,-1.30106
2.79645,0.0244652,-18.0641,24.4019,-3.03795,-17.7992,23.7498,-3.31199,-18.5512,24.2506,-2.32363,-17.7892,23.8349,-3.33146
6.84022,0.0376847,18.2219,25.9179,-2.23073,17.7179,23.7419,-3.21593,18.0929,26.0819,-2.41372,17.7341,23.6759,-3.20745
6.42834,0.343543,12.1565,4.81153,-2.8285,11.3064,4.53143,-3.678,13.8998,3.79393,-2.92813,12.3454,5.19099,-2.99569
8.65847,0.0671857,13.2466,23.1549,4.73612,13.1609,21.5793,4.79007,12.1161,22.0205,5.02297,14.2645,23.5516,4.59529
22.0719,0.218993,-17.5794,9.90057,-1.56004,-18.4269,10.8922,-0.301682,-18.2155,9.37724,0.242523,-18.4293,10.7021,-0.134967
7.86515,0.171942,-3.24768,9.26794,5.51135,-3.94394,10.2187,5.27805,-2.86067,9.13758,5.76439,-4.85497,9.31867,5.62713
4.01877,0.191602,-5.41538,12.3406,5.40188,-4.34869,12.853,5.73422,-5.95614,12.1914,5.5198,-4.50648,13.0092,5.70047
40.6377,1.29163,6.88903,39.4201,1.47341,9.40311,38.0284,3.83373,9.7322,38.6212,2.91669,10.8615,39.2318,1.49918
3.71121,0.115718,-0.626825,4.74597,3.91872,1.28889,4.41026,4.09082,-0.766414,4.35919,3.78429,-0.964946,4.83971,4.07527
13.4433,0.152729,-11.7242,34.5416,-4.09051,-9.97465,34.3673,-4.42408,-10.4037,36.5675,-3.88666,-8.87671,36.2267,-4.08386
0.91948,0.11002,-8.71356,18.7203,5.2425,-8.93604,18.7939,5.31686,-8.27475,18.6989,5.43747,-9.05497,18.3252,5.26382
6.3805,0.000984751,9.58693,30.9844,-4.6677,7.77614,30.8062,-5.0724,8.61488,31.578,-4.614,8.61689,30.6477,-4.97997
5.73329,0.076069,16.8192,11.6217,-3.99547,16.7118,12.2731,-4.1995,17.8366,11.3108,-3.3989,16.2682,11.2475,-4.42352
1.08173,0.0525696,-5.93576,29.297,-5.74548,-6.0111,29.0926,-5.80417,-5.64751,29.3895,-5.81005,-6.33865,29.5814,-5.76087
21.7186,0.978224,10.4433,33.1359,-3.0862,11.1538,33.707,-2.50384,10.7177,35.5842,-2.89211,11.7548,32.5694,-3.31655
8.82727,0.374074,14.1962,24.9131,4.31948,13.7807,23.8322,4.75107,15.4668,24.4964,4.16465,14.2698,25.6674,4.79316
13.049,0.0867128,-19.0047,26.6525,-1.1459,-18.0283,26.7838,-2.93171,-18.6879,25.6357,-2.04946,-18.7058,25.5479,-2.05026
3.88405,0.02765,-9.53313,17.564,-5.09971,-8.55784,17.2134,-5.25311,-8.66923,18.0841,-5.2702,-8.18601,17.9507,-5.33387
2.52348,0.225846,-17.217,5.37209,0.729511,-17.1965,5.96457,1.97354,-17.119,5.3311,1.41885,-17.2606,5.92635,1.80864
7.80206,1.98715,17.5305,5.26142,-0.849612,16.3335,5.67668,0.778624,16.0635,5.0938,0.843028,16.4909,5.83299,0.793396
6.57397,0.297631,-0.785428,16.7334,5.76561,-0.209923,16.3421,5.91819,-0.322977,18.1708,6.21915,-1.39347,16.5009,6.13146
14.1323,0.36406,0.306982,24.5153,5.74743,2.22825,24.3014,6.08937,-0.700908,23.8265,6.14618,-0.245738,26.4906,6.06359
15.683,0.00645414,6.97748,32.7621,-4.19698,6.75691,34.1556,-3.65396,6.49214,33.3645,-3.86386,7.75325,32.9613,-4.33739
4.60792,0.0593283,-2.10359,11.0548,5.80127,-3.11556,10.7793,5.34079,-1.83726,11.2861,5.83724,-3.47734,10.78,5.19621
7.66516,0.342741,9.86245,24.7558,5.22476,11.0976,24.8709,5.06453,9.56901,26.4905,5.92136,9.36961,24.0258,5.74164
0.0296566,0.0203068,14.0243,28.0489,-4.31622,14.0898,28.0518,-4.30318,14.0964,28.1015,-4.26933,14.0293,28.1282,-4.29187
2.4221,0.0017965,1.59081,36.3391,-3.63329,0.20025,36.0073,-3.84499,1.58588,36.1049,-3.67365,0.408092,36.2293,-3.78566
7.29495,0.0730679,-0.380979,38.7618,-2.12529,-0.288635,39.0698,-1.52236,0.397383,38.8165,-2.53196,0.874087,39.0194,-2.17183
6.16421,0.32518,-5.17316,34.1581,3.44183,-4.96976,33.5937,3.77157,-4.32235,35.345,3.94368,-5.87033,34.4069,3.68645
53.4097,0.511172,1.75577,31.1198,-5.41033,-5.71106,29.7716,-5.77656,-4.53379,29.3694,-5.915,-4.99667,30.4685,-5.68593
5.98223,0.127255,-8.32046,28.9427,4.49383,-8.53674,27.6989,4.67252,-8.34295,27.6681,4.74439,-8.18645,29.6836,4.60563
10.5662,0.255239,-4.34024,28.8971,-5.9856,-4.71621,28.0088,-5.99613,-6.95792,27.572,-5.83176,-6.68182,27.5093,-5.8196
2.52446,0.11571,-7.89962,34.1134,-4.49548,-8.5193,34.6196,-3.94862,-8.59917,34.5758,-3.96477,-7.55448,33.7294,-4.64987
8.57692,0.354867,-14.5999,5.39003,2.76524,-15.1384,5.43714,3.06114,-15.2145,4.56982,2.11079,-13.1155,4.82463,3.56553
75.5767,0.102999,-13.5603,21.7037,4.46534,-17.0473,23.471,3.71813,-13.8926,24.2603,4.52951,-13.657,19.1099,4.50449
7.31578,0.90086,6.51611,36.9872,-2.74931,6.58961,34.1935,-3.60114,6.51507,34.0891,-3.6425,6.76489,34.2517,-3.63794
4.79979,0.0654183,9.27312,22.2001,5.4193,11.145,21.978,5.12969,10.449,22.0193,5.26953,9.17777,21.3934,5.64344
5.79594,0.513978,-10.8508,31.4624,2.6597,-10.9349,30.8798,2.97841,-11.6877,31.9039,3.09418,-9.85268,31.3597,3.62313
2.03845,0.0977055,-12.3985,38.7229,0.375715,-12.4253,38.9844,0.0240638,-12.3316,38.0284,0.836997,-12.2339,37.7555,1.0866
1.145,0.0446891,-15.1281,10.516,-3.52946,-15.2047,10.2999,-3.50867,-15.6204,10.9367,-3.48844,-15.0741,10.754,-3.64291
7.74641,0.0865803,-0.906206,19.0212,6.25929,-2.45551,20.2772,6.12839,-2.26182,20.705,6.01082,-2.67833,20.6277,6.08675
12.6679,0.361647,16.5734,11.3553,1.77094,17.3704,10.5482,1.60785,15.6047,11.2416,2.75657,17.0341,13.1511,2.16954
0.264371,0.345851,7.60681,29.1215,-5.63197,7.94905,29.0118,-5.62778,7.94645,28.9192,-5.64555,7.94755,28.9649,-5.63472
2.27773,0.0750656,-15.3759,31.5171,-3.88431,-15.2565,32.9944,-3.73115,-15.4156,32.4423,-3.72816,-15.1858,33.0005,-3.7499
3.63249,0.287584,9.12047,29.1371,5.23005,8.53722,29.1822,5.62648,9.48908,29.5167,5.39471,9.9901,27.7298,5.6023
1.41739,0.21108,2.0853,39.647,2.59908,2.05503,39.8543,2.19908,1.89993,39.9833,2.06477,2.41367,39.8633,2.31671
0.0956312,0.0038599,-16.5666,21.3248,-4.09856,-16.3952,21.3315,-4.1732,-16.4937,21.2786,-4.13011,-16.3655,21.4238,-4.19025
4.29127,0.285316,15.7866,32.6863,3.02701,17.1061,33.0179,2.67844,15.4777,33.0516,3.46881,15.9723,31.2276,3.36091
6.13231,0.0723832,0.260195,33.0092,-4.47394,0.0357061,32.0023,-5.19591,0.20024,33.1535,-4.46223,2.35794,33.4117,-4.45914
8.38306,0.273719,9.46567,23.2916,-5.44322,10.6573,23.1132,-5.75247,9.0881,21.5042,-6.0191,10.5821,22.7398,-5.8148
3.00356,0.609186,-14.0148,10.7093,4.25705,-12.8,10.1324,4.0259,-12.8221,10.2683,4.03151,-12.6755,10.0165,4.06378
21.1151,1.94856,3.59848,19.2731,5.91942,4.94856,22.4726,5.9397,4.87559,22.5187,5.94468,3.44178,22.6896,5.59286
6.0073,0.0721393,18.1964,19.7518,-2.75609,18.1177,20.8422,-2.98387,17.935,21.4251,-3.30074,18.2058,18.8799,-2.97158
3.98723,0.0585515,-0.161264,35.3337,-3.99218,-0.254711,37.3394,-3.58098,-0.388631,37.3911,-3.58414,-0.457257,37.4894,-3.57287
16.5476,0.127619,-2.74415,36.3933,3.93207,-1.80737,39.0164,2.98464,-2.58871,38.9322,2.95086,-3.1351,39.0863,2.83195
10.9816,0.737203,4.66451,28.8768,-4.7804,4.6613,31.5226,-4.87954,4.97579,32.6056,-4.64927,5.04459,32.6089,-4.65781
0.882112,0.198086,-2.77341,35.1475,3.83425,-3.52635,35.0998,4.07956,-3.80415,34.9898,4.12473,-3.72379,34.9261,4.14482
4.86364,0.358826,-5.58266,25.2342,-5.28392,-6.36547,24.2836,-5.79428,-5.00298,25.4117,-5.6778,-6.05508,25.7822,-5.47093
18.0514,0.12077,12.5547,9.81688,3.31307,12.7198,8.76494,3.15759,15.688,10.7496,2.64532,15.1383,10.9123,2.85723
5.02289,0.359416,-0.515873,20.2775,5.75222,0.689037,20.0995,5.85891,-0.811259,19.6876,6.16808,-0.724752,21.0909,6.18439
6.11126,0.00420809,-16.5267,22.2731,-4.14498,-17.5888,21.6794,-3.45306,-17.6181,22.737,-3.43656,-17.7167,22.6291,-3.37265
8.1668,0.0665429,-0.978356,2.24471,2.80929,1.37761,0.797898,1.9039,1.8637,1.07885,2.05981,0.61144,1.67197,2.40119
4.93663,0.120351,-2.10499,13.1218,5.95217,-4.78678,13.1859,5.74033,-4.22227,12.9913,5.7643,-4.58508,13.3111,5.79946
1.35806,0.0979,-6.76418,37.7221,-3.72314,-6.71757,38.2918,-3.18499,-6.50004,38.1067,-3.40216,-6.76438,38.2793,-3.20161
0.262972,0.0088171,-14.483,16.5113,-4.52687,-14.5599,16.1318,-4.46793,-14.6273,16.1278,-4.45324,-14.7018,16.1805,-4.44204
2.51737,0.0346959,-18.4162,21.43,-2.5422,-18.2204,21.1776,-2.71264,-18.8121,20.6535,-1.68847,-18.6248,21.4635,-2.17148
3.64081,0.146186,-16.5274,7.1323,-1.89637,-17.19,6.99146,-1.06358,-17.3101,7.49072,-1.13922,-17.1958,6.86623,-0.98807
8.27359,0.200955,-17.5338,14.095,-2.5397,-18.2438,14.9511,-1.83028,-18.3828,14.4672,-1.55794,-18.4162,14.5412,-1.50918
6.56961,0.402811,-4.76442,39.2174,-2.87829,-6.30093,38.3299,-3.14853,-6.64938,38.3186,-3.15268,-6.57522,38.108,-3.35853
2.06845,0.0690346,0.253767,0.446428,-0.7096,0.402693,0.482893,-0.982443,0.307133,0.225054,-0.363588,-0.432235,0.371373,-0.673725
2.28406,0.12788,-19.0069,19.5116,1.67163,-19.2754,20.2436,1.01083,-19.076,19.1742,1.56349,-19.1573,18.9006,1.59484
3.22082,0.971633,18.5004,11.8874,0.728007,17.7625,11.2616,0.872194,17.6336,11.4178,1.18044,17.6434,11.4182,1.32942
10.9487,0.059354,-0.353774,39.8048,-0.413843,-0.611933,40.0843,-0.0660606,-0.329288,40.2652,0.915934,-0.164772,39.097,-1.52745
5.38864,0.114391,9.64941,23.1404,5.37446,9.26938,22.4486,5.53618,9.38437,23.3536,5.59047,11.1695,23.0271,5.04744
0.16172,0.000382186,-19.1189,17.8927,-0.774856,-19.1499,17.7558,-0.619078,-19.1424,17.7239,-0.645231,-19.1012,17.8263,-0.836123
14.0227,0.101479,14.2889,21.9426,4.21181,16.4585,22.1919,3.16949,13.9547,22.3711,4.50658,13.9913,21.2104,4.48342
2.47087,0.0540013,8.40558,23.9029,5.92916,7.6989,23.7809,5.85011,8.67707,24.0952,5.93886,9.38309,23.3911,5.61673
56.3208,0.0362997,-5.90818,23.2655,-5.89447,-8.67968,21.8102,-5.48364,-8.40162,23.9727,-5.59075,-9.15991,22.2072,-5.44119
9.82956,0.239015,-12.7318,4.58215,3.17943,-13.236,4.55438,3.25378,-11.4544,3.14662,2.93021,-12.1173,4.78486,3.94614
1.73404,0.130632,3.17936,38.7684,3.30671,3.13282,38.3152,3.59008,3.25236,38.471,3.45537,3.80673,38.5522,3.52954
6.07871,0.139567,14.1281,3.32614,0.36373,13.3051,3.31212,0.879565,15.2995,3.48352,-0.0278217,12.9971,3.0883,1.07228
2.01554,0.130636,-11.7907,36.8826,1.70397,-12.1483,37.799,1.10861,-11.8769,37.6829,1.3227,-12.265,37.7041,1.10805
2.02678,0.33949,16.8685,29.0656,3.42997,18.2161,28.7501,2.78167,18.178,28.7244,2.82041,18.0368,28.9923,2.88513
46.1389,0.178944,5.4337,34.1697,5.20108,1.77032,33.532,5.03462,1.61769,33.7433,4.98743,3.17407,32.5143,5.28235


