
2.58054,0.078606,-15.8074,28.2143,4.86948,-14.7999,28.5752,5.01569,-15.9237,27.214,4.88897,-15.8507,27.2112,4.8923
7.63233,0.243506,2.38728,22.6765,7.06726,1.76154,21.6125,7.52666,3.8247,22.2305,7.62277,2.05665,23.3771,7.09181
11.349,0.107005,-0.926795,23.824,-7.73282,-0.998099,25.6811,-7.56372,-0.77224,26.0451,-7.54208,0.219345,25.7595,-7.51276
0.886079,0.141396,15.2192,19.2453,4.92702,14.9719,18.9095,5.53844,15.1242,19.389,5.50658,15.0749,19.242,5.31548
19.1279,0.0564083,0.640789,17.2515,-7.14271,0.320035,19.3301,-7.4935,0.943891,19.3693,-7.47416,1.86427,19.3069,-7.42935
18.1275,0.174978,-0.405355,14.3247,-6.81122,-0.487194,17.2275,-7.11717,-1.06712,16.506,-7.10427,-1.05209,17.1822,-7.21136
3.75092,0.307167,8.5298,3.13861,-2.07026,7.23115,2.61537,-2.94641,9.99842,1.96685,-1.92886,9.78324,2.04437,-1.97893
0.0537687,0.0222429,17.0566,1.09706,3.49499,17.2655,1.14477,3.48794,17.0435,1.4368,3.9523,16.8353,1.48968,4.06617
1.0091,0.371914,3.82787,22.1434,7.63436,3.77569,21.4142,7.8197,4.06142,21.4462,7.85059,3.83187,21.4266,7.81968
1.82349,0.040663,15.6829,12.1656,5.18057,15.7732,13.2537,5.10165,15.9112,13.1386,5.08433,15.8525,13.2868,5.08237
1.27244,0.148612,18.2345,28.5271,1.94724,18.2737,29.7608,1.91896,18.2605,29.8478,2.02769,18.2236,29.3364,1.86003
6.74067,0.0225165,10.3682,32.0107,6.99086,11.2156,30.5527,7.08348,10.4951,30.2649,7.19623,10.3596,30.4987,7.18498
7.51953,0.0398793,2.17931,7.33406,-5.86532,3.08046,7.24689,-5.83288,2.93729,6.66515,-5.71358,1.73491,6.63465,-5.77916
2.51689,0.00593358,5.0706,8.48292,6.69598,6.25344,8.84025,6.7153,5.00206,7.48397,6.83775,5.08476,7.75444,6.80442
289.756,0.520874,-18.3484,32.4817,-2.15772,-18.2687,32.6617,3.18021,-18.4293,33.9003,2.30642,-18.2281,30.5748,2.64954
4.50953,0.146173,-11.5983,6.51467,-3.83755,-11.7278,7.35866,-4.15064,-11.591,7.08434,-4.12899,-11.284,5.70487,-3.18671
2.46454,0.383365,18.292,30.9662,-2.22094,18.1857,32.5713,-0.349657,18.0446,32.1893,-1.53945,18.1292,32.5053,-0.87607
11.2355,0.0481896,-11.2816,4.90514,7.04645,-10.6406,3.41413,7.18387,-9.46551,4.68055,7.25208,-10.5262,4.31952,7.17193
2.60571,0.000605763,-12.4434,20.1783,-5.93346,-12.6462,19.965,-5.81535,-13.8192,20.1568,-5.51873,-13.8202,19.9769,-5.4701
1.6132,0.382174,-2.047,6.14228,7.41275,-2.22565,6.78858,7.33219,-2.14636,6.78089,7.32215,-1.95467,6.73684,7.32486
44.5568,0.156801,-13.405,17.9348,5.43067,-12.6405,15.9834,5.81831,-13.8532,15.8546,5.52666,-16.3542,16.6193,4.90371
16.4408,0.944738,13.1937,34.7151,-3.44542,15.841,34.6079,-3.86596,12.9063,34.8124,-4.71625,16.6838,34.2719,-3.84163
4.94613,0.408137,17.3081,33.2403,2.77281,17.6135,33.29,3.49982,17.7737,32.6348,2.27834,17.8106,34.375,2.44728
19.8805,0.071022,6.12272,8.23913,-5.89542,6.57378,9.77654,-6.05801,7.82923,8.9417,-5.90548,7.14171,10.0449,-6.04034
7.28659,0.122541,-10.448,34.2,5.89692,-11.5922,35.45,5.64956,-11.6237,34.676,5.59395,-12.0123,35.428,5.57346
37.5097,0.11595,-11.5807,18.2325,-5.96143,-9.54861,20.0965,-6.65659,-11.2856,19.8143,-6.18333,-9.21225,19.8553,-6.6976
5.34332,0.397065,4.02907,29.3971,-6.16723,3.42606,29.4442,-6.60363,5.17171,27.9951,-6.94987,4.54473,30.247,-6.29149
7.82291,0.512328,3.30074,6.97197,6.58335,1.96372,6.99661,7.26519,4.26618,5.28585,7.2414,3.95107,7.49153,6.94728
0.253555,0.00277331,-4.29268,7.43316,-5.78094,-4.5661,7.53417,-5.7695,-4.4934,7.35711,-5.7293,-4.56911,7.443,-5.74332
54.2883,0.860992,1.74389,15.817,6.78816,3.69981,16.9966,7.42735,3.08325,14.2426,7.22585,4.44186,16.3216,7.20371
14.9823,0.521787,6.72889,17.2628,6.60492,5.89857,19.0742,7.71733,6.19877,15.2776,6.85847,8.12472,17.1925,6.81831
5.84118,0.0382537,0.523934,20.0074,-7.58387,2.02185,19.8991,-7.49143,1.61225,20.4911,-7.61859,0.812975,19.9164,-7.52052
9.34992,0.112514,13.0768,16.2499,-6.27907,10.9968,16.082,-6.49205,11.2958,16.4003,-6.47599,11.0864,16.6274,-6.53474
4.92604,0.171536,-8.25269,33.0336,6.21975,-8.54722,33.0926,6.28261,-7.6089,32.0784,6.70228,-7.84699,34.2875,6.5268
26.4503,0.775342,-10.8244,4.2522,-2.35875,-12.2094,4.36884,-2.85801,-8.26799,4.58729,-3.74593,-11.2907,5.65268,-3.16032
4.86881,0.104578,11.9846,37.8711,-4.5141,12.7732,37.6949,-4.40172,11.2408,37.4399,-4.74251,10.4198,37.8866,-4.57243
34.7795,0.103015,-18.4428,19.648,0.710049,-18.5318,19.6092,-1.49983,-18.5795,18.2624,-1.43074,-18.5535,18.932,-1.79329
7.95323,0.636399,-3.08041,29.4505,-6.27329,-4.3078,29.274,-7.18216,-1.88859,29.3082,-6.9811,-3.27344,30.6905,-6.35118
9.21884,0.405265,4.6435,6.95124,6.40459,3.93404,7.07628,6.79647,6.24035,5.51339,7.06606,5.41364,7.2824,6.75469
70.9593,0.0958741,-17.0442,30.3898,4.38689,-14.594,22.7114,4.77651,-13.8285,22.7161,4.98251,-16.0784,31.347,4.56859
6.25703,0.251861,12.0278,2.03295,-1.28953,13.3517,0.843556,-1.40448,12.0051,2.27165,-1.72369,11.7331,1.79599,-1.34873
1.97038,0.570228,-2.38769,38.9289,-4.48163,-2.49672,39.7343,-4.32586,-2.34772,39.6833,-4.37153,-2.57391,39.7377,-4.33715
4.86593,0.0800303,-0.839852,37.4607,6.62242,-0.897279,36.0823,6.98882,-1.10803,37.8829,6.62362,-0.272176,37.6134,6.6595
2.3268,0.321488,-15.7607,31.349,-3.60926,-14.3389,31.6473,-4.44322,-13.876,31.5147,-4.7167,-13.8688,31.5599,-4.6941
1.67373,0.0508754,3.99935,18.7117,7.85078,3.5895,18.6856,7.87368,3.80494,19.1028,7.90042,3.51831,19.0104,7.94095
19.0533,0.0457258,2.61347,20.3773,7.89489,4.82816,19.9469,7.88966,3.62414,19.5056,7.94964,3.81186,21.2743,7.85913
2.74388,0.00119288,10.0546,29.2669,-5.67704,10.875,28.7249,-5.841,11.1559,28.6236,-5.85133,9.35995,28.5684,-6.16401
0.50395,0.202051,-2.08446,5.37078,7.44226,-1.60504,5.30356,7.44712,-1.67557,5.25371,7.42679,-1.74678,5.12379,7.42449
22.6927,0.00988808,12.0399,22.8134,-6.58883,14.921,23.2411,-6.02331,15.2729,22.9655,-5.97258,14.2442,22.221,-6.20177
5.81949,0.18029,-3.43257,16.7517,7.72436,-2.60513,18.1677,7.91473,-1.94465,17.224,7.80171,-2.76954,17.4918,7.76167
12.2289,0.0346048,6.5837,4.02948,6.88121,8.1031,5.09467,6.81282,8.3727,4.71641,6.73048,8.38812,4.94345,6.75381
86.6297,0.426346,6.17828,26.5359,-7.08678,0.5237,29.4345,-6.703,-0.41445,29.0568,-6.90905,1.83031,27.8277,-7.27576
29.3456,0.0107666,-2.61373,19.3731,-7.99443,-4.44665,20.393,-7.7758,-2.29123,17.3668,-7.83006,-5.49748,19.5249,-7.4725
75.9755,0.387466,-11.9537,26.3398,-6.22028,-7.54937,27.8636,-7.11035,-7.67976,26.3517,-7.11519,-9.67638,28.9863,-6.84407
4.77275,1.59535,5.48338,3.52535,-2.92513,5.41001,4.8619,-4.38917,5.26563,4.87517,-4.35649,5.18461,4.83038,-4.34454
7.36171,0.129811,-0.864952,31.0467,7.48589,0.541034,31.4346,7.47466,-0.747596,31.8669,7.41415,0.611434,31.2943,7.47076
11.1938,0.0476936,-6.8745,4.55403,7.36086,-4.91223,4.68618,7.32461,-5.24726,5.25109,7.41082,-5.35915,4.34254,7.3055
35.3488,1.76398,-12.998,37.0067,4.7165,-13.3938,34.5461,4.98196,-12.8772,34.9749,5.23426,-11.0016,36.1504,5.78493
0.259034,0.0156842,15.3481,15.7837,-5.7732,15.2129,15.6175,-5.82205,15.7914,15.6715,-5.64949,15.6486,15.6239,-5.69765
0.727176,0.0526759,-14.62,37.5995,-3.71592,-14.1501,37.4352,-3.87977,-14.8325,37.6464,-3.72526,-14.4068,37.7264,-3.78528
58.8274,0.0933059,12.7085,6.99216,6.27649,8.99638,7.60649,6.5411,9.17575,7.00517,6.61513,9.81371,8.30185,6.38413
7.47149,0.0028368,-5.98444,17.2923,7.23939,-5.86999,18.2399,7.32574,-5.52783,18.1735,7.41313,-5.16473,17.0191,7.44532
6.24843,0.119498,-5.39179,22.7892,6.72312,-3.05937,22.9418,7.15801,-4.47079,22.8291,6.97457,-2.72806,22.8813,7.12066
0.642406,0.0541261,-5.55472,12.0631,-6.48411,-5.34258,12.6,-6.59978,-5.47271,12.6037,-6.58438,-5.40585,12.6458,-6.60422
1.84742,0.0598216,-11.356,7.91765,6.40598,-10.5977,7.60828,6.64446,-10.294,7.91347,6.66093,-10.5936,7.65335,6.63467
55.3082,0.0479485,9.87122,11.0349,6.529,12.6585,10.9903,6.17103,13.199,12.0134,6.15762,12.2932,12.7899,6.33803
4.46538,0.0530064,-2.31591,20.0048,-8.04858,-2.2853,21.1008,-8.09173,-2.7834,20.4742,-8.02261,-1.60453,19.6779,-7.98761
9.32259,0.0086997,10.0558,15.1319,-6.49523,9.90461,14.0019,-6.32764,9.69692,14.1438,-6.36579,8.42218,14.2914,-6.49056
4.11334,0.0146146,-4.68921,21.1023,7.54688,-4.13835,21.0733,7.74747,-4.63228,19.3647,7.65205,-4.77277,19.4178,7.60296
0.0814673,0.200657,-5.73281,5.7133,-4.89986,-5.94755,5.72235,-4.87442,-5.94192,5.62911,-4.81752,-5.94365,5.6761,-4.84398
0.319343,0.0325868,14.095,27.8587,6.74879,13.7032,28.1033,6.82772,13.7649,28.1026,6.81722,13.6055,28.0177,6.85193
121.298,0.410176,-12.8422,20.7471,-5.86919,-8.88259,23.1131,-7.09129,-10.5541,24.4358,-6.59358,-9.04405,21.8951,-6.92539
2.63564,0.703595,2.77563,28.3876,-7.07346,1.66612,29.469,-6.71986,1.66463,29.5064,-6.71898,1.50124,29.3195,-6.79232
13.1222,0.408248,-15.8356,18.428,4.36195,-16.1758,19.0357,4.63192,-13.5297,18.3501,5.28143,-16.3732,17.674,4.76616
11.2985,0.168086,-0.0580903,37.6485,6.65795,-0.0972147,35.4914,7.12604,0.753309,37.1917,6.83758,0.662481,36.7843,6.89932
8.07971,0.21388,16.0538,36.1251,4.60396,17.5472,36.1163,3.51602,15.489,37.5977,5.5099,15.8062,35.5331,5.08659
2.79972,0.29797,-12.8781,10.1977,-4.41197,-11.8423,10.4219,-4.75783,-11.9706,10.2075,-4.62405,-11.7179,9.82978,-4.68851
27.9178,0.455274,-8.03111,39.9923,5.48606,-8.18414,37.6784,6.37661,-8.84348,38.4177,6.1704,-6.34789,39.615,6.19089
36.0345,0.712169,-0.0666867,2.84234,-2.07803,-0.293638,3.51787,-3.18908,-1.11436,1.8748,-2.23668,2.4064,2.07165,-2.86806
1.79636,0.080737,-12.562,34.228,5.17393,-11.9127,34.5573,5.52814,-11.9723,34.74,5.53288,-12.1207,34.5708,5.4099
61.0409,0.495301,-3.17832,41.3436,5.87521,-3.36609,35.8859,6.88218,-2.46229,35.6108,6.96193,-2.44385,38.5547,6.14114
0.14085,0.120576,-2.10663,8.10792,7.28969,-2.04408,7.92154,7.29476,-2.12122,7.9429,7.28408,-2.18004,7.93314,7.30157
16.7749,0.0100784,-11.835,22.8394,-6.27225,-12.2148,24.3233,-6.20172,-11.322,21.8086,-6.40461,-12.1407,21.7041,-6.18739
30.4361,0.0883518,-5.70191,19.3481,-7.39021,-9.43552,18.9585,-6.55143,-9.16237,19.3564,-6.66169,-6.01129,18.0888,-7.26429
18.2333,0.47919,7.8371,39.1926,5.8379,8.97761,37.8009,6.4591,9.01425,39.792,5.71118,9.33232,38.0545,6.56917
384.533,0.304135,4.92213,12.5227,-6.4253,10.5751,8.49915,-5.69637,9.51841,12.56,-6.15454,12.2349,9.5829,-5.57309
2.7312,0.0470972,7.66641,39.8872,-4.43779,7.93385,39.5502,-4.53999,7.16724,39.982,-4.50543,8.26629,40.4973,-4.30104
54.9682,0.0489256,-3.00777,31.6574,7.35172,0.939116,32.1913,7.45739,-2.24314,28.4197,7.62046,-2.99678,27.3624,7.66933
4.25173,0.452731,16.1443,2.4464,-0.852434,16.1844,3.59534,-2.10439,16.2954,1.82988,-1.00812,17.7669,2.36144,-0.208533
0.0894873,0.0152485,-8.50412,8.25548,-5.15664,-8.50003,8.44203,-5.18308,-8.56777,8.39799,-5.16325,-8.44764,8.38453,-5.17799
4.67595,0.00362973,4.29222,22.9404,7.76446,4.7885,23.3227,7.81214,5.40357,23.0216,7.77949,5.38107,22.6596,7.73434
25.1194,0.170457,-6.49906,1.96513,-1.88829,-6.89222,3.30849,-2.82997,-7.9972,2.73805,-2.27371,-5.76461,3.19984,-2.78684
3.11243,0.173722,-4.33584,25.652,7.2858,-3.21517,25.5931,7.58306,-4.32196,26.1529,7.35518,-4.63194,25.3884,7.49477
4.65621,0.292818,-16.2586,31.4304,-3.42537,-15.8223,31.3542,-3.57245,-16.6699,30.3915,-4.16663,-16.7373,32.2241,-3.79569
0.175539,0.0397863,8.17198,13.0262,-6.33848,8.04669,13.1182,-6.35997,8.07014,13.0189,-6.33186,7.97883,12.9402,-6.35055
2.20437,0.100103,8.35904,22.1143,6.41579,7.37528,22.1933,7.47905,8.50054,21.9684,6.32963,9.07759,22.4921,6.26823
7.65678,0.189513,17.6714,13.2257,3.7921,15.9199,11.2257,3.68332,18.2348,11.0751,2.83502,16.5898,10.9144,3.36895
22.4644,0.614542,-12.2978,7.68172,5.51356,-11.5364,7.01326,6.41553,-10.8956,10.0394,6.37067,-12.9442,7.99107,5.94974
71.1223,0.187049,13.6759,19.8752,-6.26479,7.99804,21.0771,-7.10996,8.86394,21.3986,-6.98097,9.03316,20.2103,-6.88417
4.1941,0.227962,-4.12605,35.3342,-4.63966,-2.73494,35.9036,-5.08857,-2.26465,35.5562,-5.26472,-2.75128,35.5763,-5.14839
6.19027,0.211362,1.73874,27.2649,-7.39376,-0.452517,28.3457,-7.07294,0.280931,28.6231,-6.98125,0.279737,28.5379,-6.99821
2.87739,0.201515,-5.08678,30.387,7.49397,-5.42176,27.8041,7.36527,-5.88469,29.8798,7.39196,-5.26286,28.1145,7.44665
3.80378,0.16167,2.21127,23.6436,7.02416,2.85461,24.064,7.5364,1.52348,23.8565,7.3019,1.31668,23.9515,7.61064
7.7018,0.21083,-15.5543,22.5183,-5.20892,-13.5737,22.1939,-5.7702,-13.0676,23.128,-5.93512,-13.4964,22.2316,-5.7875
9.52692,0.10853,-7.60904,7.64054,5.76881,-7.76638,6.69369,6.53171,-6.27654,7.34939,6.37589,-7.44326,6.13068,6.98993
7.45161,0.0350756,4.43008,12.4791,-6.48627,3.4307,12.3104,-6.527,3.02242,12.8136,-6.61755,2.9485,12.4981,-6.5711
2.03272,0.122326,-6.37901,7.94735,6.1715,-6.21986,8.43648,6.40279,-6.68106,7.78068,6.24325,-6.0572,8.75575,6.72916
14.8181,1.40675,-9.15856,4.93628,7.28612,-6.54144,4.07706,7.3329,-7.06839,4.83708,7.35716,-6.35614,3.75062,7.26151
262.141,0.281181,-15.273,15.4137,-4.55099,-6.15037,13.9727,-6.74343,-5.93079,15.5872,-7.06374,-9.01374,11.4297,-5.6484
1.75232,0.154332,-4.8732,34.7473,-4.95311,-5.55206,33.8494,-6.03581,-5.25262,33.8958,-5.97505,-5.0015,34.2553,-5.62711
1.28707,0.0687188,7.16822,35.1341,-5.19646,7.16252,35.6915,-5.16941,6.98329,36.0153,-5.18174,6.7799,36.2039,-5.18212
45.8298,0.248247,1.08094,29.3541,7.48679,2.79645,30.0903,7.54146,1.59969,32.7522,7.47523,2.76271,30.7775,7.50061
0.0870933,0.0512194,-4.41822,15.6597,-7.35749,-4.33414,15.5302,-7.33635,-4.47917,15.5744,-7.32849,-4.39276,15.5309,-7.31694
1.56049,0.0117662,-10.2024,18.7162,-6.36451,-9.71134,18.7887,-6.47488,-9.44681,18.414,-6.50036,-9.3706,18.6384,-6.5298
3.31964,0.0871761,-16.4251,42.9125,-1.72953,-15.1421,42.3843,-2.43331,-14.6356,41.4063,-3.22997,-15.7114,41.9049,-2.69053
34.4663,0.158897,13.2654,17.1563,5.61555,15.2615,15.3678,5.10964,15.2186,16.7584,5.12899,11.8049,15.7265,6.26595
22.9602,0.707467,9.8637,26.9304,6.33396,8.8284,27.5204,6.9957,11.2125,27.677,6.98092,9.5096,24.1954,7.27097
13.4594,0.677629,-12.176,33.4892,4.62062,-11.1957,33.4198,5.65867,-13.2536,34.5453,4.98476,-13.054,31.3729,5.02932
9.55179,0.142289,4.55957,7.80584,-5.93025,2.16531,7.79947,-5.98233,1.74353,8.34148,-6.16109,1.73707,8.0736,-6.09082
8.4497,0.667629,-8.98086,31.8225,-5.33932,-8.41097,33.3737,-5.77752,-10.0933,31.7905,-5.76276,-8.02712,30.3098,-6.73684
12.0165,0.00683736,3.68942,15.5147,-7.03594,5.12563,16.2319,-6.94121,5.27785,16.6849,-6.97038,5.13886,16.9124,-7.00919
14.9264,0.173375,-8.00435,21.8057,-7.14643,-8.32195,19.5483,-6.86856,-9.28025,20.3081,-6.77276,-9.48633,20.2706,-6.71799
1.53579,0.265277,2.02086,11.8791,-6.52084,2.10158,12.6473,-6.6096,1.46637,12.6979,-6.66205,1.73115,12.6154,-6.60905
33.8742,0.0106287,5.32378,15.6348,-6.89233,7.95268,16.1104,-6.73119,8.40866,17.248,-6.74762,8.29685,15.8799,-6.69587
5.98634,0.00814196,6.59864,8.40208,6.57121,7.78836,8.49187,6.60402,6.54357,7.41778,6.59636,6.9296,7.983,6.5904
26.4154,0.200183,-7.42549,19.3271,6.53289,-7.80649,17.4262,6.70065,-6.99305,22.3701,5.52397,-9.44025,15.4931,6.36589
2.07836,0.550928,11.7897,9.62142,6.2179,10.8791,8.97336,6.28502,10.7373,9.16231,6.30309,11.0992,8.83264,6.31145
0.123762,0.00373862,-13.0982,21.7562,-5.86171,-13.1532,21.8944,-5.86225,-13.2283,21.8103,-5.8329,-13.2281,21.8568,-5.83718
0.803793,0.0321082,-7.78042,22.7545,-7.25497,-7.2195,22.9029,-7.36204,-7.2939,22.7375,-7.33547,-7.08934,22.6364,-7.37807
4.69151,0.49418,-10.9296,29.1996,-6.38678,-11.16,27.997,-6.48591,-12.1033,28.8584,-6.4119,-11.2979,28.0924,-6.46585
0.982732,0.0849954,4.69426,25.0959,-7.41681,5.26018,24.8623,-7.37569,5.3175,24.7226,-7.3995,5.26064,25.1433,-7.32911
0.406044,0.00383237,2.62821,29.462,7.55479,2.40344,29.335,7.5538,2.47644,29.1924,7.56458,2.54706,29.1888,7.56645
11.4382,0.245955,1.77762,19.1839,7.94167,1.84498,17.5429,7.72474,1.58122,18.0558,7.8159,1.75038,21.4255,7.57215
14.9334,0.419086,10.5758,15.998,-6.48807,10.4479,19.1949,-6.68677,11.218,19.0102,-6.56351,10.2911,19.1968,-6.70501
9.16908,0.180958,-13.5953,33.2908,4.6617,-13.7643,34.1549,4.87682,-14.4798,32.4082,4.77896,-12.8339,33.2411,4.86181
7.78127,0.325617,-13.0594,31.2831,5.0241,-14.1677,28.2716,5.03371,-14.0304,28.3525,5.14315,-13.9362,29.1735,5.07269
25.9536,0.0289798,15.6887,14.5412,4.92152,16.7238,14.3325,4.84709,15.7129,19.0579,4.03103,15.3422,18.5652,4.18357
0.793041,0.0572409,15.6586,7.0035,-4.47737,15.9812,6.26753,-3.94558,15.7272,6.57433,-4.23578,15.9182,6.21242,-3.9286
32.1866,0.23863,-8.66595,25.4658,-6.96048,-3.95363,26.022,-7.83908,-3.00811,25.0764,-7.93589,-8.25054,23.3661,-7.19415
19.5921,2.73525,-16.5629,34.6245,4.40373,-15.9199,37.5627,4.81619,-16.6999,37.6438,4.86191,-15.5213,37.4866,4.8452
24.1592,0.0976135,-15.8758,41.454,4.65404,-16.139,37.7081,4.79686,-15.9736,37.8842,4.79147,-16.7388,38.1065,4.80546
13.5368,0.0039234,-0.507536,9.49168,7.30296,-0.107663,8.92222,7.27142,1.18812,9.58271,7.376,1.37542,9.03242,7.33453
19.292,0.061451,-9.71961,8.29736,6.39789,-9.00408,7.02553,6.46777,-8.29756,7.08032,6.62112,-8.46085,8.32487,6.60704
6.28524,0.851407,5.5063,3.15486,-2.44595,6.86359,2.7488,-3.12869,4.62048,2.25364,-2.89377,6.77458,3.13606,-3.41536
0.413966,0.111381,4.88286,4.84812,7.19207,4.38162,4.64147,7.18969,4.37972,4.686,7.19253,4.30194,4.69231,7.21203
8.44013,0.369041,-8.38303,34.6255,-4.57868,-6.37362,35.3173,-5.4596,-8.7452,34.4013,-4.96848,-6.53954,34.9919,-5.54136
5.74681,0.213892,-0.0593957,8.37235,7.1477,-2.04017,9.52258,6.60756,1.92342,7.36542,7.26001,-1.98072,9.41978,6.59195
0.366516,0.0139772,6.0611,32.5343,7.46172,6.54807,32.3702,7.47571,6.5475,32.2814,7.48122,6.81128,31.9905,7.50896
10.0241,0.298455,6.36484,14.2209,6.49836,5.93045,13.8304,6.85184,9.78444,13.8245,6.44518,6.1835,14.772,6.80713
2.0771,0.0466716,6.18163,16.3965,-6.92217,5.27878,16.8657,-6.98911,5.35757,17.0879,-7.03732,5.47907,16.545,-6.94377
4.50043,0.031894,13.2608,35.3547,6.33689,13.6049,35.0779,6.2376,14.7226,36.2996,5.87283,12.5135,35.6121,6.64916
21.6453,0.382567,-14.205,27.5862,4.67061,-13.0302,27.4266,5.49033,-11.1454,27.0996,6.13976,-14.6461,28.8854,5.07172
2.01172,0.175104,4.96468,12.6891,7.06207,3.38588,13.1353,7.14805,3.72752,13.0662,7.0948,3.37846,13.0396,7.13525
37.6892,0.361624,14.9432,24.0254,-6.01767,6.65856,24.1197,-7.23631,8.0269,22.3616,-7.1323,7.99215,23.4227,-7.11324
0.0198011,0.00183223,-8.72491,4.41379,-3.58129,-8.76129,4.44994,-3.59995,-8.76076,4.49643,-3.62789,-8.694,4.49524,-3.63665
2.30899,0.113084,-15.5106,7.925,4.59973,-16.3461,9.30008,5.20602,-15.9584,8.76402,4.94088,-16.4193,9.30218,5.16482
9.5872,0.0175357,-5.15997,5.39701,-4.70475,-6.82732,4.82674,-4.16096,-5.62571,4.63599,-4.04856,-5.66225,5.57691,-4.81039
13.7479,0.842844,-14.9255,38.869,-3.56308,-12.8982,38.9067,-3.75003,-13.3825,37.4066,-3.98612,-12.8992,38.8609,-3.75246
3.88523,0.890692,17.2763,10.6691,2.74289,18.25,10.5472,2.58738,17.6456,9.58332,3.23293,18.3534,10.7137,2.5401
19.0767,0.599323,-1.95919,35.6783,-4.97956,0.615079,35.8858,-5.54351,0.234611,35.5522,-5.66714,-0.255356,36.6293,-5.2669
1.2367,0.0853503,14.9341,39.1961,-4.0688,14.0551,39.5374,-4.13083,14.3882,39.7027,-4.01174,14.2291,39.6272,-4.06709
16.0619,1.9331e-05,-4.70005,8.11894,-5.88443,-5.16524,9.53102,-6.06081,-5.8628,9.0616,-5.84094,-5.86372,8.88221,-5.80717
5.93882,0.0531405,-11.5745,36.8625,-4.03183,-11.0791,36.6917,-4.23457,-11.2192,35.3864,-4.40492,-10.454,35.4949,-4.5743
5.26598,0.176868,-10.7763,33.2529,5.77341,-9.84518,32.1999,6.16442,-10.3662,31.6785,6.11963,-10.206,32.035,6.0837
2.89932,0.312538,13.5909,9.82912,4.76682,13.4122,9.52125,5.21856,14.6192,9.75496,4.69515,13.5983,10.4492,5.02602
0.470358,0.255333,7.79822,19.3009,7.4972,7.81129,19.6509,7.48368,7.89868,19.6659,7.49197,7.72821,19.6723,7.51128
0.0760251,0.012625,-2.83571,20.6879,7.92798,-2.96278,20.6496,7.95077,-2.97121,20.6061,7.95523,-2.92438,20.5604,7.94504
15.622,0.0146772,-10.44,37.2043,-4.14804,-9.6622,37.3653,-4.22288,-9.17494,35.7943,-4.55429,-10.0244,35.4516,-4.48359
0.427671,0.182285,-10.7806,17.2407,-6.09555,-10.502,17.0444,-6.14858,-10.6384,17.0178,-6.08688,-10.7106,16.9604,-6.08404
185.152,0.2569,2.90163,42.4901,4.18376,3.54603,43.1143,-0.68969,-0.451795,42.4821,4.10066,3.13908,43.072,-0.545702
7.65213,0.0253069,-10.2274,15.3085,6.25482,-12.4273,16.1937,5.82233,-11.4458,16.2212,6.00639,-12.4293,16.2388,5.81977
0.038477,0.0189926,-17.4621,37.9597,4.57992,-17.4572,37.73,4.60951,-17.3678,38.0461,4.67028,-17.3671,38.0918,4.6702
6.3987,0.928947,-18.4649,29.2891,-2.17441,-18.4314,28.3067,-2.96004,-18.0555,29.7641,-3.49881,-18.1647,29.1146,-3.28238
8.33848,0.214973,3.5461,36.2931,-4.48482,3.14397,35.9479,-4.73146,3.17887,36.6957,-4.64123,5.79342,36.9718,-4.6866
1.44355,0.0609369,3.50952,16.7529,-7.05081,3.28644,16.5667,-7.10506,3.72668,17.0169,-7.12387,3.98756,16.3745,-7.0765
3.0637,0.0965518,-0.252778,31.4818,-6.63206,0.479348,32.4268,-6.71165,-0.533104,30.7661,-6.47522,0.411302,32.5226,-6.68823
4.49124,0.0691114,-5.88115,31.4359,7.17036,-3.63368,31.6378,7.45374,-3.60895,30.7692,7.61097,-3.71045,31.5076,7.46841
0.0122121,0.0050601,-10.0367,12.381,-5.56419,-10.0942,12.4099,-5.54622,-10.094,12.3865,-5.54432,-10.0297,12.4549,-5.57915
0.169407,0.00497709,-6.43058,18.0467,7.1819,-6.44668,18.1375,7.18492,-6.23157,18.2582,7.25143,-6.23184,18.1707,7.24889
9.96147,0.529812,2.35933,39.8437,5.55939,1.11047,40.3203,5.39831,1.08711,39.853,5.77078,1.9713,37.6813,6.71867
0,0.0717844,-9.222,36.7599,6.17447,-9.19823,36.8008,6.11396,-9.12999,36.8344,6.13572,-9.17006,36.8302,6.12676
98.5265,0.526304,-15.2698,11.4749,-4.0114,-13.0889,14.2235,-5.0578,-15.4945,14.4731,-4.37552,-13.9303,13.9974,-4.71293
5.57016,0.708359,-10.4798,3.47278,-1.29006,-9.02305,2.99287,-2.22867,-10.6739,3.99084,-2.11871,-11.1188,2.88793,-1.75635
10.7364,0.0191584,-10.7475,16.248,6.17763,-12.7105,17.4418,5.75989,-11.9423,17.7225,5.91093,-12.6793,16.8015,5.78353
10.9641,0.0269345,15.3832,12.4444,-5.34048,13.8531,11.3957,-5.53319,13.7193,12.1662,-5.66249,13.3464,11.4849,-5.64598
4.55534,0.121723,-10.2497,19.2853,5.99844,-11.1525,19.5635,5.52812,-9.06686,19.1778,6.45764,-8.23431,18.9543,6.64896
4.01047,0.0402021,8.22909,35.1732,-5.0773,9.92467,35.2242,-5.20997,6.96401,34.906,-5.58474,7.10604,35.0909,-5.23269
1.18079,0.0666942,5.17256,26.73,7.63658,5.70271,26.4779,7.67161,6.51773,27.3972,7.55151,6.19143,26.4554,7.63072
6.59634,0.127654,10.8381,34.5983,6.68221,10.3485,33.2078,6.68046,11.3494,34.7984,6.77841,10.6561,35.1486,6.90863
28.3072,0.0880864,-16.4604,24.5855,-4.91757,-16.6206,19.9517,-4.43868,-17.1283,21.7134,-4.38492,-16.5486,19.946,-4.46364
15.479,1.00821,-14.7387,37.5059,4.51256,-15.2633,35.1009,4.73369,-15.6538,34.5297,4.63298,-13.6949,37.1266,4.98104
18.0637,2.29071,11.8986,36.0511,6.83916,12.3191,38.9202,6.35525,11.5521,39.0504,6.08866,11.6295,39.0455,6.1002
19.8283,0.140401,4.06568,11.4541,7.15486,3.61312,9.19693,7.05655,2.94036,9.68548,7.22305,4.7945,10.3709,7.04198
7.87117,0.0309187,-2.38987,38.8806,-4.48929,-2.07118,37.6024,-4.70308,-1.9289,36.092,-4.9503,-2.08203,36.0998,-4.92111
1.68967,0.0415277,3.31802,23.8657,-7.54593,2.88555,23.9538,-7.63425,3.94809,23.4914,-7.51065,3.60445,23.9939,-7.56385
5.33817,0.560224,-11.853,14.3849,4.9019,-10.6062,14.733,6.07905,-11.9724,14.026,5.31938,-12.7199,14.5646,5.62766
0.339414,0.0532716,-16.6988,3.24517,-1.38869,-16.915,3.0425,-1.25952,-16.9104,2.99676,-1.24292,-17.0232,3.08549,-1.27558
1.55442,0.00982637,-3.48844,23.6954,-8.00782,-4.31639,23.2173,-7.92545,-4.44836,23.4499,-7.91414,-4.38097,23.586,-7.92272
1.58551,0.0041092,-7.80933,17.8905,-6.8351,-9.11168,18.1259,-6.55557,-9.17622,18.0372,-6.53961,-8.27882,18.2299,-6.74183
2.97885,0.0910945,15.7654,14.532,4.88527,15.7082,13.2668,5.13601,15.8606,13.3312,5.07639,15.6615,14.0529,5.06893
8.58543,0.0428847,-7.36706,11.7685,-6.084,-9.13938,11.1628,-5.58213,-8.40275,10.6826,-5.66398,-8.75439,11.5932,-5.72576
8.34611,0.0858068,8.73149,37.8292,-4.48437,10.6437,38.0695,-4.55951,10.569,38.0255,-4.55162,6.56817,37.6189,-4.21854
1.25283,0.0679651,14.2269,4.20828,-3.22876,15.2232,4.41782,-3.22675,14.7202,4.20299,-3.18293,15.3722,4.33291,-3.11668
27.3273,0.932007,-4.07703,28.1899,7.65584,-2.4032,26.6943,7.56926,-3.1829,26.3225,7.51691,-4.16545,26.1872,7.33267
0.917519,0.0112827,12.9073,26.6364,6.96178,13.3404,26.4786,6.86567,12.9372,26.9971,6.9475,13.095,27.0783,6.91781
19.45,0.173877,5.76854,16.9912,-7.02163,7.56504,18.1257,-6.88766,6.93879,18.3972,-6.99334,7.98644,17.756,-6.81724
14.2856,0.827724,-1.8475,8.17622,-6.15686,-0.59656,7.1162,-5.98232,-0.0262921,8.04654,-6.22281,-0.312724,7.64636,-6.13954
27.8251,0.0507558,12.54,10.0354,-5.58049,13.0621,8.07596,-5.30559,12.3468,7.71816,-5.35724,13.5877,9.12211,-5.33323
10.0989,0.0413767,-5.42155,16.7853,-7.33342,-6.69698,18.118,-7.11209,-7.13098,17.5882,-6.9808,-5.81325,18.0328,-7.33036
10.3322,0.907791,-3.74424,38.7481,-4.59106,-5.7841,37.8811,-4.05547,-5.59783,37.3386,-4.32021,-5.21802,38.5529,-4.48396
0.1886,0.0272186,0.1619,23.188,7.82298,-0.186708,23.1597,7.80596,-0.123952,23.0186,7.78464,-0.188202,23.1135,7.79649
13.7696,0.264367,14.5988,27.2887,-4.94069,13.7251,25.9772,-6.04948,15.9669,27.0749,-4.59011,13.4427,28.5326,-5.52079
5.05506,0.78565,-15.2065,7.22365,4.07882,-15.458,7.8232,4.59998,-16.2717,6.36892,5.31644,-14.6229,7.4277,4.99477
0.161668,0.00188572,9.82961,11.6757,6.63158,9.61207,11.5037,6.55594,9.61396,11.5484,6.56313,9.61396,11.6441,6.57762
6.35485,0.0805588,14.7138,34.9808,5.57621,15.2185,36.4189,5.58527,15.8762,35.3941,5.03641,14.9116,35.973,5.70202
30.3279,0.0470214,17.6629,34.5929,0.192914,18.0868,32.7076,-1.90177,17.0852,36.0457,-3.29418,18.1162,32.8345,0.139469
0.874716,0.0626566,10.1598,39.0396,6.00153,10.5166,39.1989,5.88811,10.0931,39.2701,5.92096,10.1434,38.8491,6.22785
5.12413,0.592562,13.6871,11.3518,4.83827,13.5417,10.4646,5.06928,13.5322,11.7293,5.88817,14.8251,11.3754,5.13955
1.12728,0.0347418,7.8185,31.1237,-6.22217,7.02356,31.4006,-6.329,6.88801,31.3088,-6.34455,6.90985,31.7134,-6.36636
5.4705,0.279604,6.07714,37.6838,-4.15017,5.71645,37.0697,-4.65966,6.50785,37.5685,-4.2195,5.76383,38.7329,-4.69446
6.80787,0.974201,-11.2917,25.4591,6.17578,-13.2961,26.1602,5.52492,-13.2696,25.2457,5.51459,-13.0929,25.8786,5.48941
3.22694,0.841422,-6.61062,32.3037,-5.62326,-7.16391,30.8967,-6.70323,-6.95181,30.8364,-6.77132,-7.0877,30.9001,-6.67689
5.47863,0.0411959,-15.9853,4.85361,5.85773,-14.3302,4.13793,6.54763,-14.9543,4.34978,6.28708,-14.2123,5.00065,6.33977
13.9314,0.0335273,9.36744,5.91677,-5.06005,7.04423,5.23553,-4.97101,6.67871,6.39191,-5.39089,7.24795,5.99133,-5.21165
2.52231,0.313513,16.4039,29.1769,-4.33755,16.1682,30.6601,-4.33886,16.2453,30.7109,-4.28759,16.4484,30.3812,-4.29791
4.36263,0.0805338,-3.12428,2.9106,-2.35135,-3.13266,3.90515,-3.51206,-3.68582,4.24354,-3.52163,-3.60656,4.32004,-3.65085
1.08072,0.0590085,-10.0457,27.952,-6.71294,-9.56303,28.1166,-6.80895,-9.63005,28.2548,-6.82049,-9.64314,27.6632,-6.75888
17.7171,1.14939,-6.60931,32.4475,-5.56328,-7.65062,33.678,-5.83901,-6.34369,33.4359,-6.12804,-3.98006,33.136,-6.41841
0.195727,0.0188518,5.87258,14.3618,-6.66683,5.94178,14.5002,-6.68366,6.08549,14.4548,-6.66322,6.15117,14.543,-6.68536
1.89357,0.140695,-13.0881,2.42156,-0.808818,-12.3341,2.05212,-1.02787,-11.9262,2.30304,-1.28037,-11.9262,2.25916,-1.25872
525.424,0.754302,7.90956,20.3518,-7.03277,0.11575,20.6782,-7.77887,0.301178,24.8197,-7.68269,0.0102152,21.8782,-7.75098
4.69131,0.227311,13.9772,38.3017,5.81106,14.9634,38.3083,5.43394,13.7214,37.436,6.30972,13.7067,38.7183,6.23396
12.0627,0.0644097,-4.96566,26.5676,-7.62654,-3.895,27.7909,-7.64719,-3.39441,27.8233,-7.68122,-3.65193,26.7583,-7.77004
134.42,0.121221,0.528917,14.9825,-6.92165,8.14342,14.925,-6.62758,8.26601,14.0211,-6.4698,8.26214,13.3878,-6.36115
4.83588,1.41322,-10.5539,25.8341,6.19722,-10.8897,23.616,5.96804,-10.6862,23.4665,6.04287,-10.7757,23.5871,5.97479
16.3683,0.368327,5.37846,16.9617,6.74216,4.54664,17.0926,7.29509,5.63253,11.739,6.97786,6.23044,17.1927,6.94382
13.0684,0.22618,-10.3042,16.6381,6.23688,-10.0732,18.3619,6.33163,-11.0057,18.1328,6.17274,-10.7281,18.2539,6.22913
139.158,2.39193,2.28564,19.2608,-7.39741,10.2326,19.4691,-6.75059,10.3976,17.5566,-6.56126,10.309,16.8233,-6.55071
2.9604,0.00504605,-4.8623,18.9666,7.58796,-5.38119,18.4903,7.43918,-6.00721,18.5218,7.27822,-4.89043,18.5114,7.56629
6.94256,0.0230501,-13.4392,13.1083,-4.79898,-13.6868,11.7098,-4.58186,-13.044,12.998,-4.91085,-13.0629,11.9046,-4.82419
28.1534,0.566627,-7.67254,15.0404,6.04719,-7.13694,12.6928,6.42485,-6.73329,16.5506,6.95641,-6.48583,13.2063,6.58994
2.93038,0.549969,8.60154,3.22005,-2.18139,9.0061,4.15117,-3.89965,9.13713,4.3992,-4.15006,9.17217,3.98439,-3.73416
36.2441,0.0268858,-1.94621,3.99287,7.22423,-3.73503,5.86144,7.45263,-3.16383,5.92568,7.46904,-3.64286,3.93901,7.16863
18.7207,0.373046,6.73869,30.1499,-6.01251,5.06097,29.7077,-6.49878,5.10248,29.0815,-6.68448,8.73224,31.2127,-6.12739
126.241,3.5775,0.552723,19.792,8.03025,-3.85746,20.9677,7.8006,-3.71261,19.7275,7.88574,-3.66221,19.087,7.88914
0.0749566,0.00117836,11.5949,26.9725,7.05944,11.4609,26.9789,7.0528,11.4548,27.0195,7.0531,11.5996,27.0199,7.05909
0.0587743,0.00542868,-7.04302,10.2332,-5.84816,-7.08671,10.4107,-5.88664,-7.02942,10.3608,-5.88401,-7.15256,10.415,-5.8779
11.6071,0.0682299,-16.94,30.9341,4.41425,-16.4209,34.3903,4.37644,-16.5777,34.4428,4.38357,-16.7613,33.8124,4.3816
0.104271,0.0108393,-4.81048,37.6918,6.93882,-4.70542,37.5176,6.94231,-4.82792,37.5097,6.95415,-4.69235,37.5901,6.93996
3.86554,0.103815,-2.8318,32.1968,7.35936,-2.24001,33.0365,7.3099,-2.86193,33.1583,7.2783,-2.33986,32.752,7.29704
3.57964,0.0595171,-5.96044,38.7689,6.33359,-6.17346,38.5961,6.44549,-4.22231,38.4002,6.7296,-4.2257,38.309,6.76607
0.338242,0.122916,4.74609,2.99993,-3.27297,4.45024,2.72901,-3.14849,4.46088,2.86701,-3.28117,4.39264,2.74232,-3.15395
318.815,1.24068,6.592,10.6878,-6.13089,2.02335,8.42811,-6.16013,2.11002,9.51203,-6.30971,1.82948,12.9224,-6.66226
0.00645171,0.00422749,-13.5591,14.7008,-4.95542,-13.6483,14.7383,-4.92532,-13.6932,14.7305,-4.90133,-13.5616,14.6564,-4.94831
2.68492,0.134772,-15.7439,13.0666,4.40095,-15.8002,13.6179,4.42738,-15.6187,12.7382,4.62391,-16.2764,12.4977,4.54993
97.2404,0.0246178,6.88877,29.2531,7.45472,2.78534,32.833,7.38009,4.85825,29.6246,7.50673,4.79511,32.3239,7.36074
44.6825,1.89332,-9.98606,10.317,6.4372,-11.8459,10.8181,6.03269,-10.9168,12.6928,5.9604,-10.3015,13.9395,6.11847
0.179107,0.000695361,11.5655,18.193,-6.48891,11.2627,17.9098,-6.54596,11.192,17.9097,-6.55385,11.5549,18.0632,-6.50113
0.130555,0.005934,1.82857,4.51369,-4.93268,1.88903,4.81742,-5.12671,1.81655,4.85234,-5.14607,1.88902,4.72318,-5.0652
4.49022,0.414566,-16.4841,11.1788,4.14245,-16.2157,10.8454,4.72804,-16.7073,12.3369,4.4616,-16.9102,10.9274,4.41317
4.90621,0.0424449,-0.091472,8.76227,-6.41474,-0.651894,9.40401,-6.52261,-0.935824,8.33223,-6.29199,-1.00124,9.09484,-6.46093
0.595499,0.127429,7.34333,7.35962,-5.60432,7.81131,7.05492,-5.49492,7.81292,7.2339,-5.54128,7.81046,7.14405,-5.51765
36.0309,0.236279,15.5185,19.0557,-5.89546,10.921,18.3282,-6.55857,11.3652,19.0567,-6.55217,12.4014,18.0895,-6.39668
4.64911,0.0579791,-12.2388,11.5188,-4.89112,-13.7581,11.3106,-4.47611,-12.9415,10.9147,-4.61244,-12.7255,11.9397,-4.91531
9.80374,0.0427592,-0.611749,21.4932,-7.58842,-0.0281741,19.8772,-7.59411,-1.00135,19.627,-7.54644,-1.01865,19.8977,-7.55584
19.1453,0.0181591,-15.6584,20.5684,-4.95776,-13.5127,21.5051,-5.71755,-13.7213,21.1528,-5.61021,-13.8007,21.6528,-5.65512
7.77169,0.521089,-13.1436,20.8063,5.08477,-13.3137,18.2078,5.38296,-12.8287,18.3644,5.67645,-13.2483,18.1556,5.45385
0.0887703,0.0278669,-3.44985,4.70717,7.31813,-3.57203,4.84274,7.33407,-3.5821,4.76528,7.29492,-3.43756,4.79457,7.33118
0.941421,0.0923853,-7.58585,35.594,6.73623,-8.42575,35.4572,6.48502,-8.57058,35.3289,6.4355,-8.52362,35.1371,6.40097
2.49825,0.0440399,18.2644,29.8471,1.98011,18.2657,30.739,1.82419,18.0844,31.9563,1.76698,18.1588,31.985,1.65334
15.507,0.543352,-12.3558,38.7613,4.71816,-12.8308,37.3492,5.03392,-13.0422,39.0576,5.11948,-10.2931,39.131,5.88275
21.5938,0.482407,-7.5111,12.3409,5.95074,-6.62001,11.7531,6.61425,-8.06958,13.3791,6.28829,-7.35145,9.55063,6.64015
15.8936,0.00731092,-1.04317,10.5022,-6.61617,-0.434798,12.3267,-6.62504,-1.00499,12.1482,-6.65055,-0.119458,10.4952,-6.57694
15.5625,0.111913,5.32297,24.3051,7.72976,5.01095,26.6933,7.65991,4.17248,25.4556,7.78307,5.66157,25.6571,7.72414
39.2844,0.039295,-15.2707,6.15206,-3.06304,-15.4803,10.808,-3.82628,-14.8269,7.71564,-3.42299,-15.1997,11.0286,-3.904
30.5601,1.81589,-14.6368,4.27654,-2.29897,-13.9043,2.10529,-0.311313,-14.1946,1.43319,-0.167107,-12.8826,3.70394,-2.26551
16.9219,0.497705,-10.2173,27.379,5.85085,-8.26366,28.5448,6.90577,-11.3269,27.5654,6.10027,-10.6396,25.8839,6.18272
8.78786,0.0168069,-14.9173,6.02174,-2.94268,-12.3018,6.21362,-3.75108,-12.5037,6.31354,-3.71193,-14.9189,5.39136,-2.78881
0,0.072416,-18.2221,42.7455,2.06446,-18.2459,42.6741,2.08997,-18.2717,42.6452,2.01762,-18.2572,42.656,2.05097
1.30376,0.0253847,5.22955,42.3757,4.56129,5.09787,42.0377,5.00794,5.18169,41.75,5.37965,5.24852,41.7654,5.34339
61.2203,0.0160764,0.865962,14.1636,-6.79549,2.95488,13.131,-6.66309,1.04706,12.5708,-6.63541,0.21696,12.8606,-6.67088
2.99147,0.0606962,15.5652,9.33607,4.18189,16.0261,8.61321,4.19578,16.4846,8.11497,4.04792,16.5478,8.10087,4.00691
35.8892,0.732831,-0.187335,30.5823,-6.44912,3.28343,29.5338,-6.63954,3.04561,30.8369,-6.57212,1.66303,32.1313,-6.71907
4.94074,0.117162,-2.41701,39.7336,-4.33596,-2.74054,41.5748,-3.71416,-2.52936,41.4679,-3.78429,-2.66375,40.839,-4.00592
4.26865,0.103293,-17.4456,21.8618,-4.08874,-18.0629,21.7934,-3.42866,-18.2378,22.0597,-3.28114,-18.2935,21.9651,-3.17852
4.80988,0.375444,-14.6446,8.06885,4.62857,-14.0492,8.91568,5.52119,-14.544,7.56598,4.98319,-15.2068,8.32365,4.84844
3.64585,0.26918,-3.07966,34.457,6.61003,-3.85788,34.3111,6.85562,-1.36427,33.6811,7.09028,-1.36984,33.6346,7.09628
5.9879,0.263919,-9.04627,30.9466,-5.74609,-9.78665,30.862,-6.18635,-7.86917,29.297,-7.09619,-8.76544,31.2541,-5.83284
24.0349,0.073785,-10.9676,38.0711,5.72118,-10.7967,35.8161,5.89414,-7.87836,36.8946,6.54903,-8.69791,35.8404,6.43355
14.2251,0.679995,2.05129,36.4157,6.1403,1.08787,36.8565,6.7828,2.23498,34.2779,7.26447,2.84808,37.1371,6.65603
12.3286,0.0588829,16.9472,32.0645,4.47556,18.0879,31.8025,3.59645,15.5297,32.9335,5.38922,15.6202,31.9188,5.35533
2.07912,0.184161,-13.0247,40.6521,5.33098,-12.8353,40.1374,5.43628,-14.1559,40.5344,5.10727,-14.0885,40.4236,5.09537
3.97174,0.0516848,12.7871,12.848,-5.90497,13.667,13.1194,-5.76566,13.2357,13.5818,-5.87505,13.6725,13.7581,-5.83661
94.6831,0.382066,-4.73647,31.9246,7.36771,-6.10512,35.6982,6.98637,-6.89931,35.2385,6.84539,-7.39191,33.6217,6.68551
16.1438,0.055219,-1.01415,15.2802,-6.96761,-1.15128,12.187,-6.74549,-0.850815,12.1452,-6.62334,-0.760359,12.8333,-6.63572
11.1161,0.404464,-6.79734,22.7805,5.40734,-6.88021,22.3676,5.50331,-8.61365,22.813,6.4365,-4.87395,23.3047,7.04657
5.04907,0.0874829,-13.4912,18.6029,-5.37432,-13.2375,18.0798,-5.53569,-14.5752,19.3334,-5.12297,-13.2172,19.2637,-5.58121
1.57514,0.181371,-11.3801,40.6339,5.64938,-11.0318,39.902,5.80662,-11.1072,39.8135,5.7892,-11.1816,39.7727,5.77637
6.33527,0.101947,-16.6156,16.7575,-4.23354,-16.785,15.1767,-4.00148,-16.5105,14.848,-4.02736,-17.204,15.1473,-3.92849
1.78418,0.364479,-5.59868,36.5633,-5.00908,-5.60522,37.2855,-4.3916,-5.44995,37.1535,-4.62417,-5.51424,37.283,-4.37975
28.1471,1.62653,0.548051,5.77745,-5.39271,-0.87358,4.6476,-4.4926,0.74131,3.57464,-2.8792,1.49029,3.18428,-3.46875
3.57211,0.096922,14.5586,18.3607,-6.08625,15.5398,17.2672,-5.83492,15.6872,17.4082,-5.78103,15.4969,18.2329,-5.84839
52.1223,0.0814005,3.31902,10.3976,7.18645,0.340842,11.0901,7.3893,1.46881,12.6341,7.29312,0.720749,9.98266,7.40215
27.7629,0.0510535,-18.1116,12.7503,-0.687965,-18.1919,12.0485,0.64697,-18.2366,14.2656,-1.43634,-18.4528,13.8936,2.41534
5.69767,0.42457,-1.39335,30.109,-6.27578,-0.741403,30.3294,-6.31614,-1.78806,28.8539,-7.3023,-1.74838,31.3028,-6.79127
30.4177,0.183454,14.4028,24.7631,-6.09356,10.1304,25.5451,-6.71039,7.19012,25.0895,-7.13748,10.2877,25.827,-6.65359
0.135039,0.0182328,-13.966,16.0165,-5.118,-14.0283,15.8514,-5.0598,-14.0305,15.755,-5.04651,-13.9657,15.7504,-5.06404
58.3987,0.453772,9.67858,29.3462,7.21625,7.58513,32.2802,7.20579,7.46669,31.2329,7.33713,8.88449,33.2681,7.13113
26.402,0.122325,-18.4457,24.677,2.66536,-18.7837,25.5226,0.312689,-18.7119,26.4462,1.53746,-18.6432,24.7067,0.571103
12.9109,0.424173,-9.38593,21.2118,5.70164,-9.90378,22.2443,5.97617,-11.2557,20.3423,5.88567,-7.63776,21.0723,6.42905
6.02466,0.010301,-4.41452,40.3855,6.26639,-3.72418,40.0785,6.30191,-6.67866,39.9962,6.15105,-6.38853,40.1655,6.17084
13.282,0.443735,-6.97417,24.746,6.57337,-5.08438,24.6837,7.3524,-7.82145,26.0077,7.14509,-7.30586,23.6581,6.74996
22.118,0.93449,-10.4822,41.5039,-3.39626,-7.97509,36.1653,-4.75271,-8.18743,34.8153,-4.54406,-8.34778,34.8644,-4.49209
2.2836,0.0402482,-8.10045,42.736,1.45871,-8.23742,42.8389,0.841208,-8.65079,42.8031,1.30703,-8.57959,42.8463,0.842826
4.405,1.42605,15.329,7.14395,4.08612,17.6912,6.966,3.56055,17.6862,6.92266,3.58297,17.648,7.10989,3.55983
5.88309,0.0438878,-15.3222,20.0585,-4.94329,-13.8193,19.7974,-5.43816,-15.4644,19.2947,-4.8105,-13.8201,19.8422,-5.44568
1.16401,0.0779729,3.37979,13.7173,-6.71883,4.15801,13.6592,-6.68166,4.02984,14.1123,-6.74849,4.1617,13.8399,-6.70056
0.552361,0.0053461,13.2049,11.7124,-5.70289,12.911,11.3072,-5.65638,12.7144,11.4469,-5.68622,12.8462,11.3089,-5.65925
2.7423,0.0151521,11.8263,28.7893,6.94818,10.591,28.4054,6.70718,10.6128,28.2592,6.70685,12.1176,28.6369,6.97915
18.5397,0.00779399,-13.7331,31.6971,-4.71531,-13.7039,32.3117,-4.60459,-12.6331,33.5571,-4.81576,-12.0241,31.6294,-5.42579
7.00274,0.360308,-8.41405,14.1146,5.91543,-8.08487,14.6568,6.29559,-9.81574,13.781,6.17543,-7.93743,13.4145,6.31994
23.257,0.0361326,-18.7335,29.0229,-0.178663,-18.5903,27.3469,2.41192,-18.6631,27.2985,1.94164,-18.4532,28.4977,2.45312
0.478713,0.00205043,-7.71723,26.864,-7.0678,-8.62281,26.8494,-6.90806,-8.62139,26.941,-6.91022,-7.99368,26.9637,-7.01976
27.9112,0.505188,-15.7325,22.5889,3.99538,-14.2617,22.1904,4.84657,-16.3987,20.0545,4.55862,-16.0723,23.9782,4.3412
8.599,0.243233,-12.8668,23.1702,5.05005,-13.8825,24.3629,5.23629,-10.9556,23.5749,5.94693,-11.5374,23.3739,5.73755
1.00273,0.123832,1.57524,16.5089,7.17179,1.19167,17.0718,7.53812,1.13691,17.3517,7.65811,1.20588,17.3438,7.65723
3.15015,0.44751,3.06369,3.73231,-4.16775,3.00837,5.05836,-5.18555,3.22871,4.88716,-5.08478,2.93166,5.06323,-5.19902
6.8496,0.231953,-7.37318,36.966,6.34761,-7.265,36.2658,6.74319,-6.18668,36.8476,6.83688,-8.34492,37.2405,6.34985
34.6092,0.28657,-16.4058,40.4809,-3.07556,-16.6607,32.4967,-3.81132,-17.0289,34.1465,-3.6011,-16.5237,32.5852,-3.8447
1.25672,0.10034,-3.72447,18.5613,7.8123,-3.34889,18.7925,7.93306,-3.28884,18.2931,7.93719,-3.00145,18.4612,7.95271
27.6386,0.0036162,5.30829,42.8336,2.39276,6.52511,42.7618,3.46067,6.72364,42.6513,4.18017,7.76477,43.2045,1.66541
17.0366,0.487334,9.11072,17.3292,6.27055,8.26763,17.3672,6.83446,10.4627,17.8051,6.70272,9.3822,13.9822,6.38794
1.58573,0.16072,-15.2957,33.0934,4.40084,-14.588,33.1475,4.75053,-15.5224,32.7414,4.48267,-15.4272,33.3238,4.55143
7.86203,0.587772,10.7721,2.15468,-1.20607,10.5232,3.50126,-2.69076,9.61072,1.01567,-1.84397,11.7358,1.93885,-1.38598
8.80856,0.172778,0.571394,28.6028,7.57028,0.099433,30.5891,7.47314,0.0934644,30.5442,7.47002,1.69969,29.1874,7.5254
9.82253,0.600857,-1.79894,36.4946,6.90102,-1.1447,34.1723,7.18073,-1.57219,34.1142,7.10299,-1.63386,34.152,7.10055
13.4336,0.207839,11.3472,28.3428,-5.85518,12.412,29.2089,-5.41002,13.4833,27.7919,-5.52196,11.6408,29.7182,-5.50647
9.8547,0.334226,-3.6739,36.2901,-4.69309,-3.8557,37.9895,-4.79821,-2.41183,36.6144,-4.89467,-4.00339,37.6604,-4.85645
2.32439,0.099864,-6.92826,31.5396,6.89785,-8.68177,31.8232,6.0156,-8.60024,31.7659,6.0722,-7.69503,31.7237,6.56311
1.95457,0.2237,-0.172182,24.5124,-7.62712,-0.426189,23.4582,-7.6383,-0.0722378,23.5852,-7.6891,-0.208436,23.592,-7.65292
8.93095,1.02486,10.3636,32.7484,-5.80018,9.89163,29.4835,-5.76266,10.0551,29.4904,-5.69077,9.98149,29.445,-5.70409
0.0969302,0.00358857,-5.68185,15.0847,7.00481,-5.82047,15.2331,7.01402,-5.67902,15.1748,7.02299,-5.81989,15.0922,6.99195
54.9076,0.65536,-18.6414,35.1767,0.348397,-18.2872,38.6617,-0.39304,-17.948,39.354,3.41475,-17.7963,37.9017,3.96208
10.7302,0.29341,-10.4269,30.4048,5.88961,-11.2634,32.0012,5.82105,-10.8908,29.371,6.18092,-8.93646,30.5028,6.56039
4.7424,0.282649,-4.75524,35.361,-4.5034,-4.26392,35.247,-4.60769,-5.39084,36.5089,-5.01134,-4.95937,34.7988,-4.9353
13.0664,0.273492,10.9389,39.2255,5.84684,12.5217,40.1532,6.00643,11.8348,40.3787,5.65366,12.6232,39.3173,6.25153
6.74327,0.402271,-1.9256,39.8668,5.68924,-0.8827,39.5318,6.14942,-0.645081,40.207,6.02122,-3.1763,40.0096,6.08549
0.390189,0.211488,-10.2682,4.08047,7.23587,-9.89498,4.15402,7.25156,-9.88913,4.24228,7.24698,-9.8952,4.29464,7.25021
2.93357,0.490609,17.2015,3.28252,0.677258,17.5308,3.75426,0.229185,18.1356,1.63897,1.5117,17.8676,4.25433,1.08103
31.5304,0.0492261,-1.78187,4.57998,7.35,0.0764266,5.40304,7.53293,0.784698,4.04256,7.32887,-0.829957,5.44557,7.49697
1.01073,0.00378223,8.07304,15.3779,-6.69038,8.28876,15.5598,-6.6751,8.7956,15.7387,-6.6333,8.85994,15.6012,-6.61843
35.0561,0.109807,-15.5901,35.7593,-3.79048,-13.396,37.0789,-4.03288,-13.2287,35.8998,-4.21575,-15.1415,39.1068,-3.51321
31.6974,0.00612756,-3.92454,16.6839,7.64624,-6.33648,14.5719,6.8636,-6.34705,17.0766,7.17335,-6.09821,16.6543,7.17499
19.9519,0.096444,13.6825,17.7173,-6.22255,14.1523,15.889,-6.08687,15.3095,16.7135,-5.88504,13.6441,16.6413,-6.15287
43.2374,1.22137,-14.2253,8.2357,5.18679,-13.1941,5.76762,6.42071,-12.784,7.35237,6.04015,-13.2594,10.5231,5.81451
43.0793,0.0197936,2.99273,35.6155,7.02377,6.01385,33.0406,7.29018,4.59051,32.4264,7.3358,5.54432,34.8923,7.12336
0.0396282,0.11376,12.9828,20.9746,-6.40735,12.9832,21.1155,-6.40175,13.1266,21.1135,-6.38728,13.0525,21.1074,-6.38576
10.1202,0.0529476,-3.55852,15.7972,7.52201,-4.05167,14.1363,7.04419,-4.9267,14.8186,7.05044,-4.48612,13.9786,6.91692
2.9957,0.740843,-17.605,23.44,-4.17763,-18.2242,23.3645,-3.2586,-18.2991,23.16,-3.15167,-18.3572,23.0342,-3.12391
3.89557,0.0695712,17.542,3.73615,-0.192563,17.3358,5.07146,-1.43872,17.052,4.03861,-1.4054,17.1066,4.70749,-1.74068
0.119668,0.00696156,8.73349,9.34641,-5.86313,8.61867,9.43571,-5.884,8.54369,9.34237,-5.89018,8.54716,9.38913,-5.8907
2.13545,0.00375582,15.9853,6.09749,-3.82495,15.9301,5.47486,-3.50292,16.2599,4.04446,-2.30797,16.1379,3.64008,-2.19101
27.1805,1.93976,-16.8472,25.6705,-4.74418,-15.827,27.9415,-5.23331,-15.9041,27.9935,-5.20688,-13.4738,26.2261,-5.83589
30.7093,0.0270192,-16.1404,16.6408,-4.39299,-15.8004,19.7658,-4.7573,-16.7581,19.8219,-4.38884,-16.7468,17.2193,-4.22403
5.64024,0.650671,-18.6559,34.8431,-0.282886,-18.4229,32.8249,-0.408144,-18.464,32.7452,-0.497512,-18.4826,33.0901,-0.82879
26.5533,0.000718741,1.93925,25.1616,-7.66793,4.99956,25.5185,-7.32206,4.63926,25.3309,-7.38148,3.96332,26.1289,-7.34583
18.2496,0.560666,0.763862,40.6105,5.15384,1.18604,38.9203,6.30014,0.958301,41.5162,5.44468,-0.436079,38.7678,6.357
2.70074,0.0844521,17.5575,34.6952,0.900491,17.5848,34.9609,1.01346,17.6891,34.5289,0.437614,17.9699,33.1656,0.931916
0.132816,0.00592181,-9.61472,14.8273,6.35999,-9.89808,14.9258,6.28191,-9.67472,14.9161,6.34352,-9.83545,14.8388,6.29308
55.5294,0.0158414,-12.4494,11.115,-4.77509,-10.0939,12.8277,-5.62192,-10.04,11.786,-5.47901,-10.9458,10.8767,-5.12214
8.24355,0.0107689,-11.8286,31.5707,-5.48605,-11.5837,33.8913,-4.972,-9.99294,32.1156,-5.73818,-11.6291,34.3214,-4.85605
3.71741,0.155842,10.5457,32.9244,6.54307,9.81947,32.1245,7.10031,11.2501,32.7955,6.63245,10.428,33.2031,6.63649
44.8154,0.367973,4.06583,7.14879,-5.73377,7.66716,6.96842,-5.48499,8.52228,8.03061,-5.7124,8.66598,8.56452,-5.81419
29.2409,0.12913,4.29166,26.3631,7.75383,1.81029,25.0692,7.82663,1.26243,25.6446,7.76801,1.7726,26.2122,7.76352
8.38699,0.262553,-3.26311,30.915,-6.36109,-3.68872,33.3242,-6.34096,-3.38068,32.6106,-6.4626,-3.13781,33.2056,-6.46036
0.301148,0.0286818,6.25688,8.88267,6.72042,6.6762,9.07713,6.63619,6.67791,9.04685,6.63509,6.56837,9.07591,6.65176
0.981241,0.0921748,15.7403,23.8056,-5.80057,16.6773,24.7347,-5.16086,16.7319,24.5245,-5.13959,16.5154,24.3078,-5.31385
2.73204,0.0126238,7.70468,40.4893,5.69153,6.34405,40.0633,5.4145,7.98427,40.4278,5.76951,6.48929,39.914,5.45257
12.7958,0.0968977,-16.9445,25.9722,-4.72081,-18.4014,25.2852,-3.19178,-17.5537,25.3754,-4.17367,-18.3026,25.7694,-3.29721
9.87882,0.017751,14.1283,2.58333,-2.44435,14.7404,3.36433,-2.7916,14.0211,4.20819,-3.25031,13.8065,4.07784,-3.19409
15.779,0.0377103,-14.8892,35.6316,4.82609,-15.0738,33.3579,4.59204,-13.919,35.2118,5.01083,-14.9345,33.256,4.62149
18.3492,0.00614384,13.6543,8.71349,-5.26361,14.0385,9.93561,-5.37794,15.1633,8.75681,-5.01216,14.5293,9.89162,-5.28943
2.81484,0.461593,9.23135,21.3417,6.44797,9.79286,20.0774,7.05328,9.72445,20.0356,7.09181,10.1466,20.0624,7.07956
6.69304,0.15719,4.7272,43.1249,-0.304773,4.7671,42.9316,1.86391,5.0298,42.9174,1.95009,5.23673,42.8586,2.31113
2.06726,0.161988,4.98386,34.7134,-5.85036,4.15664,34.7522,-5.61917,3.43834,35.0182,-5.10998,3.43301,34.9636,-5.13837
0.989683,0.30449,12.4136,29.2541,-5.42015,13.3196,29.0919,-5.49145,13.3296,29.2335,-5.4574,13.3993,29.1389,-5.45567
34.3518,0.19614,-1.94101,21.7075,7.02717,1.26142,22.7282,7.41534,0.963853,22.4245,7.40922,-2.57219,23.1535,7.0947
4.96075,0.134308,16.8486,33.6944,4.14363,16.7174,34.1725,4.38759,16.8798,32.9768,4.53663,17.6178,33.6978,3.39169
10.2169,0.0856889,-1.58168,7.35158,7.18903,0.381756,7.16544,7.34967,-2.50456,6.98633,7.36008,0.804745,7.60112,7.24281
9.71932,0.03422,-13.243,17.446,-5.42125,-14.4782,17.8198,-5.12064,-14.1531,16.6279,-5.06591,-14.6977,17.0616,-4.97964
2.06631,0.75948,-3.30518,35.1019,6.83548,-3.86654,35.7739,6.88923,-4.0857,35.5529,6.99258,-3.7032,36.037,6.9474
0.124931,0.0148823,4.21596,40.3086,-4.49812,4.34525,40.2136,-4.50984,4.21527,40.1685,-4.51485,4.34779,40.1628,-4.52155
13.466,3.74026,12.2726,36.3591,-4.71831,8.14253,36.3046,-4.93965,8.2129,36.0885,-4.81669,8.19265,35.6064,-4.98413
16.6605,0.114269,0.781265,18.9591,8.03407,-0.459359,17.5608,7.84824,-0.253311,18.8273,8.16771,0.8069,17.6359,7.80693
6.77266,0.0155262,-7.44208,15.6025,-6.71788,-10.5444,15.3715,-5.92384,-11.4979,15.6398,-5.738,-10.0617,15.308,-6.03141
60.0619,0.199715,-16.6476,14.7631,-3.98132,-16.1961,9.33761,-3.52172,-15.9435,9.37821,-3.58956,-16.7146,9.76572,-3.4173
16.7795,0.056908,14.1019,41.675,4.50724,13.9713,41.514,5.19691,16.9474,41.2407,3.76478,17.5687,41.2318,3.20127
30.6702,0.0914022,0.32282,15.7076,-7.042,3.14137,15.8851,-7.06829,2.81119,17.2954,-7.23826,0.642451,17.07,-7.13567
0.0132222,0.000122762,15.8471,4.98929,5.73949,15.8531,5.06337,5.73964,15.7958,5.01131,5.74644,15.8054,5.0577,5.7457
56.7227,0.0858084,0.605757,6.6111,-5.76684,2.24804,12.2845,-6.56351,1.45789,12.0647,-6.58246,1.26078,12.2928,-6.62783
6.66492,0.534247,-12.51,22.3847,4.32896,-13.0642,20.8012,5.06475,-13.3469,22.5604,4.8951,-12.1487,22.4437,4.84064
31.8576,0.29041,-3.65589,6.13292,7.42231,-4.14153,3.55229,7.07252,-4.72714,4.077,7.21974,-4.26583,3.73809,7.12281
2.96971,0.21811,2.48936,37.8588,-4.69761,2.33311,39.2686,-4.51756,2.50112,39.2688,-4.48447,2.56844,39.0771,-4.53155
8.79751,0.393189,-12.0853,27.8796,5.88411,-11.7657,30.2866,5.88547,-11.8316,30.2892,5.86923,-11.4192,30.0854,6.00877
2.84179,0.02477,-17.5124,29.7268,-3.98454,-17.6341,29.3736,-3.90336,-18.0844,29.3345,-3.43293,-18.0153,29.9562,-3.48709
7.95268,0.186215,14.1852,3.4317,5.71361,11.698,3.67271,6.10397,11.4972,4.28844,6.26212,12.8369,4.23907,6.17429
8.67016,0.114251,-11.5452,16.865,-5.86566,-11.8062,17.7805,-5.93142,-12.6286,17.8183,-5.67839,-12.8659,17.1459,-5.58543
26.7864,0.850931,-8.99674,33.4446,6.10298,-7.90591,34.8388,6.49932,-8.6106,34.6113,6.05681,-10.47,35.2979,5.94392
5.34414,0.323684,9.1141,12.8329,-6.26192,8.63154,14.1084,-6.43354,8.56318,14.0633,-6.42379,8.33764,13.7489,-6.40089
0.362894,0.310229,14.2704,7.48208,-5.03119,13.7792,7.22748,-5.01562,13.7224,7.37966,-5.0611,13.7706,7.17278,-5.02171
0.185327,0.00317947,-17.6037,41.0702,4.301,-17.5517,41.078,4.37944,-17.5633,41.4542,4.27167,-17.614,41.3483,4.22446
8.72722,0.260244,11.6508,3.74386,-2.81939,11.1459,3.61195,-2.83959,11.3737,5.77385,-4.72784,12.1692,3.29694,-3.04217
6.22989,0.360232,13.6214,31.0722,-4.38604,14.8461,31.1067,-4.26551,13.534,30.3331,-5.11472,14.8527,31.1528,-4.24537
6.40786,0.0164486,5.08935,42.5855,3.87833,5.36548,42.8089,2.76517,4.88795,42.7641,3.04001,4.47889,42.8372,2.6875
6.46439,0.513767,-3.68309,4.3653,-3.65213,-4.49084,6.20192,-5.2502,-4.19935,6.06812,-5.20246,-4.49108,6.42058,-5.37941
0.197002,0.00777931,-2.24162,16.1915,-7.67659,-1.74393,16.276,-7.65663,-1.8195,16.1874,-7.65268,-2.02661,16.2716,-7.67713
52.5637,0.160551,9.52237,9.77407,6.45167,11.9531,10.0178,6.245,9.43524,13.7051,6.39498,8.40914,11.3335,6.68469
82.8384,0.134047,-2.67929,21.1233,-8.05929,-4.69535,22.133,-7.8361,-7.6629,21.7477,-7.21419,-7.88735,20.9336,-7.12864
8.95217,0.0244491,-11.3017,27.6826,-6.43016,-13.1515,28.5786,-6.10947,-12.0621,27.5768,-6.26375,-13.01,28.759,-6.16193
147.451,5.11254,11.9585,8.01149,6.24738,7.57869,11.6481,6.72746,5.54457,7.09223,6.75579,6.62634,9.41249,6.60124
11.3534,0.0579225,16.7807,8.87341,3.65833,16.6435,10.9015,3.31601,17.1442,10.6894,2.76129,16.6691,7.48322,3.98511
4.60112,0.176512,-1.29807,33.6348,7.10881,0.482813,32.9919,7.38267,0.543671,32.7605,7.38634,1.95552,32.9627,7.46211
2.47171,0.0735478,-10.6323,37.8688,5.80558,-10.055,38.2509,5.91499,-10.1307,38.5155,5.844,-10.6806,38.3299,5.77494
15.3344,0.0721661,12.2649,15.4412,-6.26601,9.42085,15.325,-6.54159,9.23055,16.1919,-6.61362,9.02814,16.6051,-6.65623
7.7622,0.181446,-14.7908,6.79921,5.04388,-13.9278,5.07523,6.37953,-13.8788,4.62405,6.5162,-14.4867,7.01574,5.18436
120.456,0.463881,6.5642,29.13,-6.10422,10.9071,28.0063,-6.03916,7.22936,26.2078,-7.00618,9.71147,29.981,-5.88193
3.2476,0.220877,4.51363,9.12303,-6.09488,4.70565,8.39369,-5.99436,4.06594,8.08425,-6.01242,4.29609,8.26912,-5.99441
8.68627,0.128392,9.28775,35.6743,6.89652,9.31736,36.4451,6.99407,8.60366,34.5627,7.08581,10.2653,35.7144,6.99898
34.7887,0.607008,-1.8637,13.7555,6.69612,-1.06897,12.2551,7.31621,-2.80269,13.9831,7.23822,0.843013,17.0417,7.63836
9.46371,0.277161,9.28365,22.2566,6.21128,10.5569,24.3816,6.98914,8.56606,21.9704,6.29077,9.23303,21.386,6.41934
2.99227,0.0820184,3.01665,8.17617,6.96828,3.74806,9.05298,7.0617,3.45452,8.70276,7.05722,3.32874,7.56706,7.01918
109.104,0.96013,-5.65034,42.3609,4.31778,-9.41623,42.4261,3.68947,-9.34291,42.7328,1.80757,-9.34338,42.4921,3.38728
4.22961,0.279423,15.34,19.159,4.04004,17.5156,19.692,4.16609,15.3131,18.9601,4.28482,15.2943,19.3197,4.84359
3.81119,0.1642,-5.73315,4.28666,-3.47927,-5.92442,3.54301,-3.03672,-5.89477,4.47792,-3.84786,-4.2902,4.3888,-3.91358
7.48498,0.606794,-8.95354,31.839,5.71748,-9.24858,32.8056,6.11864,-9.1654,33.3068,6.11027,-9.39852,31.169,6.31681
5.76292,0.0609139,-8.86265,41.8499,5.33336,-7.63124,42.1437,5.00694,-9.67659,42.0449,4.88716,-9.13818,42.1665,4.69188
24.9274,0.958062,-3.97255,20.1063,7.80921,-5.07864,17.3798,7.48853,-4.59636,17.4467,7.63347,-3.69461,17.1739,7.74225
0.222478,0.109052,6.31517,30.7478,7.47876,6.19449,30.568,7.45427,6.3958,30.5956,7.44645,6.25633,30.567,7.43984
9.25745,0.0411579,2.43444,17.8281,7.79821,3.56316,18.4157,7.82377,3.67847,17.8626,7.65578,4.54139,18.5022,7.76247
0.074825,0.0358824,-18.6002,15.7012,0.483022,-18.5913,15.7144,0.785972,-18.6037,15.6673,0.65837,-18.6036,15.7898,0.787657
1.51116,0.0620781,3.98798,37.4433,6.82942,2.906,37.0031,6.66609,2.84217,37.1853,6.66424,3.28889,37.5197,6.76622
1.39359,0.313927,6.56001,0.791899,-1.9919,5.74397,0.944431,-1.96419,5.20527,1.10111,-2.32212,5.27481,1.14677,-2.34784
45.2237,0.00108767,-12.5844,26.2418,-6.04173,-14.6742,27.5563,-5.6259,-13.3486,28.7233,-6.07665,-14.3811,28.635,-5.80197
4.23495,0.0581001,-4.55794,18.6239,-7.6012,-5.18582,18.549,-7.56619,-3.65617,18.9086,-7.79564,-3.66268,18.3586,-7.79142
6.75699,0.0573947,14.0109,28.648,6.77182,12.162,28.3598,6.97783,12.5004,28.8806,6.9107,12.9818,28.1389,6.94189
34.0435,0.473517,-11.4512,22.1927,4.71943,-12.017,22.5429,4.93298,-11.5464,20.0389,5.50393,-8.6836,22.8583,6.44448
11.7092,1.01372,-15.6278,14.6561,4.13307,-14.3607,14.1389,4.96325,-15.6469,13.656,4.44348,-13.5021,14.5095,5.468
4.91662,0.334389,2.1579,41.3153,-4.1166,2.5217,39.5473,-4.46582,2.33823,39.3185,-4.49837,2.49942,39.3138,-4.47683
0.354321,0.0289426,-2.31233,28.4216,-7.57197,-2.47232,28.087,-7.65841,-2.54159,28.0896,-7.65485,-2.60953,28.1843,-7.63372
7.15781,0.575387,5.99939,32.7424,-5.66091,5.42526,33.8989,-6.08437,5.60773,31.5435,-6.47648,6.68698,31.8645,-6.3523
39.0407,0.142996,7.20045,21.4311,7.56027,4.18435,22.3511,7.7186,7.42595,20.1422,7.56408,4.10691,20.8956,7.93546
15.2099,0.435107,10.4587,3.94945,-2.79924,10.1095,5.70721,-4.69914,10.0875,6.13918,-5.01952,9.80343,2.8247,-2.64907
2.37481,0.046807,3.77899,24.2855,7.79725,2.92333,24.0154,7.54786,4.20109,24.3127,7.82555,4.87156,23.6896,7.80721
71.0982,0.0123247,-18.5292,14.8506,1.30152,-18.476,17.4697,-2.05337,-18.6057,16.9059,0.388051,-18.4189,15.8766,-1.45481
3.47134,0.0619795,-10.3173,40.0916,5.96179,-10.4962,39.3703,5.87088,-10.8598,40.3975,5.82366,-10.8343,39.5696,5.82385
21.7698,0.0768716,11.5641,21.0286,-6.58322,11.4572,22.3126,-6.62068,13.3663,21.7634,-6.35195,13.0977,22.175,-6.37498
2.79221,0.365891,5.28179,8.87941,-6.0678,6.15477,10.2813,-6.13729,5.87609,10.1067,-6.09693,5.59129,10.1532,-6.14471
0.00884565,0.0312993,-1.77485,23.7871,7.61655,-1.72025,23.7272,7.61655,-1.69276,23.727,7.6148,-1.60357,23.7825,7.63975
10.7318,0.0685505,-5.37839,6.98649,6.76083,-2.79268,6.818,7.3775,-4.41958,6.48643,7.23089,-6.23681,7.98492,6.24034
0.968212,0.0603628,-6.48807,38.5884,-4.3975,-6.18828,38.4072,-4.31591,-5.93049,38.0024,-4.15727,-5.76551,37.9693,-4.08469
4.12385,0.184893,14.4418,2.20762,-1.90619,14.0598,2.45155,-2.36649,14.0886,1.26326,-1.7062,15.6983,2.21259,-1.76762
6.09062,0.0535431,14.691,15.3079,-5.89423,12.3564,15.8019,-6.3065,12.2638,15.7585,-6.31312,13.0611,15.8901,-6.22702
0.297953,0.0210132,-0.771895,5.49833,-5.17582,-1.13849,5.67809,-5.30071,-0.992743,5.72474,-5.33865,-1.13344,5.71603,-5.32588
0.129183,0.014338,-18.5561,17.3697,-1.17233,-18.5719,17.5279,-1.16329,-18.5749,17.47,-1.05565,-18.5699,17.5134,-1.22343
19.1807,0.0244664,-16.068,31.7116,4.47494,-14.4849,29.3369,5.07745,-14.3453,29.3299,5.10284,-15.4462,32.7373,4.47974
5.07135,0.325817,16.3539,26.8897,-4.20663,16.406,29.1166,-4.34404,17.0936,26.5883,-4.33474,16.0765,26.792,-4.64929
2.99634,0.0405491,-18.6659,34.7374,0.230628,-18.5403,34.5536,1.84123,-18.5311,34.759,1.99126,-18.5889,34.5321,0.935318
0.877044,0.0217151,12.3729,6.29932,6.39503,13.1345,6.26591,6.31555,12.3251,5.86309,6.41522,13.0164,6.49693,6.30468
9.33943,0.382386,-12.1842,38.5637,-3.43051,-12.8335,38.8139,-3.74835,-10.4695,40.1659,-3.735,-11.6331,37.0068,-4.0281
8.09874,0.396134,9.65675,40.0856,5.20686,9.76264,39.6164,5.78376,10.8529,42.1104,4.9587,8.9386,39.84,5.69866
1.17186,0.22353,-7.9862,40.4407,5.70623,-7.95224,41.0254,5.98309,-8.01938,41.0731,5.96432,-8.10048,40.9854,5.93388
41.6632,0.501508,1.68677,28.7752,7.55859,4.303,27.6858,7.70714,3.67869,26.5293,7.7461,4.48824,28.3262,7.65414
5.30637,0.121897,3.6923,2.19654,-2.25309,3.24787,1.96967,-2.30377,4.39324,2.70004,-3.13079,2.79677,2.118,-2.796
86.5714,0.0281602,-1.51712,27.8883,7.33271,-0.831193,22.9188,7.70768,0.208776,24.234,7.91168,-2.40547,23.5954,7.30225
0.72921,0.032721,-12.4855,30.0076,5.67606,-12.8933,30.3047,5.46678,-12.8794,30.5784,5.42754,-12.8045,30.5743,5.46424
133.414,0.09695,-12.3202,16.2964,-5.71175,-3.27475,17.2985,-7.78473,-2.59087,16.154,-7.66323,-8.1618,17.3097,-6.73926
3.51357,0.516542,-14.8754,27.1657,4.7862,-15.6406,25.8281,4.73517,-15.4208,25.7731,4.76374,-15.3448,25.8136,4.79337
3.88278,0.143952,-14.4041,30.5255,-4.9682,-13.1191,29.4148,-6.02643,-13.1909,29.4219,-5.9919,-14.8982,30.6393,-4.87552
10.4008,0.0225253,-0.875972,19.5813,-7.50288,-1.05409,17.8153,-7.29277,-0.98089,17.2309,-7.17016,-0.832165,17.2783,-7.12733
3.50478,0.476974,14.7879,31.2452,-4.25845,16.9494,31.1719,-3.81426,16.9392,30.9226,-3.9349,17.0644,31.0206,-3.8284
2.43054,0.0327158,-1.01146,10.4731,7.34082,-1.24264,11.6685,7.35018,-0.967149,11.4298,7.34569,-1.11194,11.3448,7.33994
0.147306,0.0143317,-6.16515,39.6022,-4.31806,-6.09519,39.5092,-4.35011,-6.27523,39.5333,-4.32547,-6.16936,39.4633,-4.34528
3.33562,0.134083,8.97966,24.8613,7.30024,7.5624,24.6545,7.46326,7.71418,24.8302,7.40503,7.70439,24.4062,7.47859
196.363,0.0272246,-4.8251,8.24003,6.87272,-6.41635,13.0196,6.59399,-3.00665,8.19729,7.2338,-2.96201,13.6263,7.22519
4.39659,0.309794,3.86312,31.0687,-6.10828,4.46719,30.2996,-6.26053,4.51118,31.9421,-6.34695,3.26737,31.021,-6.53972
4.18648,0.127928,7.24683,32.9172,-5.93446,8.93592,33.0191,-6.01299,6.28524,32.683,-5.71241,8.72783,33.1677,-5.96197
3.60483,0.309332,17.8096,32.5681,0.609641,17.973,33.0752,0.856395,18.4537,31.585,0.856244,18.1989,32.3501,-0.163044
0.0523305,0.00865974,-9.84795,35.4372,6.14036,-9.90787,35.3587,6.10654,-9.95952,35.3647,6.08407,-9.9657,35.46,6.1007
0.36004,0.343564,11.8252,30.2502,6.98946,11.7338,30.6155,6.94883,11.8444,30.618,6.92828,11.6302,30.6242,6.98713
17.3375,2.41298,-12.9834,6.03299,6.43236,-10.2589,5.72298,7.09731,-9.96201,6.06856,7.04282,-9.81211,6.2477,7.02144
75.4082,1.97226,-14.0002,9.54457,-3.90535,-11.3354,8.27801,-4.54591,-13.6283,6.83967,-3.68429,-10.559,8.70254,-4.76243
0.437248,0.0176416,6.6697,22.0958,7.6224,6.2568,22.3929,7.69907,6.19835,22.3461,7.70774,6.40613,22.1108,7.65555
2.33532,0.149372,6.12529,39.6629,5.35876,5.79616,38.6126,5.97245,6.42169,40.0139,5.41265,5.86928,38.6098,5.98737
0.0384071,0.0146384,-13.6621,13.3854,-4.77324,-13.7237,13.3423,-4.75282,-13.6644,13.2168,-4.74419,-13.7157,13.2347,-4.72777
0.325794,0.0692048,9.08595,18.4217,7.16622,8.80839,18.5296,7.1972,8.66449,18.3528,7.1616,8.73111,18.3918,7.16134
0.161168,0.0410651,18.0199,4.40376,1.20265,17.9876,4.42632,1.08491,18.2779,4.79623,1.18618,18.2784,4.80013,1.32179
0.870855,0.0226228,12.0092,8.94467,-5.56322,11.2931,8.85849,-5.6464,10.9418,9.08855,-5.70681,11.3713,8.77207,-5.63186
7.47676,1.47183,-14.1416,18.7512,5.27689,-13.7931,20.1962,5.22943,-14.2156,20.2645,5.13986,-14.5697,20.3229,5.04989
29.6843,0.0430315,-1.55453,29.7122,7.52583,0.257322,28.1596,7.59978,-0.507309,28.29,7.57519,-0.110812,30.4616,7.4821
0.340358,0.0337998,-3.96928,25.467,-7.86863,-4.05257,25.0959,-7.89483,-4.19753,25.1498,-7.86828,-4.184,25.2401,-7.85273
3.34417,0.0366333,-8.6952,29.1365,-7.01918,-8.52346,27.9885,-6.9712,-9.15396,27.8728,-6.87116,-8.95475,28.0524,-6.9074
3.81057,0.0653878,11.8634,34.0023,6.53087,11.8992,32.9946,6.52814,12.5923,34.428,6.4711,11.7422,34.3708,6.64594
0.0787843,0.01017,-7.68349,7.27941,-5.19192,-7.62809,7.40043,-5.22361,-7.68684,7.40657,-5.21632,-7.54226,7.22615,-5.21536
10.9214,0.370667,1.08286,37.0478,-4.66845,-0.0991233,37.0089,-5.1333,1.89138,38.874,-4.77068,2.14575,36.3435,-5.04725
38.8404,0.0784703,15.1553,10.5334,-5.21908,11.3623,11.5947,-5.8161,10.994,11.2348,-5.82001,11.0699,11.0987,-5.79815
2.12986,0.00965625,-16.2503,7.32818,-3.4274,-15.81,7.99778,-3.55134,-16.1494,8.46598,-3.51739,-15.8714,8.40981,-3.56315
6.50451,2.25049,8.38928,34.4828,7.0723,8.06409,32.2114,7.11058,8.21887,32.2064,7.08689,8.69028,32.2254,7.22581
3.58865,0.0511318,-6.32448,10.9203,-6.13007,-6.86061,11.8451,-6.1376,-6.73656,12.0084,-6.21627,-6.18477,11.7691,-6.32778
1.97471,0.0449555,-7.03877,8.88351,-5.56993,-7.46308,8.52962,-5.48431,-6.83929,8.50765,-5.58722,-6.55433,9.22004,-5.75536
0.316113,0.0584031,-11.34,9.56355,-4.73764,-11.4379,9.53143,-4.69102,-11.3067,9.27146,-4.69141,-11.5179,9.5584,-4.69804
4.51279,0.225278,-9.25887,34.9164,-4.51522,-9.89816,35.2026,-4.58163,-8.76247,35.3331,-4.51756,-9.02697,33.834,-5.51573
0.561333,0.00373374,-3.59573,7.77238,-5.94752,-3.24678,8.07462,-6.06193,-3.16646,7.98222,-6.04423,-3.39067,7.81032,-5.97914
1.66739,0.0256424,8.23658,7.00415,-5.45439,8.59377,7.8965,-5.68855,8.86567,7.88509,-5.72722,8.66047,7.93779,-5.70823
22.6147,0.135699,-0.893919,21.6355,-7.59628,-0.433091,23.0942,-7.61472,-0.854465,23.7833,-7.6968,-2.48576,21.3336,-8.08554
8.45279,0.0113793,0.327195,4.97867,7.47143,1.88249,5.22222,7.52341,1.14868,4.48096,7.40994,1.06733,5.67327,7.58938
1.39615,0.469929,13.7861,42.6283,4.47191,14.0032,41.7695,4.49218,13.9354,41.729,4.65667,13.9072,41.8025,4.57077
16.7075,0.145591,-18.262,22.138,2.27074,-18.2441,18.7775,2.70332,-18.0707,20.5378,3.24567,-18.2821,19.5078,2.12841
13.3259,0.486164,-6.05373,29.6562,-6.52445,-6.93674,27.7969,-7.2046,-6.49942,30.1667,-6.92897,-4.6127,29.8965,-7.05606
8.462,0.294665,14.8959,7.21693,4.13441,15.1973,7.12242,4.13124,15.0316,6.44476,5.56452,15.008,8.84573,5.06702
49.5641,0.546328,1.88553,26.9922,-7.40519,-0.34373,25.91,-7.48757,-1.10218,26.5183,-7.50867,-1.10459,27.7376,-7.25943
7.30451,0.729841,11.0595,6.41002,6.5103,12.835,4.40446,6.2069,12.9923,5.47686,6.34318,13.1949,5.80513,6.32152
3.74685,0.0192248,-3.92038,39.7326,-4.52621,-5.61285,39.3591,-4.42657,-5.54958,39.1651,-4.4603,-4.97168,39.7151,-4.44149
1.41028,0.0745543,10.6408,24.3718,7.00664,11.0894,25.033,7.13607,10.9412,24.9497,7.11499,11.2269,25.0261,7.15765
1.09068,0.0198137,2.75498,11.8401,7.29837,2.54256,11.7139,7.32462,2.63243,12.1651,7.32751,3.24069,11.5889,7.29592
29.9849,0.788964,-12.2186,12.4281,4.76072,-11.0562,12.8819,5.90822,-11.8926,13.9283,5.39091,-12.6758,9.53473,6.09827
1.98229,0.0843526,-14.4955,4.93457,-2.68063,-15,5.303,-2.77365,-14.8428,5.39043,-2.79484,-13.9481,4.68297,-2.77452
7.6908,0.155505,13.0373,37.1219,-4.10634,12.9679,39.1575,-4.3332,12.2564,39.3668,-4.36578,13.1034,35.0153,-3.54943
2.90547,0.120188,-12.7655,13.5244,-5.09075,-11.881,13.5746,-5.36168,-12.2145,13.7736,-5.24459,-11.8182,13.3012,-5.34554
25.0709,0.215616,8.27146,3.80212,6.54376,9.1004,5.50131,6.6941,8.60779,5.20891,6.75595,9.99526,4.99899,6.5505
0.744226,0.0563228,15.3927,11.4568,4.97802,14.7783,11.4764,5.18135,14.9915,11.5822,5.22711,14.8108,11.524,5.21376
1.59916,0.115573,11.8329,40.4223,5.6447,12.9347,41.3782,5.61017,12.5958,41.3109,5.54963,12.7448,41.3993,5.56733
0.00801445,0.0270091,-13.4046,23.0912,-5.84737,-13.4589,23.176,-5.83828,-13.4123,23.1803,-5.85216,-13.4706,23.1601,-5.82869
1.97597,0.0188112,-18.3423,30.6764,1.68243,-18.4595,30.2697,1.0451,-18.3928,30.7824,1.22892,-18.4865,30.3572,0.849975
11.9982,1.00716,15.6646,11.339,3.88195,15.4355,9.40239,4.21323,14.6814,9.74091,4.67056,14.9254,9.76956,4.3924
42.2422,1.19959,8.24362,28.5615,6.80471,10.2954,27.5455,6.61667,10.5397,28.2614,6.69947,7.9534,25.1745,7.33746
5.81418,0.288026,-7.07822,38.9232,5.97914,-7.53164,37.8819,6.43662,-6.40364,38.6086,6.38245,-7.42071,37.5162,6.51402
75.3083,0.162328,-18.4887,21.2111,-1.51063,-18.2764,20.8308,1.93239,-18.4266,22.2138,1.24936,-18.5179,22.2848,0.401156
1.01865,0.12805,-12.737,4.94358,-3.0742,-12.2915,4.977,-3.23477,-12.6993,4.55746,-2.91883,-12.3477,4.81549,-3.1056
2.38129,0.0999644,-15.5708,10.7683,4.96807,-16.1269,10.8814,4.78992,-14.6793,10.2727,5.60474,-14.7487,10.366,5.55387
20.8576,0.39129,-3.81409,23.714,6.82352,-1.45001,23.178,7.62438,-5.07331,24.9558,7.43755,-4.03953,23.1296,6.96824
10.288,0.69369,-2.93836,9.74363,6.17138,-3.66269,9.0966,6.94189,-2.1264,9.34019,6.56539,-2.44499,11.1828,7.20833
13.5654,0.0925678,-1.16609,27.9799,-7.21164,-0.256839,28.0616,-7.14837,0.191809,30.0771,-6.75817,-0.811991,29.7269,-6.77696
38.9139,0.610744,-4.14304,2.57195,-1.77668,-0.850036,2.92498,-2.84027,-4.85159,1.10482,-1.31673,-1.50943,3.3111,-3.18957
9.77006,0.494817,17.7789,36.2438,1.57017,17.9309,34.1375,1.96283,17.5747,35.0356,0.882185,17.5645,35.286,1.73875
26.3507,0.177127,-9.62894,8.7922,6.46653,-8.19693,9.49643,6.47239,-8.71655,11.8545,6.35289,-8.77709,11.8573,6.34442
0.52301,0.084232,-1.87215,11.5966,-6.86249,-1.74859,11.1994,-6.74087,-1.46263,11.0917,-6.75712,-1.52862,11.091,-6.75021
114.3,0.00647165,-13.4928,42.8441,0.152629,-15.9818,42.38,3.7057,-16.0458,42.8081,2.12084,-14.9294,41.9568,4.55302
169.311,0.0513894,12.9054,15.0761,-6.14297,9.30188,11.3417,-5.96575,9.25185,13.6905,-6.3799,8.08786,11.3485,-6.10825
3.78196,0.457497,-6.94936,25.2347,7.08096,-5.99383,26.143,7.30654,-6.17704,26.5227,7.09772,-6.33229,26.5276,7.0716
1.9232,0.112372,16.5273,34.7896,4.40133,16.562,35.1503,4.5315,16.7176,34.2617,4.35741,16.9875,35.0066,4.06675
2.28027,0.00670847,7.46684,19.7577,-7.07803,8.81375,19.7979,-6.91361,8.68959,20.1197,-6.9302,7.45565,19.4809,-7.08552
5.72098,0.0397694,-13.661,19.5845,-5.46963,-11.3526,20.0824,-6.21935,-11.8288,20.1046,-6.09214,-11.7676,19.425,-6.00631
0.0663674,0.0211078,11.6319,20.3009,7.04798,11.4874,20.3861,7.06542,11.4103,20.3172,7.06723,11.4124,20.3624,7.07441
7.26118,0.469873,-4.71471,33.9843,7.02415,-3.62406,34.7587,6.77027,-3.74894,34.8566,6.79665,-4.01204,35.4627,6.96639
0.185625,0.00961446,10.2213,5.3526,6.55214,10.0759,5.45443,6.58754,10.0009,5.41349,6.58958,10.0012,5.36739,6.58402
1.9992,0.100087,16.8708,5.12752,-1.99831,17.7629,6.25025,-2.06602,17.4725,5.70731,-1.79452,17.3766,6.00023,-2.69725
4.30843,0.0720354,5.16646,4.99683,-4.48989,4.84089,6.33,-5.48165,5.13359,6.28283,-5.43767,5.97095,6.22716,-5.37597
2.77854,0.0978065,8.17918,5.22773,6.82449,8.09029,6.28275,6.81788,7.93879,6.10841,6.84931,8.30794,6.04445,6.825
0.0134093,0.0308008,11.3064,23.7349,7.29533,11.3378,23.6862,7.24524,11.2926,23.6584,7.30053,11.3712,23.7748,7.29909
154.739,0.883589,-9.13958,25.6264,-6.83849,-15.6523,23.8129,-5.13162,-16.0192,23.9229,-5.0851,-15.9159,24.6023,-5.09647
34.2782,3.13899,17.4623,38.9068,3.27969,15.2481,40.0019,5.44637,15.0355,38.3085,5.41337,15.2142,40.5328,5.30985
3.97372,0.458835,4.0446,0.841754,-1.87978,3.68524,1.84324,-2.13752,4.33982,1.69096,-2.61988,3.77013,1.92894,-2.19494
4.0547,0.067322,2.48004,17.9927,-7.21442,3.05429,18.797,-7.32798,1.77595,18.4058,-7.32025,2.67385,17.3844,-7.23783
0.152925,0.0566828,6.57389,10.0474,-6.08851,6.71439,10.2724,-6.08951,6.50477,10.0933,-6.10524,6.70089,10.2147,-6.04171
27.3626,0.594307,5.35247,38.22,5.94143,7.19423,38.4356,6.47997,4.74681,40.2162,5.99864,5.71828,36.9958,6.90311
16.7062,0.184433,-5.28326,3.80317,-3.09634,-3.87818,3.46093,-2.97792,-4.10762,3.89388,-3.39516,-5.09951,2.72552,-2.32513
1.85687,0.484471,17.7856,32.6511,2.24369,18.0691,33.2454,1.92488,18.0813,32.1097,1.74389,18.0999,32.0407,1.73977
1.8691,0.0905761,6.69133,27.8281,-6.57874,5.71733,27.3904,-6.96326,5.71939,27.4846,-6.92418,5.96215,27.7172,-6.80197
1.04525,0.308451,17.0264,34.946,4.01869,17.6052,34.8471,3.65668,17.5309,35.1129,3.74771,17.6126,34.7557,3.6562
6.04679,0.0977059,6.66424,33.4244,7.09994,7.59241,33.7403,7.23454,6.13401,33.9494,7.18624,7.51317,32.3284,7.21262
1.05643,0.00224783,6.5448,5.76361,-5.23089,6.10932,5.4652,-5.13597,6.18193,5.77696,-5.25937,6.61562,5.41433,-5.08645
99.1068,0.315604,-5.79341,14.9549,-6.94769,-1.96107,10.9197,-6.7348,-3.63887,9.79505,-6.34952,-2.31417,10.3419,-6.61386
62.3679,0.561248,3.13666,29.7965,7.55085,5.45634,27.0363,7.6228,6.54317,27.9434,7.53744,6.68839,27.9823,7.52055
3.73659,0.223073,0.383669,21.8608,7.25416,1.35916,20.3919,7.79971,1.09125,20.8637,7.6924,1.28719,20.3965,7.8127
8.27746,0.213929,-5.51294,27.2199,7.05782,-6.25835,26.5714,7.0869,-6.65931,28.3236,7.20796,-4.39876,27.296,7.46325
2.42693,0.0187269,1.98538,26.0602,-7.4592,2.55184,26.0556,-7.40809,0.465098,25.2424,-7.60011,0.401939,25.2853,-7.61129
40.3677,0.500871,10.9224,14.1833,5.77935,9.72522,15.608,6.48783,11.5503,15.6573,6.32845,13.9903,13.6473,5.97304
18.9028,0.110991,-7.08727,9.39809,6.69279,-7.78893,7.97355,6.02411,-8.03684,9.03077,6.30708,-6.92945,8.19923,6.44874
19.29,0.39488,-18.1886,26.9772,-3.3952,-17.4679,28.4555,-4.2048,-17.5948,28.5486,-4.09647,-17.6551,29.296,-3.93954
1.88143,0.302702,4.42713,31.9953,-6.37134,4.87641,32.803,-6.44858,4.93862,32.7597,-6.43295,5.2479,32.6715,-6.41479
2.62757,0.2052,-11.499,19.8116,5.10863,-12.0802,18.9672,5.65969,-12.021,18.8728,5.71784,-11.1516,19.6097,5.50596
2.03663,0.0865895,-12.5999,18.6064,-5.63085,-12.9418,18.9693,-5.6518,-12.2583,18.8579,-5.79957,-12.4173,18.0884,-5.74913
0,0.0045151,-18.4674,31.6725,0.466303,-18.4531,31.6966,0.537822,-18.4704,31.6613,0.410874,-18.4676,31.6194,0.425566
1.44984,0.601489,12.0037,2.31608,-1.79357,11.8499,3.14535,-2.80365,11.9222,3.04982,-2.79922,11.7715,3.05151,-2.72204
26.6535,0.984214,-15.4681,16.2835,-4.61684,-15.1374,18.9181,-4.84269,-12.9989,16.337,-5.46157,-15.334,19.2879,-4.85351
40.5349,0.398419,-14.3045,38.8588,4.53802,-13.6862,40.1389,5.24005,-14.7939,37.9242,4.72919,-15.4366,40.5094,4.86398
12.9785,0.422002,2.92087,35.252,-4.76153,3.36658,34.93,-5.11225,2.6563,37.9023,-4.66996,2.11054,34.9637,-5.71607
11.4378,0.37557,-18.548,22.9996,0.380341,-18.2678,22.7428,2.69877,-18.3311,23.4723,2.56112,-18.4206,23.8483,2.2913
29.0582,0.608349,11.0015,18.7459,6.04389,10.2815,19.9633,7.05231,13.5019,18.3117,6.17629,12.3098,16.7827,6.03985
0.262996,0.103158,-8.19465,10.0475,-5.56359,-8.54722,10.0189,-5.46478,-8.61399,9.97507,-5.44841,-8.47613,10.1028,-5.5013
12.8877,0.0137218,5.15005,19.3851,7.84396,5.99397,20.9389,7.82705,6.57542,20.0461,7.70936,5.20763,20.6128,7.89595
2.01771,0.152316,8.66905,37.1262,6.5471,8.16195,37.1032,6.70728,8.76175,37.7674,6.39339,8.93901,37.118,6.73493
0.0760732,0.0660037,7.57652,8.10442,6.62809,7.62733,8.16388,6.60072,7.69662,8.16937,6.61446,7.56197,8.17257,6.61797
8.10676,0.315655,12.9093,9.82847,5.16677,12.158,9.74564,6.12798,13.6354,8.47135,5.80877,13.2859,10.0885,5.19248
57.907,0.0383704,11.113,13.8199,-6.12675,14.8375,14.7548,-5.78299,14.9119,14.7077,-5.76358,14.9651,13.6262,-5.56247
0.941772,0.00720936,-18.8544,26.6662,0.381129,-18.9363,27.0856,-0.473726,-18.8695,26.9501,0.566396,-18.8655,26.53,0.156385
5.11915,0.161096,-5.59944,30.8046,-6.48583,-3.93982,30.5588,-6.73817,-5.71177,32.0488,-6.49017,-5.57374,31.6292,-6.45949
1.19244,0.00459037,4.48222,11.3435,7.10746,5.22189,11.8597,7.04349,4.91982,11.3697,7.05301,5.22409,11.7648,7.03823
0.135188,0.0133354,-4.66545,5.33016,7.41726,-4.59806,5.39987,7.44489,-4.60423,5.62553,7.44439,-4.66764,5.63847,7.43147
18.9396,0.012933,6.66297,24.5611,7.592,6.78097,27.2021,7.5064,7.69556,27.1154,7.33625,7.55035,25.6152,7.40711
11.5119,0.114439,-16.4976,25.5998,4.44127,-17.0466,23.2485,4.16356,-16.37,22.3913,4.27159,-16.8572,22.4611,4.18059
52.0056,0.181785,-7.52552,26.5352,-7.11184,-4.21861,28.2174,-7.5556,-3.52388,28.0062,-7.64983,-5.01281,26.992,-7.55059
108.37,0.445826,12.9355,34.2739,6.34169,15.2057,33.3117,5.47865,11.6544,31.0796,6.91551,13.9001,29.6072,6.64326
20.6686,0.213261,13.0002,30.8604,-5.03929,10.7804,30.0247,-5.73939,11.8436,31.8727,-5.58289,11.8944,30.8391,-5.34684
21.4152,0.411533,1.49037,13.5413,6.76253,3.31328,13.0919,7.13361,1.74528,15.5895,6.88787,0.976937,12.7485,7.31492
1.31605,0.117435,1.94688,42.6583,3.25092,1.73373,42.5556,3.78754,2.15368,42.5744,3.83804,2.01686,42.5647,3.73984
3.71583,0.0659838,-6.36971,12.9095,-6.49409,-6.72537,12.2848,-6.32435,-6.24614,12.1307,-6.38956,-6.52269,12.1855,-6.34941
0.232796,0.140728,3.35759,7.37651,-5.85577,3.5704,7.19663,-5.77979,3.71397,7.19499,-5.77189,3.64183,7.19468,-5.77302
5.64257,0.33223,2.86868,2.97353,-2.96867,4.46409,4.18934,-4.40005,3.07393,2.37192,-2.90236,2.27394,2.90602,-3.345
70.2147,0.0824938,15.7122,21.9927,5.58689,12.3682,19.6782,6.82024,14.4955,18.8274,5.92707,12.1187,21.7881,7.06774
1.49934,0.325687,10.8034,17.8393,6.50092,10.8337,18.2461,6.40123,10.9147,18.2011,6.36591,11.3747,17.858,6.50167
1.04256,0.0170057,11.7375,22.2665,-6.58604,11.3967,22.9978,-6.68314,11.3205,22.9978,-6.69293,11.8134,22.6339,-6.59452
3.71641,0.352532,2.36489,40.137,5.38139,3.91408,40.3492,5.89801,1.9612,40.3705,5.63847,4.33007,40.1465,6.00049
0.354629,0.0030413,-2.8853,14.8566,-7.39446,-3.23135,15.0469,-7.38971,-3.37315,14.9609,-7.36161,-3.3031,15.0493,-7.38318


