
1.58572,0.160839,-11.9557,26.581,3.62198,-11.1136,25.4189,3.17775,-11.0808,25.282,3.06893,-11.0932,25.213,3.00113
7.27696,0.542416,-9.49755,22.6924,-4.05973,-8.21931,22.6843,-5.13539,-10.4143,22.4123,-4.48785,-9.6739,23.6524,-4.19187
2.80791,0.211093,-11.1638,23.2275,3.16505,-11.3731,22.7499,3.59477,-10.1524,23.3885,3.94181,-11.1689,23.6114,3.21225
2.83016,0.0766012,-3.44646,16.1436,5.79663,-3.59337,16.7036,6.08216,-3.67354,15.4662,6.54198,-3.67532,17.1404,6.43877
4.89841,0.38162,-0.723173,13.7646,-5.16417,-1.19891,14.1986,-5.69772,-1.04093,12.3639,-6.08994,-0.0209923,13.7212,-5.28889
11.4736,0.325529,-12.1088,28.0487,-2.55048,-13.6011,27.4349,-3.05075,-12.8496,30.6386,-3.04155,-11.9707,27.9974,-2.85989
9.39634,0.646377,2.72341,17.9109,5.34912,3.07859,18.7919,5.866,1.56674,17.7486,6.42134,3.74173,16.8524,5.7515
7.03413,0.0731411,13.6255,21.8817,0.077741,14.2901,20.2998,-1.22029,13.8967,20.9702,-0.58585,14.2285,22.5856,-0.581373
0.445938,0.483235,8.04615,14.9294,6.1414,8.32155,14.4477,6.02465,8.22924,14.4406,6.02299,8.18383,14.4383,6.03209
3.49893,0.132345,-5.63331,31.986,-2.75167,-5.8583,31.9753,-2.87087,-4.78774,32.9863,-2.18128,-5.16411,31.7789,-3.44776
1.77771,0.0382726,-13.4734,20.8965,2.82087,-13.4306,20.1599,2.91186,-13.5144,20.595,2.62493,-13.487,20.0721,2.76252
9.83967,1.2688,-7.9767,16.9584,5.10728,-5.90887,16.7922,5.75929,-7.51103,17.9062,6.13852,-6.30638,16.9252,5.87885
3.09447,0.214393,-11.4933,27.9662,-3.93302,-11.949,27.9978,-2.89936,-10.9493,27.8478,-4.36584,-11.9361,28.0374,-2.89204
0.475001,0.0166942,-14.0233,24.3079,1.59939,-14.1898,24.0807,0.931013,-14.1919,24.1613,0.934216,-14.0885,24.2857,1.30952
1.45315,0.0149421,-14.1157,16.6671,-1.36582,-14.1697,16.3597,-1.04625,-14.1837,16.4701,-1.00008,-14.1489,15.888,-1.01775
2.44268,0.33201,-2.78307,29.0094,4.48065,-2.94392,27.4113,5.35401,-2.87478,27.4144,5.45054,-2.99197,28.1104,5.0604
15.5267,0.248519,-5.68381,15.1169,5.812,-5.23368,18.1358,5.42258,-5.65068,13.0903,5.81929,-5.79802,12.8046,5.71206
31.9154,0.797619,-13.3916,10.1547,1.66988,-13.3383,7.74423,2.8379,-13.0291,7.88069,1.57513,-12.8181,7.45377,0.204075
10.2661,0.803742,8.20822,11.3951,4.64947,8.24038,8.26635,5.27028,8.33133,8.83258,5.36068,9.1602,11.3379,4.25236
4.71988,0.367094,-2.37992,20.6976,6.63467,-2.19171,23.1929,5.80309,-2.18138,23.0584,5.83913,-2.14949,23.1973,5.83859
5.39755,0.107894,3.95871,13.0428,6.22357,2.34631,13.9436,6.48906,3.34685,14.4208,6.47447,2.42815,14.3706,6.5189
5.57787,0.17445,-8.02767,30.1935,-3.52227,-6.74769,29.8474,-4.08683,-6.54574,29.9464,-4.11708,-9.00756,30.4898,-3.40675
38.7111,1.28979,-1.4289,17.72,-6.2492,-1.18561,14.4033,-5.81744,0.0342367,17.4523,-6.45305,-1.07497,15.4914,-6.47693
1.25346,0.0608849,11.9589,27.358,3.57471,10.8828,27.5614,3.78324,10.8502,27.5372,3.80975,10.8892,27.4669,3.85162
17.7042,0.53186,-8.49366,13.8823,-4.57409,-3.80569,13.443,-5.45482,-5.60432,14.2868,-5.20645,-3.99698,13.9312,-5.62219
6.63184,0.0892779,-5.87179,28.5244,4.80671,-6.90051,28.462,4.36341,-3.61664,28.3646,5.44249,-4.23077,28.6809,5.27483
1.51648,0.085212,2.57213,31.7053,3.82964,2.24532,30.9276,3.91567,2.433,30.8541,3.8965,2.79911,32.1331,3.91084
4.71052,0.788847,3.33864,21.4529,5.86082,3.05503,19.4224,6.31247,3.57745,19.9448,6.25912,3.0981,19.425,6.29796
3.91056,0.303022,1.54561,16.3365,-5.93821,1.84979,15.1838,-6.63761,0.980423,16.6325,-6.20309,1.97099,16.7616,-6.07685
0.335627,0.0854689,-6.65702,26.5441,5.50815,-6.70451,26.8788,5.38629,-6.9532,27.1485,5.33418,-6.80635,27.0886,5.35599
28.0909,0.778045,8.69665,10.7633,-5.55119,8.98557,8.96019,-4.67029,8.9023,6.65292,-4.64004,10.3172,9.2366,-4.42841
1.75214,0.0377961,-4.03779,30.0688,4.65071,-4.90035,30.0858,4.44947,-3.47273,29.8173,4.67337,-3.76551,30.086,4.66695
36.6623,0.650577,7.04433,22.9282,-4.72289,8.45231,22.7553,-5.40842,7.01151,26.5946,-5.00982,7.07612,27.9189,-4.87806
12.9694,0.0272536,12.3664,29.1262,2.2653,9.696,29.7345,3.19594,13.1095,28.8398,2.03161,9.66383,29.2973,3.47033
6.59944,1.00277,-9.05972,7.19063,4.50473,-8.90491,4.36434,4.03875,-8.28139,6.06346,5.04974,-9.04815,4.35345,4.02565
1.66754,0.0841118,6.56794,16.0267,5.95723,7.80656,15.1992,6.16291,7.57229,15.2536,6.16438,7.81247,15.1287,6.17913
0.208375,0.0283512,-9.82839,32.6463,1.9443,-9.67689,32.7828,1.90943,-10.0477,32.6031,1.92253,-10.0312,32.5771,1.96339
2.85068,0.308002,-7.79911,11.9451,4.3202,-8.02398,12.5784,4.6997,-7.36802,11.8832,4.56425,-8.22102,11.5178,4.67226
58.126,0.633088,-1.69541,1.311,-2.32915,-1.21036,2.96112,-4.00215,-0.0801983,3.29687,-4.86776,-2.44623,3.4715,-4.54809
22.1993,3.62798,12.7361,22.7497,2.73157,9.85194,22.2285,5.13044,9.70632,22.4387,4.94515,9.56659,22.5436,4.70434
8.36586,0.664287,3.93373,19.0162,5.31477,4.51598,20.4766,6.39815,3.17029,18.7157,5.83493,5.22369,18.0631,5.95813
8.15568,0.0650521,-14.0755,18.1526,0.378669,-14.1336,18.7746,-0.590965,-14.1876,18.1787,-0.670424,-14.1833,17.9694,-0.56298
21.9846,0.770949,13.1617,12.1157,0.899974,13.7437,7.51488,1.7318,14.1604,12.4135,0.475539,13.2622,12.4257,2.6883
47.2559,0.104427,-9.67858,22.509,4.6243,-11.4941,21.9759,3.75018,-10.5743,20.4965,4.42436,-11.6661,20.9188,3.84547
6.64435,0.923837,-2.39709,27.7209,-4.82771,0.0644051,27.7952,-5.25654,0.136454,27.9927,-5.18451,0.412829,27.8463,-5.16674
183.745,0.53667,-12.598,8.06008,-1.60553,-12.7063,3.18331,1.08467,-12.9988,5.93633,1.99509,-12.9733,4.14199,2.00251
0.657678,0.246267,-8.39371,22.3054,4.86979,-8.32203,21.8167,5.11739,-8.37004,21.6758,5.09177,-8.46934,21.6782,5.05984
99.9418,1.51817,10.0982,13.3598,-4.59966,10.0779,17.4126,-5.1452,11.4561,16.2745,-4.78057,12.0281,16.3017,-4.47702
1.25888,0.0452919,3.47015,9.65341,6.09633,3.94251,9.27284,6.2658,3.0009,10.1824,5.72315,3.09172,9.90899,5.89521
77.7255,0.309639,10.3184,2.86971,-0.873414,10.34,4.94089,-3.41921,8.05247,2.79961,-3.37278,11.7021,3.65986,-0.919997
4.37386,0.0881213,-4.0043,25.2256,-5.50608,-5.31623,26.0562,-4.98082,-2.90756,24.3028,-5.79307,-2.83426,24.4363,-5.80429
8.64889,0.394459,-5.11465,21.6649,5.67264,-5.65771,22.404,5.84822,-3.05401,21.9866,6.37676,-5.60679,21.2222,6.07666
5.06398,0.605132,3.31809,5.63258,5.01774,4.22554,6.20183,5.87351,3.93266,4.16401,4.95305,2.67322,5.48058,5.67132
1.62177,0.0833954,-10.2736,27.9548,-3.69666,-10.2087,28.7238,-3.55255,-10.0249,28.438,-3.55921,-10.0108,28.7218,-3.53771
13.0452,0.79202,13.4175,7.94331,-0.11506,13.5835,7.88973,-1.16617,13.9084,6.91621,-0.546392,13.9844,11.4767,-1.48704
49.0263,0.979475,-11.0758,23.0644,-4.08651,-12.4481,25.1849,-3.67952,-12.746,23.1243,-3.0409,-13.8255,22.6727,-2.8771
7.06552,0.35906,0.947359,15.6936,6.60598,1.19746,19.3357,6.06268,1.53158,18.3715,6.38719,1.13815,19.2444,6.02534
3.44014,0.286354,-4.65035,20.283,6.00335,-2.69292,20.4746,6.66556,-2.95151,20.6705,6.57857,-2.95665,20.5236,6.5474
9.18016,0.188164,1.04171,7.00543,5.75975,0.552356,8.41026,6.14859,1.0406,8.49655,6.28504,0.0958262,5.82622,5.4709
13.3678,0.499151,7.17975,24.4783,4.58717,7.00622,23.3001,5.50813,9.32946,24.3173,5.50909,9.56499,24.7491,5.39391
5.69907,0.313402,7.7523,7.96033,5.08966,7.98047,6.97966,5.08357,7.60707,9.38383,6.018,8.36539,7.47668,4.80881
4.10047,0.263987,-6.44257,31.987,-2.46644,-5.87628,31.8505,-3.08563,-6.86299,32.1626,-2.66843,-5.95891,32.7856,-1.85724
9.06754,0.0160428,-0.00911263,32.4929,-1.88895,0.398356,32.4431,-2.12283,1.15699,33.7207,-0.169949,1.32713,33.7011,-0.279572
14.7315,1.03786,3.46946,25.1367,4.78054,4.83792,25.4981,5.61837,3.20444,21.3719,5.8694,2.61058,25.8874,5.96491
10.5475,0.624589,6.96154,13.6835,-4.77706,7.72152,13.2849,-5.33704,6.33337,13.4447,-5.44425,6.74483,15.9759,-5.4774
6.11095,0.0132679,9.96494,10.1869,-4.32393,12.4283,9.48639,-2.53319,11.5828,9.56194,-3.20532,12.4196,9.38655,-2.57891
1.48894,0.134838,-6.66148,29.8592,-4.09187,-5.28763,29.5938,-4.53085,-5.35731,29.5986,-4.51867,-5.70674,29.7706,-4.40946
8.60638,0.0793442,-8.10732,12.7897,4.79296,-6.87224,13.8004,5.90136,-7.68988,13.6087,5.55916,-8.74471,14.3386,5.78612
5.15084,0.525021,5.59847,17.1576,5.33565,6.12742,19.1665,6.49172,6.51296,16.0983,5.93562,5.02531,16.9845,5.68702
2.17948,0.01109,-0.303732,0.940479,-2.62851,-0.449623,1.76928,-2.98098,-0.123393,1.52136,-3.09041,-0.47806,1.69095,-2.91766
40.162,0.561458,2.50749,0.751066,1.15742,2.5435,1.566,2.57682,5.12221,0.64771,1.07368,3.62981,1.27283,2.50514
1.20622,0.222997,-7.44828,10.6462,5.01754,-7.68052,11.0785,5.12072,-7.81874,10.0988,5.58008,-7.68115,11.2155,5.15034
6.27836,0.315525,8.25018,18.503,-5.09328,8.45446,18.8766,-5.03996,10.0035,17.4025,-5.20725,7.47378,18.5271,-6.37765
19.4145,0.455654,11.638,2.87002,0.763847,11.248,2.28346,0.410171,12.1549,5.31804,-2.5294,12.0809,4.46951,-1.58225
4.19961,0.24759,4.91388,32.3845,-1.76254,4.62816,32.7317,-1.68043,6.81319,32.812,-1.88509,4.79521,32.3096,-2.24731
12.8907,0.381004,6.42649,6.7578,4.50691,6.21984,6.25121,4.72951,8.81563,6.397,4.9734,8.54646,6.75536,5.06829
5.98775,0.453281,5.08722,29.9988,3.27501,5.69874,28.7922,4.1713,5.44925,30.5096,3.3268,4.07601,30.2551,4.49666
3.9993,0.398271,8.12836,33.2098,-0.170344,8.15774,32.7454,-1.38235,8.11036,32.7665,-1.36191,8.28346,32.8128,-1.28288
4.57832,0.682435,0.878075,24.3943,5.3677,2.54467,24.4915,5.79741,2.18451,24.3094,5.82363,2.59004,24.4202,5.77424
4.13718,0.389025,-3.44241,13.8746,-5.3076,-3.67739,13.1543,-5.46593,-1.97429,13.7645,-5.92505,-3.76304,14.4832,-5.84703
3.77734,1.33063,10.2919,25.9463,-4.40163,10.4816,24.5315,-4.50116,10.3167,24.5,-4.51559,10.2556,24.498,-4.5414
4.90437,0.0826159,-8.87513,10.3721,5.08499,-8.79007,12.0562,4.74758,-8.80883,9.67332,5.06909,-8.30046,11.9441,4.6069
3.12417,0.557682,3.22225,7.93949,-5.48244,1.19537,8.09588,-5.48655,1.06486,8.10794,-5.44937,1.26093,7.86064,-5.47924
15.6307,0.034088,-6.93051,25.7384,-5.25326,-6.4014,22.4944,-5.38391,-6.3333,22.4856,-5.40809,-6.02497,25.6097,-5.53856
0.442031,0.00625457,11.1927,3.70952,3.73951,11.4651,3.77462,3.6496,11.4706,3.73168,3.61878,11.6498,3.54771,3.41548
8.30749,0.679964,6.01669,24.34,4.34475,5.542,26.0868,5.32665,5.70264,23.4404,5.32542,7.00234,24.3724,4.57606
44.3621,4.91639,12.5452,18.6441,-4.16938,12.1749,13.7293,-3.34676,13.4617,13.4786,-2.68255,12.1406,13.7157,-3.66549
4.84978,0.0685777,5.89746,28.378,4.37776,5.76915,29.0033,4.12074,6.47628,27.1771,5.12006,6.88526,27.2658,5.10147
6.70814,1.20119,7.86296,28.6949,-3.85574,8.9502,29.719,-3.93039,9.00935,27.1782,-5.03055,8.99342,28.9748,-4.16922
6.69229,0.499694,5.11114,31.3291,-2.71222,4.95544,31.193,-3.75073,6.22936,32.4274,-2.35578,4.94213,32.2291,-2.2536
14.563,0.0121617,8.1325,32.6701,-1.52366,8.53127,31.2367,-3.19895,8.07443,31.9291,-2.26209,8.45659,31.2529,-3.14827
1.57387,0.0664188,0.664589,28.9785,5.07267,0.249883,29.3732,4.75481,1.06224,28.4473,5.31473,0.320924,29.5237,4.67157
0.0791438,0.0331475,-13.441,16.8165,-2.55819,-13.6375,16.7254,-2.48427,-13.5713,16.6691,-2.49876,-13.6503,16.8302,-2.50629
13.3697,0.436883,-5.39222,9.47239,-5.15202,-4.64191,10.9064,-5.81625,-4.86057,8.36215,-5.59289,-6.60388,8.91417,-5.36937
1.40158,0.882,-12.0945,9.66336,3.77534,-12.3449,8.32113,3.88571,-12.2875,8.24654,3.8849,-12.2308,8.25073,3.94722
4.53802,0.4237,-12.0119,31.5331,-1.68465,-12.772,31.0479,-1.91345,-13.1969,30.9601,-2.20275,-12.7669,30.905,-2.10757
5.18298,0.42085,0.949199,31.3336,3.38615,1.71836,32.4347,3.70016,1.87037,30.3336,4.00894,0.42511,31.3125,3.78414
4.16638,0.275607,-4.19315,12.3625,-5.07052,-3.88829,13.0336,-5.43212,-5.32913,11.55,-5.69433,-3.8538,12.1069,-5.15131
1.41215,0.301178,2.83459,29.4904,4.41221,3.68547,28.7187,5.44292,3.67477,28.5128,5.56088,3.79397,28.3835,5.66755
2.18925,0.539293,0.712827,22.7039,5.81007,2.53623,22.8812,6.08862,2.12961,22.7884,6.13707,2.40111,22.8741,6.11495
2.29386,0.163431,-0.259612,29.2338,-4.59968,0.671885,29.3733,-4.7008,-0.389548,29.5085,-4.64709,-0.405597,28.7386,-5.03086
4.70632,0.662252,9.17049,19.2193,4.77374,10.8063,19.1674,3.93513,10.8572,19.2235,3.90691,10.8798,19.3753,3.96292
3.55629,0.35234,-9.4859,18.951,4.60251,-9.75067,17.1663,4.7457,-10.0393,19.4303,4.94197,-9.07064,19.1278,5.02674
2.83139,0.753789,4.84598,30.8827,-3.90173,3.82518,29.4857,-3.81376,3.60144,29.5748,-3.87027,3.75659,29.6319,-3.79946
1.96679,0.167595,8.99423,19.2223,4.95019,9.29711,20.2786,5.63721,9.18315,19.2941,4.7815,9.09394,18.8138,5.08273
3.56725,0.0131999,-8.33385,1.48415,1.21266,-9.00317,1.58582,0.766075,-9.1311,1.64812,0.871419,-8.92406,1.6342,1.11352
1.92949,0.310448,13.4043,7.85787,0.459268,13.4752,7.66101,0.0571515,13.5124,8.42308,0.137976,13.9549,7.74577,0.614221
17.3071,0.320831,-12.2292,14.1919,-2.68644,-11.1158,14.0541,-2.59604,-11.9971,15.0142,-3.00635,-13.7924,14.3638,-1.76103
9.73121,0.0171145,-11.7778,2.46366,1.76512,-11.3043,2.42407,2.06231,-10.3477,3.27586,3.20113,-11.2946,3.45442,2.7151
11.3904,0.152603,13.252,15.6149,1.48876,14.1947,12.9636,0.485124,14.1106,14.3552,0.261848,13.2851,15.9663,1.6948
19.0506,0.835065,-6.87687,32.4356,-1.22307,-7.43878,32.2523,-3.31572,-2.63558,32.8859,-1.76759,-7.18425,33.7017,-0.69541
3.28604,1.13052,-7.3103,10.738,5.04197,-5.98643,10.7538,5.7247,-5.89971,10.9783,5.73815,-5.90064,10.9081,5.7224
0.923943,0.0920786,-1.34624,24.89,-5.8457,-1.07145,24.8558,-5.96629,-1.00402,24.9044,-5.96814,-1.63327,24.8895,-5.91263
13.5733,0.0567617,-0.145972,23.3833,-5.5055,1.33466,23.3579,-5.64744,-0.35086,25.7022,-5.82182,-1.41286,23.1503,-5.23189
3.89282,0.436708,-5.11539,19.394,5.1909,-4.4409,20.0943,6.0522,-5.35158,18.2013,5.36795,-5.5653,19.8787,5.57255
0.30701,0.0324954,11.8375,32.7666,0.428263,11.678,32.652,0.704235,11.6436,32.721,0.663297,11.7832,32.6592,0.621011
6.99335,0.129137,-13.0239,7.67815,1.74976,-13.0447,6.50182,2.12345,-13.1689,6.36335,2.94163,-13.3131,7.08753,3.1366
6.47241,0.969293,0.111607,13.6634,-5.32537,2.70946,13.6948,-6.00484,2.84598,13.5113,-5.98686,3.19765,13.7351,-5.94963
2.84237,0.489306,9.57043,7.25521,4.47542,8.41052,7.4798,4.81412,8.66193,7.39764,4.86736,8.68543,7.58186,4.79914
0.487303,0.0436698,-10.4509,31.4574,-3.44763,-10.3805,31.603,-3.25888,-10.384,31.1984,-3.59369,-10.4551,31.1946,-3.60837
4.32522,0.110151,-1.5862,28.8801,-4.71248,-1.63174,29.9693,-4.39177,-0.540812,28.7879,-5.02052,-1.88012,28.7744,-4.8316
7.49393,0.457441,-7.32096,15.4103,-4.64343,-8.80059,15.2342,-5.37224,-6.23039,14.2299,-5.36122,-7.15563,16.0088,-4.91601
5.7338,0.361187,-8.55533,3.46278,3.8288,-9.62139,2.88272,3.28582,-10.5076,3.53301,3.30312,-10.3069,3.2714,3.20994
0.905698,0.201657,2.04695,7.68571,5.81194,2.31834,8.31903,5.72028,2.19154,8.25085,5.70069,2.18356,8.38673,5.71981
3.18192,0.156278,-8.38455,3.58034,-3.31783,-7.73625,3.58195,-3.53237,-8.42246,3.07667,-3.00747,-8.87468,3.70135,-3.68948
5.06506,0.204876,9.52518,2.55093,2.85835,10.0978,2.66963,3.19619,9.67329,4.49202,3.536,9.68841,3.63265,3.18338
9.45522,0.548986,-4.33314,30.0373,-3.67873,-4.6013,29.2341,-4.58874,-4.50671,30.8437,-3.95983,-1.41189,30.3032,-4.07367
1.65357,0.0516167,12.8304,29.7133,1.19977,12.4476,29.8666,1.51042,12.8363,29.5774,1.59076,13.2135,29.4617,0.718683
38.1337,0.919307,-6.48639,31.3934,2.03594,-7.77869,29.6018,3.973,-6.89421,32.9752,2.05516,-3.07947,32.4965,3.22353
0.344274,0.0434217,-2.06235,33.4945,2.22143,-1.8305,33.6556,1.89264,-2.09911,33.5696,2.00875,-1.89909,33.6382,1.89753
6.15108,0.19868,12.8359,22.4009,2.32821,13.7619,23.4004,1.68543,13.7511,21.3302,1.78095,13.1295,22.0604,2.33824
3.29097,0.370347,-1.03203,26.1588,-5.46907,0.44304,26.4273,-5.78447,1.00422,26.2617,-5.82783,1.00308,26.2122,-5.84055
31.6024,0.191563,-5.85323,14.9011,-5.43325,-6.07954,16.7419,-5.80021,-4.51652,15.0874,-5.97589,-4.81941,16.6058,-6.08697
10.1582,0.238508,5.59933,1.20255,1.7397,6.03502,1.13054,2.39983,6.55461,0.778924,0.020556,6.09305,0.853898,0.784288
0.805462,0.00318391,-12.4495,27.8346,3.25169,-12.112,28.5889,2.83742,-12.4172,28.0766,3.06183,-12.2059,28.5261,2.82005
22.2904,0.2182,2.09562,0.698556,1.04164,2.71555,0.209311,0.30592,0.81799,0.997875,2.47517,0.764177,0.783207,1.34866
20.7906,0.359,1.91174,1.20579,-1.91619,3.41432,1.58783,-2.6245,1.63037,0.485543,-1.6297,0.882428,1.34741,-3.01887
8.02069,0.481562,10.5008,23.6973,-4.13995,11.2611,23.3369,-4.27527,9.63962,24.8986,-5.17465,10.0247,23.4992,-4.92066
4.53252,2.05901,6.81448,19.1011,-6.42199,6.82224,17.1189,-5.81088,6.61683,17.1138,-5.88122,6.71493,17.1243,-5.80467
0.425765,0.00238758,6.01138,33.1286,2.06835,6.34211,33.1179,1.95936,6.44045,33.0783,2.07733,6.42805,33.1012,1.98712
15.145,0.454621,-7.32995,4.78381,-3.88316,-6.77152,3.66047,-3.11761,-6.81282,3.14613,-2.84576,-6.23676,3.46897,-3.36189
5.43951,0.172835,4.61718,20.8851,-6.14928,4.59046,22.3346,-6.10512,4.50398,19.7334,-5.86687,4.43842,22.3848,-6.10308
7.34678,1.3121,0.959259,25.3844,5.9669,3.01673,26.5364,6.04171,1.62651,27.1478,5.29006,2.54783,26.8635,5.82234
21.1323,1.23194,1.05261,30.5646,-4.25314,1.25197,27.5086,-4.83021,-0.653009,29.5617,-4.68374,-0.721011,30.3261,-4.05939
1.85289,0.210451,2.54067,28.8952,-3.91839,2.40271,28.2341,-5.02324,2.24474,29.0338,-4.22286,2.24093,28.1585,-5.17693
5.30761,0.331317,-7.52651,33.679,0.398313,-7.81743,33.6511,-0.606424,-7.72678,33.1983,1.80713,-7.93303,33.7129,-0.151146
2.55596,0.798597,-5.95545,23.2798,5.5187,-5.68289,24.7484,4.91431,-5.44868,24.3382,5.05575,-5.73298,24.8153,4.91596
14.298,0.0679637,-5.32004,2.41227,-2.80175,-5.26912,3.5342,-3.70069,-4.35413,2.82851,-3.53561,-4.34495,3.42453,-4.05533
0.414209,0.216774,-12.9769,4.6342,1.99592,-12.967,4.32849,2.16111,-12.9464,4.40744,2.21056,-13.009,4.4253,2.35061
1.39329,0.315495,-11.2049,32.0439,1.0545,-11.5507,32.7931,0.434172,-11.6238,32.6398,0.53859,-11.4214,32.6996,0.665107
8.36759,0.580146,6.2059,4.40035,4.31256,5.99867,5.21645,5.27214,8.84055,3.90151,4.24031,5.86233,3.71726,4.76282
6.57788,0.305427,0.663242,20.1785,-5.63893,0.348074,18.8229,-6.51494,1.02947,20.1226,-5.60849,0.636501,21.3588,-6.53669
1.52364,0.322755,-7.77577,7.29548,5.44708,-8.6048,7.36406,4.9027,-8.6565,7.58383,4.91538,-8.67234,7.43219,4.83647
7.85372,0.212873,-5.00534,4.288,-4.27118,-5.55841,4.43482,-4.91654,-4.49601,4.2854,-4.51194,-5.41773,3.52368,-3.72987
7.45554,0.567784,-7.58334,23.0921,-4.59942,-7.14998,23.3693,-5.03069,-8.31566,24.118,-5.20061,-8.1739,21.7126,-5.60443
3.78743,0.34697,1.0246,10.7697,5.77078,0.845313,11.5456,5.96335,2.10926,10.7682,5.83272,1.96365,10.8336,5.82161
4.18618,0.0419786,-4.11913,0.651934,-0.188127,-4.04785,0.762083,0.512978,-3.79579,1.07661,-1.4485,-3.97231,0.776109,-0.964639
3.76785,0.357564,1.86095,6.94355,-5.32858,2.62616,6.67915,-5.65779,1.8157,7.79867,-5.49363,1.56049,6.49704,-5.85476
15.1053,0.38776,7.30199,15.7379,-5.12777,7.0647,15.2575,-5.28532,9.14067,16.2112,-5.80614,9.82329,15.4983,-5.27977
6.24407,0.58461,13.6783,19.0096,-0.422881,14.0411,15.4674,-0.382515,14.0938,15.3989,-0.509362,14.1671,15.9419,-0.582035
6.66688,0.456178,-2.12202,23.0525,-5.11131,-2.43044,21.539,-6.33134,-2.58004,23.9729,-5.75378,-1.48491,23.1035,-5.21749
4.81186,0.379459,0.323211,24.2958,5.17019,0.945124,24.1749,5.41279,-0.0335707,23.5095,5.75443,-0.133106,25.0459,5.59972
7.60524,0.762429,5.07668,7.46538,5.1037,3.93487,7.24381,6.05228,5.79199,6.04269,5.34745,5.75235,8.24469,6.02914
3.90236,0.3974,9.69726,10.319,-4.54158,10.0451,11.4172,-5.24412,9.48843,9.77878,-4.92327,9.66479,10.9204,-5.25907
2.95961,0.362156,1.13189,20.0255,5.93338,1.24064,19.3927,6.06599,0.580178,20.4276,6.49458,1.78046,20.2045,6.38862
6.81487,0.195656,9.06677,13.9105,-4.93862,7.52711,13.8119,-5.22299,7.80633,13.9328,-5.32441,9.93119,13.6616,-4.90736
8.50673,0.0234113,9.98588,30.2209,-2.94359,9.51873,29.728,-3.81069,10.8749,30.4278,-2.34764,11.3585,30.436,-2.2168
1.66987,0.0949812,-8.96058,7.68413,4.61536,-9.17,8.10597,4.80388,-9.01212,7.19261,4.50531,-8.75662,8.0643,4.96862
10.6031,0.806917,-1.79014,9.28838,5.41721,-0.281743,8.2891,6.3692,-2.37653,8.44552,6.20731,-2.26936,11.108,6.13761
14.7019,0.141554,13.4321,26.9809,-0.844899,13.3602,29.2493,-0.866353,13.4389,27.5887,-2.31745,13.4617,28.5564,-0.183728
0.301379,0.149201,6.04521,24.4301,-5.5805,5.9673,24.1881,-5.61049,6.2697,24.2747,-5.59169,6.04554,24.2519,-5.55667
5.15149,0.227526,1.30067,2.30818,-3.56156,2.17862,1.95813,-3.57266,1.39481,3.33706,-4.89344,1.08478,1.96311,-3.53316
0.234308,0.0354732,13.4961,17.4281,2.304,13.4243,17.5845,2.4084,13.396,17.5233,2.38759,13.4784,17.5747,2.36438
2.90586,0.195313,-4.21611,30.9271,-3.47207,-5.03473,31.5998,-3.56103,-3.954,30.7925,-3.91366,-4.06265,31.1911,-3.27166
3.79131,0.180882,14.0163,14.515,-1.29022,13.819,13.5469,-2.08965,13.6361,15.1269,-2.54664,13.6328,14.9821,-2.54708
10.156,0.728338,4.58357,17.8483,-5.49849,4.50162,19.6877,-5.86037,5.96695,17.304,-6.21659,3.81551,17.479,-6.40935
6.38986,0.397453,2.40709,7.11346,5.41425,1.83273,6.27174,5.83162,4.1742,6.69037,5.96913,2.13333,7.62311,5.75854
9.43694,0.465829,13.4201,21.1837,1.23475,13.7904,21.5268,0.29414,13.9581,20.9222,1.37969,13.6853,22.176,1.28375
3.51756,0.0414373,2.85176,11.2984,-6.46113,2.93353,9.58698,-6.18123,2.7814,9.58793,-6.20348,2.72129,10.1709,-6.318
7.70579,0.214665,-13.4155,23.7316,-2.87777,-13.4999,23.1835,-3.08616,-13.3175,24.8952,-3.12414,-12.847,24.6128,-3.31543
7.77195,0.280135,-6.41588,5.75233,4.11456,-4.05116,5.51268,5.01797,-6.70263,5.32913,4.2323,-6.58859,6.26389,4.48599
3.4278,0.125017,2.64985,3.40216,-4.81906,0.71776,3.77827,-4.8966,1.19701,3.70547,-4.92262,0.568755,3.69461,-4.83503
4.06169,0.0752505,12.1666,27.468,3.16889,11.7039,27.8202,3.53848,13.2955,27.3048,2.45486,13.2194,27.5794,2.45656
4.70122,0.0148504,-3.92793,28.3723,-4.57348,-3.96003,29.5115,-4.25191,-4.03589,29.5192,-4.23686,-3.22989,28.3264,-4.72035
4.38395,0.336827,8.45509,16.66,5.31818,8.9492,16.6206,5.23739,8.48407,16.2047,5.84948,8.08498,17.9303,6.26793
2.1105,0.109708,2.85736,9.54631,-6.16594,2.80968,8.27082,-5.7737,2.97454,8.57235,-5.89932,2.95798,8.31156,-5.79474
6.14541,0.404404,7.94184,24.9151,-4.62959,7.53459,25.0412,-5.02217,9.97854,26.6697,-4.85241,8.41897,24.0583,-5.12848
10.7206,1.09818,13.3609,28.9865,-0.324408,12.5673,31.1923,-1.06793,12.1848,30.9033,-1.70026,12.6206,31.1891,-0.943929
2.01706,0.0109419,-3.13528,26.0883,5.92955,-2.99093,27.4135,5.35733,-2.99705,26.5051,5.78797,-2.90239,27.2064,5.50161
10.4788,0.430685,-4.32283,1.99664,-1.64531,-3.5124,1.86635,-1.96929,-5.15982,2.25392,-2.7772,-4.66565,0.940664,-1.19488
7.05733,0.392057,-4.14403,4.4867,-4.36427,-4.47594,3.7173,-4.25412,-2.70306,4.21498,-4.54642,-4.21486,4.84871,-5.18642
6.07913,0.525908,7.41301,29.8435,-3.29366,7.87881,29.0761,-3.859,6.68788,30.1014,-3.97852,8.58504,31.1108,-3.33517
31.1301,0.109759,10.1496,8.73933,-4.44003,10.5627,7.12796,-3.43128,10.6467,9.37868,-4.32827,9.57831,5.94737,-4.03365
1.37574,0.0266285,13.9946,13.2061,-1.72315,13.9989,12.8606,-1.72318,14.0604,12.4385,-1.31864,14.067,12.3648,-1.31776
8.8499,0.278538,1.00164,3.73621,4.69085,1.1412,4.8249,5.35734,0.9067,3.30624,4.83737,3.33858,3.23035,4.85217
113.07,0.0329557,-13.8242,21.392,1.7575,-14.1054,21.4785,-0.483889,-13.9096,18.4269,1.59569,-14.0721,18.5118,0.124593
2.54526,0.096336,-6.988,14.5648,5.7558,-6.58516,13.8923,5.9766,-7.38753,15.1002,5.73504,-6.53033,13.8964,6.00056
5.70506,0.0862575,10.6857,32.4394,-1.451,10.5366,32.9055,-0.715006,10.7547,31.585,-2.43639,10.7519,32.9289,-0.630879
4.26189,0.0846889,-2.91013,19.2947,-6.25457,-4.10803,19.2668,-5.84458,-4.32338,19.3392,-5.75402,-2.35735,19.2648,-6.32321
16.807,0.94366,-11.3302,19.794,3.43997,-12.4038,22.0106,3.88633,-8.61103,20.3431,5.41715,-11.9394,18.7475,4.30039
11.9308,0.111298,10.1255,9.65053,4.535,9.65855,10.2031,4.6401,10.48,9.06257,4.78514,12.4278,9.856,3.33685
9.37385,0.109229,3.92695,8.11009,-5.4591,5.99131,11.4959,-6.07784,5.26222,9.97571,-5.90617,5.91408,11.1778,-6.06294
9.31422,0.440671,13.6394,14.576,1.62864,13.2142,13.2913,2.90749,13.3476,12.7031,2.62401,13.2751,12.8018,3.02873
32.1144,0.839837,-11.4978,14.8998,-3.0219,-13.1703,16.022,-2.5092,-13.5728,15.2069,-2.27092,-12.0717,16.5974,-3.39729
12.3527,0.752432,10.221,24.5766,3.86949,10.4519,26.0243,4.7533,10.56,23.723,4.60531,13.1165,24.7638,1.79753
22.4061,0.740831,-1.61058,18.8922,-5.69203,-1.42207,22.4986,-5.74165,-2.45669,18.396,-6.53813,-0.0743362,18.2676,-6.58033
0.823489,0.2125,9.44134,2.47834,2.89017,9.4604,1.84761,2.62709,9.21514,1.69877,2.54068,9.3025,1.67897,2.50884
1.75686,0.237989,-12.1525,31.2242,-1.99781,-10.9033,31.6858,-1.62062,-11.2371,31.6986,-1.40168,-11.1602,31.5721,-1.63398
5.84761,0.361468,4.40052,32.6087,-0.795882,5.60384,32.9703,-0.737324,4.15047,32.9032,-1.0499,3.87089,33.6351,-0.213102
6.27199,0.0066419,-8.14213,24.6779,4.14309,-8.32814,22.2434,4.93465,-7.85062,23.1114,5.39257,-8.26997,22.2487,5.03624
22.5465,0.705368,8.94742,23.6805,-4.58032,9.70339,24.7308,-5.06669,10.4216,22.903,-4.54605,11.3197,22.9105,-4.07743
2.04386,0.0361745,-7.58053,15.5077,5.57291,-7.33766,15.1736,5.73943,-8.18752,16.5524,4.94078,-8.10557,16.7115,4.91486
0.782137,0.0536422,-8.95395,4.28801,4.00532,-8.93773,3.57077,3.75252,-8.87336,3.78541,3.86431,-8.87597,3.53119,3.75115
1.86098,0.0006777,11.7077,30.0937,2.02328,11.7285,29.6721,2.42384,12.3868,29.8981,1.55487,12.2862,29.9876,1.56421
0.247817,0.0989355,10.9564,20.4147,-5.31924,10.5409,20.4533,-5.44429,10.605,20.3637,-5.42054,10.6035,20.3143,-5.42932
5.65924,0.609804,-7.89461,8.7128,4.77099,-6.14003,8.70616,5.70693,-7.36801,8.16881,5.5575,-6.18932,8.70532,5.6983
2.88744,1.18144,-2.37042,2.60282,4.02375,-2.41661,4.39594,4.80808,-2.46089,4.39531,4.8184,-1.91806,3.65651,4.89123
0.926262,0.385842,-6.81912,21.9307,6.00576,-6.33263,21.0355,5.72704,-6.42008,20.8859,5.70364,-6.3809,20.884,5.67787
2.96034,0.1563,0.078547,19.1436,6.2698,-0.126597,16.9007,6.62502,-0.034342,16.9745,6.61879,0.00558351,17.0457,6.6066
0.378121,0.0972451,-2.98982,17.6498,6.21494,-2.92521,17.3161,6.48212,-2.97124,17.316,6.47704,-2.90149,17.8698,6.23166
13.0524,0.0958402,8.15543,27.7862,4.13422,11.6623,27.7456,3.54454,10.7871,27.6303,3.78494,10.8204,27.4982,3.84742
3.07408,0.23499,4.0631,28.0814,-4.53851,5.21857,26.9712,-5.29903,3.76447,27.9786,-4.88871,4.4326,28.6428,-4.47043
21.1258,0.280916,-8.84603,13.7478,-4.08207,-9.68917,16.1079,-4.79941,-9.98023,17.9475,-5.20476,-10.0523,17.9098,-5.18008
0.161488,0.0201758,-12.3905,6.91372,-2.24341,-12.3688,6.63865,-2.23546,-12.3983,6.57253,-2.10257,-12.3989,6.70183,-2.10567
0.862971,0.124682,10.1386,23.8648,5.04692,9.91556,23.2777,4.86698,9.81549,23.0719,4.88149,9.87597,23.2796,4.90105
2.62419,0.826829,6.74637,16.0184,-5.49856,6.71354,17.0802,-5.79196,6.82084,17.0752,-5.79496,6.90102,17.1067,-5.87056
9.94816,0.463267,0.954128,31.2246,-3.42706,0.332319,32.3886,-2.16515,2.6309,32.076,-2.90164,3.93684,32.3329,-3.10559
5.98393,0.107505,-0.679719,3.96043,-4.88297,-2.51062,3.60849,-4.55596,-2.5685,4.21281,-4.56004,-3.19534,4.1163,-4.41097
0.270972,0.0507264,-12.9045,8.73371,-0.954321,-12.9393,8.73833,-0.616268,-12.919,8.70004,-0.639348,-12.9575,8.76844,-0.62634
4.10773,0.169565,3.88163,30.464,4.53049,2.61292,30.0895,3.7138,2.60835,30.167,3.70286,4.05221,29.7757,4.9603
18.2742,0.438531,7.91788,2.87406,-2.23717,9.18801,2.14392,-1.63923,9.40286,2.56374,-1.86967,8.04177,1.60168,-1.76274
1.20949,0.144232,-8.29758,1.40701,0.0243038,-8.31913,1.22671,0.265014,-8.65692,1.30931,0.153547,-8.13226,1.27565,-0.306423
17.0505,0.575503,-10.938,31.4235,1.0832,-11.9633,32.2235,0.659386,-11.8554,30.8393,1.49475,-9.43531,32.18,2.59259
4.31649,0.515687,-3.51547,7.01405,4.99219,-3.65336,5.8118,4.98063,-3.95186,7.43401,5.63795,-2.65084,7.30983,6.00741
14.0492,0.0375314,-9.47755,20.0046,-5.53972,-8.60434,21.2468,-5.71794,-7.74702,19.3597,-5.98187,-8.09656,21.2584,-5.8282
1.24862,0.0941325,13.0045,29.5975,-1.50406,13.3662,29.1814,-1.19368,13.0195,29.6557,-1.73308,13.0225,29.8821,-1.41267
0.666701,0.0221725,-14.0989,19.4784,-0.4674,-14.1453,18.8512,-0.796136,-14.1567,18.7913,-0.955636,-14.1404,19.4753,-0.74005
13.3082,0.202908,1.65407,9.27163,-6.10139,1.66613,11.4768,-6.44914,1.84166,8.26872,-5.69579,1.73573,11.4246,-6.46539
5.22804,0.134559,11.2554,5.79374,-2.98294,9.28556,5.65555,-3.62273,12.5561,6.00451,-2.35224,9.32064,5.73794,-3.65153
3.45572,0.377849,-11.2832,16.5033,3.29807,-11.94,15.4386,4.30222,-12.2619,15.2829,4.28854,-12.2719,15.083,4.42969
25.3694,0.379573,-8.00474,2.32894,-1.41468,-6.81626,2.17817,-1.99326,-9.56737,3.46187,-2.81988,-6.62024,1.82964,-1.6805
12.673,1.0697,4.37855,29.3049,-3.94981,5.9671,30.6065,-3.94269,6.17101,28.3846,-4.805,7.18592,29.2056,-4.00167
42.5131,0.273941,-5.59465,21.3973,-5.37271,-4.10818,21.5778,-5.91503,-5.79674,18.8937,-6.20026,-2.88268,20.1792,-6.48527
3.59068,0.136621,11.4157,17.3516,-4.71863,10.512,17.4296,-4.98282,12.2025,17.479,-4.29341,12.2538,17.3317,-4.17167
3.02027,0.264192,-4.00232,15.8373,-5.84104,-2.59999,15.8215,-6.44808,-4.34633,16.0835,-6.07823,-4.30398,15.2299,-5.9372
12.0083,1.04536,0.163798,31.2454,3.84639,1.22664,30.0507,4.66418,0.28863,30.2713,4.44293,-0.620861,30.3515,3.93594
18.479,0.630842,1.02832,20.2607,-5.62334,3.4686,19.8834,-6.00049,4.24313,20.1229,-6.05821,4.04716,20.6846,-6.31516
6.30771,1.08423,-2.52096,25.9481,-5.11978,-1.10442,26.0211,-5.48517,-1.79785,26.836,-5.72086,-1.17197,26.2587,-5.46267
6.45158,0.698622,-3.92892,12.0583,-5.15113,-1.64258,10.6969,-5.9417,-1.72043,10.4652,-5.99239,-1.08733,10.6303,-6.23234
75.0982,1.09305,-1.37635,30.3258,3.67499,1.0884,29.289,5.17095,-2.11726,28.9176,5.17294,0.877204,27.6778,5.60711
10.4088,0.284406,-11.084,3.41686,2.82587,-11.6866,4.9084,3.32346,-10.1213,4.51438,4.0746,-11.6146,4.36026,3.18125
5.37862,0.345425,-9.85355,24.8139,-4.22571,-9.82725,23.7,-4.19209,-9.59437,23.6377,-4.24485,-10.7913,25.9567,-4.74456
1.49373,0.160205,-12.3396,8.24769,3.87514,-12.7858,7.168,3.79593,-12.5215,7.18545,3.94278,-12.0276,8.20378,4.23076
6.17683,0.679511,4.86869,8.11142,5.79523,5.1146,10.0687,5.14414,6.13082,9.37796,6.06544,5.40035,10.5461,4.83685
0.702287,0.112288,-12.6774,7.17905,0.357966,-12.7948,7.27145,0.43019,-12.7858,7.02065,0.0549662,-12.7742,6.97166,0.437453
14.7193,0.650661,7.85469,1.77389,1.54657,9.10622,1.59809,2.40894,7.64546,2.35112,3.5202,7.79129,2.5022,3.73456
5.08175,0.0774555,4.52162,2.00686,-3.08172,5.04431,1.88709,-3.15158,3.3025,1.62533,-2.66395,3.48811,1.52149,-2.59487
3.6063,0.389287,-6.36714,7.31916,4.41032,-7.04519,8.25253,5.55025,-6.73083,6.53242,4.53286,-5.83001,7.27911,4.70228
6.91528,0.446916,-6.78995,29.8526,3.63751,-7.07394,29.3532,4.3733,-4.94611,30.0504,4.45605,-6.9647,30.6913,3.65325
25.8075,0.781258,4.77095,2.36794,4.17283,4.87217,6.01264,5.60958,3.46523,3.67146,4.76056,4.30646,4.13095,4.61296
12.8555,0.875481,-9.99951,27.68,-3.61442,-4.80691,29.3812,-4.56079,-10.0756,26.8323,-4.41951,-5.36893,29.3567,-4.56767
17.7842,0.601228,2.12758,11.9406,5.27828,1.18977,11.924,5.90764,3.41433,11.3908,5.74324,2.6171,10.1447,5.45182
12.4597,0.617378,12.2173,4.65646,1.6398,12.5985,3.89462,2.15189,13.053,5.32799,1.93122,12.8186,4.05458,-0.631672
1.18466,0.073992,2.5931,23.4742,-5.80884,3.15104,23.3182,-5.78189,3.1564,23.4098,-5.7994,2.09999,23.5133,-5.67157
83.4731,0.23242,3.50772,25.8703,-5.51041,5.32917,23.8074,-5.52904,5.87714,25.5772,-5.66162,3.47633,23.3995,-5.54068
2.07723,0.069341,12.2603,7.99932,-2.87918,11.3172,7.70209,-3.71324,11.2442,7.62943,-3.62002,12.999,8.42939,-2.39491
17.6777,0.175959,10.8917,24.7036,-3.51752,10.7519,24.8525,-4.41794,10.64,24.7078,-4.51554,12.2206,26.7763,-3.66612
8.34009,0.233741,-3.55028,2.52727,3.75093,-3.55813,5.10623,4.80211,-3.67105,5.16868,4.77792,-3.55066,5.75287,5.00397
16.0606,0.879242,6.94536,31.998,3.43086,5.6057,30.427,3.35425,6.39044,30.5559,3.99672,7.16723,30.1299,4.58719
5.83746,0.0543798,0.103123,5.52632,5.20997,-0.963268,3.98105,4.53682,-0.868879,3.76015,4.48026,0.660892,5.91163,5.50754
11.8314,0.939459,-3.88845,6.11875,-5.00763,0.101497,8.44457,-6.08881,-0.188396,8.40411,-6.10878,-0.0455891,8.31368,-6.07464
5.7291,0.0104821,-5.91904,1.39676,2.51325,-8.12151,1.47766,1.56927,-7.08422,1.46276,2.21517,-8.17943,1.44332,1.28229
8.01358,0.0722618,-5.13689,4.44226,4.58922,-6.85207,4.60956,4.04195,-6.7475,5.26266,4.21636,-4.19812,4.51235,4.80513
1.29165,0.114418,7.64841,2.27079,-2.75008,6.72408,2.3658,-3.42997,6.65861,2.32886,-3.43479,6.68297,2.29401,-3.39686
5.18563,1.28593,-3.97637,31.1796,-3.29119,-2.69411,32.7279,-2.57917,-2.83799,32.8289,-2.47648,-2.66599,32.8177,-2.4059
1.76818,0.751261,-1.28895,29.919,-4.43454,-1.0023,30.5908,-3.58533,-1.07457,30.6544,-3.63039,-0.93089,30.5347,-3.62358
4.49114,0.0631843,3.2595,11.8108,5.75539,4.39659,11.7224,5.60785,2.96362,11.638,5.65441,4.53178,11.5737,5.55834
16.8882,0.414236,5.23137,14.4715,-5.61014,6.03553,17.3043,-6.21549,4.67808,14.2608,-6.11125,5.99995,13.9894,-5.83678
7.56958,0.243493,10.6525,15.0918,5.05351,10.283,16.4499,4.6766,10.6474,13.557,5.15793,10.7811,13.2078,5.06939
10.6052,1.48288,11.9796,11.6038,3.31338,10.2025,9.94773,4.52111,9.68407,11.3554,4.09812,9.69823,11.2754,4.14636
1.50568,0.137672,2.4102,30.0824,3.64396,2.20616,29.4549,4.09575,2.24022,30.7172,3.84776,2.55677,30.2356,3.67769
3.11811,0.22008,-3.85187,11.8428,5.022,-3.2804,12.0178,5.51746,-3.92943,11.4816,5.01524,-4.21013,11.9787,5.34891
22.0838,0.0308058,-14.0132,20.2231,0.48474,-14.1177,20.5712,-1.09069,-14.0828,20.1314,-0.649628,-14.1198,21.0108,-0.657012
21.0225,0.815515,-0.544855,21.5957,5.59501,-0.964064,20.7682,6.51354,2.77105,21.6403,6.05935,-0.804885,23.7028,6.31235
3.54665,0.300888,11.1697,5.65104,3.43661,11.4711,5.45046,3.06356,11.9373,6.58118,3.88551,11.2313,5.29627,3.98296
2.91845,0.231985,2.94522,18.9856,-5.9143,2.45508,19.0109,-6.37315,3.62225,18.1336,-6.39731,2.95643,19.3392,-5.99535
2.08055,0.123489,-12.0507,9.66563,3.78551,-11.4813,11.7852,3.36263,-11.4145,11.5675,3.42212,-11.44,11.4327,3.45738
2.89088,0.562656,-6.00332,26.5134,-4.67895,-5.47433,25.5458,-5.26063,-5.38846,26.0213,-4.95733,-5.54807,24.967,-5.68185
1.31978,0.0667573,-5.11994,10.8124,5.86039,-5.93534,10.7557,5.74157,-5.94597,10.8348,5.7118,-4.82468,10.6197,5.88419
3.62446,0.0168021,7.35941,31.9325,-3.0062,6.98574,31.7354,-3.06536,5.58419,31.3393,-2.8423,5.66559,31.4852,-2.6498
4.33074,0.694075,-9.92927,25.1322,-4.27701,-9.91774,26.8653,-4.46736,-9.84517,26.5133,-4.59765,-10.0834,26.774,-4.45851
29.447,0.668076,-14.0569,22.745,1.01855,-14.1691,22.3062,-1.70063,-14.1544,21.4043,-1.5403,-14.1914,22.8052,-1.71866
7.22125,0.155487,4.03294,3.03152,-4.27049,5.7044,2.68721,-4.09757,5.84783,2.85054,-4.21011,2.71946,3.41584,-4.83839
2.4173,0.704538,-12.4211,25.6693,-3.4496,-10.9345,25.8733,-4.71695,-10.9345,25.8285,-4.71234,-11.1475,25.7111,-4.62872
10.6267,0.0332138,-14.1678,15.9982,0.270634,-14.2061,15.8617,-0.253528,-14.06,14.4823,0.707334,-14.0659,14.3315,0.114307
24.9494,0.303043,-4.3133,17.1721,-5.9418,-6.47862,17.4757,-5.92122,-4.62076,16.1761,-6.13339,-2.28084,17.2703,-6.58307
0.200974,0.0225472,-9.63116,6.42753,-4.24085,-9.41832,6.54366,-4.34467,-9.61921,6.64899,-4.29989,-9.55326,6.6424,-4.3186
1.52823,0.261897,-4.03477,21.5226,-5.9333,-2.78053,21.3029,-6.42704,-2.84558,21.593,-6.36998,-2.84653,21.4062,-6.37968
1.52023,0.160083,5.56208,13.4262,-5.69137,6.12883,13.6097,-5.56958,4.93555,13.5881,-5.71201,4.57583,13.6052,-5.63031
14.2061,1.50394,3.04327,4.43918,5.45498,1.3646,6.11327,5.79236,1.49457,5.62953,5.43012,1.40888,4.97463,5.33619
1.24983,0.00328661,-13.9793,13.4867,0.350574,-13.9319,13.0937,0.466835,-14.0052,13.4495,0.727834,-13.9517,13.1005,0.674162
2.27726,0.241831,-3.03118,27.6207,-4.71278,-2.53084,27.6247,-4.83944,-3.39202,27.0828,-5.66402,-3.0925,28.0478,-4.70206
29.5843,1.74858,-10.0386,3.46516,-2.66285,-9.32331,1.79652,-1.32137,-10.5215,1.99777,-0.932481,-10.0357,1.93918,-0.933669
0.743197,0.0543088,4.56462,31.7879,3.95802,4.78036,31.5381,4.12614,4.35482,31.9371,3.96719,4.78051,31.8276,3.97081
1.67899,0.437817,9.57051,13.7956,5.63053,9.76911,15.6155,5.39338,9.73457,15.957,5.29693,9.65092,15.798,5.42155
3.8494,1.47072,-3.95122,2.93907,3.94201,-5.80529,3.28529,3.44744,-5.74418,3.17162,3.37528,-5.69411,3.07832,3.37047
3.83493,0.388019,-7.32013,11.9835,4.56201,-5.72575,12.0964,5.43759,-6.28373,11.9034,5.24388,-5.72794,12.177,5.45318
7.52965,0.692911,0.0654687,14.3277,-5.77449,-0.00742579,15.7671,-6.29692,-0.0617488,16.1492,-6.25313,1.53965,14.2833,-6.28084
1.19442,0.483141,13.9391,16.4347,-0.0921803,14.0032,16.1547,0.499555,13.9664,15.9567,0.378073,14.0265,15.7385,0.328101
2.40579,0.0715946,-0.510834,26.0871,6.20469,-0.338915,24.9601,5.70597,-0.491503,25.2477,5.90603,0.00943059,25.1304,5.61858
3.53337,0.128315,12.8542,19.6828,-3.5559,13.5269,21.1419,-3.30383,13.1021,21.136,-3.82594,13.3289,21.6103,-3.66691
3.62908,0.477365,-1.79431,11.8177,5.86961,-3.01503,12.0382,5.68013,-3.1235,12.03,5.61711,-3.04906,11.8062,5.68784
7.78712,0.303621,-8.12816,25.0327,4.07651,-8.95164,25.3627,4.42873,-6.90347,25.6797,5.49354,-6.28455,25.3725,5.48818
5.14135,0.331637,-5.36733,24.8376,4.87628,-5.92191,26.2323,5.59886,-6.13642,25.0205,5.2533,-6.01527,26.295,5.61418
2.71942,0.269072,1.37914,27.0631,-4.94214,2.06565,26.9551,-5.67513,0.673426,26.9773,-5.31047,1.16334,27.4713,-4.81765
8.59055,0.110277,5.65091,7.63913,-5.43671,7.0546,7.58497,-5.23452,7.19794,7.72356,-5.20289,3.27826,7.84808,-5.45925
4.22902,0.385876,-12.0803,11.9834,3.66323,-13.1608,11.9019,3.22593,-13.2846,11.7843,3.21873,-13.0715,12.0558,3.23199
6.99702,0.388455,-5.41364,7.30647,-4.57913,-5.12963,6.94504,-4.71207,-4.8634,8.31798,-5.57596,-6.38163,7.07381,-5.29345
2.41314,0.00961481,-13.345,9.86413,1.3301,-13.1518,9.25162,0.671686,-13.1525,8.99339,0.936693,-13.0542,8.83974,0.407456
17.2422,0.763766,12.2641,24.4272,-2.35507,14.2837,23.0607,-1.61812,12.2756,24.4974,-3.45023,13.5863,26.7688,-1.60957
1.85661,1.29256,-12.1961,22.5451,-3.47314,-11.4947,21.7346,-4.43049,-11.5821,21.6665,-4.41325,-11.6331,21.6312,-4.4052
11.1718,0.925623,-4.32059,2.07925,3.29661,-4.2428,0.965766,1.60875,-4.9388,1.24856,2.07773,-4.85595,1.08279,1.95872
17.0655,0.69102,-1.04248,14.7048,5.8303,1.85542,14.8327,6.54405,-1.40801,15.9924,6.32385,-1.30648,14.0409,6.63061
3.10688,0.153647,-4.21002,6.91502,5.43572,-5.78139,7.21785,4.72311,-5.77553,7.28382,4.75589,-5.18216,7.17837,5.10298
5.28884,0.18878,-2.16309,6.96892,5.61146,-2.22046,5.68107,5.26216,-1.49466,7.38066,6.18656,-2.13991,7.42367,6.02224
15.1174,0.232405,7.79326,10.5968,-5.59766,7.6869,7.5409,-4.8155,7.59677,7.76089,-4.90634,7.61889,12.291,-5.74192
8.14462,0.668636,4.10245,29.2796,-3.88164,2.46726,29.0526,-3.86381,4.77408,28.5753,-4.5243,2.32577,29.3235,-4.02749
1.85578,0.426787,-14.1266,21.2311,-1.04267,-14.1197,20.7134,-0.98275,-14.0037,21.279,-0.242938,-14.118,20.7856,-0.878419
6.37168,0.52803,-12.1559,18.6822,-3.06235,-11.5244,18.6708,-3.62887,-12.8299,17.5551,-3.33507,-12.9043,19.4216,-3.72346
24.9314,0.72241,4.01274,13.4679,-5.20953,3.38966,17.5249,-6.49078,5.06444,12.9518,-5.84894,2.13617,13.2155,-5.942
9.00225,2.12953,-2.67431,29.1533,4.34735,-3.08324,32.3354,3.30741,-2.27981,31.301,2.71474,-2.17967,31.3648,2.71321
6.18479,0.244889,6.53432,11.8203,5.3935,5.92744,11.6401,5.3378,7.67272,11.467,5.22333,8.10205,11.449,4.82696
11.381,1.31262,-4.27332,7.48598,5.67677,-3.34483,9.7935,6.08918,-3.95823,11.2569,5.05374,-4.02546,11.4758,4.99806
3.97039,0.0754546,6.8203,4.37894,-4.45609,6.81644,4.78744,-4.86085,7.54557,3.28672,-4.01803,7.00302,3.91327,-4.27645
3.49435,0.0412409,-2.71709,28.7918,-4.65134,-2.01608,28.7766,-4.83955,-2.69151,29.718,-4.42307,-2.8396,29.8528,-4.35317
35.9104,0.210337,12.8579,30.338,0.328736,11.4733,32.223,1.00757,11.1035,30.9583,1.22861,10.608,32.2496,1.35527
66.0792,0.172171,-11.4967,8.53057,4.35674,-10.3274,4.91741,4.08545,-11.6389,6.17099,3.68512,-9.64909,6.03677,4.60098
69.1118,0.541785,-9.9966,30.6302,-3.31951,-10.0085,28.7682,-3.53811,-7.09291,30.719,-4.07141,-7.76013,29.3247,-4.39858
2.93663,0.096895,-0.840752,30.7314,-3.44575,0.720307,31.1188,-3.82664,-1.047,31.1102,-3.45845,-0.90285,30.5813,-3.54978
12.6546,0.730303,4.02547,16.433,5.46282,4.51137,17.4625,5.98551,2.82332,15.8618,6.46171,6.67236,13.8114,6.23538
18.0491,0.647017,3.03023,31.9109,-1.82519,2.40181,33.6665,0.545032,4.01755,32.6076,-2.61608,2.39422,32.1062,-2.50045
8.1257,2.23383,-3.29065,23.2912,6.16977,-5.67893,22.875,5.6183,-5.56178,23.3747,5.41309,-5.60814,23.5872,5.44601
1.48161,0.0255051,5.57289,32.9831,-0.677745,6.72337,33.2397,-0.794492,6.53758,33.27,-0.588261,6.64348,33.2426,-0.734014
5.25223,0.142293,-3.09617,0.71725,-0.137506,-4.02495,0.872093,1.00151,-3.99439,0.950985,1.51169,-3.23488,0.860231,1.53429
0.838544,0.0676552,9.44602,8.46027,5.05879,9.27004,7.96089,5.00277,9.40375,8.9388,4.93826,9.41189,8.03691,5.02203
2.71284,0.733952,-6.11572,8.86596,5.66295,-4.71525,8.72543,5.81453,-4.92806,8.6407,5.89016,-4.75639,8.81644,5.8568
2.90548,0.173087,0.090103,16.7848,-6.02333,-0.323179,17.242,-6.3923,-0.145587,16.5434,-6.11849,1.28149,16.9821,-6.26922
32.7109,0.463579,-4.47421,9.64742,-5.84867,-3.00353,7.47495,-5.84945,-3.48153,7.7107,-5.62644,-2.86105,9.72552,-6.17271
4.66087,0.424565,12.9614,6.58325,1.22827,13.7706,7.23939,1.54941,13.126,5.91411,1.54647,13.2464,6.29851,0.327425
4.83755,0.616935,-6.28402,26.7269,-4.59019,-6.24375,27.8929,-5.316,-6.17175,27.8452,-5.30476,-7.49627,25.938,-5.25528
15.182,0.101398,3.63098,23.1422,-5.41224,3.67412,22.058,-6.49143,6.51292,23.3148,-5.23607,4.6108,23.2398,-5.20684
2.04276,0.138759,11.9324,23.8859,-3.62723,12.6968,23.4034,-3.35673,11.1691,24.4393,-3.56484,12.2014,23.8638,-3.53737
3.63028,0.0141826,-9.06462,1.61413,0.773788,-9.50224,1.67955,0.479079,-9.70144,1.63997,-0.0155662,-9.24475,1.47276,-0.100453
58.4842,1.21541,13.8299,24.7959,0.659017,14.4263,22.0296,-1.27313,14.303,24.6755,-1.37628,14.4193,25.902,-1.00758
3.17451,0.0633867,12.8338,9.3297,-2.20827,13.5138,8.87212,-1.31751,13.5144,8.74216,-1.26091,12.4934,9.49404,-2.49264
5.09976,0.295701,-5.22003,24.645,4.85587,-3.15754,24.8272,5.80082,-3.10498,24.757,5.81681,-5.38827,24.2705,5.11248
1.69341,0.18951,-11.6923,13.5241,-2.72231,-12.1932,13.0221,-3.01036,-12.41,12.6372,-3.11969,-12.2657,12.6255,-3.17419
2.34803,0.21918,0.106224,22.7526,5.59987,-0.200806,22.3873,5.8438,0.666891,22.7014,5.80095,-0.112951,23.3736,5.80456
26.625,0.260115,12.223,16.8932,2.70854,12.4522,18.4071,3.37159,13.2565,15.9712,1.7241,14.0147,16.4866,1.1272
4.17562,0.635222,-0.968981,3.82777,4.4613,-2.027,1.94931,3.51495,-0.784334,2.55771,4.213,-2.21446,1.98894,3.52597
7.34289,0.0148975,-1.74674,11.8186,5.87495,1.14665,11.7666,5.8926,-0.288097,12.0037,5.97409,0.827547,11.9097,5.94595
8.14844,0.688745,-1.16902,19.6208,5.77596,0.790604,19.6594,6.22083,-1.45799,18.7208,6.41965,-1.6375,20.8801,6.66519
13.9479,0.261269,8.54053,30.2201,3.32204,8.89308,31.0534,2.38846,8.42685,28.4318,4.22811,8.56727,31.1643,2.36337
11.363,0.673212,1.86969,22.859,-5.46297,1.51817,26.5894,-5.73223,3.00052,22.7861,-6.18633,1.03235,22.6252,-6.13687
4.52984,0.156477,-8.82194,31.9453,-2.98548,-9.53624,31.9408,-2.93147,-9.05218,32.2209,-2.04221,-8.52966,32.1387,-3.22576
10.7506,0.869202,-7.95003,28.4539,3.62194,-8.3708,30.629,4.04073,-6.94084,28.3765,4.34863,-8.53705,27.7615,4.85272
2.11619,0.0518427,-8.45876,21.6029,5.07819,-8.27259,20.2985,5.67409,-8.47311,20.0794,5.59084,-8.53358,20.1419,5.52715
1.48883,0.181344,-10.6134,22.7857,-4.24718,-10.1825,23.0914,-4.25719,-9.97925,23.0513,-4.20862,-11.2511,22.754,-4.0078
3.81544,0.358677,-10.8073,24.7262,2.72478,-10.2181,24.857,3.23884,-11.1053,25.1452,2.93867,-11.2648,23.5988,3.20176
10.9013,0.707206,-1.94332,25.3642,5.26891,-2.20839,23.2584,5.77283,-3.35507,25.6582,5.90396,-1.14013,26.1238,6.10758
2.70698,0.00138585,-3.03733,13.3995,-5.57098,-1.28743,13.3005,-5.80962,-1.48855,13.4419,-5.80981,-1.55243,13.5399,-5.82105
11.5944,0.537425,-3.54842,1.95194,-2.05124,-4.05369,3.62914,-4.16616,-4.07097,3.22674,-3.81816,-2.3218,1.37222,-2.36046
1.40063,0.0718995,12.0065,11.6319,3.30877,12.9358,11.628,2.86515,12.6186,11.7062,3.04772,13.0833,11.471,2.67899
16.6624,0.0500631,9.25436,31.109,1.9918,11.1454,30.7793,1.27138,10.255,32.6567,1.29863,8.35872,31.5248,2.36407
20.795,0.811708,12.1678,26.635,-3.40782,13.216,29.1843,-1.57375,12.9021,29.6032,-2.08459,12.7487,28.361,-3.17443
9.66925,0.550281,2.20961,1.89987,2.81,1.99917,0.963013,2.3436,1.99239,1.87808,3.82767,6.88092,1.43447,3.00598
8.07661,0.0975268,13.5498,8.62843,0.0847673,14.1256,12.5707,-1.10246,14.2329,12.9837,-0.884815,14.225,12.9845,-0.932296
2.69164,0.271705,9.25096,3.08824,-2.96097,9.14092,3.96153,-3.77449,9.281,3.73762,-3.57826,9.11326,3.86591,-3.75163
13.9217,0.369725,-10.7159,31.2237,1.29827,-11.8181,29.4891,2.11046,-12.1988,28.6606,2.70961,-12.23,28.5852,2.76401
0.335296,0.157511,-13.3596,22.4171,3.04561,-13.2056,22.4035,3.27828,-13.222,22.6815,3.23927,-13.2135,22.5452,3.23594
3.78619,0.0241174,-2.7604,8.40605,-5.75906,-2.64241,10.0788,-6.2297,-1.86454,8.03742,-6.12975,-2.6528,9.63493,-6.12208
2.35772,0.118879,-10.3268,14.717,5.2692,-10.4034,13.5867,5.14617,-10.1378,15.8527,5.08869,-10.2938,13.884,5.28197
8.70401,0.8239,5.36026,11.0248,4.50987,4.56857,11.7842,5.56762,5.20129,10.0619,5.116,6.61181,11.4779,5.4574
0.404406,0.117401,-7.76783,19.7091,5.94405,-7.59642,19.8622,5.95876,-7.58043,20.0088,5.99896,-7.53453,19.8649,6.00946
7.44302,0.528457,-8.22542,25.2313,-4.69378,-7.22164,25.4779,-5.20086,-8.4515,24.0742,-5.22323,-8.53886,26.0247,-5.23223
15.2228,0.12624,12.8185,22.6207,-3.06825,14.2603,22.5063,-1.64628,11.3433,22.826,-4.09259,14.2552,22.4318,-1.69583
6.17333,0.210414,-1.64449,32.4571,-2.83277,-1.99419,32.8917,-1.54623,-1.26932,33.1683,-1.88138,-2.19647,32.6929,-1.87517
13.3247,0.339165,-7.73342,1.41532,-0.630277,-8.41642,2.25243,-1.3328,-6.74138,1.62209,-1.14462,-6.01024,1.65674,-2.00785
3.80092,0.290298,-4.96069,19.252,-5.57504,-5.39193,18.2648,-6.25361,-5.21858,19.8785,-5.77418,-4.38987,19.3465,-5.7232
16.6069,0.565409,-8.71944,8.79554,4.23091,-7.98882,8.69722,4.73524,-9.88404,10.3303,5.18255,-10.2527,8.54877,4.8747
5.44666,0.183647,10.5515,32.9557,-0.482062,10.2464,33.0992,0.623391,10.011,33.0889,0.309297,9.18835,33.3026,0.286371
0.625282,0.534944,2.25716,12.2288,5.51134,2.75856,12.9809,6.26302,2.66419,12.9782,6.25153,2.80892,12.9839,6.27481
5.84799,0.381602,9.35375,8.94025,4.95009,9.28745,11.1361,4.15004,9.59377,11.4496,4.12007,9.29308,10.5455,4.48725
3.79538,0.0983935,-9.80758,24.8622,3.4464,-9.02613,25.0707,4.24077,-10.1684,24.7636,3.26679,-8.97005,24.8478,4.26926
40.8971,0.325745,-14.1018,16.2838,0.918674,-13.9851,13.917,1.20264,-13.858,13.5201,1.82263,-14.0625,14.034,0.57836
14.1091,0.0266376,-9.36485,32.1874,-1.58616,-7.55702,33.0355,-1.24424,-7.48678,32.3127,-2.46954,-10.6516,31.7033,-1.7244
9.57417,0.470291,7.81096,5.471,-4.17552,8.44184,5.30357,-4.49426,7.58448,7.54193,-4.83676,6.9718,5.19973,-4.85406
3.35914,0.281356,7.65451,27.9086,4.21159,7.9897,27.7587,4.18974,7.75981,29.4319,4.65426,7.5771,27.4365,4.88007
2.29402,0.103469,-1.47608,33.6246,-0.913026,-1.94231,32.9361,-1.50429,-2.00576,32.9101,-1.5079,-2.12607,32.9489,-1.43953
22.8456,0.0819157,-9.92129,32.1701,-1.30496,-11.2527,31.7302,-1.36724,-10.6738,33.0271,-0.179984,-12.0324,32.6218,-0.06674
4.00449,0.164173,-1.37373,16.1968,6.30987,0.277444,16.0137,6.59251,0.655817,16.0331,6.61951,0.650171,16.1739,6.61899
0.714327,0.186565,-2.95272,32.8445,3.02986,-2.94772,32.9962,2.80417,-3.05721,33.0588,2.78057,-2.78129,33.111,2.7927
28.209,1.10338,-9.21357,12.0183,4.71306,-11.8416,12.1332,3.70133,-8.96837,16.1961,5.33643,-9.04962,15.0063,5.59441
7.3927,0.156927,9.53946,30.2528,2.97101,9.52479,28.4862,4.16066,9.75088,30.8568,2.19356,9.59095,30.8595,2.25954
5.22586,0.100768,-10.3746,18.6201,-4.63755,-11.5134,18.5968,-3.67657,-8.61676,18.357,-5.77983,-8.67839,18.5502,-5.74943
1.47252,0.121543,-2.27901,5.68182,5.24467,-2.26575,4.25859,4.81773,-2.36533,4.40117,4.81122,-2.31839,4.25711,4.78245
2.07205,0.246082,-4.66477,5.99646,-5.07212,-5.13403,6.84932,-4.73285,-4.98693,6.74586,-4.81034,-5.41437,6.85801,-4.73037
5.971,0.372626,8.76253,5.81659,-3.77559,8.73471,6.28402,-4.72218,8.54577,4.39583,-4.12049,9.28844,5.70234,-3.63226
11.1027,1.65136,-11.138,16.6535,3.29948,-8.62874,16.8395,4.90833,-8.1609,16.7904,4.89599,-12.2807,18.5215,4.18541
2.4748,0.0853352,-9.11561,33.2939,-0.457596,-9.09176,33.5584,0.151236,-8.99506,32.7615,-1.26456,-8.93297,32.7897,-1.26032
1.97116,0.130517,0.0848479,3.81931,-4.71657,-0.606764,4.0127,-4.93286,0.502423,3.69646,-4.82314,0.648476,3.77701,-4.87754
4.14534,0.238336,6.38737,19.5495,-6.29052,6.82884,20.1899,-6.52081,4.7357,19.9831,-5.98757,7.93018,19.4678,-6.22983
1.90761,0.0552169,-13.3882,15.7887,3.17994,-13.1385,16.3957,3.53137,-13.0201,16.3821,3.67983,-13.204,15.2898,3.53632
20.4323,0.742756,-6.97953,3.4256,2.82335,-7.41679,2.12936,3.01623,-7.60619,4.59614,4.44118,-5.77232,3.16391,3.35419
9.26804,0.0357952,6.17952,22.2728,5.15933,7.08347,22.5335,5.29851,8.98538,22.4908,5.72321,8.9227,22.6976,5.69031
5.39521,0.202066,-9.7134,3.62046,-2.9446,-10.5,4.47658,-3.58674,-9.19815,4.49806,-4.01233,-9.24795,4.71282,-4.15489
12.1711,0.155033,12.0979,7.60198,-2.25343,10.305,6.80075,-3.54431,10.5933,7.05579,-3.36364,13.5478,8.51797,-0.909745
0.1919,0.014222,-7.30601,6.15242,-5.17923,-7.46133,5.98057,-5.1293,-7.31523,5.91937,-5.18083,-7.39152,5.92935,-5.15296
6.17415,0.28043,-0.791176,7.41357,5.99621,-1.01432,4.62653,5.06533,-0.50074,7.64914,6.30959,-1.12052,4.98171,5.29691
0.105062,0.014013,-14.3613,27.7928,0.493768,-14.3467,27.4105,0.542113,-14.3032,27.5686,0.699903,-14.3251,27.5653,0.611161
8.49324,0.508402,12.2197,7.21456,2.92107,12.2621,6.58721,3.5155,13.2291,6.63855,1.60613,13.0644,8.14453,3.25913
6.74851,0.354537,13.1249,24.6873,1.70399,14.0806,25.9546,0.693145,14.194,26.0252,0.492171,14.0571,22.6354,0.884518
3.75254,0.192319,-4.10164,5.90653,-4.93252,-3.99485,5.10114,-5.30365,-4.4653,6.08724,-5.02623,-3.50488,5.11723,-5.39735
2.94695,0.282133,14.0406,14.5147,-1.16605,14.0049,15.2699,-0.440687,13.9717,15.4614,0.116131,13.9431,15.3979,0.0597182
9.17394,0.4156,-7.23953,16.0986,-4.93886,-6.44006,18.2326,-6.09152,-6.50092,18.7319,-6.16017,-6.74571,18.0824,-5.9463
1.50681,0.200421,-4.89079,12.0911,5.64882,-4.41498,11.963,5.46135,-5.68531,12.0984,5.45486,-5.72437,12.0091,5.47114
21.3305,2.05911,6.32856,26.5499,-5.36537,4.90143,28.3847,-4.52005,5.27604,28.7505,-4.49621,3.07754,26.3902,-5.29563
2.49233,0.381985,-6.0143,20.2645,5.3096,-6.32946,20.9646,5.68716,-6.20382,19.5768,5.81879,-5.51888,20.153,5.61299
12.3952,0.723718,13.8457,26.024,1.32396,13.7754,28.1138,0.119,13.4715,28.5674,-0.033311,14.0349,27.5465,0.286933
16.2015,1.75341,9.2414,16.5523,5.06277,9.40872,18.7207,4.73775,12.1964,16.8175,3.08006,10.2796,18.5524,4.636
3.92821,0.159859,-1.69473,32.1797,2.76018,-2.19661,31.4316,2.66286,-0.855179,32.6467,3.26254,-1.76414,32.6059,2.96875
6.81255,0.16984,0.998897,26.0828,5.86151,2.16109,29.4552,4.10584,1.87851,28.0551,4.91538,2.35123,29.4549,4.10528
13.2842,0.177814,12.9557,19.301,2.42299,10.8776,19.3055,3.90853,13.8778,19.3937,1.45287,13.8632,19.4658,1.49593
17.4549,0.0659727,-0.887928,2.14297,-3.25859,1.00994,2.65353,-4.41041,0.908829,1.43257,-3.07795,0.336347,2.19187,-3.66899
7.54016,0.243184,-5.57289,22.4333,-5.04541,-2.77352,24.0134,-5.8151,-5.69449,22.9185,-5.19091,-5.43019,21.8919,-5.42442
55.419,0.759169,-0.503583,18.4122,6.45826,-3.80574,19.4336,6.49934,-3.3831,17.9082,6.20327,-1.30418,16.5512,6.49507
1.39339,0.17034,8.33402,32.2275,2.10683,8.28834,31.9912,2.32472,8.10192,32.5051,2.38293,8.7877,32.5317,2.078
5.80803,0.0750315,-3.07093,16.1653,5.80363,-1.41874,16.2782,6.30884,-2.21816,16.3161,6.0929,-1.55592,16.0947,6.29074
2.32685,0.0608285,-0.661503,33.2132,2.75188,-1.03598,33.6251,1.98789,-0.20032,33.3764,2.5799,-1.15939,33.7105,1.79631
4.36384,0.0696037,-0.0122809,33.5922,2.04135,1.67871,33.6386,0.90869,2.27057,33.6761,0.673094,1.75254,33.6364,1.22941
0.81986,0.0557543,-10.4634,33.0943,0.572503,-10.5105,33.1618,0.0809321,-10.1479,33.2328,0.75611,-10.579,33.1422,0.0864153
1.34453,0.0527732,-3.30403,23.0165,-5.76305,-2.59962,23.1786,-5.52527,-3.863,22.9967,-5.70091,-4.07024,23.0718,-5.61998
7.83383,0.920936,8.13511,1.13811,-0.588979,7.8589,1.18897,0.812089,8.40961,1.48185,1.24845,8.20585,1.41607,1.04211
6.75112,0.194253,-9.75994,13.9882,-3.93894,-11.1,14.1167,-2.62405,-9.27037,14.0404,-4.08843,-11.1037,14.0256,-2.61116
5.72691,0.436701,13.6318,19.7202,-0.296405,14.23,19.8119,-0.714944,13.7231,18.9995,-0.506173,13.9962,19.6758,1.30214
6.60141,0.68904,-1.49026,30.955,-3.3711,-0.43471,32.3355,-2.71984,-2.31414,31.4788,-3.63547,-0.420196,32.877,-1.83981
26.983,0.868484,0.563861,7.97275,-5.2458,0.240845,6.46643,-6.01878,-0.744081,10.2834,-6.30309,-0.14714,9.21645,-6.2171
30.3431,0.362264,9.23877,30.8268,-3.19264,10.3759,32.622,-1.35707,9.33942,32.686,-1.1154,8.89859,33.199,-0.297067
4.59545,0.415786,5.69866,22.0912,5.03777,6.1932,22.19,5.18528,5.40973,23.0147,5.39639,5.22364,21.4271,6.18435
6.36328,0.026703,12.8402,19.6093,-3.55165,12.4304,15.8924,-2.99923,12.3796,15.9512,-3.07406,12.5465,17.4632,-3.31535
2.4937,0.415864,9.08108,23.0633,-4.88985,8.04939,23.3856,-5.07193,7.9026,23.2908,-5.10779,7.6176,23.4121,-5.00819
3.40844,0.381115,-12.9527,25.4862,-2.87867,-12.4459,25.6524,-3.39882,-13.4924,26.005,-3.20923,-13.2474,24.9334,-3.14741
0.872963,0.431932,12.3766,9.94351,3.33337,13.1398,9.79571,2.84919,13.1614,9.8003,2.81108,13.1208,9.94676,2.89081
20.571,0.689996,-12.5235,17.0138,-2.39235,-13.1628,16.0664,-2.51535,-9.86917,17.0526,-4.99931,-13.4685,17.5464,-2.80624
4.39849,1.11064,2.62179,10.0693,5.47992,2.89897,8.5193,6.26298,2.22335,8.38319,5.69266,2.30767,8.45135,5.64638
2.23727,0.155574,-11.6507,6.02722,3.61984,-11.6144,4.87909,3.36662,-11.4784,5.25818,3.59403,-11.8687,5.07972,3.30703
7.5748,1.2647,12.8869,30.2186,-1.36877,11.7608,29.841,-3.13525,11.3856,30.3283,-2.26132,11.3999,30.3723,-2.22014
15.8524,0.185284,9.93678,21.7179,-5.23373,8.44893,18.9202,-5.05461,10.4849,22.6905,-4.66805,8.87101,20.8262,-5.98273
6.59792,0.358303,4.93944,2.11233,-3.26058,6.35242,2.5685,-3.68767,6.28627,2.84161,-4.07039,6.59878,2.38823,-3.49267
25.5695,0.324272,9.99053,7.46105,4.45711,12.3806,7.1275,3.64906,9.67725,4.56585,3.57379,10.9401,7.4725,4.43904
3.74198,1.22338,11.4893,5.4818,3.06609,12.3676,4.73295,2.02296,12.4418,4.89327,2.10304,12.8587,5.45511,2.48928
3.5075,0.105881,-10.1865,30.6444,3.19594,-10.4921,30.7728,2.62272,-10.7844,30.591,2.51833,-10.2423,31.1936,2.46976
2.93774,0.449642,-8.43726,6.18132,-4.66279,-7.50206,4.89222,-3.90624,-7.37135,4.83978,-3.91816,-7.51335,4.8056,-3.87047
3.8479,0.00987634,2.34797,2.28246,-3.5988,2.60329,3.24541,-4.72747,2.62346,2.96156,-4.44006,3.35062,1.87041,-3.61364
2.752,0.0799545,1.96377,16.811,-6.08274,3.1817,17.5437,-6.43152,3.54991,18.0879,-6.42335,3.4756,17.8985,-6.46057
3.11276,0.00111959,13.2584,6.29642,0.284652,13.6322,5.95331,-0.77713,13.4061,6.32396,-0.0431359,13.7097,6.24309,-0.798582
8.70676,0.47031,-5.95353,2.72037,-2.2021,-6.57557,2.10109,-2.10127,-5.31885,2.1427,-2.64136,-6.46812,3.50182,-3.20557
6.22254,0.135785,8.87996,1.21951,-0.521546,9.17008,1.81391,-1.2431,9.82607,2.06348,-1.17847,8.93591,2.08099,-1.66035
3.21613,0.562697,-5.90475,23.2115,5.52383,-5.97274,21.5445,5.94613,-5.96979,21.1227,5.91143,-6.07213,21.5394,5.92736
8.07422,0.278792,10.462,28.5939,-4.21087,10.2273,26.025,-4.47973,10.2913,26.0351,-4.42901,10.2002,29.2623,-3.94144
15.5178,1.30272,-0.87035,10.0399,5.49965,0.226623,11.5221,6.10576,0.417258,8.03467,6.09084,0.250676,9.29452,6.22846


