
1.48797,0.000869954,-4.25744,15.4386,-8.10932,-3.37708,16.3158,-7.78779,-4.16053,15.8212,-7.97342,-3.37318,15.8157,-7.96202
10.0286,0.356161,-14.0505,17.9199,0.577736,-14.4125,17.9845,1.50621,-14.4351,18.3565,-0.276148,-14.3055,16.3645,0.502757
3.42622,0.180259,2.05368,22.2736,7.102,1.80896,21.1006,7.06443,2.35116,22.928,6.83059,2.00884,21.4033,7.19404
7.50021,0.354889,-1.62869,24.2643,6.64555,-1.08437,24.3031,6.90739,-2.02806,22.5551,7.09055,-2.16165,24.6959,7.09969
44.6258,0.269258,-14.3221,20.917,-4.14021,-9.00901,22.0638,-5.86353,-12.029,22.4183,-3.81871,-11.9775,21.7447,-4.73664
11.609,0.546517,-12.0818,17.1443,-4.63144,-13.2569,20.4583,-5.06798,-13.1712,20.5704,-5.09586,-11.5542,16.7992,-5.31381
7.78139,0.0663089,-2.88717,29.1551,7.58447,-1.47653,29.242,7.37052,-4.26971,28.9994,7.60208,-5.02983,28.9978,7.48621
4.32947,0.276323,5.42616,7.3051,7.03944,5.554,8.90907,6.78718,6.17153,7.97999,7.1725,5.62921,8.90291,6.79683
8.72504,0.564706,8.82095,32.5376,-2.69701,11.4291,32.2735,-2.30434,8.92207,33.4522,-1.73056,10.7698,32.4659,-2.50929
35.7235,1.23086,14.3768,13.3898,-2.88931,13.7543,11.4882,-1.80515,14.0242,10.5522,-1.79903,13.8041,10.9134,-2.86232
7.75827,0.177208,-11.7229,0.999745,1.84584,-12.0426,0.649332,1.05439,-10.5809,0.42705,0.769023,-10.7958,0.589957,1.32726
0.810549,0.0928927,-13.7106,19.6644,-4.86343,-13.8903,20.0154,-4.7776,-13.788,19.5377,-4.92675,-13.7712,20.181,-4.89402
8.82018,0.525915,5.64367,33.5676,0.613104,5.49212,33.8579,2.74071,4.58643,34.1564,0.037845,5.34083,33.8571,2.7423
0.276203,0.0346771,1.22202,28.5719,-5.96948,1.42873,28.5541,-5.92809,0.739949,28.59,-5.95055,0.741362,28.5343,-5.97334
0.435673,0.031589,-15.2705,30.547,3.47197,-15.3738,31.0781,3.57924,-15.4009,31.1023,3.49717,-15.393,31.0226,3.47124
7.33113,0.026028,10.3736,18.6364,-5.59023,10.7033,21.0426,-6.00751,9.88445,18.6578,-5.81501,9.72299,19.0375,-5.96002
20.7425,0.119266,-8.96162,30.4259,-3.86093,-10.9747,30.2367,-3.14362,-6.60575,30.5908,-4.26921,-12.6469,29.8563,-2.46178
7.95713,0.387991,-9.5904,27.3564,-4.41106,-10.5623,28.3624,-4.64105,-7.61981,27.8298,-5.37025,-7.25709,27.5694,-5.4441
7.67058,0.273234,-5.46477,2.77492,-5.51943,-4.63831,2.73813,-5.56148,-5.91375,4.29621,-5.95386,-4.71707,3.12616,-5.78198
8.09972,0.103482,-1.45381,27.6064,7.89444,-0.771745,29.4274,6.89998,-0.32377,29.2542,7.53078,-0.982098,28.8239,7.30551
12.975,1.21258,8.92343,10.7116,-6.16938,10.7838,12.4839,-5.89353,10.6082,11.944,-5.7932,10.2632,11.0962,-5.58985
0.569879,0.0284894,14.7696,8.57085,-1.55477,14.8382,8.00527,-1.68456,14.7647,8.21452,-1.74348,14.9154,8.20367,-1.48014
5.83877,0.110966,-2.70835,3.48511,6.32854,-1.68965,2.58492,6.18614,-1.7062,2.79078,6.27962,-2.57069,2.41143,5.9723
10.1912,0.122725,13.9093,21.7863,-3.6786,14.5386,21.7005,-2.8014,13.155,22.0372,-4.42286,14.6762,21.4506,-2.4101
18.4476,0.645463,-6.18512,5.87943,-5.36278,-7.15434,4.89093,-5.64513,-5.47653,5.28264,-5.91377,-7.31419,10.0213,-7.25978
0.37356,0.00072757,-12.216,23.5332,-5.30062,-12.3247,24.1995,-5.21118,-12.3013,23.7326,-5.23761,-12.2358,24.1525,-5.27223
19.9119,3.22079,0.440249,18.1374,-6.50216,4.14975,18.2979,-6.95867,4.45667,16.734,-6.94246,4.38525,17.3109,-6.89324
4.08013,0.164568,-13.9499,12.2404,2.79523,-14.4552,11.271,1.60625,-14.0517,12.6741,2.98171,-14.4781,11.4549,1.4697
1.10149,0.485805,-14.3464,23.9852,4.49933,-14.3985,23.986,3.98509,-14.4058,23.7298,3.96307,-14.4287,24.0633,3.98381
21.0567,0.261569,6.04857,15.4857,6.90143,5.93933,14.0438,7.10488,8.79185,15.3748,6.99987,4.63816,15.0384,7.22515
1.67888,0.0343647,11.6071,18.2517,6.94231,12.9101,18.6285,6.50025,12.781,18.6915,6.58783,12.9572,18.6879,6.50096
9.79444,0.198696,-14.3281,27.3968,0.0168137,-14.9228,27.5219,0.878496,-15.1772,27.9193,-1.09895,-14.2809,27.1128,-0.0402395
77.2037,3.99593,-11.2861,10.1769,-5.6899,-12.9793,5.69285,-3.67277,-10.2955,5.54083,-4.85315,-12.4295,5.56616,-4.01025
1.38191,0.457361,-13.6771,32.2106,0.175865,-12.5606,32.7768,-0.0584459,-12.6303,32.7132,-0.176117,-12.5642,32.7395,-0.139778
2.23926,0.353839,14.8628,22.2241,2.70448,14.3988,21.9307,4.02209,14.3732,22.005,4.0301,14.4829,22.1653,3.82859
54.9459,4.37524,-4.34318,19.4467,-7.74767,-10.5725,20.3294,-6.14584,-9.93629,19.8011,-5.93129,-8.97281,18.24,-6.29859
9.24766,0.334255,2.2499,27.0846,-5.51854,1.95418,29.3874,-5.58741,0.880689,26.5451,-6.36675,2.94012,27.1765,-5.65094
1.42348,0.022093,-4.46102,23.1043,7.30961,-4.11076,22.5442,6.77679,-4.02839,22.5561,6.74108,-4.21367,22.9128,7.0788
0.476376,0.0979231,14.4032,14.6866,-3.78295,14.4996,14.4082,-3.5798,14.5169,14.4681,-3.52631,14.5464,14.6008,-3.45989
0.383531,0.0307793,-3.74035,33.9593,-1.95012,-3.6687,33.9033,-2.16841,-3.95925,33.8978,-2.169,-3.73625,33.8853,-2.20862
7.34399,0.115459,14.2809,18.755,-3.63206,13.6097,20.9122,-4.58624,14.608,19.2129,-3.29107,13.6006,20.6512,-4.63232
15.8892,0.429905,-14.5492,9.26772,-3.448,-13.3737,9.79555,-4.69308,-13.5031,9.37628,-4.44792,-14.1812,8.50132,-3.7629
0.757441,0.0603752,-14.7508,18.4698,-2.91027,-14.8156,18.6632,-2.7573,-14.8125,18.3656,-2.58333,-14.8065,18.259,-3.05853
48.5839,0.3018,0.711331,12.7252,7.17262,-0.552799,16.8102,6.67228,-0.954825,14.7032,7.05052,0.988636,16.997,6.69347
15.5112,0.738822,-13.1903,22.5722,4.39348,-14.0495,23.0595,3.72294,-13.9303,18.7118,4.15962,-13.7214,22.9418,5.79785
6.57394,0.295982,-1.46891,4.77916,-6.37654,-3.4758,5.02622,-6.34684,-3.38438,4.14491,-6.17804,-3.32924,4.43272,-6.22349
11.6924,0.208793,6.53917,30.6916,-4.50263,4.1203,30.2757,-5.00398,4.67753,30.6418,-4.76446,4.55811,30.0896,-4.94332
14.4835,0.57222,-9.49167,1.83552,-2.57034,-9.04382,1.08117,-2.90142,-10.2733,3.79284,-4.5819,-10.7474,1.08398,-2.2696
2.60838,0.0661753,-13.0805,21.5853,6.23403,-13.3746,21.5412,6.18283,-12.5432,21.7044,6.55808,-12.5367,22.2994,6.11427
7.19199,0.00529664,4.96369,1.26457,2.93124,5.42026,1.04596,1.92889,5.66352,1.10047,2.01339,4.91958,1.08825,2.32363
0.0154063,0.00161216,1.61292,34.049,-2.35908,1.59018,33.9928,-2.46153,1.63675,33.99,-2.46027,1.63752,34.035,-2.37781
1.30698,0.0765017,-9.94476,22.8195,6.75087,-10.6102,22.8545,6.41278,-9.25437,22.6913,6.94231,-9.17862,22.7177,6.90594
0.141646,0.0762684,-9.38656,17.1316,-6.37594,-9.49284,17.2651,-6.43474,-9.37162,17.1947,-6.32453,-9.44483,17.2926,-6.44888
1.56283,0.040451,-10.527,32.6804,5.48087,-10.9471,32.9583,5.0642,-10.7561,32.7755,5.37944,-9.86093,32.8646,5.334
14.3246,0.158294,4.36208,2.25838,5.83608,3.0294,3.35424,6.32558,2.58002,2.60889,6.03468,4.36652,3.51513,6.24082
1.06777,0.102688,-12.7762,6.07897,6.36486,-13.0741,5.57708,6.10377,-12.4315,6.4606,6.32013,-12.8909,5.70264,6.339
266.982,0.110018,-7.77656,1.95457,5.30503,-4.41593,2.46302,5.97593,-8.55334,0.271064,-0.366539,-9.56665,0.771413,2.09552
2.30211,0.433007,3.0661,9.64448,6.98182,4.50713,9.53444,7.26705,4.93409,9.58154,7.21499,4.50231,9.63393,7.25888
8.78343,0.483609,-13.2918,17.8636,4.44559,-13.6246,17.4454,5.63004,-13.7757,18.7504,4.72683,-13.8789,17.287,3.43911
3.90777,0.0811568,1.5939,16.3889,-6.94964,1.99619,17.0043,-6.75368,0.881442,16.1281,-7.1877,2.12338,15.8091,-7.25676
8.94658,0.231597,9.57472,28.1153,7.02235,9.4868,30.1424,6.23202,9.69676,30.0024,6.51293,10.0407,28.6378,7.14778
6.67813,0.20807,14.5053,12.332,-1.16481,14.9144,13.1329,-0.90662,14.9944,12.9262,-0.538995,14.9776,14.2046,-1.2037
0.0763565,0.0604517,12.8153,20.2688,6.50416,12.9357,20.0473,6.53366,12.9023,19.9878,6.5749,12.8666,20.0031,6.60116
4.34702,0.0528427,4.92633,1.91035,-2.65983,6.0391,1.98107,-2.66675,6.18199,1.99877,-2.56436,4.50137,1.83684,-3.46022
6.85829,0.500753,-10.839,32.2332,-1.73709,-11.1554,31.987,-2.53513,-11.537,32.9241,-1.61367,-9.95396,33.3431,-1.71484
1.40265,0.0327135,-14.5684,18.99,1.07722,-14.5771,19.7008,1.10785,-14.585,19.4354,0.989653,-14.6166,19.8344,0.971604
6.70202,0.160686,-7.30421,32.8786,5.3256,-8.33934,32.5514,6.05627,-6.68625,32.9229,5.60646,-6.41072,32.6389,6.07626
3.08607,0.54203,-3.82852,30.5985,7.11877,-1.51634,30.5484,6.99878,-2.01684,30.5543,7.14987,-1.85353,30.6499,7.08386
28.9766,0.840104,13.7622,18.3335,-4.28193,12.864,16.6693,-5.07823,13.0359,16.1351,-5.22828,13.9318,16.5076,-3.85543
1.23609,0.10505,5.03128,33.0355,4.74838,4.97518,32.5934,5.18542,4.75928,32.5715,5.22636,5.31693,32.8522,4.96732
1.40906,0.080393,-10.6945,0.535693,-0.693488,-10.7135,0.529365,-1.04444,-10.472,0.393923,-0.560969,-10.9591,0.414896,-0.338968
1.43486,0.327404,-9.31139,15.3198,-6.9526,-10.3308,15.2222,-6.45864,-10.1178,15.3674,-6.59696,-9.34062,15.6538,-6.8348
26.904,2.57651,-10.153,27.9148,7.99906,-9.00611,31.719,7.19255,-9.69819,31.4709,7.0911,-9.59257,30.9969,6.79961
19.7711,0.00684948,-2.37536,3.83692,6.34472,-1.3952,3.86381,6.4438,-3.01227,6.12854,7.25163,-3.88555,5.64854,6.96244
3.60135,0.0795933,11.7191,10.5519,-5.00679,12.3621,10.6087,-4.49298,11.464,10.0617,-5.25779,10.7565,10.6036,-5.47618
15.3161,0.478574,1.85799,10.5137,-7.49209,-1.05659,10.4987,-7.70511,-0.0855517,9.70185,-7.90338,-1.80094,10.7378,-7.60303
5.61018,0.470385,-14.0056,23.2717,2.82776,-14.027,21.677,2.79941,-14.7525,23.7555,2.34779,-14.3792,23.5869,3.91645
1.22145,0.0379621,-14.3515,16.6237,2.35745,-13.9203,17.2278,3.3847,-13.9296,17.3139,3.37041,-14.2571,17.0025,2.66583
2.23856,0.122534,-0.43056,34.2392,0.78096,0.108222,34.3538,0.792972,-0.78149,34.403,1.05634,-0.862078,34.3531,0.634685
1.97454,0.213354,-11.9814,27.7292,-3.8867,-12.6768,28.0849,-3.44942,-12.9214,27.893,-3.30524,-13.0496,27.9615,-3.16968
2.28799,0.133067,3.07845,3.87724,6.34948,4.06827,3.68964,6.38493,2.86603,3.6009,6.41855,2.92041,4.0025,6.5323
1.85387,0.195203,7.8828,33.3377,2.00496,8.30404,33.3493,2.1247,7.75292,33.6027,1.6756,7.45956,33.8023,2.43813
0.209173,0.00147734,14.0923,9.12205,-2.98998,14.2153,9.04673,-2.80708,14.2129,8.98465,-2.8202,14.1111,8.88266,-2.99848
15.1888,0.0429163,9.61797,1.27319,2.45726,11.1555,1.17742,4.24295,9.94533,1.32555,4.69252,10.5364,1.25142,4.44216
9.06889,0.1172,-2.17724,32.6918,-3.67774,-4.64483,32.4343,-3.61931,-5.03597,32.8332,-3.14342,-5.01199,32.771,-3.21504
0,0.00871035,14.7393,23.4505,-2.54951,14.7398,23.4871,-2.51024,14.7395,23.5312,-2.51672,14.7308,23.4899,-2.55244
58.6636,0.0824059,3.26487,30.4928,6.03683,5.96007,28.3545,7.46405,6.27886,29.3376,7.15853,3.67916,28.4886,6.9606
3.6911,0.0943747,10.48,27.1651,-4.30695,12.5951,27.4098,-3.88578,12.4982,27.6147,-3.8938,11.1922,27.1382,-4.23756
15.2638,0.38273,8.39812,33.1756,0.19994,8.67046,33.5987,-1.06525,11.022,33.1965,0.51155,8.10378,33.5181,1.64993
0.506718,0.0528969,-14.1761,21.7296,-4.05821,-14.5561,21.7349,-3.66774,-14.5309,21.8142,-3.68893,-14.5122,21.6267,-3.73662
3.28494,0.531219,-11.9915,29.278,-3.28879,-13.078,29.7364,-2.0898,-13.0163,29.4828,-2.27854,-13.0918,29.4347,-2.29625
0.393403,0.232088,-0.957023,7.30705,7.28832,-0.723321,7.09514,7.2345,-0.794561,7.11715,7.17769,-0.931563,7.1121,7.16237
55.1001,0.652283,15.0315,13.7312,1.26211,14.0254,15.8815,4.16405,14.1261,14.6428,4.27066,13.9692,12.7712,5.04081
2.01943,0.0483497,-1.05677,32.9825,4.95243,-0.0213962,33.0717,4.86125,-0.18523,32.6805,5.28608,-1.33728,33.106,4.91027
7.77469,0.0753473,-3.74968,1.27384,3.74795,-4.22738,0.920912,2.72193,-3.58659,0.661655,2.3298,-3.34965,0.620436,2.29913
25.7968,0.435761,4.63337,21.1598,-6.65465,4.69943,18.4483,-6.81063,6.75428,21.9516,-6.42274,6.88545,21.2034,-6.61202
3.19695,0.0795312,-11.3512,7.82791,6.98833,-11.2382,8.81288,6.83015,-11.4149,7.36258,6.94558,-11.0838,8.93478,6.79318
2.18768,0.0645468,13.7285,20.9705,4.87981,13.5111,20.7062,5.22829,13.2296,20.8419,5.48185,13.271,20.6946,5.53629
2.25164,0.18126,9.21158,8.18444,-5.23198,10.5418,8.2258,-4.98528,9.68702,8.69195,-5.66886,10.5361,8.2016,-4.96919
10.4544,0.432865,-9.94395,24.4105,-5.09497,-9.04955,26.3734,-5.34044,-11.5808,24.4651,-5.47246,-8.37185,24.5477,-5.56556
25.2089,0.182679,-7.28739,32.7415,-2.64463,-10.6603,32.0228,-2.54058,-9.85169,32.6638,-2.04215,-7.46719,33.7539,-1.59038
30.0233,0.26403,14.3478,10.2942,-0.984995,14.9949,12.5258,0.978586,14.0752,10.9473,2.28587,14.3514,11.6786,2.28632
9.0361,0.258385,14.0852,8.58817,3.06656,14.9389,7.23158,3.16542,14.5502,8.28557,2.49344,14.225,8.94258,2.15209
29.5986,0.4968,1.80974,5.60882,-5.84363,3.43298,7.42579,-6.85391,4.07013,5.33772,-6.04428,0.803273,5.12057,-6.3031
0.22102,0.00274118,12.9209,27.4707,-3.6249,12.6179,27.5722,-3.81066,12.6343,27.6116,-3.79152,12.6797,27.4735,-3.78956
5.46303,0.146295,-14.159,27.1861,4.0612,-14.1909,27.0622,4.38543,-14.0402,26.5353,4.29131,-14.2008,26.7274,3.92634
2.97558,0.0584719,12.6372,15.8043,-5.51698,13.1748,15.0767,-5.31464,12.2407,16.1345,-5.83293,12.6456,15.3152,-5.67416
12.6104,0.070011,14.1907,17.1573,-3.05617,15.175,17.0027,-0.799313,14.4961,18.073,-2.87653,14.9961,18.8412,-2.37071
9.31888,0.117383,-0.32531,30.9924,-5.04993,0.716957,30.9304,-5.0672,-2.59911,30.7087,-4.87864,-2.85924,30.8315,-4.74288
5.95544,0.274284,8.17365,27.2169,-4.39495,8.36615,28.6683,-4.47536,7.9559,26.8566,-4.71758,9.07619,26.6774,-4.76259
1.74385,0.0370949,-7.45454,0.44591,-2.36766,-7.44415,0.389273,-2.08977,-7.17017,0.257833,-1.79084,-7.79336,0.344673,-1.84979
7.8714,0.324033,-1.45287,21.9338,-6.58199,-1.94974,24.4047,-6.57475,-2.53263,23.3282,-7.05003,-0.889531,21.9037,-6.72169
3.66966,0.199812,5.90224,31.3037,-3.92032,5.84888,32.6291,-3.05552,6.31061,31.3075,-4.20359,5.40284,31.3711,-4.09572
9.1544,0.0503273,1.35698,32.6972,-3.72767,0.62369,33.2073,-3.18535,1.85139,33.9124,-2.52338,1.14833,34.199,-2.25834
50.2671,0.383137,-14.9073,27.3248,2.35602,-14.6692,25.421,0.703991,-14.6702,25.2749,0.290243,-14.4967,26.9015,0.395357
1.40269,0.00986904,4.33583,13.8925,6.98588,5.52489,13.7943,7.04024,4.1826,13.6205,7.16349,5.04184,13.819,7.02381
9.81692,0.188512,13.0398,19.6646,-4.929,11.0998,20.0062,-5.63545,11.0075,20.2294,-5.74076,13.9093,19.6996,-4.36115
66.3873,0.0209241,15.1945,17.2729,0.547468,14.5891,18.8638,3.79146,13.9358,16.3822,4.14721,14.0145,17.2693,4.55647
82.5791,0.888918,-2.65697,16.9903,-7.23177,-6.70051,18.4994,-6.9192,-6.35402,16.7877,-7.37846,-2.9389,19.819,-7.4705
2.12141,0.227732,-14.0706,7.6478,5.72493,-13.3683,8.36972,6.63387,-13.7738,8.78847,6.19637,-13.6129,8.08562,6.43133
0.250848,0.0132036,14.7705,31.7293,0.755744,14.7888,31.6843,0.924043,14.7679,31.832,1.04034,14.8335,31.5508,1.02529
25.3296,0.170271,-0.281067,31.548,-4.09583,4.31698,32.682,-3.33761,3.98128,32.3432,-3.65112,1.51627,31.8049,-4.11739
16.4686,0.0785486,2.65872,22.2133,-6.53229,6.01981,21.9006,-6.53307,6.20001,22.3152,-6.28871,4.40621,22.3197,-6.33372
2.00812,0.174548,-13.9369,19.7432,2.99706,-14.219,18.2139,3.06187,-14.2291,18.1493,3.02021,-14.2315,18.2421,2.94766
3.55454,0.0835677,-12.3607,17.0195,-4.6224,-13.9468,16.1687,-4.8884,-13.057,15.9293,-5.06067,-12.7346,17.1834,-4.61577
43.545,0.0645799,8.44578,21.2989,7.52508,9.5192,24.0695,7.21957,7.97718,24.0965,7.14907,6.32527,21.8401,7.41763
27.4014,0.130435,7.99555,1.52881,4.08772,7.53108,1.30337,2.68944,5.27915,1.36133,3.31422,5.40225,1.40974,4.01863
0.37398,0.0157395,8.30382,1.51091,0.814813,8.23417,1.38304,1.08936,8.41234,1.40658,1.13097,8.31172,1.36967,1.17502
8.34463,0.53068,9.00233,27.6238,6.70381,8.00465,27.7466,7.3479,10.6137,25.7872,7.78522,9.64554,28.068,7.02867
78.0672,0.150992,11.6542,16.3361,6.0751,13.9288,16.1317,4.68422,12.28,13.6095,6.31504,13.8353,14.5598,5.17893
6.46576,0.311922,14.0325,12.4256,-1.90438,14.4374,13.8539,-3.20468,14.4638,14.0107,-2.32337,14.5358,14.0902,-2.94786
28.2412,0.569429,5.43456,6.84095,-5.18612,4.88155,4.85679,-5.73023,7.22393,6.52305,-5.21957,5.3776,7.77232,-5.90155
9.05432,0.943429,8.27999,6.81123,-4.6281,7.35895,5.581,-4.96205,6.99448,5.62258,-5.26734,9.69859,6.13604,-4.57729
1.39602,0.841569,-6.22353,4.89835,6.89752,-7.33677,4.63497,6.8992,-7.261,4.81122,6.83976,-7.29081,5.01386,6.92571
10.641,0.402377,14.1899,24.2926,1.56625,15.1445,20.1909,1.76389,14.7517,24.7331,1.12092,14.3062,24.9717,2.1046
1.98281,0.0987453,-6.29734,16.6769,5.90543,-4.85164,16.6301,6.16207,-4.85078,16.5687,6.18441,-5.7542,16.589,6.09314
4.54368,0.0819034,-1.99203,7.65014,-7.12141,-1.22263,8.98865,-7.82159,-1.52662,7.2715,-7.11894,-1.20075,7.89157,-7.47276
3.09185,0.182757,-14.5308,4.5467,-0.728074,-14.7087,4.7829,-0.49015,-14.8763,3.23413,-0.508841,-14.6461,4.77902,-1.26594
5.18096,0.298919,-14.093,26.76,-3.03524,-14.9293,26.5863,-2.24951,-15.0713,26.5679,-1.91528,-14.9194,26.3594,-2.74917
2.76279,0.21213,6.18295,16.3307,6.71502,6.70583,16.6334,7.0752,5.7252,16.8581,7.09021,6.12949,15.9643,6.81151
13.571,0.172119,13.0377,10.5324,-3.87889,12.3911,10.4974,-4.48079,13.9345,10.4619,-2.36485,13.8834,10.4267,-2.44231
9.0107,0.0168851,-7.39905,18.5295,-6.71234,-8.24981,18.0379,-6.70509,-7.99948,17.6695,-6.73267,-7.07147,17.6724,-6.78032
14.2644,0.165413,-2.26572,33.0437,-3.03359,-2.03605,34.1597,-1.47357,-1.71464,33.2023,-2.74676,-1.332,34.2162,-1.62667
68.7089,0.00123305,9.6036,1.95052,-0.889509,6.33422,1.17759,0.561261,7.21344,1.58342,-1.10877,7.9338,1.25135,1.81208
5.10792,0.257847,12.0493,13.0334,-5.05357,14.0593,12.823,-3.69683,13.4219,13.0187,-4.3,13.7602,12.92,-4.00033
2.1454,0.485827,1.74317,21.1841,-6.8296,2.39887,22.3388,-6.51888,1.73726,22.4117,-6.47754,2.03682,22.3343,-6.49125
2.17468,0.167102,-9.19454,33.5254,-0.573564,-10.913,33.1987,-0.332817,-11.5288,33.0105,-0.418626,-11.5331,33.0116,-0.371715
0.674415,0.0932886,-13.2189,31.086,6.40582,-12.936,31.0233,6.5655,-13.3159,31.1854,6.46766,-13.3775,31.0327,6.4805
6.28351,0.318957,-1.21907,32.6436,-3.06659,-1.48379,32.5081,-3.78677,0.567474,33.1883,-3.18326,-1.72769,33.0312,-2.96738
17.8694,0.637097,-13.3459,7.1558,-3.25767,-11.6966,6.53158,-4.59707,-13.1258,7.98171,-4.28001,-13.6771,8.36797,-4.11588
20.1014,0.0981211,-3.76241,34.3495,1.70217,-5.96069,33.5704,0.774263,-4.65916,34.1536,1.56639,-5.45374,33.5879,0.22965
14.6381,0.336878,-10.3316,7.57103,-5.83962,-8.55032,7.66139,-6.22639,-8.07237,7.16122,-6.27492,-7.82697,7.65214,-6.52334
6.53566,0.335067,9.91207,22.3889,7.20093,9.85124,20.794,7.53903,10.0584,21.256,7.52479,9.55108,21.6989,7.56184
7.42458,0.140461,4.7386,7.9136,-6.04036,4.36584,8.73767,-7.18237,5.4344,8.26654,-6.137,4.05367,8.44812,-7.11652
0,0.00584111,-12.0056,19.9576,-5.84023,-12.0801,19.9874,-5.80215,-12.0431,19.9501,-5.81657,-11.9926,19.9805,-5.841
0.399422,0.12638,-4.267,26.3918,-6.09674,-4.00178,26.6743,-6.0121,-4.02885,26.5136,-6.09487,-4.00475,26.5972,-6.04784
0.369823,0.151823,15.0674,1.66773,2.84141,15.2532,2.04475,2.6506,15.2767,2.1079,2.70649,15.2848,2.10304,2.74864
4.0259,0.249335,10.7223,18.68,-5.53103,12.8014,18.7723,-5.12448,12.682,19,-5.16553,12.9536,19.2484,-5.08087
6.01349,0.0463445,5.84875,24.3848,-5.4781,5.25458,26.559,-5.32803,5.36153,24.1629,-5.69553,5.54745,26.4886,-5.26028
0.219459,0.0254694,-6.16039,8.93386,-7.45227,-6.01829,9.02448,-7.52289,-6.08497,9.12902,-7.52092,-6.01985,9.11172,-7.53369
2.51236,0.226993,-8.12809,2.21896,-4.62738,-7.45171,2.80425,-5.28323,-7.88098,2.76771,-5.14348,-6.97395,2.88275,-5.50174
1.89215,0.643866,14.6888,25.3143,2.85186,14.2864,24.9022,2.16511,14.3094,24.9754,2.17515,14.3476,25.0189,2.16352
5.28252,0.127212,-3.60404,34.0285,1.00556,-3.02348,34.3688,1.6796,-4.16851,33.9839,0.915914,-2.79167,34.416,1.09159
0.0168653,0.0265245,-13.0664,25.5809,-4.34661,-13.0403,25.5659,-4.36905,-13.0766,25.5343,-4.3371,-13.1418,25.5443,-4.34775
4.32223,0.348945,-12.3278,22.8956,5.88209,-12.6386,22.3997,6.10426,-12.6812,23.6047,6.40382,-11.1012,22.7773,6.267
2.2367,0.0744983,11.3671,8.24838,-4.75697,10.5401,8.24615,-4.99554,12.1489,8.37011,-4.43481,12.2573,8.31282,-4.33834
2.21558,0.366635,-6.61437,8.55455,-6.99912,-5.64586,7.86365,-7.20871,-5.90605,7.99737,-7.00312,-6.01479,7.76601,-6.84448
10.7034,0.172449,3.17942,14.9659,-7.01609,2.93609,14.2288,-7.16993,3.20777,15.5999,-7.1975,5.10607,13.8505,-7.25324
3.69149,0.161836,-10.3875,30.709,-2.8977,-9.78292,31.1772,-3.31028,-10.5661,30.5801,-3.01475,-10.6649,31.75,-2.72991
11.184,0.955713,-10.9105,23.019,6.32055,-11.0262,20.3972,7.18168,-11.423,20.2043,6.97532,-11.2743,20.1881,7.04766
2.07663,0.15385,-5.56098,3.79554,6.0438,-5.75088,2.83848,6.27373,-5.89381,2.71573,6.31823,-5.98841,3.1324,6.34133
3.2805,0.0786916,-0.126152,7.60495,-7.59894,-1.18225,7.90873,-7.48808,-1.18068,7.99679,-7.54239,-0.773598,8.24012,-7.77011
3.0072,0.0534469,-13.4381,11.9178,-4.40554,-12.9965,12.1733,-4.53613,-13.8752,12.003,-4.36258,-13.3414,12.6197,-4.43367
29.0575,0.580643,13.6327,10.7322,3.40499,14.4165,12.019,3.75409,13.7035,10.8154,4.71819,13.6947,9.35045,4.01105
0.185172,0.0180789,2.00385,30.9484,6.69726,1.9979,31.0381,6.63396,2.28888,30.8525,6.69053,2.28336,30.7987,6.71742
2.1926,0.27288,-10.4607,6.52797,6.05903,-11.4233,6.68738,6.51708,-10.1068,6.06901,6.30687,-10.2613,6.55648,6.29598
5.70612,0.0190703,-8.7753,24.7176,7.10411,-7.51526,24.6327,7.14876,-9.9329,24.4442,6.85261,-7.28674,24.4477,7.02909
17.5895,0.257012,-5.90782,29.1993,7.25103,-5.2876,27.7502,7.94402,-5.98348,27.7917,7.83577,-5.09283,28.6458,7.76227
0.0909247,0.0787865,6.00119,17.5732,-6.71095,6.05594,17.4723,-6.57227,5.57275,17.6283,-6.69689,5.57675,17.5749,-6.67232
5.7298,0.0525877,-11.8512,11.31,6.50676,-9.42309,11.3729,6.75112,-9.42511,11.3119,6.76419,-13.0258,11.3679,6.28877
60.8408,0.818196,-13.9546,15.1809,1.12922,-14.2026,15.5906,-0.265183,-14.4483,18.0347,-0.56171,-14.4892,13.4397,0.914609
2.02014,0.459999,-13.4543,3.90643,-2.89523,-12.9988,3.01448,-2.48141,-12.9722,3.03509,-2.51596,-13.6979,3.0676,-2.44551
1.42676,1.37145,1.58995,17.4183,6.843,2.97557,17.4495,6.99281,2.97905,17.4055,6.97949,2.9881,17.3094,6.97556
4.86233,1.83791,-14.7002,20.0891,0.156944,-14.4732,21.4957,2.03956,-14.1566,22.2015,1.17114,-14.1266,22.1699,1.25355
1.27093,0.0152364,-2.56651,33.9218,-1.00947,-2.37321,34.1083,-1.39888,-2.09294,34.1534,-0.940554,-2.56505,33.968,-1.26721
1.41614,0.30668,-4.66358,33.5411,4.42963,-3.45298,33.4523,4.54658,-3.34241,33.4949,4.42509,-3.27919,33.554,4.30184
3.91754,0.0680196,-14.4637,10.4669,-1.23171,-14.7266,10.5464,-3.01694,-14.6512,10.32,-2.53935,-14.7294,10.294,-3.32256
7.44588,0.423387,-11.8659,3.20339,-2.55635,-11.0996,2.26797,-2.83504,-12.6126,2.78874,-2.31236,-11.4189,3.67864,-3.95173
14.7665,0.148374,-7.24733,27.1653,-5.42407,-9.27105,27.183,-4.71642,-4.81458,27.4779,-5.49762,-5.25065,27.2239,-5.63615
14.1497,0.2108,3.17876,15.9281,6.79824,1.63823,16.1304,6.66212,3.89925,16.6171,7.16094,3.39823,14.7729,7.09075
1.64474,0.307525,13.2591,18.0584,-4.79336,13.1712,18.8166,-4.85429,12.9586,18.8703,-5.04881,13.3298,18.9655,-4.81318
2.64916,0.113422,9.5513,28.2983,-4.40387,9.70506,28.1502,-4.50845,9.09904,28.5945,-4.58226,10.8192,28.8296,-4.14144
16.4053,0.457128,5.38544,32.343,5.41928,8.64536,32.2184,5.35072,8.04088,31.6206,5.84444,8.84987,32.5472,5.06144
2.68239,0.53374,-11.0796,17.5089,6.42521,-9.47532,17.52,6.52916,-9.03792,17.3813,6.45249,-9.10701,17.3103,6.50308
2.12539,0.362186,-1.33762,16.5471,6.87481,-3.33401,16.5242,6.45099,-3.53688,16.5921,6.36161,-3.34131,16.6253,6.43879
1.59459,0.0277812,3.0614,0.630045,-1.76658,3.95124,0.789414,-1.92231,3.73235,0.762279,-2.05101,3.73571,0.775008,-2.15687
18.6361,0.229057,-2.17685,2.49085,-4.91052,-1.49147,1.16143,-3.34011,-1.34367,2.22327,-4.85652,-2.30104,0.978981,-3.14614
7.76115,0.289284,5.0565,33.1374,-1.5733,5.67279,33.5269,-1.22306,6.15963,33.2779,-2.42438,3.3938,33.1808,-2.52332
0.34951,0.0744952,-8.02786,22.2493,-6.08028,-7.92166,22.4418,-6.12248,-8.19308,22.1053,-6.16707,-7.99784,22.4977,-6.05678
5.40466,0.24137,0.609302,5.126,-6.30428,0.089723,5.50847,-6.81143,-1.47266,4.94082,-6.45588,-0.985705,4.81169,-6.38256
3.64451,0.0314423,4.62417,26.9085,-5.51844,3.15386,27.3248,-5.64216,4.51151,27.0777,-5.48532,3.99194,26.669,-5.82529
50.0099,0.523781,10.5382,22.3322,-5.11928,9.88453,20.6824,-6.27735,9.49463,21.9519,-6.11564,10.0892,25.3878,-5.1328
37.0346,0.155344,-11.7139,14.3836,-5.2466,-9.125,13.6118,-6.76689,-10.3846,15.6038,-6.43751,-9.08537,15.1258,-7.09111
10.0069,0.243641,2.34585,31.6224,6.13215,0.892635,30.9522,6.73136,0.129845,31.0228,6.5604,0.540408,31.6987,6.10602
2.23091,0.129521,4.76037,23.8279,7.0618,4.77899,23.221,7.10475,4.52159,24.0112,7.18334,5.34481,24.244,7.35425
0.290987,0.0125114,0.456285,3.51132,-6.03816,0.66297,3.52028,-6.05208,0.612294,3.33573,-5.91972,0.546235,3.25043,-5.86021
33.5075,0.596553,-4.73578,14.0138,6.57234,-1.21384,14.0183,7.16005,-5.14824,12.2824,7.12559,-7.34874,13.1972,7.15486
1.0666,0.0338749,-11.8769,32.7203,5.84578,-11.7348,32.6153,6.09867,-11.8013,32.8728,5.6182,-12.2107,32.7715,5.86771
26.0366,0.493205,0.563084,22.2292,-6.23288,1.54184,22.007,-6.57069,-2.26159,21.1365,-7.44086,-0.290412,25.8762,-6.46097
1.94479,0.13503,-6.27713,11.1666,6.79804,-4.81753,11.1489,6.94666,-5.29665,11.1058,6.85478,-4.76037,11.3019,6.95123
0.905902,0.109523,-6.2022,33.8386,-0.516358,-5.85607,34.0088,-0.836419,-6.1371,33.9288,-0.213899,-6.36376,33.9171,-0.320951
6.39897,0.150309,13.3782,5.9185,5.18514,13.2056,5.91345,5.5786,13.8544,6.09621,4.93051,13.7285,5.06235,4.9482
8.43185,0.115809,-1.32071,27.3841,-6.03932,0.298731,27.2009,-6.12754,-2.61932,27.3944,-5.7571,-2.25781,27.5527,-5.80447
3.46942,0.564609,0.951702,34.1346,2.57114,0.817935,34.0593,1.14654,0.949194,34.1127,1.27857,0.738702,34.13,1.26898
8.99621,0.740993,-8.37585,17.2254,5.92249,-9.23324,18.1024,6.84151,-7.09587,17.6554,6.56997,-8.62994,16.0937,6.59794
0.371776,0.00128454,-4.80351,8.31574,-7.57759,-4.49892,8.89567,-7.83081,-4.73317,8.23371,-7.55894,-4.40021,8.8778,-7.83791
3.59169,0.360284,-6.48511,11.161,6.77781,-9.35513,11.2676,6.79647,-9.29532,11.4217,6.78026,-9.36245,11.4194,6.77283
21.1829,0.18212,12.4626,17.3092,-5.39276,11.0035,16.017,-6.47096,11.3188,15.8856,-6.35145,10.6241,17.4513,-6.11477
10.4135,0.0678966,1.36786,8.66208,6.729,4.73442,8.60388,7.34048,1.22149,8.02701,6.98402,1.4334,9.50952,6.53702
10.1448,0.135617,-8.33649,10.8993,-6.82942,-5.85264,10.6091,-7.40993,-5.8162,10.6677,-7.40584,-9.5056,10.9778,-6.35826
0.37332,0.0360065,-14.4308,10.0816,-3.93802,-14.5226,10.2751,-3.9222,-14.4681,9.92634,-3.92968,-14.6119,10.2141,-3.82121
164.344,0.227591,-6.15565,0.282446,0.378952,-6.73321,1.34607,3.67274,-4.40899,1.15761,3.34154,-6.1687,1.3556,3.81929
36.4833,0.235992,-6.68989,32.255,6.58591,-11.3251,32.5729,6.23079,-5.64313,32.8381,5.78193,-11.4498,32.8675,5.46915
2.28403,0.0653424,15.0474,14.1612,-0.845885,15.0374,13.4409,-0.648803,15.0601,13.1219,-0.179954,15.0332,13.0767,-0.316369
8.25385,0.309911,2.77915,32.994,-2.7531,3.07799,32.7923,-3.49545,1.73521,33.2681,-3.20531,3.43765,33.9568,-1.75228
88.1481,0.403052,-6.69606,30.6679,6.74031,-6.84632,28.8526,7.75193,-4.46118,31.7895,6.74852,-3.96391,30.5568,7.13331
17.7892,0.605443,8.31474,30.3463,-4.27478,13.155,29.1454,-2.96602,12.1325,29.5599,-3.42875,8.21954,28.8069,-4.52474
6.60926,0.505575,-7.64713,3.2553,6.12015,-8.09298,4.07986,6.96943,-6.11126,3.13917,6.43171,-8.14154,2.6045,6.50734
24.0431,0.630929,-6.63474,10.3886,6.47873,-7.8292,10.7417,7.03619,-5.75107,8.00879,7.48533,-5.28441,9.60732,7.26316
29.8863,0.392075,-7.31326,5.98239,-5.66505,-8.87616,4.84529,-5.16467,-9.22548,6.59935,-5.54006,-10.2464,5.89018,-4.93842
1.83979,0.68701,5.57874,8.20554,-6.07558,7.57311,8.97092,-6.40228,7.56096,9.05036,-6.42483,7.42009,9.04838,-6.46608
2.30339,0.214309,-14.1036,7.99094,0.565038,-14.5021,6.84955,0.92586,-14.5397,6.55094,0.861021,-14.5515,6.40793,0.733036
1.61514,0.199785,-0.288036,3.86636,6.48651,-0.00867187,2.64978,6.16229,-0.262612,3.09787,6.34574,-0.0866656,2.68595,6.17026
12.4609,0.210842,-0.775062,11.2291,-7.74464,-3.40992,10.5642,-7.71316,-2.51035,11.8005,-7.69002,-4.61863,10.7965,-7.54392
3.48683,0.282499,14.2633,17.0113,1.83147,14.5068,16.057,2.1223,15.0592,16.1479,1.14656,14.8542,16.7527,1.41095
0.576025,0.20739,-1.13778,8.90078,-7.80227,-0.951965,9.48168,-7.93135,-0.894611,9.47806,-7.92674,-0.843993,9.3573,-7.93565
3.57501,0.161982,-3.10899,21.0326,-7.46684,-3.59928,21.8457,-7.15457,-2.92127,20.1572,-7.51383,-4.14462,20.9335,-7.52979
7.38942,0.897095,-13.5056,21.6067,5.98527,-13.5178,22.9605,6.07792,-13.2934,23.0387,6.23672,-13.5341,21.6343,4.66037
2.56142,0.0681769,-5.44711,6.71253,6.95934,-6.27466,6.63953,6.74884,-3.93444,6.83349,7.14871,-3.93069,6.73627,7.15197
0.047579,0.0298532,-11.3237,33.6795,2.53025,-11.2298,33.7278,2.59319,-11.2864,33.7225,2.64086,-11.3469,33.7137,2.64424
12.5083,0.340829,-3.86816,22.3188,6.49567,-3.26955,22.3988,6.91476,-3.70526,19.7459,7.15798,-4.39076,19.3791,7.10593
16.6038,0.0240464,4.39274,1.34489,3.8815,5.13086,1.3389,3.48772,6.56624,1.19626,2.18644,5.42431,1.50371,4.46377
0.44788,0.0884142,14.8414,18.4369,2.67141,14.888,18.885,2.78967,14.8732,18.8872,2.83302,14.8282,18.8094,2.9678
0.798415,0.175153,12.7228,25.4833,7.25094,12.3284,25.8995,7.50702,12.3246,25.9395,7.53096,12.2268,25.8046,7.52415
9.76091,0.350221,-7.1983,33.2719,1.08304,-7.89525,33.9802,1.92208,-6.08593,33.5419,0.704742,-5.74909,33.703,1.04597
12.1968,0.340141,-13.9035,25.3811,3.86001,-14.8753,25.8089,2.04235,-14.1427,26.0219,4.37288,-14.8806,25.5777,1.97448
53.2841,0.0948864,4.89357,4.44405,6.15901,6.12182,2.60418,6.25208,7.79532,2.7581,6.387,7.24635,4.49153,6.43523
6.62343,0.764623,-11.5841,15.7502,5.81054,-9.95039,15.9071,7.0044,-11.8102,16.6689,6.33425,-12.8107,14.4032,6.64545
8.73603,0.219712,3.34049,31.3374,-4.59553,3.99032,32.0489,-3.8643,4.50529,31.4237,-4.222,1.66444,31.5806,-4.2767
1.13672,1.08398,13.9103,32.8974,2.86618,12.703,33.0435,3.28267,12.7068,33.0632,3.14073,12.7059,33.0457,3.23031
10.6486,0.507196,-7.46601,30.0176,-4.77108,-10.8304,29.0986,-4.13158,-10.1597,29.197,-4.1998,-11.3709,29.2007,-3.7365
0.552869,0.113117,-15.0955,24.8922,-1.92203,-15.1195,25.1613,-2.17969,-15.0965,24.916,-2.21668,-15.0785,24.9887,-2.14522
4.96724,0.429821,5.61708,10.2302,6.47012,6.28016,10.0515,6.81401,5.62881,8.95625,6.78206,5.10361,10.6886,7.00502
11.2607,0.262457,-14.0279,14.7045,0.00792314,-14.5343,11.8826,0.869614,-14.2516,15.0984,-0.341793,-14.5679,11.2259,0.148445
11.3353,0.300767,11.5894,22.1706,-5.28366,13.1161,21.9679,-4.48084,12.6802,21.2332,-5.15187,12.8795,22.1364,-4.6134
6.13508,0.443961,11.776,15.3287,-6.11898,10.2841,14.2181,-6.53412,10.1646,13.8567,-6.03668,10.779,14.9331,-6.62238
49.1987,0.193947,-8.10473,0.579955,1.4303,-6.43195,0.228135,0.201583,-8.08128,0.317015,0.0994869,-6.90421,0.21933,-0.507053
7.80492,0.0617446,-3.89345,31.8673,-3.82654,-5.5251,31.1623,-3.6159,-1.69086,32.5488,-3.75877,-1.76617,32.5353,-3.79997
3.37064,0.0343219,-14.8552,19.301,-2.48448,-14.8681,20.097,-2.73895,-14.8839,20.5706,-2.59469,-14.8748,20.6044,-2.68984
7.64735,1.36639,6.63684,3.85083,-4.64211,4.78963,3.65198,-5.30175,4.89686,3.04278,-4.77463,4.98332,3.6129,-4.84183
0.708504,0.177535,-5.34376,33.6954,4.09463,-4.73361,33.6753,3.99022,-4.5288,33.6907,4.05119,-4.58712,33.738,3.92331
1.18225,0.0175695,14.4813,25.8495,-2.43629,14.1985,26.0502,-2.81677,14.2769,26.3308,-2.65139,14.4543,25.3762,-2.51731
0.725143,0.120215,-11.3706,29.2757,-3.70383,-11.8631,29.2993,-3.35351,-11.9034,29.2528,-3.38099,-11.886,29.3866,-3.26921
10.6892,0.832207,-4.02174,9.70125,6.39772,-4.24664,10.7505,6.95691,-0.529473,9.35955,7.28711,-1.64389,9.59779,7.24184
39.0842,0.707285,-1.93267,0.0889335,-0.0456427,-4.81614,0.828414,2.45114,-1.47992,0.612412,2.43519,-4.88428,0.809605,2.40908
13.802,1.05859,-11.6742,32.9736,1.22562,-8.79981,34.0394,0.206872,-11.6029,33.0859,-0.00806058,-8.86433,34.027,0.208557
7.72291,0.327283,14.6956,3.30396,1.74795,14.8438,3.13595,1.07572,15.1784,4.35426,2.03184,15.1805,2.51766,2.47618
24.9778,0.725346,-6.45473,24.1023,6.39035,-5.3163,21.3543,7.41302,-3.99736,24.5081,7.15703,-7.4362,24.3758,7.06317
5.77557,0.306011,10.5908,3.33386,-1.70905,10.4962,3.47371,-2.53132,12.2652,3.31961,-1.13681,10.2435,2.78878,-1.74305
7.10252,0.0734881,-9.9268,32.9423,5.11868,-10.254,33.3981,3.98604,-10.4097,33.3001,4.23288,-11.0963,33.2946,4.3722
1.40393,0.0510121,7.28965,5.54232,-4.99418,6.86664,5.14965,-5.16196,7.24942,4.86106,-4.82565,7.10764,4.7057,-4.85209
9.14551,0.00701104,-4.60639,0.0398058,-1.63101,-1.00941,0.208626,-2.12525,-2.10323,0.086438,-1.56954,-3.98456,0.0880711,-1.8638
3.37479,0.0488393,14.0765,10.5099,2.39464,14.1059,10.753,2.27652,14.3195,10.5684,1.94293,14.3835,9.38546,2.66104
2.24165,0.111324,-11.6788,18.9502,7.16984,-11.4043,19.6108,7.13048,-11.507,20.1919,6.99701,-11.3401,20.1511,7.00561
1.63713,0.584824,-12.1638,15.5081,-5.32115,-11.5518,15.7508,-5.79292,-11.4385,15.6412,-5.78329,-11.2804,15.4945,-5.91937
7.88619,0.425384,-13.8556,8.26199,2.75799,-14.3195,9.30896,2.97087,-14.4592,7.28838,1.57523,-14.119,7.66297,3.41275
7.93148,0.0475897,12.6819,11.7509,-4.53274,13.7673,11.7331,-3.80679,11.0002,12.3669,-5.65161,10.8491,11.808,-5.61194
3.294,0.297233,0.438731,1.55954,-3.53656,1.33099,1.24979,-3.50296,2.4017,2.05542,-4.18105,1.73146,1.76817,-3.98507
35.1232,0.29135,3.34234,23.6671,-5.84762,3.19204,22.6998,-6.31533,5.7171,23.8484,-5.70556,2.95213,26.996,-5.72365
6.64362,0.281916,-13.5896,29.6005,5.30449,-14.1086,29.0554,5.60431,-13.756,29.7199,4.95056,-14.057,30.2356,6.3298
3.5555,0.0460484,11.2678,6.91681,6.12665,13.0645,7.03558,5.43706,12.1481,7.08263,5.82279,13.0313,7.10987,5.45675
11.7069,0.472371,3.27551,26.0057,6.49567,3.66243,26.1339,6.84732,2.83962,25.5689,7.41245,3.85006,24.637,7.50542
13.0044,0.327051,13.5948,4.20789,-1.22205,13.454,2.46476,0.0253737,14.7013,5.42012,-0.700001,12.7392,2.3795,-0.401104
1.87626,0.395924,14.8521,29.6794,-0.292907,14.9125,29.8903,0.695009,14.9219,30.0344,0.718916,14.9095,29.7198,0.646546
13.2719,0.10037,-9.70184,31.1312,-3.41892,-7.30176,31.8667,-3.54744,-8.44165,30.8867,-3.96801,-8.11974,32.3448,-3.05627
4.34747,0.106485,6.95393,30.8748,-3.89216,9.37593,30.8341,-3.79559,7.02296,30.8,-4.011,6.59385,31.5107,-3.89951
14.3102,0.509501,-0.484486,23.6919,6.52303,1.33879,24.3431,7.32681,-0.891289,21.9702,7.14593,-0.948261,24.3119,6.89085
8.38963,0.261264,-3.16287,24.401,6.41047,-3.35797,22.7084,6.98692,-2.30185,24.6136,7.03263,-3.63379,22.6849,6.87107
12.233,0.46998,-8.35936,22.6772,6.47518,-7.70747,23.7266,7.31285,-9.11352,22.7842,6.86943,-7.93673,21.5232,6.75976
0.974396,0.00964923,14.2868,1.21742,2.56775,13.5809,1.11632,2.45212,13.5296,1.118,2.34137,14.2231,1.21049,2.42078
0.420633,0.0734212,4.84551,24.674,7.43503,5.0335,24.8295,7.57088,4.6959,24.5935,7.4878,4.98105,24.6121,7.48282
4.10416,0.19703,-0.0415212,29.6405,-5.74998,-2.83798,29.6476,-5.18795,0.418154,30.6807,-5.31813,-2.58449,29.7572,-5.19011
4.66013,0.135327,12.7575,33.1089,0.804579,14.2828,32.6668,1.42879,13.7315,32.853,0.496909,14.0475,32.7515,1.17105
0.186476,0.0191215,-2.76837,25.9785,7.87933,-3.06376,26.2299,7.93468,-2.91605,26.1519,7.91396,-3.12653,26.1884,7.91661
8.51609,0.304911,-7.57262,8.1185,6.70429,-7.05688,6.94853,6.82615,-6.59487,8.68409,7.31989,-8.089,8.23693,6.96483
0.349434,0.028078,-10.9583,20.8195,-5.89031,-11.129,20.7503,-5.89738,-11.0445,21.027,-5.75695,-10.7923,20.9717,-5.89911
2.13435,0.399322,11.8741,5.91749,-3.56279,10.1927,5.70924,-4.22683,12.2093,6.45891,-3.47751,10.4055,5.77244,-4.20814
1.80975,0.273815,-11.204,17.4116,6.39709,-13.0041,17.3847,6.03394,-12.8077,17.4532,6.13669,-12.8675,17.377,6.08121
62.0813,0.131881,0.844141,27.6977,7.0204,3.63925,28.3528,7.08663,4.77917,27.3657,7.2836,3.17358,26.6419,7.38476
0.305578,0.114422,-13.7665,11.9893,5.65728,-13.7855,12.0442,5.43625,-13.7891,12.1803,5.46374,-13.8418,12.0166,5.34625
6.74922,0.102914,1.50632,16.1151,6.66895,1.45081,14.7595,6.91859,0.665996,16.1536,6.5509,0.595181,16.1426,6.55364
0.117054,0.0380538,3.579,8.90599,-7.38225,3.78345,9.21843,-7.40148,3.69298,9.17321,-7.39238,3.76892,9.07491,-7.37584
6.27938,0.0759391,-8.99861,6.68313,6.82926,-7.32657,6.68453,6.84172,-10.0131,6.59134,6.50627,-10.1741,6.42202,6.27605
1.04122,0.0725877,-14.2296,6.80812,5.43067,-14.0904,7.16797,5.83825,-14.1579,7.17525,5.59431,-14.0773,7.1522,5.87867
1.14633,0.135243,9.16007,7.93948,6.65944,9.15615,7.61025,6.77836,9.94635,8.11323,6.49625,9.16148,8.16245,6.82579
2.14224,0.0485852,1.54074,19.9359,-6.98163,1.61748,18.5618,-6.76898,1.55256,18.5313,-6.76543,1.24286,20.3566,-6.9832
1.99829,0.00386864,-11.782,33.3289,4.42352,-10.6584,33.5656,3.50134,-10.9442,33.4418,3.94303,-12.0681,33.4274,4.11611
6.80565,0.580904,-12.12,30.7063,6.12532,-12.398,29.9493,6.60973,-11.5087,31.1471,6.87392,-12.9017,31.5943,6.62438
9.95629,0.510803,-14.0718,3.80993,-2.29172,-14.6193,4.91873,-1.85641,-14.6842,5.04727,-1.09009,-14.6616,4.30371,-1.37169
36.0536,0.629671,-14.3957,25.804,-0.15694,-14.6937,19.4414,0.144166,-14.7374,19.5712,-0.301659,-14.8992,20.461,-2.3927
2.02608,0.0483274,-11.017,16.593,-5.63297,-11.1592,16.8788,-5.50937,-11.4691,16.6639,-5.44953,-11.3571,16.9067,-5.45155
0.0416515,0.00230385,-11.7565,26.2836,7.63363,-11.6229,26.2898,7.66121,-11.6175,26.3698,7.68326,-11.691,26.3715,7.66811
4.86162,0.0477864,-8.38931,24.7438,-5.58274,-6.46104,24.8473,-6.13793,-6.79325,24.6875,-6.1126,-7.96786,24.5718,-5.76923
0.803662,0.0211838,-5.89962,17.0011,-7.43989,-5.98653,17.3006,-7.4184,-5.62715,16.9455,-7.57242,-5.60467,17.2574,-7.57104
13.9514,0.626712,-14.8257,27.634,3.71203,-15.3327,29.3335,2.02888,-15.2226,28.6552,2.01084,-15.0687,27.8474,1.8957
10.6909,0.384263,-11.7543,28.6956,6.56119,-12.0483,29.0657,6.7017,-12.0448,26.9918,7.51438,-10.9897,29.4456,7.31523
0.3229,0.0529577,-7.72156,1.23969,-3.82778,-7.51789,1.30343,-3.95295,-7.44893,1.27057,-3.92196,-7.37551,1.16124,-3.82177
2.52528,0.134572,14.4582,14.0069,-2.37498,14.7477,15.2579,-2.86086,14.7376,15.0442,-2.65506,14.7896,15.256,-2.53489
37.086,0.894334,-8.64185,14.8445,6.14679,-7.74675,14.8443,7.10548,-9.65671,15.7887,6.98093,-8.83233,11.8043,7.00399
11.0208,1.03791,9.89101,16.5685,6.73206,11.9343,16.8152,6.13832,10.622,15.4385,6.88354,10.6958,15.4957,6.86769
2.60598,0.106002,5.03779,25.9331,-5.65844,3.92402,24.5286,-5.809,4.30555,24.3468,-5.73487,3.96398,24.4682,-5.79753
2.10454,0.309194,-12.6898,9.5173,-5.02743,-13.0748,8.78836,-4.74545,-13.0872,9.24484,-4.66022,-13.3647,9.23808,-4.59594
1.05436,0.161102,-7.16957,33.1238,-2.46726,-6.9847,33.7373,-1.77127,-7.19311,33.4529,-2.1955,-6.98641,33.6941,-1.85019
4.11941,0.305235,-2.80332,14.2523,-7.60465,-2.41688,13.3003,-7.75624,-1.12861,14.2626,-7.80853,-3.25692,14.7806,-8.01587
2.87058,0.457932,9.40521,16.3522,6.2623,8.76881,16.8823,6.84884,9.307,15.668,6.61924,9.61699,16.6848,6.77075
33.453,0.344086,-10.6673,9.3119,6.62304,-11.6496,10.9046,6.7346,-10.4049,10.8717,6.90858,-13.3058,8.55127,6.65484
0.0317238,0.0243433,-5.66484,20.7205,-7.44288,-6.05546,20.6288,-7.41033,-5.97151,20.586,-7.42852,-5.89705,20.5991,-7.43987
0.826276,0.107838,3.07701,1.46471,4.43244,2.12136,1.44183,4.23199,2.39614,1.49271,4.22592,2.66533,1.50557,4.41259
15.2207,0.485519,-14.1162,18.625,-1.21319,-14.6951,15.8421,-2.41785,-14.7747,19.5301,-1.72115,-14.4198,18.2455,-0.400298
16.2756,0.333555,-1.77926,33.8659,-0.449002,0.532629,34.3427,-1.09191,-0.349468,34.4966,0.194029,-2.34134,34.1299,-0.522361
2.81767,0.102514,12.4764,9.43722,6.07839,10.6166,9.28562,6.43752,11.0507,9.17902,6.41717,10.6974,9.19558,6.45278
7.30491,0.176659,14.9625,5.17284,0.766024,15.166,6.2055,1.02178,14.8686,4.69074,0.0651352,14.5238,4.33296,-0.710961
0.904631,0.024454,-8.02503,28.1939,-5.27305,-8.02772,28.6036,-5.34392,-8.36131,28.6832,-5.26191,-8.30538,28.27,-5.23067
7.61167,0.359814,-1.98797,33.8822,2.12052,-0.985432,34.4131,0.963469,-2.81069,34.3327,1.91046,-1.40269,34.1305,2.58138
1.60759,0.195111,0.499758,5.37072,6.60425,1.82259,4.95459,6.78214,2.11119,4.76159,6.68895,2.10876,4.79955,6.71743
8.95438,0.364046,8.02674,2.70945,-2.22764,7.58357,2.22038,-2.44854,7.80213,2.91034,-3.46578,9.28923,2.53404,-1.85243
1.20627,0.0475331,-1.2565,12.2794,-7.92509,-2.11466,12.4155,-7.79849,-2.23839,12.2761,-7.74211,-1.88922,12.4207,-7.85279
6.67655,0.0270544,-8.61012,33.3833,4.45042,-9.50657,32.976,5.14218,-9.56848,33.2104,4.50322,-9.3029,32.949,5.28276
0.0216437,0.0932892,9.86236,30.8176,6.22216,9.8035,30.9895,6.20126,9.85612,31.0256,6.25729,9.85612,31.093,6.21354
1.89407,0.124928,10.8109,30.7048,-3.67524,9.44993,30.9258,-3.78266,9.80261,30.7351,-3.80591,9.44751,30.8321,-3.79561
1.96761,0.116757,14.7327,6.72989,-0.477638,14.972,6.90053,-0.15376,14.6889,6.67693,-1.01494,14.7613,6.08235,-0.535957
1.79761,0.169123,0.29027,27.2624,-6.09217,1.23466,27.3591,-5.93229,1.45225,27.5277,-5.85311,1.21645,27.6353,-5.93705
1.46828,0.151215,2.99943,9.64576,6.95916,1.57741,9.61825,6.52387,1.83628,9.70451,6.59939,1.57582,9.56145,6.54848
0.678624,0.0788989,11.5008,20.8329,7.09067,11.3135,20.5956,7.34438,11.7761,20.9561,6.94149,11.8019,20.9413,6.90613
4.91671,0.185698,6.19167,1.32341,0.0175747,5.42275,1.11013,-0.248403,5.49622,1.09276,-0.525609,5.77556,1.13624,0.0804312
3.55074,0.0916817,6.24785,32.7807,-3.00973,4.3108,32.9512,-3.02835,4.44014,32.6854,-3.20653,5.68269,33.0878,-2.74489
7.5194,0.0806813,8.68776,17.0184,6.89677,7.13197,17.0822,6.99341,11.3261,16.9848,6.49671,10.813,17.1253,6.69014
40.1076,0.358141,9.23329,11.1726,-6.16864,6.10903,10.6781,-6.86529,7.47219,12.0489,-6.6924,7.18988,12.7517,-6.98774
12.212,0.490482,-7.80213,0.326569,-1.67966,-7.03265,0.247203,-0.606979,-7.62968,0.254857,-0.364675,-8.11155,0.30216,-0.0423828
2.87288,0.227275,0.995845,2.39297,-4.67618,3.02957,2.28725,-4.24524,2.96308,2.18265,-4.13762,2.89805,2.19899,-4.17926
7.93067,0.178188,0.879712,33.9715,-0.393718,2.53641,34.0089,-0.464261,0.947399,34.0353,0.585,1.09446,34.2493,-1.43677
20.7155,0.489917,8.34018,10.6718,6.37656,7.08597,10.9148,6.97349,8.3144,7.48375,6.89874,8.12018,8.9669,6.90222
33.8003,0.476118,6.7922,2.3866,-2.71518,6.79831,3.40374,-4.19983,5.13189,2.95,-4.52936,4.40537,2.21215,-4.22793
5.80237,0.14804,-6.68967,0.312941,-2.31356,-6.66962,0.152682,-1.04436,-7.03519,0.247763,-0.94007,-6.19375,0.166015,-1.73468
0.21482,0.0372799,2.20638,3.27847,-5.77066,2.12186,3.83414,-6.02178,2.13549,3.40432,-5.85325,2.18679,3.81337,-6.02038
66.7213,0.228563,-13.9461,14.0462,3.04871,-14.3032,9.15525,3.36592,-14.213,9.60002,4.65725,-13.8744,12.3248,4.88671
11.7592,0.205953,13.8742,17.1554,-3.29194,14.3566,15.8582,-3.3892,13.7391,17.1658,-3.96647,14.7076,15.4928,-2.90498
5.42558,0.218788,-13.651,21.3324,3.08674,-13.9049,19.8764,3.03385,-13.7188,21.1665,3.94081,-13.9183,21.5099,2.82895
3.0763,0.0353626,-3.73622,15.1391,6.70713,-4.14814,15.1609,6.59016,-1.94091,15.2355,7.01436,-1.8017,15.1401,7.04601
1.63924,0.1212,1.43341,4.42858,6.54728,-0.0333572,4.18322,6.58971,-0.162655,4.045,6.54497,-0.0988848,4.1343,6.57805
14.9471,0.22664,10.3413,10.3379,5.98684,10.2198,8.33078,6.48046,12.0523,10.5491,5.87587,8.93063,10.3874,6.47517
6.23082,0.640387,12.6319,28.8982,-3.50344,11.0852,28.6115,-4.13078,10.7991,28.5779,-4.12456,11.5761,28.4732,-4.16808
23.0155,0.109601,-6.83729,1.3345,-4.06503,-5.52385,2.51287,-5.42494,-4.8658,1.93863,-5.00834,-5.47791,1.64506,-4.66777
2.57501,0.304446,-1.5952,5.99572,6.24632,-2.32079,5.19483,6.88029,-1.72975,6.46467,6.80604,-1.09772,5.9138,6.28183
60.2591,0.711919,-5.02726,17.6008,6.15358,1.52032,17.4142,6.8332,-4.31279,16.3594,5.93583,-4.7957,14.1634,6.52937
3.1936,0.26123,-14.6122,16.7634,-4.26919,-13.7621,16.9949,-4.63708,-13.7859,16.7056,-4.68983,-13.662,16.8831,-4.67591
2.65393,0.169937,-5.03798,11.3316,-7.28056,-5.86031,11.5721,-7.40546,-4.85603,11.5511,-7.44975,-4.85131,10.7056,-7.48427
1.88434,0.505993,12.5933,31.3402,5.69695,13.9135,31.3396,5.36676,13.7825,31.4264,5.40153,13.9604,31.2691,5.38987
10.2065,0.469612,-9.05027,33.5789,-0.540686,-5.00327,34.0087,-1.47573,-4.99701,34.0015,-1.54768,-5.12957,34.0189,-1.12652
15.8799,0.559368,10.6024,4.80729,6.1087,11.8896,5.49949,6.03068,13.1258,4.74434,5.1925,11.4809,6.32451,6.35987
8.97104,0.725293,9.15741,15.612,6.66022,9.12553,12.7768,7.13384,9.5458,12.9449,7.14697,9.74255,13.2881,7.17688
0.977667,0.0668226,6.24674,22.3551,-6.2696,6.55879,21.9997,-6.44811,6.7974,22.4577,-6.25507,6.42691,21.9873,-6.46416
0.0111109,0.000302256,3.56562,15.8623,-7.15291,3.42789,15.8028,-7.1685,3.40917,16.0648,-7.10446,3.34363,16.0303,-7.11355
3.32089,0.0661099,0.694695,28.536,-5.9727,-0.999821,28.6219,-5.73115,-1.06505,28.5886,-5.7296,0.0308872,28.4742,-5.94761
7.2848,0.104163,-4.68079,11.2207,6.93035,0.357331,11.0657,7.00927,-1.81454,11.152,6.93361,0.503198,10.9379,6.98624
0.0167022,0.00837974,-7.79625,31.6132,7.51584,-8.08004,31.5672,7.53898,-7.8298,31.5456,7.55822,-7.79126,31.5634,7.5445
2.14021,0.0643831,-9.7976,9.3416,6.95597,-10.4038,9.28498,6.74907,-10.5474,9.39254,6.686,-9.0987,9.29321,7.07584
2.35014,0.284673,6.80093,2.2226,-2.10003,6.80974,2.27346,-2.51974,6.0554,1.54047,-2.12242,7.29523,1.93366,-2.09741
10.3765,0.0901644,15.0161,23.7411,-0.60224,14.8998,24.5666,0.609992,14.9219,25.1386,0.391608,14.939,24.6931,-0.342517
3.52029,0.195653,13.7835,3.00426,-0.222391,14.6864,3.15933,0.673803,14.8553,3.19104,1.02527,14.8687,3.3231,0.486656
0.254607,0.0338968,-13.9758,18.1888,-4.8346,-14.103,18.1465,-4.75259,-14.1757,18.3104,-4.74151,-14.1734,18.2393,-4.71987
13.4028,0.370016,4.0715,29.1582,-5.12591,7.07025,29.9014,-4.94179,3.4352,30.0901,-5.4368,4.3412,28.3661,-5.60272
10.1327,0.458026,2.50198,13.7498,6.52538,3.33736,14.327,7.08196,1.40745,14.0167,6.81084,3.80633,11.7111,7.29723
28.1949,0.270326,-4.79228,22.6563,-6.4357,-8.03696,21.9551,-6.28645,-4.43974,24.0786,-6.56184,-4.16602,22.2106,-6.87964
5.3365,1.51087,3.90095,6.90667,7.07732,0.913934,6.027,7.13665,1.04652,6.5097,7.15575,1.03114,6.86653,7.10001
4.03839,0.00302936,-0.400376,0.170252,-0.886733,-1.33401,0.101203,-0.51002,-1.92633,0.0764445,-0.51226,-0.325785,0.221217,-1.60353
9.99441,1.15015,-9.95605,5.25764,6.44915,-8.35877,4.6769,7.42812,-8.72134,3.43409,7.20051,-8.68026,4.25062,7.35993
14.4968,0.458124,1.61412,7.91094,-6.74044,3.28308,9.73657,-7.4123,2.32439,7.09745,-6.75901,0.471151,7.26868,-7.33857
28.4164,0.0634605,-12.9475,5.208,-3.33741,-13.9624,6.35378,-2.9952,-14.103,4.36818,-2.41209,-14.4252,5.21989,-2.3979
3.45406,0.161601,-13.5776,18.4427,5.66216,-13.2883,19.8975,6.32229,-13.0522,20.4185,6.61586,-13.1846,19.5686,6.40824
4.93007,0.366278,-13.7999,8.24788,4.20028,-14.1098,7.66975,3.5124,-14.2195,9.07594,4.29099,-14.1703,7.79439,5.12838
1.90231,0.115412,-8.5011,4.9462,-5.20541,-8.72213,3.90259,-5.27069,-8.91489,3.72054,-5.23604,-8.4451,3.86746,-5.40422
3.17692,0.191679,14.3457,22.6614,4.26461,14.2513,21.8947,4.25791,14.2959,21.424,4.31652,14.216,21.2941,4.44411
4.78043,0.0875911,7.05773,17.2178,6.99485,5.02137,17.1763,7.02356,3.05476,17.3146,6.97823,3.04571,17.4079,6.98414
2.43858,0.453226,11.6145,1.36858,3.61254,11.3145,1.26185,2.82332,11.317,1.37896,2.97558,11.1628,1.24946,3.23492
35.9465,1.94245,8.28123,9.89962,-6.29027,7.34154,6.53019,-5.15918,9.06094,8.17369,-5.25522,7.57546,6.7861,-5.04924
2.89378,0.0328503,-9.65418,18.0088,-6.29987,-9.49805,18.7134,-5.97604,-10.3164,18.3039,-6.22716,-9.83864,18.9196,-5.93596
4.99423,0.0930163,13.4651,3.62277,5.31755,13.1672,4.06168,5.60181,13.7248,4.30671,5.12099,14.4922,2.18897,4.85643
57.436,0.170248,-14.2248,15.2085,-1.17941,-14.258,15.6509,-0.301554,-14.6276,10.8216,-1.12422,-14.7357,15.8681,-4.04494
3.22621,0.051652,-2.22356,26.1767,-6.47571,-1.69289,24.5324,-6.67195,-2.10359,26.6907,-6.32027,-1.99958,24.652,-6.67725
5.20486,0.248589,7.0178,28.2387,7.05818,6.51013,28.6062,7.28722,8.13847,26.9261,7.61145,7.22789,28.7754,7.08288
7.61411,0.484328,-2.29612,3.34902,-5.38721,0.998897,2.47281,-4.78368,-2.81906,2.65963,-5.16096,1.00345,2.45573,-4.75357
0.783358,0.0427709,-15.2148,31.7924,0.949354,-15.4607,31.4496,1.20737,-15.3395,31.772,1.4877,-15.4509,31.4468,1.11713
3.4525,0.181385,-14.7636,12.5513,-3.65494,-13.9408,12.7793,-4.3941,-14.3413,12.0163,-4.02364,-14.7871,12.1326,-3.4084
1.02198,0.0251312,0.910866,12.2525,-7.54774,1.39902,11.3394,-7.75699,1.7722,12.0136,-7.59538,1.47321,11.3775,-7.74596
99.6718,0.34841,-9.57431,11.7177,-6.13755,-12.7371,10.5291,-4.93286,-13.3632,11.3336,-4.63427,-12.9469,13.4211,-4.49754
8.97199,0.591281,1.38776,31.4495,-4.37205,0.917705,30.8904,-5.03895,2.13692,30.0357,-5.39575,2.19453,29.4274,-5.53637
14.4468,0.11973,8.13879,6.77427,6.68327,10.1172,6.96017,6.37256,3.2977,7.60572,7.31826,4.04346,6.87344,7.05985
15.9453,1.19182,-1.27504,28.6101,-5.64595,-3.74334,28.8809,-5.10739,-3.856,27.2293,-5.53426,-3.39087,27.8094,-5.24451
4.97113,0.061456,4.8718,12.3475,-7.17856,5.80274,13.1173,-7.31148,5.84432,12.7091,-7.25846,3.32173,13.3173,-7.10523
5.34775,0.265662,-7.83745,22.8718,-6.01874,-6.25599,22.9947,-6.61565,-6.03836,23.1267,-6.644,-8.39104,23.6223,-6.06929
3.57847,0.0670901,-0.641818,14.1236,-7.73818,0.0392164,15.6103,-7.48432,-1.18339,15.082,-7.81174,-0.469288,13.2036,-7.62423
0,0.00945837,7.16261,34.0363,1.50257,7.17798,34.0157,1.48795,7.14142,34.0255,1.48726,7.12861,34.0431,1.52234
37.5083,0.612999,-12.9135,26.4037,-3.18038,-13.3663,27.431,-3.19711,-10.861,27.6431,-4.40346,-14.8378,26.1067,-3.0723
2.23654,0.0877321,1.56822,4.49167,6.54986,2.8089,4.73953,6.73611,2.81221,4.69508,6.72927,2.93481,4.92308,6.79081
0.871915,0.214666,-11.6001,32.9926,-0.410227,-12.4971,32.7644,-0.147428,-12.5648,32.7377,-0.184668,-12.4907,32.805,-0.0652535
3.8013,1.67285,11.1674,32.9792,4.04084,9.12181,33.1996,3.98335,9.29419,33.2385,3.54343,9.29769,33.0728,3.70801
8.665,0.42855,-5.0136,12.7203,-7.90213,-7.02503,11.7114,-7.13032,-6.42132,11.7626,-7.26243,-6.23484,11.0911,-7.39489
15.3567,0.946107,-13.4779,29.4602,-1.61312,-13.8724,32.0791,-0.795575,-14.8854,28.8772,-2.00142,-14.6236,30.375,-1.1802
20.9743,0.114743,0.668835,12.8067,-7.47838,-0.874934,13.1493,-7.68652,2.34785,12.936,-7.48922,0.437223,15.2014,-7.59434
47.5775,0.0665984,2.8909,34.1023,0.974639,2.54891,34.0496,-0.9591,4.69641,34.0456,0.901314,0.17497,34.3831,1.46539
11.6583,0.5622,-7.31505,27.26,7.18578,-5.52958,27.2185,7.63768,-7.76652,26.4414,7.75043,-7.05527,28.6851,7.77999
15.6433,0.144007,10.589,14.7349,6.67811,11.5984,13.0367,6.45486,9.86156,14.7316,6.96708,11.2593,15.7073,6.79446
161.276,3.35553,7.63927,23.1239,7.33888,4.16673,21.7217,7.2394,2.01999,23.6959,6.96445,1.34506,24.251,7.31128
30.556,0.324441,1.01392,0.444859,0.749644,1.86584,0.934758,2.73443,2.70103,0.947643,2.60517,1.2243,0.86938,2.69153
6.73053,0.102158,-12.5951,4.94691,-3.63101,-10.2453,4.0029,-4.66942,-9.23524,3.90726,-5.16383,-10.2867,3.98911,-4.64349
2.72497,0.00805469,-0.985572,0.280925,0.895303,-1.19026,0.58192,1.86506,-0.593843,0.384455,1.06914,-1.46785,0.353911,1.24383
4.2346,0.310336,5.29571,19.7693,7.03296,8.27995,19.6109,7.45129,8.41495,19.519,7.47257,7.7888,19.7389,7.41446
19.7442,0.321808,-2.65194,32.4827,5.798,-1.12542,32.0277,6.03578,0.198778,32.3121,5.5341,0.876522,32.8932,5.03372
1.49253,0.148171,6.90624,33.7932,-0.730201,7.91066,33.7166,-0.462708,7.77221,33.8004,-0.434736,6.28064,33.6933,-0.701921
9.11164,0.049351,2.86226,11.2751,-7.2978,2.6743,12.8068,-7.31459,1.92933,12.0926,-7.54071,3.42786,12.1707,-7.15827
31.2071,0.448875,5.25459,27.1276,-5.00307,4.96206,28.7471,-5.31793,7.90332,26.8975,-4.71723,4.62245,26.2638,-5.7977
3.41436,0.0677944,1.51322,28.4349,7.29001,2.72354,28.1821,7.25155,2.27848,28.7484,7.06187,1.79385,28.7443,7.15958
2.12462,0.162833,-4.36547,27.2683,-5.36481,-4.7275,27.5079,-5.47119,-3.87585,27.7321,-5.27524,-4.61779,26.8955,-5.74794
19.283,0.125412,-10.1973,33.7803,1.63973,-10.5859,33.7515,2.30362,-14.6345,32.4415,3.36237,-11.8842,33.0569,2.01108
0.240277,0.00490388,-7.69257,20.5285,-7.03236,-7.66702,20.7759,-7.01097,-7.74229,20.8176,-6.99075,-7.83965,20.5087,-7.01079
3.00971,0.139352,-6.29584,24.5869,6.81334,-4.93069,25.8521,7.7214,-5.18051,25.4742,7.51327,-4.87203,26.0174,7.80703
0.308657,0.0641999,12.5397,24.2295,-4.68012,12.403,24.3183,-4.82691,12.6498,24.1266,-4.72579,12.4931,24.2109,-4.74036
38.5904,0.103817,7.54023,29.7777,6.07512,9.59234,30.8868,5.79821,6.4103,30.3441,6.50301,10.3945,31.8686,5.69901
6.97308,0.564884,-13.6945,6.69405,-3.167,-14.4995,6.41229,-2.91342,-14.8391,8.06919,-2.81451,-14.7549,7.05813,-2.68886
8.29885,0.13464,0.823406,6.59581,-7.02609,-0.776111,6.57108,-6.87381,-0.869743,5.23015,-6.55761,-1.28935,5.43141,-6.60287
2.17324,0.319822,13.0982,7.05194,5.41723,14.1293,7.13986,4.78905,14.1027,6.98031,4.8498,14.1854,7.04819,4.74937
1.05512,0.0600772,5.89145,31.3304,5.97821,6.10764,31.1056,6.16863,5.88171,31.6359,5.87764,5.60777,31.3105,6.06183
4.35337,0.0564782,-0.4394,6.78472,7.07484,-1.14364,7.00327,7.14576,0.965958,6.81601,7.0954,-1.31774,6.62658,6.83078
15.1049,0.305502,12.1471,30.7728,-2.68951,14.8298,29.6406,-0.392251,12.4151,32.768,-1.1327,12.4401,32.142,-1.6518
3.77374,0.266191,14.628,6.10493,2.90197,15.0242,6.52917,3.12875,15.0839,5.15472,3.34183,14.6552,6.25312,2.28033
1.12292,0.147465,6.0957,10.6601,-6.86777,5.69043,10.9205,-7.0109,5.19316,10.5924,-7.0014,5.13303,10.6652,-7.00097
1.36094,0.0950452,2.64452,33.7498,3.15179,2.84319,33.8006,3.2451,2.14335,33.9344,3.04442,2.84664,33.8683,3.02031
4.11286,0.174544,9.34181,13.0241,-6.59624,8.70945,12.1616,-6.43145,8.51001,12.579,-6.70772,8.45968,12.171,-6.58313
2.39902,0.224581,-4.41574,6.24589,7.22405,-6.04744,6.37168,6.72207,-6.3765,6.23943,6.60596,-6.44494,6.36032,6.54818
0.229423,0.00713195,12.1865,14.0749,-5.69115,12.4615,14.4084,-5.67155,12.4583,14.2544,-5.61172,12.4768,14.317,-5.627
9.25976,0.451873,-13.3437,15.7232,4.78055,-13.7806,16.2582,5.45016,-13.8003,15.9638,3.71315,-13.8144,14.6023,4.94802
4.6903,0.288442,5.94986,5.43437,6.54453,6.33935,4.63671,6.41257,7.75292,5.36171,6.78695,8.39254,5.28054,6.72372
1.65908,0.0960716,-8.8825,2.06853,-4.17089,-8.33823,1.48303,-3.89707,-8.37395,1.63185,-4.01413,-8.37961,1.78879,-4.16492
3.78957,0.319385,11.8239,20.9232,6.86323,13.2327,20.9371,5.52867,13.2201,20.7615,5.53097,12.9767,20.9594,5.86975
6.3469,0.50181,-0.452759,30.3475,6.2272,0.225827,30.7616,6.74589,-1.18909,31.0548,6.52138,-0.861339,29.4462,6.85918
11.1269,0.377642,-12.0328,7.02102,6.16811,-11.4877,6.74524,6.50463,-13.8373,6.62493,6.16566,-12.7422,7.70984,6.9633
4.06614,0.193361,-14.3486,26.7485,3.74563,-14.8755,27.1429,2.67417,-14.8985,27.0777,2.39826,-14.9038,27.3338,2.90959
4.73133,0.0899475,5.96311,33.5138,-0.928062,6.34621,33.6609,-0.933842,5.74043,33.5319,-1.2256,5.94182,33.7803,0.361275
0.722494,0.233565,-14.7842,15.1884,-4.07634,-14.5238,14.9343,-4.39872,-14.5563,15.0903,-4.36862,-14.5839,15.1653,-4.45081
8.58342,0.0812366,14.0365,10.4332,-1.81665,14.6887,8.41326,-1.79754,14.4879,9.22886,-1.68495,14.4752,8.83684,-2.2141
1.77322,0.216513,2.8926,18.5769,-6.74669,4.13888,19.0349,-6.90155,4.05246,19.1128,-6.90341,4.13931,18.9137,-6.90422
0.481276,0.00268395,12.4795,12.0935,5.76416,12.8176,11.3598,5.5992,12.9029,11.4335,5.58735,12.635,12.0104,5.71974
21.673,0.158717,2.08661,29.0451,6.94225,3.36016,28.7758,6.96054,3.25733,30.1621,6.27656,3.73236,29.3575,6.5752
26.6141,0.264264,3.35601,2.57659,-4.38261,4.36485,1.92773,-3.61212,3.01934,3.9602,-5.94097,4.02544,2.88782,-5.00863
5.5044,0.235463,-2.70574,13.2579,-7.71493,-0.877665,13.2157,-7.7518,-2.58441,11.9591,-7.70911,-1.82882,13.111,-7.83503
4.24523,0.0914642,12.4946,10.6862,5.57148,13.5836,10.6405,4.86672,13.6542,10.5277,4.74953,11.4519,10.9451,6.16311
33.2694,0.298331,-4.43022,33.5456,-0.273046,-2.7871,34.0063,-0.942085,-1.83179,34.488,0.732451,-2.24297,34.4194,0.74069
0.820185,0.017274,-14.5758,11.2607,-3.67347,-14.6346,11.7524,-3.65449,-14.4295,11.3322,-3.93028,-14.7462,11.3498,-3.45534
34.618,0.299355,4.12318,11.4653,-6.97942,6.81625,13.0327,-7.1498,7.07828,11.2145,-6.88018,2.96724,10.521,-7.30573
3.69441,0.044752,-9.74702,9.05176,-6.26999,-10.3849,7.96185,-5.93957,-9.59253,8.26811,-6.20258,-10.1209,7.91122,-5.99721
11.758,0.614051,-7.25169,20.9667,6.26825,-8.0771,21.3327,6.73794,-6.3165,22.1517,7.19799,-6.1926,18.8248,6.98649
6.85379,0.11861,5.67336,13.8125,7.03186,5.98622,11.5602,7.28125,8.96627,13.7648,7.06755,8.96628,13.8112,7.06469
2.68391,0.208764,5.42384,24.2064,7.33953,7.76461,24.0022,7.21969,6.90256,24.1634,7.31003,7.8314,24.0147,7.20113
8.85213,0.0033525,-14.9188,23.7803,-1.42085,-14.6902,27.3567,-0.812227,-14.7903,25.7196,-1.08145,-14.9168,27.5163,-1.13676
1.47912,0.116594,14.773,14.7413,2.21811,14.6142,15.8919,2.01038,14.5669,15.8516,2.13352,14.8804,15.405,1.81411
49.1939,0.437904,-3.50693,1.39196,-3.13477,-2.32268,1.34519,-3.43119,-4.09088,0.615991,-3.08699,-3.92605,2.60142,-5.29383
11.6913,0.480196,14.2575,9.04583,2.0475,15.5033,8.03447,0.375455,14.7158,9.26951,0.382671,14.7152,9.6259,0.0893521
3.95361,0.505496,13.7835,5.37993,-2.12685,13.842,4.70982,-1.45319,13.2873,4.06972,-1.72671,13.0447,3.80036,-1.59063
4.10532,0.430122,7.85965,4.36209,5.95845,8.0009,4.73875,6.54371,7.35722,3.99125,6.2274,9.27572,2.82669,6.16767
5.27588,0.0776558,8.12076,1.48432,3.88616,9.51411,1.31628,3.75559,9.14953,1.41243,4.56124,8.31202,1.45656,4.53429
25.7684,0.0571179,14.6496,6.28527,2.01734,15.3568,3.9491,0.80615,15.1394,4.514,2.01489,15.2761,3.71803,2.87173
2.18599,0.137035,6.77119,10.5376,6.76003,6.95887,10.8702,6.93539,7.19757,10.1483,6.96174,6.41709,10.1419,6.83412
2.04222,0.0639509,4.73633,34.1083,-0.395183,3.16598,34.0295,-0.504722,3.23042,34.0611,-0.39942,5.03346,34.0859,-0.237547
59.3299,0.0799706,-14.3079,6.34535,5.1047,-14.5602,3.84746,3.37781,-14.5363,3.7236,3.73267,-14.6003,4.93282,2.56885
5.35148,0.213383,-10.5599,26.7837,-4.61514,-11.9737,26.6165,-4.06346,-9.62718,26.9882,-4.61358,-11.7305,26.7602,-4.11877
13.3179,0.263064,6.84383,33.4656,-1.95433,7.19983,31.7069,-3.66075,6.8541,31.4533,-3.81388,7.26576,31.7113,-3.6649
60.1541,0.96101,9.5978,18.3282,-5.94912,8.93177,20.7496,-6.70952,7.8269,19.7479,-6.84903,8.16871,18.2048,-6.9834
2.47319,0.280651,13.1205,4.80622,5.20317,14.3673,4.76946,4.3801,14.3929,4.8869,4.32812,14.4786,4.77263,4.26952
0.280836,0.0232588,-9.3333,12.6919,-6.21872,-9.43766,12.8471,-6.18123,-9.40917,12.4934,-6.23823,-9.44771,12.4793,-6.22418
7.93157,0.627644,5.74284,7.64027,-5.817,6.78935,7.37244,-5.72547,7.80736,8.17527,-5.95639,6.46198,7.01575,-5.51076
0.939563,0.343735,1.29271,7.97677,6.99406,1.30832,7.16519,7.124,1.09203,7.00439,7.12763,1.1723,7.01689,7.11276
3.57973,0.483972,-2.43268,22.1603,-7.05682,-3.79741,22.3434,-6.98685,-4.15955,22.1288,-6.91013,-4.08456,22.2434,-6.90286
7.84818,0.315981,-5.26298,24.655,-5.96139,-6.61102,24.6826,-6.1486,-4.87821,24.16,-6.41877,-4.55661,26.5563,-5.98217
20.6268,0.921699,-14.2787,7.25252,-0.02226,-14.988,4.16773,0.481869,-14.7311,4.75244,-0.285117,-14.6209,4.77196,0.517051
1.98649,0.258208,-10.6003,9.79346,-6.2244,-11.1117,10.0339,-5.83124,-10.5141,9.30005,-6.33484,-11.0804,9.99995,-5.83437
29.5783,0.242075,7.4436,32.4705,-2.83718,7.45837,33.6946,-1.50324,11.3157,31.7277,-2.92701,8.75806,32.4312,-2.84758
2.08163,0.12533,-3.54359,4.92922,-6.28447,-5.41537,5.24325,-5.94962,-5.40598,5.16079,-5.96519,-4.84306,5.02284,-6.11211
1.03779,0.167538,9.93516,2.11718,6.13061,9.34662,2.6393,6.17343,9.34398,2.82783,6.17099,9.63791,2.53748,6.23539
2.06395,0.065741,-15.4235,29.6868,-0.196749,-15.1738,31.0316,-0.217404,-15.3427,30.9614,0.0734073,-15.2409,31.2884,-0.0392654
18.587,0.219225,-14.1923,8.49329,-1.13465,-14.0388,8.42461,0.179146,-14.6506,4.93335,-0.862487,-14.7552,8.81568,-2.35565
3.86762,0.0275058,14.9068,25.0862,-0.129568,14.8693,26.6304,1.18286,14.8847,26.1917,1.12196,14.8769,26.4905,0.896769
13.2494,0.242575,12.9853,23.3997,5.85337,13.0185,22.1564,6.2069,13.477,21.8125,5.69999,11.7403,24.0128,6.96357
2.35948,0.114317,7.14098,28.1762,-5.08258,6.55524,29.0783,-5.28492,7.61695,28.339,-4.9151,6.24213,27.9915,-5.08336
2.2666,0.13387,4.46775,7.20449,-6.32428,3.29111,7.48623,-6.92571,3.04807,7.72619,-7.0629,3.71435,7.28004,-6.73667
0.559714,0.582797,12.2748,32.7973,4.52119,12.7565,32.8547,4.09901,12.8255,32.8292,4.13913,12.9721,32.7907,4.22195
13.3213,0.246865,-14.4191,32.1999,2.19604,-12.8489,33.0591,2.33551,-12.6412,32.9796,1.30916,-14.3618,32.5824,2.83184
9.93483,0.0989806,-5.98144,4.29123,6.75135,-6.0502,5.92477,6.89206,-5.62115,5.60213,6.92382,-7.30522,4.17181,6.7202
5.24205,0.375707,-13.6344,26.6813,4.90325,-13.9856,26.0956,5.27728,-13.9123,26.5372,4.4218,-14.3683,27.615,5.9678
0.245422,0.00109012,0.568261,0.427178,-2.30609,0.479624,0.563398,-2.68269,0.624603,0.44637,-2.35576,0.619314,0.580947,-2.73026
6.27928,0.265077,5.2254,17.2085,-6.5472,4.55437,18.353,-6.83682,6.3016,17.3331,-6.70242,4.96467,16.4604,-6.86796
8.2894,0.0416198,13.4865,30.5576,5.57421,13.5511,28.1531,6.81247,14.3956,30.6666,5.34431,13.4784,28.1402,6.83675
0.352173,0.0314179,-14.9898,22.4673,-2.18699,-15.0241,22.7117,-2.09383,-15.0041,22.6643,-2.27144,-15.0372,22.7691,-2.13071
20.3163,0.713781,9.67454,23.6759,7.12368,10.0632,22.3543,7.2002,11.6636,23.9487,6.99234,11.0822,22.8384,7.38575
19.611,0.458629,5.07024,33.7805,2.902,2.26452,33.1302,4.66463,3.79043,33.4155,4.21994,2.1261,33.4596,4.22198
4.35045,0.165873,-5.53391,27.3071,7.64795,-3.3768,27.3442,7.91885,-2.74011,27.2779,7.9538,-1.83391,27.3133,7.9967
16.2906,0.265575,-11.3433,2.65472,6.50745,-10.6232,4.37299,6.39011,-11.9363,3.00837,6.60868,-11.7808,1.69922,6.11044
50.2315,0.600602,-7.1864,17.5466,-6.73519,-10.8191,16.6797,-5.76764,-9.17295,15.8737,-6.79221,-9.1018,17.7533,-6.39848
0.636048,0.284016,-0.30342,1.03994,3.45545,-0.186782,1.21157,3.7311,-0.363369,1.2081,3.73677,-0.291848,1.24611,3.66887
0.332183,0.0127918,13.3332,1.35013,1.23014,13.076,1.27664,1.4044,13.0008,1.29144,1.37007,12.9981,1.3122,1.32619
19.6028,0.339215,-14.182,31.7622,0.866376,-14.4854,32.1627,1.72709,-15.2297,31.608,0.431138,-12.1509,33.0421,1.05731
11.1445,0.119257,11.7451,32.6058,-1.65053,12.1075,30.4323,-3.0859,11.5934,33.2363,-1.04423,11.8043,30.2419,-3.39196
30.2074,0.679523,13.9341,20.4252,-2.66911,14.9384,21.715,-1.86439,14.0127,20.4072,-4.09613,14.9087,19.2219,-2.47365
5.17806,0.238508,-10.5518,30.7997,6.64493,-11.019,31.4705,6.87421,-10.2883,30.8901,6.84272,-11.3329,29.4908,7.13163
0.0974139,0.0046651,1.41381,13.7923,-7.62189,1.34196,13.9799,-7.60284,1.59054,14.2964,-7.57831,1.45037,14.3012,-7.57806
3.35863,0.210443,-0.831409,31.8376,-3.92383,-0.0802433,31.8522,-3.91506,-1.29918,32.4167,-3.88497,-1.06906,31.7916,-4.34697
41.7534,0.319039,10.0464,4.71519,-3.59175,9.69328,2.85951,-1.92912,9.6712,2.35892,-1.33008,12.6467,3.70552,-2.3585
37.3403,0.265444,-4.37413,33.7946,3.8026,-1.8728,34.0708,3.06354,-2.03229,33.6583,3.96506,-1.40852,33.0871,4.9489
8.35792,0.21719,2.90367,14.5003,-7.16913,2.3951,14.1304,-7.49857,2.71661,12.9243,-7.26812,2.66028,12.9561,-7.28782
7.50706,0.322697,-14.113,10.4594,0.877209,-14.3962,9.73187,0.920459,-14.4541,10.3868,-1.19288,-14.4537,10.8608,1.28698
0.100056,0.00343592,-14.8242,12.153,-2.58103,-14.838,12.4946,-2.63155,-14.8381,12.4272,-2.65508,-14.8268,12.2335,-2.53914
2.46531,0.356095,8.37842,33.354,2.1158,10.4637,33.348,2.70558,9.62922,33.5071,2.29227,9.69843,33.4922,2.35165
16.6369,0.867392,12.6805,6.41521,-2.40159,12.406,8.22869,-4.17048,12.0385,5.52459,-3.40807,12.5784,10.1713,-4.42091
4.47073,0.370051,-12.5945,22.7418,-4.00086,-13.2342,25.203,-4.36652,-13.3473,25.179,-4.2956,-13.2216,25.2779,-4.38367
3.6086,0.612966,-10.5468,4.47805,6.37062,-10.0863,5.5967,6.29437,-10.1858,5.87893,6.30278,-10.1753,5.61824,6.22712
159.747,0.101022,-6.09924,1.54214,4.0966,-1.00232,1.81374,4.95932,-1.21495,0.628547,2.43294,-3.79718,2.34094,5.78538
12.2527,0.332794,-1.00243,2.70855,6.22539,-0.924434,3.97471,6.49041,-1.40599,4.85531,6.90921,-0.481594,4.56262,6.80508
5.78627,0.0560018,-3.91899,30.9977,-4.52162,-5.23874,30.7579,-4.40472,-2.66533,30.6403,-4.99546,-2.94443,30.4924,-4.99796
8.39327,0.549608,3.87457,5.62089,6.34358,4.94836,4.72178,6.33875,5.89146,5.30537,6.49282,3.15476,4.83145,6.67293
1.28427,0.049906,-7.07064,34.03,2.04432,-7.40312,33.7556,1.67067,-7.4035,33.6828,1.55727,-6.30457,34.121,1.74685
0.440299,0.0754744,13.6613,32.0074,-1.36748,13.8216,31.5625,-1.53068,13.5394,31.7681,-1.62856,13.7635,31.6637,-1.52832
0.0532249,0.016527,-13.6239,2.12817,-1.83065,-13.7473,2.21178,-1.85078,-13.7177,2.23391,-1.93306,-13.7724,2.27985,-1.93978
2.25804,0.950609,-3.39941,24.6909,6.65293,-3.98462,25.3088,7.50591,-3.70059,25.3403,7.46571,-3.7694,25.3394,7.46165
17.3712,0.730788,-13.1352,15.6928,-5.04733,-12.0941,15.1267,-5.28794,-12.1543,14.231,-4.7371,-12.7938,13.641,-4.54095
8.69837,0.794525,13.9137,23.8852,4.48467,14.214,22.4373,4.55905,14.6681,24.073,2.79638,14.6422,24.0079,2.79141
0.030569,0.130874,-10.6183,25.9261,-5.20964,-10.6329,25.7822,-5.34439,-10.5595,25.7235,-5.34391,-10.4369,25.8019,-5.33892
5.9561,0.102041,-4.17639,3.76093,6.24604,-2.64047,3.73363,6.31328,-5.4303,3.96317,6.12411,-5.49729,4.3797,6.72081
1.6124,1.0685,11.2051,6.96362,6.13886,10.125,6.91496,6.36817,10.1348,6.80445,6.40444,10.2418,7.54525,6.52287
25.5819,0.0716023,11.7456,28.331,7.22289,11.0808,27.2523,7.72298,10.6876,30.7016,6.60758,13.8789,27.7868,6.71496
13.1229,0.440214,-9.40778,22.9086,-5.25941,-9.60187,24.0463,-5.29673,-11.2577,22.636,-5.46183,-7.79033,22.9938,-6.02562
14.0424,0.174843,-4.47738,5.50715,6.70995,-5.08655,4.5161,6.81477,-5.48897,5.55396,6.94538,-3.46093,4.17485,6.69143
0.607221,0.564474,-8.03563,33.794,3.40063,-8.15703,33.9302,2.80904,-8.08755,33.9267,2.80711,-7.95899,33.9334,2.81256
20.4331,0.0481645,-14.1124,22.285,1.24345,-14.7398,24.115,0.810486,-14.4754,22.8737,2.15533,-14.851,24.1305,1.69137
5.48992,1.25358,1.37999,0.791941,2.38553,1.18013,1.19599,3.62597,1.4755,1.14118,3.69745,1.65439,1.17623,3.69114
11.5301,0.0972273,10.2217,7.29018,-4.64378,8.22038,7.48386,-5.23547,12.1113,7.44302,-4.12349,8.23428,7.00009,-4.80563
27.6645,0.634228,6.42571,17.6541,-6.61456,10.2674,17.3594,-6.23718,9.27184,17.1564,-6.56999,6.57775,19.8669,-6.76774
101.08,0.168256,6.21529,1.10768,1.65904,4.06908,0.848951,-2.14944,2.81508,0.627753,0.204863,6.21777,1.26914,0.0981606
4.07538,0.319173,-13.657,25.2267,4.87737,-13.9605,25.8948,5.55674,-13.9452,25.2958,4.19779,-14.0451,24.4339,5.26629
2.16612,0.0158143,-0.0531383,25.9415,-6.44701,-0.690121,27.1445,-6.1841,-0.447431,26.487,-6.33442,-0.38669,27.088,-6.15494
5.44972,0.205198,15.3991,7.76502,0.258468,15.0021,7.83644,-1.09728,15.1789,7.88832,-0.803773,13.5755,6.18231,-2.17733
0.269084,0.139167,-14.6972,24.0715,-3.48504,-14.7438,24.4805,-3.42219,-14.6593,24.2844,-3.49862,-14.7156,24.4249,-3.43587
6.81762,1.22012,6.93941,14.7761,-7.27348,6.73904,13.5338,-7.20674,5.87526,13.6916,-7.3383,7.17722,13.5681,-6.77609
2.32367,0.0133963,-8.73555,8.84422,-6.36737,-7.31728,8.81117,-6.89004,-7.51335,8.71486,-6.84279,-8.38578,8.72791,-6.53186
10.058,0.412741,-8.60521,9.69451,6.71729,-7.95696,8.50067,7.05165,-7.52436,9.96857,7.21698,-9.19558,9.80781,7.1119
57.6415,0.192197,11.5145,33.043,3.26784,11.0878,33.2138,0.0425198,13.2191,33.1352,2.51708,9.50979,33.3409,3.24155
0.867229,0.103901,2.06153,10.5154,-7.45283,2.68937,10.7271,-7.37617,2.69633,10.6592,-7.35519,2.78388,10.5823,-7.32733
1.47183,0.534144,-10.56,1.02013,3.504,-10.709,1.28457,4.36168,-10.6499,1.30355,4.45214,-10.851,1.21859,4.19087
3.57125,0.0449655,-13.8125,15.8682,3.63886,-14.3894,16.1734,1.9287,-14.3597,16.2667,2.10742,-14.2912,16.2773,2.36641
1.12347,0.412273,6.70262,19.6771,-6.69497,6.86903,20.9666,-6.65534,6.6126,20.8094,-6.68144,6.78364,20.9054,-6.66076
2.96061,0.0205244,5.86503,23.7497,-5.73462,8.64854,23.777,-5.69436,7.47236,23.9129,-5.67972,8.65584,23.8918,-5.67651
35.2282,0.344483,10.8461,1.19391,2.73749,8.08019,1.28641,2.13302,9.519,1.74571,0.152406,9.63265,1.58722,1.37108
8.38581,0.562563,-7.21767,5.31742,6.90833,-7.11314,6.73338,6.74088,-6.50988,6.32506,6.50776,-6.38615,5.44549,6.95927
3.96003,0.0917265,0.341649,17.6035,-6.50772,0.608094,16.3574,-7.11833,-0.112875,17.6633,-6.58261,0.676775,17.8599,-6.50143
9.09515,0.112869,1.76044,11.0013,7.02636,5.11466,10.8999,7.08172,6.72388,11.046,7.08473,6.31416,10.8409,7.05698
11.4647,0.503153,-2.44231,21.9242,6.4949,-2.90932,19.2423,7.07045,-1.35692,21.6429,7.03758,-3.00424,22.5013,6.96462
13.6678,0.365809,13.5852,8.81614,3.76907,14.0298,8.79374,3.31261,14.3288,7.24291,4.45569,14.0888,7.9901,4.69285
5.44825,0.0836736,14.1104,28.9939,-2.09529,14.6539,28.8248,-1.42456,13.2153,29.173,-2.89282,13.3178,28.8295,-3.00224
51.1869,0.196063,0.829913,0.465236,0.176066,2.4143,0.504537,-1.25118,2.24129,0.52353,-1.68678,0.217463,0.406001,-2.30005
6.72886,0.13859,14.6315,6.58043,1.90126,15.2594,5.28564,1.58222,15.0024,6.49735,1.003,15.108,6.51597,0.492631
2.42921,0.224972,8.65154,23.7265,-5.72879,9.53883,23.8566,-5.56728,10.0464,23.7583,-5.38734,9.82927,22.9405,-5.75669
101.129,0.693179,12.3502,25.5038,-3.97053,8.67468,26.4898,-4.88858,13.2871,28.734,-3.06986,14.6919,24.1384,-2.0849
3.25965,0.17453,11.3653,8.08025,6.28789,13.2749,8.36707,5.65927,10.0151,8.03464,6.45813,13.2307,8.38677,5.69318
1.69626,0.0270342,-12.1766,4.31923,-3.69863,-11.9434,3.81865,-3.88517,-12.7749,3.85899,-3.50646,-12.4407,4.25346,-3.61625
0.0427683,0.0172255,11.6592,3.78898,-2.97653,11.7936,3.93971,-3.11135,11.85,3.9586,-3.10175,11.6552,3.84885,-3.0522
2.9235,0.703447,1.77251,20.1215,6.28428,1.24231,19.351,6.9572,1.8092,21.0212,7.01624,1.8815,21.0295,7.01749
10.4307,0.151067,-13.535,27.8191,-2.93312,-13.3543,28.9752,-2.81961,-13.8102,27.7726,-2.97476,-11.7951,28.9548,-3.70716
0.501748,0.121826,-12.8808,17.3131,6.08736,-13.1807,17.2376,5.96643,-13.4937,17.4386,5.80512,-13.4913,17.3932,5.78387
28.4902,0.363433,14.3072,3.89633,4.03238,14.8291,5.22437,3.98352,13.8537,4.08514,4.94323,15.2245,2.46063,3.73952
7.38671,0.0387685,3.90047,21.7795,7.16796,3.76207,20.7323,7.32985,2.97583,21.7827,7.13823,3.80498,22.8423,7.06513
0.0466102,0.000218526,-11.8296,18.8534,-5.94766,-11.6101,18.7361,-6.04485,-11.8314,18.7716,-5.93539,-11.6123,18.6605,-6.03301
15.9233,2.9851,9.39527,3.22818,6.29037,9.18325,6.26051,6.14252,8.79902,6.34976,6.48629,9.91494,6.31339,6.52419
7.47636,0.763184,-10.5278,24.045,5.85606,-10.75,23.1059,6.36902,-12.0611,24.9624,6.80595,-10.0113,24.5024,6.81684
3.90019,0.252127,9.45426,13.8681,-6.69742,7.8456,14.0906,-6.84631,7.85639,14.0579,-6.82521,7.54418,13.8101,-6.74244
19.2282,0.539225,-14.33,3.39093,-1.50983,-13.3967,1.31186,1.38835,-14.1978,2.37295,1.15694,-14.0633,2.10849,1.32678
0.186391,0.0222975,0.478781,0.309341,-0.360509,0.729381,0.351619,-0.493976,0.421422,0.493302,-0.382436,0.582749,0.287055,-0.382055
9.98502,0.16653,9.43871,22.3286,-5.98594,6.56383,22.2391,-6.30735,6.89941,22.3921,-6.24665,6.85768,22.4901,-6.25136
4.70053,0.410455,1.49966,10.3024,6.3635,2.46917,10.6553,7.03225,1.43376,9.56506,6.51563,0.630726,11.0791,7.02052
0.852024,0.0148823,5.55708,8.90542,-6.7804,5.59613,9.28717,-7.00806,5.29033,8.64904,-6.73571,5.76009,8.83912,-6.69356
0.832757,0.0579684,-13.0326,1.00731,2.43151,-12.8099,0.867,2.47717,-13.3901,0.986944,2.57323,-13.5234,0.934404,2.8118
35.2285,0.622877,13.2561,24.7848,5.79497,13.0726,23.5054,5.80676,13.9308,23.557,4.69489,13.8827,22.8205,5.25396
0.0298796,0.115818,-1.11422,34.1948,-1.78343,-1.01187,34.1615,-1.88696,-1.06283,34.1638,-1.89183,-0.969961,34.1833,-1.89192
16.9578,0.487744,-12.2922,2.42642,-1.58192,-13.0297,2.7514,-2.22182,-10.5632,1.86367,-2.82898,-12.6853,1.55814,-1.20999
13.9756,0.634083,0.255929,1.54199,-3.56274,-0.931745,1.10832,-3.09588,-1.57474,1.39389,-3.48686,-1.46325,1.46006,-3.90637
3.91821,0.168814,8.49648,3.32253,-2.99451,8.32411,3.56717,-3.64359,9.73476,3.5529,-2.76435,9.73351,3.58482,-2.80051
3.86434,0.322477,-14.2612,5.39334,1.47321,-14.5592,6.08269,1.8487,-14.6702,4.79846,1.95089,-14.5372,5.2559,0.701117
8.46027,0.492677,7.37237,3.67955,-3.69339,9.75058,4.78599,-3.84487,6.83096,3.51037,-4.26112,9.2611,4.48878,-3.92353
6.32086,0.106683,3.62603,19.9047,6.78971,1.84941,20.0291,6.27666,1.91552,20.1252,6.29303,5.22914,19.7139,7.04341
17.946,0.250712,11.039,31.2211,5.82958,12.5589,31.3515,5.68925,12.9384,30.1503,6.47716,11.8194,30.1687,6.72971
17.11,0.12984,-0.0922418,32.1508,5.75854,3.58116,33.1734,4.65215,2.62239,32.1078,5.71882,2.89612,32.7035,5.11255
0.424738,0.0127989,-13.5649,11.2054,6.10261,-13.3569,11.1963,6.15847,-13.0798,11.2804,6.24062,-13.0914,11.3732,6.26292
6.38607,0.017468,13.7183,20.8954,4.83552,14.8326,20.8212,2.84152,14.8448,21.0269,2.85842,14.622,21.0284,3.26177
3.93265,0.22879,-6.27057,30.9115,-3.61549,-5.58314,31.1129,-3.5746,-6.36156,30.6872,-4.04348,-6.96288,31.6013,-3.687
26.2243,0.447523,0.386175,9.63128,6.41628,-0.196843,10.7672,7.07696,-0.416132,7.66977,7.43581,1.21833,9.59506,6.53584
36.1049,0.739305,-7.21973,32.2471,-3.14972,-5.08783,32.8207,-3.13686,-6.08634,33.83,-1.74311,-5.32773,33.7353,-2.32106
5.07641,0.192907,11.0053,2.53425,6.48501,11.1379,4.33904,6.16487,11.1282,3.59516,6.36982,10.8559,4.35285,6.2375
17.6046,0.133693,-5.19025,13.2262,-7.8753,-4.15431,12.7135,-8.09287,-7.27066,11.7483,-7.02105,-7.53343,12.2464,-6.92881
6.18939,0.342448,-6.58041,16.6786,5.86335,-6.70407,18.2089,6.71694,-6.54541,19.0312,7.02914,-7.4839,15.5716,7.01318
3.92376,0.143595,14.8974,30.0735,2.84007,14.8408,31.5531,1.35864,14.8825,31.2224,1.20482,14.8642,31.4017,1.91291
19.4428,0.894727,-4.96384,29.373,-4.72582,-2.90146,29.6743,-5.16829,-4.16462,28.3082,-5.22986,-4.93571,28.301,-5.44042
4.88839,0.453371,11.9335,12.8536,5.7071,13.0268,13.3077,5.93559,11.6545,12.9322,6.3447,12.4406,12.1086,5.78522
1.37942,0.909015,-6.12558,2.06592,5.25881,-5.17934,2.32023,5.81298,-5.179,2.34115,5.85451,-5.17731,2.37842,5.93772
4.72271,0.203251,10.0205,4.90513,-3.73024,9.83894,5.90018,-4.47952,10.1136,6.024,-4.49049,10.8534,5.01101,-3.86076
1.16228,0.121155,10.5034,33.5217,-0.719428,10.4413,33.3663,-1.5323,10.7123,33.4881,-1.14148,10.3775,33.3695,-1.53449
13.3249,0.400705,9.94442,13.5458,-5.95492,10.3148,12.891,-6.04314,9.3045,13.5845,-6.70305,9.50715,15.0601,-7.07454
2.83085,0.368832,-3.8608,6.79188,7.14371,-1.82076,6.7226,7.0219,-2.04463,6.80734,7.1353,-2.31706,6.70032,7.13565
7.92123,0.406812,-13.9225,8.98221,0.532693,-14.4478,9.11073,1.61067,-14.0789,8.07566,0.49,-14.4141,9.42206,-0.527971
2.26776,0.100958,-13.8661,26.4476,6.1894,-13.1576,26.0416,6.87096,-14.0816,26.8074,5.79124,-13.695,25.7888,6.18851
2.47645,0.0252815,-4.04594,29.9226,7.45672,-4.68673,29.991,7.43447,-4.1204,29.4838,7.58792,-3.88566,30.4633,7.2321
0.248474,0.00175436,15.1973,22.4851,0.0257348,15.1787,22.5422,0.235484,15.1886,22.4743,0.178084,15.1589,22.7738,0.244518
2.89209,0.23877,-9.00932,8.82451,-6.16911,-9.98719,9.36758,-6.47797,-9.18594,8.15529,-6.27277,-9.54912,8.97666,-6.25144
5.03056,0.896548,12.1587,13.1935,-5.09789,10.6543,13.556,-5.93426,10.8338,13.3065,-5.74555,10.8634,13.2084,-5.62699
2.49363,0.258728,3.45902,2.05558,-3.14044,2.74949,1.00784,-3.13336,3.81035,2.04587,-3.34349,3.45586,2.22525,-3.50483
1.82879,0.588564,-1.03233,5.85855,6.30673,0.424222,5.41215,6.59755,0.492639,5.44714,6.64665,0.430108,5.32293,6.59907
10.4604,0.606312,-13.1155,3.99415,6.38014,-11.5461,3.81427,6.72852,-13.8963,5.59129,5.98133,-13.3463,5.53263,5.7659
3.97374,0.0335119,14.734,27.5562,-1.38826,14.7869,27.2465,-1.03728,14.7776,27.9815,-1.17431,14.8438,27.5849,0.0649708
15.8379,0.631588,5.92648,26.4279,6.7175,4.79272,26.7443,7.25325,6.54899,24.2861,7.31651,6.94179,27.3297,7.49718
6.64701,0.0543165,14.5628,27.6565,-1.94496,14.6898,25.9733,-1.84132,14.7055,26.2719,-1.68865,14.6266,26.0409,-2.04322
19.5341,0.524229,-10.4712,0.845523,2.10486,-12.7687,1.04487,3.26822,-11.8567,0.896943,2.15842,-13.5159,0.91317,3.66138
21.8516,0.250322,-0.129686,17.9362,-6.53797,-2.06108,18.7286,-7.36307,-0.384903,19.4337,-7.22455,-2.2459,17.4716,-7.08212
2.75501,0.887169,-14.4243,25.7131,-0.0993404,-14.2756,27.0957,0.00263337,-14.2958,27.07,0.138833,-14.2434,27.0286,0.0472285
1.12308,0.0239967,-7.30552,3.80511,-5.65919,-6.96828,3.70155,-5.74221,-7.02625,4.03032,-5.78787,-7.27576,3.2577,-5.593
1.89893,0.0548739,9.27195,31.6287,-3.70232,10.5502,31.3389,-3.60523,10.6568,31.5293,-3.45565,8.50677,31.8634,-3.61092
3.44401,0.008196,12.2178,3.14554,-0.89088,12.4769,3.41341,-1.15304,13.4097,4.00561,-1.34245,11.9132,3.13382,-1.21433
5.32045,0.558078,-12.7728,28.921,6.18616,-12.6324,29.7442,6.62453,-13.4172,27.2855,7.03667,-12.2648,29.3186,6.6517
98.623,0.306219,-7.92499,12.3994,-6.81984,-5.67231,13.4323,-7.73584,-11.3565,12.7818,-5.1958,-7.54208,15.2917,-7.58309
1.72071,0.304789,-4.37735,9.59711,6.37117,-5.18996,8.28433,7.46155,-4.55089,9.89289,6.60242,-5.11041,8.29866,7.44149
13.5774,0.181643,-14.7078,29.9159,3.45303,-13.7515,29.5843,4.95551,-15.4834,30.119,1.5154,-15.3529,29.9765,1.96962
36.4337,0.505253,-4.17988,6.97385,-6.34358,-1.32066,5.71932,-6.66752,-4.69436,7.55864,-6.97456,-0.846291,6.58293,-6.87034


