
0.0894832,0.0629646,4.289,27.6104,-7.08167,4.36367,27.5586,-7.04355,4.36774,27.4585,-7.05956,4.42306,27.6041,-7.05271
7.09449,0.320135,6.70367,4.73034,-6.23581,6.32979,4.62575,-6.52508,6.33402,4.24313,-6.22294,9.85266,4.26192,-6.58992
20.7368,0.0348448,6.24453,24.3097,7.07356,11.2699,24.5389,6.72774,11.2326,24.463,6.76355,8.81254,24.2107,7.01156
23.7445,0.462079,-2.84272,23.4287,-7.2019,0.0126648,23.2207,-7.49803,-3.82714,22.9391,-7.78166,-3.05152,24.8474,-7.53962
15.4349,0.398557,-4.5022,6.4657,5.56996,-6.01905,5.64934,6.39735,-4.61488,7.84448,6.33488,-4.23824,7.51362,6.12506
53.9107,0.00957841,-17.3718,11.4334,-0.543203,-17.8115,11.0159,1.97956,-17.755,9.35759,1.19883,-17.7662,8.83481,1.12989
0.594814,0.041591,-2.46988,39.9094,3.67976,-2.61045,39.9068,3.73262,-2.27746,40.0593,3.5417,-2.25735,39.8962,3.86044
6.82047,0.254575,-6.04782,36.8549,4.69964,-5.21995,36.6253,4.9363,-6.81634,38.6651,4.77831,-6.33748,36.7309,4.9889
7.0244,0.407103,-3.39162,29.8455,-6.99676,-3.70571,31.1856,-7.09456,-4.16091,29.338,-7.48416,-2.01968,29.8036,-7.50424
3.2812,0.243597,11.8239,9.59659,-7.30712,11.7455,9.1237,-7.53635,12.8799,10.0344,-7.11165,11.6053,9.83749,-7.75008
1.98309,0.00528148,9.36289,13.0501,-7.99367,9.7604,12.1085,-7.97615,8.88627,12.8058,-8.01927,9.38477,13.3316,-7.9994
17.5342,0.23544,-10.607,36.9221,-5.78719,-10.6714,35.593,-6.1002,-9.65689,37.7049,-5.69318,-11.5014,37.1329,-6.3269
13.3323,0.013584,-8.36106,1.70916,4.60837,-9.48489,0.888981,4.02241,-10.7313,0.808424,4.02182,-10.8412,1.12008,4.26411
10.974,0.0706933,0.0554043,17.4748,-7.36518,3.3923,17.3033,-7.27165,3.45014,17.4587,-7.28121,-0.415908,17.5805,-7.30267
10.7293,0.136546,3.03231,34.2017,-7.3865,3.7025,32.8902,-7.2288,1.99871,32.453,-7.69943,2.33137,32.221,-7.58285
11.0107,0.834626,-12.8706,37.4493,2.48227,-13.9034,38.9019,2.87939,-13.4052,35.7255,3.5224,-11.2082,38.351,3.55575
2.28575,0.135117,-0.962612,3.34353,-4.97341,-0.160046,3.05545,-5.05066,-1.13857,3.48023,-5.19373,-0.0251291,2.7729,-4.89641
33.6987,0.174701,-0.99426,20.2818,-7.44847,-1.97517,18.8107,-7.48892,-3.59183,20.4675,-7.50682,-1.43674,21.3592,-7.66527
0.833985,0.0123102,-5.66929,18.237,7.5633,-5.40111,17.892,7.65846,-5.49328,17.7547,7.66775,-5.69978,17.962,7.61271
5.25599,0.0542508,-1.12104,3.5356,-5.22703,-2.32025,5.09945,-7.21946,-1.77806,4.13102,-6.11312,-2.37804,5.03787,-7.18591
4.97662,0.102615,-14.3487,26.6177,5.59364,-12.7844,26.6187,5.92553,-13.7253,25.9973,5.73337,-12.7405,26.7701,5.9203
27.8726,1.4012,11.5679,35.5785,-4.91966,15.0246,35.2782,-3.62884,15.7679,35.0149,-2.98801,14.2645,34.3178,-4.8023
93.6722,0.0750712,2.78209,1.50492,-3.52419,0.380976,2.60161,-4.89838,1.97514,2.95455,-6.34383,1.76922,3.03627,-6.44969
4.4665,0.112062,5.86173,35.6916,7.88175,4.31809,35.478,7.70268,4.08322,35.3322,7.69376,4.20355,35.118,7.79184
4.40783,2.52632,16.1169,20.9962,-3.48215,17.382,20.8918,-1.01864,17.3798,20.7712,-1.00248,17.3912,20.7028,-0.994408
0.157994,0.0199752,14.983,23.7904,-4.70871,15.0886,23.6981,-4.64629,15.0016,23.7339,-4.75095,15.0766,23.7807,-4.6165
0.175536,0.0085192,-11.4617,1.20513,-1.87435,-11.2513,1.31375,-1.97557,-11.3909,1.33468,-2.06157,-11.2502,1.3362,-2.01501
6.12357,0.60801,-5.62912,26.2836,5.91953,-6.09713,26.7276,6.52209,-4.10416,26.6785,6.92779,-5.83613,25.2696,6.34268
2.02061,0.118611,-4.78872,39.7273,3.34906,-5.28546,39.7665,3.14328,-4.51755,39.7684,3.88056,-4.27656,39.9325,3.62056
3.32953,0.0548923,-2.37074,20.8104,-7.62359,-2.11533,21.4845,-7.71887,-2.28229,21.9832,-7.84391,-2.00375,22.176,-7.7986
10.2934,0.0837086,-4.71737,31.2799,-6.7096,-4.79774,30.1106,-7.19474,-1.73022,31.8824,-7.72067,-3.62001,31.701,-7.06887
1.31864,0.331619,7.55134,17.4349,-7.2426,6.77929,17.5674,-7.0924,6.69276,17.5032,-7.14458,6.77756,17.7008,-7.04636
0.538192,0.701741,-11.4923,6.65932,-6.84321,-11.2532,5.92587,-6.66618,-11.3432,5.93851,-6.66619,-11.3878,5.94371,-6.68528
10.3945,0.344901,-2.16844,7.27598,-6.81968,-1.68472,8.42015,-7.15542,-3.1435,6.97971,-7.15017,-1.00785,6.56619,-7.19955
11.8404,0.00677792,13.3003,32.2943,6.98305,11.8681,32.2766,7.25528,12.8503,30.8262,6.94821,13.2534,31.4614,6.91947
5.60663,0.468648,14.0914,15.8085,5.54249,14.7439,16.8943,5.81765,16.3447,16.0759,4.78635,16.4257,15.9208,4.72219
4.30228,0.434901,-1.17735,11.9548,6.41466,-1.38798,13.1208,7.15466,-1.44085,11.2287,6.99925,-0.327942,11.8952,6.42266
0.344722,0.0210361,5.99492,40.4143,3.58132,6.46264,40.4411,4.17346,6.25769,40.4216,4.02333,6.33202,40.4252,3.82484
18.73,0.00492477,-10.9963,1.68368,4.88571,-13.6232,1.06145,4.08643,-11.6739,0.619328,3.84081,-13.6816,0.563258,3.62202
41.1551,0.18279,12.1865,14.1366,-7.32315,12.7366,16.6554,-6.94838,14.6391,13.953,-6.20236,10.7783,15.6114,-7.67421
306.93,0.262425,-5.24329,0.938782,2.16909,-13.5636,0.64015,-0.771225,-11.0613,0.792435,-0.559648,-13.7042,0.165646,1.40258
2.46544,0.0154444,1.4036,25.0782,-6.64993,1.0367,24.2758,-7.14129,1.14202,23.7698,-7.35872,0.919033,23.7987,-7.39872
30.4417,0.504733,16.9212,8.0409,-1.24834,17.3147,6.5799,-2.25493,17.6712,5.82704,-0.333988,17.4127,9.25644,-1.11074
5.1061,0.0964208,0.84004,26.8683,-7.57316,1.38097,28.9987,-7.45169,1.06683,28.9532,-7.52962,0.833993,27.923,-7.62941
2.19116,1.2025,-5.65056,5.17885,-6.95578,-4.38962,5.24932,-7.3275,-4.37847,5.32742,-7.35792,-4.3976,5.17526,-7.3237
8.03271,0.118887,-3.02626,37.0956,5.96458,0.136609,37.4923,7.1189,0.15941,37.7788,7.03896,-0.729367,37.3589,6.84652
54.6959,0.418314,4.28598,3.79342,4.55849,6.97677,4.90194,5.20187,4.01389,6.36483,5.87474,6.83777,3.42759,4.71888
8.43618,0.298199,-1.26967,38.2581,-2.00875,-1.91479,38.9132,-1.86902,-0.851538,38.4022,-1.99568,-1.30797,38.2118,-4.07163
168.885,0.467741,10.9159,40.6852,2.51136,13.6537,40.3087,-1.52284,14.4327,41.1424,3.4535,16.1463,41.2793,1.45863
0.0188051,0.00878392,4.89477,10.3107,-7.66205,4.92413,10.4226,-7.68576,4.86741,10.3632,-7.67342,4.87598,10.4244,-7.68071
1.10515,0.0923953,-3.9215,23.3669,-7.64832,-5.12199,23.5194,-7.4817,-4.87301,23.4236,-7.56803,-5.17947,23.5855,-7.44095
11.9091,0.446207,-15.5743,31.1797,-5.96343,-16.1477,30.9393,-6.2037,-14.8141,30.2294,-6.55903,-14.3922,32.8191,-7.10743
0.755204,0.258515,15.7807,15.1539,-5.30734,15.9443,15.2645,-5.04911,15.9417,15.358,-5.07688,16.0775,15.0579,-4.97255
6.39587,0.342852,-5.75054,23.3956,6.15156,-5.92982,23.6859,6.40101,-5.83708,22.3801,6.67061,-3.85758,23.8625,7.2951
4.05193,0.102462,-18.03,18.6571,0.102086,-17.968,18.3101,-0.991137,-17.9718,17.5754,1.09677,-17.9488,18.0275,0.916108
4.18214,0.116466,7.38747,4.35946,4.93421,7.5886,5.74027,5.27041,7.54697,6.16377,5.31332,7.69322,5.94605,5.31944
9.3936,0.116683,-0.963934,29.5826,-7.67201,0.750583,29.4502,-7.42101,0.732918,29.6912,-7.46547,-1.92051,29.5106,-7.60077
4.09982,0.910684,-16.9704,31.1518,-3.26242,-17.2424,30.222,-3.35521,-17.288,30.0541,-2.90133,-17.2522,30.0887,-2.99684
2.34757,0.0800298,-16.2459,39.8113,-2.0476,-16.3407,39.2416,-0.482425,-16.0599,39.6471,-0.377348,-16.5043,39.2385,-1.84354
2.06788,0.137996,-0.0778711,3.063,-5.09829,1.30998,2.76073,-5.76315,1.25269,2.70354,-5.58681,0.984458,2.69899,-5.381
0.517658,0.0162976,3.09116,32.4494,-7.3527,3.14121,33.1435,-7.36361,3.23449,33.2075,-7.34472,3.42493,32.2145,-7.24166
164.035,1.33426,-17.232,27.9938,-3.47488,-17.7069,22.8749,-2.40672,-17.8673,23.3511,-1.3112,-17.4964,26.2931,0.662542
2.08508,0.175793,-5.88146,24.3623,6.62863,-6.12113,24.0705,6.59894,-5.96592,23.739,6.43204,-5.82427,25.2017,6.3755
8.88885,0.761984,2.1398,39.6678,0.536711,6.00075,40.1043,1.90655,4.72059,40.0097,0.929333,6.3468,40.1492,2.21394
23.2521,0.271025,16.5733,20.3036,-2.71436,15.2769,20.7508,-5.26237,15.3074,20.6895,-5.21476,15.4183,21.2788,-5.03513
100.633,0.539223,0.612715,5.64022,5.0345,2.09131,2.5874,4.70096,3.69902,5.39824,5.49373,0.324301,3.03736,4.84901
4.47704,0.125337,2.40904,28.2993,-7.24365,1.82366,28.693,-7.43493,2.24253,29.1562,-7.28025,2.29757,26.2799,-6.93414
14.3126,0.682874,16.4472,12.2893,1.48378,17.4516,13.8556,0.267141,17.3925,13.5459,0.509863,16.864,12.6504,2.51228
0.715016,0.393648,-7.95963,37.7015,-6.04703,-7.38479,37.8187,-5.79423,-7.33817,37.6699,-6.0282,-7.39215,37.7553,-5.86299
1.84797,0.0977538,-7.34937,4.99383,6.88031,-8.02178,4.48566,7.15841,-7.44038,5.40955,7.10636,-7.0719,4.85753,6.84856
11.7407,0.0349562,-9.86096,6.18637,7.65626,-9.27899,6.9214,7.23105,-8.28839,5.75113,7.50534,-8.29444,6.86794,7.01578
28.525,0.421278,17.4743,37.3489,5.41541,16.3805,38.7673,6.05311,14.7023,37.8948,6.79229,17.205,38.8728,5.58088
3.13143,0.389589,-15.2699,18.9474,-4.32548,-14.4823,18.2411,-4.95433,-14.4358,18.2354,-4.96073,-14.3357,18.4355,-4.93241
3.53945,0.0623742,6.72859,12.214,6.25896,6.24624,14.0709,7.0947,6.95375,13.2458,6.85695,6.59061,13.5884,6.94127
22.0271,0.0827753,-6.22531,23.8211,-7.07098,-4.8144,24.6816,-7.88507,-3.70608,23.8319,-7.63322,-6.27547,24.9386,-7.7551
3.4276,0.143198,-2.98399,25.8599,6.25498,-3.31177,24.5061,6.74314,-2.39861,26.2329,6.52681,-3.28781,23.8724,6.96749
0.293583,0.00599653,10.7197,27.694,-6.77614,11.156,27.7371,-6.85606,10.8139,27.8305,-6.77918,11.0532,27.5316,-6.8679
4.06036,0.338876,8.16911,23.7679,-6.3539,8.96621,24.9618,-6.64174,7.76085,23.3833,-6.75932,8.44686,23.1137,-6.57011
2.39132,0.0380494,6.35425,3.2002,-5.43048,7.06538,2.91033,-5.39663,5.97944,4.01969,-6.18478,6.10754,3.5494,-5.75909
2.1325,0.0582313,16.7616,10.7318,3.25088,16.3491,11.6511,3.34563,16.9346,11.0455,2.9984,16.9343,9.72052,3.20415
4.91638,0.0330485,8.46326,33.9699,-6.00153,7.9431,33.5157,-5.89639,8.61758,32.9667,-5.74712,7.78874,32.9704,-5.78801
4.45346,2.11855,-7.01551,30.8694,-7.45894,-9.31131,31.0305,-7.02122,-9.29543,31.1959,-7.04248,-9.3095,31.1173,-7.00722
0.803435,0.0855158,15.8765,38.8717,6.27221,15.8097,39.2556,6.23812,15.683,39.3202,6.30547,15.9766,39.4078,6.16705
4.03139,0.135639,6.47597,30.814,7.53474,6.4887,30.1293,7.34452,6.68108,32.3641,7.53207,6.48984,32.3592,7.52243
3.74361,0.0611838,15.8989,16.4472,-4.85835,15.3233,16.8617,-5.32952,16.7124,16.3638,-3.962,16.6135,16.5452,-4.05321
30.0585,2.07638,14.2628,20.9643,-6.10903,10.0649,20.831,-7.43301,10.2454,20.0394,-7.04605,9.73964,19.5117,-7.44646
15.822,0.402325,-4.20877,27.0989,6.90916,0.368779,27.4313,7.295,1.77446,27.5026,7.2931,1.17912,27.2826,7.32116
31.5938,0.0108224,7.65016,29.9103,7.26583,5.03588,29.3741,7.28844,8.85238,30.2957,7.24781,7.40143,32.0839,7.38973
38.8964,1.44248,-11.2297,25.6311,-6.83079,-13.3768,25.0206,-5.51808,-13.5561,26.0447,-5.8189,-14.598,24.9934,-5.71577
2.29772,0.0231143,-11.3465,4.45525,6.54856,-10.3458,3.78394,6.63413,-9.94913,3.89513,6.91283,-11.4242,4.93216,6.77207
1.93776,0.0485303,-16.4018,34.6961,-3.61044,-16.4522,34.3955,-3.7799,-16.4992,34.3713,-3.18504,-16.415,35.0927,-3.8206
1.33053,0.856271,-8.99772,29.4122,-7.24622,-8.09316,29.2607,-7.32569,-8.0931,29.351,-7.30693,-8.08262,29.4243,-7.32866
13.1569,1.70627,14.3065,7.00436,-5.98292,12.2575,7.2957,-6.57596,12.0547,7.0106,-6.80007,12.1598,7.55889,-7.14715
41.9635,0.02503,6.62211,26.0968,6.83504,8.07106,24.5592,7.0965,9.55852,26.8997,6.81365,10.5729,26.5479,6.90768
5.07231,0.170945,17.6341,10.6487,1.45127,17.2895,12.1552,1.13571,17.3891,11.4529,1.22388,16.7285,11.9895,1.4741
1.97039,0.0975835,3.47402,2.04428,4.5445,2.19395,2.10498,4.49838,2.28577,2.03441,4.48535,2.15384,2.18348,4.52122
6.72502,0.0876615,16.0165,8.32677,3.21955,14.1923,8.83985,4.93132,14.2546,8.33634,4.86382,14.5288,8.5444,4.59066
10.1092,0.558288,6.38908,32.2398,-5.61788,5.76587,31.1509,-6.50466,7.69501,32.5755,-5.48067,6.37112,33.2003,-6.51501
25.3347,0.834874,-15.8527,5.86193,4.60028,-17.2191,3.26926,1.46307,-16.1534,2.47395,3.48104,-16.3472,2.49395,3.15164
6.14369,0.308966,-4.67825,3.77717,-4.71383,-2.11232,3.5411,-5.64232,-4.99949,3.17785,-4.54526,-5.10551,3.71221,-4.94946
7.70573,0.00335399,-15.0293,6.0356,5.53081,-15.828,6.5284,4.70552,-15.2756,6.98577,5.40682,-15.7995,6.06314,4.6639
6.24202,0.29429,11.0124,29.7541,7.21458,13.1694,29.7217,6.83076,12.9416,29.2939,6.82606,13.1992,29.6306,6.80465
7.79819,0.152948,14.3363,19.0053,6.21522,11.3167,17.8387,6.42286,12.0511,17.9871,6.37084,11.0979,17.6351,6.482
12.1366,0.0878139,11.0628,15.4696,6.17659,13.1022,15.9308,5.923,13.4965,15.9399,5.80985,9.31285,15.0422,6.10744
1.84425,0.0975807,16.0775,8.44461,3.16064,17.0184,8.4305,2.44313,16.6971,8.35156,2.71309,17.1304,8.52279,2.36499
3.21067,0.368716,-13.4074,34.4898,3.96871,-12.7901,33.4719,5.3308,-13.6498,33.264,4.91518,-13.3958,33.0543,5.1758
3.56618,0.205905,3.33638,33.2858,7.92938,3.70298,35.052,7.64076,4.41053,34.0718,7.97548,3.61438,34.9725,7.65909
4.29954,0.18863,-17.0401,10.3386,-1.13361,-17.2933,10.239,-0.546252,-17.1102,10.1614,-1.42751,-17.4298,10.4141,-0.342277
3.71162,0.0289363,0.482909,6.88828,5.72981,-1.27105,6.64119,5.67329,-1.55514,6.63928,5.66403,-1.55646,6.71983,5.67374
4.85589,0.174339,-6.68731,7.74286,6.35462,-4.9104,7.15007,6.23996,-5.17784,7.42213,6.31792,-6.10739,7.12619,6.35883
0.418874,0.0248618,4.89174,0.332739,-0.291889,4.47934,0.375871,-0.715385,4.7483,0.345759,-0.55644,4.47565,0.388189,-0.814726
3.94896,0.100845,13.1196,14.1889,5.86467,13.1175,13.7598,6.01911,13.6991,14.3236,5.74763,12.3095,14.5838,6.22453
2.42005,0.00198541,-9.44655,30.5907,5.91196,-8.45686,31.763,6.34673,-9.01086,31.3685,6.18607,-8.22028,31.6901,6.33798
0.315698,0.167149,-17.5787,26.2761,-0.0996225,-17.3957,26.3985,-0.420565,-17.4494,26.3958,-0.476689,-17.4299,26.4128,-0.307587
64.1548,0.155764,-3.68341,39.6875,3.77541,-1.53023,39.5343,4.44855,1.5231,39.5875,4.14607,1.03753,39.5977,3.72186
26.9608,0.716799,6.07323,36.1081,-5.7147,7.85197,36.7579,-5.74445,8.82886,35.8513,-5.353,4.92866,33.7932,-6.99831
255.916,2.01826,13.321,3.0209,-5.37897,11.7791,0.834391,-0.55679,9.59718,0.96899,-1.36731,13.7293,0.742444,-0.422745
24.9994,0.372635,2.92733,6.5155,-7.2458,6.02808,5.86417,-7.33504,3.59277,7.29224,-7.27428,6.17789,5.2014,-7.13326
36.8232,0.131714,12.9434,30.0706,6.89378,14.1811,30.5098,6.62006,14.1044,33.0791,6.8782,15.0472,31.9215,6.42886
1.92477,0.398367,3.03746,38.6221,7.13011,3.75953,37.55,7.15952,3.54938,37.5966,7.18592,3.74318,37.73,7.04315
0.148379,0.00497103,12.7743,14.9038,-7.22546,12.8575,14.7783,-7.20742,12.8309,14.4839,-7.18611,12.8759,14.4837,-7.17943
9.37001,0.365585,-4.86945,36.7073,4.84288,-3.10547,36.9707,6.01071,-5.33982,34.9183,5.64029,-5.20886,35.6231,5.46686
6.92763,0.537515,-10.4552,24.0564,-6.98973,-12.7214,24.427,-6.4334,-12.5303,24.1948,-6.5135,-13.3254,24.4846,-6.11871
0.807044,0.0330861,-11.2016,1.15178,4.27651,-10.9204,1.14502,4.29351,-11.4095,1.1662,4.35135,-11.5025,0.87395,4.08714
10.2715,0.225922,11.0569,6.91265,-6.74923,10.3725,9.47976,-7.5262,11.9605,6.8606,-6.83624,10.6942,8.21249,-7.25947
22.1324,0.625893,9.33339,14.1353,5.71452,8.5963,16.5537,6.72272,8.82356,13.4953,6.27962,12.5901,14.1032,6.19625
8.85922,0.344038,-9.91958,8.49902,-6.16383,-10.3927,9.72858,-6.42483,-11.0262,8.15234,-6.58807,-9.2676,7.90043,-6.53206
0.748526,0.00728635,0.534414,34.459,7.73141,0.314761,33.8889,7.76147,0.132041,33.6884,7.76276,0.0339309,33.7512,7.74485
15.6384,0.143787,-13.6793,31.0515,-6.29386,-13.9173,33.9855,-6.9938,-14.8124,30.6859,-6.53798,-13.2065,31.1891,-6.3983
3.68789,0.265914,-0.248457,38.0149,-4.86553,0.912556,38.3633,-5.04162,-0.599302,37.9594,-6.09265,1.27534,38.5337,-4.99448
46.6466,0.254592,6.34932,40.1412,2.40475,8.83667,40.4472,3.5263,11.5884,40.7203,0.754488,8.52747,40.5662,1.06867
2.83984,0.103661,17.7339,18.4499,-0.134275,17.3207,18.7119,-1.15495,17.3232,18.5328,-1.10417,17.2253,18.6001,-1.29672
13.3949,0.0770007,14.7701,4.23885,3.41699,15.4833,4.48458,3.04685,12.6035,4.36303,4.16084,12.7086,3.66691,4.15804
18.8606,0.838368,-12.956,8.13051,-5.55586,-10.6896,7.70773,-6.52612,-9.78178,7.71557,-6.61399,-11.2502,8.2188,-6.61502
3.63023,0.0228129,-4.72222,19.7344,6.95366,-3.39641,19.472,7.13384,-4.65665,19.2486,7.16925,-3.56025,19.6676,7.05131
24.9258,0.344924,-11.7838,23.6697,6.09004,-13.9444,22.4551,6.08035,-14.3077,23.5123,5.86764,-13.7969,24.1579,5.70963
72.4531,0.104424,13.0281,11.7455,5.69659,14.5568,13.1646,5.52886,10.8803,11.4876,5.90136,14.8711,9.55181,5.00887
4.61073,0.909679,-4.85136,20.6341,-7.48058,-6.55315,20.8337,-7.55101,-6.48345,20.7432,-7.48956,-6.56133,20.7551,-7.54384
9.49271,0.306466,6.15278,9.21657,-7.49099,2.71664,9.39372,-6.89162,3.61566,9.40776,-7.13092,3.45064,9.1708,-7.08892
5.84567,0.480663,-3.92516,17.87,6.60767,-4.28642,18.8963,7.116,-4.09244,17.4657,7.23397,-3.21572,17.1535,6.96305
3.73051,0.440135,15.2566,23.1076,-4.30568,16.5837,23.1898,-2.56255,16.4761,23.1106,-2.76052,16.6225,23.2548,-2.50539
7.07175,0.639139,-6.49789,34.8616,5.1743,-5.07973,34.7037,5.73811,-6.92913,36.3873,5.46209,-6.72505,34.5929,5.93891
2.82134,0.392591,11.1845,8.01565,5.15928,12.4448,8.17169,5.14496,12.2932,8.33765,5.11282,12.4258,8.32737,5.07655
18.2028,0.40162,12.7512,30.5718,-5.06551,14.8035,32.9042,-4.76785,12.1794,30.4219,-5.64922,12.8786,29.7995,-5.49842
5.68235,0.509681,11.6012,12.5987,-7.05817,11.0185,12.8712,-7.71136,12.772,13.6494,-7.18081,12.8342,11.1303,-7.41123
38.6056,0.0317392,-13.6131,39.12,-4.6386,-10.9588,39.0987,-3.81853,-11.1795,38.3732,-5.00683,-11.2745,38.7611,-4.43513
0.337749,0.0684415,7.60909,34.4337,7.99533,7.74493,34.2289,7.9827,7.93319,34.5104,7.99962,7.93073,34.5742,8.01552
2.21164,0.0233431,-9.47453,5.37229,7.80131,-8.41028,5.24311,7.5418,-8.36456,5.17151,7.52541,-8.40988,5.38153,7.55052
7.20048,0.661592,-3.27461,23.8032,6.98851,-2.22422,22.7569,7.71154,-3.37276,21.3341,7.53686,-3.07986,21.1381,7.5571
4.37036,0.285683,5.12631,16.2997,6.72177,5.15273,16.0664,6.98708,4.9433,16.8403,7.15284,6.45543,16.4597,6.60362
1.2909,0.089668,-17.6212,23.3321,1.2017,-17.7926,22.8529,0.945509,-17.7951,23.0882,0.634293,-17.7119,23.1227,1.45528
13.6049,0.20798,13.4849,22.8278,-6.0087,11.4185,22.7561,-6.8482,15.2374,23.0197,-4.37857,11.9021,22.6559,-6.7352
11.0337,0.117633,8.45603,18.2836,6.65615,10.5404,17.8964,6.50665,8.5902,19.2658,6.88933,11.1852,17.9961,6.4521
3.75532,0.181319,5.18373,39.9798,2.47345,5.91486,40.1521,2.52582,6.12382,40.171,2.67414,5.24865,40.3315,3.4907
4.29556,0.602432,-8.40931,23.6815,-7.41578,-6.81664,23.6503,-7.40514,-6.73218,23.6463,-7.36946,-6.96475,23.4461,-7.44193
3.70593,0.0658349,6.15712,38.2216,7.56936,8.15525,38.1676,7.6561,8.38157,38.3122,7.6271,8.10037,38.2369,7.63083
53.7451,0.57232,-14.8487,36.6078,-5.4609,-12.2558,38.0992,-5.7976,-15.5199,35.6829,-6.35059,-11.604,36.3613,-6.52341
6.10429,0.558055,-3.7403,13.6076,6.11561,-2.68619,13.8322,6.73575,-4.25744,11.906,6.35801,-4.38153,14.1455,6.77884
8.69859,0.280649,7.50916,38.9186,-4.23668,6.93845,38.9365,-4.75027,7.83662,39.5707,-3.81045,8.66368,38.8222,-4.66542
12.3661,0.00907593,-10.2885,19.8972,6.46246,-12.992,19.3886,5.89923,-8.57447,19.4993,6.47635,-11.5714,19.8186,6.26374
9.53651,0.051328,-16.9312,32.3111,-0.341042,-16.6357,34.319,-0.801867,-16.7684,33.3885,-1.05775,-16.6415,34.1353,-0.368051
15.318,0.242174,4.10737,37.8845,6.81917,4.95856,38.166,7.26707,3.60854,35.0374,7.64067,5.95822,38.3619,7.52122
0.529315,0.0384699,-11.9796,13.169,8.19747,-12.4014,13.1605,8.20212,-12.4059,13.0163,8.18005,-12.3017,13.2322,8.22074
12.0319,0.0277711,-14.7241,25.868,5.48188,-14.8616,23.0259,5.67658,-15.0514,23.1507,5.53979,-15.2739,23.5708,5.35513
3.83738,0.612485,1.89062,14.311,6.42632,1.37733,14.8428,7.04485,3.11444,14.3872,6.79804,3.16902,14.3212,6.803
6.31745,0.0972614,-14.4964,16.3823,5.89202,-14.3488,15.131,6.35065,-14.9677,14.937,6.28474,-14.3152,16.9855,5.57103
15.563,0.49898,17.0824,36.2928,0.0759882,15.3569,37.2481,-2.47964,15.3858,37.18,-2.47836,15.51,36.2829,-3.31733
8.8752,0.406631,-1.70866,31.6868,7.04552,-0.535403,32.5009,7.63264,-1.45413,30.6842,7.04919,-2.61542,31.4058,7.51437
60.1637,0.792842,-0.757665,30.2229,6.78087,0.345952,27.9658,7.44632,0.971458,32.0145,7.78236,4.09664,30.915,7.82041
71.8192,0.129688,-2.10053,34.5683,-7.54633,1.8035,36.6843,-7.10816,0.404573,36.5639,-7.26137,1.78168,35.6967,-7.18884
5.03749,0.116498,14.0565,14.6258,5.4826,15.5806,15.0013,5.23631,14.5038,13.5176,5.52374,13.8732,14.4718,5.64887
3.64927,0.14088,-1.60384,6.6373,5.65943,-3.2142,6.62919,5.64291,-3.46752,6.47931,5.5529,-3.48566,6.3368,5.4904
19.3235,3.30795,-13.5616,29.9484,-6.8832,-8.85948,29.949,-7.47236,-9.04485,29.3279,-7.25358,-9.02735,29.4894,-7.27198
24.8746,0.58592,-12.4514,26.6948,5.93912,-7.01593,26.6505,6.97221,-5.93202,27.9159,7.06328,-6.92223,27.4259,6.85518
33.4275,0.791428,-9.94084,17.999,6.20773,-8.08084,16.4557,7.42175,-11.2671,18.8987,6.83629,-8.3755,19.3624,6.49373
9.56957,0.313421,-3.5716,34.475,-7.27899,-3.5029,32.0738,-7.47395,-3.47074,33.1238,-7.52251,-2.52925,34.5289,-7.53505
7.77176,0.0602994,-7.12417,34.0421,6.18637,-5.94011,33.7589,6.34376,-6.39288,34.3246,6.10402,-6.42579,33.2604,6.46135
42.9821,1.12926,15.675,4.91813,2.9191,15.3648,7.67729,3.88238,16.2637,7.99398,3.07882,12.8044,4.78637,4.23575
9.34175,0.48437,15.2195,18.9423,-4.22055,16.6986,18.7609,-2.18712,15.6084,19.6037,-4.73063,15.3094,17.9919,-4.89589
9.64435,0.246109,-5.64472,7.01044,-7.04975,-2.69909,6.47072,-7.20272,-1.9659,6.56092,-7.10084,-1.92146,6.63546,-7.07157
4.54022,0.0140797,17.8061,11.5574,-0.869436,17.4304,9.28101,-1.20781,17.6095,10.3078,-1.17161,17.4352,9.32554,-1.10017
1.30796,0.134341,12.4222,9.84127,6.14719,12.2822,10.6709,6.21261,12.452,10.5922,6.16859,12.1969,10.6686,6.24091
0.610933,0.205959,-16.0561,29.8769,-6.06655,-16.5141,29.8715,-5.7731,-16.4963,29.819,-5.78446,-16.3992,29.6725,-5.88434
1.30049,0.0282831,-17.4121,7.74285,3.24489,-17.5309,7.03743,2.80005,-17.6176,7.51228,2.79816,-17.4982,7.01182,2.85826
17.6364,0.578347,4.79722,23.3748,6.68383,3.34386,23.4618,7.24961,6.62901,21.4002,7.28068,5.8569,24.507,7.26969
10.8951,0.0999232,-17.2816,29.9391,-0.570454,-17.2447,29.6127,0.6896,-17.3417,28.1626,1.06055,-17.2603,28.7913,1.18913
4.80073,0.0150903,-17.0863,13.1595,-2.31957,-17.3278,13.2389,-1.65617,-17.6242,13.7698,-0.954378,-17.4876,13.1491,-1.22558
4.08421,0.0492953,-10.3684,23.972,-6.99216,-9.75477,24.0107,-7.18881,-8.554,23.6166,-7.4176,-8.43291,23.8421,-7.47251
7.61826,1.53918,-7.51588,17.8123,-6.91637,-10.8491,17.8171,-6.31108,-10.6277,18.0353,-6.40539,-10.747,17.8854,-6.32475
49.0538,0.0707086,-9.23907,12.3239,6.86222,-10.3112,10.4649,7.33383,-9.883,9.21482,7.08542,-8.84231,9.04045,6.52188
15.4031,1.16524,9.44544,11.7538,6.19682,10.8667,13.3032,6.38665,9.71851,13.2928,6.28799,9.12107,13.2159,6.31297
0,0.0140208,10.6055,36.8979,7.33354,10.6866,36.866,7.36203,10.6175,36.9139,7.35875,10.6102,36.8633,7.33763
19.2385,0.774853,10.0955,32.2338,-5.67169,11.9363,33.7806,-5.70546,12.6932,33.8065,-5.52028,7.7314,32.4885,-5.44048
3.25139,0.721704,-0.843138,26.419,7.46467,-2.40769,26.0855,6.49126,-2.34084,26.2347,6.563,-2.40496,26.0156,6.50864
16.7672,0.0670792,8.04734,32.9291,7.59249,9.54253,33.6926,7.82462,7.1425,32.209,7.46777,11.4838,33.2968,7.49364
22.4303,0.283162,8.76802,7.02236,-7.10963,12.0156,6.02196,-6.7132,11.1119,6.58739,-6.92,8.78904,5.41356,-7.3042
34.0633,0.183707,-10.2022,3.30116,5.92643,-8.14645,2.61975,5.254,-6.36282,3.31664,6.0067,-7.06177,3.67023,6.48504
7.20898,0.275504,6.67986,40.4322,-1.27328,7.49668,39.7473,-3.62245,7.43154,39.7545,-3.57154,7.42845,39.7385,-3.65826
5.067,0.427613,-13.9063,29.7472,4.79897,-14.3145,29.1919,5.41724,-14.3806,30.7181,5.04191,-12.8522,29.9407,5.0974
5.43723,0.120943,1.72953,25.4894,-6.50881,1.10405,24.8323,-6.84826,1.11116,25.3307,-6.73456,2.89876,25.4632,-6.51628
6.9841,0.855292,-0.863261,38.3407,-2.12051,2.04529,39.5251,-2.48698,1.67042,39.3553,-1.70041,1.95549,39.5984,-1.62954
0,0.0270191,12.3721,25.9457,-6.8977,12.3779,25.8931,-6.8998,12.3591,25.9389,-6.8702,12.3514,25.9025,-6.89448
9.82981,0.521252,9.24842,10.6831,-7.10939,8.0499,10.2871,-7.73372,9.73876,10.1609,-7.40452,10.117,11.9455,-7.95718
1.16374,0.0105708,-6.40804,8.61731,-6.94735,-7.01692,8.65834,-6.91482,-7.24336,8.88702,-6.89393,-7.29467,8.8189,-6.89635
6.7103,0.070122,-14.9146,1.70325,4.24519,-15.1619,3.83454,4.90418,-15.582,3.79517,4.46899,-14.943,3.16201,4.86963
11.8129,0.499676,-6.21145,25.7614,-7.59482,-6.60307,26.2164,-8.19507,-3.22835,25.9733,-7.84893,-7.02323,24.7008,-8.04173
1.23102,0.0427707,-16.5776,1.43445,1.86637,-16.2559,1.61264,2.63906,-16.3094,1.47963,2.39693,-15.9663,1.31371,3.01419
0.00353444,0.0146637,11.3292,33.7482,-5.87893,11.3683,33.8093,-5.8799,11.4128,33.8012,-5.8749,11.3918,33.7464,-5.85944
0,0.0178073,4.33408,23.162,-6.76576,4.33583,23.0528,-6.79409,4.34899,23.2067,-6.81225,4.3572,23.1615,-6.73659
3.63705,0.014288,12.4644,8.3347,5.0491,14.1975,8.71434,4.87483,14.149,8.64237,4.877,14.1054,8.41819,4.8709
0.339211,0.00276927,14.9874,24.4551,6.19978,14.8788,24.2445,6.291,15.0719,24.2571,6.16802,14.8387,24.3102,6.30798
0.00911188,0.0169762,-3.98944,24.4653,-7.88625,-3.99954,24.4042,-7.87413,-4.0246,24.412,-7.88029,-3.94528,24.4689,-7.90376
2.83616,0.0988505,-10.9802,11.3651,7.73566,-10.6267,10.8771,7.59658,-11.3349,11.3616,7.99652,-10.7096,12.3518,7.92444
6.6695,0.551152,1.24907,24.1505,6.83744,2.44499,21.966,7.49598,0.923647,24.3217,7.40997,2.22028,25.0553,7.20273
0.0453092,0.0487312,0.86651,10.3528,-7.47422,0.916236,10.5053,-7.49478,0.942049,10.3548,-7.44174,0.943648,10.4055,-7.442
8.40305,0.294781,-16.0683,29.7902,-6.06466,-13.7486,29.9684,-6.85204,-15.6405,30.6103,-6.24617,-14.6522,30.04,-6.62805
0.430691,0.0341172,-15.7326,23.5356,5.04847,-16.139,23.2557,4.72382,-16.1181,23.0964,4.78291,-16.122,23.3172,4.7281
1.27999,0.116794,0.989077,10.7136,7.06262,0.674129,9.79602,7.06144,0.666905,9.52354,7.02135,0.962022,11.1379,6.99486
2.10791,0.40685,-4.72349,34.4331,-6.97428,-3.88195,34.3569,-7.19284,-3.83065,34.2749,-7.21838,-3.91478,34.5093,-7.20658
8.08247,0.30984,6.93218,19.7782,-6.86274,9.61044,19.1038,-7.42283,9.80198,19.092,-7.44629,9.1608,19.7701,-7.47383
1.92142,0.0143203,13.6026,25.0577,6.53049,13.3596,25.3001,6.55563,13.4789,24.2869,6.54941,13.1521,24.915,6.59829
0.959493,0.0619819,5.94477,36.8081,-5.98764,5.41417,36.7843,-6.3371,5.33557,36.9258,-6.37718,5.51948,37.1891,-6.27801
3.69927,0.0783948,5.44222,12.1042,7.09964,3.31249,11.8552,6.85324,3.30586,11.9412,6.82404,3.95543,11.8587,6.97614
36.212,0.0982134,2.75478,18.9693,7.57621,1.82037,16.5835,7.61803,2.80351,17.2968,7.63759,2.00893,16.5098,7.61712
3.84792,0.340042,15.9302,10.4739,-4.52594,16.1488,10.7509,-4.85301,16.7723,10.7662,-3.54931,16.1463,9.98783,-4.86892
8.86207,0.119834,-5.40616,3.78482,-5.2888,-4.89611,3.80059,-5.04683,-5.72058,4.24053,-6.45995,-5.32458,4.25997,-6.67254
26.8461,0.574611,0.710179,6.58625,-7.35167,-2.12402,10.0083,-7.21852,-2.08351,9.51589,-7.12947,0.10995,6.00438,-7.55587
18.4385,0.341431,16.3925,7.83257,-3.65584,16.435,6.95,-4.30212,17.2345,7.38316,-2.23208,16.8211,9.51676,-3.93238
18.2402,0.491534,-2.42498,5.31055,5.4986,-2.85242,3.20295,4.97252,-4.22355,5.4744,5.4897,-3.87359,6.39869,5.45216
1.87388,0.269338,8.79315,5.9589,5.2229,8.57566,3.78509,4.49089,8.43108,3.8297,4.51162,8.57848,4.25447,4.71318
3.10026,0.596563,13.116,38.9346,-3.6196,13.0737,37.0951,-3.79274,12.9516,37.3348,-3.82622,12.8802,37.3595,-3.93251
0.0646493,0.00965248,-2.31615,16.0307,-7.86507,-2.39772,16.1877,-7.8693,-2.49143,16.1238,-7.88851,-2.4871,16.2033,-7.87959
3.09406,0.0374713,1.29982,33.7622,-7.74197,1.32443,32.6359,-7.76558,2.06567,33.6374,-7.62599,1.87507,33.5095,-7.663
0.336144,0.140886,10.7201,4.91072,-7.11507,10.3813,4.90262,-7.18051,10.4195,5.01531,-7.21729,10.343,4.83386,-7.15447
0.0593373,0.0117824,6.17706,34.1349,7.97077,6.20341,34.2974,8.00721,6.15653,34.2975,8.00159,6.09937,34.14,7.97407
7.44169,0.266987,2.77782,23.6062,7.06778,2.21648,23.5791,7.27145,3.95606,21.777,7.50782,3.54633,24.7146,7.40633
4.39289,0.350467,-14.9667,17.1376,5.09745,-15.4678,17.4067,5.19556,-15.6134,18.4511,5.43553,-15.5691,16.6848,5.30154
34.1551,0.594188,11.698,36.8733,7.26037,8.75387,35.3702,7.96335,8.24761,35.7742,7.8627,8.2669,37.0465,7.63794
4.29707,0.276174,11.7392,26.3927,6.07124,11.6687,25.4685,6.32937,12.9268,26.5226,6.382,11.6055,26.7989,6.3511
1.78965,0.959439,2.38839,39.2785,-3.77295,0.989462,38.7899,-3.81305,0.987119,38.7788,-3.85526,1.00791,38.8345,-3.73503
4.17995,0.373103,-11.4459,34.4424,-6.55233,-9.39924,34.221,-6.50913,-9.48674,34.3733,-6.49296,-9.3994,34.2938,-6.49139
30.5522,0.345634,-10.3538,10.2877,-6.21532,-9.70238,11.9337,-6.93582,-7.99334,10.4823,-6.83176,-11.3679,9.93221,-6.40492
6.45214,0.040602,-5.43664,1.76349,4.74315,-5.32675,2.42664,5.25309,-4.44202,2.1428,4.95373,-4.72804,2.63654,5.39628
12.2305,0.253077,-3.27862,36.6544,-6.91127,-6.64778,36.2663,-6.25231,-6.6466,36.1996,-6.26295,-5.51492,36.8129,-6.49937
3.70924,0.300442,-16.5866,38.5294,-1.39086,-16.4413,37.1847,-2.2034,-16.4282,37.1098,-2.16752,-16.4231,37.3067,-2.52286
63.1443,4.12114,7.90478,22.8625,-6.73107,2.12676,25.0428,-6.75386,2.28646,24.3317,-6.64982,1.9559,23.451,-7.10875
40.2216,0.0407806,0.333882,21.9413,-7.65442,2.33989,20.1163,-7.35316,3.11902,21.0437,-7.20797,3.14765,20.7588,-7.21125
2.50304,0.0772132,10.7191,35.6269,-5.09048,9.67972,35.7822,-5.2054,9.73166,35.6263,-5.28032,9.5907,35.859,-5.18653
0,0.00634495,1.0233,17.7049,-7.41421,1.02055,17.6503,-7.40008,1.05623,17.7069,-7.42164,1.03355,17.6451,-7.39806
45.4803,2.8132,-16.1745,11.3332,5.20073,-12.9498,13.5718,7.87202,-13.3558,12.6896,7.68785,-12.118,14.9572,7.97063
21.5819,0.874615,-14.8996,17.0513,5.11452,-15.8455,16.1975,5.62921,-10.4909,17.707,6.62314,-11.7546,17.4196,6.48325
1.45726,0.250372,10.7638,35.6233,-5.0817,11.4425,35.663,-4.96467,11.3971,35.4419,-5.0419,11.3949,35.5846,-4.98381
45.1595,0.278915,-3.54826,2.12796,4.2011,-1.38822,2.22456,4.54249,-3.37621,5.08567,5.44732,0.285263,1.72054,4.39368
6.95694,0.611977,5.90408,20.1467,6.71568,9.90414,20.7569,6.62287,9.45373,20.7536,6.69727,9.9542,20.6704,6.62283
0.59455,0.151251,6.29301,16.0596,-7.71044,6.00057,15.9423,-7.67933,6.09023,15.7896,-7.71386,5.9122,15.9503,-7.70353
4.00089,0.138841,14.5866,19.6135,-5.86739,13.7136,19.3888,-6.0073,13.6165,19.7483,-6.10837,13.8523,20.14,-6.1968
13.6071,0.17222,2.97991,39.3924,-2.98321,2.309,39.6617,-0.564835,2.38598,39.6492,-0.676758,3.33746,39.0316,-4.02554
14.4514,0.404488,11.2232,4.73046,-5.92208,9.91015,4.23196,-6.55669,12.0439,3.99423,-5.72208,12.2535,5.72213,-6.62155
0.825862,0.00646439,4.65649,15.3299,-7.70478,4.67382,15.5428,-7.71714,4.23445,15.3702,-7.68389,4.36296,15.2126,-7.67589
9.62355,0.318454,-8.36111,36.2749,-5.91478,-6.69532,36.1963,-6.25961,-9.10399,36.1747,-6.20302,-8.43271,37.0385,-6.40311
0.329101,0.0175179,3.59065,28.63,-7.1975,3.82846,28.9623,-7.10743,3.69563,29.0523,-7.12056,3.78547,29.043,-7.10282
16.1536,0.0617142,-1.3332,27.923,-7.99451,-2.26451,26.3141,-7.87873,-1.06467,25.6716,-7.78878,-1.71687,25.6443,-7.81557
5.69659,0.0473314,7.69335,6.11669,-7.4081,5.61587,6.74605,-7.74273,5.93887,6.23767,-7.44658,6.01596,6.16029,-7.40112
2.37884,0.0107335,-8.99808,29.5162,6.46988,-9.59885,30.6609,5.89063,-8.73613,29.1646,6.54636,-9.76487,30.7283,5.98749
0.126891,0.00318197,7.68336,10.4402,-7.74149,7.55416,10.5655,-7.72855,7.54166,10.4605,-7.70175,7.68031,10.3719,-7.72921
5.52249,0.127002,-10.7878,33.8869,5.7447,-10.6927,35.3995,4.77237,-10.5161,35.9746,4.40804,-10.2507,34.755,5.50714
1.27203,0.052548,9.7853,10.0864,-7.4196,10.601,10.0194,-7.80094,10.1611,9.84822,-7.52236,10.3319,9.48721,-7.54797
4.12639,0.540357,14.7514,26.4263,-4.59936,14.2253,26.075,-5.76925,14.125,25.4598,-5.74655,14.2021,25.9861,-5.63742
3.22165,0.00423599,2.75691,37.3507,7.60927,2.95349,36.9278,7.61398,2.61886,35.9347,7.70248,3.27411,37.0812,7.57753
3.23727,0.0631268,-6.16253,4.94863,6.34588,-6.99581,4.5766,6.75422,-6.93931,3.80117,6.55863,-6.83758,4.44546,6.62103
0.0208541,0.00410519,-7.69906,22.3087,-7.84849,-7.61426,22.3059,-7.84734,-7.70338,22.2595,-7.84085,-7.62418,22.245,-7.84282
4.50082,0.105629,-6.01699,29.3242,-7.36438,-5.00885,29.5242,-7.40613,-4.41281,29.1388,-7.67424,-4.41814,29.2109,-7.62859
35.7594,0.584936,7.13029,30.4204,-5.70669,10.064,30.9088,-5.95086,7.92237,32.121,-5.58808,6.68714,31.7293,-5.82892
10.0593,0.325658,9.49173,11.6923,6.1865,10.1529,11.224,6.00647,10.6782,11.3489,6.02438,9.77679,9.17226,6.40558
18.0634,0.831752,9.52212,37.2838,-4.62863,12.8471,37.4177,-3.97844,9.92486,38.3097,-4.44393,12.0991,37.4389,-4.39939
24.4998,0.115207,4.01469,18.8403,7.5518,3.26953,16.5988,7.59125,3.17349,17.1598,7.62202,3.68819,16.6033,7.57405
16.0603,0.268445,-16.3192,35.5198,-1.19065,-16.4366,36.4447,1.81892,-16.4444,35.4221,1.63936,-16.5842,34.5062,-1.14144
0.729774,0.00737301,-14.2746,22.6081,5.94516,-14.8134,22.8139,5.70947,-14.5479,22.8146,5.81349,-14.8083,22.7415,5.72286
26.6541,2.18123,15.5186,40.1201,-1.60597,12.7431,39.3472,-2.50558,12.4648,39.4171,-2.98615,12.1499,39.0849,-3.82872
12.2057,0.118843,-15.6774,12.2689,5.61146,-14.6026,13.6482,6.61629,-14.7951,14.492,6.52344,-15.1438,14.7945,6.22415
16.5152,0.258824,4.98143,39.9758,2.58841,3.47144,40.1351,3.34313,2.44176,39.8347,2.41493,2.93703,39.7335,2.27144
9.30465,0.597362,6.8319,11.7084,6.06306,6.55328,11.2644,6.80616,8.93991,11.6038,6.41644,9.05748,11.8055,6.35942
12.826,1.19358,-6.24835,17.7882,-7.14357,-2.10318,17.5076,-7.30711,-2.70712,17.4609,-7.56418,-3.2408,17.6559,-7.62901
2.6518,1.96374,17.1217,37.85,0.148044,15.9276,38.4002,-1.32583,16.0019,38.0688,-1.54298,15.9181,38.3296,-1.35364
18.7064,0.0426862,-5.37233,3.22827,5.81845,-6.94397,1.61541,4.71738,-7.27092,2.91809,5.62884,-7.0918,1.69801,4.77358
2.17065,0.160528,-14.0095,37.8825,-5.8614,-13.3296,38.4201,-5.63254,-14.6251,37.0802,-5.87749,-14.2255,37.3841,-5.9196
24.876,0.478687,14.3546,37.8327,6.91902,12.5369,37.4369,7.30175,13.4079,36.2628,7.33555,12.0327,36.9035,7.27107
0.595379,0.0111457,-17.8732,17.6807,-1.05555,-17.9212,17.5966,-0.794876,-17.9361,17.8411,-0.837177,-17.9737,17.7205,-0.645496
5.91792,0.0930104,16.7449,10.6679,-3.56025,17.6047,10.9062,-1.84818,17.3991,10.871,-2.32558,17.6259,10.6691,-1.69301
1.46283,0.131152,14.0088,15.8551,5.57053,13.5078,16.0771,5.86452,13.5151,16.1469,5.8995,13.5389,15.9406,5.79298
5.60756,1.00833,-4.85444,20.5429,-7.48417,-3.62175,20.5541,-7.54022,-3.05321,21.4717,-7.9382,-4.13248,19.8654,-7.77872
0.0199579,0.0102647,-4.64156,26.8836,-8.20342,-4.719,26.9042,-8.23561,-4.68703,26.817,-8.17934,-4.71771,26.8264,-8.19753
2.55974,0.59192,16.3318,27.5709,5.3983,17.599,27.4549,4.44631,17.5211,27.3414,4.55232,17.5676,27.386,4.48464
24.2778,0.106444,9.96031,38.4003,7.38074,12.3185,38.6888,7.27714,10.0367,36.9089,7.31742,12.6286,37.7166,7.30651
536.795,1.05277,-4.73372,1.5523,-1.69385,-8.45523,3.26929,-5.08203,-11.9009,1.6927,-2.91672,-10.6325,2.52448,-4.01409
0.536876,0.0186651,-17.4127,10.2411,-0.315425,-17.488,10.3556,-0.00896383,-17.5008,10.2106,0.123026,-17.492,10.178,0.0802237
5.24987,0.3141,-8.13786,29.0444,6.29398,-7.3683,27.6343,6.76939,-8.64164,29.0104,6.52661,-6.98994,30.227,6.7901
7.00093,0.00518726,0.704432,16.0676,7.64339,0.607342,17.1919,7.69928,1.02056,16.9848,7.66682,1.4826,17.5571,7.67048
18.4977,0.493173,8.84507,36.2614,-4.86453,9.7459,35.4841,-5.39315,9.82918,39.0881,-4.17968,8.07734,36.2478,-5.63634
9.29913,0.532537,-9.15518,14.6275,7.16571,-9.75189,15.5209,7.47462,-9.29551,16.03,7.45359,-9.99411,14.7304,7.57389
50.1827,0.141818,-14.3651,5.88501,5.84569,-13.2326,6.66229,6.42166,-10.4408,7.25453,7.53048,-10.2322,5.98508,7.67971
0.160396,0.0674205,9.68451,2.13507,-4.00857,9.53274,2.08758,-3.9427,9.51006,2.11474,-4.00945,9.51936,2.04394,-3.88638
4.26886,0.521103,4.02393,29.8693,-6.65108,2.45053,29.6196,-7.02235,2.59693,29.8439,-6.97653,2.58808,29.7605,-6.9624
45.324,0.693204,1.80398,26.3943,6.76931,3.92318,29.0433,7.71346,3.86143,25.0009,7.3603,1.74042,24.9684,7.34025
0.179646,0.0096211,11.4288,12.896,6.33629,11.62,13.036,6.34652,11.6567,13.1705,6.36422,11.4795,13.038,6.36339
1.26352,0.0732822,-17.0644,27.6224,-4.38086,-16.8377,27.8175,-5.01054,-16.9132,27.6656,-4.78251,-17.1695,27.2927,-3.77263
37.0989,0.909532,6.57182,9.25452,-7.29232,7.72049,11.4836,-7.99923,10.2758,8.87291,-7.71053,9.43038,8.36413,-7.83899
4.65207,0.237347,7.79835,40.0294,-0.626919,7.25261,40.2844,-1.83632,8.76831,40.1653,-0.552678,7.32717,40.274,-1.89859
1.16485,0.0589462,-7.63527,33.8217,6.19356,-7.29804,33.822,6.22932,-7.69351,33.3951,6.30993,-7.8148,33.9641,6.24814
4.49691,0.172602,-16.1493,7.35393,4.43177,-16.883,5.98251,3.46942,-16.9393,6.02244,3.42722,-15.9516,6.35634,4.53034
0.0139062,0.00975248,12.3632,23.437,6.70698,12.3483,23.5748,6.68166,12.3139,23.4361,6.70345,12.2872,23.5552,6.66866
6.93553,0.258586,15.2111,38.4456,-1.94622,15.8903,38.3723,-1.35832,14.9225,38.3503,-2.8388,14.8701,38.6119,-3.15699
196.364,0.0712616,-0.780034,10.1864,-7.52437,2.13307,15.5844,-7.62653,-1.8446,15.081,-7.7506,1.02908,15.6598,-7.67227
4.89117,0.0983903,-11.7429,30.2948,5.65711,-10.0104,30.5577,6.10517,-10.0611,30.5652,6.09808,-12.8321,30.0306,5.12174
2.23618,0.588742,-6.33279,19.6548,6.74141,-4.86788,19.7345,6.93826,-4.86535,19.658,6.94388,-4.95007,19.5833,6.97376
4.46693,0.181814,0.00661458,34.7601,-7.49096,1.71395,34.9263,-7.33647,1.67781,35.354,-7.25408,1.62737,35.1448,-7.29189
144.84,0.131022,7.94776,13.7004,-7.91904,2.38496,13.8833,-7.57976,3.05996,11.7422,-7.50287,3.01972,11.8157,-7.50402
5.59071,0.0291981,14.3617,6.34811,4.20269,12.3014,5.46627,4.53495,12.566,5.82714,4.49804,15.0692,6.61833,4.04737
11.3508,0.0389276,-13.2601,34.6489,-6.57856,-14.0556,34.9214,-6.5246,-11.4905,34.3721,-6.57712,-12.652,36.0099,-6.57058
5.34961,0.283436,-9.85509,37.6601,3.22622,-10.0627,37.7897,3.37553,-10.4677,35.9774,4.40301,-8.4736,38.4683,4.41965
8.43271,0.122732,1.46696,6.04267,-7.337,3.2759,6.19003,-7.23186,0.803142,6.29766,-7.43569,0.911391,5.39257,-7.77866
4.8802,0.371365,-1.93411,30.1176,6.79054,-1.21609,30.1448,6.83193,-2.25103,30.0181,7.3822,-2.32994,31.2994,7.35549
2.12251,0.114501,2.36713,38.9732,-4.82597,1.3431,38.5678,-4.9645,1.78375,38.8303,-4.76586,1.33525,38.523,-5.14246
26.4417,0.175357,5.87826,25.1848,-6.546,8.28143,24.5907,-6.84686,6.88653,25.3224,-6.83129,2.90231,25.5495,-6.51793
3.49485,0.868636,17.2473,33.7599,1.90879,16.532,34.0642,0.729122,17.1669,33.3807,1.06662,16.4712,34.2054,0.676576
16.8037,0.186634,-6.09148,3.75324,6.18016,-4.61413,4.48964,5.73748,-4.61284,4.35769,5.72925,-4.99534,5.39198,5.96807
5.43514,0.41578,-13.5339,18.6263,5.37376,-14.1233,19.38,5.744,-13.9386,17.6173,5.5995,-12.6819,19.0058,6.04622
9.50723,0.145801,-2.47937,5.26689,-7.28758,-4.35129,5.17167,-7.33336,-4.14513,5.94822,-7.59201,-2.63703,5.98258,-7.4136
6.57594,0.101509,9.59358,40.0856,-0.521318,12.1838,40.3907,0.0126465,12.0252,40.317,-0.190247,8.7576,40.1502,-0.637528
3.07933,0.253495,13.0259,36.1941,-3.87925,12.9828,37.0462,-3.84229,12.9005,35.6801,-4.36812,13.6698,35.8658,-4.16274
0.182962,0.231399,-16.508,18.8012,4.83221,-15.989,18.6538,5.27399,-15.9718,18.7191,5.27858,-16.0024,18.5801,5.27837
7.54347,0.185093,-13.3451,31.4992,-6.33228,-11.428,31.1866,-6.7714,-12.0061,31.232,-6.69935,-11.3725,31.3538,-6.76433
5.24405,0.205183,-14.3813,34.8087,-6.57556,-15.8414,34.9233,-6.44219,-13.645,36.0146,-6.37074,-15.8876,34.9558,-6.41639
6.14611,0.710533,10.6266,38.9494,-4.09595,10.1125,37.9409,-4.56978,12.8099,38.6999,-3.82068,12.4819,38.6881,-3.96713
0.732215,0.167052,-3.14356,36.6813,-6.93781,-2.08733,36.8222,-7.12693,-2.13629,36.899,-7.09967,-2.18241,36.7677,-7.1391
9.4999,0.112849,-6.31081,39.8796,1.85535,-4.94951,39.9095,3.04589,-5.75953,39.7879,2.77708,-5.34599,39.7576,3.1414
13.7049,0.509519,14.0316,25.1151,-4.62184,15.9499,27.2147,-3.2283,13.9897,24.8377,-5.40604,15.4291,23.5746,-4.17458
16.4284,0.100025,10.6983,27.399,6.71119,6.49622,27.3474,7.16784,12.0364,27.4257,6.42983,6.68409,27.4837,7.18361
18.9177,0.159301,8.12487,39.8323,-3.6038,9.54629,40.1629,-0.948698,8.15093,40.2082,-1.26585,9.25062,40.0694,-2.12551
8.69244,0.455558,-5.64493,31.2064,-6.56611,-6.27737,32.3698,-7.36485,-6.33564,29.6338,-7.32051,-4.89063,31.3113,-6.73959
15.2166,0.191702,10.0148,17.4008,-7.23652,11.3064,17.8089,-6.81752,7.54538,17.577,-7.2088,7.59628,17.5021,-7.22388
25.1207,0.527494,10.3914,40.2702,-2.23257,12.1337,40.1603,-1.36883,12.2351,40.3088,-0.411568,12.2144,40.2885,-0.533552
4.16053,0.107645,9.46492,26.3252,-6.36552,10.6878,27.2803,-6.79274,10.1559,25.3606,-6.85537,9.13079,26.2132,-6.37584
2.38061,0.173077,14.8954,37.3434,-3.0333,14.8493,38.0267,-3.14815,14.9991,36.8886,-3.54498,15.3381,37.2384,-2.51927
0.355143,0.00760096,-17.9718,16.3821,0.64178,-17.8955,15.8846,0.288979,-17.9154,15.8454,0.389132,-17.9227,16.1271,0.394762
2.33944,0.0941176,-10.5192,9.55733,7.37494,-10.913,9.12347,7.64604,-10.3339,10.1249,7.39681,-10.2715,8.93219,7.37358
5.78779,0.0885362,-5.21312,4.026,-5.82813,-3.72059,3.99492,-6.25809,-3.33233,4.12264,-6.86646,-2.55868,4.00954,-6.45179
6.75053,0.393452,8.351,7.71258,5.64657,11.1455,7.93945,5.18707,9.77789,7.64437,5.33817,10.41,7.79805,5.24263
0.246591,0.0558102,-0.610179,2.25144,-3.92468,-0.479025,2.14395,-3.73622,-0.401421,2.14499,-3.78412,-0.464499,2.08664,-3.6591
66.4223,1.16789,-7.1751,12.7139,6.09992,-4.9312,13.154,6.77162,-8.17552,16.1848,7.40232,-4.90009,13.7282,6.74402
3.56646,0.17948,-10.8773,35.3836,-6.10826,-10.3456,34.801,-6.52289,-10.8529,35.6815,-6.09945,-11.5075,35.7329,-6.49754
0.943088,0.0353334,-17.9715,21.6105,-1.62314,-17.9116,21.8815,-1.73869,-17.9177,21.9845,-1.70121,-18.0124,21.2187,-1.2304
22.9692,0.474204,4.51783,4.37285,-6.15204,5.70975,3.65707,-6.11115,5.49375,5.30477,-7.21686,2.27001,3.81408,-6.62237
10.4367,0.454344,-4.24964,11.7659,6.37495,-4.96008,8.95606,6.54154,-3.758,10.0936,6.71624,-4.96017,8.88834,6.53561
3.2581,0.0661314,-8.10808,4.22174,6.95023,-8.09392,3.71265,6.58998,-8.30471,3.64475,6.60554,-8.6875,4.29988,7.31613
0.186329,0.0354649,14.8328,21.907,-5.62104,14.6754,22.2344,-5.62033,14.6113,22.2014,-5.6912,14.5891,22.1291,-5.74925
6.28528,0.300358,15.8036,35.0634,-2.15407,16.5566,34.5754,-1.35825,15.8984,36.6649,-2.06927,15.8127,34.8921,-2.97541
10.693,0.544335,1.60717,32.1213,-7.72288,-1.69302,31.7258,-7.72085,-1.10221,31.907,-7.80804,-1.45216,31.705,-7.76745
2.10549,0.00340571,3.31484,31.0288,-7.11587,4.05487,30.7065,-6.96189,4.17082,30.4878,-6.93614,3.19327,30.5511,-7.13029
0.270876,0.201065,-11.9697,35.9747,4.30177,-11.4537,36.037,4.62957,-11.5108,36.1073,4.59965,-11.4998,35.9656,4.63388
40.8783,0.672159,1.69261,9.32279,-6.70951,1.31362,7.67131,-7.41079,2.36418,8.00162,-7.19805,1.85494,11.9705,-7.47262
4.00028,0.533988,-2.5376,19.2724,7.18693,-3.97312,18.2671,6.64459,-3.97196,18.1995,6.63889,-3.59645,18.0887,6.60916
7.42183,0.0063616,10.92,17.5613,6.51372,8.29616,16.7506,6.65196,7.53998,16.7499,6.6371,7.59562,16.6707,6.65617
0.668599,0.0794529,-4.72855,15.0271,7.50219,-4.31063,15.0415,7.47263,-4.35009,15.1095,7.5189,-4.50483,15.3194,7.65708
24.6004,0.0547827,11.2907,25.024,-6.82708,12.1947,24.7349,-6.34809,13.877,24.4902,-5.56419,11.0228,22.8545,-6.92933
1.95362,0.622242,-6.29443,17.7902,-7.14029,-7.40545,17.8815,-6.97276,-7.47284,17.7215,-6.93244,-7.46728,17.8047,-6.927
48.2605,1.38804,5.28274,36.1038,7.84182,7.89992,36.7509,7.85015,7.68992,37.6597,7.82527,7.967,35.4139,8.02576
0.49151,0.0299647,-14.2741,38.5554,2.97123,-14.638,38.3341,3.01876,-14.6996,38.4807,2.95926,-14.7408,38.4061,2.98795
11.4077,0.0759854,17.2386,37.6417,1.16971,17.4798,37.6681,2.10926,17.4194,36.7837,1.86961,17.1505,37.7527,0.206874
5.8294,0.253765,-4.63874,37.281,4.68597,-4.89726,36.9931,4.7452,-5.40709,38.3194,5.07843,-2.99,37.8747,5.98381
61.9871,0.00860549,7.79003,31.0453,7.36028,9.86455,30.5759,7.18203,12.3033,30.6064,6.99996,12.7197,31.9382,7.05462
17.2659,0.0838875,18.178,39.3254,3.03962,17.4057,38.1715,0.365952,17.6447,38.2852,1.85636,18.0554,39.3498,1.22969
15.967,0.487159,-13.6492,7.9079,-5.28811,-12.9368,10.024,-5.68828,-14.9371,7.69048,-5.26612,-14.2147,6.54844,-5.88847
0.319392,0.0618399,-10.7372,14.3689,8.13935,-10.998,14.5211,8.18244,-10.6179,14.5852,8.06978,-11.0085,14.5726,8.19414
6.2536,1.00818,14.413,13.1201,-6.28431,13.4506,13.3966,-6.93141,13.5354,12.2679,-7.06477,13.44,13.1216,-6.94952
15.6403,0.297604,-13.863,5.76269,-6.01104,-11.7596,5.12345,-6.13975,-13.9619,4.42068,-5.76744,-11.7913,4.03518,-5.68206
18.891,0.17834,7.3767,14.9311,6.60102,3.16782,14.3851,6.81366,8.86316,14.946,6.1559,3.36691,14.5933,6.8904
7.58202,0.351993,3.53569,35.6457,-6.88972,5.08753,35.6103,-6.50713,5.21671,35.6686,-6.44419,3.6209,34.5092,-7.20979
11.7319,0.591842,16.8382,14.9209,1.60893,17.7562,16.7559,2.09896,17.2704,14.5578,-0.539256,17.3451,14.08,2.41049
10.6358,0.0086828,3.33333,18.5735,-7.25515,-0.616462,18.082,-7.0912,-0.615455,18.0016,-7.11622,1.52487,18.2041,-7.21994
2.81425,0.150724,4.83548,4.12452,4.85572,5.01811,5.76418,5.33315,5.07121,5.29267,5.12012,4.6605,4.8463,5.03788
22.8769,0.0191581,-17.4338,28.7477,-1.81361,-17.2711,29.9963,-2.53108,-17.3258,29.5405,-0.472014,-17.3956,28.9266,-0.642029
13.0686,0.889064,7.20101,29.8533,-6.00259,10.3536,29.842,-6.12579,9.705,29.388,-6.06949,9.70625,29.4586,-6.04278
9.07017,0.888348,2.54342,29.7641,-6.97152,0.75659,29.607,-7.40698,1.19488,30.6196,-7.80061,0.796567,29.5195,-7.39353
2.4348,0.234268,1.75592,14.1637,6.4541,1.21547,12.3948,6.77814,1.30174,12.7414,6.76422,1.2615,12.2595,6.77098
1.94612,0.433073,6.86878,33.0321,-6.05212,6.97732,34.2771,-6.38162,7.006,34.8374,-6.332,6.90816,34.5636,-6.38131
8.51276,0.276644,-6.21807,8.53658,-6.96749,-3.37188,7.91153,-7.31562,-3.36133,7.56754,-7.26662,-3.55238,7.51789,-7.24884
57.5147,0.834863,-6.85048,39.8831,1.07251,-1.15103,39.7498,2.14203,-4.64446,39.3873,-1.27964,-1.03155,39.66,1.97759
7.82145,0.315868,-14.7569,25.8621,-5.17988,-14.6714,26.1868,-5.4671,-15.7972,24.8664,-5.46602,-13.99,25.5114,-5.73825
14.1247,0.378218,15.8406,12.0154,3.51977,16.0698,12.4475,3.79847,16.7593,12.3117,2.18447,16.3915,9.79891,4.04619
3.39956,1.99363,-6.01201,29.1845,-7.42499,-8.03791,29.4198,-7.33008,-8.04464,29.3475,-7.30905,-8.04541,29.2577,-7.33002
5.01211,0.0631139,-10.7861,17.9732,-6.3321,-12.0024,17.8986,-5.9739,-12.4239,17.9348,-5.79155,-12.6911,18.1591,-5.57178
1.01301,0.0625904,-17.3768,24.0587,-3.55408,-17.1748,24.5,-3.98106,-17.178,24.7288,-4.03067,-17.208,24.7888,-3.97458
6.57017,0.23494,-14.661,26.434,-5.63044,-13.9043,26.6974,-6.14898,-16.2326,26.1326,-5.46602,-15.803,26.5618,-5.7371
19.7739,0.102031,-1.66144,19.9095,7.12495,3.00045,19.9288,7.10994,2.97492,20.1171,7.03929,-3.5208,19.7419,7.03815
69.9563,0.737567,5.3555,19.7982,6.57365,5.34319,17.4692,7.29765,10.7001,20.2785,6.76382,7.44268,17.9193,7.08317
11.2049,0.824443,6.89155,29.6703,-6.1418,4.11824,29.9437,-6.63397,4.85007,29.0464,-6.84177,4.06453,29.7838,-6.65063
3.3631,0.0507839,0.057662,23.2198,-7.48991,1.78464,23.1005,-7.29675,1.73824,23.1782,-7.27837,1.78412,23.2469,-7.25332
13.6568,0.166965,5.66245,38.5573,-5.18548,6.81372,39.0115,-4.73231,5.83132,37.3138,-6.16765,5.14532,38.1615,-5.81681
3.33887,0.468928,-13.1651,35.1667,3.3131,-11.9717,35.9149,4.29353,-13.5486,35.6521,3.51393,-13.3631,34.4891,3.95456
6.63885,0.285135,-14.1159,24.3109,-5.95344,-15.2268,24.3846,-5.54944,-16.5343,24.1154,-4.89487,-15.8915,24.2521,-5.26913
1.8271,0.916868,6.54599,16.4491,6.57428,7.49464,16.7468,6.64369,7.54063,16.6711,6.64536,7.61011,16.5868,6.70672
5.97372,0.447693,-0.000305237,25.122,-6.86756,-0.566558,23.8288,-7.64162,-0.121961,25.8242,-7.54368,1.02474,25.3324,-6.76519
0.890066,0.0571405,9.04177,33.8295,7.88634,9.49921,34.3893,7.8832,9.081,34.2226,7.89766,9.54639,34.5218,7.903
16.2512,0.00973941,-14.1084,9.20641,6.57993,-14.0527,11.6298,7.09471,-13.1356,10.1684,7.18776,-12.8846,11.3521,7.52746
18.8719,0.0810162,13.24,35.9076,7.38732,13.7163,33.4809,7.04782,13.7641,33.7619,7.07214,12.3895,33.5944,7.38094
25.0779,1.36267,3.91396,26.0701,6.52551,6.17615,27.4079,7.219,5.80684,28.5723,7.52453,5.12556,24.5315,7.30433
4.9665,0.00634071,3.24915,1.01451,3.56645,5.49532,0.764313,3.107,5.92423,0.734129,3.05072,5.77317,0.874184,3.32138
16.1985,3.16343,10.6537,2.7578,4.03723,7.26165,2.17218,4.24134,7.18673,3.00439,4.16641,7.24613,2.93558,4.0267
19.2113,0.190904,-7.17991,34.2716,-6.5401,-9.35354,34.2921,-6.49281,-9.43267,34.4377,-6.50672,-4.63587,34.1992,-7.00987
3.04827,0.037136,-14.1648,3.9947,5.60381,-13.801,4.30995,5.75144,-13.1436,4.37819,5.98423,-13.1272,4.17558,6.00537
0.00534071,0.00327662,5.44174,35.8662,-6.2735,5.48102,35.9378,-6.26859,5.52221,35.9271,-6.23033,5.51856,35.8623,-6.20471
20.4251,0.687362,17.4243,17.9855,-1.07639,15.6727,18.088,-4.11402,15.7226,18.1072,-3.93861,15.7576,17.742,-4.18632
11.8796,0.484458,-3.22623,9.45515,-6.85446,-1.95952,11.8758,-7.6089,-2.45916,8.63322,-7.17359,-1.9617,11.3215,-7.52879
5.37167,0.129147,-15.3139,21.1161,-5.19494,-15.3749,19.809,-4.23062,-15.6643,19.8072,-4.07248,-14.9352,21.9871,-5.74561
4.07855,0.102171,-0.459855,39.6628,2.23446,0.302527,39.7675,2.23677,0.386519,39.6366,1.89531,-0.905905,39.6238,1.83721
10.1097,0.070029,13.2128,17.6665,-6.21109,12.1588,17.1192,-6.8895,11.5039,16.9587,-7.14881,11.391,17.3728,-6.92269
11.7981,0.380253,17.2864,37.1469,2.72006,18.0882,38.3965,4.60697,17.9468,35.4628,2.99592,17.4563,37.5922,2.09416
6.93792,1.66276,-8.35329,19.6872,-7.4177,-10.6472,18.8727,-6.90304,-10.8748,19.9524,-6.59298,-10.8854,19.8669,-6.57325
21.1322,1.90539,14.9534,29.1887,-4.37027,13.4917,27.8031,-6.47038,12.4352,29.2467,-6.00204,13.182,28.4134,-6.29009
3.26423,0.227144,15.1429,14.0523,-5.78799,16.3472,13.7162,-4.60305,16.3819,13.7764,-4.55012,16.1661,13.9065,-4.82255
15.0374,0.133829,-10.1122,3.57824,-4.92954,-8.61657,3.6301,-5.65051,-10.6596,3.97342,-5.49933,-10.0762,3.16467,-4.63034
29.0801,0.63347,16.4002,34.2941,0.285955,16.7855,33.202,-0.678448,17.3272,36.7854,0.88288,17.4712,36.1263,1.82742
2.73017,0.159697,-0.549374,6.74398,-7.08947,-0.846346,7.7406,-7.3284,-0.682958,6.61261,-7.17226,-0.0856484,6.28057,-7.43327
19.0332,0.486423,-15.1868,7.91926,5.50733,-15.5825,9.63341,5.49391,-14.9828,10.6351,6.47768,-14.9455,10.5843,6.47728
14.0326,0.232283,15.0627,20.6228,5.45461,16.8728,20.9427,4.60095,16.9093,20.8234,4.57673,12.3729,20.8709,6.17754
16.9644,0.459072,-3.25723,34.9116,6.39884,2.36106,35.6647,7.78802,0.60807,35.2333,7.49217,2.20918,35.8663,7.77157
32.873,0.219527,10.9508,30.1367,-5.98239,10.2701,31.5294,-5.86474,10.9435,32.3833,-5.65698,12.2466,32.2204,-5.70053
0.307511,0.061575,14.3845,3.61533,-5.68287,14.4553,3.82519,-5.77747,14.3786,3.76875,-5.74832,14.2272,3.81057,-5.84366
0.038788,0.0119398,-1.98184,12.1156,-7.61543,-1.90517,12.1213,-7.60492,-1.88439,12.2274,-7.61496,-1.83431,12.2254,-7.6154
17.3108,0.402357,-13.4375,18.5154,-4.91339,-13.7615,19.6323,-5.17523,-12.5594,18.2324,-5.63801,-15.5031,18.0954,-4.68388
10.3113,0.553112,13.6801,40.4231,-0.147358,16.3933,40.3639,-0.985189,16.4683,40.4129,-0.864541,15.9306,40.3597,-1.09539
6.65933,0.0758363,9.30007,12.1437,-8.001,6.74756,11.6884,-7.96175,8.00729,11.5352,-8.02135,7.78424,12.3866,-8.00477
37.7376,1.23912,10.0521,27.8909,-6.66278,8.60744,24.8479,-6.76491,7.64663,25.4963,-6.8844,4.29491,27.0664,-7.06077
5.24406,0.310563,12.9684,10.0085,-7.07737,14.1713,10.1819,-6.69843,14.4402,10.047,-6.53895,14.7517,10.2283,-6.34123
3.7396,0.0453151,-2.9452,26.0957,6.25274,-3.39199,26.7515,6.93895,-3.44128,26.1297,6.52275,-3.72432,26.3859,6.8826
33.6252,0.06696,-14.6581,8.16802,5.88794,-11.7427,8.636,7.53345,-12.2257,7.95602,7.05545,-11.1975,7.38952,7.34305
2.73118,0.0694601,0.713787,28.0706,-7.68497,-0.195434,27.362,-7.8149,-0.482022,27.7211,-7.88485,0.138338,27.5454,-7.78629
6.14934,0.950144,-1.34155,18.0287,7.15724,-3.28322,17.6604,6.7136,-3.34556,17.8922,6.66863,-3.39791,17.964,6.66267
5.4404,0.17804,2.40736,39.6511,3.9866,3.62771,39.6646,5.42223,2.36843,39.9189,3.72388,1.58181,39.6391,4.01609
4.6463,0.827256,-15.8012,9.71868,5.30456,-16.1852,10.9135,5.24422,-15.7537,11.2519,5.78227,-16.2699,10.8417,5.14527
0.0146812,0.0688938,-1.49348,13.1838,-7.57849,-1.46281,13.0269,-7.56648,-1.4577,13.1467,-7.5007,-1.4203,13.1775,-7.5749
4.7168,0.356329,9.99846,20.6717,6.6159,12.1245,20.6759,6.37458,12.3127,20.9182,6.2218,12.6444,20.7359,6.19478
59.9541,0.333701,-16.6255,32.5321,-5.14386,-16.4293,34.8951,-4.12823,-17.0368,31.6909,-2.90632,-16.6336,33.6229,-2.85027
0.928076,0.0276508,2.4919,18.3367,7.61468,2.26566,18.1818,7.62856,1.82187,18.5405,7.58016,1.77502,18.4675,7.5786
10.9595,0.479801,4.89037,38.3056,-5.71908,2.45885,36.6415,-6.78963,2.92491,37.4528,-6.30511,2.56195,37.0528,-6.49248
31.2438,0.183686,11.045,34.8284,7.71746,9.72859,34.8596,7.83457,9.64052,34.0462,7.8693,10.4969,33.5003,7.67961
11.7758,0.330159,11.2056,18.2263,-6.65309,10.9192,17.6981,-6.99966,10.8718,19.5835,-7.27757,12.7729,18.2008,-6.57768
12.007,0.109842,-13.4683,10.2373,-5.37665,-14.5207,9.79181,-5.24387,-11.1322,9.15257,-6.65415,-14.1142,9.14772,-5.5754
13.9923,0.353602,-9.59015,23.7149,5.79412,-10.2092,23.6203,5.9524,-11.0237,26.4858,6.3074,-7.03264,24.1182,7.09018
1.5271,0.247005,-2.23577,5.5229,5.51797,-0.848046,5.54093,5.76863,-0.755442,5.39295,5.75545,-0.708159,5.46953,5.76234
5.36711,0.0845623,-13.265,39.9854,-0.953671,-13.0765,40.0072,-0.00994063,-13.4197,39.9877,0.432588,-12.7371,40.0668,0.0459277
0.0794473,0.0165206,12.6141,35.8965,7.51102,12.6204,35.5684,7.48965,12.7087,35.6267,7.48322,12.6525,35.5676,7.48482
7.97132,0.140921,-14.4429,3.8413,5.28313,-14.2331,2.33269,5.29378,-14.7112,4.66191,5.43614,-14.7802,3.2894,5.04497
3.58877,0.431297,-2.40773,15.0052,7.3625,-4.04898,14.8373,7.2022,-4.19132,14.6933,7.18586,-4.18156,14.8332,7.22983
3.2904,0.0315806,-11.4805,3.73322,-5.08105,-10.9336,3.4198,-4.95884,-12.8479,3.59449,-4.55941,-12.5689,3.69791,-4.75637
24.9935,0.0473294,2.54481,36.052,-6.7112,1.94877,34.2725,-7.54849,4.82533,37.4862,-6.18462,5.4304,37.4125,-6.23618
1.70635,0.0822039,-5.83752,21.6045,6.9731,-5.83142,20.8394,7.12053,-5.78851,22.3262,6.67689,-5.58446,20.9908,7.17281
75.7746,0.0044136,2.50791,0.630443,-1.47869,0.391712,1.57703,-2.78627,0.467112,2.27093,-4.35988,2.84166,1.42531,-3.36268
1.82394,0.132163,-14.5055,5.31469,5.52455,-14.6418,4.89502,5.51817,-14.6056,5.69162,5.69359,-14.6596,5.28044,5.43182
5.92457,0.00336709,9.75343,29.455,-6.04647,9.95846,29.0284,-6.28693,12.0446,29.0767,-6.20872,12.1294,29.218,-6.12414
76.7497,0.0264884,-6.21841,39.3135,-2.17705,-14.6592,39.908,-2.71029,-10.9289,40.0229,-0.49161,-6.24827,39.7369,0.103108
4.81709,0.256869,15.147,17.6225,-4.99017,13.9159,17.626,-5.77615,15.6878,17.8677,-4.17784,14.4605,17.7644,-5.43562
0.0521196,0.0352321,1.48195,32.3436,-7.71881,1.39384,32.4199,-7.72362,1.47384,32.4813,-7.71718,1.40934,32.4752,-7.71059
11.0475,0.0819018,6.82315,40.2075,4.7921,8.00697,40.008,5.6853,8.02956,39.8299,6.09616,7.3472,39.8073,5.77036
21.4537,0.380319,-10.4292,16.1653,7.10406,-14.0102,14.0917,6.96669,-14.4256,14.782,6.43732,-13.5341,14.5602,6.80697
8.40446,0.178921,0.457871,39.6442,1.94069,2.15594,39.7114,2.29075,2.93333,39.722,2.16854,1.81462,39.6894,2.42118
8.03671,0.594526,0.912749,14.4141,7.0346,-2.70057,13.6867,6.67686,-2.12738,14.0333,6.91261,-2.69252,13.7627,6.70405
14.8243,0.301783,14.8486,7.49251,-5.27811,15.4063,7.11493,-5.14756,14.8187,7.0116,-5.58606,15.0494,10.3647,-6.13438
6.18103,0.0634816,-15.6321,4.81499,-4.80242,-15.4086,4.68339,-5.19424,-15.356,5.79643,-5.25834,-16.2285,4.58757,-4.13871
4.97606,0.0184896,13.0443,9.23141,-7.25824,12.9746,7.83577,-6.93427,12.7655,7.85998,-7.03907,12.1678,8.5993,-7.49997
15.2725,0.293025,11.6502,22.2396,6.77624,12.8613,25.2589,6.58681,11.6264,25.4609,6.3343,11.6271,24.1945,6.62636
8.98073,0.022771,11.9547,34.7033,7.59734,11.5477,34.1432,7.61925,11.6566,32.8964,7.39546,12.2149,32.794,7.25796
2.36241,0.0407858,-13.4306,25.5664,5.73604,-13.9288,25.7701,5.66938,-13.6149,24.9316,5.71643,-13.8191,25.0607,5.67331
10.2273,0.0381272,-8.06152,2.52649,5.15318,-8.31007,1.71792,4.61572,-7.05605,1.81008,4.87046,-7.11111,2.28626,5.18336
3.12583,1.65835,-4.9714,34.7055,5.7786,-3.35253,34.9103,6.37353,-3.34153,34.8156,6.42124,-3.36472,34.7409,6.51048
53.035,0.0626481,13.2927,19.5693,-6.16075,11.3796,19.1391,-6.94804,13.1915,20.5513,-6.45546,14.3539,18.0179,-5.49657
56.622,3.02513,-6.49863,5.85439,6.58225,-9.01105,8.55288,6.54806,-8.84026,8.96801,6.52431,-9.53243,7.81797,7.03642
0.631914,0.051053,-1.5591,38.3988,6.3471,-1.4511,38.565,6.28076,-1.5839,38.7786,6.18271,-1.32716,38.717,6.27828
7.22087,0.472797,-1.77583,17.9666,-6.96494,-0.662707,18.0842,-7.08663,-2.11333,16.6689,-7.73744,-2.13019,18.5479,-7.50991
0.609795,0.674716,-17.6845,18.6118,-2.24595,-17.5733,17.8229,-2.37948,-17.6269,17.6476,-2.20767,-17.5955,17.7356,-2.29277
6.40185,0.141735,15.2579,16.5915,-5.4477,13.7926,16.886,-6.38211,13.7142,16.696,-6.50496,13.4885,16.584,-6.68482
112.429,0.676265,4.43079,20.1231,-6.42765,3.18367,20.6126,-7.20869,6.87818,19.8621,-6.82042,7.37042,17.7912,-7.15075
0.0460393,0.0131066,6.19889,36.7363,7.99697,6.37877,36.7453,7.98513,6.25025,36.6556,8.00043,6.34313,36.661,8.00106
9.60795,0.317819,16.1219,13.5583,3.65336,16.1168,12.582,3.79088,17.2778,13.668,2.35431,16.3394,14.808,4.62216
4.45009,0.0354468,14.4586,24.4501,6.34504,13.9755,23.5995,6.41382,13.6156,24.152,6.51983,15.0611,24.9433,6.1638
0.705984,0.269469,-4.13223,29.8996,-7.228,-4.51369,30.0657,-7.15413,-4.50419,29.8511,-7.25821,-4.58804,30.2225,-7.16019
5.7684,0.138706,0.0483111,2.26212,4.42292,-0.0463897,3.11562,4.92219,2.09391,2.09464,4.48446,-0.217512,2.05568,4.49103
3.56369,0.0673258,15.7744,12.8643,-5.36311,14.4562,13.1216,-6.25612,14.4405,13.0662,-6.29013,16.2736,12.8606,-4.8641
2.08846,0.103724,2.80443,35.3835,7.64494,2.70688,35.9381,7.68043,2.61041,35.3046,7.81409,3.45835,35.2458,7.61819
1.67291,0.134105,-13.057,31.5253,4.7101,-13.6166,31.8388,5.14072,-13.1457,31.299,4.72643,-12.705,31.451,4.78905
80.8607,0.944655,10.4091,3.98465,4.37399,12.5182,5.12161,4.44943,12.0449,5.75108,4.6722,10.6395,6.62544,5.32673
3.2016,0.204286,-15.1462,11.1122,6.32073,-15.2475,10.4189,6.13781,-14.143,11.9886,6.8448,-14.1249,12.1294,6.81321
12.9296,0.341431,-0.534655,20.1862,-7.44566,3.44197,19.0625,-7.16293,3.53925,19.1954,-7.14312,3.30092,18.9963,-7.17484
13.2313,0.357931,14.3929,6.69733,-5.81358,16.4543,6.88035,-4.29863,12.3843,6.28601,-6.54537,11.9038,6.31897,-6.75447
8.42948,0.176978,-7.99423,25.3897,-8.1077,-11.0198,25.6122,-6.94065,-10.5248,25.7425,-7.18268,-10.1314,25.5472,-7.34088
23.7342,0.00300759,15.5517,36.3832,6.50832,17.2906,36.1504,5.54656,16.6205,36.8976,5.90977,17.3427,35.6702,5.52389
5.12248,0.13978,3.29777,38.7798,-4.54586,3.02474,38.7261,-5.41793,4.37326,38.989,-5.24889,3.34331,39.0147,-4.0633
7.24797,0.0222534,8.703,40.3668,3.89252,11.9737,40.6199,4.70488,10.0042,40.44,4.3694,11.0249,40.5231,4.65473
5.96754,0.609198,-1.18718,18.0834,7.20845,1.67696,18.4672,7.56897,1.53897,18.3277,7.56354,1.72268,18.6106,7.58515
3.46923,0.217372,-7.36714,31.6555,5.98091,-6.16045,32.9881,6.52388,-8.09637,32.0572,6.2979,-6.11127,33.0593,6.54092
6.41684,0.211992,-3.09331,24.8538,-7.55725,-2.58424,27.609,-8.13895,-2.97063,27.0606,-8.04833,-2.60368,27.5378,-8.11953
27.9662,0.332732,-8.94216,7.97499,-6.50326,-4.70897,7.52588,-7.11652,-7.6342,8.63668,-6.89339,-5.64184,6.9479,-7.08017
10.6237,0.510518,-13.3277,3.58965,-4.48081,-12.8214,4.01565,-5.55319,-13.8678,4.28628,-5.7293,-13.4464,2.41303,-4.13185
0.0247758,0.00582571,-6.92902,24.6632,7.14112,-6.88828,24.7416,7.14897,-6.85358,24.6606,7.12304,-6.79684,24.7435,7.1357
25.1612,0.408559,-10.3686,23.6947,5.89145,-13.3834,25.6465,5.75433,-13.2825,25.6498,5.77624,-12.483,26.3404,5.98189
5.13281,0.0138709,4.82877,20.1162,6.93232,3.30294,20.2033,7.04115,2.97813,20.1806,7.05871,3.02352,20.0273,7.04624
2.63753,0.15766,17.269,33.7601,1.94491,18.0845,33.2016,3.2387,17.8342,33.3361,2.7229,18.0697,33.276,3.21656
24.1044,2.18146,-0.0504395,11.6687,6.38371,5.76926,11.9665,7.10668,5.79941,12.5167,7.08626,5.83098,11.8297,7.15036
67.6273,0.288703,15.7568,33.8823,6.38313,15.223,28.1685,5.90506,16.312,28.1881,5.55681,14.4436,30.3717,6.52589
11.0327,0.142361,12.079,27.3404,6.40481,16.166,27.7143,5.50677,16.3009,27.5708,5.42395,13.6965,27.3857,6.11104
31.3686,0.170792,9.21424,23.6177,-6.51523,8.63432,22.8906,-6.64347,9.67255,21.3404,-7.42533,10.517,21.4187,-7.4273
2.73033,0.139546,-17.1347,30.931,-1.27254,-17.0631,30.8136,-1.5586,-17.1703,30.5942,-1.94085,-17.2064,30.8109,-2.34299
5.79745,0.221352,-8.2414,13.471,6.42179,-8.79973,14.6387,7.09434,-8.69705,12.8864,6.80611,-7.34835,13.1357,6.19756
5.06024,0.115145,2.44507,7.12703,5.86645,1.06971,7.1891,5.83531,0.535132,6.95209,5.7595,0.576294,6.88601,5.72901
20.3162,0.214995,-13.6758,20.0754,-5.23012,-14.8546,20.4628,-5.11558,-10.902,20.0298,-6.64395,-14.6043,22.9409,-6.13021
1.5296,0.0779834,7.26521,37.5759,-5.49723,7.056,37.6468,-5.61517,7.28383,38.0719,-5.28424,7.68501,37.3708,-5.5832
8.95727,0.433862,-17.1774,16.2894,-2.74851,-17.5366,15.7049,-1.92824,-17.3763,15.2196,-2.28659,-17.7658,16.4557,-1.60616
4.01823,0.0564881,-8.48302,19.4958,6.4792,-6.3304,19.5778,6.75062,-6.66238,19.5019,6.73569,-6.97066,19.6572,6.65821
69.5965,0.335583,7.8464,39.5813,6.6313,9.77958,40.4025,4.80218,14.479,41.0724,4.55948,14.4134,41.0442,4.59805
0.109435,0.00592643,0.629925,25.0924,7.62656,0.542232,25.0949,7.63941,0.493301,25.2346,7.65201,0.585192,25.2304,7.63217
0.629517,0.0491855,4.74791,30.5128,-6.78592,4.2292,30.6244,-6.92598,4.55172,30.7418,-6.8699,4.23395,30.6956,-6.92514
26.8955,2.80026,17.7552,11.9627,-1.52521,17.2835,15.2141,-0.616838,17.3317,15.1837,-0.377265,17.55,15.9228,-2.01739
0.65039,0.0377038,-3.61731,21.8651,-8.00629,-3.4678,22.1266,-7.99418,-3.74437,22.0828,-8.02177,-3.63395,22.2255,-8.03252
19.7504,0.0315358,-0.968047,37.0846,-6.41872,-0.952498,36.569,-7.13271,2.45869,38.3657,-6.17112,-4.93186,38.8035,-2.74891
2.57883,0.135978,16.1067,28.8284,-2.86728,15.1534,29.2324,-4.19348,15.0958,29.1834,-4.1262,15.7233,29.1296,-3.50622
0.0383054,0.0413264,6.05643,11.8097,7.01843,6.05518,11.7482,7.08796,6.12245,11.8165,7.00903,6.12183,11.8983,6.99824
0.172997,0.000975001,-16.2567,13.0824,-4.16298,-16.1183,13.3711,-4.34822,-16.0616,13.3268,-4.40442,-16.0685,13.3746,-4.40293
2.2005,0.216032,5.99785,22.3102,-6.9385,6.02246,20.7609,-6.89606,6.00527,20.6215,-6.87238,5.89136,20.8477,-6.90975
5.07977,1.46115,-11.2845,31.2545,-6.75758,-9.24464,31.4588,-7.18158,-9.34417,31.2012,-7.0347,-9.36108,31.0332,-7.01094
4.60917,0.464518,-12.909,31.3117,4.72183,-10.9545,32.1869,6.07382,-13.0922,30.3056,5.03349,-11.0599,31.9817,6.00928
0,0.00455049,4.67559,33.8276,7.93626,4.65635,33.7802,7.94839,4.66004,33.8348,7.94328,4.68428,33.7834,7.94283
8.23038,0.0368398,3.77456,32.8763,7.96387,3.77436,31.3427,7.85502,4.32973,30.8484,7.81948,4.65141,33.228,7.92397
1.44831,0.241417,-17.009,10.4798,-2.02848,-16.9378,11.0963,-2.44666,-16.8701,10.8383,-2.4674,-16.8846,10.8996,-2.41724
0.381145,0.0158169,-1.03622,24.0694,-7.77877,-0.816066,23.9775,-7.74573,-0.974874,24.2672,-7.78654,-0.766158,24.0467,-7.73671
8.67824,0.410101,-2.99189,16.5423,6.83422,-1.73734,15.0827,7.39764,-3.47318,17.0056,7.19707,-2.11878,17.379,7.17817
94.9925,0.261186,-9.49585,9.5324,-6.49922,-6.46157,16.6767,-7.57027,-6.21116,10.0703,-6.94545,-3.54781,9.69802,-7.01667
13.368,0.413003,16.3536,13.4671,-3.92072,17.6073,12.9985,-2.7046,16.871,14.3747,-3.73621,16.6519,12.8858,-4.30982
0.893891,0.300013,-17.0228,6.07106,-2.32706,-16.8336,5.39967,-2.87204,-16.8587,5.24657,-2.71446,-16.8377,5.37333,-2.79459
1.9084,0.0632469,-15.6,8.05663,5.16809,-15.991,7.47434,4.73648,-15.9559,7.71198,4.817,-15.5219,7.60245,5.26385
3.34693,0.0456207,-0.759643,20.6848,-7.53733,-0.150764,21.1308,-7.62353,-0.515962,21.7898,-7.66417,-0.364236,21.9174,-7.67541
2.60465,0.0251241,1.70276,7.23744,-7.19336,2.34586,6.82861,-7.27072,2.02006,7.69206,-7.21535,2.62811,6.80877,-7.28658
5.72603,0.31087,13.1532,32.5976,-4.93109,12.6244,32.9052,-5.50965,14.9433,33.8773,-4.48,14.7468,33.9568,-4.56824
11.9284,0.622305,-7.61242,10.205,5.88164,-8.25521,11.6978,6.79329,-4.84444,10.2193,6.53222,-7.98559,9.61812,6.40221
24.4911,0.598931,7.33019,6.92996,5.08285,6.38012,9.11841,6.70842,8.51979,5.89465,5.24287,9.93813,6.74829,5.54795
2.44188,0.0940121,6.49277,39.7838,-3.32769,6.2645,39.7965,-4.0159,6.37404,39.8004,-4.11249,7.06202,39.9677,-3.00662
1.82074,0.006274,15.7077,34.504,6.44583,15.4947,33.734,6.47994,15.1983,34.2823,6.64983,15.1977,33.5178,6.58785
7.77762,0.609055,4.90213,7.51131,5.94016,6.91386,7.81695,5.7295,6.76684,7.53648,5.68759,6.8355,7.8842,5.80068
5.86835,0.0793402,-1.18685,0.860363,3.00839,1.57963,0.932676,3.62933,1.67845,0.801122,3.25056,0.042246,0.925925,3.51829
61.2717,0.373575,-8.93384,38.1306,-5.14252,-4.0857,38.096,-4.55555,-4.34441,38.1779,-4.2804,-3.79243,37.8027,-5.47508
23.8181,1.13796,2.58451,6.97525,5.84655,6.65873,5.86197,5.50978,4.85559,7.51101,5.93894,5.78925,6.82624,5.86341
5.61707,0.0294922,7.49485,8.22194,-7.76421,8.19629,6.35096,-7.28483,8.43402,6.48998,-7.25958,7.74847,6.32302,-7.37707
2.74229,0.231442,15.7138,4.23121,2.89707,15.8577,2.66174,2.7606,15.7585,2.40134,2.8171,15.8178,2.38078,2.74676
3.88909,0.213312,-7.26355,31.5908,6.02201,-6.5915,30.2356,6.85884,-6.84766,30.2943,6.79137,-6.40164,29.8791,7.02087
20.1579,0.323838,6.71658,39.8432,5.51744,3.53685,39.9625,4.72353,4.45106,39.7715,5.04081,4.19915,40.2321,4.22637
0.0534411,0.138416,11.3033,21.5045,-7.38246,11.438,21.4774,-7.35441,11.4429,21.6399,-7.32984,11.4388,21.5788,-7.33211
0.0247859,0.00576392,5.9996,18.3875,7.19512,5.92332,18.3951,7.22175,6.00652,18.4543,7.20252,5.96537,18.3377,7.20775
36.6856,0.16214,-17.6538,13.751,-0.743342,-17.4731,12.3614,-0.655772,-17.685,14.606,1.95383,-17.6973,12.2025,2.76575
79.2751,0.398845,-16.3379,37.1259,-4.63634,-16.4733,36.93,-0.490353,-16.4924,36.2677,-0.0425162,-16.7644,33.5047,-1.01883
11.1277,0.372534,5.76129,17.4261,-7.17929,4.61986,18.5583,-7.15937,4.61828,18.0036,-7.09935,3.43775,17.3005,-7.2708
9.8935,0.476756,-14.4067,28.7481,-7.22776,-13.442,26.237,-5.98279,-13.4298,26.1718,-5.92551,-14.4954,26.816,-6.01147
0.322988,0.0601253,1.66783,4.88606,5.24139,1.63071,4.60793,5.25304,1.84799,4.59901,5.1722,1.59576,4.67871,5.25027
5.3905,0.221758,-15.7994,19.3972,-3.86962,-15.1616,19.0742,-4.31687,-15.6825,19.7377,-4.02459,-16.475,19.0127,-4.09555
2.51079,0.160326,-0.0499438,38.3416,-3.84374,-0.376536,38.1563,-4.6362,-0.395199,38.2108,-4.46927,0.92281,38.7684,-3.79913
3.75132,0.396609,-11.5402,5.29048,6.80124,-13.1145,4.29733,5.98495,-13.0905,4.23736,6.00073,-12.6916,4.35748,6.1179
0.188677,0.16909,7.04466,1.8996,-4.09035,6.71607,1.8709,-3.99339,6.78611,1.92375,-4.01559,6.72221,1.89503,-4.03226
1.53487,0.5647,-14.9071,9.96309,-5.16205,-14.3071,9.4543,-5.36637,-14.6441,9.11479,-5.38081,-14.4417,9.36775,-5.31389
1.95922,0.024476,5.83696,39.5959,6.18449,6.07425,39.2784,6.96587,6.011,39.273,6.96265,6.05928,39.4461,6.54762
3.35441,0.0978029,8.59888,13.5549,6.31222,8.33692,12.0212,6.47955,8.33589,12.1536,6.47899,8.61473,13.967,6.4064
13.2629,0.413605,5.22254,32.6293,7.34283,5.21007,30.3004,7.50111,5.06272,33.9984,7.9392,7.32138,32.6372,7.48042
7.0151,0.359575,-11.0051,4.92317,-5.7987,-11.2112,5.57381,-6.33986,-11.5916,4.11733,-5.74151,-9.67941,4.56063,-6.50597
6.63893,0.454529,-6.903,5.10608,-6.48746,-7.40669,5.46917,-7.41059,-7.11565,3.98293,-6.23829,-5.65323,5.26296,-7.00269
5.39908,0.301724,5.38491,40.0855,-0.884788,5.17172,40.2976,-2.23485,7.05003,40.515,-0.330605,5.24238,40.3016,-2.23516


