
9.13097,0.0714521,-4.26472,14.5919,-4.34609,-5.17398,14.9666,-4.44229,-3.49682,16.1036,-4.16167,-4.05776,16.0698,-4.26135
62.6651,0.176359,-7.24277,10.0602,1.76884,-6.97059,12.18,-0.261228,-7.17189,12.7034,0.7365,-7.23684,11.8976,1.706
16.2455,0.229235,4.37065,29.9162,1.03661,3.98312,29.0612,1.10095,3.62642,30.0671,0.0977122,3.59503,28.7865,0.47778
24.9036,0.988411,-1.22893,31.2855,-4.22063,-0.927034,28.4098,-4.04111,-1.68252,28.2546,-4.28714,-2.91167,28.7876,-4.42204
13.2262,0.791597,2.37607,3.68509,4.40335,6.63984,4.11348,4.70834,6.95199,4.08044,4.6498,7.13483,3.86085,4.55449
9.22288,0.0292082,-7.78868,40.434,-0.923957,-8.05852,40.8015,-2.26301,-7.25937,40.5469,0.32887,-7.76676,40.943,-1.78665
1.32154,0.046547,-5.26069,5.19671,-5.21234,-5.02362,5.30902,-5.83199,-5.14058,5.30193,-5.63268,-5.27074,5.16612,-4.83611
0.376308,0.0219185,-2.68714,52.5122,3.01881,-2.36282,52.1644,2.9685,-2.51113,52.2033,2.98184,-2.36372,52.2093,2.96843
2.1467,0.105277,2.47587,36.6684,-2.83365,3.01997,36.9744,-2.80895,2.68216,37.1514,-2.96026,2.35488,36.3269,-2.92866
5.24467,0.245066,3.58666,40.2158,-0.258266,3.7792,41.1331,-0.223284,3.86194,39.136,-0.113223,4.03785,38.5967,-0.434531
9.87107,0.0937997,-5.10087,52.0741,1.89679,-5.31184,51.543,0.592163,-4.88611,51.6516,3.01688,-5.14747,52.3472,0.777693
0.355988,0.102798,3.95986,39.1994,-2.69522,3.58017,38.865,-2.75732,3.46958,38.8933,-2.84585,3.45619,38.8478,-2.84391
0.313639,0.00562599,0.661568,53.6789,2.82275,0.242096,53.7878,2.94942,0.320044,53.8845,2.9072,0.499186,53.6654,2.87646
0.135712,0.0871625,-6.34587,19.859,-4.09602,-6.31853,19.5445,-4.12586,-6.29906,19.6528,-4.09966,-6.3071,19.6417,-4.05515
0.388924,0.0230346,-8.66463,28.5633,4.65236,-8.21733,28.5987,4.92361,-8.28363,28.5472,4.94028,-8.79591,28.567,4.49751
63.825,0.800182,3.01184,32.645,0.126295,3.92509,30.3604,0.401196,4.06772,35.2604,-0.108043,4.49698,33.9325,0.754722
4.80805,0.502295,1.62998,8.588,4.20603,2.45801,8.59196,4.47667,0.90854,9.86299,5.06969,2.45346,8.63562,4.4819
25.6034,0.331734,-5.21727,44.7972,0.484962,-6.1166,44.5569,1.79418,-5.54847,45.7053,1.79809,-5.13535,45.5965,0.256122
9.38428,0.296246,-6.52463,3.71757,3.86452,-4.12562,3.7932,4.4479,-4.68461,3.63191,4.25853,-4.06685,3.94488,4.61315
2.59945,0.018606,1.30862,5.43937,5.04277,0.0529578,5.83841,5.04164,0.130857,5.61228,5.0339,1.48508,4.94143,5.00707
0.685232,0.0148113,4.93584,11.7135,0.38266,4.67125,11.5783,0.359464,4.83707,11.3182,0.354329,4.65796,11.3995,0.353863
10.5139,0.177678,8.3838,20.5098,3.40401,8.64962,19.6563,3.42958,8.49337,21.6621,3.74993,8.41378,22.1761,3.50421
5.31744,0.309764,-6.79448,19.0085,-1.05075,-6.73136,18.2189,-1.78293,-6.80289,17.9468,-1.27765,-6.66836,18.4265,-1.82183
6.12756,0.801657,2.91133,18.8834,4.92474,3.92396,17.1062,5.48888,3.69366,17.2807,5.50295,4.14479,18.5008,5.7737
7.78228,0.120753,7.47778,24.0419,3.63776,7.50053,23.852,4.26652,7.60798,22.2471,2.78979,7.8817,22.6081,4.89011
38.1579,0.0337168,-9.04546,35.6341,0.921753,-8.78749,36.9375,-0.514393,-9.22533,37.9444,0.672694,-9.30904,38.3676,0.793898
54.8315,0.0351589,-8.07285,23.3976,4.64984,-8.81168,25.6561,2.85646,-7.90313,20.8363,3.19611,-8.56166,25.1686,3.82404
12.9855,0.16702,-6.85134,16.4148,-0.3868,-6.90285,17.4319,-0.729333,-6.54879,14.5994,-1.78367,-7.0188,14.0563,-0.45021
6.38896,1.3658,7.73577,15.496,0.535038,5.07398,16.9306,0.853251,5.64275,16.915,0.831792,4.48573,16.9483,0.808644
13.2426,0.0988238,-8.69389,34.4392,0.413613,-9.04502,32.5823,1.73794,-9.18683,32.9251,1.94233,-9.02536,34.357,1.30665
1.19185,0.553114,-2.28268,18.6536,-3.47266,-2.68127,19.0971,-3.30365,-2.61829,19.2189,-3.20519,-2.7827,18.912,-3.49484
42.0278,2.53015,2.60496,22.5895,-0.924266,1.5097,18.0251,-1.01406,1.52558,18.5253,-0.539868,1.0486,17.0481,-2.8209
8.33658,0.0712575,-4.93357,50.3046,2.51165,-5.20608,49.6979,1.99575,-4.51796,49.7876,3.5855,-5.10074,51.5979,2.45352
118.903,0.113518,4.74353,36.1092,4.28259,3.30052,35.2034,4.37033,1.19857,38.2942,4.24442,2.71006,39.5713,4.00142
0.0165656,0.0553219,-8.45099,29.6776,5.53702,-8.52782,29.6338,5.50928,-8.38062,29.5919,5.50817,-8.42348,29.5997,5.49008
6.28961,1.25685,4.79556,38.9032,1.8735,3.93504,38.8442,0.537202,3.79287,39.4238,0.59643,4.02904,38.6209,0.517144
3.20527,0.114712,5.04049,37.8569,1.01517,5.22492,36.9645,0.828789,5.06538,36.8304,0.229959,4.87148,37.4564,0.43726
0.0816413,0.018677,-5.48337,47.3742,1.79606,-5.54416,47.6253,1.75499,-5.53485,47.4433,1.72094,-5.51049,47.6514,1.80241
2.0008,0.198931,-7.66655,17.7226,2.26427,-7.61986,17.2558,2.23602,-7.55476,17.8659,1.66258,-7.57314,17.0217,2.36975
0.00591222,0.00708996,3.59538,44.5969,0.312016,3.56941,44.5767,0.275346,3.50934,44.6733,0.246956,3.57491,44.6727,0.303153
4.76997,0.294384,7.07164,27.846,5.69362,7.25704,29.1502,5.59223,7.00245,29.4134,5.77106,7.12591,29.259,5.67791
7.41203,0.68316,4.60362,34.7673,0.597527,4.86426,36.0428,0.223415,5.23608,36.3664,0.469623,5.08883,36.1734,0.358269
1.01485,0.0511983,8.69202,8.08298,0.318482,9.0927,7.49605,0.410301,9.02316,7.46579,0.362664,9.20875,7.46211,0.462812
3.47735,0.192946,-6.76866,43.8508,-1.06853,-7.14738,42.8332,-0.55283,-7.40726,42.4873,-1.34151,-7.28235,42.5435,-0.815942
0.0509215,0.0524298,-1.30446,34.5627,5.17277,-1.18484,34.5958,5.20785,-1.27049,34.6286,5.18591,-1.42397,34.5816,5.23044
2.41121,0.0199911,-5.14122,45.9157,0.367634,-5.13742,45.6751,0.254495,-5.09169,47.3363,0.164311,-5.08783,47.3282,0.218296
22.1582,0.0897223,-6.20796,37.5344,-4.58159,-7.55376,38.2499,-4.17504,-6.93316,40.2409,-4.89484,-5.40748,37.0729,-4.97797
0.719322,0.139052,6.59418,30.6227,5.73456,6.8634,30.4572,5.91715,6.71963,30.723,5.86033,6.39253,30.5127,5.89204
1.1801,0.0160446,-6.01374,9.40263,-1.56664,-6.36009,9.17403,-0.97856,-6.05739,8.60289,-1.49486,-6.17396,9.18826,-1.30844
0.0377292,0.0835009,-3.77402,27.8356,5.99081,-3.7857,27.9192,5.98852,-3.85664,27.8984,5.9629,-4.01191,27.8688,6.0196
3.28496,0.490298,2.00436,14.1189,4.96747,1.82098,14.9415,4.95372,3.15244,14.5139,5.44838,2.00049,14.7556,4.87045
29.401,0.446442,2.9053,37.4235,-2.85624,0.562285,38.4853,-3.632,2.00965,39.4086,-3.24623,1.10615,37.7137,-3.62107
9.1092,0.149432,-9.7725,33.9157,3.44554,-9.86192,35.604,3.20211,-10.0817,35.6172,3.90671,-9.94372,35.8807,3.45988
0.210013,0.152333,-1.99861,38.0605,-4.16332,-2.54205,38.0278,-4.15032,-2.27314,38.116,-4.12217,-2.4503,38.0387,-4.10941
0.03167,0.0466705,0.946355,47.0314,3.63721,0.910929,47.1147,3.5593,0.940686,47.1262,3.62092,0.879708,47.024,3.62389
6.87151,0.32526,2.53287,31.6415,5.27884,2.31197,30.0784,6.10054,2.29108,31.9912,5.51354,3.60505,31.8315,5.55277
1.46715,0.131046,0.300321,28.8237,-3.03652,-0.0960642,29.6956,-3.05438,0.0307277,29.7175,-3.05657,-0.0412599,29.3989,-3.00403
4.82107,0.00774566,7.74761,12.2537,5.01074,8.11579,13.3078,4.95399,7.74687,12.9111,5.27266,8.29829,13.073,4.63363
0.0872106,0.00910734,5.18572,17.819,5.80458,5.04663,17.768,5.791,5.04391,17.7227,5.78899,5.18346,17.7301,5.79156
0.0493488,0.0185624,1.99564,50.5632,-0.509492,2.0727,50.4125,-0.505277,1.91973,50.5439,-0.521154,1.97095,50.4341,-0.504088
4.59987,0.0967835,-2.48856,56.8939,-1.64868,-2.80267,56.5686,-1.53722,-4.10236,57.3711,-0.853584,-3.36888,57.6231,-1.32015
0.341036,0.023207,-8.48295,30.5238,0.487913,-8.30714,30.3886,-0.0391115,-8.34616,30.2831,0.0794355,-8.34804,30.5345,0.053989
4.16889,0.124173,3.99341,41.9081,0.770198,3.67255,40.7476,0.232789,4.04666,41.5504,1.09672,3.74677,40.8309,0.608143
19.236,0.591377,-4.86681,45.1544,2.69134,-5.26599,48.3015,2.3097,-5.36747,48.4858,2.20285,-5.13439,48.2547,2.56766
11.9699,0.631799,5.82921,27.3758,5.04487,5.58586,25.9477,5.93636,5.31505,28.6795,6.07734,7.22233,27.2668,4.9505
15.4825,0.472415,-5.86926,34.0206,-5.25905,-5.34942,35.5691,-4.90826,-4.69287,35.1607,-4.92692,-5.58242,36.8881,-4.96976
42.0247,0.420731,-3.60632,25.6881,5.24361,-3.91694,24.3569,5.88005,0.544269,25.544,5.78907,-2.58456,26.6615,5.53473
81.8156,0.793327,-5.93746,13.6864,-3.47965,-6.8073,17.5184,-1.08852,-6.77561,18.0205,-1.54389,-6.67348,18.2998,-2.04877
4.54564,0.26379,0.799743,15.6198,-3.12165,1.1128,14.6993,-2.93983,0.860693,14.6681,-3.02756,0.799778,13.5456,-3.29294
5.76802,0.25433,4.26577,28.041,1.4633,4.16376,28.6848,1.12128,3.99435,28.1973,0.886347,4.45731,28.8967,1.42777
0,0.0243425,-6.75129,37.8981,5.62971,-6.77799,37.8818,5.63726,-6.77916,37.8868,5.61324,-6.78302,37.8557,5.62645
5.77382,0.10588,3.0678,25.0178,1.13944,3.0251,24.5177,0.918837,3.08305,25.2044,0.397658,3.39128,25.7933,1.35171
8.19208,0.0242954,-0.2654,28.7016,5.45604,0.916757,28.855,5.60127,3.01473,28.8326,5.88131,3.02379,28.7858,5.87914
5.01938,0.207917,2.25083,47.9479,3.52229,2.19452,48.9012,3.2705,3.12012,47.5282,3.58371,2.95071,48.3443,3.51674
9.43158,0.0919315,-5.55607,8.26084,-5.89088,-5.05577,7.57478,-5.95946,-4.34388,8.11535,-5.66754,-5.01556,9.3973,-5.6455
1.18864,0.0651032,-7.11412,28.1742,-3.58161,-5.98773,28.3521,-4.1271,-6.01476,28.2434,-4.05937,-6.12262,28.1674,-3.96974
0.15859,8.80314e-05,1.08008,54.3783,-0.603234,1.10987,54.5115,-0.603674,0.940768,54.4107,-0.652477,0.993476,54.6317,-0.65226
1.1142,0.0186878,-3.0812,3.56055,3.90898,-3.18024,3.70507,4.16795,-3.70578,3.9294,4.60013,-3.63238,3.95332,4.61806
8.20144,0.0781588,7.11215,1.29249,0.172272,6.66482,1.18851,0.771503,5.59838,0.926587,1.24137,5.68031,1.07868,0.49414
0.0165195,0.0130608,2.74655,1.4214,4.53703,2.83509,1.77819,4.51446,2.71642,1.55564,4.56458,2.75471,1.36054,4.50487
1.1339,0.0808963,-3.78513,6.42618,4.81472,-3.72809,7.66027,4.71957,-3.88975,7.38118,4.71846,-3.95405,6.96715,4.76621
37.7767,1.06043,0.0512709,13.2259,-0.361706,-0.0124416,10.4487,-0.812198,1.50553,17.0168,-2.25018,-0.0223937,9.91896,-0.555525
0.112953,0.0150361,-5.68439,38.7212,-5.07364,-5.63865,38.8487,-5.06463,-5.82344,38.9193,-5.04292,-5.71917,39.0027,-5.02986
6.96107,0.340327,8.20555,16.1208,4.80823,7.64641,16.5125,5.35528,8.11651,15.1579,5.05289,8.82729,16.3057,5.03196
19.7859,0.249279,7.52531,9.417,3.60208,8.42426,11.7739,3.44665,7.71472,11.109,4.65591,8.38355,11.1988,3.24442
3.58901,0.0128887,-8.23575,36.8758,-2.33219,-8.30507,37.7271,-2.21232,-8.18831,36.0311,-2.0808,-8.14685,35.5061,-1.59412
4.31504,0.0450941,-3.36641,35.398,-4.2653,-2.32612,34.3938,-4.29093,-2.11178,34.6827,-4.27529,-3.30832,34.9691,-4.3181
1.30603,0.173039,-10.38,34.7958,5.18325,-10.4409,35.6099,5.25002,-10.5002,35.8015,5.14362,-10.4244,35.5604,5.33793
113.08,0.505724,3.54112,52.0755,2.23998,3.82859,48.35,3.49704,0.980176,50.9399,2.95641,4.21243,48.2323,3.45044
2.34902,0.14939,1.02434,17.164,0.155415,1.49539,18.4749,-0.233154,1.52194,18.2188,-0.828566,1.54948,18.5606,-0.313961
10.4971,0.341346,-1.69867,3.51367,2.50419,1.07824,1.63089,2.30053,0.705336,1.86504,2.73174,-0.0447576,2.56858,2.42073
12.9547,0.0567742,-0.649937,28.5563,-3.19621,-0.517358,27.4282,-3.3939,-0.0366305,25.7277,-3.60198,0.312324,25.9578,-3.28168
4.73749,0.0832267,-1.01167,5.64844,4.92113,-3.52954,5.55496,4.34456,-3.54323,5.64742,4.34285,-2.50571,5.47835,4.61167
0.332749,0.331055,1.05228,12.3041,-3.11497,1.17532,12.8516,-3.0981,1.2627,12.9995,-2.96875,1.31297,13.0408,-2.95548
69.0833,0.279599,2.65255,23.715,0.976115,3.04951,25.0405,0.118748,2.75762,20.8144,0.90635,2.78578,20.6161,-0.0767193
1.48927,0.105836,8.15755,12.7351,0.411833,7.78481,12.4484,0.378155,7.51467,12.5466,0.342213,6.88769,13.0818,0.327957
5.99841,0.143988,7.06203,33.5495,3.19691,6.61865,35.0372,3.96155,7.06083,34.7422,4.15136,6.35362,35.6242,4.10446
1.11052,0.11348,-1.28192,2.80914,1.00841,-1.07147,2.53125,0.943485,-1.64977,2.77128,1.03739,-1.04595,2.92125,1.35257
32.6217,1.38741,-0.112392,22.9488,5.56447,-1.68837,23.3762,5.88756,-1.45799,21.0957,5.5442,-1.49004,21.8262,5.51825
35.7474,0.131552,-7.06964,6.9187,1.9643,-7.08636,10.2267,0.733568,-6.57845,7.14921,0.609555,-6.83248,9.7842,0.0846713
37.3028,0.0465082,-4.81439,53.9009,2.29531,-4.55571,55.3213,0.885784,-4.5259,55.9579,1.44604,-4.64265,54.7239,1.01544
1.19327,0.151201,-6.54289,43.7177,-2.42768,-6.82783,43.6442,-1.80432,-6.79937,43.5607,-1.93089,-6.80421,43.4245,-2.06614
42.7045,1.12726,-5.69079,22.6874,-3.80113,-5.69633,18.881,-4.19636,-3.59638,19.5796,-3.46654,-4.41176,19.3949,-3.71253
2.75367,1.07459,2.98897,53.923,0.868898,2.15702,54.5465,0.581627,2.27056,54.8087,0.737669,2.16023,54.6064,0.69023
4.21425,0.697508,2.50484,16.627,5.21539,5.04652,16.6537,5.25323,5.04185,16.705,5.25337,4.88884,16.7887,5.29274
6.76176,0.176288,8.85258,17.6093,1.921,8.74435,18.6599,1.97859,8.8423,20.1718,2.68313,8.67377,19.8372,2.38207
24.416,0.471107,3.56049,22.873,1.43229,5.36038,25.8448,1.79225,6.70109,24.9607,1.99566,5.74855,25.2478,1.88297
0,0.0323897,3.31549,29.9033,6.0902,3.31177,29.9348,6.10267,3.25469,29.9238,6.08611,3.26105,29.9149,6.10216
8.12765,0.191764,-4.72262,30.9165,-4.52453,-3.99338,32.1102,-4.76965,-3.24762,31.7965,-4.47975,-3.47564,31.323,-4.44532
5.08783,0.119116,7.37851,11.3617,0.411125,7.16759,10.9033,0.284668,7.28301,12.3662,0.292995,6.6677,11.1334,0.272081
3.18208,0.0390082,5.5879,0.386274,4.10902,6.76636,0.204828,3.39717,5.90564,0.338733,3.33182,5.99955,0.276755,4.25591
1.21088,0.0921074,2.06323,1.46933,3.1889,2.13423,1.32785,3.02282,2.4432,1.2443,3.21471,1.78107,1.49003,3.37918
46.2282,0.372031,-6.85967,17.82,-0.094007,-7.07049,16.1591,-0.103642,-7.5435,17.6351,1.62753,-7.47119,16.0223,2.11138
5.68399,0.0380473,2.22273,52.8101,2.34841,1.06126,52.1908,2.70072,0.90193,52.4537,2.68167,1.98808,52.1968,2.5379
1.08746,0.29146,-8.53323,24.5061,3.15981,-8.62257,24.4557,2.38504,-8.51207,24.6147,1.95943,-8.53934,24.2794,2.91791
35.7576,0.0885444,7.82442,31.5667,5.18006,7.20399,27.7884,4.50916,7.30428,30.6168,2.89563,7.40864,30.47,3.76045
2.93414,0.0959588,-5.97424,13.2334,-3.23717,-5.73163,12.939,-3.89632,-5.87876,13.4798,-3.60636,-5.82834,13.3415,-3.78097
4.49069,0.158824,2.83684,52.2182,0.600059,2.59474,51.2249,0.771315,2.72267,51.3317,0.854989,2.98677,53.6974,0.686294
6.04337,0.00414007,-1.40968,46.5498,-1.01142,0.289405,47.6177,-1.20205,-0.684659,47.533,-1.10875,0.546189,47.2858,-1.21432
125.401,0.51806,-3.9808,24.4977,-4.18025,-1.71745,28.0746,-4.29798,-3.07757,28.1627,-4.43187,-0.970572,26.6477,-4.2914
129.402,0.483836,-3.34015,46.1892,3.87706,-0.838015,45.7054,3.86076,-0.289445,43.0218,4.1486,-1.31518,42.6014,3.9974
15.4976,0.14311,-0.855566,28.4714,-3.33576,-1.11547,31.9199,-3.7462,-1.02521,31.4096,-3.47767,-0.834777,29.7708,-3.29736
1.53556,0.132898,0.280432,16.5167,5.14768,-0.125935,15.937,4.89594,-0.307657,16.3004,4.93694,-0.16534,16.1617,4.9267
51.5577,0.161016,8.13338,8.41563,0.292049,5.31209,6.90337,0.0939209,5.42864,6.64932,0.106878,6.38194,8.66181,0.0651269
5.17719,0.339401,5.8708,11.6601,5.40632,6.95294,11.3522,5.50219,6.90319,11.0277,5.47586,6.97984,11.9492,5.56365
33.3936,0.169127,-0.30572,34.0765,-3.62296,1.2113,34.6054,-3.26142,-0.522489,30.3971,-3.21417,-0.607551,30.369,-3.24519
0.260991,0.103307,6.78115,11.7635,0.255477,6.41495,12.056,0.216354,6.30517,12.0412,0.223728,6.29292,11.9951,0.219272
8.32676,0.472665,0.85216,23.9327,-1.63668,1.22813,26.0248,-1.47646,1.29009,26.0106,-1.43725,1.11728,25.2786,-1.72581
42.2285,0.0260963,-0.557431,6.66631,-3.69332,-0.453121,4.20098,-5.01463,-0.804386,3.14396,-3.55386,-0.261367,8.26455,-4.52257
28.1711,0.0470993,0.150338,14.0793,0.225013,0.0712205,11.7481,-0.171952,0.434188,15.409,0.458589,1.41357,17.9085,0.66994
5.52149,0.0601173,-4.39491,24.0341,-4.00459,-3.2975,22.5347,-4.00565,-3.38901,23.9622,-4.12348,-3.03719,22.9388,-4.09224
0.965491,0.118661,5.84987,6.43369,5.19715,5.53706,6.10043,5.11409,5.28655,6.40811,5.17993,5.46239,6.13872,5.13042
3.87844,0.35411,7.39611,2.43652,4.0654,7.29492,2.03166,4.37138,8.23003,1.85971,4.25053,7.97231,2.6979,4.40973
29.3124,0.0623479,-0.28044,53.9902,2.92656,-0.270508,56.2007,2.1974,0.176852,55.8614,2.27865,-1.15284,56.3245,2.23324
5.46371,0.126947,-4.41256,10.5191,-4.94735,-3.95354,9.29488,-5.12553,-4.56145,11.2053,-5.01939,-3.79897,9.62288,-4.98947
0.00233743,0.0470906,-1.43095,3.97227,-5.47758,-1.53089,3.90012,-5.40512,-1.55773,4.05901,-5.69959,-1.59915,4.00642,-5.58326
0.237295,0.120135,5.09141,25.9696,6.1146,4.64682,25.9475,6.1176,4.94111,25.8866,6.06785,4.72328,25.9066,6.12189
0.0272769,0.00441057,-4.43669,24.7012,5.9273,-4.41771,24.7825,5.90173,-4.35754,24.7787,5.89855,-4.35591,24.7066,5.91593
10.506,0.031671,-2.19733,22.9286,-4.11159,-2.65213,25.0343,-4.22261,-3.35914,23.9276,-4.1236,-3.38788,24.8468,-4.19023
4.1561,0.295201,-7.9293,26.1926,5.05229,-7.98896,25.051,5.27716,-7.39356,25.5971,5.51592,-7.30344,26.7267,4.86988
6.70859,0.0773477,-6.59918,12.4335,3.79016,-6.63813,13.073,3.32913,-6.77543,13.852,3.67831,-6.77652,13.8429,3.25694
54.8762,0.352337,9.41419,4.77989,0.671284,8.10189,1.19645,1.4445,8.29599,2.36223,2.02476,8.03584,1.10679,1.77275
28.3259,0.169085,-6.48123,26.0911,-3.61904,-4.30043,22.192,-4.00075,-5.83128,23.0176,-3.8005,-4.71293,23.9956,-3.99004
4.10657,0.735961,-7.33811,14.9296,1.16086,-7.34784,16.3261,1.04745,-7.29103,16.5071,0.747412,-7.26921,15.3097,2.16422
9.76375,0.724337,-5.16619,16.7914,-4.21676,-5.80243,15.4377,-4.05718,-6.07859,17.1504,-4.00449,-5.61327,14.7472,-4.28862
17.1538,0.0284957,3.65608,37.0669,-0.0131782,3.52025,40.0287,0.0759962,3.72713,39.0026,0.362943,3.70121,40.7979,0.485335
54.2018,0.0164671,-5.6012,9.95768,-3.17582,-5.38246,13.1998,-4.83869,-6.57698,14.4211,-1.71439,-5.71161,12.7704,-3.72533
55.2839,0.055826,8.90141,17.3083,2.06834,8.80389,15.1578,2.38532,8.78483,11.796,1.7671,8.8128,11.1011,0.867003
6.23898,0.223336,-2.73301,31.502,6.18082,-2.31364,30.6541,6.16106,-1.96613,30.8558,6.17275,-3.22471,30.2832,6.10219
20.4047,0.379442,-0.299978,9.09448,4.38913,0.323068,6.85868,5.08325,-0.194175,7.10539,4.86969,0.0844369,7.85028,4.97236
0.0772253,0.0247218,-7.24607,8.06082,2.12995,-7.23244,7.96414,1.93732,-7.24888,8.10255,2.1116,-7.20257,8.04117,1.94574
5.50999,0.307405,0.948581,16.6485,-1.22201,0.648547,15.7119,-0.610001,0.792153,16.0408,-0.0116271,1.40937,16.6775,-1.90469
5.11411,0.190932,-1.85584,32.5528,5.70485,-1.16436,31.4471,6.02627,-0.192275,30.3568,6.13651,-0.490586,31.2504,6.01864
13.8332,0.582075,-6.0074,43.2088,2.51144,-6.56017,42.1487,1.63433,-6.73911,43.7855,0.584806,-4.5309,42.0973,3.70798
4.79807,0.0577984,0.54175,15.5437,-0.588339,0.806489,15.4292,-1.31885,0.434687,15.3321,-0.190876,0.246807,14.5787,-0.103459
93.0433,1.64955,-1.67604,42.3338,-4.62538,-4.40313,36.9281,-4.91333,-3.5836,36.849,-4.3064,-4.64303,37.9623,-5.03237
6.27897,0.085251,2.55229,41.1752,-2.82407,2.21133,41.5753,-2.8893,2.06407,42.9867,-2.70142,3.37782,40.4107,-2.93298
0.0365715,0.0567552,-7.96247,35.0501,6.06618,-7.89453,34.969,6.075,-7.90058,35.0525,6.08462,-7.91172,34.9868,6.00132
13.8544,0.0299287,1.71365,18.1035,5.74387,-0.265017,18.9153,5.63368,-0.23826,18.0975,5.6929,-0.405266,18.3625,5.67198
11.5195,0.414962,9.04059,6.30093,0.418584,7.61567,6.96865,-0.0118297,8.03441,7.39021,0.0967157,7.75279,5.90725,-0.182554
1.6095,0.168493,4.42421,34.4519,0.843253,4.46991,34.5555,0.635843,4.47968,34.1015,0.744475,4.94637,34.8008,0.979337
1.50699,0.110416,-2.8585,29.8047,-4.46184,-3.70824,30.195,-4.38275,-4.06097,30.4532,-4.39029,-3.78188,29.9314,-4.40292
32.785,0.07361,0.927242,33.0253,5.02973,-2.46695,33.2062,5.71957,0.325843,32.113,5.50474,-2.59193,32.5618,6.03811
9.68518,0.00143773,1.92641,18.7771,0.779905,2.73922,20.6338,0.700001,2.70104,20.5216,0.981787,2.84708,20.8325,1.21196
24.7773,0.095257,-6.08335,8.3575,-1.15567,-5.67254,5.42278,-1.66548,-6.04253,6.97671,-1.02652,-5.39729,6.66978,-2.15555
0.964954,0.0343495,-7.82662,33.5212,-2.99041,-7.82068,33.5055,-3.43596,-7.83218,34.0867,-3.31211,-7.8504,33.9787,-3.11082
49.7869,1.79107,2.49623,50.7514,0.839633,3.10497,46.6185,0.592955,2.36543,46.9372,-0.0974059,2.36417,46.9991,-0.123085
0.507649,0.0386994,-0.103357,26.6132,6.07965,-0.277515,26.2036,6.02009,-0.360203,26.2363,6.02492,-0.0953825,26.4301,6.07775
2.55183,0.380982,3.1295,33.5608,-0.245846,3.45295,34.6452,-0.73823,3.42561,34.3829,-0.476376,4.11418,33.3574,-1.772
6.42101,0.74365,-7.89305,29.3604,-0.968851,-8.17161,31.5813,-0.736924,-8.21014,31.1786,-0.584929,-8.23707,30.6014,-0.264268
0.211654,0.000860214,4.48538,32.5603,0.50551,4.87532,32.206,0.478563,4.7443,32.5116,0.490135,4.94374,32.2608,0.47508
6.26023,0.06288,-5.78652,44.2466,-2.86663,-6.71146,43.0285,-3.39679,-6.9505,42.879,-3.08487,-6.89471,42.931,-3.11777
24.5881,0.0428131,-2.07474,23.5401,5.95415,-1.45921,25.1702,5.76382,-3.47993,23.0517,5.88927,-2.36719,25.1151,5.6415
21.1538,0.376537,-5.78482,11.0806,-2.1414,-6.42535,12.3283,-2.40293,-6.69901,12.441,-1.56543,-6.18693,10.5162,-1.6624
8.01215,0.6289,6.26617,16.5913,5.13088,8.48339,16.8707,5.35082,8.42507,16.9213,5.37905,7.47553,16.0475,5.35893
3.6105,0.192695,1.056,40.2168,-3.33572,1.43441,38.7443,-3.4265,1.34905,38.5872,-3.50126,1.12838,39.3949,-3.34013
25.2501,0.915664,-0.638857,44.3002,-2.78169,1.33597,43.2081,-2.82787,0.164007,43.4865,-3.39324,2.56829,43.2358,-2.24145
2.20302,0.288762,-3.04221,47.308,3.87105,-3.54673,48.0515,3.91586,-3.54203,47.9642,3.89476,-3.80117,47.5363,3.90184
21.1336,0.234469,4.05373,6.15815,0.0396171,5.06121,4.75592,-0.168861,6.127,5.60819,0.040254,6.12165,5.56491,0.0277093
0.208223,0.0355931,-4.29671,25.4904,-4.35407,-4.29869,26.3806,-4.46999,-4.37661,26.0373,-4.42972,-4.35517,26.4099,-4.46584
7.54941,0.0755327,-3.61356,9.53232,4.33658,-3.68006,7.89358,4.72607,-3.9097,7.65621,4.72648,-2.69,10.0846,4.37357
2.81929,0.108073,6.4679,20.8107,5.5891,7.29137,20.9061,6.01027,6.28116,20.9888,5.65789,6.48777,20.1705,5.63899
0.0605342,0.0180026,-3.25014,40.9058,-4.90804,-3.11384,40.7728,-4.82726,-3.23715,40.7614,-4.87316,-3.29424,40.8191,-4.89905
0.506781,0.495417,6.62714,5.91842,5.17275,7.12428,6.0756,5.02766,7.09551,6.16711,5.02198,7.09083,6.24289,5.04003
23.7261,0.173717,4.14183,31.9643,5.43508,4.63209,34.0872,4.79913,3.60221,33.3926,4.72072,4.27639,34.0204,4.72494
40.9909,1.31112,-4.32951,3.07407,-0.495654,-5.44451,6.56828,-2.0569,-4.92927,4.8009,-2.54804,-5.38014,6.47611,-2.14954
45.5499,0.147034,-8.93414,26.8091,3.20418,-8.97713,29.6922,2.10655,-8.89239,28.7143,2.40788,-9.47842,31.0489,3.19754
0.0046151,0.00603841,5.54198,47.7972,2.89425,5.55657,47.7265,2.99847,5.54169,47.7012,2.91483,5.5336,47.7856,2.80401
0.384177,0.0350958,-0.512083,57.1991,0.205784,-0.0255797,57.078,0.450673,-0.657973,57.3218,0.283992,-0.193203,57.0735,0.340621
2.71137,0.37372,1.91847,26.9961,-2.27399,1.48509,26.417,-1.79233,1.92193,27.8601,-2.13253,1.52844,26.4551,-1.74907
0.157578,0.00751483,-3.64664,48.7419,3.88339,-3.79606,48.8628,3.87829,-3.72026,48.9153,3.85403,-3.63783,48.9189,3.84212
22.471,0.647271,2.91723,34.2154,-2.43853,2.09424,31.2574,-1.45273,2.41201,32.0334,-1.95847,2.67901,32.1399,-1.59393
1.27555,0.0216086,-7.55397,37.8097,5.82437,-8.38931,38.5904,5.54399,-8.38895,38.495,5.5772,-7.97235,38.0589,5.74469
2.19827,0.221316,2.67785,19.1888,4.85022,2.90889,18.93,4.91012,2.80766,19.4749,5.14805,1.52639,19.3681,5.6834
1.21293,0.0249945,-2.30633,55.2891,2.68743,-1.58357,55.0553,2.76541,-1.8699,55.5494,2.59538,-1.88004,55.3164,2.66968
7.25082,0.657745,2.64224,15.1184,0.684566,3.59772,15.9905,0.89134,2.27964,16.3064,0.615126,2.11075,16.3415,0.575367
5.24355,0.195249,4.58238,46.9418,2.17574,4.8191,45.5387,1.69331,4.77756,48.2961,2.3881,4.47986,47.4606,2.05104
1.79278,0.0200144,-10.0369,38.6861,3.12308,-10.1237,38.6723,3.33378,-10.2984,39.1609,3.63298,-10.2749,39.1791,3.55094
74.2397,0.483698,1.45565,12.1175,0.310768,3.63904,14.1893,0.701097,3.67656,15.656,0.845056,5.19428,12.9693,0.354902
19.9736,0.489501,2.93095,32.5165,-0.211824,2.49853,30.0775,-1.1593,2.61333,30.3526,-0.830405,3.46986,32.6283,-1.08988
1.56661,0.128938,-0.888225,42.7614,-4.40134,-0.620166,43.2494,-4.1946,-0.414874,43.2433,-4.08841,-0.647277,42.924,-4.15717
0.0497207,0.0230909,4.28917,17.9665,0.758183,4.74732,17.8362,0.755649,4.76015,17.8797,0.758768,4.53736,17.8771,0.745182
0.516877,0.00306338,7.39606,5.25982,-0.0975295,7.34245,5.60196,-0.133961,7.64611,5.26314,-0.108138,7.5457,5.5139,-0.130824
8.7947,0.0698198,-3.41236,3.28832,-2.41165,-3.07569,3.30131,-3.1334,-3.62586,3.73335,-3.6547,-4.21264,3.75606,-2.93666
21.4979,2.56442,3.53938,51.7182,1.46732,3.33439,47.0577,1.10436,3.63629,47.5125,1.36549,4.24659,48.4528,2.00235
0.245026,0.0836206,-0.237377,11.9548,5.32714,-0.391967,11.8574,5.2574,-0.557764,11.806,5.26107,-0.490385,11.763,5.27745
56.3685,0.231082,-4.24754,35.8965,4.73543,-2.95086,33.2718,5.85681,-4.24719,33.4355,6.06274,-3.26204,33.1096,5.99391
24.4337,0.823576,1.01077,10.1871,5.14979,-0.387481,9.13844,4.37199,-2.85792,10.3471,4.36856,-3.5097,11.3874,5.28512
2.58115,0.769719,7.88821,0.230013,3.23298,6.83433,0.591097,2.29615,6.68442,0.578445,2.29908,6.48074,0.571157,2.32789
7.0558,0.0783289,0.563861,44.3526,4.00571,1.67611,43.9128,4.02242,1.65437,44.4154,3.99202,0.650615,43.4434,4.1356
0.707838,0.122749,-7.09939,8.9672,2.61876,-7.22815,9.3098,1.826,-7.09166,9.09585,2.25293,-7.20157,9.12769,1.96984
0.273337,0.234565,1.18492,56.66,-0.265806,0.762617,56.7247,-0.446033,0.878256,56.6492,-0.463049,0.816992,56.6749,-0.454426
0.82317,0.163346,-10.5175,38.4192,4.36701,-10.3147,38.7402,4.76483,-10.3222,38.7114,4.90762,-10.2344,38.7884,4.88396
8.94001,0.0385559,-8.21597,28.7784,0.360362,-8.12045,28.0867,0.0125611,-7.7604,28.6295,-0.951096,-7.70322,29.0782,-1.11147
0.0282925,0.00652367,-6.74481,7.08546,0.958862,-6.70592,7.20494,0.956118,-6.75208,7.16366,0.985665,-6.72083,7.06621,0.918919
36.7736,0.859849,8.78453,11.7075,1.74317,9.28944,8.06857,0.660997,9.26639,6.70942,0.524237,9.50671,8.50606,1.03952
0.065882,0.00337858,-5.39341,5.9905,4.94638,-5.46251,5.99985,4.92245,-5.39976,6.07797,4.94578,-5.51205,6.07357,4.91156
63.7054,1.78093,-8.76218,39.0916,-1.50875,-8.16281,34.5051,-0.595905,-7.97383,34.425,-1.12331,-8.38253,34.2622,-0.168925
9.88935,0.213794,2.59652,43.6008,-1.65623,-0.678502,44.9582,-1.19487,-1.0979,45.0939,-1.07197,3.22688,43.6103,-1.72546
0.177243,0.0294065,9.14401,19.5517,5.1881,9.13618,19.437,5.23266,9.2345,19.6491,5.03498,9.21431,19.5732,5.04027
1.77868,0.0140045,-5.14713,12.5499,-5.04995,-4.85826,13.6388,-4.87847,-4.92891,13.58,-4.91136,-4.92087,12.9855,-4.94459
15.5482,1.07433,-9.26972,33.4705,2.41489,-9.32279,31.8442,2.34427,-9.62939,31.5435,3.40391,-9.8179,31.4225,3.94959
4.0806,0.289048,-2.65355,38.5228,-4.20934,-1.7179,38.992,-4.22982,-2.25362,38.2009,-4.12829,-1.58066,39.2479,-4.28792
2.44366,0.222634,0.00380596,25.6742,-3.60481,-0.201627,24.7456,-3.69329,-0.146802,24.7141,-3.48941,-0.215884,24.5698,-3.78277
4.00807,0.193839,-5.33525,43.816,-3.96541,-5.86678,43.5923,-4.71816,-5.05859,44.1449,-3.79748,-5.25486,44.6397,-2.90234
7.52662,0.264648,7.64315,18.5356,1.51923,7.8591,21.2607,2.45191,7.64156,20.74,2.1255,7.70948,21.2046,2.35388
2.50372,0.100101,-1.06384,44.3978,4.06962,-0.279765,44.9013,4.02918,-0.487976,44.4787,4.11834,-0.790383,45.2835,3.9956
22.9516,0.0329109,-9.04005,31.5768,5.46505,-9.81093,32.2334,4.58423,-10.0333,34.3484,5.29409,-10.3301,34.4778,4.86656
2.69834,0.0495761,8.95425,18.6322,4.91883,8.46203,17.074,5.39609,8.50366,17.1397,5.35643,8.52246,17.0663,5.32995
3.78859,0.0559733,-4.34926,39.2491,-4.83571,-4.86042,40.2941,-4.91712,-4.38089,40.8472,-4.90297,-4.44396,40.3455,-4.8726
8.90839,0.188511,4.60458,40.7342,2.97995,4.42258,41.85,2.12881,4.29997,41.7557,1.65777,4.36945,42.7776,2.34185
32.0404,0.581208,7.59507,32.0622,4.78031,6.77914,32.4752,2.5845,7.21795,33.054,3.89735,7.21609,33.3054,3.25368
10.03,0.00559781,-5.55723,10.0929,-2.01986,-6.19784,9.75301,-1.42216,-5.49559,9.28404,-2.11287,-5.7108,8.29335,-1.93758
6.32748,0.121356,-0.599457,5.25285,4.87148,-0.697955,4.83062,4.74341,-0.506139,7.17263,4.65777,-0.351639,7.1807,4.69956
0.82531,0.0903031,5.12151,37.1215,3.01882,5.01854,37.1942,3.44681,5.21325,36.7191,3.26734,5.01044,37.1131,3.51128
8.03771,0.501416,3.88224,28.6429,5.22504,3.73941,26.3951,5.66306,3.26656,29.1635,5.69768,4.7858,29.0149,5.79974
60.5039,0.146722,-2.01749,37.2966,4.54843,-2.40774,41.9409,4.01694,-1.27283,39.3906,4.30754,-3.23876,40.6583,4.04151
0.00698781,0.0232238,7.26553,35.3614,4.7052,7.30647,35.2336,4.64246,7.24749,35.2844,4.58495,7.32717,35.2954,4.71264
0.234894,0.0230085,-3.27859,31.1518,6.15695,-3.27442,31.0145,6.16039,-3.48361,31.0031,6.15381,-3.34105,30.9607,6.151
2.28895,0.323971,3.39373,9.41737,4.84958,4.03108,10.2354,5.13533,4.22878,10.064,5.0925,4.35358,10.3917,5.09571
141.695,1.43656,-6.45073,40.158,4.22073,-4.72041,36.7328,4.75759,-9.88467,34.6726,5.71897,-7.79409,37.2046,5.59292
0.0132588,0.035876,6.18886,28.9267,6.11715,6.14454,28.8322,6.1125,6.1417,28.787,6.13486,6.22048,28.821,6.1381
0.0582311,0.0244525,8.05255,16.2127,0.645312,8.23934,16.2237,0.687259,8.23874,16.2649,0.693216,8.08249,16.3013,0.643022
0.480433,0.058989,-2.83707,28.491,-4.42995,-3.53432,28.5871,-4.52733,-3.54833,28.5455,-4.52456,-3.65083,28.4343,-4.53065
29.3191,0.0351699,-1.77327,12.4965,-3.92675,-3.79849,10.8212,-4.82981,-3.16501,9.86883,-4.85592,-2.35374,10.1335,-4.56736
4.84118,0.31256,4.50308,23.5135,6.04632,3.99631,22.4694,5.52101,3.49936,22.0817,5.22725,4.45935,22.456,5.9033
0.637557,0.0719672,3.22668,48.6824,3.46879,3.68838,48.3082,3.51708,3.52853,48.1457,3.56312,3.60251,48.1997,3.54827
2.54727,0.324147,2.47907,26.7554,-1.3452,1.04127,26.1311,-1.56094,1.20537,26.2124,-1.42712,1.12861,26.258,-1.72511
0.0149126,0.0471315,2.33954,37.3503,4.25776,2.31604,37.4566,4.22115,2.34434,37.4422,4.24328,2.4127,37.3549,4.26494
7.1887,0.174586,4.97162,2.8116,4.28403,4.96598,2.05247,4.27772,4.71691,3.18608,4.51618,5.92936,3.40185,4.77211
0.00429671,0.0370063,7.77825,31.8955,4.19264,7.78401,31.9555,4.19724,7.77096,31.9491,4.15522,7.76198,31.9588,4.04812
18.1868,0.278782,6.94947,26.6138,2.78109,7.20402,25.1797,4.59281,7.19866,25.1785,4.54934,7.26245,23.3855,2.06845
1.47725,0.582493,0.758613,20.5719,5.71951,0.873002,21.3098,5.74627,0.759636,21.2555,5.69504,0.659887,21.2029,5.67531
2.12557,0.0728485,-9.4912,37.1516,2.3028,-9.52419,37.012,2.20137,-9.66851,38.1618,2.26752,-9.77522,37.4839,2.93334
15.474,0.38683,-4.3014,13.2556,4.76619,-5.39078,12.7597,5.1929,-4.35349,14.0812,5.07107,-2.10372,11.7753,5.32907
0.79302,0.143835,6.49973,23.8473,6.16642,5.71774,23.6671,6.13346,5.7167,23.7131,6.1327,5.83705,23.9018,6.15872
9.3784,0.461644,5.76893,16.0398,4.69595,5.53364,14.1153,5.04413,6.55948,16.315,5.12644,5.11155,16.7519,5.2513
3.54439,0.497759,-0.276753,7.14429,-4.98451,-0.395604,4.64107,-5.22661,-0.41261,5.08637,-5.01399,-0.434038,4.97842,-5.14169
1.49803,0.0181379,9.11056,5.87835,0.354192,9.35505,5.43044,0.688554,9.0822,5.57057,0.220064,9.35992,5.29502,0.645257
0.243186,0.00680242,-3.24449,23.8455,5.91848,-3.31256,23.8399,5.92317,-3.26305,24.1175,5.9164,-3.18495,24.1658,5.91755
115.363,0.527825,0.322248,48.3342,3.26613,1.63315,45.056,3.96165,-1.90037,45.9549,3.88953,0.713071,44.4998,3.98053
0.0106221,0.0472486,-6.57409,3.58123,3.83488,-6.59154,3.50533,3.78272,-6.5966,3.47486,3.79043,-6.57055,3.45836,3.82102
6.50422,0.353538,-0.510657,3.53685,3.75038,1.07443,3.33806,4.20574,-1.13851,5.18197,4.9214,-0.826384,4.82276,4.67155
0.451085,0.0950301,7.67286,30.3939,5.56249,7.66624,30.2834,5.75266,7.71259,30.2135,5.6255,7.836,30.4885,5.48628
9.73426,0.049546,-0.412241,36.0062,-4.05603,-0.457656,38.3754,-3.82322,-0.625746,37.0794,-4.10593,-0.251776,38.2465,-3.70941
14.3953,0.204854,1.35849,2.24359,1.10814,3.76749,1.42652,1.52287,2.63549,1.23136,2.3276,2.68869,1.61838,1.48875
0.83346,0.030935,-0.101625,33.4205,5.18676,-0.640288,33.8432,5.27332,-0.726753,33.8435,5.29847,-0.56932,33.6194,5.27275
32.664,0.3557,1.25787,11.1298,0.302002,1.31677,8.07883,-0.378029,1.71682,7.9484,-0.267876,2.73627,9.29769,0.191399
22.7153,0.0813107,-7.11203,10.4215,0.906301,-6.62766,9.69262,-0.590463,-6.73226,10.5538,-0.67972,-6.93317,9.55341,0.47618
14.9338,0.0246195,6.12075,12.1828,5.49292,7.22463,14.1156,5.58743,6.51251,13.8968,5.52655,7.19925,12.1889,5.55535
18.0795,0.184929,4.62857,16.3164,0.854406,3.02205,16.8541,0.743057,3.87657,13.7761,0.680427,5.26814,14.8743,0.629644
0.0193018,0.0172587,-1.52152,44.9172,3.93794,-1.50099,44.8275,3.97999,-1.56634,44.8384,3.95245,-1.56528,44.9156,3.93977
6.4853,0.162852,3.54533,47.0058,1.30551,3.77315,45.7515,1.06437,3.18623,47.0327,0.911507,4.01684,44.8229,0.727803
20.2776,1.578,0.55139,55.6537,2.2842,2.32922,54.1972,2.46907,2.089,55.8379,1.97418,2.17912,55.0639,2.06752
0.357104,0.0595135,5.76067,35.8182,4.38785,5.64491,36.0961,4.15147,5.51413,36.2223,4.0816,6.0277,35.872,4.26474
5.22381,0.0562373,-7.36993,30.2791,-3.02657,-7.22797,29.8249,-3.75103,-7.82527,32.2839,-2.93677,-7.78334,32.2331,-3.14335
5.97412,0.466059,-2.52398,7.71414,4.4644,-0.867751,7.7093,4.80686,-3.13085,6.96939,5.01706,-3.04882,8.61368,4.92575
2.13996,0.0764697,-2.1208,2.293,-0.00588191,-1.83074,2.13501,-0.189641,-2.65081,2.38992,0.475047,-2.80557,2.31719,0.0412185
8.62193,0.322594,7.60728,31.3215,5.96458,6.60885,31.2601,5.96972,6.9569,30.8274,5.96588,7.12982,32.1408,5.55859
2.67439,0.276045,5.89332,17.2452,0.813556,4.66857,17.3817,0.800333,5.46733,18.5503,1.10269,5.35177,17.8531,0.853168
1.10087,1.09467,7.87571,14.043,5.24884,7.92504,15.155,5.1061,8.05945,15.115,5.0699,7.97357,15.1396,5.08338
1.58819,0.0266255,-0.750094,17.9824,-2.57834,-0.655534,17.3233,-2.5371,-0.612784,17.9643,-2.53705,-0.754029,17.275,-2.54708
5.87112,0.429244,5.01765,10.7305,4.70911,4.87196,9.72326,4.6852,6.49525,10.9587,5.4163,4.31206,11.125,5.3243
8.7492,0.350897,-2.19816,8.82241,4.39385,-2.55611,8.22381,4.72262,-2.58343,9.59398,4.8061,-0.819369,8.86102,4.6977
0.00871308,0.00135208,-5.38373,34.8119,6.16738,-5.3507,34.7418,6.22294,-5.38639,34.7939,6.16841,-5.35906,34.8213,6.20143
4.51373,0.0285832,7.47413,1.3624,0.574536,7.04034,1.18815,0.701126,8.22348,1.60059,0.297054,7.83717,0.991627,1.68038
1.31779,0.0275928,7.03026,31.6568,2.82861,7.02773,31.3693,2.75138,6.93401,31.1046,2.49642,6.85118,31.1727,2.40198
28.8519,0.293232,8.58565,18.3249,3.57448,8.89324,16.3937,2.34968,9.09067,15.8027,3.0452,8.64818,19.7199,3.18568
24.5638,0.209929,-5.05226,47.5658,0.231837,-5.44497,49.1546,0.196895,-5.52522,48.3296,1.41903,-5.59472,49.8411,0.684147
14.0223,0.424875,0.931202,2.63881,-0.538021,0.398721,4.25003,-0.805844,0.510116,5.00036,-0.260751,0.363301,5.22055,-0.283357
5.16309,0.263609,5.29999,9.55179,4.48905,7.32859,9.53889,4.87104,5.07538,9.85493,4.6892,4.82563,8.75852,4.87807
13.6381,0.14083,-2.06719,52.9165,3.06524,-3.60583,53.8761,2.92098,-3.13004,54.5039,2.91746,-3.70034,54.4703,2.84996
9.66016,0.102407,1.52792,19.9657,5.50447,2.73823,19.9371,5.56705,-1.4508,19.8058,4.9727,-1.3932,19.9508,4.99252
19.2082,0.719883,2.10908,36.6321,-3.18492,1.43325,35.3632,-3.08818,1.10713,34.7956,-3.43305,0.0431772,34.8335,-3.96947
0.938689,0.0165555,-8.30455,30.5163,5.82491,-8.42026,31.1016,5.86699,-8.54452,30.9564,5.83138,-8.57002,30.409,5.78218
23.233,1.39539,8.19176,7.23593,2.79153,8.13861,10.9688,3.45834,7.90816,10.1581,3.56502,7.56082,9.10312,3.58386
1.20706,0.191195,-2.35014,45.7732,-4.02161,-2.7358,45.3617,-3.41437,-2.53926,45.1629,-3.42784,-2.48114,45.1312,-3.44367
0.320179,0.212521,-3.70534,20.1478,5.69209,-3.68712,19.809,5.682,-3.75613,19.791,5.71225,-3.61224,19.7642,5.7005
15.8982,0.150586,-4.37229,41.4204,3.76004,-3.47757,39.0863,4.47239,-5.64467,40.1995,4.41608,-3.45572,40.417,4.09242
0.511932,0.222448,-4.37476,4.6584,-5.58246,-4.07185,4.73562,-5.95325,-4.09856,4.81229,-5.98498,-4.16021,4.85551,-5.99105
5.58229,0.0706712,1.79592,29.342,-1.92532,1.91753,27.9276,-2.18211,2.00484,30.4454,-1.92447,2.57487,31.2389,-2.5798
0.294403,0.0309357,4.62907,1.13273,4.39851,4.70483,0.800213,4.46511,4.84766,0.665894,4.53768,4.55001,1.02295,4.3885
91.0296,2.65838,7.80423,6.96382,3.19033,8.6733,3.70573,2.02396,8.36909,3.06727,3.2149,10.162,5.86743,2.05472
17.1362,0.551486,-2.32632,19.8962,4.75116,-3.30889,18.4916,5.66957,-2.97104,21.1589,5.73528,-1.45771,19.9454,4.98026
116.386,1.62024,-6.53218,12.0745,3.97131,-6.8823,5.3289,4.22941,-6.41468,6.80245,4.1099,-6.7036,5.23192,3.27371
36.8301,1.22512,-1.0662,10.8184,5.11799,-1.11774,16.3432,4.95892,0.533762,12.4113,5.37415,-0.613248,13.8062,4.69528
39.4541,0.0111504,-4.0897,42.3955,3.84463,-5.52333,44.0222,2.10545,-4.6376,44.8409,2.97477,-5.43857,44.9386,2.08965
8.39802,0.819045,-1.55781,3.38943,1.83696,-0.0650881,2.51308,1.41884,0.197131,2.18622,1.13911,-0.219186,2.6669,1.60548
9.83174,0.485307,3.73971,26.3056,5.67488,3.50785,23.5967,5.96935,3.64603,23.65,5.99673,3.75728,24.0246,6.03817
7.11942,0.440733,-5.42764,15.6599,4.19559,-4.81044,16.023,4.81693,-5.55518,14.5463,4.49191,-6.5409,16.0713,4.46924
1.83852,0.117343,7.52946,21.8582,2.65025,7.61907,22.1716,2.75582,7.43245,22.2191,2.16448,7.66934,21.341,2.33021
72.231,0.873942,3.13046,25.4731,0.440099,3.6231,28.5838,0.551142,4.2188,27.8183,1.43562,3.48789,26.5615,1.43338
9.15161,0.0941555,-1.08854,33.1502,-3.99223,-1.57039,34.6229,-4.26155,-1.09811,31.9532,-3.65098,-0.96943,34.778,-4.21346
2.18701,0.440779,1.26515,16.8725,-1.25734,1.50895,17.9852,-1.11444,1.45221,17.3936,-0.735539,1.56219,17.9211,-1.22145
3.79792,0.517563,-3.77811,16.2244,4.95388,-1.72198,16.4026,5.04807,-1.25785,16.293,4.98422,-1.47879,16.2397,5.04103
0,0.00401331,-2.19904,18.3006,5.597,-2.13607,18.3181,5.61661,-2.19476,18.2902,5.59424,-2.13613,18.2867,5.61632
0.0223305,0.0781559,-4.32102,57.561,0.303012,-4.3884,57.4466,0.481149,-4.35601,57.4357,0.430184,-4.33972,57.4848,0.431711
4.5492,1.29082,2.35838,29.705,-1.33861,2.48151,26.8219,-1.38338,2.60264,27.0196,-1.37533,2.57915,26.8909,-1.31317
0.016063,0.00180024,-1.85686,17.9861,-3.36271,-1.80661,17.8808,-3.34208,-1.75237,17.9235,-3.3135,-1.86022,17.9421,-3.36759
16.3006,0.216485,-3.40075,31.9692,-4.51705,-2.27537,32.2598,-4.47684,-2.62025,34.2698,-4.30673,-3.65476,34.1702,-4.52812
22.0958,0.389461,-4.80751,19.3262,-3.79342,-5.90955,18.4103,-4.26102,-4.83068,17.4166,-4.23289,-3.97588,17.3398,-4.19264
24.7619,0.320736,5.0147,35.0199,0.975211,5.39431,37.3642,1.51396,5.19263,37.6297,2.10239,5.15842,37.1204,2.05432
0.503379,0.119463,-6.25095,33.7891,-5.33758,-6.26822,34.7183,-5.26095,-6.31427,34.7561,-5.24159,-6.43758,34.2592,-5.31721
68.6277,0.0659975,-5.47902,30.0224,5.96571,-6.58961,32.5651,6.08632,-8.27506,31.1553,5.88157,-7.90162,32.0284,5.97893
14.9739,0.180306,7.34784,4.08785,4.48758,8.01446,3.5328,4.48709,7.24246,2.32345,4.72593,7.5311,5.26437,4.60875
74.2389,0.201254,2.71007,27.1251,5.55368,1.09469,24.1477,5.63942,0.987501,25.2959,5.55083,2.14035,23.8865,5.8478
22.0315,1.14831,3.29174,21.7871,5.04821,4.46691,19.21,5.84576,2.1667,21.881,5.89498,3.18287,19.3971,5.15152
26.7311,1.00983,-6.89671,19.8304,-0.839227,-7.21046,21.8571,-0.651406,-7.40758,21.6816,-0.397042,-6.92,21.3129,-1.89966
0.0228033,0.00665903,-4.67229,9.59975,5.09052,-4.71696,9.63392,5.06163,-4.71954,9.66459,5.07376,-4.67652,9.67295,5.11197
3.4931,0.363131,-4.02581,55.5092,2.22961,-3.53528,56.611,1.60219,-4.27516,55.9635,1.71572,-3.55162,56.3611,1.66629
41.0943,0.163398,-5.47793,9.84931,-3.32055,-5.42871,6.76623,-2.47223,-5.27271,5.43046,-4.41659,-5.45093,7.25494,-3.02694
6.91056,0.0526593,-0.401555,2.92288,-1.51289,-0.343195,4.48892,-1.87098,-0.37738,4.21357,-1.65578,-0.415502,2.90811,-1.92698
21.6166,1.34417,-7.50363,39.2787,5.60965,-8.73874,39.9361,5.21402,-10.1805,38.293,4.97656,-9.12119,39.4582,5.10319
15.9731,1.0414,9.24641,8.07591,2.90668,10.4902,8.30004,2.3634,10.3594,9.0963,2.74099,9.9768,9.86452,2.97359
79.4444,0.99922,-1.0605,35.5626,4.84035,-4.63723,37.6061,4.73477,-4.13217,38.275,4.6569,-4.25234,36.5764,4.59169
2.23749,0.352421,-2.96003,29.1999,5.38741,-4.07534,29.0919,5.44995,-4.1603,29.1377,5.47942,-3.76874,29.0172,5.45989
7.92742,0.285273,-4.64007,49.2791,3.37617,-4.39424,48.2332,3.58189,-5.05827,48.2985,2.72886,-4.07145,48.0251,3.8898
4.65955,0.379312,1.71011,18.533,0.785801,1.6435,18.7263,-0.0639621,1.35618,18.0146,0.603218,1.6747,19.0423,-0.405998
0.00617331,0.00309403,-6.09005,24.5999,5.81556,-6.12505,24.5941,5.7994,-6.07127,24.5215,5.82576,-6.1221,24.5627,5.79952
37.8967,0.359388,2.5584,32.7414,4.73064,0.788959,33.3299,4.91771,0.79231,33.3758,4.89361,3.70999,32.0247,5.45237
36.7654,0.373139,5.69034,32.2669,5.01205,6.99787,35.1737,4.97447,7.38142,34.5738,5.21451,7.53663,32.4276,5.48058
4.28157,0.241766,1.74546,30.9554,-1.37632,2.32113,29.9427,-1.3482,1.87182,31.2068,-1.5358,2.00757,30.2216,-1.73102
4.56164,0.12138,1.55874,56.0445,0.954473,1.36381,56.9053,0.926931,2.305,55.0293,0.818092,1.5001,56.4426,0.880726
18.7674,0.963036,4.82329,40.4371,-1.38346,3.69051,42.0374,-1.06878,3.52503,36.5427,-2.23572,3.61428,36.6509,-2.08436
1.37825,0.0768801,-3.46089,4.06483,-4.44676,-3.73334,4.07451,-4.49723,-3.52507,4.13462,-4.85872,-3.44008,3.91119,-4.25217
20.6806,0.866075,-3.66551,2.55823,-0.582695,-2.7911,2.30639,-0.203145,-2.08538,2.91537,-2.13246,-1.91254,3.04558,-2.74655
11.191,0.307292,0.528999,52.7064,2.68129,-0.503611,51.9601,2.57872,-2.02532,52.5037,2.93982,-2.25956,51.669,2.96874
5.19684,0.0966964,1.76665,22.1826,-1.42555,1.82814,23.3918,-1.4119,1.99479,20.7111,-1.45304,2.1517,21.7748,-1.22853
2.96577,0.0138944,-5.44054,11.6834,-4.97131,-4.86829,10.9435,-5.11663,-5.32699,10.3202,-5.47714,-5.49439,10.2647,-5.54303
2.36445,0.16824,1.3929,31.0853,-3.10076,0.483183,32.0627,-3.18388,1.05449,31.9518,-3.16367,0.769009,32.2475,-3.24149
0,0.0250183,0.131276,30.0166,6.08049,0.0929631,30.0343,6.04127,0.131051,30.0431,6.07546,0.0942021,30.033,6.06226
0.0360383,0.00176675,8.60769,8.79081,0.310275,8.57452,8.70942,0.311655,8.71084,8.72996,0.292455,8.4379,8.74154,0.334405
86.1378,0.120256,-6.60922,18.7103,-1.99365,-6.84471,21.5074,-2.45305,-6.72517,21.9235,-3.44566,-6.33736,19.9835,-3.86753
0,0.0134051,-4.71941,5.02109,4.86026,-4.71992,5.06003,4.85347,-4.75227,5.05473,4.81999,-4.76233,5.03061,4.82633
12.6538,0.460942,1.58116,52.1576,-0.532527,-0.393785,51.5772,-0.904797,0.116997,51.1285,-0.754288,-0.608587,51.7241,-0.973346
16.7959,0.16519,5.72993,35.921,3.1987,6.33945,35.2473,3.60886,5.62394,35.1223,1.61693,5.20197,36.8149,2.24396
1.15668,0.0358679,5.14928,30.7927,0.682098,5.06946,30.1095,1.10025,5.18839,30.2745,1.04374,4.6764,30.6952,0.621526
0.0120517,0.0232997,-9.42384,34.4702,5.7997,-9.39134,34.5055,5.85249,-9.39528,34.4726,5.85314,-9.43938,34.4431,5.82042
110.484,2.13605,-4.28192,15.7724,4.63919,-2.61812,12.624,5.4244,-1.48862,15.6923,5.17345,-1.98971,14.7107,5.36421
3.03511,0.371247,2.37534,16.5704,5.20416,0.663717,16.4386,5.18241,0.35169,16.522,5.15277,0.371985,16.4698,5.13263
0.0957291,0.00510753,3.96452,42.8249,-1.56258,4.02187,42.5198,-1.43316,3.88326,42.7754,-1.43957,3.81129,42.8053,-1.38169
0.447565,0.0342777,3.82225,4.46067,-0.566242,3.53458,4.83795,-0.604761,3.61891,4.81898,-0.581767,3.62125,4.54978,-0.647284
7.91535,0.172397,9.46407,5.75425,1.75407,9.72255,6.95235,1.40441,9.47173,5.17935,1.58365,9.54919,6.97777,1.00832
6.39982,2.22537,-0.393281,20.2735,-2.36994,-0.858915,18.1093,-2.73847,-0.806793,18.0899,-2.66322,-0.632402,18.0321,-2.53322
0.993078,0.0450295,-8.49405,24.061,3.18585,-8.61124,24.1204,2.44994,-8.52741,24.0414,2.76595,-8.48767,24.3447,3.32906
31.5457,0.169136,3.74723,7.05641,4.86295,3.31805,9.37149,4.82427,3.91236,8.81333,5.14839,2.938,9.0367,4.61605
0.111007,0.222149,-4.46575,33.9117,-5.0487,-4.71191,33.9674,-5.12311,-4.72494,34.0084,-5.10124,-4.71442,34.0625,-5.0957
3.20372,0.209188,-7.48312,30.0151,-2.88547,-7.36083,28.6067,-2.71299,-7.3786,28.6346,-2.65348,-7.52722,29.1012,-2.50757
33.4694,0.00256987,-2.11746,48.3887,-1.03798,-2.24527,50.2175,-1.30272,0.00220147,49.3022,-1.01206,-0.877085,50.8106,-1.28816
18.9044,0.183673,6.89204,23.1092,6.09846,5.61738,25.1269,6.18407,6.33286,25.3478,6.2096,5.96592,25.4662,6.19143
0.0477573,0.0440353,-3.53777,17.9411,-3.90388,-3.42381,17.8574,-3.83502,-3.46864,17.7938,-3.84701,-3.50617,17.7932,-3.87815
8.77961,0.134581,2.19002,15.1803,4.85973,5.05841,15.9759,5.32547,4.79011,15.7767,5.35676,2.07112,14.8529,4.87225
17.8853,0.0273264,-4.76578,30.7278,-4.43726,-5.87476,28.2759,-4.11188,-3.76217,30.7635,-4.37616,-5.74848,29.4139,-4.3129
134.393,2.85922,-3.51442,4.71777,-6.07745,-5.51722,7.48161,-6.02153,-2.9251,9.50046,-4.85967,-1.77627,10.2912,-4.50233
10.587,1.01834,-7.23226,15.1059,2.35581,-6.9822,16.353,3.14727,-7.55974,17.2326,2.76007,-6.94937,15.905,3.28229
13.6638,0.00640224,0.219243,22.5205,-2.11977,-0.557124,20.5886,-2.43538,-0.395595,20.459,-2.33628,-0.69248,21.1861,-2.5506
8.57681,0.155696,5.18546,31.7357,5.16657,5.33235,32.1551,5.06139,5.07758,30.7279,6.00543,4.36246,31.8757,5.42461
3.1548,0.0598449,-0.265227,24.3158,-3.53085,-0.514708,24.0043,-3.27381,-0.203913,24.7352,-3.5854,-1.28668,24.0546,-2.91229
5.15238,0.0705611,-0.431052,4.51951,-1.37258,-0.37713,5.30948,-1.87817,-0.301331,4.98579,-0.96172,-0.218255,5.91812,-1.93587
18.1694,0.0670764,2.45032,45.2876,3.7584,3.05208,43.2597,3.65831,2.11729,43.159,3.88472,3.01479,43.9447,3.62958
0.157288,0.0819859,-5.57232,9.91807,-3.68875,-5.6186,10.0487,-3.79689,-5.66168,9.94196,-3.87422,-5.6048,10.0781,-3.74183
45.9547,0.574934,-8.8812,28.7277,4.03684,-9.36425,31.3187,4.99055,-8.68555,31.0427,5.78411,-8.64942,27.0185,4.85549
6.37843,0.329774,7.83151,19.5883,5.1465,7.92844,18.4132,5.81376,8.98686,20.1622,5.31272,7.45196,19.8522,5.42098
4.37608,0.124339,-0.277205,57.3758,0.725536,1.37857,56.9275,0.953579,1.42889,56.5471,0.212031,0.181467,57.0028,0.49442
3.31508,1.74161,0.560177,46.3879,-1.1804,-1.61863,45.7933,-0.957151,-1.66853,45.9439,-0.958399,-1.72169,46.0513,-0.975769
5.71589,0.000619674,-4.51475,38.758,4.61408,-4.37712,38.1708,4.72733,-3.02555,38.5678,4.50478,-3.18215,38.1924,4.60222
8.89552,0.149641,-7.01138,31.8429,-4.39761,-5.2361,31.6925,-4.87903,-5.51139,30.8051,-4.67184,-5.50438,31.1247,-4.72816
1.01518,0.108196,5.52268,13.8283,5.0902,6.5812,13.536,5.59547,5.43232,14.0112,5.09339,5.6811,14.0789,5.10348
20.955,0.167685,2.14161,49.1761,3.13269,1.84221,50.4902,2.89764,3.60061,49.6681,3.25765,3.29875,48.8695,3.47521
24.7737,0.464508,6.23761,21.9857,5.15642,5.43341,23.6956,6.12897,7.55116,22.1846,5.3478,5.74341,20.3143,5.48364
62.2937,0.209861,-2.67365,29.3865,5.32823,-2.95055,26.6867,5.5726,-2.02082,26.0511,5.77679,-0.482971,28.7381,5.44248
7.10459,0.217812,2.21127,2.26395,0.591938,1.6262,2.4906,-0.141712,2.58295,2.15117,-0.156786,2.19269,1.74384,1.39026
40.7318,0.387838,2.12347,29.1302,-3.00417,0.00991852,24.7619,-3.34348,-0.323362,23.3782,-2.82199,-0.16334,23.5246,-2.72264
125.861,1.39965,5.52992,31.2493,0.842487,6.06896,35.0347,2.62509,6.51542,32.5545,2.27442,7.05194,26.6056,4.50866
16.0428,0.115274,-3.78173,22.2521,-2.29422,-4.17262,21.5969,-3.19601,-2.50601,23.0412,-2.27601,-2.79726,22.0859,-3.46943
0.0777542,0.0132925,1.77442,22.1801,5.95913,1.77726,22.0913,5.96432,1.63854,22.0875,5.95188,1.64422,22.1301,5.94351
41.067,0.253721,-1.31052,52.4512,-1.17524,-1.52838,53.5992,-1.46818,1.179,48.8664,-0.700927,0.568699,48.6967,-0.938468
2.78915,0.150281,2.7395,45.2558,-0.0292728,2.2772,46.0819,-0.174888,2.22863,45.6279,-0.167144,2.66713,46.035,0.0435792
61.0938,0.0365552,6.4892,4.76638,5.10666,6.172,8.46488,5.27004,5.19957,5.668,5.13325,5.73605,8.35484,5.25124
6.43817,0.079637,-3.50012,34.1338,-4.46878,-4.37284,35.3253,-4.87038,-3.89861,36.0038,-4.61778,-3.48781,34.9174,-4.38003
4.98972,0.286602,-1.74775,45.0711,-1.02798,-0.680852,44.3485,-2.54742,-1.18958,45.0422,-1.08127,-2.09091,45.6177,-1.14137
40.4517,0.757629,3.42952,1.92867,3.82329,4.57427,2.78012,4.36842,7.26769,1.74864,4.31333,7.56952,0.713601,4.45013
0.0341757,0.0294353,-4.82154,5.69991,-6.19486,-5.20349,6.19388,-6.19003,-5.28175,6.29923,-6.16967,-5.07014,6.04318,-6.18591
7.01951,0.0371211,-2.22423,23.4751,-2.34863,-1.25109,24.0151,-2.82204,-2.35444,23.0013,-2.24585,-0.449356,23.4145,-2.95892
1.56927,0.0734634,-3.35533,57.4528,0.908649,-2.96586,57.3855,1.2565,-3.75829,57.5711,0.923431,-2.95746,57.4485,1.03444
66.8041,0.96231,-4.26457,3.63391,2.78468,-2.24059,3.54925,2.59133,-0.78305,3.13696,3.54063,-5.52457,3.38852,1.11234
0.578203,0.0848343,-8.30947,38.0519,-2.10725,-8.45146,38.1737,-2.02678,-8.30179,37.7972,-2.14444,-8.42354,38.1423,-2.27439
1.16898,0.0206181,-4.84204,39.4726,4.58464,-4.60834,38.9802,4.62478,-4.44147,39.7241,4.46178,-4.68264,38.9313,4.65192
0,0.00846619,3.51254,10.6085,5.32066,3.55241,10.5887,5.37248,3.55183,10.5395,5.37376,3.51735,10.6057,5.33737
1.58932,0.0088135,-7.53843,18.1348,3.28579,-7.25273,17.9197,3.75461,-7.21803,17.5154,3.62137,-7.54329,17.7514,3.05925
2.96148,0.0592973,-7.23847,12.5801,1.71923,-7.22778,12.153,1.88976,-7.24308,12.1297,1.46015,-7.17059,12.8508,0.809638
15.437,0.146963,-2.7471,47.3266,3.8321,-1.92553,48.3819,3.51983,-2.77328,48.8361,3.58957,-1.85266,48.1131,3.52865
11.4734,0.126059,-5.58982,14.4745,4.50113,-6.58158,11.6578,4.99478,-6.22423,11.3053,5.14145,-5.88709,11.8204,5.10797
1.54722,0.280793,4.66714,40.6075,-0.972039,4.32644,39.4334,-0.911507,4.34989,39.1525,-1.06398,4.30423,39.3045,-0.957174
6.99793,0.141787,0.306979,43.2058,-3.22072,-0.141762,41.3081,-3.42935,-0.0442514,41.332,-3.39094,-0.162995,41.5478,-3.45438
5.46842,0.0336943,1.98251,3.7667,-0.302613,2.50228,2.57061,-0.293713,2.52883,3.68885,-0.372369,3.25221,2.48874,-0.344688
5.56084,0.100065,-6.12737,4.30926,1.47108,-5.93959,3.72557,0.0714929,-5.91613,3.55355,1.23351,-6.00163,4.1566,-0.376655
3.23874,0.0241632,1.94153,5.95178,-0.19767,2.11295,6.389,-0.20291,1.21589,6.80103,-0.430002,1.29688,5.899,-0.369596
14.3395,0.802518,3.88838,1.17667,2.24355,2.22368,1.33946,3.60141,5.75586,0.638647,2.45102,6.43022,0.593353,2.25042
129.562,0.651206,-2.8277,13.0433,-4.00483,-2.54685,17.7714,-3.58894,-2.2343,17.8337,-3.50256,-3.30381,17.884,-3.81741
8.28345,0.726657,-0.447663,40.3254,-3.7171,-0.379703,41.836,-4.10651,-0.069563,41.2432,-3.39027,-0.234232,41.5732,-3.56829
8.91447,0.0995894,-8.28029,28.0168,0.836426,-8.70182,27.3356,2.01595,-8.68054,27.6848,2.05766,-8.11948,27.364,0.517068
6.99885,1.19257,5.55793,13.7946,5.09335,5.22357,11.1648,5.19505,5.2862,11.2131,5.20229,5.49474,11.3218,5.26802
39.9091,0.231543,2.50971,43.0454,3.74543,4.59,42.0692,3.68081,3.92957,40.9243,3.86547,4.37138,41.2237,3.7706
8.30678,0.0940571,-5.24682,48.9273,1.81524,-5.02818,49.613,2.4591,-5.53985,50.4994,1.15426,-5.48357,48.6002,1.5524
38.7739,0.0846554,3.23901,36.9783,-0.233156,3.83544,38.0789,-0.383974,3.90681,34.1521,-1.39438,3.40895,34.6893,-0.821275
11.7495,0.154564,2.05563,53.0621,2.33411,1.88293,53.9358,2.54431,0.85762,53.872,2.76877,3.17242,53.3304,2.25107
135.056,0.555262,-6.97234,18.336,4.43879,-6.63567,12.4382,4.0121,-6.79578,13.8444,3.16984,-7.94159,21.2957,3.88562
6.81502,0.144083,6.0424,18.5725,1.20234,5.76511,19.7679,1.35187,6.27262,17.6826,0.830786,6.79427,17.9986,0.870084
24.7834,0.179997,4.07264,6.30519,0.0860954,1.89554,7.63389,-0.214764,2.24125,6.45965,-0.220787,1.47632,7.12202,-0.375389
29.0402,0.862942,2.84694,34.5571,-2.48042,3.3133,36.7973,-2.51355,3.66348,36.2507,-1.8588,2.97226,36.4944,-2.54697
5.57135,0.635107,0.697608,21.4469,5.66639,0.766725,23.0416,5.35186,0.886506,23.0894,5.28143,1.43499,21.8451,5.95648
24.4692,1.02465,-4.00404,47.6394,-1.13951,-4.04522,50.9778,-0.187359,-5.248,49.3213,-0.060257,-4.26033,50.2465,-0.154394
4.03618,0.07121,7.58603,4.24178,0.034933,5.2364,5.03259,-0.0438108,5.57453,5.24712,0.00495155,6.40047,3.73202,-0.1728
16.8377,0.467493,5.6893,19.9404,5.1698,5.53062,18.1151,5.83745,5.31363,20.4726,5.60506,7.1903,19.8838,5.56769
40.4292,0.0168442,4.5301,10.5868,0.319336,2.12336,11.064,0.337576,3.26375,12.0587,0.457375,2.82677,9.93761,0.216962
31.9289,0.619143,-2.43289,3.63185,1.51759,-4.02513,2.874,0.487226,-4.29643,3.45894,2.0285,-2.62584,2.71704,0.708968
8.18776,0.22017,-4.38322,54.9628,-0.634813,-3.56821,56.3416,-1.24334,-4.00949,56.4954,-0.887566,-3.56517,56.2673,-1.23507
250.727,0.286472,-8.10019,22.4145,2.18643,-7.59275,25.507,-0.713936,-8.35033,27.7606,1.07587,-7.9324,27.4516,-0.0785284
100.518,0.184225,7.69393,2.656,0.00974965,8.95868,4.24858,0.167654,3.96719,4.88491,-0.466248,3.52496,3.96014,-0.625528
13.3723,0.983621,-2.66012,44.976,-2.93738,-1.21002,44.9633,-2.96171,-1.03767,44.3965,-3.98588,-0.432551,43.8199,-3.92185
20.487,0.827874,9.17751,8.90812,2.96707,9.49301,12.4741,3.42158,9.04435,11.99,3.29548,9.44308,12.4915,3.43544
9.90592,0.268508,-2.97422,12.1306,-4.1828,-0.86827,13.9459,-3.70661,-1.79078,12.5402,-3.92178,-1.68786,13.8937,-3.64859
0.0455545,0.00196058,6.63783,17.7124,5.86852,6.8534,17.7679,5.88293,6.85781,17.7203,5.87664,6.63034,17.7582,5.87649
2.80491,0.0332806,8.17894,22.7017,3.46178,8.38574,22.1464,3.70967,8.52681,21.8266,3.9782,8.41451,22.0891,4.16026
0.244887,0.00263679,6.88391,15.5621,5.4504,7.30985,15.4484,5.53488,7.16889,15.4417,5.51866,7.31321,15.4941,5.52413
39.7478,0.0390205,-6.8166,4.98955,4.05257,-6.19972,3.78348,1.98736,-6.04144,3.47479,1.53293,-6.09845,3.13924,2.71022
2.438,0.10547,-1.55493,20.7711,5.45098,-1.78371,21.1667,5.62805,0.0834767,20.8578,5.80353,-0.11243,20.7576,5.75213
2.75994,0.0472101,-9.3925,31.6673,2.63663,-9.61446,31.0468,3.55074,-9.71253,30.5315,3.71094,-9.66736,30.7772,3.65504
3.00318,0.142028,-8.86536,37.0611,-0.354025,-9.02225,38.6775,-0.218568,-8.89748,38.3139,-0.527281,-8.94733,38.6045,-0.391991
46.9089,0.071811,2.47615,17.0102,0.65343,5.45867,20.1444,1.41571,5.83767,20.1402,1.4445,4.2711,21.0173,1.45115
0.168995,0.0507321,7.85384,0.394306,2.58937,8.01968,0.299067,3.00492,7.91465,0.309618,2.90474,7.84465,0.311166,2.88919
28.6749,1.57549,-7.4172,21.6038,-0.154344,-6.99538,18.8655,0.352238,-6.90961,17.9914,-0.0322694,-7.19982,19.1718,0.528732
2.46164,0.323637,7.57925,18.5415,1.45508,7.8081,17.7456,1.08242,8.21692,17.2161,0.923343,8.25335,17.1732,0.885484
7.82003,0.102039,-4.98295,53.5208,1.17197,-4.91633,53.3093,2.76406,-4.96493,52.5893,2.66743,-5.00292,52.7962,2.23689
114.769,1.34897,-6.3837,39.5971,1.80257,-6.36262,41.6881,3.44505,-7.12253,42.0233,-0.175773,-8.88344,38.883,-0.1377
204.507,0.383425,0.667091,49.503,3.10202,-3.65652,53.1883,2.98136,-0.710043,51.8551,2.57143,-2.54376,48.8509,3.54241
27.0951,0.406228,4.02249,7.01828,0.281751,2.70466,9.21764,0.166973,3.22537,9.06816,0.222465,1.95197,9.04141,-0.0102431
3.57042,0.788942,7.30227,25.03,4.44686,7.39259,23.8632,4.41731,7.24462,23.6481,4.8662,7.19678,23.8171,4.67791
31.2996,0.550317,-2.94014,49.0986,-1.26422,-1.95539,46.1608,-2.44173,-1.61445,44.977,-1.7733,-2.13802,45.7712,-1.11767
8.88067,0.364555,-0.654467,16.3347,-2.84301,-1.83469,18.5701,-3.37262,-0.84813,17.3067,-2.58151,-1.5292,19.1257,-3.1754
32.9745,3.45123,4.95022,11.9359,0.420338,7.15663,15.2754,0.567081,7.68544,15.1858,0.497793,6.12259,15.5093,0.582859
0.228392,0.0378593,-3.82787,32.869,6.13423,-4.10566,32.9355,6.17629,-4.03733,32.8439,6.18584,-4.02769,33.0294,6.15952
5.61966,0.188358,-3.49891,45.9356,-2.63429,-2.95133,46.1912,-3.92539,-2.42416,45.0124,-2.85129,-3.62573,46.4677,-2.75548
87.2436,0.409769,-7.79758,20.4754,3.05971,-7.37563,18.3128,1.14874,-7.61119,21.9234,0.0557335,-7.66286,21.5045,0.467847
8.01082,0.302479,3.68667,29.3177,5.73579,-1.00375,29.3938,5.54011,-1.25132,29.2893,5.44839,-1.24305,29.2399,5.42084
8.07573,0.435696,1.7259,3.40539,3.93992,2.60783,3.32697,4.44436,1.40109,1.97055,4.13964,1.07325,3.75159,4.37904
326.995,0.235223,-5.14784,32.1011,6.13352,-8.69867,32.0466,5.89721,-9.08873,34.3893,5.89275,-7.06634,36.4233,6.20309
0.278685,0.0415101,-8.27479,40.5159,-3.0409,-8.18754,40.9959,-2.95659,-8.2314,40.8501,-2.96322,-8.26959,40.7609,-2.91214
17.1373,0.203441,-4.00277,51.0116,-0.275576,-4.61993,53.7584,0.0364474,-4.53269,54.6714,-0.393955,-4.41919,54.8144,-0.602929
17.4044,0.648411,-5.07249,44.658,-0.318668,-5.10766,47.0212,-0.551092,-5.47093,44.6438,-1.09414,-4.83194,46.6648,-1.41514
47.347,0.345927,-7.96469,31.3745,-1.70431,-8.6204,33.3776,0.264999,-8.36709,31.4922,-0.121682,-7.97357,34.3826,-1.10546
0.0394905,0.0870266,5.29307,48.4719,3.25565,5.22852,48.7007,3.1793,5.13489,48.8435,3.16021,5.06226,48.9018,3.09748
62.5353,0.988097,-7.31041,13.6924,1.87497,-6.67193,12.203,-1.53014,-6.65243,11.9687,-1.49525,-6.77879,11.6713,-1.10948
199.443,1.09011,-6.34484,8.85018,-0.606622,-6.97952,5.73053,2.43854,-6.29363,4.32331,1.96313,-5.8768,5.1018,-1.20751
5.77104,0.369621,-7.51911,28.7662,4.59656,-7.56581,27.4888,4.77487,-6.71682,28.8585,5.13567,-8.43577,28.8115,4.81707
5.45417,0.0215326,1.68267,33.834,4.4234,0.297605,35.3619,4.40395,0.298535,35.225,4.43817,0.531957,35.281,4.35859
27.8517,0.347366,-4.44514,55.8143,0.74255,-4.26308,56.3693,-0.275672,-4.29252,57.4933,-0.173616,-4.9067,53.6039,0.761173
4.03196,0.243888,3.61366,38.0078,-1.16273,4.0383,38.72,-0.938519,3.98219,37.4641,-1.40647,4.30463,39.2348,-0.998686
18.2628,0.179098,2.6427,29.8943,-0.277933,2.69896,28.2855,-0.877671,2.7493,30.512,-0.301291,3.18773,28.0859,-0.218462
31.2229,0.709875,-7.23063,42.4672,-3.97958,-7.19225,42.8317,-1.96731,-7.6223,41.9935,-1.42742,-7.73882,41.3693,-1.51391
28.9358,0.477678,4.5801,5.31658,5.03759,2.02952,5.51753,5.03302,3.8065,6.92206,4.91097,4.95303,8.58286,4.93779
21.8666,0.542688,-0.857012,16.2276,-2.93328,-0.0225541,12.553,-3.52151,-0.368267,11.6096,-4.09399,-0.152682,14.5645,-3.28213
13.5031,0.688509,0.120347,8.17108,-0.825034,0.218568,9.39014,-0.541631,-0.050283,9.90856,-0.597043,0.106772,9.74918,-1.13855
0.118122,0.00411135,-5.68248,42.6721,-5.02279,-5.34917,42.6978,-4.96481,-5.38796,42.6059,-4.96161,-5.66346,42.7222,-5.02071
4.65021,0.459263,0.656312,23.0624,-1.9569,-0.481622,22.3613,-2.61275,0.770019,24.0297,-1.77112,-0.382027,22.4711,-2.46434
8.87023,0.124162,-1.20074,41.7332,4.06719,-2.13286,42.2768,3.90979,0.407542,41.4588,4.09275,0.306415,41.8192,4.13412
92.6017,2.52702,-1.14759,37.8908,4.37408,0.925903,35.0745,4.33146,2.33413,35.8839,4.3297,2.39929,35.9337,4.34125
2.82663,0.0257829,3.06237,46.4713,3.4697,2.99474,47.3807,3.57316,3.48813,46.7245,3.49093,2.82998,47.4166,3.57419
5.80709,0.0314075,5.57703,34.8715,4.67102,6.202,35.5367,4.65153,6.23554,34.7615,4.93216,5.78575,35.7199,4.46852
23.9964,0.0415835,-6.1939,41.4826,-5.09008,-4.85958,39.2747,-4.95217,-5.40865,39.1474,-4.99523,-4.5084,41.02,-4.91904
0.0500119,0.024141,5.16285,27.8947,6.0024,5.10036,27.8007,5.99353,5.09708,27.7068,6.01009,5.16701,27.6659,6.01841
8.70673,0.16821,-3.27411,36.2996,-4.1054,-1.03682,36.4136,-4.12501,-3.28117,35.4706,-4.2154,-3.59017,36.7099,-4.32621
19.7721,0.100657,-0.693902,55.7837,-1.09226,-0.706716,53.621,-0.990817,-1.29585,53.7281,-1.33394,-1.47443,55.144,-1.58166
2.21938,0.476771,-0.0723375,13.4703,4.71098,1.00311,13.4785,5.01009,-0.0548612,14.1068,5.13542,1.01257,13.4346,5.01248
18.6674,0.549224,-3.51777,21.6808,-2.21527,-4.84138,21.2734,-3.48143,-2.66457,19.7046,-2.90519,-3.93814,20.1468,-3.34927
10.1099,0.317915,8.1863,20.9033,5.52587,7.20214,23.5804,5.02338,7.13341,23.1424,5.22964,7.6032,22.5468,5.03348
3.65383,0.0402188,5.17479,25.6078,6.14917,5.45371,24.3872,6.17669,5.38582,24.3838,6.17227,4.97669,23.9496,6.13525
25.4138,0.761266,5.50204,47.4363,2.97752,4.7427,44.7959,2.37804,4.58318,44.5524,1.8195,5.18096,45.4824,3.08747
118.502,0.0921058,-7.01483,21.724,-1.08543,-7.69294,29.1576,-1.46818,-7.22036,25.5284,-2.63286,-7.6869,29.1619,-1.51452
0.123768,0.0666836,-1.73232,37.4036,4.4974,-1.50632,37.4094,4.42103,-1.26736,37.4262,4.41114,-1.35269,37.373,4.43052
29.0253,0.400479,0.330272,8.36703,-0.561447,0.363589,5.26276,-0.281624,0.00648289,7.10491,-1.21549,-0.255906,4.8885,-0.903422
27.4457,0.170327,-1.39212,27.6363,5.49326,-0.0604611,27.2047,5.82899,1.67972,27.2558,6.04053,-1.47137,25.7577,5.66425
0.0464809,0.150319,-7.93379,32.3145,5.98985,-7.79339,32.3815,5.98745,-7.71769,32.2829,5.99304,-7.7363,32.3191,5.93704
13.6447,0.0281421,2.5798,41.304,3.89522,3.55757,41.0398,3.86699,4.09904,39.7396,4.00466,1.29959,41.004,4.09285
0.141821,0.116858,5.98265,7.90636,5.27818,6.18286,7.90297,5.17409,6.22014,7.87228,5.23725,6.06974,7.8157,5.24021
0.84118,0.00934594,-5.41062,11.4353,5.25542,-4.78837,11.9694,5.31982,-4.71528,11.7905,5.32165,-4.50293,11.8006,5.33712
250.844,0.866136,-4.92661,19.4586,5.55842,-7.86101,22.7253,4.98119,-6.42122,24.5495,5.77429,-2.423,22.195,5.90027
7.40685,0.0400297,2.28789,4.09595,-0.302902,2.08021,5.65938,-0.280744,3.33376,4.96254,-0.597282,3.23901,3.91449,-0.58169
0.0803593,0.020425,2.41315,41.6163,3.91083,2.4206,41.7059,3.90932,2.55322,41.6705,3.89328,2.55059,41.7167,3.90372
7.26412,1.38299,4.44261,8.61535,0.245942,5.50178,9.83109,0.112866,5.02537,9.91495,0.138114,4.90799,9.93542,0.137835
6.63382,0.113962,-4.21745,29.0873,5.46552,-4.69823,28.927,5.48681,-6.64851,28.8639,5.16161,-6.74458,28.9981,5.15941
14.7967,0.290287,-4.35025,4.87598,-4.59046,-5.15181,5.09641,-2.69168,-4.36115,4.57109,-5.45172,-4.57335,4.37551,-3.50799
18.8491,0.372598,-4.39558,44.9567,-3.52242,-4.60182,45.8391,-2.70482,-5.06656,44.1466,-3.74928,-4.13949,46.7416,-3.43615
15.3659,0.050252,-4.3411,14.457,-4.39447,-3.08828,13.0175,-4.12785,-3.68411,12.2546,-4.52987,-3.77666,12.3387,-4.55753
1.719,0.00959462,-7.3257,20.476,5.02552,-7.67275,20.3572,4.76341,-7.41979,20.8562,4.86086,-7.82737,21.1136,4.48618
95.845,2.3028,4.91944,48.276,3.26886,3.10031,45.2805,3.6045,3.17655,45.2845,3.5773,4.8971,44.7631,3.63308
1.64753,0.409272,-6.5418,37.3651,5.73894,-6.41556,36.8247,5.85555,-6.22827,36.7045,5.76626,-5.93078,36.5292,5.7762
43.32,1.08512,-5.26543,44.9665,-1.33506,-3.48676,46.8398,-2.4916,-5.24725,44.6791,-2.75185,-4.36686,47.1831,-1.96707
12.637,0.057884,-0.345566,17.4503,5.65253,-1.76314,18.1571,5.64575,-0.966299,18.1537,5.67026,-1.74585,17.838,5.65589
19.7076,0.495252,-6.39213,18.373,4.74692,-3.6145,18.8428,5.66157,-2.55568,18.1666,5.67162,-6.28671,17.5998,5.13341
5.66081,0.0374293,1.97593,6.02015,5.10918,2.80177,6.47375,5.16684,1.21057,6.85432,5.11362,2.29003,6.72421,5.16305
5.46075,0.17411,-6.27939,9.42874,3.49782,-6.67072,9.90324,3.19514,-6.40179,10.563,3.61045,-6.69852,10.639,3.44323
7.29134,0.125789,0.0462435,12.4523,-3.46723,0.240041,11.1494,-3.40505,0.163086,9.46623,-3.61193,0.258111,9.59011,-3.56551
20.1229,0.0148524,5.05592,38.4144,1.85097,4.75521,39.4673,2.33935,4.75041,38.9752,3.28407,4.99157,37.8222,3.35532
15.5129,1.57242,4.42348,11.8682,5.3499,1.0683,13.4825,5.0276,3.35628,13.4661,5.45962,1.59879,13.5962,4.86959
30.5427,0.289686,-9.44879,36.7047,1.92609,-9.07411,33.5155,1.70768,-9.61884,34.3538,3.0321,-9.30715,33.6378,2.43302
0.667001,0.181626,1.53415,39.6852,4.19843,0.891244,39.9729,4.24298,1.06214,39.8463,4.19457,1.19918,39.623,4.22533
19.2953,0.381915,2.56726,33.5151,4.50847,2.95449,35.9153,4.40545,4.01813,34.0534,4.66212,3.71606,34.9511,4.5189
26.7303,0.346141,-7.20146,24.6267,-1.25704,-7.9254,24.4592,0.134625,-7.83664,23.7308,0.0933136,-7.72211,23.0926,-0.0771948
9.86758,0.186252,0.536587,48.8956,3.17968,1.43433,48.8532,3.35381,1.28606,47.3311,3.6477,2.10855,46.6435,3.75705
5.81391,1.42702,1.54878,8.35572,4.33814,1.34464,7.13672,5.09539,0.613055,7.14931,5.08648,1.06942,7.12416,5.05399
0.0066204,0.0301524,-7.95897,25.1166,0.0986111,-7.92375,25.0875,0.138928,-7.9134,25.1099,0.122362,-8.01097,25.1234,0.149885
0.689366,0.103749,-8.81026,31.3901,1.36773,-8.85639,31.7958,1.25895,-8.74052,31.6922,1.0152,-8.7569,31.6789,1.09876
9.83254,0.159913,-6.37345,40.298,2.18177,-6.65394,40.5876,2.83574,-6.40173,40.549,1.65057,-6.47556,41.9011,2.52662
37.4359,0.191771,3.9636,42.6879,0.221937,4.02999,42.4288,1.2702,4.46803,42.7371,2.53124,4.66494,44.2129,2.28936
16.0703,0.0736446,2.59975,22.873,-0.94327,2.82182,25.6698,-0.969856,2.3988,24.4176,-1.13693,2.69334,26.4687,-1.13275
8.2639,0.0235664,-4.51234,33.0235,-4.9577,-6.41007,33.4637,-5.29198,-5.95941,32.1155,-4.82618,-6.48284,33.3996,-5.2783
4.52182,0.0436302,-2.66099,19.3536,-3.08039,-1.22375,19.8692,-2.82199,-1.57631,19.3224,-3.09657,-1.84763,19.9636,-2.74358
6.42801,0.0266196,-5.29493,27.0637,5.33976,-7.45533,26.9379,4.73606,-7.55005,27.3531,4.72828,-3.38596,27.0323,5.81538
4.38203,0.0702384,-1.30663,39.6987,-4.20045,-0.569543,40.8266,-3.84798,-1.01997,40.3422,-4.23851,-0.596193,40.8827,-3.91202
56.6248,0.373121,-8.44526,30.9238,0.333953,-9.35082,30.1123,2.65995,-8.46733,28.1959,1.35439,-8.82707,28.5346,2.25245
2.10788,0.0678547,-3.86056,17.2262,5.56968,-4.50114,18.0631,5.58746,-4.89775,17.7244,5.53451,-4.64221,18.1041,5.57271
8.14078,0.0597307,-2.75235,57.6165,-0.530475,-0.605432,57.0705,-0.548728,-0.438148,57.1326,-0.0700937,-1.75219,57.345,-0.76295
8.40436,0.584691,-0.0695464,40.1748,-3.49216,-0.52689,39.2212,-3.75864,-0.264865,38.2774,-3.7055,-0.44245,38.5928,-3.68182
64.4898,0.240797,-4.33847,32.7839,6.19969,-5.45636,30.3497,6.02248,-4.36294,30.181,6.06089,-3.89529,30.5693,6.14473
0.0503241,0.0380787,6.84724,25.9377,6.04665,6.70719,26.0657,5.94357,6.66525,26.0482,5.9833,6.67741,26.0112,6.04174
0.119377,0.00692692,1.91905,48.8093,-0.508811,2.09461,49.0027,-0.510184,1.97877,48.9823,-0.520112,2.17813,48.894,-0.495855
0.261647,0.123865,1.23834,54.0331,2.70332,1.6454,54.0088,2.62119,1.55919,54.1014,2.60371,1.56161,54.1905,2.59541
0.147336,0.0198111,6.70118,1.98559,-0.370139,6.88177,1.8701,-0.364457,6.66096,2.17918,-0.316659,7.00325,1.89258,-0.356209
1.7713,0.0914607,4.52358,40.0741,2.13787,4.73542,39.5344,2.37941,4.66961,40.0218,2.68916,4.54001,40.396,1.91525
21.4148,0.0290768,-3.98818,52.4648,-1.02046,-1.97838,55.0174,-1.59442,-1.79774,54.3655,-1.51933,-3.23523,54.477,-1.40252
8.38924,0.25601,4.63236,43.2004,3.64709,4.15582,45.1112,3.48346,4.02211,44.7362,3.49997,3.72421,44.7197,3.54597
13.0238,0.0805779,3.47324,1.83244,0.271939,3.99846,1.92935,-0.6377,3.82788,1.64397,0.863064,4.96969,0.932142,1.99854
6.18918,0.222806,-0.354353,8.40401,-3.56686,0.149532,9.65642,-3.81669,-0.394105,7.22711,-3.43906,0.148269,9.42051,-3.60292
4.64154,0.267214,0.507163,21.0138,-2.15943,0.954957,19.8292,-2.24507,1.13207,19.6975,-2.26326,1.36616,19.6063,-2.25508
0.0252724,0.0402587,-6.65681,16.3478,4.5436,-6.6781,16.4125,4.54077,-6.66772,16.3806,4.57856,-6.61091,16.419,4.48899
0.824755,0.0330334,-6.90157,42.9793,0.11343,-6.94238,43.3894,-0.136657,-7.00008,43.0373,-0.215032,-6.92293,43.4635,-0.0864739
13.6154,0.118375,5.28882,29.3167,5.80558,7.65421,29.8619,5.76741,7.26013,30.4347,6.04415,4.00032,29.2436,5.72475
171.933,1.14868,1.4659,2.37538,0.665513,-2.97077,4.18345,-5.28805,-2.3721,4.24453,-6.05792,-1.99844,2.7282,-1.36607
213.243,0.154351,0.346875,37.8377,4.25737,2.82153,40.5399,3.94146,-1.38118,40.0268,4.23785,1.26596,43.3847,4.06805
6.87026,0.18552,-3.97163,5.71931,4.29962,-4.64847,6.89561,5.01441,-4.25093,4.71622,4.79602,-3.66346,5.55081,4.3015
5.55481,0.100624,7.09971,10.639,0.271544,6.21511,10.8519,0.197605,6.22739,9.79545,0.101807,5.78008,10.0123,0.125406
2.65543,0.0289301,7.34711,25.4573,3.82941,7.36506,25.5269,2.89711,7.5759,25.1782,3.19952,7.58608,25.1005,3.60237
48.9,0.682647,1.00958,10.7358,-2.32369,0.343451,6.88683,-3.189,-0.181533,5.94532,-2.04915,-0.180151,7.48935,-1.77651
1.50235,0.13668,1.07119,11.2571,-2.78807,1.03095,11.8915,-3.04572,1.22201,12.1214,-2.86419,1.05834,11.8842,-2.9885
0.0427009,0.0497531,6.91953,0.455802,4.72933,7.02733,0.366183,4.65237,6.9497,0.257103,4.72071,7.09185,0.420519,4.6068
0.853629,0.040964,-6.22536,42.3583,-4.99627,-6.73936,42.8318,-4.59336,-6.6195,42.8615,-4.65406,-6.40817,42.42,-4.91877
8.03065,0.153203,1.27222,15.2215,5.03228,-0.358868,15.6481,4.7255,1.8868,15.2627,4.91813,-0.39166,14.9189,4.7864
4.96249,0.0824013,-3.42486,57.6101,0.255212,-1.6551,57.2824,-0.406101,-1.8403,57.3694,0.0626424,-1.4859,57.2892,-0.0485423
0.494828,0.237769,6.15722,30.8766,6.0038,5.71377,30.8536,5.98464,5.71775,30.8129,5.99746,5.64822,30.9671,5.90889
125.84,0.906319,-9.66128,32.7255,3.46366,-10.4146,36.4833,4.96654,-10.7737,38.131,4.78032,-10.0939,38.4008,3.29966
0.493997,0.0512723,-4.90351,47.208,2.94303,-4.69788,46.9439,3.3157,-4.64198,47.0812,3.35787,-4.59259,46.9467,3.44078
29.3817,0.976716,8.13239,11.9583,3.81309,9.38163,15.396,3.63954,9.0135,17.3835,4.25623,8.85083,15.8023,4.52281
43.2405,0.354464,-6.87668,24.886,5.75732,-4.71713,24.497,5.92331,-4.65608,25.914,5.92795,-4.83603,25.0854,5.93774
76.3429,1.51073,1.11715,44.6226,-0.58755,3.51991,42.1754,-0.889599,3.75068,41.0842,0.051247,1.50067,48.5121,-0.717944
0.983828,0.118514,-3.12794,50.7483,3.42951,-3.72694,50.8849,3.46112,-4.00954,51.2467,3.38837,-3.86696,51.0177,3.42992
2.77921,0.144645,-3.80667,47.4274,-1.49124,-4.57681,47.1808,-1.50871,-4.54081,47.0099,-1.72298,-2.96945,47.965,-1.66346
0.0348764,0.0876079,9.93207,13.4152,3.33117,9.88282,13.3132,3.34547,9.84384,13.3227,3.40788,9.93011,13.2743,3.30975
0.469202,0.00565246,-7.32609,14.5542,1.7361,-7.35683,14.383,2.21941,-7.33551,14.3414,1.83322,-7.35964,14.3372,2.23313
8.38097,0.232198,0.998021,23.3661,5.08794,3.91426,23.2504,5.94917,0.894555,23.1666,5.22739,0.396139,24.7634,5.95362


