
3.78646,0.0844201,-2.92877,2.4266,5.99876,-4.66854,2.54319,5.85816,-4.66419,2.50389,5.83368,-1.67864,2.44132,5.99011
6.25827,0.025948,-5.4771,7.60876,6.73819,-8.17805,7.43585,6.47051,-7.83065,7.51399,6.57079,-5.05131,7.50136,6.56009
18.614,0.199739,8.52957,15.5481,-5.87311,5.50606,15.3674,-6.41518,4.7801,14.8265,-6.69477,4.93708,14.7064,-6.73023
3.25075,0.0938054,7.08212,18.3277,6.55198,7.26057,18.913,6.95313,7.23669,19.2366,7.12717,6.89104,19.0497,7.0593
22.503,2.11874,10.107,4.54351,7.06303,9.3255,7.33567,6.67403,9.14187,6.8825,6.43808,9.94174,7.87583,6.74265
0.0447806,0.00106494,-13.5209,1.633,-0.150369,-13.5772,1.70541,-0.256606,-13.6458,1.7113,-0.160836,-13.6431,1.72392,-0.200388
2.56912,0.155106,8.58606,1.70301,5.43321,8.64152,1.33564,4.96399,8.81656,1.80845,5.95246,8.02988,1.4836,5.59881
2.78921,0.298376,-4.81479,7.27421,6.29946,-5.12761,7.44267,6.58529,-5.02249,6.17828,6.84122,-4.27768,7.4537,6.54065
0.517622,0.14641,1.70749,32.6056,-2.7405,2.09861,32.9368,-2.73777,2.25236,32.954,-2.78667,2.25488,32.9269,-2.8236
17.7056,0.34306,-7.88309,12.7987,6.3989,-7.90256,13.2055,6.60564,-4.81443,11.1643,7.08247,-9.0334,12.0238,7.2357
4.4472,0.251109,-13.0115,18.6742,-4.81377,-13.3843,19.0432,-4.96544,-13.387,18.2152,-5.12463,-12.2081,18.5411,-5.1695
27.2768,0.369904,0.685559,9.77208,-6.58082,0.355217,11.7471,-6.59912,3.28045,10.0363,-6.54799,0.503632,8.77254,-7.19402
2.97155,0.129561,6.56269,26.3301,6.80242,7.73782,26.8277,6.94098,7.82087,26.2122,6.87919,7.67414,26.4024,6.87673
0.66102,0.185585,-13.9967,1.66472,2.23123,-13.4887,1.41096,1.35839,-13.5633,1.3796,1.61396,-13.5561,1.44334,1.3769
3.97479,0.217461,3.82446,8.68512,-6.67629,4.59559,7.88636,-7.19746,4.23006,9.55541,-6.85903,4.2465,7.77797,-7.13574
12.7138,0.402385,5.41043,12.6595,6.42493,4.83986,10.7314,6.9082,7.99491,12.6363,7.18326,4.9291,13.2547,6.71993
2.14622,0.0915241,-1.43535,7.49602,6.66387,0.307822,7.6123,6.83512,0.30012,7.70734,6.83702,-0.523508,7.48823,6.79554
2.44244,0.194264,2.21881,26.8011,6.44256,3.34023,26.6738,6.52494,1.97827,27.1956,6.66046,1.85571,26.5404,6.67565
1.47654,0.0628376,-4.31939,23.956,-6.9564,-3.41377,23.9791,-7.04927,-3.00806,24.1272,-7.0803,-2.86529,24.0391,-7.07308
5.28829,0.184078,-4.76794,34.223,1.71831,-3.31675,34.2678,1.85974,-4.09446,34.0203,2.71406,-4.71167,33.8778,2.98263
25.2906,0.100905,15.479,13.7051,1.13194,15.326,11.5896,1.22215,15.3372,11.852,0.437308,15.3262,11.4458,0.602362
15.6981,0.294991,-12.0815,6.51335,-3.38907,-13.2093,5.61065,-3.22195,-11.2114,5.97981,-4.85465,-11.3177,6.30483,-4.60288
1.43485,0.00696312,-9.58124,33.598,1.42366,-9.73442,33.576,1.22114,-10.1478,33.6171,1.9077,-10.2935,33.6077,1.90351
1.02469,0.282683,-3.38645,13.2548,6.79071,-4.08621,13.3149,6.8013,-4.14588,13.149,6.84526,-4.15427,13.4005,6.82523
7.87274,0.428561,-3.6068,6.13438,-6.46357,-4.26493,5.45247,-6.75921,-3.93582,7.33704,-6.88478,-2.61885,5.98504,-7.06629
8.87076,0.227362,-2.19735,22.8891,6.53919,-5.12528,22.6433,6.41577,-0.561429,22.8212,6.30046,-5.12161,22.591,6.4318
20.0563,0.546386,-8.12769,6.98634,6.13158,-9.37273,7.75019,6.63962,-9.99821,7.77202,6.62929,-9.48894,3.91541,6.73379
1.69836,0.0872457,4.74055,33.7888,1.67362,4.79617,33.8706,1.89945,4.79916,34.0146,1.24414,4.89265,34.0646,1.24613
3.08105,0.231214,-1.30403,10.4802,7.03315,-1.91626,8.86326,7.22247,-1.64009,9.17144,7.22059,-1.91008,8.76847,7.21733
11.8106,0.448317,12.6522,23.1669,5.6196,14.1067,21.7639,4.88834,13.9033,23.6477,4.63538,14.1159,22.6387,4.6393
7.85864,0.113729,-6.30272,1.98563,4.82308,-4.99745,1.63636,4.42687,-5.97123,1.63431,4.00987,-4.78351,1.77949,5.10005
3.79072,0.315128,8.06749,3.01707,-4.76402,8.0671,4.18578,-5.62273,8.14288,4.12526,-5.6017,7.89163,3.93202,-5.49829
5.54882,0.742689,7.66694,10.9487,7.33976,5.25049,11.1748,6.82717,5.18511,10.9114,6.85843,5.32964,10.9291,6.84135
9.79844,0.365774,-15.0736,15.2925,-1.45993,-15.2507,16.0492,-0.310609,-15.247,14.8885,-0.284196,-15.2138,14.6807,-0.0859819
0.233396,0.00241954,-11.3744,8.49103,-6.02805,-11.5818,8.27947,-5.82619,-11.5768,8.45996,-5.85969,-11.6044,8.34935,-5.81894
0.528251,0.000478954,15.2731,3.23249,2.49407,15.254,2.58871,2.14932,15.2986,2.52958,2.24848,15.2963,3.07687,2.48835
2.39282,0.136585,2.36738,12.3392,-6.75004,1.54501,11.9108,-6.72835,0.903962,12.165,-6.52492,0.90213,12.2136,-6.51819
13.9829,0.641043,-1.93794,27.9405,-4.73801,-1.508,29.409,-4.1576,-3.98593,28.056,-5.22663,-0.233653,29.2418,-4.55345
0.197,0.237909,-14.8089,9.00951,0.194471,-14.6664,8.74307,0.168944,-14.709,8.78992,0.0963645,-14.6977,8.67739,0.200989
3.8302,0.697168,14.0647,27.9405,-2.31304,14.235,29.8306,-2.29204,14.1013,29.2153,-2.59479,13.4534,27.6177,-3.03129
3.57148,0.160489,4.78934,9.4358,7.09883,4.51945,8.58363,6.99764,4.91737,10.6825,6.92361,4.43823,8.61547,7.0286
3.73627,0.0702297,14.1903,24.3045,3.16964,14.5771,24.4093,2.31234,14.4739,25.1843,2.96198,14.1023,24.2723,3.62814
8.48112,0.0592115,-14.7348,26.34,1.65912,-14.7954,26.7687,-0.208685,-14.819,26.7495,-0.670504,-14.8028,26.5432,-0.557732
22.8417,0.299767,2.73097,13.5846,-6.55026,2.02395,14.3709,-6.90033,3.85364,11.334,-6.77244,2.99923,10.6864,-6.83288
3.14669,0.0513169,-14.237,3.85923,-0.416228,-14.3239,4.00434,0.44472,-14.267,4.29605,0.258963,-14.3682,3.17227,0.30387
5.66373,0.350763,10.0102,17.655,-5.83284,12.2514,17.903,-4.93727,12.1085,17.9873,-5.15321,9.6595,18.2212,-6.2967
0.187123,0.0209619,15.3568,15.4801,0.760939,15.3927,15.5663,1.05421,15.3954,15.4718,1.03466,15.3864,15.3526,0.813164
4.59373,0.294885,4.39902,15.5265,6.72433,4.00464,16.571,7.13645,3.97348,14.8991,7.01579,5.71898,15.2857,6.87694
18.4418,0.648279,4.78974,2.66369,-3.70045,4.63576,1.64817,-3.38331,3.57048,2.62524,-5.45503,6.36289,2.59713,-4.16892
1.27134,0.176009,11.43,10.0253,6.79804,10.5593,10.8864,6.98516,10.8491,10.7165,6.95701,10.7024,10.6403,7.00965
22.0358,0.026848,8.22475,33.2999,-0.779499,9.23804,33.13,-1.54392,10.6597,32.5798,-2.96687,9.35403,32.5878,-2.32309
5.42365,0.119781,2.83546,16.2569,-6.3686,5.04144,16.5621,-6.85563,2.30982,16.6308,-6.53442,5.05524,16.4547,-6.82693
12.649,0.505711,-5.01532,33.6075,0.419733,-5.71349,34.1515,0.943152,-2.88724,34.4028,0.667718,-4.93587,33.8959,-0.811775
3.65266,0.0542651,1.49269,7.65331,6.86848,2.87893,7.6671,7.0293,0.368073,7.71075,6.83689,2.87251,7.75962,7.02922
2.10627,0.0233662,-11.4713,33.6647,2.53303,-11.7363,33.9405,1.71849,-12.0752,33.9258,1.99856,-11.9433,33.906,1.98979
18.4363,0.575654,-0.95243,33.9062,-0.379866,-0.634491,34.3039,1.97111,0.786949,34.5171,0.281041,-1.70023,34.4015,0.161058
3.74813,0.0560843,-7.85077,21.4031,-6.32744,-6.01922,21.1909,-6.4983,-8.82446,21.2812,-6.2471,-6.07303,20.9778,-6.58939
0,0.0408858,-15.1441,15.6863,0.807199,-15.213,15.7561,0.775783,-15.1841,15.7302,0.837859,-15.177,15.7659,0.87142
4.94081,0.388655,4.15762,26.0646,-6.29247,4.3835,27.2888,-6.9242,4.4829,25.5742,-6.58655,3.0599,25.714,-6.64007
8.8729,0.296175,-10.8997,32.0403,3.68504,-11.3604,32.5016,3.42841,-9.71623,32.425,4.49509,-11.1699,31.503,4.43903
2.23901,0.0520713,13.3498,20.7201,5.64152,13.9941,19.7274,5.45196,13.2672,20.8669,5.73235,13.8431,21.3483,5.31256
4.92254,0.183219,4.35912,25.352,-6.55568,0.847976,25.5138,-6.62227,1.20088,25.4278,-6.69456,2.81293,25.506,-6.65022
2.62948,0.164538,13.9023,6.95465,-1.35034,14.3411,6.41586,-0.969998,13.9729,6.45439,-1.5107,14.0757,7.68307,-1.4291
6.48865,0.427466,4.18993,7.63655,6.25503,4.7767,7.8139,6.6242,3.98865,6.37712,6.44466,2.91024,8.35259,7.13866
6.31483,0.218013,6.44286,10.9258,-6.57154,7.4384,10.507,-7.127,5.43418,10.2024,-6.95265,6.4093,11.3994,-6.61188
0.0694385,0.0101782,-1.61184,34.1767,2.43378,-1.47267,34.1909,2.39374,-1.61327,34.1467,2.56649,-1.67721,34.1529,2.55966
0.196472,0.0250515,-10.67,6.18965,-5.94762,-10.6758,6.57457,-6.08728,-10.6371,6.59502,-6.11433,-10.6052,6.54175,-6.11599
0.555606,0.0198411,-12.6372,10.4372,-5.21749,-12.6461,10.9961,-5.36463,-12.5956,10.8759,-5.37134,-12.7297,11.1037,-5.33235
0.0680109,0.0143252,-13.0183,3.81623,-3.98728,-13.0126,3.97041,-3.98558,-12.983,4.06185,-4.02776,-12.9514,4.0852,-4.06628
3.42978,0.0744548,13.7341,15.5309,-2.73474,14.8771,15.3849,-1.17336,14.4868,15.5943,-1.77213,14.8271,15.4073,-1.24709
0.161157,0.000756829,-14.5766,2.58191,2.93636,-14.554,2.52917,2.70262,-14.4904,2.42267,2.65384,-14.615,2.6424,2.89557
3.15547,0.156898,5.37465,27.8808,-6.3649,5.32047,28.5393,-6.41635,5.49178,27.4468,-6.5984,6.21892,27.8895,-6.55945
4.03095,0.077721,9.74101,15.3474,-5.61898,8.59557,15.506,-5.85603,8.57655,14.9311,-6.27625,8.56069,15.0841,-6.17272
6.58623,0.0454294,-12.6653,5.69827,5.61192,-10.3026,5.5104,6.78424,-12.676,6.05927,5.55781,-10.77,5.08216,6.69232
75.4119,0.335368,-12.9449,33.5847,0.267078,-13.1158,32.4267,-1.78625,-15.0626,31.9681,0.507723,-13.966,32.0016,-1.49693
0.174973,0.0565127,11.9576,1.48273,-2.54047,11.9894,1.50714,-2.58529,12.0939,1.45606,-2.47078,12.1351,1.18019,-2.5036
11.0668,0.0730457,5.92273,32.4231,-2.8221,6.52887,32.8043,-2.17572,7.41241,32.1594,-2.71728,7.34366,32.3053,-2.54186
72.7527,0.74566,-13.2509,20.2795,5.16372,-11.9448,22.4691,5.77021,-11.2721,19.3924,6.41431,-11.168,21.2904,6.10363
3.14829,0.0621699,3.48992,23.3058,6.45136,3.91805,23.3662,6.35273,1.59106,23.0742,6.5411,1.51666,23.2294,6.52256
8.24488,0.219803,12.2079,24.3104,-4.20455,12.3175,23.7723,-4.66492,13.7061,24.09,-3.47076,11.8555,24.7063,-4.58019
6.59083,0.108443,2.22385,31.6013,-3.05707,1.73302,32.3396,-2.80552,0.989842,32.1024,-2.74685,2.81635,31.132,-3.46444
8.47375,0.259739,10.6921,7.42385,-5.43223,10.9176,5.44977,-4.85514,10.1836,8.45099,-5.54108,11.1099,5.65557,-4.70552
18.5982,0.578762,-10.6413,24.5347,-6.13444,-9.81541,22.9338,-6.13818,-10.0355,21.5461,-6.06659,-9.86234,22.0083,-6.16544
6.3636,0.107761,0.928403,32.7405,-2.40591,-1.08234,32.5917,-2.34051,0.0447901,32.2225,-2.61491,1.6688,33.0875,-2.47728
8.02995,0.884026,14.5692,17.3038,4.56684,14.745,17.5569,2.61167,14.7164,17.1726,2.62101,14.9139,17.8726,2.36697
4.20357,0.212951,4.54873,6.3467,6.34773,4.20984,5.87295,6.54499,5.51199,6.17778,6.66724,5.5745,6.425,6.66435
1.97295,0.0919928,-9.86085,33.654,1.05602,-10.6447,33.6092,2.42823,-10.7097,33.6875,1.83076,-10.9216,33.5753,2.79655
0.0544857,0.0860864,-14.526,8.81059,1.41354,-14.5316,8.71698,1.46218,-14.4821,8.6757,1.41789,-14.3784,8.70099,1.3971
16.8009,0.559132,-14.5194,22.5322,-3.46945,-14.9779,22.6297,-1.01802,-15.0596,21.9249,-1.25609,-14.9216,23.2323,-1.17165
2.75943,0.18135,8.05714,34.2084,0.928155,7.65193,34.455,0.536244,9.5602,34.3977,1.37204,7.36086,34.2982,1.14556
3.3636,0.322666,-0.319765,24.4432,6.22036,-0.668032,23.4212,6.63471,-0.567701,24.8769,6.70183,0.3829,24.5888,6.29549
3.83941,0.383415,12.1735,1.84592,3.76827,11.5678,0.76998,3.43636,12.8259,1.78269,3.83684,11.8471,1.52393,4.4093
0.777821,0.0737427,15.1636,13.1109,-1.02848,14.8197,13.5272,-1.80336,14.7834,13.469,-1.84417,14.9731,12.6295,-1.33348
5.25374,0.0574329,2.86462,29.1493,-4.53003,2.94497,29.7421,-4.13335,3.91324,29.7846,-4.50429,3.27131,28.7276,-5.14354
0.0477647,0.0820179,-15.2118,19.4287,0.0225594,-15.2986,19.2204,0.0996257,-15.1754,19.395,0.0886849,-15.1579,19.3496,0.0600179
2.06669,0.135894,14.2068,2.87374,-1.14259,13.7361,2.48179,-1.76896,14.2346,1.89246,-1.12807,14.1209,2.91589,-1.44177
8.73111,0.344545,2.55923,32.614,4.4994,2.01114,33.5906,4.05907,3.43835,33.1248,4.77018,2.34324,31.9902,5.36389
0.15748,0.00632682,14.7951,33.1292,1.51403,14.8913,32.809,1.69054,14.8739,32.8591,1.73746,14.8114,33.0546,1.61793
1.78377,0.0613381,-0.0957131,22.1876,6.09363,1.21237,21.0233,6.70097,1.1338,20.9134,6.7017,0.515751,21.5138,6.37218
11.7549,1.61664,-1.80826,32.1951,5.36798,-0.400872,33.2945,4.04126,-1.22114,33.7481,3.58583,-0.531546,33.2758,3.98351
39.5222,0.357028,-7.25766,31.6631,4.71926,-9.41018,30.6564,5.97616,-7.69323,30.604,5.79104,-9.12313,31.3406,4.84997
71.5456,0.777328,-8.2841,30.6037,-4.60407,-6.55447,32.1187,-2.87206,-8.04705,32.309,-2.66617,-5.75697,30.8988,-3.66426
6.06131,0.0367271,-7.65453,25.4289,-6.53714,-6.11238,25.2349,-6.71853,-9.25356,25.4475,-6.23584,-9.39094,25.3145,-6.18667
7.76837,0.0778794,6.59559,29.0817,-6.14888,5.62773,29.5549,-5.54188,5.98901,30.1307,-5.04518,6.1912,30.028,-5.15347
8.77421,0.0413721,-13.8644,6.84675,5.25956,-12.2702,6.56018,5.57303,-14.0421,7.33675,5.61023,-11.7959,6.68736,5.80262
7.25186,0.102612,-4.4541,0.846926,-2.04423,-4.94157,0.720162,-1.79413,-2.65727,0.518334,-1.75977,-3.15077,0.718008,-2.39727
14.2892,0.44168,-9.50245,7.27781,6.70992,-11.1255,6.89078,6.12134,-12.1919,7.81655,5.98745,-11.8102,6.98697,5.77274
3.02123,0.188232,11.0013,11.6487,6.46587,10.6339,11.0104,6.9217,10.7698,12.0212,6.72884,12.2972,11.7132,6.08402
8.95871,0.134537,0.806499,31.4138,6.07705,1.48873,31.2554,6.12269,-1.05912,31.3322,5.95959,-1.81582,31.3282,5.79762
1.89314,0.174682,5.3625,10.1965,-6.94631,3.85756,9.89831,-6.57501,4.20241,9.9349,-6.70037,3.85255,9.99803,-6.58047
4.51306,0.221178,-9.94382,27.5519,-5.99001,-9.51252,28.3985,-6.27285,-11.0157,27.1278,-6.14273,-9.5025,28.9028,-6.29824
5.65381,0.458894,11.7297,8.80229,-4.78603,13.7387,8.97254,-3.02292,13.3694,9.09848,-3.41726,13.2516,8.73743,-3.71464
3.56296,0.157792,-6.33636,1.73006,-3.70544,-6.04578,1.46643,-3.0393,-6.52933,1.32889,-2.7926,-5.56022,1.47641,-3.0921
2.08073,0.0240551,5.69906,19.5411,7.03344,4.0426,19.6125,6.65317,4.04603,19.5018,6.66619,5.89854,19.6242,7.09701
5.64189,0.237275,1.90942,24.9479,6.45729,5.94454,26.0267,6.739,6.21904,26.1304,6.76957,6.21829,26.0789,6.77829
7.16078,0.0857836,-6.82311,23.1039,-6.84827,-6.29324,24.1595,-7.03585,-6.19729,23.8997,-6.97947,-7.59614,23.9648,-7.18683
15.2734,0.204044,11.9798,32.8659,-1.78915,14.4106,32.313,-0.940825,10.395,32.9391,-2.13803,14.3788,32.2085,-1.15204
13.6406,0.300557,12.137,15.5626,-4.07263,13.6317,15.7514,-2.85315,13.7763,16.6412,-3.18979,14.443,16.1696,-2.0988
1.89416,0.813878,1.76757,24.9429,6.45624,0.446416,24.6491,6.29674,0.959323,25.3878,6.72672,0.454774,24.5421,6.32154
3.48376,0.00860389,15.4309,19.0376,1.00542,15.4214,19.5427,1.13992,15.3682,20.5993,0.319702,15.3929,20.5831,0.844579
1.98596,0.0721645,1.85098,1.70721,5.56515,1.10931,2.01538,6.05941,2.16889,1.81264,5.9559,1.9357,1.58304,5.51742
25.4266,1.39539,-7.27117,1.21533,-2.05916,-7.08489,2.31551,-4.0111,-7.15,2.32553,-3.95705,-8.18235,2.42443,-3.47846
10.1041,1.11552,9.82142,31.548,6.24562,8.24937,33.4391,4.93377,9.08768,33.1716,4.88729,9.15641,33.239,4.86694
7.23338,0.24576,9.27256,3.44184,-4.73228,11.3552,3.6381,-4.69275,8.77802,3.79229,-5.45693,9.17278,2.93112,-4.66856
11.9504,0.163304,3.87179,5.1816,6.62495,3.57265,2.80083,6.48178,3.64843,2.76297,6.46201,3.99557,6.33294,6.44961
5.44494,0.0130843,-0.882536,3.96958,-6.7129,-2.32265,3.53617,-6.70734,0.979398,3.68819,-6.49378,1.21564,3.35304,-6.39816
14.7737,0.609999,-5.29342,1.54466,3.28829,-3.29779,1.20901,3.33381,-2.87904,1.00971,3.11342,-4.09322,1.54043,4.47066
13.5403,0.000370175,6.41779,34.2381,0.134802,6.66155,34.014,1.74604,6.84103,34.3253,-0.0391722,5.70621,33.9191,1.49664
5.23305,0.294552,-3.81404,6.42649,6.35815,-4.06107,7.07441,6.66587,-2.43462,6.27185,6.68795,-4.51563,5.76081,6.61216
9.25683,0.195736,14.3079,20.4482,4.36468,15.0919,20.3905,2.99293,14.3048,19.7932,5.00926,14.3151,21.474,4.66735
2.27398,0.118974,4.88668,3.42546,-5.90634,4.68549,3.98922,-6.28192,5.17771,3.14513,-5.53346,5.17415,2.97036,-5.3109
4.15921,0.293886,-0.197026,21.9141,-5.93364,-1.09692,20.7903,-6.63165,0.572924,21.7355,-6.40393,-0.326353,22.3565,-6.05643
6.85537,0.0629623,0.217303,11.2661,6.84201,1.71659,11.7674,7.23937,-0.95405,11.2606,6.67659,1.74247,10.9605,7.1809
7.45846,0.49306,14.9321,17.6944,2.11912,15.1204,16.0861,2.25979,14.7075,16.6884,2.32108,15.221,17.5451,0.94179
0.952821,0.0287636,14.9158,29.5822,0.496628,14.8762,29.0415,0.580464,14.77,28.4532,0.933016,14.7933,28.5136,0.793459
6.62827,0.170886,6.75739,21.3912,-6.51983,4.29682,21.5541,-6.59712,3.9513,21.422,-6.59467,8.16963,21.3885,-6.21983
2.4746,0.168726,0.602129,30.1032,-3.479,0.661585,29.4827,-3.96152,1.01653,30.1993,-3.50105,-0.103665,30.15,-3.86467
10.6987,0.31873,8.64181,2.14011,-3.20555,9.38321,1.75215,-3.46926,8.7693,2.90595,-4.81655,8.13971,3.02021,-4.76527
5.24593,0.420562,-7.30319,19.4431,6.63803,-7.881,18.9512,7.19332,-5.83636,19.4299,6.86338,-7.70271,20.5047,7.01433
52.8763,0.283767,-4.90319,17.3665,-6.61911,-8.23959,21.0144,-6.53972,-4.93547,20.0598,-6.64734,-9.07689,19.4144,-6.68799
3.07843,0.2009,0.685817,5.96229,-6.5773,0.46179,5.34794,-6.82803,0.650347,6.51347,-6.70124,1.55181,5.71152,-6.97005
33.3299,0.470276,-11.3759,2.3857,-0.852423,-11.2147,1.24294,0.784321,-9.81208,1.79821,-2.00223,-12.8545,2.95963,-2.68619
7.78674,0.478561,6.66167,1.9404,5.50314,6.57635,0.592673,3.4401,6.71094,0.542474,3.26319,7.27772,1.65965,5.87792
3.30592,0.278815,8.8185,12.7544,6.63726,8.8,12.1213,6.9807,9.33274,13.4118,6.87575,8.56914,13.3885,6.84219
4.36705,0.149545,1.53147,6.90438,-6.9341,0.483825,6.70097,-6.70079,2.78446,6.95906,-6.93958,2.44662,6.79594,-6.98297
13.434,0.177407,-7.8735,5.17865,-5.7143,-7.08677,4.92708,-6.01904,-8.77879,6.6939,-6.38114,-9.39357,5.17814,-5.4887
25.3607,1.51446,-10.0675,33.0031,-0.979229,-8.13382,33.1674,-1.40781,-8.3208,33.3769,-0.761553,-8.75969,33.0399,0.0560469
16.2421,0.0889329,10.8269,26.0053,-5.10376,8.38513,25.722,-6.11789,8.90935,26.8177,-5.90468,7.84005,26.2992,-6.31324
14.8006,0.648762,-4.51877,28.6591,-5.24681,-5.82628,29.1687,-6.09821,-6.44442,29.6596,-4.97405,-6.10035,29.4242,-5.90464
9.38533,0.208748,12.0962,2.38882,-2.76078,13.7732,2.63444,-1.85103,11.8637,2.90967,-3.64952,12.1432,1.55963,-2.42542
7.78433,0.0921353,2.86544,4.60492,-6.48296,6.01805,4.88564,-6.14715,6.59002,4.80147,-5.95762,2.08583,4.67139,-6.54567
20.1597,0.0619769,-3.34805,4.82829,-6.6448,-6.88261,4.12381,-6.32056,-7.22128,4.76266,-6.01773,-4.00652,4.24745,-6.70674
9.11745,0.543842,-4.12902,11.1716,6.39528,-4.49416,12.1325,7.02569,-4.94746,10.0848,7.34207,-2.97915,11.2669,6.56459
38.5793,0.118406,-0.636444,32.2739,-2.43409,-5.14447,31.8751,-3.03168,-5.53079,32.2385,-2.92134,-3.31909,32.6426,-2.47391
44.0679,0.0874679,9.88796,34.087,2.07609,9.24377,33.915,3.44697,13.438,33.3457,4.02605,12.7849,33.5571,2.88625
6.45383,1.60814,-3.42889,34.1899,0.186235,-3.37727,33.5287,-1.35938,-2.90467,33.6361,-1.50021,-3.16126,33.5381,-1.4134
0.153251,0.0141143,15.0403,4.80011,3.09584,15.1491,4.12776,2.74215,15.1309,4.22456,2.71752,15.1414,4.21248,2.85478
3.98388,0.230002,-13.6456,10.9532,5.6409,-12.6465,10.6112,6.52226,-14.0695,10.6556,5.60735,-14.0352,11.6255,5.74245
7.99662,1.415,8.35295,34.0862,-0.301767,7.0368,33.5357,-0.618107,7.49311,33.1715,-1.10514,7.19009,33.3648,-0.683331
3.96135,0.0584553,-9.52223,22.6094,6.2049,-6.86863,22.6051,6.38918,-6.93839,22.5517,6.40039,-8.61068,22.5353,6.2516
14.3823,1.06793,-12.7581,34.0429,1.11926,-11.9181,32.9048,-1.31081,-11.2296,33.6072,-0.877189,-11.6395,33.2546,-0.777238
4.72937,0.387725,0.0713365,28.6349,6.41253,-0.365589,28.0014,6.81435,-0.121959,29.5406,6.83581,1.89044,28.418,6.67709
17.0255,0.124241,12.4172,16.446,-4.01746,12.6057,18.9161,-4.78221,12.4706,18.6548,-4.9709,12.1987,16.6424,-4.82902
0.584204,0.00357163,-13.8118,8.71951,6.31217,-13.7227,9.58984,6.37609,-13.8111,9.43065,6.29333,-13.5887,9.39585,6.51652
5.3105,0.226658,11.8885,32.1755,4.90877,13.097,31.6026,5.21898,11.7124,33.0152,5.02508,11.5429,31.7644,5.19047
8.40104,0.0619157,14.8733,25.1958,-0.816793,13.4962,25.1259,-3.36694,14.9739,25.1814,-0.491875,13.6338,24.5434,-3.36344
5.75654,0.271842,-0.632836,13.1585,6.50916,-0.162317,13.1427,6.73195,-0.690889,12.2822,6.61692,-1.17598,13.9168,7.0034
1.79319,0.0261332,-10.7445,24.9793,-6.02909,-9.46101,25.3,-6.1719,-9.46184,25.4027,-6.17451,-9.54811,25.537,-6.16726
3.45125,0.302145,12.7768,11.3238,5.50642,12.4538,10.8118,5.89366,12.5193,11.7898,5.91209,13.6886,11.3983,5.56326
5.56972,0.267228,-2.11509,0.864234,-2.50459,-3.01885,1.42484,-3.48363,-3.72019,1.23436,-3.30273,-3.44219,1.27403,-3.28972
19.9682,0.485325,-5.53387,29.8938,5.93714,-6.07897,30.9591,5.90611,-0.548212,29.906,6.84447,-6.27861,29.5096,6.61916
5.43561,0.362409,1.15686,6.10144,6.18501,2.23925,5.97407,6.66468,0.917401,6.37623,6.45214,-0.0744481,4.8411,7.15442
7.65985,0.100186,-4.65066,12.2313,-7.12428,-6.01388,10.9338,-7.28345,-6.27504,9.11321,-7.51147,-6.25937,10.5405,-7.34842
4.77225,0.25833,-7.98941,1.31883,3.54077,-7.42704,1.79089,4.55719,-7.06381,1.64795,4.17108,-7.15247,1.5055,3.59116
1.89779,0.12177,-4.212,7.44885,6.55951,-2.83666,7.633,6.88691,-2.84086,7.67561,6.90229,-2.61401,7.46805,6.84674
10.3538,0.0779861,14.6338,1.85575,0.314466,14.9438,2.59553,1.39207,14.9705,2.09724,1.44201,14.8598,2.87307,1.18039
1.34556,0.025411,1.91076,20.2491,6.89039,1.68527,20.9181,6.90352,1.27641,21.0175,6.73126,1.21159,20.9736,6.69619
0.474321,0.0430901,-13.5434,20.3544,-4.79227,-13.5851,20.5757,-4.76015,-13.5223,20.0914,-4.93064,-13.4724,20.2255,-4.93693
35.9642,0.159186,-1.03259,7.26196,-6.68776,-0.685309,5.62906,-6.89231,0.415607,6.78731,-6.68354,-3.34401,7.70671,-7.1291
13.2896,0.00715255,-5.83139,1.2355,-2.59893,-5.02551,1.63747,-3.61533,-3.93499,1.07783,-3.10848,-4.67086,0.858314,-2.42133
11.4639,0.147294,13.4191,26.0142,-2.90173,13.4478,27.7131,-3.06455,13.5088,25.2139,-3.20775,13.2618,27.7192,-3.63325
1.62507,0.135033,-6.24727,1.14426,-1.67087,-5.86786,0.914211,-1.70631,-6.78093,1.15482,-1.46994,-6.30957,0.955401,-2.06877
8.25968,0.168504,-8.14818,10.6129,7.07344,-5.37832,10.957,7.29803,-7.90616,8.82412,7.32026,-5.37863,10.9067,7.30867
47.5674,1.2473,0.795665,0.841572,4.23219,-1.59512,0.609353,2.80157,-2.52536,1.69058,5.30316,-1.71483,2.07689,5.42855
3.46594,0.229727,12.8343,2.08257,4.92425,12.9572,1.89233,5.33143,12.7477,1.768,4.26969,13.3633,1.83608,5.24588
0.00226202,0.00454464,-0.332647,0.639659,-2.46981,-0.381302,0.628642,-2.42501,-0.320268,0.597008,-2.39173,-0.381286,0.612105,-2.39664
0.50124,0.0373083,-10.5344,0.705319,3.69855,-10.5554,0.622235,3.32622,-10.4742,0.647117,3.34789,-10.0636,0.815074,3.86764
16.9675,0.499007,1.57505,22.3887,-5.99069,0.949425,21.2351,-6.40633,0.870753,25.2404,-6.66753,2.58463,21.9433,-6.47606
0.580671,0.217074,13.8352,0.238048,2.42476,13.3707,0.218444,2.57367,13.4829,0.191563,2.34738,13.4922,0.174318,2.3023
5.02414,0.276356,-5.32904,19.5111,6.47472,-5.77294,18.9013,6.96309,-3.50654,19.4661,6.57526,-5.42796,19.8112,6.69635
0.658446,0.00379619,15.2551,10.9853,0.156861,15.2965,11.6788,0.0457687,15.3146,11.6166,0.261447,15.2691,11.376,-0.0107953
5.78882,0.154136,-11.4649,30.9047,5.11486,-11.227,31.4667,4.46748,-10.7706,31.4787,4.92131,-10.9517,31.6044,4.43346
20.8096,0.112767,-6.87789,2.65847,5.52257,-11.5489,3.23407,5.45892,-7.43272,1.88039,4.68377,-8.98735,2.98802,5.67045
2.55737,0.545866,2.32714,21.6494,-6.42172,4.01947,21.519,-6.57565,3.95024,21.465,-6.57919,4.07666,21.6852,-6.60068
39.2827,0.147842,-6.76771,1.01287,-1.04139,-9.54922,1.99644,-2.65488,-4.94183,0.690422,-1.61307,-9.31682,1.25251,-0.722326
17.3568,0.0435891,-10.8214,12.3394,6.82492,-11.8832,12.7004,6.63934,-11.9707,11.2658,6.55216,-11.0816,11.2794,6.7598
3.90247,0.256673,-8.25165,29.3335,6.72041,-7.69497,30.5708,5.82347,-7.68239,30.2338,6.17781,-7.61203,30.5386,5.86166
1.22668,0.122498,9.60607,23.8415,6.25022,8.77518,23.5478,6.14057,8.55569,23.6285,6.16036,8.5618,23.5875,6.13878
96.5806,0.436755,1.40878,31.3428,-3.07969,-3.5357,30.9751,-3.13007,-1.18757,29.7785,-4.01328,-2.82817,31.6721,-2.87601
18.1575,0.833303,3.07128,13.198,6.373,6.0286,14.9506,6.76696,3.12628,12.0698,7.02384,5.61224,14.4793,6.79288
4.63364,0.0659189,-8.24452,22.698,-6.90172,-7.51757,22.3261,-6.90819,-8.09133,21.7517,-6.61555,-8.42802,23.1234,-7.1207
15.5792,0.541729,12.2465,10.5691,-3.78981,11.9458,11.6792,-4.99364,13.7125,10.5203,-2.85202,12.3261,9.53085,-4.56848
0.904814,0.108366,-3.10276,0.883461,2.78211,-2.83347,0.62816,2.20359,-2.91168,0.66278,2.2603,-3.17953,0.739157,2.39433
10.6996,0.144543,-7.41425,33.7011,3.10612,-6.16535,33.8077,2.92921,-6.98137,34.0247,2.1783,-6.16463,33.8449,2.84696
1.31398,0.0426965,7.76304,6.9725,7.04389,8.05984,6.9545,6.86781,8.9975,6.74705,6.38996,8.93114,6.69256,6.38478
1.18471,0.112477,-13.5394,22.5505,5.37197,-12.5745,22.5304,5.65471,-14.1328,22.4593,4.97598,-12.5712,22.4441,5.63851
18.789,0.174913,10.7183,33.2046,-1.12693,12.1981,33.2847,-0.749628,10.9742,34.12,0.382752,12.1194,34.4947,0.866234
3.28237,0.177509,-9.57918,25.8881,-6.06654,-9.41541,25.66,-6.19515,-10.7193,25.3695,-6.14986,-9.19624,27.0406,-6.49951
8.53172,0.531116,13.8871,10.5984,-2.02941,13.7709,9.82791,-2.93859,14.1164,13.0218,-2.80669,13.9204,9.42945,-2.72092
2.03668,0.222411,-1.93986,15.5142,-6.20373,-2.63429,16.9805,-6.74242,-2.35034,15.3506,-6.37008,-2.56124,16.9844,-6.74757
6.64768,0.473898,14.2053,19.7564,-1.79552,14.423,18.6326,-2.49988,14.7801,20.9239,-1.98246,14.8504,18.753,-0.51337
60.1752,0.212238,14.4544,1.70343,-0.371941,14.8166,5.09134,1.52867,14.9092,5.30557,2.11207,14.9036,4.56457,1.84239
2.72836,0.00929056,-4.98038,2.17459,-5.04713,-3.53414,2.19093,-5.44857,-3.53077,2.13352,-5.27609,-3.74839,2.28817,-5.69419
3.62695,0.0376463,8.64466,3.22802,6.6476,6.71308,2.8435,6.51128,6.63308,2.97832,6.53282,8.01741,3.21318,6.59623
4.08705,0.0204588,-3.18579,34.3516,1.40834,-1.98909,34.3709,1.58624,-1.38677,34.4596,1.19406,-1.18037,34.4137,1.47043
6.09688,0.211009,1.21931,27.7398,6.43414,2.03637,27.8082,6.7342,1.30052,25.914,6.80533,1.05272,28.2178,6.58933
18.4881,0.19698,-13.711,9.57492,-3.45654,-13.4234,10.8584,-4.34322,-12.6945,9.93682,-5.03498,-12.8709,9.06065,-4.6632
30.5508,0.160469,4.02351,23.021,-6.51356,4.78012,24.6004,-6.80152,6.08572,22.573,-6.64099,2.88831,22.3798,-6.6221
6.44685,0.214975,-5.45783,24.4493,-6.70863,-5.25435,23.3991,-6.40425,-5.92261,25.4799,-6.6701,-5.01896,23.1063,-6.24598
2.5536,0.184543,-13.7157,21.6979,5.25145,-12.9558,21.4859,5.51027,-14.4604,21.3944,4.59998,-14.461,21.5677,4.58931
84.7018,0.542657,-6.38565,26.3692,6.19609,-4.52397,28.2976,6.91195,-6.77065,28.1474,6.884,-3.41961,26.3873,6.76269
2.90729,0.123287,4.63554,33.2299,4.34663,5.36304,33.038,4.68268,4.19177,33.1081,4.68062,4.35202,33.667,4.0838
3.56285,0.196528,-3.31239,13.2601,6.79117,-1.37233,13.6309,6.95877,-1.14949,13.1527,6.83725,-1.28516,13.2359,6.86428
0.457741,0.0173976,13.0425,31.6901,-3.05577,12.5009,32.0082,-3.12063,12.5546,31.9549,-3.1337,12.5691,32.0454,-3.05489
55.2082,1.30468,-2.41479,15.3097,-6.40544,-7.06141,15.7873,-6.03702,-8.34819,15.1888,-6.08737,-9.53864,15.9344,-6.54788
4.98263,0.00370231,13.289,1.81418,3.87166,14.708,1.75212,3.81594,14.5054,1.02365,3.01756,12.8787,1.77807,3.83568
4.53125,0.156323,-3.37601,28.3365,-4.82169,-4.36298,28.4113,-5.33009,-1.96192,28.121,-4.59755,-1.99249,28.5296,-4.40057
0.0174498,0.0180069,-13.6355,32.6354,3.63717,-13.5198,32.6464,3.69098,-13.5111,32.6789,3.65709,-13.5677,32.6278,3.67289
6.09823,0.335775,12.1933,17.9362,6.07305,13.0034,18.34,6.27171,12.0959,17.2138,6.26217,11.0956,18.9763,7.15615
2.27861,0.0865528,10.6675,27.6927,-5.15044,11.0699,27.8701,-4.89985,9.47823,27.6056,-5.42931,9.47208,27.6548,-5.42024
4.09836,0.333103,-4.50762,5.57312,6.59048,-3.04923,4.6277,6.95779,-6.06842,4.96125,7.22555,-6.06858,5.01312,7.21531
12.6687,0.169835,2.46999,33.3203,-1.86829,2.58662,34.563,0.631803,2.43628,34.4861,0.520192,1.98921,33.1921,-2.39327
10.4024,0.423826,-1.65881,7.13525,6.31241,-2.56431,7.87345,6.93016,-2.48742,4.95477,6.82248,-1.28435,7.25391,6.67962
2.52353,0.141738,-9.98189,33.3691,0.17871,-10.3358,33.5161,-0.418058,-10.7484,33.9153,0.799001,-9.63471,33.4,0.16338
3.50226,0.106338,11.7762,3.89611,-4.40969,11.7825,3.26096,-3.99455,11.559,4.70291,-4.74404,11.8664,2.91313,-3.65827
2.97506,0.224541,2.7926,31.1812,5.63583,3.42831,30.8965,6.0157,2.25675,31.2207,5.88624,2.66097,31.8893,5.52555
5.93286,0.314356,14.9227,21.8675,0.597906,15.0583,22.1117,1.52893,15.0149,22.3139,1.90784,15.128,20.6111,-0.659974
13.8146,0.15023,10.9991,25.1207,-5.14182,11.9069,25.8974,-4.74575,11.7478,26.7538,-4.81392,11.4506,26.9956,-4.98505
1.4834,0.00461252,14.5577,21.5616,-2.33797,14.5404,21.0731,-2.512,14.7569,21.052,-2.05603,14.8048,21.3483,-1.87738
4.35497,0.317336,11.942,19.4989,-5.55336,9.13126,19.2895,-6.1106,9.33997,19.4418,-6.08328,9.96346,19.5299,-6.02753
5.91899,0.0163517,-12.4446,23.5988,-5.65701,-11.1491,23.8424,-6.35086,-12.7652,23.1456,-5.51155,-12.5259,22.8246,-5.63934
0.535862,0.300726,5.60895,25.3845,-6.49373,5.70623,25.7128,-6.42145,5.78593,25.6895,-6.34803,5.87603,25.6403,-6.33595
0.245085,0.00781053,-7.50304,4.21526,7.09043,-7.49582,3.99823,7.01608,-7.42978,4.04709,7.03022,-7.77401,4.06721,7.06066
5.40253,0.242462,2.50658,1.64556,-3.15874,2.21301,2.09463,-3.89912,3.93803,1.22565,-3.14581,2.42353,0.949145,-2.83856
5.99978,0.695062,4.96421,20.2966,-6.99522,5.75548,18.1484,-6.58523,5.66256,18.1452,-6.58691,6.155,18.8418,-6.94949
0.00575392,0.0131502,1.26053,0.376658,-2.2612,1.32034,0.384673,-2.29917,1.32691,0.394455,-2.34519,1.25828,0.41053,-2.33865
5.43102,0.0546233,-11.5172,10.7725,6.24798,-10.3525,10.7017,6.57924,-8.28689,10.3346,7.1594,-8.28425,10.2776,7.18341
2.74273,0.0659064,4.40424,11.4441,-6.79743,5.17829,11.3992,-6.99531,4.20519,11.3432,-6.8384,4.43708,12.5452,-6.79444
0.439523,0.0107062,1.25748,8.14806,-7.33513,1.44328,8.53231,-7.25921,1.5809,8.50903,-7.28576,1.59375,8.42116,-7.30898
4.08705,0.0309955,9.80849,15.3408,-5.58979,11.2356,15.6121,-4.72777,11.9441,15.6792,-4.2731,11.8458,15.4539,-4.30999
3.84923,0.214325,-5.13669,21.5294,-6.31313,-5.8872,21.2011,-6.49458,-3.05865,21.6289,-6.31386,-3.12203,21.6914,-6.35428
38.758,0.538007,-0.0724111,18.804,-6.881,-1.24123,16.2797,-6.79511,-2.9509,18.1768,-6.70056,-2.07859,17.0412,-6.77181
4.64812,0.373874,5.50281,15.4517,-6.38819,2.77127,15.4105,-6.49832,3.11417,15.6101,-6.53682,2.42125,15.4642,-6.46585
38.6377,0.588224,2.31005,10.9511,6.9003,4.54992,11.2039,6.90995,3.54147,12.1384,7.02091,4.13924,9.58544,7.26181
0,0.00748445,-1.96764,32.3326,5.23472,-2.00254,32.3574,5.23496,-1.96844,32.3549,5.20763,-2.00235,32.3805,5.21777
3.90062,0.0597247,14.9623,24.1385,0.46109,14.9457,23.8943,0.158217,14.6043,24.3927,2.22865,14.5921,24.3201,2.28484
19.3286,0.723132,0.15036,12.1066,-6.3341,-0.672023,10.8176,-7.07911,-0.400738,14.0891,-6.97643,-1.16232,13.1314,-6.98814
12.2714,0.232069,-1.39751,25.6278,-6.6591,-5.40631,25.2195,-6.76758,-5.34258,25.2767,-6.77275,-0.141286,25.7824,-6.31747
3.03861,0.217396,5.68497,13.5447,-6.77566,3.27595,13.1734,-6.29771,3.28285,13.1293,-6.30758,3.55556,13.1201,-6.34674
2.22782,0.814366,11.6693,1.4189,-3.00438,10.072,1.31481,-2.96415,10.1534,1.50156,-3.04031,9.93827,1.4859,-3.19437
0.83656,0.0111183,14.8858,12.0568,-1.4033,14.7563,12.5894,-1.74899,14.7772,11.6926,-1.56884,14.7042,12.533,-1.83594
6.50548,0.365162,-10.5018,19.7474,6.1019,-12.3669,17.3748,7.01002,-12.4294,17.5765,6.87205,-11.487,17.9296,7.1003
7.80176,0.0508801,6.08103,15.0885,6.80053,9.9576,16.5575,7.04198,10.4423,16.6334,7.0431,9.12038,16.2899,6.99474
82.2021,0.00689458,-4.83148,0.643169,0.33469,-9.00466,0.973438,1.60905,-10.7631,1.39829,-0.648245,-10.1862,1.14801,1.16595
1.04855,0.0957281,-15.0711,17.5341,-1.93631,-15.1139,18.1294,-1.80114,-14.9208,18.1079,-2.08516,-14.9998,18.0384,-1.95561
2.71963,0.776087,-3.36237,32.7738,3.96831,-3.85883,32.2867,4.83487,-3.78499,32.2864,4.83578,-3.94611,32.3716,4.81911
2.12429,0.0478752,1.09459,4.63813,-6.56681,-0.751019,4.90034,-6.72274,-0.81645,4.77585,-6.69324,-0.820762,4.88703,-6.72099
3.27306,0.651379,13.8622,9.03884,4.68746,12.837,8.60308,5.46166,12.8323,8.6691,5.4301,12.6967,7.94694,6.13579
0.0695298,0.000712348,13.4285,6.15625,-3.63553,13.3707,5.94916,-3.69754,13.3511,6.02762,-3.72886,13.3433,5.9662,-3.73522
10.7146,0.210829,4.92076,20.6252,6.70443,4.61512,22.5072,6.63984,4.64222,20.1604,6.95495,6.44519,20.5488,7.06465
2.296,0.318198,9.53031,17.5438,6.84875,11.5103,16.9951,6.87873,11.0777,17.0046,6.9345,11.5058,17.0406,6.88258
4.47135,0.418005,4.81456,5.70119,-6.07058,5.07295,6.53139,-6.65978,5.30197,5.00153,-6.20996,3.20316,5.351,-6.84676
3.10898,0.229268,-2.46968,27.5227,-5.28365,-1.34211,27.408,-5.34148,-0.926192,27.5214,-5.32407,-2.80167,27.3998,-5.53003
10.2671,0.328212,9.04596,0.961971,2.12638,8.43909,0.49657,1.35649,11.5044,1.00679,3.78051,8.0643,0.581553,2.35123
16.3653,0.140768,7.20114,25.5728,-6.24514,6.94712,29.1071,-6.13203,6.87277,27.5547,-6.33101,7.20127,28.6605,-6.06854
4.56766,0.20275,-0.387353,22.3956,6.03198,-0.346755,22.8449,6.26548,-2.19347,21.7902,6.94725,-0.0992677,22.0323,6.10903
6.19405,0.0213154,5.67946,31.9273,-3.38053,6.78271,31.6008,-3.50791,4.96991,32.0168,-3.47612,5.86046,32.3289,-2.95073
1.93364,0.000946267,8.1307,0.596825,2.40426,6.70813,0.529775,3.21546,7.10512,0.568166,3.07908,6.76728,0.518132,3.11683
0.00879289,0.0195673,6.71064,0.440984,-1.6021,6.58629,0.436791,-1.59404,6.60522,0.437424,-1.55807,6.64117,0.446343,-1.58397
12.2996,0.242464,4.90132,17.8956,6.74407,4.87302,15.7795,6.89232,4.79921,18.7163,7.01919,6.22001,17.6505,7.0283
20.4089,0.487702,-11.4657,21.1445,-5.66283,-14.1364,21.0374,-3.96119,-14.151,21.2321,-3.91848,-8.88907,21.2756,-6.23662
0.15489,0.0173253,5.9985,3.8135,-6.0776,6.07023,3.58425,-5.91435,6.14397,3.64079,-5.94628,6.00045,3.58434,-5.92491
6.69275,0.177617,-12.8995,13.3848,5.88881,-13.2981,12.0967,6.25899,-12.6913,12.2037,6.68421,-12.0796,13.3563,6.32646
2.99858,0.122709,10.625,9.86453,-5.47763,10.6743,9.33331,-5.62747,10.3306,9.87876,-5.71115,11.2396,10.8818,-5.32027
12.4233,1.69513,8.10541,8.67606,-6.81341,5.56877,8.07718,-6.88041,5.32867,9.07744,-7.25916,5.64829,8.69122,-6.8827
41.4353,0.246087,-6.06512,1.88258,-4.41832,-8.94228,2.48134,-3.30042,-9.57,2.8184,-4.07933,-7.87525,2.88034,-5.75507
24.2902,0.163146,9.30361,16.2483,-5.72015,8.21367,18.6252,-6.48802,7.34889,16.6871,-6.55388,11.2179,16.2377,-5.28854
13.5329,0.0708961,-11.486,26.6779,-5.80742,-9.72429,26.7149,-6.41956,-12.2889,25.8525,-5.50123,-11.4889,25.3398,-5.86915
6.41584,0.129925,-12.3543,24.8838,-5.5554,-10.814,24.96,-5.99958,-13.9192,25.157,-4.64774,-12.2738,23.9685,-5.83303
7.42559,0.435875,-4.25786,24.7812,6.36134,-3.60839,23.1957,6.71574,-3.47058,26.0023,6.73584,-5.35361,24.9996,6.91096
4.91922,0.3989,13.3738,14.5765,5.19417,14.5608,14.703,3.58572,14.6227,14.9089,3.33206,14.6048,14.9156,3.36563
0.660224,0.707653,5.54756,7.81193,6.72975,4.84419,7.76775,6.62999,4.83922,7.85076,6.66216,4.8405,7.66439,6.63654
1.19481,0.0572904,0.965813,32.9407,4.79587,0.143328,32.9712,4.5979,1.5819,32.8178,4.9012,1.58274,32.8522,4.86791
10.06,0.162516,-10.4868,3.12715,-5.05165,-9.56731,2.83326,-4.12164,-9.08357,2.83804,-4.36666,-9.04017,2.92384,-5.24261
5.32925,0.113297,9.35921,5.31379,-5.20106,8.86208,8.15649,-6.39308,9.64791,5.48711,-5.18788,8.91181,8.42169,-6.42575
0.798198,0.153212,-14.869,23.087,1.56244,-14.6369,22.9907,1.4334,-14.9129,22.99,1.00173,-14.9658,23.0754,1.03893
0.672392,0.190235,5.03909,23.4494,6.28357,5.67837,23.3183,6.32127,5.40405,23.2766,6.27398,5.5486,23.3314,6.27416
3.53265,0.119063,6.00227,25.9073,-6.23149,6.64192,25.6757,-6.37034,5.50107,27.3615,-6.61873,5.85952,25.725,-6.29931
11.3566,2.1235,-4.2037,13.2021,6.82327,-10.0036,13.366,6.53663,-10.7746,13.6958,6.48921,-10.2821,13.4806,6.47154
17.2739,0.242635,-1.31075,1.4084,-2.76649,-1.84359,2.02821,-4.05159,-1.70143,0.925073,-2.47997,0.563421,1.69145,-3.6848
3.59882,0.181562,-8.69181,32.9878,0.419714,-9.66621,33.5593,1.21342,-8.26617,33.6285,1.17387,-8.76656,33.0436,0.148891
7.47626,0.182763,6.06165,5.84011,-6.13328,5.56466,8.03958,-6.90142,5.82389,5.39102,-6.31423,6.574,5.69343,-6.1427
11.433,0.319471,5.50401,33.1265,-2.40433,3.02986,33.5098,-1.90623,2.25305,32.9792,-2.75508,3.36085,33.211,-2.222
10.0564,0.247949,-1.91695,18.675,7.0295,-0.312808,19.8522,6.73776,0.101093,19.9373,6.82326,-0.455481,18.864,7.09959
38.9115,0.324327,6.41692,33.7996,-0.795229,2.6459,34.4804,0.180831,5.09046,33.7498,-0.665518,4.61082,33.423,-2.02991
0.144155,0.200215,-13.1,12.4514,-5.4694,-13.1733,12.8977,-5.39312,-13.3405,12.9493,-5.25045,-13.1975,12.8846,-5.35706
3.67975,0.126249,6.75114,16.786,6.93368,6.3753,17.1094,7.07166,7.07478,16.9312,7.10266,6.62403,15.4712,6.89493
1.3412,0.088081,-4.70948,16.7793,-6.58981,-4.08908,16.8632,-6.65969,-5.17053,16.3875,-6.44,-4.21209,16.6542,-6.66517
39.1733,1.87177,3.40318,28.2724,-5.47574,4.97609,27.6634,-6.63644,5.56138,29.8343,-5.20552,5.07911,28.1737,-6.42286
2.2252,0.110908,11.1472,13.0684,6.22871,10.9805,13.5014,6.33783,11.5676,13.2455,6.08393,10.6101,12.4165,6.81766
6.5645,0.14681,-13.8672,9.00325,-3.03826,-14.0628,8.0959,-2.52889,-14.1594,8.34429,-2.17296,-14.2289,9.11836,-2.11713
2.40876,0.178946,12.125,11.419,-4.42599,12.1962,12.5799,-4.6832,11.9869,12.3658,-4.98575,12.1106,12.3079,-4.80016
0.775203,0.0692914,-6.87533,21.2595,6.83098,-7.07888,21.0021,6.95578,-6.38395,21.2825,6.95414,-6.94762,21.3905,6.85668
4.07848,0.31026,8.2189,27.4765,-5.62333,8.20702,26.8044,-6.14351,7.76236,27.958,-6.03848,9.40903,27.6011,-5.4384
0.918447,0.414702,10.9033,34.1619,0.414546,11.0788,34.5364,1.21282,10.8701,34.5257,1.25415,11.0115,34.531,1.2584
6.53396,0.29788,-3.359,26.4186,-6.25039,-2.03156,26.4913,-6.49607,-3.21804,27.3226,-5.66852,-4.04075,26.2888,-6.90887
16.6234,0.825394,-11.7501,32.3734,3.27138,-12.9284,30.6806,5.04878,-12.6413,33.5328,2.75079,-12.7093,31.3555,4.64527
6.80898,0.507127,-7.59628,26.9381,-6.26035,-8.28243,27.7031,-6.83021,-7.93366,26.154,-6.94136,-5.6553,27.1994,-6.35792
3.37109,1.42216,2.95538,8.11032,-7.13352,2.83281,6.43441,-6.88587,2.95719,6.52346,-6.82696,3.09641,6.61293,-6.77749
0.0738118,0.00938757,14.4418,0.409904,1.57477,14.5592,0.512747,1.59949,14.482,0.466351,1.48256,14.4325,0.413997,1.48222
3.43546,0.126929,-3.06659,4.81528,-6.66067,-1.5996,4.9529,-6.79189,-0.823118,4.95587,-6.76337,-0.887263,4.77688,-6.69875
3.34172,0.0429675,4.07905,6.72258,-6.60032,3.17599,7.40858,-6.96053,3.26368,7.20024,-6.84645,5.12123,6.80952,-6.81325
8.0608,0.402545,-7.87909,33.6562,2.97784,-8.48713,33.484,1.17392,-8.97949,33.7382,1.88342,-8.15261,33.7184,1.88907
13.4994,0.0846012,7.23625,31.743,-3.27727,8.40282,30.4922,-5.01978,7.64411,30.7637,-4.34195,8.93203,31.3102,-4.49177
1.21603,0.063632,12.5734,19.817,-5.05413,12.5392,18.7841,-4.82755,12.4868,20.1928,-5.15565,12.4221,18.8494,-5.16547
1.51615,0.0881707,-6.49605,31.4452,5.08044,-5.94185,31.608,5.35462,-7.0534,31.4283,4.92421,-7.04448,31.2428,5.13598
3.95618,0.324316,8.0001,19.3602,-6.28617,9.05726,19.2851,-6.12402,7.72826,18.5153,-6.79712,7.51961,19.9275,-6.87817
1.37056,0.169544,3.60078,8.7271,-6.70674,2.42464,8.47564,-7.26572,2.56831,8.36795,-7.22426,2.43008,8.42207,-7.26597
5.07892,0.418344,6.98223,5.12004,-5.46502,6.90047,4.50988,-5.80614,6.51351,5.56829,-6.11667,9.01513,5.33001,-5.41436
2.71147,0.00399441,-13.3534,8.37969,-3.57708,-13.4912,8.85955,-3.66272,-12.3732,7.20327,-3.64885,-13.6344,8.1459,-3.3674
4.27094,0.219304,-14.7098,8.37979,0.689169,-14.5912,9.05971,-0.836552,-14.5579,9.536,-1.14892,-14.5303,9.50615,-1.23628
1.92478,0.205767,14.2499,18.0624,-2.624,14.1087,17.2938,-2.85278,14.028,18.0283,-2.99493,14.0381,17.9428,-2.96458
0.880066,0.520921,2.01943,4.60586,-6.53682,1.16566,4.5965,-6.5716,1.09348,4.75134,-6.60365,1.163,4.64523,-6.56472
6.3804,0.0986666,-15.2725,16.4235,-0.138821,-15.0907,16.1947,-1.78596,-15.0209,16.0096,-1.22125,-15.2907,16.0857,1.19171
2.36108,0.0411648,-0.347158,32.8959,-2.21153,0.354565,32.9562,-2.31994,-1.17015,33.5817,-1.74217,-0.94108,33.2406,-1.97491
18.6394,0.151206,4.91518,33.7533,3.64122,6.50842,34.1009,2.80162,5.01815,33.8572,1.84728,6.10069,34.0252,2.60862
0.744338,0.0167949,-14.4751,30.2768,-2.98287,-14.2704,29.9868,-3.47553,-14.5058,30.1331,-3.00789,-14.2472,30.1137,-3.4773
32.1081,0.551933,-2.61382,11.2939,6.53706,-0.769084,12.2759,6.62498,-2.54127,12.8691,6.88444,-0.888995,11.5417,6.74341
3.61808,0.18791,9.07218,32.1777,-3.32904,7.73708,31.5463,-3.68751,7.67178,31.5565,-3.59225,8.73416,32.0051,-3.81599
5.27809,0.151653,-4.44537,9.85097,-7.34367,-3.86751,7.42773,-6.9304,-3.89996,7.93349,-7.07726,-3.93105,7.40745,-6.90527
3.54677,0.102954,14.0398,7.70056,-1.51336,14.2593,10.0654,-1.95123,14.2424,9.98686,-1.96386,14.1121,8.21463,-1.74222
1.46329,0.112947,9.99841,11.4606,6.94819,10.4917,11.034,6.96647,10.4106,11.9211,6.9386,9.76143,11.5354,7.11883
2.45471,0.173314,-0.472419,28.0149,-4.97478,-0.0582782,27.9136,-5.47428,-0.227115,27.5648,-5.62087,-0.858755,27.5342,-5.32522
28.6196,0.124044,13.7366,34.066,0.908481,11.8656,33.7226,-0.195591,11.8426,33.132,-1.45731,13.6476,33.31,-0.433606
16.9424,0.31754,12.2821,28.9282,-3.63787,11.0888,28.2685,-4.88348,10.9212,27.9324,-4.96576,13.6633,29.5844,-3.05672
3.40492,0.212912,-9.98841,29.6731,-5.06215,-10.7485,30.3146,-4.98551,-10.2438,29.4592,-5.34053,-8.64121,30.294,-5.19976
18.2964,1.12359,-2.01838,0.516129,2.14401,-3.54554,1.63991,4.54721,-2.83932,1.5276,4.97651,-4.0829,1.65928,5.09076
4.59513,0.120967,14.2408,27.6849,-1.64598,14.1545,27.8901,-2.15878,14.8071,27.6259,-0.624752,14.8103,27.9491,-0.619512
0.136591,0.027799,-15.0029,21.7979,2.17647,-15.0044,22.0449,2.04468,-15.0219,21.8052,2.3224,-15.0062,21.9803,2.17273
7.60629,0.0654872,0.212774,27.8288,6.57171,0.0469533,25.4733,6.77545,-0.0125077,25.4697,6.7751,0.710134,27.7326,6.64777
3.24583,0.339418,1.60972,30.5403,6.61232,2.12236,31.6978,5.48778,2.20158,32.0384,5.27234,2.11956,32.0762,5.24413
17.8884,0.778353,-7.80015,30.2283,-4.74796,-8.44944,29.4572,-6.1304,-6.85419,29.7101,-6.05245,-6.23346,29.6915,-4.74335
5.85887,0.306187,-10.3611,7.77656,-6.20806,-9.66943,7.95178,-6.11589,-9.03348,7.96445,-6.47119,-9.77244,7.3959,-6.36154
10.6358,0.0169587,-13.2387,26.5205,-4.37303,-11.8823,26.6241,-5.60596,-13.7963,27.1226,-4.47593,-12.0242,26.6799,-5.53891
0.264996,0.0248212,14.0182,3.91103,-2.29558,13.9763,3.60235,-2.42836,14.0506,3.49002,-2.04098,13.9858,3.5984,-2.38425
5.95413,0.382711,9.56717,12.8747,-5.70921,9.03055,12.405,-6.34758,9.42635,14.0832,-6.21073,11.4754,11.9608,-5.28619
12.9389,0.199465,-14.8719,11.5163,3.73487,-14.6315,9.73086,4.50815,-14.4853,9.89348,5.00424,-14.8008,10.0482,3.75043
4.54298,0.0286934,12.7284,4.04154,6.0566,10.1711,3.36293,6.61053,11.0273,3.52064,6.43625,10.0293,3.44315,6.63727
16.3762,0.838977,10.1979,10.6739,-5.78597,8.9529,10.057,-6.37081,9.77016,9.17862,-6.02916,8.61518,10.1039,-6.77105
3.8576,0.456461,9.85289,0.808231,3.42951,9.49572,1.24942,4.89552,9.85198,1.26894,4.93281,9.78643,1.26503,4.79252
6.85881,0.18596,12.7191,7.14964,-3.90849,12.8563,8.49152,-4.1009,13.8645,7.21775,-2.69666,13.8749,7.28015,-2.68587
1.09361,0.271736,6.49281,26.3251,6.79826,5.2341,26.5429,6.71977,5.29959,26.6414,6.73451,5.23467,26.4944,6.72171
8.44472,0.28872,-7.34307,6.18275,-6.53248,-5.66696,6.32799,-7.05966,-4.8962,6.34711,-7.10542,-6.9622,5.06789,-6.11188
2.79575,0.263648,4.3549,23.1038,6.08447,5.13203,23.2108,6.2825,3.86496,22.6072,6.52627,3.98962,23.3459,6.31288
5.27254,0.782752,3.28666,33.533,1.66575,3.69863,34.244,2.22216,3.2906,34.3276,1.62247,2.87091,34.2311,2.44082
23.6479,0.210915,-4.15702,29.7166,-3.85697,-1.61016,29.5252,-4.05801,-4.15626,29.471,-4.43813,-4.65749,30.3196,-3.57545
27.3594,0.103957,1.44208,30.042,-3.56518,4.39827,30.5063,-4.22968,4.40248,31.3193,-3.93348,3.30804,31.1098,-3.65843
11.8568,0.497222,8.49463,34.3099,0.0393676,9.87319,34.0513,0.182929,10.4246,34.1936,0.259355,10.3459,33.7403,-0.47451
3.38617,0.419159,9.26522,14.0014,6.59719,11.6024,14.2809,6.06227,11.1883,14.1752,6.26696,10.893,14.2865,6.33262
5.93963,0.11859,7.14806,20.8284,6.82614,8.76778,19.7046,7.13386,6.86635,20.716,6.95463,8.8404,20.1756,7.07199
3.21011,0.340267,11.68,14.2581,6.00588,13.3339,14.5396,5.24499,13.3094,14.6788,5.2944,12.9192,14.4068,5.53085
6.42816,0.274275,5.75307,7.86886,6.72644,8.9586,8.18844,6.68789,8.96159,8.08859,6.69341,9.30831,8.24383,6.71265
12.297,0.769559,5.60159,23.4736,6.29084,8.12199,23.7084,6.27261,8.85467,23.3884,6.18074,7.54346,22.9326,6.78687
1.60419,0.0562792,11.4306,1.39984,4.59023,10.5924,1.85041,5.20513,11.232,1.48204,4.81581,11.7927,1.45932,4.29222
0.0448009,0.0114317,-11.9402,0.60465,3.29427,-11.7179,0.567261,3.22314,-11.7084,0.560896,3.32225,-11.6598,0.551654,3.27103
2.31941,0.410303,1.52244,23.1282,6.50964,-0.143721,22.9655,6.36051,-0.0835311,23.0044,6.394,-0.275271,22.8452,6.27488
12.1179,0.184581,1.49768,2.95081,-5.87704,2.73246,2.97419,-6.17408,1.87465,2.42415,-4.54255,1.7067,2.38268,-4.45913
5.25692,0.139722,12.6601,7.17423,-3.96882,10.8651,7.22416,-5.32961,11.2954,7.16437,-4.95748,11.2433,6.8423,-4.99081
0.194645,0.011011,14.9495,7.72413,1.1144,14.9752,7.96785,1.15036,14.9662,7.95276,0.99875,14.9662,7.89408,1.18845
19.9938,0.211201,-14.3263,5.8756,0.526071,-14.4747,9.34571,-1.42792,-14.3088,9.36198,-1.99153,-14.2069,8.92211,-2.11665
3.95984,0.206961,14.5697,16.0765,-0.464521,14.6982,16.3531,-0.221886,15.1898,15.0663,-0.269005,14.6901,16.2066,-1.4457
5.0967,0.121478,-4.08911,32.4541,-2.51939,-5.1674,33.2564,-1.86555,-5.04433,32.7555,-2.38898,-3.39022,32.6439,-2.48957
1.63828,0.0171194,-9.07325,1.16382,4.36595,-9.29775,0.958804,3.81884,-9.23929,0.892068,3.50729,-9.63994,0.944967,4.05149
67.699,2.80531,-14.2501,13.2458,-3.88009,-15.0895,12.0442,0.45162,-14.4163,10.2401,-2.06601,-14.9388,11.3507,-0.41656
18.9988,0.270135,-15.0542,12.6753,0.624665,-15.1803,12.2196,1.74208,-15.1688,12.975,2.21995,-15.1296,12.6452,2.41683
6.21243,0.883461,12.6845,26.4728,-4.28652,12.165,24.9222,-4.2094,12.0706,24.7437,-4.36133,12.4647,24.6005,-4.13357
2.81894,1.55123,15.3487,19.5419,1.64086,14.9311,17.7759,2.15286,14.9,17.7918,2.28548,14.8936,17.7934,2.33053
14.9442,0.141409,-11.9331,2.81648,4.97858,-12.4598,1.17507,3.89633,-11.1775,2.60785,5.23838,-12.2449,3.20386,5.32125
7.23695,0.343262,10.2556,2.25912,5.42978,10.3425,2.2178,6.31322,8.95728,1.68107,5.60134,10.5344,1.86987,5.21439
5.43284,0.0460621,-0.442249,15.3405,-6.50977,0.889019,15.3559,-6.64278,-1.93459,15.4283,-6.23595,1.00841,15.5939,-6.60564
8.66916,0.212475,11.369,24.2176,6.01649,9.675,23.7996,6.24486,13.7664,24.6291,4.28154,12.9755,24.3522,5.13074
14.6869,0.0970018,3.56429,30.9333,6.03496,5.47984,31.2449,5.99186,4.80019,29.5523,6.93151,5.86607,29.8723,6.76368
386.555,0.17507,-4.83811,0.652889,-0.62178,2.37419,0.238984,1.40635,2.70226,0.22449,0.769659,1.91633,0.245995,-0.355548
3.25946,0.075179,14.607,27.4912,1.21948,14.6922,27.2002,0.892762,14.7388,26.8484,0.775056,14.7688,28.4457,0.89466
15.5736,0.213798,3.64333,0.599993,2.23723,3.62194,0.827553,3.75914,5.56389,0.341481,2.255,4.5668,0.591592,3.46114
2.3742,0.0606926,4.42405,10.4538,-6.9356,3.28134,9.98667,-6.54188,3.42956,9.87596,-6.49221,3.64934,9.84908,-6.50684
0.29452,0.174487,-14.7654,26.3916,0.450904,-14.6877,26.1844,0.683358,-14.7796,26.1552,0.734802,-14.7131,26.2898,0.660434
2.95208,0.229087,-10.5719,14.9106,-5.88782,-8.48598,15.2046,-6.12839,-8.41053,15.1546,-6.12324,-8.76634,15.0716,-6.11844
4.94585,0.1499,7.54673,33.8812,2.37593,7.56319,34.2233,1.55558,9.26286,34.0699,2.73714,7.81554,33.9349,2.89662
27.7492,0.0147668,13.8939,3.88746,-2.7829,14.1633,5.93764,-1.51865,13.8997,6.78063,-2.73291,14.1677,5.54635,-1.49275
3.03711,0.0729132,-2.53351,18.234,7.07338,-2.3101,17.0117,7.20523,-2.51444,16.7574,7.21465,-2.54074,18.9474,6.89519
2.79439,0.203337,-2.25369,31.3192,5.43543,-2.78973,31.3546,5.55154,-2.75732,31.883,5.38954,-1.7721,31.518,5.66798
5.10043,0.265133,0.521572,13.5129,6.868,2.62801,13.4824,6.72287,2.4945,13.3426,6.812,-0.234836,13.1997,6.70743
10.583,0.198078,10.2844,21.334,-5.53886,8.16918,21.2956,-6.23724,8.23548,21.4444,-6.22039,12.7625,21.4108,-4.25313
6.24056,0.305918,-6.80368,32.4268,3.95677,-6.95789,31.7506,4.61193,-7.42281,33.2873,3.66806,-5.91546,32.8494,4.39211
0.472668,0.0188251,-13.2191,30.136,5.1534,-12.9746,30.5149,5.1213,-13.1788,29.9057,5.30591,-12.9228,30.5304,5.16075
1.44781,0.0597795,-2.81371,1.71641,-3.90865,-3.03378,1.68354,-4.05958,-3.09225,1.436,-3.52627,-2.34111,1.79937,-4.07782
62.2162,1.73096,-11.0949,22.1121,5.65127,-8.94395,19.8823,7.06127,-9.52054,22.5541,6.22365,-10.2272,24.1988,6.69609
0.0779636,0.0130896,14.4538,33.6245,0.849781,14.2284,33.836,1.02543,14.2759,33.7766,0.884968,14.2299,33.8401,1.07798
1.04666,0.239151,4.20091,20.9732,6.95585,3.64066,21.122,6.88254,3.50337,20.9599,6.90672,3.49555,21.2895,6.94075
1.60381,0.14802,-0.620286,23.1097,-6.37779,-0.478373,22.3706,-6.14007,-0.318019,22.4887,-6.13124,-0.32984,22.7331,-6.25335
3.35836,0.114602,-13.6702,15.0583,-4.43078,-12.1833,14.9471,-5.26567,-12.2726,15.1305,-5.21426,-14.1502,15.1817,-3.98327
3.28382,0.0420633,7.16962,18.207,6.49601,9.04367,17.6349,6.80963,9.45075,17.5312,6.85165,6.29292,17.6638,7.00873
3.267,1.26513,-11.9713,29.9551,5.8986,-11.4626,30.8792,5.15388,-11.3889,30.8751,5.20151,-10.7127,30.943,5.7256
6.71543,0.34888,6.10057,16.8257,-6.20718,5.6656,18.0892,-6.57409,6.6475,16.7582,-6.51547,5.81453,15.8161,-6.59294
3.7492,0.0574655,6.55444,7.21919,-6.55091,8.37365,7.45967,-6.49255,6.23356,7.64848,-6.90698,8.4548,7.39298,-6.44308
148.801,0.27941,-14.7727,24.1935,2.61839,-14.7905,26.2189,-0.298627,-14.8403,26.1591,0.496933,-14.8168,24.5908,-1.06396
0.355941,0.272675,-3.05017,34.1797,2.36116,-3.33777,34.0889,2.61013,-3.33643,34.0967,2.56303,-3.3307,34.1353,2.43531
5.26575,0.146124,12.8002,21.3998,-4.22672,14.4135,21.468,-2.5455,14.3983,21.5703,-2.57403,13.5452,21.574,-3.58736
18.4665,0.00374305,-1.47095,2.61752,-6.09276,0.492155,2.3671,-4.35181,-0.120195,2.3013,-4.08207,-0.218438,2.59394,-5.73719
6.48379,0.181589,8.79418,12.0667,6.99683,9.01875,9.8477,7.32153,8.50691,10.8567,7.17741,8.46567,9.51563,7.22684
12.1988,0.171297,3.38561,2.27396,-4.42973,0.565481,2.0266,-3.89949,0.755454,2.0025,-3.76417,0.274815,2.03484,-3.93793
6.84704,0.00928621,10.526,8.23886,6.39066,12.8226,8.7199,5.42894,9.29715,8.42777,6.74499,12.7597,8.57774,5.50653
6.99562,0.345614,6.29708,11.4842,-6.61247,6.05719,14.0217,-6.7633,5.87649,14.4324,-6.70673,5.70266,12.5081,-6.79821
10.5716,0.0150149,-14.6425,27.673,-2.96602,-14.5786,28.9701,-2.9203,-14.3075,29.8366,-3.45841,-14.2724,29.6725,-3.56196
0.063802,0.00186784,8.81396,30.6691,-5.0444,8.96289,30.7085,-5.06283,8.90489,30.7312,-5.00749,8.83865,30.7186,-4.99184
8.032,0.128417,3.03185,2.56702,6.38616,-0.850631,2.45218,6.06642,-0.783178,2.48815,6.10583,4.82357,2.85159,6.50885
3.39035,0.217836,-6.60582,1.70623,3.17432,-6.88106,1.61048,3.53295,-5.21969,1.56627,3.39228,-6.67663,1.37021,2.91332
2.51188,0.196609,0.278206,25.7384,-6.22178,0.709167,25.4872,-6.58791,-0.0857812,25.6853,-6.28189,0.757651,26.5257,-6.69979
0.0402901,0.0208621,13.4231,34.2673,1.33723,13.2267,34.3188,1.54709,13.2208,34.3276,1.50651,13.2761,34.3031,1.54341
1.50758,0.0754537,5.7734,31.8351,5.69007,5.26949,31.9152,5.58149,5.19701,31.848,5.64767,6.60084,31.3513,5.90686
41.3508,1.25922,1.9685,29.1957,-4.34835,2.35941,27.4112,-5.86898,0.736946,26.7022,-6.53188,2.63254,27.4662,-5.94599
3.47183,0.102035,-12.5674,13.6637,6.09339,-10.3458,13.3026,6.53891,-11.6009,13.6359,6.29139,-10.0694,13.3685,6.52942
2.34334,0.138024,-14.7519,31.0198,-1.78383,-14.3239,31.3765,-1.8855,-13.4341,31.4959,-2.28368,-13.9733,31.3697,-2.03112
0.591152,0.115247,-2.21637,6.1751,-7.07243,-1.7073,6.06458,-7.0608,-1.91124,5.91146,-7.09783,-1.8477,6.04501,-7.05028
162.322,0.741985,-13.6188,5.27147,-2.6922,-14.7814,3.43941,2.77474,-14.8494,4.71076,3.73532,-14.7852,7.18708,2.99764
36.1968,0.0556023,14.5674,5.82877,0.125967,14.241,6.07569,-1.23031,14.3127,3.86962,-0.767938,14.1074,4.36215,-1.81499
4.78077,0.279748,1.97735,15.7497,-6.17956,2.47451,15.6542,-6.43446,0.714124,14.8628,-6.80392,1.75665,16.4437,-6.33761
10.4719,0.289929,-8.30155,10.6926,-6.85048,-7.84466,11.8162,-7.16,-8.47495,9.42219,-7.17655,-9.14836,10.6919,-7.01834
18.0888,1.05522,9.32492,22.7273,6.41015,9.63014,18.4648,7.1474,9.89492,20.0885,7.04677,10.2806,21.6686,6.21909
2.99037,0.631849,-12.8361,13.5569,5.96404,-14.2853,13.6913,5.38496,-14.5447,13.5767,5.08103,-14.2029,13.4778,5.42253
6.14574,0.146958,-7.34703,7.77134,-7.04431,-5.64527,7.5639,-7.39043,-5.4469,7.79106,-7.42697,-9.09978,7.77657,-6.3947
9.61529,0.0883217,-1.03658,21.8424,-6.40766,-1.77729,19.8084,-6.67855,-2.21923,19.3528,-6.75178,-3.05072,21.5271,-6.3215
3.20189,0.348378,-0.245877,9.26825,-7.22659,0.274007,7.51746,-6.99442,0.232068,8.01732,-7.12478,0.207019,8.28427,-7.16614
27.9414,0.594232,9.5506,11.4135,-6.03272,7.63154,12.9776,-6.91295,8.51661,10.978,-6.72747,7.33685,11.5924,-6.8856
14.5436,0.39317,13.9781,18.8733,-2.93023,13.4128,19.3294,-4.21,13.875,17.0534,-3.15062,13.0641,18.6495,-4.39969
0.200113,0.0145795,13.9823,23.26,-3.45583,14.073,22.9769,-3.34417,14.1233,23.016,-3.25457,14.142,23.0879,-3.21791
2.13591,0.150777,14.8554,18.7469,-0.497584,15.1364,18.036,0.206642,15.272,17.9844,0.733269,15.251,17.9099,0.67902
1.80229,0.114865,-3.27381,26.3448,6.76234,-3.1474,26.7014,6.87289,-1.6741,26.2611,7.04432,-1.67261,26.1603,7.04953
2.07056,0.012699,-5.39238,2.21854,-5.55086,-6.55775,2.34689,-5.20133,-6.48971,2.28727,-5.12731,-6.14097,2.36933,-5.43858
3.2386,0.183597,12.0954,9.82378,6.26301,12.5513,10.6839,5.87172,11.7134,8.93606,6.23799,12.5566,10.745,5.8432
19.9977,0.108504,-9.31615,18.1738,-6.39655,-8.95405,17.1955,-6.46607,-10.8041,17.5363,-6.25194,-10.0428,16.0847,-6.53824
0.374358,0.374575,6.11555,1.84303,6.05983,6.51961,1.9323,5.69246,6.59531,1.92259,5.68987,6.45205,1.91046,5.67588
4.20158,0.427272,-0.639763,32.0695,5.68288,0.152904,33.2616,4.23039,0.084578,33.2922,4.14641,-0.126827,33.3112,4.05713
7.7354,0.289648,14.3949,26.6396,1.57294,14.8627,25.7999,1.37554,14.31,26.4891,3.74038,14.6702,27.1303,1.28264
1.17743,0.061856,13.1477,4.40921,5.90596,13.9953,4.99184,5.44471,12.4937,4.09617,6.13008,14.0014,5.06807,5.43481
0.385204,0.0328396,2.38247,0.262297,-1.26163,1.89788,0.277056,-1.01047,1.75925,0.276351,-1.15093,1.75791,0.274319,-1.05617
12.6815,0.344489,-3.17563,33.023,3.64012,-1.71044,32.9417,4.21642,-2.89068,32.1184,5.22321,-3.42084,33.6178,3.48186
2.64249,0.00528533,-10.6449,14.9921,-5.84052,-12.1165,14.9644,-5.28642,-10.508,15.1017,-5.94306,-12.0783,15.1774,-5.38894
2.60556,0.0189163,-7.91176,33.5316,0.188893,-6.74015,33.448,-0.807705,-8.47242,33.2715,0.340252,-6.87286,33.6252,-0.540708
4.77263,0.000871233,5.23134,29.9206,-5.01074,4.08007,30.1156,-4.31175,4.05631,29.9324,-4.41695,4.97138,30.3628,-4.59767
6.8151,0.0546342,7.90947,29.8048,-5.51777,7.64466,30.7391,-4.38066,6.7375,29.6507,-5.78665,8.11312,29.6589,-5.80253
5.40636,0.0126581,-12.1403,18.4363,-5.27161,-9.41166,18.4208,-6.28949,-9.20394,18.47,-6.36832,-9.21182,18.6257,-6.36631
15.7835,0.27624,-11.8751,30.2435,-4.06252,-11.9592,29.9942,-4.46568,-9.47648,31.7386,-4.1059,-13.2916,31.2375,-3.68603
0.502255,0.151621,-13.4701,3.33535,-2.97548,-13.0787,3.07583,-2.84926,-13.0912,3.07092,-2.80687,-13.0563,2.97337,-2.67712
15.9106,1.08818,-1.84085,2.04692,-4.09291,-3.05098,3.33013,-6.48124,-2.6463,3.1042,-6.42785,-3.02996,3.54169,-6.70377
1.63318,0.0108552,15.4296,14.1487,-0.0167614,15.4589,13.9523,0.368366,15.4777,14.1306,0.426317,15.3045,13.3616,-0.502319
3.14304,0.115757,-14.921,9.98277,0.585159,-14.7536,9.92741,-0.663819,-14.9486,10.3971,0.32611,-14.7592,9.92031,-0.211199
27.9445,0.189508,-15.0124,22.8286,1.58521,-15.009,21.416,0.14026,-14.8633,21.6475,2.76339,-14.8986,21.3625,2.52125
0.273408,0.0637792,-9.66262,23.7789,6.70872,-9.94647,23.9662,6.69667,-9.94768,24.0493,6.73521,-10.0144,23.924,6.6702
2.02678,0.130162,-14.2524,31.7361,-1.11242,-14.3141,31.6997,-1.58527,-14.4627,31.8247,-0.805816,-13.9194,32.296,-0.967384
3.78598,0.891189,-3.23216,33.4853,-1.43799,-2.76118,33.176,-2.14615,-3.11666,32.9523,-2.29257,-2.82789,33.1207,-2.17066
17.1481,0.444912,-5.29089,20.0857,6.76512,-3.7983,21.6183,6.93389,-4.69967,21.5192,6.82141,-5.62802,21.9458,6.88044
5.07131,0.0755018,5.41342,32.3119,-3.09695,4.68998,32.91,-2.70919,4.36299,32.5816,-3.05875,4.33973,32.8773,-2.8277
12.7566,0.0658088,4.64812,25.2352,-6.56961,8.90156,24.8291,-5.87703,7.59639,24.3506,-6.54943,6.98483,24.9651,-6.2603
62.1266,0.458075,2.27381,1.56325,4.80792,6.18419,0.911765,4.39033,4.89939,1.16748,5.01309,1.79137,0.403029,3.2444
3.21727,0.0514946,1.95018,28.5135,6.69723,4.47028,28.2817,6.96285,3.41534,28.5109,6.88366,4.81918,28.4324,7.00667
13.464,0.216678,-5.73639,31.6298,5.40496,-3.32347,31.5236,5.79884,-3.82666,31.1084,6.115,-3.78519,32.2454,4.91589
14.0878,0.33374,11.7529,13.7555,-4.57877,11.6631,12.5573,-5.23317,13.8052,13.5269,-3.19388,11.6492,14.533,-5.04551
8.02546,0.117142,-10.9234,5.32447,-4.88259,-11.2936,3.89258,-5.31904,-9.48743,4.97936,-5.48489,-11.9316,5.89631,-4.05679
6.57038,0.312372,-11.4094,29.0879,-4.90175,-11.9528,29.9108,-4.5742,-11.6966,28.5182,-5.60794,-10.3093,29.3828,-5.38408
2.70393,0.69318,14.7786,21.8512,3.30967,14.8628,22.3171,2.38856,14.978,22.2417,2.14943,14.7493,22.4537,2.8571
23.6595,0.0524493,7.94142,0.651366,2.85683,8.87011,0.880113,3.93537,8.48703,1.24449,4.83701,9.36309,0.845528,3.98883
6.83893,0.633096,14.6293,26.6659,0.529333,14.8952,28.83,-0.109242,15.0133,25.4719,-0.0374516,14.8715,27.2852,-0.17684
2.82466,0.260741,12.1932,17.1341,6.23236,12.335,16.189,6.41005,12.1723,15.8632,6.46993,12.1788,15.7704,6.46259
1.92631,0.117634,14.0048,8.95067,4.56225,14.5427,9.36857,3.94333,14.7576,9.32332,3.54197,14.6577,9.378,3.73742
0.737943,0.119408,-12.8743,5.49164,5.62545,-13.4112,4.83944,5.73506,-13.4151,4.89743,5.718,-13.419,5.05554,5.671
4.06784,0.168578,8.84417,21.0873,6.76,8.55578,23.1287,6.2856,8.85297,22.2758,6.49898,8.47846,23.1718,6.29751
2.23898,0.0248313,-6.88508,2.76475,5.63216,-4.73571,2.50339,5.82373,-4.87267,2.50495,5.80089,-4.73968,2.54178,5.8454
13.1352,0.00236288,11.637,13.9126,5.88081,13.4122,13.1171,5.88857,12.1366,14.0912,5.86187,12.5102,11.9165,5.96088
18.8909,0.281526,14.0834,9.51864,-2.46929,13.9582,6.037,-2.10758,13.9449,5.8718,-2.46639,13.8519,7.62584,-2.90132
2.75747,0.0723634,-2.67967,3.96997,6.82139,-2.6903,4.54492,6.84215,-2.49202,4.90605,6.825,-2.86078,3.27915,6.69877
3.93869,0.240542,2.4535,6.2664,6.55126,3.1904,6.69823,6.78958,3.01103,5.15298,6.86955,2.00851,6.35494,6.77465
74.2918,0.479709,-6.7785,32.2416,-2.11872,-5.046,32.7076,-2.46651,-10.0084,32.8108,-1.68129,-5.6406,33.8116,-0.240448
0.805214,0.0303711,14.5102,32.1218,3.5939,14.6316,32.0309,3.30981,14.4869,31.5659,3.68545,14.6215,32.2233,3.29028
7.79843,0.231158,10.1722,33.2103,4.4933,10.8395,32.1022,5.69894,9.63498,33.5841,4.48111,11.015,33.6987,4.4044
10.4122,0.35644,9.61531,8.60616,-5.65967,11.651,8.95996,-4.8673,9.37229,7.99844,-6.15757,9.20014,9.14608,-6.40166
66.7236,0.0842476,-15.3186,17.2145,1.28297,-15.1544,21.0794,0.215904,-15.1265,17.5278,-1.74968,-15.2553,17.8392,2.09791
3.02489,0.0409678,7.43722,13.8549,6.73422,9.07233,13.8323,6.63878,9.20988,13.9382,6.61101,9.20353,13.9915,6.60354
3.21547,0.0475827,6.64151,2.84082,6.50457,4.76291,2.72679,6.44435,5.38465,2.84041,6.47744,4.62951,2.62698,6.43987
22.4566,0.197295,-4.5683,26.76,-6.50095,-5.65567,27.1591,-6.38244,-6.58001,26.6689,-6.58679,-5.79981,25.6746,-6.64124
7.00142,0.163711,14.7265,23.7238,-0.479083,15.0303,21.3468,-0.548372,14.9933,24.4707,-0.785035,14.9539,21.9575,-0.420941
5.39694,0.368463,-12.1915,16.7788,-5.23691,-11.6812,16.6986,-5.83439,-12.8712,15.5963,-5.40266,-12.5764,17.8795,-5.44929
29.249,0.208368,7.60362,31.8498,-3.12653,7.70279,33.1624,-1.08728,8.64365,32.5983,-2.07685,9.12901,32.6329,-2.16114
1.86676,0.375049,14.7597,18.7701,-1.47497,14.8001,17.5139,-1.75136,14.8753,17.569,-1.47462,14.7816,17.699,-1.56901
1.70087,0.0232438,10.7291,11.8212,-5.57738,10.0625,11.1737,-5.82903,10.3034,11.6687,-5.76945,10.2913,10.9945,-5.71719
1.98347,0.052156,-5.19446,22.6443,6.41235,-6.81547,22.7135,6.40362,-6.6677,22.4802,6.36636,-6.80508,22.577,6.38341
3.11587,0.572248,0.245458,19.8936,6.82079,2.62981,19.9848,6.76776,2.19531,20.0646,6.88666,2.62717,19.9361,6.76789
0.651544,0.088661,13.784,12.6736,5.68831,13.3922,12.3911,5.86254,13.2666,12.7949,5.94329,13.3564,12.4956,5.88439
7.62586,0.154899,-5.91939,30.3641,-3.84999,-3.79457,30.836,-3.20937,-6.97904,30.4678,-4.31314,-3.79922,30.8794,-3.19658
1.96425,0.0965843,8.49484,3.30757,6.6691,10.1751,3.30893,6.62212,10.104,3.3572,6.61384,9.54939,3.28424,6.60642
2.22627,0.0505095,14.7274,16.4017,-0.0760781,15.1867,17.3942,0.805672,15.208,17.1932,0.812543,15.2186,17.5366,0.869628
2.97575,0.212346,6.79543,22.5618,-6.47321,7.49801,23.2041,-6.67261,6.12994,22.1047,-6.69847,7.49673,22.4616,-6.66989
4.58782,0.280465,11.3814,21.5386,6.4349,13.1247,20.6944,5.84092,10.4194,21.6516,6.2737,12.9095,20.9302,5.89667
63.0871,0.232185,-14.6761,26.3928,-2.01873,-14.7365,26.0026,-0.321682,-15.1599,21.0555,-0.132711,-15.064,21.2267,-0.659261
22.9864,0.244161,14.4624,6.50877,-0.703843,14.852,6.67712,1.11664,14.9123,7.04909,1.54312,15.0026,8.11276,1.62182
26.2974,0.451245,1.12634,27.127,-5.69544,0.939235,29.4957,-3.96828,-0.917211,27.2795,-5.67203,0.0239202,26.7417,-6.43685
0.193859,0.0128192,-13.9717,28.8032,-4.29899,-13.9465,28.6416,-4.35631,-13.9973,28.4331,-4.31968,-14.0209,28.4384,-4.27762
19.6841,0.082824,6.5992,30.9555,5.78259,7.90834,31.7596,6.27612,8.02947,30.4881,6.73742,7.47897,28.9364,6.95309
0.668111,0.386811,-14.5699,8.0507,5.0354,-14.4132,8.79465,5.39575,-14.4095,8.63411,5.41871,-14.4138,8.90789,5.37628
0.589751,0.0179729,-8.91201,12.7633,-6.91756,-8.56185,12.7251,-6.98692,-9.00689,13.0407,-6.88673,-8.94587,13.1434,-6.8812
3.0903,0.181585,7.80975,2.61596,-4.42411,6.5629,2.56797,-4.18523,5.95306,2.66486,-4.2354,6.0239,2.64761,-4.1954
0.051041,0.00363569,4.35842,33.7097,4.00274,4.30157,33.7163,3.99838,4.35755,33.7471,3.9212,4.28065,33.7802,3.87847
2.60567,0.195992,-12.0726,10.6708,6.18502,-12.392,11.0194,6.50735,-12.7153,9.9639,6.78994,-11.6544,10.7314,6.20054
3.88518,1.44357,-11.491,3.31628,5.50527,-14.1954,3.84844,5.04012,-14.1199,3.72971,4.9816,-14.1198,3.77373,4.99314
9.25355,0.0440547,-1.99665,26.8934,-5.91419,-0.854655,26.4961,-6.85316,-0.885931,26.9006,-6.29198,-1.32871,27.3027,-5.56219
4.77852,0.569842,7.55248,33.944,2.21841,5.63001,33.8796,1.5755,5.21916,33.8482,1.70318,5.21838,33.8249,1.74164
5.16168,0.0953997,10.8461,30.7935,5.97927,11.5598,31.7,5.22211,9.73386,29.6417,6.71154,10.3225,29.7845,6.55043
5.25835,0.203841,2.45643,18.0339,-6.53043,1.9357,17.5439,-6.65419,1.55241,18.6429,-6.73803,5.01619,18.3309,-6.92813
0.058159,0.000941405,13.4677,19.956,-4.32695,13.4479,19.8955,-4.33321,13.3516,20.0224,-4.45804,13.3317,19.9756,-4.46636
2.32076,0.122565,3.41451,26.6811,6.52003,5.23182,26.5888,6.72192,5.22881,26.6376,6.73005,5.16583,26.5405,6.71032
0.389052,0.10691,0.856908,34.5258,0.277963,1.66129,34.6089,0.439563,1.45287,34.6079,0.434596,1.58725,34.6181,0.392311
3.44337,0.592939,7.29832,13.8997,6.73627,4.78997,13.507,6.66542,4.86294,13.4047,6.70489,4.79229,13.4478,6.69467
5.58811,0.502805,3.14833,19.689,6.35059,2.48632,18.9309,7.0471,3.01047,20.9745,6.9271,3.98177,19.5109,6.63844
2.74714,0.1037,14.4628,4.11303,-0.0572524,14.4234,2.58771,-0.538886,14.3424,2.9466,-0.791773,14.2993,2.90725,-0.92854
0.0507427,0.00633636,-0.15202,0.518928,3.27447,-0.267805,0.52457,3.27557,-0.150197,0.50086,3.18077,-0.20245,0.498056,3.17216
0.818184,0.0897313,-9.07504,7.47427,-6.51515,-8.86461,6.74161,-6.39989,-9.02571,6.89562,-6.44755,-9.11037,7.05158,-6.46653
0.882166,0.0800838,5.0474,21.458,6.84518,5.32132,22.0387,6.65624,5.60494,22.1436,6.66421,5.53588,22.1441,6.65608
2.7961,0.0930736,-1.03871,24.8454,-6.831,-1.29079,25.1773,-6.85762,-0.618182,23.1595,-6.38654,-0.691689,23.1661,-6.41231
22.0731,0.198153,1.26537,18.1327,-6.64382,2.58828,20.3366,-6.77609,1.74911,16.5068,-6.35139,0.592905,20.7324,-6.60221
6.36573,0.296174,7.73837,33.5058,3.50152,7.25739,33.898,2.97054,9.70537,33.7043,4.2912,7.03857,33.7378,3.77189
4.9292,0.000734792,-13.9992,24.2413,-4.55825,-13.8248,23.0231,-4.70601,-13.534,23.2375,-4.89108,-13.4254,23.6786,-4.95013
3.79186,0.10473,7.78173,6.25723,7.12574,5.64317,6.38016,6.66385,8.13066,6.34088,7.0729,5.5807,6.27331,6.6584
41.5901,0.0819083,-15.2211,14.7487,1.97994,-15.2501,16.0219,0.633902,-15.1722,15.7286,0.168581,-15.0832,15.0967,-0.157475
44.4591,0.181541,-6.64918,21.8284,-6.37806,-7.07983,22.8389,-6.85592,-2.41204,22.2792,-6.67052,-2.19262,22.8657,-6.83567
1.35821,0.00418943,14.9317,7.17245,1.6352,14.9382,7.40794,2.36065,14.9574,7.56644,1.76366,14.9662,7.72682,2.11971
3.00452,0.555733,14.6477,14.8927,3.28869,15.1747,14.8921,2.35706,15.3501,15.3031,1.57326,15.2484,15.0304,2.1178
5.22052,0.884385,11.7555,24.5625,-4.64641,8.97162,24.6838,-5.88115,9.04009,24.7122,-5.81629,8.96283,24.8715,-5.85703
9.69893,0.683055,-1.42437,19.306,6.85692,-3.39158,19.6011,6.61651,-3.01385,20.8788,6.90637,-3.65241,19.3007,6.58325
23.5388,0.120918,-3.44896,1.71496,-4.28384,-5.45422,2.08121,-4.59569,-4.53317,1.48946,-3.43707,-5.5778,1.85124,-4.10363
13.0757,0.185454,5.4781,30.0597,-4.94933,7.10248,30.5297,-4.67836,7.02789,30.4024,-4.82183,6.77177,30.8873,-4.28352
14.269,0.0443486,-12.295,31.8242,-2.18297,-11.8811,32.9162,-1.35596,-9.73779,32.273,-2.29675,-13.5664,31.531,-2.09577
9.02818,0.179249,12.4837,5.39405,-4.10733,13.5201,5.45004,-3.30957,9.72088,5.40013,-5.20223,10.7943,5.58936,-4.94513


