
2.573,0.12141,3.74559,5.27386,-5.40673,3.25766,5.09961,-5.63833,4.27931,4.88794,-5.23005,3.91561,5.88121,-5.70285
5.61155,0.377904,8.23085,9.15848,5.84822,10.3739,9.4329,5.40583,9.85286,9.1778,5.59047,10.3318,9.25251,5.40124
16.7252,0.831151,-8.02203,19.5556,5.52872,-6.02605,19.7167,6.49477,-8.83984,19.9451,6.26474,-4.94887,19.6876,6.57643
5.12119,0.252498,7.29381,20.236,-6.8455,5.37947,20.5939,-6.83121,6.20495,20.3106,-6.94388,5.33702,20.7535,-6.82942
1.60361,0.187611,-11.361,11.1636,-5.07125,-12.3488,11.3276,-4.24339,-12.4511,11.5673,-4.19389,-12.1531,11.2174,-4.4429
2.51625,0.210703,11.771,10.3065,-4.97123,11.6204,10.5765,-5.41119,11.729,9.90011,-5.14859,13.0599,10.9625,-4.53505
3.8441,0.359988,2.62247,15.5771,-6.48953,3.0742,14.4063,-6.6879,2.0176,15.6441,-6.9451,3.25154,16.256,-6.82612
8.69496,0.106599,5.68277,30.7764,-5.52632,5.6368,28.1679,-5.41776,5.54167,28.1662,-5.41603,6.06129,31.8862,-5.42705
27.5779,0.58481,-8.47185,23.8328,-5.67525,-10.4806,23.4427,-5.82156,-8.65862,26.0777,-6.21986,-7.07673,23.3571,-6.59401
22.1577,3.4726,-11.1416,2.01454,-0.675613,-14.085,3.59238,1.35268,-14.4394,3.47698,1.03376,-13.912,3.32577,1.50735
5.10841,0.348029,5.36773,6.66278,-5.29259,5.75413,6.99265,-5.59893,6.98591,6.88677,-5.41223,6.20602,6.59276,-5.51766
66.918,0.749561,-14.3506,28.8503,3.69865,-12.0032,28.7744,4.98905,-15.4832,26.8573,3.78525,-13.2936,30.6005,5.11288
9.51469,0.0184747,12.0628,37.2059,0.565156,10.1592,37.4021,-0.260372,12.9893,36.8702,0.378204,10.9166,37.5531,0.732483
18.1931,1.08701,14.1187,33.9876,-1.09529,14.3546,34.9516,0.712997,13.9625,35.1185,0.188762,13.74,35.8538,-0.261771
6.33999,0.41785,-13.6669,7.86932,-2.50738,-13.0176,7.39146,-3.24563,-13.7347,9.43933,-3.26954,-13.7625,9.38112,-3.24272
2.26392,0.0850983,-6.23646,38.9345,1.00352,-6.10309,38.9724,1.28467,-7.2953,38.4382,0.213534,-7.30323,38.454,0.250319
0.506978,0.0207897,-1.56523,36.5777,5.80875,-1.64766,36.9884,5.63774,-1.80125,37.1748,5.55733,-1.84205,37.1098,5.59166
6.77212,0.341146,7.93889,14.7904,-6.16014,7.69591,15.1922,-6.55611,9.50118,14.7991,-6.28387,7.67079,13.7079,-6.49805
8.43048,0.356155,-10.4691,26.9127,-5.23885,-10.8827,25.5807,-6.01797,-9.13533,26.8825,-5.81468,-10.8089,27.2701,-5.44872
3.42295,0.0309339,-7.13443,38.1958,3.2886,-5.08108,38.5573,3.29006,-4.58677,38.3789,3.5062,-4.86597,38.5393,3.3334
9.31251,0.235997,-2.55842,36.8849,-3.36236,-2.47663,38.4275,-1.31884,-3.16064,38.4541,-1.41687,-3.20281,37.8261,-2.10738
8.43256,0.411465,-1.62505,7.58703,-5.43948,-2.33608,7.90997,-5.64373,-0.315773,8.51155,-6.13152,-2.6713,7.12761,-5.62946
15.4603,0.760734,-8.56531,37.8839,-0.567322,-10.6662,37.5747,-0.355152,-10.6343,36.6931,-1.84968,-11.0966,37.1955,-1.16552
2.74214,0.134806,-13.7874,26.3203,-4.45172,-14.5703,26.4977,-3.3877,-14.5081,26.446,-3.54813,-14.5132,26.5615,-3.38116
2.69813,0.110613,-9.1123,8.9487,6.25107,-8.34532,9.08545,6.42869,-7.72832,9.04482,6.51601,-7.71968,8.88095,6.55702
20.404,0.111832,10.3789,36.6836,-1.48678,8.10151,36.3151,-2.69042,6.89225,36.9444,-2.14467,7.84955,37.0518,-1.62412
19.6978,0.0701625,-13.4245,2.67399,2.8498,-11.125,1.70566,2.41016,-11.4817,1.93656,1.54496,-13.5118,2.7309,1.86624
6.1615,0.178444,-1.74368,23.891,-6.19218,0.290843,23.846,-6.47753,-2.13309,24.401,-6.36409,-1.87408,23.4874,-6.35311
2.07723,0.0408533,-8.36373,5.58011,-4.7998,-8.2766,5.35306,-4.81273,-7.29261,5.79686,-4.97453,-7.29186,5.86932,-4.96354
8.27748,0.272837,14.4629,5.80992,2.25214,14.8677,6.11167,2.46279,14.3135,5.21661,2.61343,14.9377,4.55473,0.377464
10.1497,0.439397,12.5049,21.9116,5.2818,12.0864,21.726,5.86626,13.5146,23.4373,5.51396,13.5564,20.4026,5.31628
14.3036,0.428334,16.1911,8.44628,0.227134,16.2128,8.86347,1.60907,16.0708,9.71688,0.864465,15.4062,8.04847,-0.715725
2.67576,0.139819,15.1082,15.3448,3.45416,15.1848,15.0276,3.50688,15.0658,15.6047,3.698,16.3458,15.7364,2.98481
3.38263,0.106344,14.8366,11.3085,-3.32923,14.3794,10.9321,-4.02357,14.7492,11.6191,-3.81607,15.6652,11.4167,-2.3407
4.94304,0.340556,15.162,17.5642,-4.98616,13.9599,14.6712,-4.46852,14.0543,14.8085,-4.49655,13.8954,14.6986,-4.5095
7.10086,0.735489,3.07039,25.901,6.26421,5.62181,25.9654,6.40087,6.03027,25.8956,6.32733,5.90096,25.8155,6.40106
2.40905,0.172999,2.61858,11.3537,6.58455,3.54237,11.3081,6.60607,2.4616,11.7109,6.81176,2.46885,11.0746,6.76456
5.83841,0.450803,10.2708,27.4084,-5.22722,10.5174,28.7835,-5.13761,9.76097,27.052,-5.91889,11.8053,26.6129,-5.84865
0.867621,0.0603352,1.1758,31.7309,-5.51128,1.27283,31.4635,-5.67019,1.45694,32.2858,-5.49068,1.5487,32.287,-5.51172
29.9496,0.719288,-10.2574,1.64417,0.482195,-8.84291,1.04948,0.176822,-9.44484,1.637,-1.28217,-10.1048,2.37137,-1.88049
5.27369,0.44951,-15.6587,26.5315,2.59112,-16.0693,27.7682,3.26171,-16.8475,26.0361,2.19584,-15.3894,25.9881,3.16205
2.00254,0.432545,11.2078,36.4583,-1.54289,13.0572,36.1172,-1.48791,12.7804,36.1586,-1.59555,13.1873,36.0634,-1.46646
3.90188,0.0875604,-12.3888,12.8848,-5.01897,-11.1758,12.9498,-5.84118,-11.6644,12.7629,-5.51803,-10.8449,12.7442,-5.99093
7.55453,0.104267,5.84069,28.1283,6.3568,4.63407,28.153,6.27615,3.54835,28.5254,6.13135,3.49751,28.4439,6.1181
20.8873,3.86666,8.4091,32.039,5.96733,9.3563,36.2171,4.23808,10.8445,35.4152,4.19129,10.1191,35.3933,3.94051
3.33114,0.424152,8.05595,4.91755,5.57301,9.18005,4.8467,5.3301,9.27553,4.97545,5.31415,9.2792,5.06694,5.34565
3.23953,0.168281,12.9755,7.98105,3.45779,14.3954,9.33151,3.54153,12.8876,7.8675,3.78005,14.1779,9.0523,3.4953
4.67579,0.112566,-6.99338,7.36019,-4.36733,-5.74549,4.81079,-4.98206,-5.75942,4.70873,-4.93691,-6.55464,7.86646,-5.11961
5.11021,0.459815,6.21536,1.42028,1.76382,6.11508,1.35357,0.403474,5.7749,0.845575,1.89193,7.56949,1.0252,1.95972
2.93134,0.0262622,-10.2837,38.205,1.89975,-10.2849,38.0566,0.554424,-10.1381,38.0541,0.513516,-10.4179,38.1059,1.10956
8.22683,0.353049,8.65191,19.6107,6.30789,4.9385,19.7038,6.41074,4.9866,19.6087,6.41245,6.15072,19.526,6.49028
0.221279,0.0598202,2.58375,33.0006,6.52815,2.76498,33.0804,6.51365,2.7244,32.8628,6.53836,2.7096,32.9951,6.50935
13.7275,0.0802567,12.8971,28.566,4.22694,12.9023,27.7772,4.81549,13.3299,28.3301,4.00467,15.4055,28.0874,2.72219
6.219,0.359136,-17.3988,20.9494,0.327115,-17.4721,20.884,-0.474417,-17.4883,20.0203,-0.203477,-17.4295,20.278,-0.425523
4.31786,0.0690171,9.67534,24.6113,6.22713,11.5253,24.6669,5.98548,11.4335,24.7366,6.00009,9.13177,24.9561,6.38437
1.2018,0.0706253,-8.41494,1.75727,-1.85654,-8.35299,1.44707,-1.67785,-8.13263,1.71662,-2.1547,-8.68676,1.81706,-1.82808
28.0211,1.13204,4.63704,38.501,2.88433,7.68965,38.0214,3.29648,4.70268,39.0916,1.67167,5.66746,38.6125,2.08238
0.0129362,0.0154283,0.726772,16.1582,7.22004,0.724324,16.1005,7.25007,0.763912,16.0982,7.24787,0.796337,16.1671,7.22895
16.1913,0.508873,-13.8221,4.72114,4.41809,-14.0851,4.11264,4.38154,-11.6762,4.66904,5.63595,-10.8002,4.56701,5.63641
20.032,0.063381,0.367746,12.1413,6.76027,2.27856,11.9898,6.88143,2.05186,12.6973,7.0028,0.337754,13.1254,7.00627
0.455694,0.111702,15.3044,29.9942,-1.97156,15.0958,30.1278,-2.21825,15.2257,29.9302,-2.26976,15.1839,29.9916,-2.21873
1.1444,0.786076,12.8992,7.93141,3.81007,12.686,7.43447,4.61041,12.7035,7.59009,4.60173,12.7397,7.66135,4.60275
13.2815,1.3083,8.28804,37.5888,3.39724,7.99792,36.5085,4.10525,9.08098,36.2089,4.22268,7.29624,36.8466,4.33715
4.97006,1.94088,-6.94299,26.1015,5.94071,-8.94333,25.9924,5.54389,-8.93356,25.8264,5.57492,-8.94102,25.9156,5.53999
6.46122,1.63635,3.2613,33.6445,-4.60161,0.358333,33.3247,-4.6253,0.628126,33.7442,-4.53405,0.135398,33.1925,-4.7595
18.9683,0.564208,-9.17864,34.2065,5.18813,-8.78867,33.6079,6.09565,-10.755,34.3346,5.45564,-11.0079,33.9071,5.56734
9.32363,0.0689993,16.473,16.3301,2.26713,17.3107,17.7049,1.25882,17.2278,16.5294,1.64007,16.6103,14.756,2.53299
3.60429,0.769714,13.5282,27.5077,-4.5925,13.1257,25.9583,-5.24061,13.2538,26.0877,-5.02677,13.3005,26.0106,-5.07766
1.77109,0.197182,16.0518,7.04266,0.947711,16.0412,8.04227,1.76427,16.1203,8.20399,1.69171,16.1126,8.2096,1.73592
8.41731,0.655584,8.82065,29.4308,4.86593,8.17724,29.9795,5.65873,10.6172,30.1323,5.66224,8.81814,28.6598,5.3739
2.74115,0.1194,9.9658,4.54048,-3.95431,9.68791,4.25616,-3.9707,9.96439,5.16798,-4.46927,10.5023,4.25481,-3.83629
13.8923,0.155879,15.9917,26.3442,2.17236,15.7303,27.4998,1.99397,15.8734,25.2817,1.81844,16.0052,24.9312,2.78352
1.43231,0.119587,0.306459,33.7376,-4.47263,0.643565,34.5126,-4.50387,-0.178703,33.3545,-4.75461,-0.0086085,33.5479,-4.6137
11.1814,0.557783,2.22796,11.2002,-5.83841,3.71868,10.8337,-6.32264,2.24091,13.9143,-6.64734,1.65727,10.5015,-6.35094
0.2589,0.0818957,13.9102,24.1889,5.20656,13.8485,24.4633,5.12177,13.8903,24.5317,5.10991,13.9329,24.471,5.10429
1.79794,0.0384256,12.8439,5.56883,-3.15902,13.2347,5.74318,-2.96589,12.711,6.06147,-3.64076,12.6131,5.96747,-3.67255
7.24179,0.725586,6.5502,29.6907,5.44971,8.2698,29.4578,5.53885,8.35978,29.4642,5.5023,6.52698,31.4965,6.218
1.65262,0.0531671,9.50137,11.0561,6.04598,9.48134,11.6799,5.98375,9.59944,9.84785,5.86453,9.60195,9.99668,5.90841
15.2407,1.14912,-10.1647,8.64473,5.68916,-9.65361,5.23836,6.40723,-9.513,5.84864,6.51411,-9.93612,5.90685,6.47525
3.62674,0.277944,-2.55188,8.68052,-5.62544,-2.93767,8.64163,-5.93966,-1.49627,9.43099,-6.07048,-2.3366,7.9684,-5.66862
6.13346,0.378572,14.0694,31.5812,-2.52955,14.4926,31.0267,-2.08823,14.6639,30.8813,-2.26279,14.9296,30.9532,-1.50027
3.79638,0.358597,4.20881,38.2633,0.229887,4.00985,38.7986,0.550915,4.06719,38.4348,-0.41578,5.85864,38.4098,0.285584
73.0698,3.16816,-10.7201,23.2268,-5.77488,-14.5887,22.8562,-3.5713,-15.2105,21.8065,-3.49395,-15.7077,21.6881,-3.63855
5.63848,0.238108,0.458306,13.7178,6.68678,0.324854,13.3992,6.96274,0.243944,14.2419,6.87042,2.42189,13.8947,6.88894
5.52638,0.540161,11.8152,7.57665,-4.11249,11.0153,7.48757,-4.49741,10.2404,8.07744,-5.13014,10.5016,7.85218,-5.01612
8.10836,0.68981,-12.9858,5.06732,-1.80904,-13.6053,4.06791,-1.52156,-11.8733,4.27167,-2.76898,-13.8564,5.52142,-2.7526
32.5635,0.586544,8.46038,28.3303,-5.26804,9.79875,28.0737,-5.54383,8.81855,31.1363,-5.17761,10.4777,32.0305,-4.48099
10.7656,0.0740818,8.36533,37.3411,-0.832718,10.0756,37.4161,-0.164006,7.56351,38.0957,0.139315,7.63394,38.221,0.331412
4.23419,0.143398,1.79056,4.22509,-5.12726,1.97848,5.06019,-5.72866,2.07796,4.38218,-5.30841,1.75823,3.56891,-4.35691
4.05948,0.820162,15.9891,21.2241,3.62241,16.426,22.1779,2.24341,16.3161,22.364,2.61557,16.4112,22.1937,2.28351
10.1033,0.42835,-8.77747,11.4467,6.35077,-7.31395,10.7386,6.47458,-8.97058,10.8484,6.81593,-9.08479,12.2592,6.86689
5.49024,0.0592703,-0.183589,38.7728,-0.384197,0.918169,38.7455,-0.879451,-0.655242,39.1179,0.45245,-0.933329,39.0001,0.214372
7.2165,0.254757,-16.4612,30.793,-1.53233,-16.9529,29.3111,-0.460305,-16.9076,29.6073,-0.41078,-16.8059,30.2873,0.0996935
6.29365,0.432622,-2.74725,16.9782,-6.60192,-2.56194,15.7457,-6.87362,-3.28716,17.4078,-7.17276,-1.14905,17.8513,-6.90045
13.5656,0.394076,7.64265,28.0717,-5.4099,9.25914,27.6044,-5.75303,7.30766,28.5304,-5.74144,6.35965,26.1706,-6.44075
3.05634,0.294924,12.717,19.4343,5.04577,12.7257,18.7957,5.70389,13.1946,19.5273,4.87932,12.6251,19.9188,5.54099
9.83045,0.640073,-5.93658,36.8067,-2.88846,-4.84264,37.3487,-2.77898,-5.60222,38.0119,-1.43728,-5.53011,37.8594,-1.62191
11.8429,0.257943,-2.65196,4.62181,6.14671,0.0239426,4.64704,6.58039,-2.846,5.19384,6.77433,-0.301088,4.18683,6.295
14.4872,0.584926,5.69099,35.2712,4.49429,6.9773,36.3698,4.68729,7.01606,33.6606,5.81669,5.22078,35.3582,5.08552
1.44947,0.152701,14.9205,29.6334,2.15871,15.0598,29.8498,2.75055,14.9806,29.7186,2.93155,15.0164,29.6661,2.61868
4.77251,0.19613,6.99432,34.3734,5.14179,9.00306,34.2344,5.00877,8.87896,34.1539,5.06721,6.89415,34.9332,5.14628
2.62367,0.130731,7.1935,11.1999,-6.16375,8.42071,10.9646,-6.09175,7.15374,11.4897,-6.16967,8.11195,11.241,-6.19523
18.1442,0.503024,2.72907,23.0817,-6.25087,4.68268,22.5106,-6.86676,2.11904,21.8367,-6.93998,2.77491,24.7289,-6.51257
14.2031,0.246419,16.7491,12.5369,1.03202,15.9884,12.4398,2.40664,15.7889,12.1502,2.52988,17.1013,13.2339,0.190459
10.4983,0.141808,-1.26351,25.0891,-6.22297,1.05527,25.1197,-6.63608,1.37776,24.8395,-6.74237,-2.12934,25.028,-6.2826
3.65071,1.73673,14.2197,8.43793,-3.31835,11.9517,7.64063,-4.05108,11.9453,7.56359,-4.06299,11.91,7.74339,-4.14234
3.68275,0.0851067,16.2237,28.0526,0.499241,16.5607,27.9149,-0.0181811,16.1139,28.8994,0.910449,16.29,27.5128,0.575065
10.1738,0.1881,13.9598,12.583,-4.85905,14.8002,12.0483,-4.13896,12.0477,13.0749,-5.74279,12.093,13.2316,-5.72791
4.6162,0.0934774,-4.60608,13.8257,6.15843,-3.13097,14.4733,7.14733,-4.16376,14.0724,6.41535,-5.21161,14.361,6.80836
9.36723,0.329511,-5.89807,14.0636,-6.1669,-6.05873,14.649,-6.33474,-7.15782,13.9016,-6.51219,-4.4451,13.2234,-6.80564
3.93066,0.136932,16.9251,19.8216,1.25944,16.8854,19.4008,1.44256,17.424,19.9113,0.653016,17.4469,19.4286,0.387853
1.32048,0.135006,-5.96661,14.6584,-6.34014,-5.90668,15.8429,-6.84641,-5.81882,15.7611,-6.81648,-5.96218,15.6223,-6.78076
5.1495,0.292641,-12.5456,37.5549,1.99865,-13.2872,37.6061,0.884188,-12.3976,37.5787,0.829941,-12.726,37.5485,0.990386
3.5429,0.0387467,3.98186,29.4108,-5.67429,3.9393,28.5905,-5.93039,5.30782,29.3974,-5.6944,5.40254,29.5268,-5.65877
11.8623,0.0171547,13.4512,5.24948,3.42561,14.2487,5.24979,2.78239,12.8028,5.39324,4.07252,12.4801,4.09603,3.62413
3.03976,0.245188,12.9351,3.74926,2.65201,14.2519,4.94215,2.54366,14.0455,4.66091,2.54696,14.1535,4.92142,2.64506
10.9943,2.39905,3.8837,37.9414,4.35516,2.85664,38.8288,2.0011,3.31502,39.2399,1.59757,2.70049,38.7642,2.17575
5.96398,0.54509,2.86385,20.8967,-6.71803,3.5529,20.8165,-6.80723,3.76335,21.3476,-7.09928,2.73974,20.0926,-7.08375
2.88982,0.383705,-16.7085,29.2451,1.55244,-16.8676,29.8777,0.250033,-16.8919,29.567,0.329838,-16.8796,29.5808,0.34575
2.81649,0.244877,13.5628,5.13179,-1.8395,14.243,4.88199,-1.43182,13.4703,4.85805,-2.09571,14.2082,5.53536,-1.92962
3.93671,0.0979094,8.17552,23.6661,-6.21516,8.01469,22.9494,-6.04921,8.21955,25.4529,-6.46605,8.12724,25.2459,-6.49014
1.14241,0.112549,-10.8754,36.2856,-2.02188,-10.9742,36.2062,-2.39384,-10.6502,36.3123,-2.08235,-11.1924,36.6898,-1.78517
18.8654,0.589104,12.624,5.94174,4.57196,9.64526,4.15895,5.25473,9.31249,4.92098,5.30586,14.1189,6.1767,3.3439
4.71332,0.294745,-0.0906815,9.21124,6.03978,-0.653688,9.32623,6.57384,0.02352,8.8653,6.11981,1.27257,9.8503,6.90964
0.0660226,0.0115676,-12.1797,5.67961,-3.87377,-12.0521,6.04354,-3.91883,-12.1424,5.9219,-3.8336,-12.0685,6.10168,-3.86237
15.8376,0.0650596,-5.25347,11.6753,-6.21405,-3.99134,10.8054,-6.11294,-7.70532,13.1012,-6.1585,-7.86117,12.6558,-6.04727
10.4463,1.06035,-13.1537,7.79096,-3.31556,-12.2742,6.97906,-3.37005,-12.1328,7.61622,-3.93037,-12.759,5.14599,-3.29349
2.17617,0.0465965,12.0389,28.0513,5.29557,12.1723,28.8667,4.70204,11.9995,28.8651,4.82166,12.3017,28.0573,5.17617
2.58606,1.37083,3.86844,9.15792,6.59164,2.49987,9.17458,6.69683,2.49825,9.10402,6.67169,2.50091,9.02164,6.68055
10.466,0.86855,4.99362,24.2098,5.92153,4.18198,24.8886,6.78519,4.74153,21.4132,6.92072,6.48486,24.543,6.73342
15.0008,0.0614805,-4.24718,38.4435,2.60205,-3.83998,38.3632,3.495,-2.90786,38.7609,3.47382,-3.44407,39.1604,1.73742
5.61,0.254616,8.53372,2.08323,1.87324,9.98359,2.17842,1.66384,8.15714,1.84265,1.59663,8.28698,1.36793,2.80462
6.43357,0.0346316,4.97564,14.368,-6.44664,6.07615,14.2086,-6.49655,7.57829,14.2576,-6.39602,7.53399,14.189,-6.42842
63.4894,0.323907,-1.58912,4.02752,-4.92394,-5.84918,4.42069,-4.56268,-6.31349,3.05606,-3.334,-2.22457,2.65868,-4.07304
2.75029,0.0418926,-1.10964,17.7722,-6.89902,0.612693,18.6968,-7.06296,0.701956,18.6987,-7.06592,0.659216,18.7692,-7.07653
8.96898,0.349696,3.2569,31.75,-5.22705,5.69185,32.0919,-5.33309,2.86948,30.9659,-5.7477,2.55817,32.4234,-5.52236
10.9983,0.488622,-15.2967,14.2676,-3.13861,-13.9644,13.9628,-4.6721,-15.7666,14.7969,-3.43578,-16.1421,13.1056,-3.0671
4.35871,0.272727,-2.41536,1.96845,4.61632,-0.906747,1.92674,4.7167,-2.58407,1.44544,4.60969,-2.49776,2.14177,5.08236
0.0266035,0.00169354,2.49544,24.5635,6.91546,2.49612,24.5012,6.92567,2.43008,24.495,6.93149,2.42163,24.555,6.92056
6.19024,0.341265,7.31168,17.031,-6.54859,6.89047,17.6442,-6.92426,8.97428,17.1799,-6.7142,6.86805,16.0992,-6.95634
1.641,0.168929,-14.165,25.7897,4.72231,-14.4489,25.4372,4.91472,-13.2515,25.6526,5.18712,-13.296,25.5858,5.19195
2.55378,0.173441,11.0943,24.9955,-5.83937,11.4611,24.6542,-5.94556,10.832,24.8837,-6.07244,12.0269,26.3281,-5.80392
2.5185,0.0821881,4.65669,15.8045,-6.14607,4.28824,17.935,-6.78838,4.57343,17.068,-6.55246,4.41538,17.7965,-6.79004
12.6261,0.719669,-4.91737,38.969,0.392012,-5.46041,37.8714,-1.62838,-4.09684,38.8389,-1.11619,-5.60259,38.0401,-1.40039
54.3101,0.350947,-7.79865,36.9893,4.04361,-7.10268,35.8743,5.72556,-3.92885,37.0739,5.52434,-8.7059,37.9686,3.39067
1.10417,0.0660166,0.988318,38.7648,-0.837487,1.88578,38.7368,-1.17771,1.88616,38.7845,-1.10104,1.74566,38.701,-1.20872
8.84997,0.185246,15.884,9.93309,2.49411,16.4914,10.1565,1.77804,13.753,9.51291,3.88932,13.7269,9.62968,3.88487
7.01498,0.311165,-5.70736,24.6262,6.25647,-5.53913,21.9743,6.68484,-4.80885,24.8101,6.41149,-5.98471,24.9279,6.6031
23.7569,0.30368,14.4526,21.4852,-4.52739,13.5495,20.1646,-5.62132,15.517,20.7681,-4.41927,14.858,22.7544,-4.42245
8.61629,0.189865,-0.744117,16.2496,-6.49954,-0.526779,15.6935,-6.53616,0.829454,15.8679,-6.93789,1.34069,17.1772,-6.7039
4.20987,1.56066,-3.50391,37.8493,4.93344,-4.59538,38.1317,3.79156,-4.11022,38.292,3.46798,-4.31141,38.0418,3.59892
5.86385,0.0949399,-15.0565,34.3127,2.8368,-14.3859,34.6,3.15931,-12.7622,34.9116,3.97195,-13.258,34.9155,3.79038
2.8672,0.0803402,8.62853,1.78679,0.673403,8.47778,1.67781,0.479086,8.48591,1.63731,0.998808,9.96201,2.06131,0.77034
37.2055,0.79247,13.8342,7.9813,-2.31686,15.3933,8.158,-0.739509,14.1428,6.71364,-2.65103,15.4168,10.6655,-3.06788
21.4166,0.092874,13.4741,18.3336,-5.5966,14.7918,17.9965,-5.30186,14.3188,19.6043,-5.28481,13.4603,19.5915,-5.5655
9.47457,0.159224,0.727821,6.00297,6.69131,0.0704039,8.87005,6.13646,0.965203,5.01738,6.62388,1.2065,6.39244,6.86597
2.77049,0.0399168,10.2012,2.39149,-1.92664,10.2817,2.45303,-1.18816,10.8395,2.49097,-1.17115,10.5022,2.48107,-1.08184
73.973,0.607635,-13.8982,6.83485,5.30651,-13.1311,8.59827,5.67028,-11.6155,7.59262,6.35587,-10.8253,6.51566,6.52343
6.61626,0.275083,-5.36787,27.7004,6.19656,-3.26138,27.9482,6.43483,-5.48929,27.2459,6.54161,-5.58016,28.2195,6.39863
8.76388,0.157334,-11.3981,17.0016,-6.12083,-9.47695,16.8256,-6.63608,-11.8886,17.4425,-6.18419,-12.1874,16.1655,-6.14839
26.9444,0.47143,-3.29853,4.872,6.71893,-4.17956,1.5161,4.68202,-4.79063,3.87739,5.95672,-3.88926,2.43681,5.43101
12.3506,0.898431,7.67685,7.3229,5.86535,10.6803,7.39581,5.28395,11.1637,7.13734,5.06983,9.97896,6.76449,5.76221
25.2724,0.00914808,6.06677,1.34238,0.225066,7.38898,1.28198,-1.0997,5.71967,1.28696,-2.58072,7.69104,1.29875,0.101361
4.50245,0.0534597,-5.3491,2.57869,-2.97508,-3.10297,2.24688,-3.50188,-2.61445,2.31714,-3.72106,-2.68774,2.38083,-3.75087
18.9159,0.0656887,11.3284,22.7851,6.24058,10.1892,23.2447,6.38786,8.82409,22.3828,6.67331,8.88944,23.3672,6.64048
2.61535,0.587706,-2.29116,0.346809,2.73476,-1.70255,0.692312,3.72067,-1.36377,0.0801831,1.95949,-1.62853,0.576356,3.47726
1.26189,0.0238351,-0.495007,34.1437,6.44505,-0.593745,33.3056,6.58311,-0.957393,33.2219,6.6014,-0.688462,33.3777,6.57532
17.7384,0.439784,8.77883,11.167,-5.93301,9.30675,13.7484,-6.37185,8.71286,13.1358,-6.51189,10.0434,9.95329,-5.96335
0.068905,0.0282841,-15.5045,10.4256,-2.48411,-15.4981,10.5922,-2.57386,-15.545,10.5878,-2.56149,-15.5542,10.5319,-2.51798
6.65805,0.689708,-3.95675,26.9719,-5.86043,-3.32424,28.7376,-5.95201,-3.10773,27.8209,-6.003,-3.11213,25.9693,-6.36855
8.64798,1.82232,-2.00433,17.7224,6.84688,-3.89382,17.3626,6.8162,-3.88734,18.3424,6.68408,-3.81715,17.9163,6.51029
19.1848,0.329438,-13.359,31.8947,-3.60966,-9.92924,32.1115,-4.51683,-11.3728,30.48,-5.14582,-10.4513,31.9265,-4.5207
15.4983,0.468708,-8.75163,31.914,-4.3649,-7.8487,34.0845,-4.30429,-7.94596,30.9135,-5.48158,-9.88358,32.103,-4.5021
73.5707,0.565097,-2.62933,2.04042,-3.49686,1.09896,2.24765,-3.73789,1.47697,0.499159,-3.07605,0.014347,2.7413,-4.03887
10.8498,0.180863,15.0832,14.2897,-4.23569,16.21,14.051,-3.18791,16.4955,14.4366,-2.91462,14.4568,14.3232,-4.47711
5.40308,0.00704031,-9.26006,4.31432,5.83579,-9.82732,4.724,5.7799,-7.4612,4.26868,6.1075,-6.83515,4.36962,6.21613
2.89346,0.218246,9.62023,16.3553,-6.37043,9.55914,16.8059,-6.68148,10.2567,16.3319,-6.30215,9.4876,15.6067,-6.6154
1.80396,0.193084,-13.9928,5.63209,4.83235,-13.2213,5.71815,5.29899,-14.3324,6.15833,5.12042,-14.2108,5.42544,4.91051
27.2903,0.168308,11.2688,36.6681,2.26707,12.6091,34.9541,3.1859,14.0058,35.5472,1.57703,13.0346,36.5839,1.30088
2.6505,0.0711373,10.4294,8.64788,-5.16594,10.6419,8.05855,-5.05165,10.9695,9.68449,-5.53021,10.1523,8.37277,-5.16958
2.50003,0.191568,14.575,30.1449,-2.9095,14.7395,29.8222,-3.23998,14.5902,30.5192,-3.13325,15.0767,30.0051,-2.3276
2.64203,0.236829,12.9503,29.2934,-4.25584,14.3609,29.4186,-3.58824,14.3156,29.4956,-3.6026,14.1815,29.3639,-3.64131
1.21468,0.0839446,-13.1931,37.217,2.73153,-12.9912,37.4077,2.66409,-13.2692,37.1235,2.9853,-13.6148,37.3196,2.6288
10.7993,1.06038,0.142797,36.245,4.52736,0.0188621,32.8419,6.60767,0.100039,33.7285,6.34797,1.73591,37.0628,5.15387
2.1344,0.0970345,16.2456,17.2912,-2.87606,16.3258,16.4874,-3.04472,16.319,16.5617,-3.10989,16.3485,18.0666,-2.82312
1.91442,0.254117,-4.56985,21.9996,6.37121,-3.89225,22.9074,6.75331,-3.84908,23.0476,6.75703,-3.78866,21.3058,6.85499
7.26056,0.561322,15.463,5.30904,0.284602,16.2172,7.73058,1.01794,16.156,7.2739,0.238869,16.1841,7.42995,0.68868
16.5316,0.154089,-8.43446,15.6424,-6.78452,-9.3977,14.7622,-6.40248,-6.30823,15.7998,-6.97279,-10.1705,15.6037,-6.35422
6.33523,0.306417,2.71747,27.3032,-5.73495,4.71084,27.2748,-6.15018,4.66239,27.612,-6.04902,4.15909,27.6264,-6.02275
9.72943,0.090886,-6.83015,16.6555,-7.13888,-6.04884,16.6568,-7.16106,-9.43125,16.8297,-6.64746,-9.43281,16.9164,-6.63851
2.68256,0.105415,-4.35297,28.3701,-5.75685,-4.38755,28.8743,-5.79185,-3.84059,28.921,-5.83475,-4.80886,27.8944,-5.88741
14.1011,0.291911,4.71999,6.99312,6.05487,4.38701,7.03332,6.32888,6.17348,5.4742,6.32922,5.95266,8.45665,6.54509
4.88942,0.426184,-8.47804,27.3979,-5.34189,-8.98786,28.0693,-5.68184,-9.03901,26.3937,-5.97742,-7.486,27.4996,-5.70997
2.98825,0.699312,-1.74317,21.5288,6.67056,-2.76179,20.9255,6.8862,-2.66344,21.4786,6.65176,-2.58433,21.3064,6.6016
13.412,0.232491,-12.2515,22.0483,-5.22287,-13.725,22.0837,-4.4603,-10.3763,22.2403,-5.6847,-13.5389,22.2233,-4.6325
1.08753,0.17509,-15.2801,34.3091,2.64762,-15.3673,34.096,2.96499,-15.1272,34.418,2.74108,-15.5502,34.805,2.80295
9.99466,0.878834,10.362,2.47908,-0.842882,10.3837,2.42614,1.00305,11.0821,2.45024,1.1557,10.6846,2.51872,1.23084
1.98675,0.260849,16.025,15.7702,-4.1008,15.0789,15.516,-4.60566,14.8949,15.531,-4.65918,14.9025,15.6772,-4.67619
18.8263,0.308858,8.83866,32.9441,-4.35623,9.00424,31.6119,-5.11238,10.2965,32.7711,-4.26557,10.3872,32.0276,-4.49632
78.1884,0.517944,6.02066,13.0322,6.80107,2.52198,15.1168,7.13493,2.57021,12.8351,6.79674,4.72802,13.9651,6.61387
2.45237,0.203866,-0.906346,25.8863,5.81198,-1.10369,25.3585,6.29558,-0.635792,25.8843,5.8042,-0.986447,26.7594,6.36966
7.80543,1.29598,-9.65345,2.2838,4.26269,-10.0333,3.70019,5.07603,-10.2708,3.75094,5.09663,-9.17727,3.52522,5.61366
10.381,2.05868,7.45101,18.7699,-6.79642,5.09212,17.7445,-6.59656,5.27662,17.0819,-6.8242,5.04913,17.6232,-6.7139
3.29289,0.0502327,6.03515,38.5429,2.11183,5.6823,38.6554,2.00946,7.9993,38.4208,2.08095,7.90603,38.4487,2.00932
3.8122,0.121771,-10.7484,5.26427,-3.9387,-11.2078,5.77182,-4.323,-11.4283,4.96641,-3.71499,-10.0242,5.31494,-4.30543
8.50765,0.485015,-4.3345,19.7206,5.79149,-4.63336,20.6705,6.37803,-1.87434,19.6678,6.46722,-4.48937,19.1923,6.2032
0.956462,0.532337,-5.86097,15.8429,-6.84066,-5.75698,17.3006,-7.24532,-5.62399,17.2248,-7.23742,-5.71171,17.3009,-7.24046
8.62943,0.49929,-16.0923,27.6929,-2.24541,-16.8873,27.5601,-2.3495,-15.8829,28.7644,-2.8177,-15.9318,27.1335,-3.03574
1.81066,0.180359,-14.2475,18.0066,4.90199,-13.7655,17.8703,5.10406,-14.4147,18.2889,5.03588,-14.3308,17.518,5.17577
16.2448,0.0916857,-15.3064,7.47017,-1.39317,-12.926,6.82161,-3.12483,-13.689,6.7998,-2.54509,-13.8979,7.67431,-2.62524
11.3776,0.18575,10.3753,36.1008,3.95299,12.0993,35.7122,2.99134,11.346,36.3668,2.6917,12.1579,36.0797,2.51179
18.0723,0.331745,10.7284,33.6422,-3.20632,12.0519,32.2989,-3.94327,11.4119,35.866,-2.31302,12.9648,35.5672,-2.09507
8.48261,0.0349197,6.14301,9.12283,6.3754,5.1423,8.64693,6.71902,3.92582,8.98698,6.63674,3.91611,9.06549,6.59073
10.7869,0.103763,-15.933,8.39508,-0.726577,-16.1798,8.73611,1.11481,-16.3255,8.96828,0.482399,-16.3044,9.04807,-0.92793
7.20613,0.434387,-12.0968,36.073,3.02757,-11.9128,36.2367,3.44878,-13.1669,36.8883,3.17764,-12.259,35.1749,3.70694
7.48932,0.0201377,-1.68211,38.9438,0.0592549,-3.27525,38.8547,-0.170985,-0.934477,38.9255,0.050621,-1.61011,39.0687,0.634381
15.531,0.154638,6.67003,30.9423,-5.19647,8.6321,30.7803,-5.17977,7.99616,30.1051,-5.4043,6.86069,29.6465,-5.63336
43.3945,0.131839,-9.6408,34.8637,-3.53643,-13.2502,34.7232,-2.6256,-13.5947,33.8845,-3.13564,-13.5477,35.0138,-2.35118
9.45292,0.751638,9.30915,14.7956,5.60046,11.3111,15.4262,6.19935,8.78369,15.1488,6.48985,9.51106,12.0982,5.93126
10.8946,0.502202,-11.1444,7.02792,-3.69329,-10.5491,6.59274,-4.30375,-11.4976,8.89442,-4.57442,-12.323,6.01943,-3.63758
6.74185,0.306472,-6.89828,4.08516,5.8327,-5.77297,4.67354,6.52671,-7.32276,3.85359,6.03451,-6.2134,2.71123,5.56471
6.37305,0.839297,8.8531,26.4098,6.24583,9.00676,28.5771,5.40654,9.64941,28.0283,5.97514,8.95655,28.6492,5.36449
2.73584,0.0994383,-15.3583,28.3949,3.70183,-16.0792,28.1951,3.1747,-16.1098,28.3615,3.13199,-14.9756,28.4989,3.80238
11.1904,0.788114,15.0869,11.5655,-3.12261,16.9571,11.6509,-0.124509,17.0024,11.8067,-0.0615337,16.8576,11.817,-0.493289
47.5051,0.667618,6.70781,3.39329,4.45045,5.49946,3.18047,5.41866,6.36117,4.56259,5.90838,9.44594,2.70487,4.16872
10.917,0.15643,-14.8205,25.0353,4.27159,-15.1719,25.8861,4.32779,-15.3679,26.0406,3.21908,-13.8577,23.951,5.24549
73.935,1.10009,-15.4848,18.9554,3.69534,-10.737,19.5659,5.88938,-12.3163,19.5503,5.56998,-15.507,16.2588,4.36818
13.3407,0.724295,16.9072,23.8544,-1.32978,16.0616,25.4367,1.49442,16.8714,25.3298,0.107649,15.8989,25.2563,1.78187
57.269,0.101032,5.42586,22.0278,-6.48603,6.95525,25.0009,-6.75465,5.26543,24.8185,-6.82454,7.66154,22.5687,-6.3375
7.11374,0.15626,14.3151,11.8738,4.11955,15.9824,12.4528,2.42937,14.9026,11.8387,3.57334,15.7531,12.1466,2.57596
15.8995,0.463651,-4.149,6.98057,-4.94568,-1.49789,6.81086,-5.44326,-4.47411,7.54347,-5.41459,-4.60769,5.12538,-5.37131
6.41243,0.593539,16.6598,13.8743,1.48785,17.181,13.7162,-0.481595,17.2202,13.1657,-0.464018,17.1905,13.8236,-0.0883601
7.64702,0.0797605,10.1042,6.69878,-4.82392,11.2691,6.70738,-4.41649,8.97626,6.82942,-5.11162,8.01934,6.83557,-5.17451
6.66335,0.0710495,9.58059,25.901,-6.22226,7.71682,26.0789,-6.31006,7.71467,25.9275,-6.3341,10.2611,26.643,-5.96458
0.022849,0.0412937,-16.6499,20.8408,-3.27436,-16.7124,20.8882,-3.24167,-16.6293,20.8156,-3.20926,-16.6904,20.9071,-3.26063
3.48998,0.422162,-6.99041,1.16724,-0.38954,-8.10191,1.16113,-1.11529,-7.87185,1.30329,-0.204377,-8.0218,1.24337,-0.274332
0.967987,0.00324078,7.33284,24.1629,6.82913,7.44216,23.6176,6.85223,7.35237,23.6901,6.8482,7.75701,23.8329,6.84434
4.77487,0.227654,7.01552,8.99218,5.37274,6.47629,9.26934,6.15174,7.11691,8.71633,5.38724,8.18158,9.37642,5.86278
11.3129,1.33972,-17.4228,20.09,-1.28249,-17.3693,22.7033,0.312974,-17.4818,22.6472,-0.365017,-17.5176,22.5049,-0.0410441
33.3049,0.678062,-2.80189,9.2737,6.1211,-0.797128,9.31269,6.56519,-2.86873,7.81777,6.99597,-4.00397,10.2025,6.8382
32.2892,0.270471,-16.7275,13.6174,-1.83824,-16.9439,14.1405,1.59883,-17.0064,15.3956,-1.54064,-16.976,13.9504,-0.381985
1.33068,0.0566456,16.0739,30.6199,0.649483,15.9548,30.5702,1.09876,15.9065,30.301,1.33382,15.9085,30.3526,1.34471
2.38085,0.128101,16.412,19.8276,-2.08412,16.314,19.8321,-2.29375,16.2839,19.5795,-2.25401,17.0304,20.033,-1.92016
4.68125,0.202965,0.0799735,21.4417,6.85441,-0.937077,21.6382,6.84693,-1.69716,21.5287,6.67635,-1.6959,21.4366,6.67317
7.70129,0.134697,15.6693,28.8814,-2.07349,16.2557,28.5465,-1.05245,14.5818,29.1189,-3.45212,14.6561,28.9336,-3.47205
1.89643,0.0999173,-13.5073,27.6479,4.73128,-13.5075,28.0739,4.7997,-12.6932,27.5006,5.16521,-13.6844,27.4961,4.78449
24.3979,0.00692388,4.64118,15.4458,-5.97515,4.45861,13.9932,-6.3224,4.83687,12.9163,-6.74401,5.81223,14.7877,-6.51547
0.705638,0.181451,10.5911,20.3429,-6.24004,11.2526,21.468,-6.3001,10.9758,21.1246,-6.35511,11.2469,21.3251,-6.29871
9.39168,1.81487,-1.39009,26.4777,6.38727,-3.21678,27.3415,6.65641,-3.51822,26.2392,6.29885,-3.51562,26.1616,6.31918
1.5353,0.39374,0.971349,7.35097,6.71086,2.03307,7.18091,6.66622,1.68147,7.33208,6.80539,1.90628,7.18014,6.73228
16.1833,0.284903,-13.5107,15.1852,-4.37547,-11.8559,14.2634,-5.65434,-14.2509,14.841,-4.3743,-13.4551,15.7467,-4.64559
2.36469,0.0674823,-16.6369,29.338,1.69145,-16.361,28.6623,2.7978,-16.3532,28.74,2.76416,-16.2805,28.8742,2.8842
11.7108,0.0322911,-7.99338,1.1516,1.0761,-6.58064,0.948302,-0.087059,-6.77535,0.942264,0.384028,-8.01254,1.22791,-0.0360073
14.9898,0.190799,-15.1921,4.74146,2.67753,-14.8155,6.52882,4.77837,-15.3755,6.15298,3.24334,-14.782,5.08892,4.34568
1.43376,0.246778,-6.60119,21.5331,-6.6299,-7.36556,21.9719,-6.06454,-7.37032,21.9018,-6.07367,-7.18852,21.9104,-6.12894
9.83524,0.23679,-14.6116,15.1325,-3.90054,-15.4027,15.1373,-3.74184,-14.7271,18.2503,-5.08914,-14.345,14.942,-4.27083
0.138507,0.0230301,-16.6539,25.8409,-2.88483,-16.6902,25.8194,-2.79926,-16.7172,25.6949,-2.84025,-16.7511,25.7063,-2.78125
1.39477,0.0214051,14.2691,34.0036,1.21261,14.6837,33.9039,1.57984,14.3753,33.7925,1.02646,14.7572,33.7599,1.48511
6.3555,0.160546,13.2838,19.5234,4.8473,15.3585,19.5285,3.91248,15.3642,19.3614,3.95702,14.5174,19.363,4.41426
6.13086,0.444367,-8.38809,13.8355,6.23518,-7.75333,13.8075,6.42731,-8.26863,11.838,6.71267,-8.50534,14.4461,6.76927
4.35918,0.11989,-8.0009,17.6524,6.28105,-7.94392,15.5986,6.9089,-7.88564,16.1586,6.80257,-7.09901,16.971,6.9237
4.65795,0.46747,-4.67926,10.9378,-6.10296,-4.87132,10.0415,-6.1911,-6.23018,10.7231,-5.63737,-6.24146,10.5366,-5.55201
8.76565,0.362853,5.05862,36.0228,-3.44294,5.74219,35.8685,-2.95616,9.38635,35.8946,-2.78495,6.06988,35.5913,-3.43301
1.15473,0.386344,4.8471,36.0972,-3.46506,4.00586,35.9407,-3.63361,3.9413,36.0361,-3.52404,3.94085,36.1214,-3.459
1.60841,0.237631,-13.6324,23.8914,5.39644,-13.0417,25.1768,5.27894,-13.0392,25.0611,5.33477,-13.1293,25.1067,5.28026
10.7457,0.367124,-3.5574,22.5645,-6.12725,-4.16313,20.4913,-7.01973,-3.75225,23.0182,-6.42068,-2.29932,22.3761,-6.43668
20.3203,0.441785,15.4725,17.6835,3.11274,15.5911,18.1137,3.81925,15.81,15.7787,3.31792,16.4592,16.9868,2.23815
24.5279,1.1662,5.07407,2.21374,-3.44731,1.87874,2.91892,-3.77744,1.45918,2.16817,-3.67856,1.64182,3.25533,-4.00958
35.6568,0.806122,-8.0314,11.0284,-5.47484,-9.71634,11.7476,-5.44318,-7.906,13.685,-6.38435,-9.84084,9.84663,-5.43243
6.83945,0.00529884,16.5855,22.3531,-2.47618,16.4462,21.8881,-3.44807,16.9192,20.176,-2.33042,16.9272,20.1766,-2.29133
32.9718,0.550802,6.85399,34.9596,-3.67216,10.5849,34.6333,-3.31784,10.0167,34.597,-3.49809,10.716,35.0351,-3.12473
6.8062,0.572662,-1.41192,34.0466,6.47522,-3.8315,33.8558,6.26604,-4.02943,33.9182,6.19737,-4.03102,34.0127,6.19431
10.1833,0.353234,-7.58821,34.5675,-3.42079,-6.98421,34.1194,-3.99385,-7.27447,37.4992,-2.41733,-7.20419,37.081,-2.68514
10.0594,0.0150238,0.361616,11.5789,-5.94404,1.87492,13.5769,-6.7522,1.65474,10.0827,-6.40799,1.44049,11.1424,-6.3852
0.479164,0.00581725,-5.1874,0.457072,-2.40397,-5.32777,0.399895,-2.18743,-5.10692,0.378354,-2.19279,-5.11649,0.36805,-2.15558
2.06137,0.0680566,13.0981,24.456,-5.3757,12.9862,23.5493,-5.26484,12.9155,23.5855,-5.33153,13.071,24.8481,-5.35954
0.224539,0.195886,-16.9743,22.5568,1.36858,-17.3664,22.4258,1.18388,-17.1611,22.4178,1.39528,-17.1866,22.4756,1.53727
7.53145,0.0692509,2.2432,0.343806,2.33125,3.34113,0.341402,1.93622,4.36808,0.465914,1.87452,4.64328,0.457514,1.64444
8.22916,0.0631578,13.3476,29.2482,3.91173,14.8198,29.7049,3.16894,14.6612,28.8402,3.40159,13.3664,28.9119,4.03357
17.4849,0.919123,2.86552,30.274,5.52987,4.54012,31.0271,6.39843,2.07466,30.5922,6.46002,3.74093,26.3857,6.50812
1.7735,0.232639,-8.8538,2.77819,-2.67822,-7.76614,2.61593,-2.97268,-7.76824,2.62699,-3.01779,-7.69678,2.56718,-2.89429
1.06395,0.806611,12.022,5.41045,4.65901,12.7158,5.31014,4.06507,12.7735,5.36894,4.0727,12.8291,5.41876,4.08792
3.83096,0.373281,-13.4699,15.8195,-4.68595,-13.5589,18.4638,-5.72723,-13.6311,17.9395,-5.5563,-13.4873,18.02,-5.65902
8.39842,0.0426254,-0.885978,38.8851,2.24512,-1.37134,38.5485,3.22462,-0.20279,38.7907,2.4956,-1.02631,38.3436,3.67233
7.5691,0.220645,5.01629,0.937534,-2.14017,3.29587,0.820235,-2.66386,2.93765,0.823938,-2.8579,2.54803,1.27262,-3.41446
6.74806,0.251837,11.7873,16.6283,-5.91415,14.5128,17.4538,-5.36147,11.7952,16.2855,-6.07383,11.4693,17.2061,-6.54653
4.92737,0.405955,-10.5882,36.3331,-2.08968,-8.18243,37.1872,-2.42154,-7.42874,37.1688,-2.62729,-7.9093,37.267,-2.41041
6.21714,0.603478,16.7697,22.5728,0.882225,16.9751,23.658,-1.174,17.0922,23.4107,-1.06556,16.959,23.6638,-0.731683
21.3318,0.508185,1.01129,3.49869,-4.09979,4.00702,3.45293,-4.29801,3.06984,4.95336,-5.61602,0.658337,3.63641,-4.90988
4.85997,0.137614,-6.3221,22.353,-6.49283,-6.87571,22.4981,-6.41212,-7.03222,22.3325,-6.30261,-8.1826,21.9641,-5.67349
2.24435,0.0616633,13.5373,7.33044,3.25531,14.4301,6.43438,3.12797,13.0977,7.84292,3.41201,14.329,6.47861,3.19618
3.08186,0.250459,-7.16077,10.4591,6.22233,-7.47061,9.70906,6.79191,-7.40183,10.6772,6.50579,-6.66479,10.3148,6.38268
4.46239,0.272233,1.75582,9.33768,-6.07648,3.38021,9.43159,-6.37295,3.88269,9.29043,-6.37311,3.83549,9.36008,-6.3755
3.45382,0.0699629,-6.20689,35.9587,5.51979,-6.44904,34.44,5.82748,-6.19356,36.8176,5.07564,-6.2084,34.7951,5.9023
2.47459,0.0503033,-0.918376,37.2596,5.28829,-0.313178,36.4656,4.80755,0.04381,36.3123,4.57304,-0.012337,36.2389,4.60564
12.2641,0.971614,-12.4937,9.46518,-3.90604,-10.5373,8.39662,-5.13264,-8.8951,8.71724,-5.50818,-8.93827,8.94835,-5.53506
2.96605,0.19186,-7.43932,27.4105,-5.72671,-6.31219,27.7139,-6.02435,-6.75759,28.0142,-6.0893,-6.3031,27.8659,-6.06233
37.6571,0.572975,-3.29587,10.8661,-5.61962,-3.99754,10.4614,-6.13115,-3.06783,13.6183,-6.75522,0.18943,11.0589,-6.2008
2.92498,0.0242545,-5.24272,22.6668,-6.24482,-4.30181,22.3427,-6.58667,-5.38872,22.3855,-6.20749,-4.48543,22.6292,-6.5344
2.64715,0.664366,-5.15981,32.3288,-4.58673,-6.17745,32.192,-4.43654,-5.93454,32.0302,-4.58249,-6.22757,32.264,-4.44195
3.1181,0.105301,0.0517494,4.22649,6.14489,0.253346,2.16826,5.33097,0.73743,4.35375,6.31149,0.32599,2.16847,5.33041
47.1897,2.11512,4.88651,28.2836,-5.81622,1.56204,30.3227,-5.52,1.53481,30.6153,-5.6986,2.52097,28.2398,-5.95568
5.93256,0.0582441,13.4766,8.82982,-3.98279,11.7798,9.61771,-5.14898,14.0738,8.45764,-3.40033,11.9943,9.60737,-5.05745
8.78184,0.0258049,3.58861,11.3936,6.60697,6.6786,11.2163,6.60103,6.47438,11.4901,6.50467,6.58267,11.2805,6.57998
27.6778,0.165172,7.38739,34.9248,4.76093,9.09682,34.7521,4.77805,9.14245,35.7436,4.36985,7.6318,36.6636,4.20236
30.1699,0.335059,15.3631,27.7664,-2.90435,16.1827,25.9332,-3.26949,16.283,27.0994,-1.65375,16.7452,27.4207,-0.566684
3.48084,0.164083,-8.23624,37.8098,-0.49042,-7.73325,37.9182,-1.65359,-7.29148,38.4154,0.169151,-8.50899,37.9009,-0.47497
1.26543,0.0879517,12.1594,36.5246,1.88499,12.55,36.8226,1.27525,12.9755,36.8169,0.870583,12.8197,36.8486,0.978867
17.0835,0.491554,1.20736,7.42156,-5.29271,0.806041,5.50108,-5.87678,3.76488,7.45859,-5.79486,0.648395,7.62413,-5.77238
1.85743,0.0378743,16.5406,20.1134,2.33555,16.8781,20.0537,1.69258,16.8777,19.8214,1.47829,16.456,19.8342,2.33939
5.73817,0.447785,11.0554,23.6395,5.71666,12.0511,22.3112,6.05765,10.6246,23.7554,6.29622,12.4262,25.1616,5.60789
5.98565,0.0753428,1.09735,1.83868,4.83729,3.22631,1.80474,4.80874,3.4309,2.00799,4.98282,-0.841874,1.91673,4.71603
0.394237,0.109389,3.99574,26.4752,-6.55505,3.85139,26.6135,-6.44075,3.85225,26.7505,-6.40041,3.67347,26.4094,-6.55617
36.1536,0.947225,-8.84595,35.4952,5.13381,-10.5742,36.8786,4.63163,-11.9396,35.127,4.28235,-9.00112,36.8236,4.50434
2.47201,0.253828,5.73738,26.4145,6.01582,6.26292,27.5857,6.32305,6.16555,26.1538,6.06558,5.46996,26.455,6.41314
12.0933,0.494687,-5.52522,22.3039,-6.18701,-5.89306,23.6126,-6.41686,-5.01206,23.6174,-6.55458,-5.95516,20.2959,-6.96447
1.22565,0.0989276,13.792,32.326,-1.99834,13.8044,32.1505,-2.12346,14.0218,32.6427,-1.90333,13.588,31.8096,-2.42
4.23694,0.246613,5.73938,11.0251,-6.34325,3.58408,11.1189,-6.28512,3.44523,11.1193,-6.26495,3.67625,10.9656,-6.28925
8.27145,0.522384,1.36865,17.7687,-6.37916,2.75371,16.2643,-6.90078,0.847375,17.4699,-6.84261,2.28363,19.9631,-7.13516
4.46561,2.14854,-5.75877,26.1425,6.13341,-3.56331,26.1617,6.31454,-3.56736,26.2341,6.29612,-3.56653,26.3266,6.31512
6.53692,0.272239,-1.81018,14.414,-6.25025,-1.34917,12.7408,-6.64648,-0.740068,14.755,-6.40222,-2.47355,14.166,-6.60413
10.4385,0.346017,-12.4211,37.1643,0.462817,-12.8091,37.4795,0.731803,-12.9536,37.2513,-0.384498,-9.80543,38.0841,0.101076
16.7944,0.113155,-7.34772,4.82079,-4.6134,-5.91018,4.46511,-4.64453,-6.99593,2.94693,-3.3301,-6.50542,3.13578,-3.59415
29.0487,0.465085,13.6227,27.9723,-3.90005,14.1419,28.823,-3.8942,15.3065,26.327,-4.24726,12.4211,28.0714,-4.96016
3.73012,0.0935892,-14.7621,25.063,-4.20549,-14.7516,25.6269,-4.23601,-14.5192,23.599,-3.84801,-14.5985,23.5966,-3.82358
6.01986,0.461922,-6.99979,8.99816,-5.03321,-8.41225,9.08889,-5.68494,-6.49129,9.54317,-5.55093,-6.4866,8.09188,-5.27651
17.0587,0.198342,-10.2703,18.2065,6.32232,-8.98568,18.1237,6.54674,-13.7205,17.8348,5.13939,-13.7011,17.8722,5.13024
4.14351,0.176771,5.73006,33.7197,-4.20221,7.20362,33.6768,-4.0029,5.47388,33.8996,-4.38068,5.7354,33.1851,-4.75881
2.12104,0.138466,15.1125,27.5488,-3.36185,15.339,27.5771,-3.15314,15.1017,28.7017,-3.05123,15.1669,27.4774,-3.65941
10.98,0.399756,6.575,2.85429,-2.73096,7.2408,2.36894,-2.75474,6.53293,3.56298,-3.672,6.49304,1.48716,-2.36402
17.7847,0.289486,-12.5676,15.891,5.67711,-16.2015,15.0608,3.8815,-15.9363,15.4859,3.95255,-16.3781,16.2963,3.68045
8.05481,0.0980079,6.33561,27.3494,-5.82542,6.94213,27.7213,-5.98429,5.45278,28.1074,-5.4549,5.4447,27.8924,-5.43214
13.2257,1.62846,9.99377,21.5702,-6.57439,9.72216,19.4656,-6.508,10.3994,19.3518,-6.28296,11.047,18.7587,-6.62245
1.9494,0.144523,-7.97173,17.852,6.1972,-7.85332,18.6807,5.87084,-7.89529,19.0739,5.65337,-7.98699,19.0785,5.66687
7.1624,0.43681,2.40821,12.3042,-6.19986,5.68707,12.4723,-6.57892,5.68279,12.3252,-6.56297,5.40862,12.2503,-6.56138
11.6539,0.0462172,2.28951,11.0098,6.81464,-1.03718,11.1991,6.7809,-1.09595,11.3661,6.71811,0.311543,10.9999,6.82167
6.91272,0.420119,14.2707,15.584,4.24503,15.0246,15.6804,3.7747,14.5734,13.2078,4.46271,14.3747,15.8155,4.92117
3.21963,0.374971,11.7385,26.8211,4.88098,12.3452,26.5321,4.61197,11.5633,26.0655,5.83831,11.8023,27.9324,5.51972
8.46386,0.389565,13.4779,14.0983,-4.96286,10.9742,14.1654,-5.8875,11.789,14.3029,-5.71874,11.964,14.491,-5.68507
3.30548,0.422092,-11.5691,10.9234,-4.89997,-9.92123,11.1689,-5.31075,-9.88023,11.0208,-5.28839,-10.2536,10.8783,-5.27959
3.77449,0.336692,4.93495,2.14715,4.93181,2.64679,2.78677,5.3683,2.6871,2.79234,5.38308,2.94435,2.57296,5.25784
22.9866,0.297136,-10.917,2.58545,4.22603,-8.2839,1.38314,4.00443,-12.7162,2.99541,3.91506,-9.25557,1.84003,3.64574
38.6982,0.886204,0.563307,16.7767,6.91279,1.62047,18.8125,6.61691,5.24569,16.8684,6.82603,2.2448,19.1387,6.79586
2.58177,0.114433,4.56721,5.53187,-5.2216,5.10099,5.15573,-5.11917,4.78209,6.20626,-5.56161,4.33869,5.39823,-5.33209
5.35162,0.202049,11.3189,6.77504,-4.39346,13.8084,7.22353,-3.03964,14.0469,7.42935,-2.86428,12.703,7.1201,-3.73345
3.96289,0.281554,5.86435,32.4101,-5.10711,6.72469,32.3943,-4.99726,6.81562,32.5922,-4.92623,6.86924,31.9863,-5.22099
24.2791,0.774125,2.70606,12.2781,6.69041,6.07342,12.3183,6.71341,5.98279,12.4036,6.75356,8.24978,11.8359,6.09148
4.63434,0.30661,9.0523,20.1654,5.96497,10.2399,19.9976,5.86851,9.01263,21.1803,6.51016,8.82873,19.8317,6.3004
3.33983,1.6774,-5.99152,9.05361,6.68884,-7.67835,8.95543,6.52362,-7.68265,9.04466,6.52142,-7.6726,8.88253,6.56467
5.88557,0.302467,-9.34357,14.1539,-6.08929,-7.66399,14.1835,-6.4412,-6.59447,14.4136,-6.58001,-6.91423,14.4179,-6.59121
3.5653,0.18532,-11.5977,4.59813,-2.89935,-10.7483,3.38626,-2.83698,-11.518,4.98902,-3.66368,-11.8558,4.49236,-2.86547
9.05448,0.100345,-12.4373,33.7174,4.74164,-12.5433,32.5716,5.31615,-11.8352,34.4136,5.04639,-12.1152,35.4096,3.63018
1.60086,0.0666619,-5.91631,9.63628,-5.74666,-5.86559,9.87024,-5.81469,-5.39003,9.46133,-6.06219,-6.20047,9.49522,-5.71482
3.1312,0.0221509,-16.9519,14.8836,1.39085,-17.0046,14.5636,1.09141,-16.7628,15.0159,2.27279,-16.8219,14.4977,2.13954
4.34528,0.412208,-1.62607,38.0251,3.83854,-1.79393,38.7294,3.25541,-2.06253,38.314,4.45213,-0.256734,38.1702,3.98591
10.7968,0.185416,1.48002,38.1933,3.5931,-0.193123,38.1931,3.94462,2.92883,37.6537,4.7237,1.78817,38.8681,2.91093
1.80093,0.301131,-6.59779,0.872023,-1.59386,-6.85546,1.23475,-2.18409,-5.64483,0.636209,-1.2435,-6.7826,1.15996,-2.20655
13.7717,0.847309,-1.47262,19.3546,6.02266,0.198131,19.6731,6.7545,-1.43479,18.3984,6.43888,0.783235,19.8434,6.68489
12.1796,0.316066,-0.942691,35.629,-3.76059,-0.335995,35.9478,-3.9637,-1.2217,34.263,-4.69012,-0.401906,34.195,-4.71332
2.13731,0.29631,-5.22813,3.82857,5.86865,-4.75586,3.00783,5.7587,-4.44291,4.47534,6.39178,-4.36992,4.42625,6.35974
4.64877,0.112164,-3.48413,38.7117,-0.640214,-3.62405,38.9275,-0.000566016,-3.76268,39.0504,0.0500092,-2.82206,38.3343,-1.421
3.06605,0.103941,13.1265,10.9403,-4.48718,14.6861,11.5703,-3.85388,14.7245,11.6286,-3.85724,12.5994,11.1681,-5.11636
7.95218,0.477964,-2.02604,7.40597,6.39683,-0.0184309,7.51461,6.56626,-2.21167,8.28828,6.83492,0.0285032,7.43365,6.56602
0.701467,0.352451,-16.9316,19.7222,2.72381,-16.9024,20.0519,2.8545,-16.9624,20.1407,2.69885,-16.8392,19.9703,2.99708
1.4797,0.00643947,14.2149,11.842,4.18639,13.4844,11.9576,4.43426,13.9073,11.7495,4.35681,13.3952,11.8784,4.50437
0.0921484,0.0050809,-15.9452,12.0563,4.11327,-16.0824,12.2757,3.91837,-16.0732,12.1499,3.91602,-16.0993,12.2201,3.88118
7.66966,0.192362,-1.72895,38.2878,-1.51588,-0.317258,38.7773,-0.521622,-1.82455,38.9268,-0.319847,-1.37108,38.2808,-2.05417
8.83249,0.0757421,-2.69339,0.172985,1.84166,-2.7657,0.0981573,0.294218,-2.98772,0.363217,3.03824,-2.29536,0.334599,2.69138
4.46825,0.395964,-4.684,8.9491,6.77488,-3.13647,9.01252,6.62668,-3.25567,8.87408,6.73387,-3.53546,9.07486,6.74766
2.92805,0.167167,4.77292,34.9882,-3.93793,5.16813,35.7385,-3.67372,5.58272,34.2856,-4.26057,4.5093,34.996,-4.18903
4.0325,0.429122,-15.6438,15.6202,-3.09132,-15.7105,16.4603,-3.52757,-16.2762,15.2752,-3.25031,-15.5912,15.0184,-3.6125
5.24682,1.66399,4.89757,4.53982,5.98552,7.12373,4.90203,5.79423,7.03327,4.75707,5.77071,7.07743,4.83354,5.77761
1.9018,0.989309,2.67827,19.7559,6.40076,3.69908,19.8238,6.44939,3.69755,19.6318,6.41556,3.69096,19.728,6.39832
1.25605,0.280091,3.01797,36.4967,5.33661,3.40409,35.639,5.02652,3.58871,35.6519,5.01124,3.58291,35.5792,4.9608
5.66357,0.379024,-10.3031,9.46317,5.57422,-10.314,8.91181,5.6593,-11.016,9.63241,6.00781,-8.85652,10.2152,6.86345
7.58918,0.13783,11.7455,21.8141,6.09834,9.25343,21.6854,6.34959,12.047,21.7395,5.9136,9.25638,21.592,6.35126
4.83302,0.372854,14.3417,33.8195,0.937258,15.0937,32.811,-0.17375,15.1178,32.6947,-0.363243,15.0862,32.738,-0.401139
4.98436,0.299523,10.1808,2.45989,1.71582,10.4399,2.46694,1.16673,10.5017,2.58658,1.54619,11.0979,2.41029,1.85879
5.17,0.432845,0.295303,18.8732,6.35939,-0.0555986,19.2107,6.82648,0.613215,17.0573,6.97816,1.2402,19.2955,6.56943
10.2408,0.21543,-13.9532,26.7005,-4.22819,-12.8479,26.6508,-4.78469,-11.3616,27.0239,-5.45526,-10.998,26.8638,-5.46268
5.82918,0.373155,11.6367,18.464,-5.91906,11.2205,18.1348,-6.65241,11.6979,19.1701,-5.966,12.744,18.1275,-6.20043
4.26204,1.35181,2.63238,19.7606,6.4024,1.01766,19.8267,6.43892,0.904829,19.9271,6.60777,1.07245,19.6751,6.46027
0.0999865,0.094591,-16.8812,22.9877,-2.46046,-16.8346,23.1086,-2.47551,-16.9001,23.0826,-2.45363,-16.8532,23.0941,-2.44491
10.8972,0.256621,10.7182,33.5632,4.72487,14.1295,31.8156,3.94782,13.1182,32.2985,4.27272,10.9394,34.3488,4.71327
3.39398,0.0660477,7.17189,29.291,-5.59242,7.04549,28.7651,-5.84376,6.94777,29.6471,-5.58883,8.35173,29.4736,-5.4182
1.27591,0.390335,13.5174,14.3359,-4.93613,13.9046,14.5285,-4.44299,13.9589,14.5992,-4.45712,13.8243,14.3079,-4.57442
15.8937,0.420892,-7.56197,13.7516,6.47621,-5.42613,13.5863,6.79852,-7.64739,11.736,6.8151,-7.06516,12.6791,6.83041
0.337608,0.0138523,-8.71982,32.9137,6.16039,-8.40079,33.3553,6.18924,-8.63044,33.1242,6.17438,-8.40639,33.2685,6.1738
16.4695,0.852382,10.3788,14.6455,-5.76301,9.5759,13.4516,-6.32156,9.66294,15.4529,-6.5589,9.03662,14.3779,-6.29124
24.6801,0.311555,-17.2811,16.5194,0.627102,-16.7109,16.7796,2.95011,-16.4309,15.4414,3.50978,-16.4362,16.2872,3.59092
9.73315,0.331721,6.38363,12.3332,-6.10701,5.53348,13.4106,-6.78922,7.10748,11.4834,-6.17202,7.39437,13.6502,-6.54756
3.93657,0.196923,-1.86145,10.0661,-5.96844,-1.79462,10.5786,-6.12715,-0.300771,9.17381,-6.19643,-2.35351,9.73139,-6.20116
2.03772,0.159403,4.80036,6.97684,-4.99428,5.22835,6.6542,-5.29452,4.63397,7.4307,-5.0959,4.5769,6.83738,-5.10135
1.65136,0.0853827,15.5063,28.1828,1.75948,16.0391,28.3047,1.52886,15.6554,27.6094,1.99843,15.6983,27.554,1.99629
2.934,0.400664,2.58294,23.1588,6.90306,0.946063,23.0774,6.74877,0.804935,23.0675,6.6989,0.849909,23.2228,6.70604
3.26476,0.165026,1.06086,9.26652,-6.00058,1.66521,9.41768,-6.08564,0.898903,9.64498,-6.23991,0.779522,8.36029,-6.11082
62.1128,0.991803,6.88764,6.11844,-5.54879,4.63961,3.20275,-4.22526,6.53647,3.57959,-3.71339,3.57193,4.0816,-4.88083
45.813,0.75774,14.6349,22.028,4.54939,15.8469,22.6263,3.48034,15.6756,24.6864,3.08325,15.1262,25.3735,4.06087
46.5496,0.36998,2.12931,24.9978,-6.37006,4.81154,25.0965,-6.77117,1.91338,24.0649,-6.76233,4.77947,22.9982,-6.82663
3.22568,0.354898,-4.40644,24.9925,6.05365,-3.86903,24.0222,6.73822,-3.64459,25.9019,6.36294,-4.77414,24.8776,6.38028
0.990568,0.0914992,-9.87276,13.1939,6.7437,-10.0437,13.4136,6.81171,-9.55714,12.9876,6.89504,-9.94987,13.5531,6.83904
8.69684,0.269215,3.71136,37.9933,-0.962072,2.46902,38.0065,-1.766,3.25823,38.7767,-0.250939,5.02611,38.0719,-1.06649
4.47837,0.110895,1.24283,34.4699,-4.35394,1.31867,35.5255,-4.12441,2.19667,34.3607,-4.55429,0.963383,34.2295,-4.53688
2.46681,0.188968,12.5954,15.501,-5.67632,12.6916,15.7827,-5.89459,12.5863,15.0525,-5.82165,14.1142,15.5986,-4.99727
10.7416,0.0582772,14.0556,3.96326,0.271094,13.949,4.01142,-0.447758,12.2457,2.98463,-0.604934,13.065,3.33205,1.82487
5.41809,0.117473,12.3195,28.6115,-4.83388,12.3947,30.2345,-4.64224,11.4729,28.1599,-5.27791,12.3804,29.3641,-4.80415
52.8249,0.70739,3.56744,0.315054,0.0135924,5.43756,0.956427,-1.55368,5.70358,0.998352,1.08182,5.85467,1.23754,-0.911409
4.54569,0.248085,8.4249,37.8461,2.19269,8.28886,38.3475,1.79059,8.54939,37.702,3.09845,9.68797,37.6809,2.20094
8.71401,0.359289,7.9243,2.00783,-1.64692,7.59307,1.58618,-2.22454,10.0631,2.27987,-1.63527,8.09547,1.60385,-0.836527
5.32378,0.281847,-10.3632,5.15639,5.65717,-10.2696,3.80037,5.12791,-10.6316,5.13493,5.89429,-9.5442,5.04058,6.267
0.861812,0.0477716,-4.72183,7.46585,7.20836,-4.52909,7.1149,7.2037,-4.34855,7.25902,7.21046,-4.94267,7.17622,7.2348
1.63217,0.0891267,-0.748099,36.7,-3.13366,-0.613921,37.3186,-2.99063,-1.09316,35.7703,-3.63095,-1.14056,35.7748,-3.64255
4.16362,0.141629,15.6386,12.1827,-3.18898,14.8989,11.9888,-3.99199,16.2106,12.2509,-2.12126,14.8249,12.0304,-4.10166
44.6436,1.60811,12.0146,26.0508,4.75739,15.9334,26.0341,2.99743,15.2873,26.2393,3.58047,13.3154,27.7578,4.48225
1.71764,1.10244,10.539,23.7516,6.33599,9.13762,23.7908,6.51961,9.13716,23.8652,6.5418,9.06086,23.5702,6.58447
0.910061,0.081828,9.99263,31.7334,5.73957,9.49831,31.7233,5.8118,9.68339,31.5754,5.79964,9.40322,31.9274,5.83148
12.5658,1.12421,15.1216,25.4879,-4.28629,11.782,25.0662,-5.85256,12.1549,25.3178,-5.6477,12.1949,25.3704,-5.59934
20.6229,0.212723,2.49977,18.4489,6.87335,1.8128,16.9616,6.9804,1.36784,18.2518,6.66035,6.9949,18.6123,6.778
9.41581,0.0164621,-3.04402,30.304,-5.687,-1.29973,31.0708,-5.60408,-1.39069,31.131,-5.5945,-3.17543,31.2875,-5.53988
11.9007,0.911606,16.0466,14.7486,-1.65192,17.3907,14.9028,-0.725774,16.7132,15.1143,-2.90186,16.1844,11.8733,-1.93829
2.57577,0.146071,-12.0712,36.9648,-0.967137,-11.2313,37.2603,-1.09219,-12.2742,37.1611,-0.797149,-12.2216,36.7014,-1.82571
2.49811,0.064801,1.82001,23.7223,-6.8103,0.431858,23.9219,-6.5176,0.335773,23.8436,-6.48842,0.938141,23.706,-6.6422
17.7099,0.27069,-2.1615,32.8512,-4.92695,-5.93087,32.681,-4.55316,-1.28077,32.8741,-4.68058,-5.17261,32.4072,-4.59397
9.08426,0.583775,-3.12123,6.43819,6.35256,-3.13426,7.28937,6.99205,-1.43738,5.93229,6.72914,-3.74726,5.50586,6.9537
28.075,1.52819,-11.0141,8.97582,5.93795,-13.8743,9.7485,4.93781,-15.149,8.97274,4.56602,-14.1737,10.5935,5.5375
30.123,0.233638,-11.5938,14.0313,-5.53828,-10.597,16.6825,-6.44664,-9.38803,14.2323,-6.09065,-9.94086,16.5562,-6.62933
5.83082,0.200225,-3.38289,34.3083,-4.07787,-3.55157,34.8076,-4.0292,-2.7834,33.5936,-4.76986,-2.71836,34.9312,-4.13988
16.3798,0.0661212,16.1186,22.2839,2.88921,16.2665,24.5337,2.28018,15.829,22.0353,3.43781,15.7132,24.4461,3.0274
9.30331,0.578249,14.5525,32.3995,1.85386,14.5586,32.9168,2.7512,15.4065,32.768,1.46001,15.4321,30.2992,2.3913
1.85029,0.114154,12.5148,33.8709,3.79828,12.8523,33.1803,4.16839,12.7685,34.2198,3.53279,12.3519,34.0286,3.97938
6.19981,0.636635,-5.18637,14.1699,-6.46377,-2.65549,14.103,-6.65734,-2.51753,14.1687,-6.62378,-3.01458,14.2711,-6.7028
32.1518,0.120647,-4.22007,25.3421,-6.37668,-2.34907,25.1873,-6.35957,-3.7489,23.1689,-6.46188,-2.32141,23.5131,-6.50228
27.2073,0.668491,-8.56152,22.0516,-5.49187,-8.35544,23.3092,-6.05911,-10.0239,23.3705,-5.81153,-10.5984,21.484,-5.94183
4.08419,0.16495,4.91812,29.4018,6.21802,3.97925,29.5942,6.11542,3.88855,29.4381,6.1101,5.85572,29.5053,6.00893
5.61862,0.144397,-10.1444,1.85775,1.9852,-10.3243,1.98247,2.43953,-10.1546,1.87529,2.91094,-10.3291,1.90182,3.00253
4.33465,0.0114674,-13.5631,4.27522,4.49261,-10.7542,3.97842,5.35304,-12.1357,4.14967,4.95721,-10.6811,3.86326,5.29065
19.7054,0.459834,-1.59783,22.5948,-6.02299,-1.02168,19.6834,-7.00351,-2.38658,20.4694,-6.93023,0.0344506,22.7819,-6.36883
9.99086,1.05474,-11.9156,28.9199,5.00846,-8.07542,29.1041,5.62092,-8.66373,29.0726,5.6919,-8.25538,29.2609,5.67174
6.15885,0.451951,-0.857076,12.2505,-6.03316,-1.25727,12.9638,-6.62108,0.322122,12.3577,-6.41922,-1.35309,11.2324,-6.38339
6.7573,1.80863,2.22146,4.41244,6.20765,4.76071,4.54711,5.98427,4.68515,4.12879,6.04939,4.76665,4.53175,5.99474
13.6152,0.627426,15.9249,24.7438,-2.1878,16.564,22.4281,-2.4829,16.0608,24.9358,-3.61415,16.7567,25.2119,-1.70448
0.0709876,0.0675074,-6.26435,7.40086,7.18111,-6.33421,7.32397,7.19806,-6.33973,7.47184,7.19893,-6.33311,7.39741,7.18032
26.3948,0.23084,0.0113145,30.2722,-5.58383,-2.91908,29.5444,-5.69825,-3.09334,29.8326,-5.75122,0.122375,31.8262,-5.48477
1.38239,0.188169,-3.21417,27.9537,6.43938,-2.3039,27.9759,6.37014,-2.47443,27.8342,6.4661,-2.12145,27.9057,6.33925
19.9346,0.433935,-0.656708,6.74504,-5.09764,-1.31437,7.01819,-5.42827,0.648061,7.54398,-5.73107,-0.136278,5.05669,-5.64712
2.67692,0.375189,-6.14106,12.8292,6.57341,-5.14627,12.7345,6.71848,-5.42564,12.8806,6.70153,-6.30386,13.3424,6.7696
4.19914,0.465272,-13.039,11.4775,-3.67306,-13.5463,10.4604,-3.92127,-13.5793,12.2707,-4.23761,-12.3828,11.4027,-4.19475
0.277495,0.033061,7.99753,11.0456,6.4583,7.96176,10.3952,6.41093,8.0057,10.3334,6.39926,8.12196,10.5926,6.38226
5.69035,0.151016,-9.09584,38.1199,2.0859,-8.58321,38.1453,2.96353,-9.33317,38.1652,2.28619,-8.36362,38.6117,1.56351
24.447,0.560029,-5.61704,1.55513,4.53304,-5.00345,4.63338,6.50997,-5.66176,4.19686,6.06632,-6.47193,2.13712,4.9956
10.8323,0.45858,-9.01833,28.7057,-5.22529,-9.30632,27.9325,-5.75656,-9.47968,29.1883,-5.57349,-6.24535,29.0457,-5.97754
0.828393,0.366883,-16.7436,10.9143,0.0513767,-16.7338,10.7085,-0.267661,-16.7593,10.5534,-0.134737,-16.7362,10.793,-0.345253
3.44982,3.23797,7.84892,37.7427,3.6107,4.54866,38.1501,3.95974,4.55123,38.2308,3.79434,4.5502,38.297,3.71905
9.13413,0.0898128,-3.46451,29.5299,6.24088,-4.86489,29.3904,6.11291,-2.5168,29.5619,6.11768,-5.40039,29.4405,5.93721
24.3959,0.151474,0.500838,35.6029,-4.13998,2.28537,37.3613,-2.57341,2.69673,35.9282,-3.60546,2.78667,37.5923,-2.28429
4.02751,0.0794481,-7.06976,32.627,-4.62378,-7.61848,32.7081,-4.60474,-8.14062,32.2371,-4.63494,-8.13211,32.5725,-4.55869
9.85323,0.743337,5.36557,34.8261,5.39001,4.38453,35.1885,5.03375,3.54203,34.7295,4.85996,3.69142,34.8533,4.64985
1.06318,0.545061,-12.996,25.2449,5.27299,-12.5595,25.5873,5.49771,-12.4783,26.1089,5.20752,-12.4779,26.2353,5.15898
4.38394,0.134995,5.8735,16.2686,6.94172,5.99819,14.868,6.94167,5.67876,14.9327,6.96236,5.31232,14.7813,6.96514
22.058,0.200485,1.37177,14.0605,-6.6439,-0.589656,15.3286,-6.45402,3.92659,14.3084,-6.48736,-0.752199,14.0571,-6.41287
4.49663,0.0639281,-7.88907,28.5756,5.8404,-8.07978,27.3405,6.22354,-7.92515,29.1141,5.54589,-7.43825,29.2634,5.59402
7.11833,0.0253938,15.8391,14.0883,3.09208,16.6586,13.7235,1.50685,16.6623,13.9929,1.57234,15.6231,13.9292,3.51019
5.75887,0.413947,11.6958,12.1077,5.08727,11.6991,11.3267,5.62584,11.7433,12.5122,5.5269,13.3833,12.0033,4.48943
20.0082,0.261989,0.706715,0.528411,0.696149,0.254954,0.474787,-0.388098,0.915049,0.430755,-0.296721,1.78945,0.19452,0.819732
20.5836,0.847745,-4.55292,15.9618,6.198,-0.244214,16.0753,7.2587,-4.83293,14.8878,6.9747,-1.64719,15.7256,7.07988
2.05729,0.498476,-12.3991,16.0348,5.7246,-11.2212,16.2711,6.18657,-11.3586,16.0173,6.16503,-11.2191,16.103,6.16692
22.2967,0.0823196,7.71559,27.4175,6.16032,7.48705,25.5531,5.91782,6.21371,26.0788,6.05604,6.49061,27.317,6.26833
2.95024,0.26116,-1.55506,38.8614,1.34879,-1.67653,39.0792,0.679412,-1.6875,39.1762,1.89713,-0.590435,39.0504,1.23567
16.5218,0.461291,15.6924,18.1798,-3.40226,15.57,17.7635,-4.63032,16.2678,17.678,-3.20681,16.3326,21.9788,-3.71656
0.534259,0.0298727,15.0516,32.1907,-0.96341,15.1217,32.2248,-0.854532,15.1514,32.4849,-0.581914,15.1165,32.682,-0.400459
2.98897,0.123022,8.05749,1.57548,0.873681,8.028,1.5557,-0.756461,8.09227,1.59354,-0.795581,8.20272,1.87927,1.57581
12.7814,0.254703,13.0649,22.838,-4.99805,13.9566,23.0107,-4.63059,13.236,21.945,-5.76334,12.2478,23.0122,-5.79445
9.43642,0.477753,-11.0366,28.8041,-4.88972,-11.8149,28.0414,-5.30178,-9.57309,29.1897,-5.55886,-11.7458,29.6526,-5.23061
11.5393,0.120471,11.1296,23.7412,-5.93615,11.6388,24.5862,-5.92057,11.6983,22.7418,-5.84518,12.6514,21.9714,-5.93749
1.93662,0.154144,10.6546,14.6483,-5.78658,11.8021,14.726,-5.86245,11.5689,14.5776,-5.80596,11.8952,14.6545,-5.8085
65.8705,0.276686,-12.6753,3.4189,-1.60955,-8.75716,1.80371,-1.78986,-9.38253,3.4183,-3.12115,-14.495,4.31926,-1.04864
19.3102,1.1219,-1.83798,16.6226,-6.58978,-1.97332,14.7062,-6.45824,-3.0306,14.7738,-6.97381,-0.772523,15.2619,-6.46756
5.31425,0.0367973,2.85529,2.62291,5.27668,0.358131,3.20267,5.65816,0.301481,3.34815,5.75967,2.05741,2.94317,5.4618
3.25367,0.669327,5.93271,2.54484,-3.46445,4.92459,1.86304,-3.23993,4.75022,1.27842,-2.92769,5.22015,2.39049,-3.66566
10.131,0.217715,8.33011,11.9329,6.05568,11.5213,11.9366,5.53818,11.5313,12.0138,5.54497,9.92609,11.8227,5.89612
4.78401,0.182762,-4.77998,35.2339,-3.73927,-5.23264,34.69,-4.23784,-3.94437,35.5122,-3.86198,-5.26984,35.8761,-3.5237
8.95963,0.756821,16.9063,16.6764,-1.68093,17.2168,17.7804,0.683693,17.223,17.7757,0.728759,17.4133,18.1312,0.489084
3.63358,1.94293,6.30563,27.6549,6.30913,6.39933,29.5119,5.66697,6.09029,29.5112,5.75667,5.90081,29.5826,5.99869
8.39349,0.179305,-0.476522,2.94239,-4.01493,-0.297466,3.69683,-4.65329,-0.972172,2.48968,-4.04254,-0.567642,3.79389,-4.7616
4.24716,0.305445,4.086,0.401274,1.47819,3.72723,0.368279,0.368982,4.49219,0.521688,0.570275,4.13754,0.491481,0.366913
3.58967,0.326962,15.3821,17.7159,4.03558,14.2215,17.8649,4.70159,13.878,17.684,4.83869,13.83,17.7726,4.83625
2.29804,0.336505,16.9151,16.6374,-1.72717,16.5599,16.2962,-2.89598,16.6898,16.4501,-2.67887,16.6255,16.2472,-2.81208
19.8026,0.173761,15.5935,19.5809,3.46352,16.6862,19.8107,1.99036,15.7236,18.1448,3.2449,16.3977,18.9497,2.28005
7.08504,0.672978,-6.77057,1.13851,-0.356922,-4.33674,0.371377,-0.478488,-4.21452,0.311632,-0.974082,-4.21131,0.339338,-0.727722
2.16785,0.0188199,-7.21414,1.61461,-2.30091,-6.7992,2.42255,-2.51215,-7.09289,2.18356,-2.40847,-6.57594,2.58601,-2.5877
2.63005,1.03928,-14.9967,28.7768,-3.36994,-15.2753,30.2793,-3.51983,-15.0943,30.3578,-3.59227,-15.1349,30.3547,-3.56477
2.31383,0.0416518,11.746,21.5816,-6.14209,11.6101,19.2427,-6.04671,11.6609,19.5989,-6.03197,11.65,19.2407,-5.99357
21.8114,0.693581,5.39415,18.8492,-6.82155,5.01696,20.6038,-6.87663,3.82668,18.6842,-6.62799,3.73591,17.6634,-6.88602
7.06965,0.485013,-2.5098,25.1492,6.13275,-1.18835,25.2152,6.33162,-2.545,23.6029,6.86811,-2.50474,25.8031,6.53802
8.73832,0.218066,7.29329,38.2491,1.24504,7.04197,38.5933,1.54663,9.91496,37.8011,0.829634,7.03442,38.4351,0.738272
6.96662,0.304534,-6.02831,24.9662,-6.10004,-4.356,25.2197,-6.42231,-6.29634,24.4524,-6.38757,-6.4551,25.5854,-6.42093
7.91472,0.793462,10.2698,33.6873,-3.68817,7.26655,33.6517,-4.01599,7.22708,33.8446,-3.97735,7.18033,33.7807,-3.98033
3.45521,0.520273,-5.25933,21.3881,6.00191,-5.98003,21.5742,6.75293,-4.66348,22.0115,6.34789,-4.67584,20.6642,6.39493
22.7523,0.715239,-1.87204,29.3896,5.46068,0.57253,29.6093,6.14408,-2.51439,29.715,6.15431,-1.66882,26.6712,6.41446
4.71355,0.104748,12.7808,3.87478,-1.61953,15.1355,4.8129,-0.165718,11.7243,3.55005,-2.01076,15.0837,4.76788,-0.112404
3.50777,0.343022,2.11545,27.3171,-5.644,1.702,27.996,-6.07006,2.66997,27.396,-5.71565,1.93306,26.0087,-6.56754
4.6603,0.296242,5.51333,2.89015,4.71919,5.16567,2.4807,4.97707,6.1207,3.02394,4.92384,5.94229,1.37428,3.73955
3.1625,0.399869,-2.46417,11.1242,7.11177,-3.96163,11.1218,6.95725,-4.35555,11.3139,6.82458,-4.36106,11.234,6.81349
1.47559,0.104961,4.94671,10.2519,-6.29953,5.23452,10.6168,-6.39709,4.5788,9.70679,-6.42863,5.00179,10.7513,-6.34769
5.75135,0.170912,-9.0986,16.3903,6.75515,-11.1743,16.1091,6.18413,-10.1051,16.418,6.54337,-11.1765,16.1947,6.16721
7.75631,0.69358,13.6475,32.8483,-1.33216,13.9118,33.1192,-2.34274,14.3864,33.9075,-0.689585,14.7238,31.8542,-1.3639
3.23918,0.164496,-1.79168,12.3859,6.83306,-1.87462,12.7609,6.97522,-0.0497474,12.3458,7.1046,-0.0503239,12.4899,7.09771
1.55885,0.0864024,5.89249,34.8842,-3.77933,6.35887,34.6494,-3.88853,5.68432,35.0225,-3.85838,6.07831,35.4781,-3.50737
18.8718,0.621466,-15.7273,23.1334,-2.65953,-15.2392,25.095,-4.02449,-16.9386,22.8144,-2.49962,-15.4281,22.3086,-3.56602
4.75213,0.275532,12.7322,34.4749,2.95641,12.7552,34.2992,3.45513,14.452,33.5695,2.51897,12.7919,34.996,2.96548
7.88247,0.0936183,5.675,35.9773,-2.84148,6.59587,38.0629,-0.748028,6.61827,37.0995,-1.96143,6.65901,37.9712,-0.907404
2.05864,0.368637,5.38369,33.8133,-4.42817,4.28954,33.9223,-4.48307,4.24364,33.8392,-4.47221,4.29203,33.7584,-4.48939
6.89976,1.02957,-12.3943,26.2975,5.174,-11.4191,28.0757,4.89243,-11.6027,28.437,4.96146,-11.5829,26.6375,5.72044
1.0398,0.0946596,12.7145,29.3845,-4.37432,13.0288,29.3514,-4.19239,12.5921,29.5629,-4.58452,12.7107,28.99,-4.66162
12.3826,0.0554129,-3.33832,23.2826,6.79767,-5.40514,23.1778,6.51286,-2.26858,23.3978,6.84016,-5.38785,23.5972,6.39795
2.25661,0.00675401,-6.94063,26.0173,5.95222,-5.84545,26.0572,6.1456,-5.85221,26.2279,6.14124,-6.18444,26.2174,6.08463
0.265895,0.147387,-11.111,22.7403,6.29784,-11.3041,22.727,6.25452,-11.2018,22.5154,6.2816,-11.251,22.5987,6.2533
34.2922,0.00939069,10.2616,22.7259,-6.20416,11.7004,21.6523,-6.13575,9.17583,23.1761,-6.28507,10.5267,25.6647,-6.08815
35.6138,0.259645,-4.55192,7.81773,-5.46509,-3.09404,8.01025,-5.89709,-3.04446,9.46624,-6.21946,-4.69776,9.67839,-6.12604
5.92429,0.116684,11.1057,13.5388,-5.96041,10.4469,11.8687,-6.09475,10.5671,12.9339,-6.18614,12.045,13.1514,-5.72884
3.15868,0.042725,5.29251,16.8673,6.8262,7.13375,16.8686,6.82907,7.21875,17.0717,6.81434,7.08207,17.0706,6.81737
0.0107472,0.0278971,8.82779,6.88257,5.88471,8.7606,6.87847,5.88416,8.77009,6.82165,5.9146,8.7995,6.82354,5.89928
24.8718,0.0113903,15.0527,28.7825,1.36649,14.9703,29.7094,2.11037,16.2243,29.8361,0.698056,16.3953,29.3188,0.14425
0.879347,0.194189,-5.11054,0.402163,2.93029,-4.42632,0.375028,3.23953,-4.29724,0.40485,3.35869,-4.23628,0.43785,3.42111
1.79749,0.0832086,6.92134,11.0771,-6.21971,5.78857,11.1189,-6.38107,5.78367,10.9456,-6.34441,6.10231,10.9432,-6.32499
15.0295,0.0281473,-0.894359,0.289982,1.31765,0.505658,0.321805,1.958,2.41851,0.178475,1.53273,1.27839,0.323316,2.1282
3.75567,0.133194,16.3362,27.16,0.682143,16.778,27.3805,-0.32136,16.5965,26.7914,1.12473,16.2811,27.5065,0.61879
14.8726,0.570345,2.89972,38.7353,0.685271,5.67485,38.8916,1.44809,4.93582,39.101,1.33025,3.13965,38.8243,-0.112086
4.61936,0.0856458,-12.7452,2.98204,3.8888,-14.1828,3.6109,3.78377,-14.2409,3.47753,3.59072,-13.9473,3.32234,3.55033
11.4961,0.396327,-0.785807,32.6779,-4.6364,-0.723584,34.1812,-4.63991,-1.26687,33.7903,-4.81353,0.0641598,33.1149,-4.82478
6.54626,0.0387881,-1.86402,33.3116,-4.89917,-4.35134,33.1155,-4.7436,-2.27714,33.4603,-4.83816,-4.2594,33.0485,-4.74906
58.1066,0.564277,-3.12848,0.216209,-1.81486,-1.8652,0.25768,-0.225201,0.108758,0.194705,-1.18943,0.191173,0.465058,-0.338071
19.8841,0.516797,9.78092,8.3011,-5.14091,9.00873,10.2718,-6.14629,8.90043,7.39607,-5.16498,8.76177,9.83297,-5.93416
14.3011,0.540241,16.753,19.2787,-0.332944,16.8529,19.333,-1.93747,17.4462,20.1693,0.135483,17.3045,17.851,-0.391296
30.3193,0.56913,12.4927,14.7411,4.98177,14.272,14.1777,4.50589,11.7887,12.6416,5.54246,12.5465,15.5745,5.82076
5.95322,0.344645,-2.13543,0.191413,0.374605,-0.804335,0.322757,1.23542,-0.339042,0.262934,1.00743,-0.446241,0.278261,1.00899
5.34398,0.204613,-10.738,28.3232,5.50252,-11.3824,28.0546,4.91972,-9.40749,27.9804,6.09655,-9.67671,28.2998,5.89334
4.50795,0.286712,-10.5452,5.81065,6.42427,-12.4174,5.57919,5.69948,-13.1126,5.76031,5.40792,-13.1314,5.65418,5.35653
1.55414,0.118154,16.4611,15.1206,-3.37193,16.324,16.0737,-3.20822,16.3138,16.4714,-3.08093,16.3413,16.0737,-3.64797
3.31639,0.432727,-1.91504,11.3741,6.50204,-2.11073,10.996,6.97926,-1.14113,11.2651,6.72219,-2.2992,12.2662,7.13668
48.1976,0.546434,-4.29577,37.4772,-2.72008,-5.30852,35.9472,-3.47679,-3.99942,35.7179,-3.65285,-2.3612,36.5,-3.66436
6.94352,0.11424,-16.7375,15.1007,2.40663,-16.2642,14.6745,3.84853,-16.313,14.8238,3.6251,-16.42,14.1004,3.42496
18.5574,0.0796686,12.8262,3.57323,2.58807,9.54036,2.31703,3.35156,12.0621,2.96297,2.40151,9.31104,1.73115,2.63422
16.3014,0.0499765,9.9287,3.99661,4.81105,10.3065,2.69199,3.64311,12.0444,4.40301,4.1256,12.2514,4.03296,3.7238
2.8839,0.97114,-6.12348,7.06607,-4.97251,-4.72852,6.87751,-5.19818,-4.72815,6.79759,-5.21795,-4.90253,7.05187,-5.28781
10.3893,0.261905,-6.9144,34.3314,-3.9338,-4.95515,34.6302,-4.33537,-5.13613,33.1822,-4.63323,-4.5245,33.8151,-4.71142
10.1325,0.246852,5.55775,37.728,-0.98434,6.56747,38.721,1.55231,5.09212,38.0378,-1.09924,6.03793,37.7314,-1.4723
1.16769,0.150814,16.2378,14.1785,-3.11757,16.4637,14.0063,-2.73865,16.6026,14.2092,-2.35382,16.5841,14.1292,-2.36745
1.9396,0.187085,-12.3733,9.58449,-4.01373,-13.5183,9.65166,-3.35337,-13.6286,9.88856,-3.31465,-13.2962,9.52962,-3.50571
5.92439,0.715999,-10.74,19.4843,5.87969,-8.88748,19.3543,6.17055,-8.53736,19.4321,6.03911,-8.99291,19.5845,6.11832
2.32084,0.693879,11.3982,16.3942,-6.26233,10.3108,16.5065,-6.37653,10.3495,16.3338,-6.30538,10.3058,16.4222,-6.32021
31.2767,0.511575,1.12908,27.4283,5.80451,0.0699897,26.8028,6.34628,-0.00332746,28.4124,6.42406,3.25581,27.6702,6.21284
8.21473,0.562616,-15.2647,34.9287,-0.875295,-15.7094,35.3443,-0.734103,-13.2044,36.7155,-1.33416,-13.6871,36.4431,-1.28044
3.16395,0.378861,-4.01979,35.5724,5.59161,-4.36298,36.2087,5.84959,-2.88967,35.5554,5.78625,-4.31792,34.9747,6.25674
9.55498,0.574916,2.34417,6.8544,6.21588,2.14538,7.69504,6.86767,2.21664,6.07889,6.8034,4.34777,7.14409,6.41463
3.31798,0.255353,3.45608,18.9673,-6.49855,3.50736,20.6201,-6.84484,3.02145,18.6542,-6.90958,3.82926,18.7549,-6.62383
5.68201,1.37737,10.4857,31.2817,-4.78713,10.2825,28.9823,-5.03765,10.4244,28.7821,-5.14869,9.88863,28.8835,-5.35257
12.3064,0.461735,0.766778,29.0085,5.7883,0.672819,29.7485,6.17416,3.07525,28.5573,6.07396,0.498121,28.3597,6.36386
3.74785,0.503754,-1.52143,18.2648,6.48573,-1.52568,16.0709,7.00508,-1.48927,16.423,7.00413,-1.62748,16.4214,6.99839
1.08611,0.0554526,9.95669,5.81042,-4.91519,9.78747,5.24443,-4.55302,9.75474,5.40214,-4.65613,9.91952,5.17132,-4.47502
3.68773,1.13945,5.42074,31.1403,-5.60059,3.63373,30.876,-5.59638,3.68293,31.087,-5.59429,3.58883,30.804,-5.6221
0.0204241,0.0841775,-17.2576,24.0969,0.398625,-17.1539,24.1496,0.45364,-17.2545,24.1933,0.378724,-17.1861,24.1697,0.411453
19.8938,0.324229,-5.65762,26.9814,-5.7914,-7.33435,27.0213,-5.98174,-4.88399,29.1566,-5.80202,-4.75914,25.7771,-6.40358
7.3099,0.329902,-15.0289,34.3439,-1.47743,-14.2544,34.6698,-2.087,-14.1709,35.6769,-1.50695,-15.333,34.086,-1.90561
38.3305,1.48083,-3.85388,0.235175,0.616955,-8.88545,1.29698,2.32589,-8.54806,1.21586,1.94587,-9.60155,1.58635,2.88006
0.671633,0.0868161,-1.8795,23.1712,6.64401,-1.78462,23.2646,6.64774,-1.92286,22.8497,6.91135,-1.96234,23.4773,6.73502
11.0965,0.411884,-15.115,12.8832,-3.00643,-15.5737,13.3596,-3.25677,-13.9891,12.6256,-4.24745,-15.7183,11.7945,-2.95191
19.7727,0.200138,-9.59773,33.812,-3.57038,-8.80278,35.0533,-3.79627,-9.11242,33.245,-4.34743,-8.67889,34.095,-4.26431
9.09169,0.355018,12.1097,29.3107,4.34673,11.8982,30.0079,5.23887,13.1334,29.2236,4.10312,11.9864,28.9932,4.73526
0.238686,0.0933493,-15.0152,3.70193,1.99558,-15.0099,3.77818,2.35038,-14.9941,3.74017,2.40615,-15.0748,3.90493,2.23966
4.48561,0.216113,-10.858,27.8139,-5.27862,-9.34969,27.9999,-5.75523,-10.898,27.3488,-5.4684,-11.11,28.2033,-5.47565
4.53606,0.0335888,16.2447,19.7774,-2.38967,16.21,20.0484,-3.3327,16.365,18.0688,-2.73543,16.2973,18.8054,-2.53091
47.3749,1.33681,6.96753,8.79945,-6.08902,7.19471,5.9497,-5.42737,8.80698,7.3244,-5.18896,8.02378,7.39378,-5.12276
4.54458,1.8391,12.2698,36.9588,1.35847,10.0177,37.7223,1.13206,9.91097,37.9012,1.42972,10.0406,37.7491,0.867713
6.70792,1.14097,9.65687,17.0201,6.15718,12.0078,17.7506,5.97928,12.0515,17.748,5.95475,12.1029,17.5968,5.9596
2.526,0.0348898,9.42924,19.7812,-6.71085,7.59049,18.9115,-6.84019,7.63903,18.9694,-6.86286,8.00729,19.1906,-6.86422
8.64885,0.721886,4.58288,7.26444,-5.04755,3.27865,6.64592,-5.60178,4.61245,9.4164,-6.33755,2.95675,6.65186,-5.59485
3.01554,0.09057,-11.5463,36.5926,3.81845,-11.8836,36.1595,3.48877,-11.2865,37.2445,3.73592,-11.1117,37.2134,3.92159
0.542185,0.308052,-8.43214,1.11976,-0.608558,-8.76017,1.19298,-0.295267,-8.76523,1.13246,-0.227122,-8.91919,1.20057,-0.341187
7.58618,0.400486,12.3341,17.693,5.35071,13.8195,17.8449,4.87043,13.8335,17.6802,4.85589,12.3354,18.4496,5.85255
1.52603,0.0203492,-16.1588,8.83105,1.3795,-16.1077,8.75197,2.1551,-16.1182,8.59466,1.89357,-16.1458,8.5873,1.56313
1.77412,0.148608,-4.49945,18.304,6.60728,-4.47884,16.9928,6.83744,-4.38852,19.1173,6.22605,-4.38758,16.9953,6.84696
9.38388,0.276742,7.35329,5.54589,5.89153,7.16258,8.72009,5.39684,7.2051,4.33239,5.72129,7.97184,4.83568,5.58943
5.21029,0.240085,7.90069,16.7924,6.38379,9.52549,17.0341,6.19617,7.61061,17.0896,6.67139,7.69099,16.259,6.74759
0.0354723,0.0452702,-15.8723,35.0988,-0.818459,-15.7558,35.108,-0.817774,-15.767,35.1085,-0.861578,-15.8411,35.1375,-0.802378
9.86364,0.416634,-15.0009,26.5991,-2.89585,-14.9995,28.7041,-3.32784,-15.8813,26.3789,-3.25708,-14.5302,26.5715,-3.34236
2.50704,0.126784,-14.8803,10.1371,-2.45227,-14.9998,10.3426,-2.52874,-15.2606,9.8447,-2.40207,-13.5986,9.78505,-3.27374
5.90711,0.581086,-2.79978,35.621,5.77789,-0.762349,35.6987,5.83529,-0.395936,35.4898,5.73977,-1.09558,35.5587,5.92559
0.0254579,0.00994821,4.12538,12.8297,6.7624,4.04717,12.8192,6.76513,4.05121,12.7756,6.76779,4.08261,12.7736,6.7631
21.1898,0.673845,-6.63767,29.5142,5.40754,-4.6328,29.8413,6.19467,-6.74839,27.052,6.4367,-8.23642,29.9775,5.90265
4.88459,0.148449,-9.46174,12.2598,-5.6268,-8.6057,12.2354,-6.00733,-9.76179,11.7484,-5.44868,-9.90419,13.1812,-6.17758
7.53154,0.632594,10.2879,19.8938,5.87926,12.4672,19.7029,5.64365,11.939,19.8436,5.84179,12.3943,19.5515,5.75681
7.94646,0.323819,5.0642,25.8755,-6.3,4.91066,26.4699,-6.57314,4.90124,25.2329,-6.7247,7.6711,26.0783,-6.3109
19.4203,0.0146328,-10.9802,1.93911,0.799737,-9.8934,1.57177,1.133,-10.3009,1.92396,2.02784,-12.953,2.78243,1.21986
30.6017,0.154014,-13.6983,32.4191,-3.07899,-15.0715,32.3435,-2.3621,-16.0746,32.0766,-1.72978,-9.50858,32.8521,-4.44592
3.05967,0.0700267,-6.58973,2.75902,-2.72522,-6.10544,2.61759,-2.72517,-7.55921,2.80668,-3.28469,-5.55206,2.52998,-2.89504
0.920579,0.0603515,16.2415,28.6242,-1.01502,16.4245,28.4948,-0.518953,16.5342,28.4864,-0.120694,16.5397,28.5619,-0.13934
4.08916,0.237508,14.8032,19.4691,-4.64855,14.7343,19.6764,-4.90796,15.4514,19.0387,-4.68985,16.0867,21.1882,-3.89921
8.10613,0.422652,-14.6877,11.4001,-2.58889,-15.0918,12.1257,-3.03509,-13.6267,11.1761,-3.90061,-15.0986,10.3727,-2.51901
6.30069,1.75849,14.6002,19.8083,-5.01701,12.3921,20.1757,-6.11,12.4398,19.5238,-6.08533,12.4817,19.7086,-5.91435
3.19426,0.12602,11.0539,29.2949,5.36151,11.74,29.2191,5.052,9.82919,29.2403,5.46446,9.91932,29.3291,5.47756
0.809428,0.0480934,9.28232,2.27845,3.58303,9.47846,2.29402,3.36062,9.24055,2.28031,3.85511,9.09472,1.92247,3.22769
8.2555,0.0111124,10.7233,36.5432,-1.37904,10.1082,35.9817,-2.13376,12.8035,36.7131,-0.655223,11.2366,37.2739,-0.512456
4.95605,0.401583,-13.3333,13.1151,-4.21919,-12.4551,12.928,-4.97648,-13.7112,12.3423,-4.26268,-13.8755,13.9624,-4.7272
2.46833,0.230456,4.89336,19.7044,6.40944,4.02871,19.5627,6.46899,3.78775,19.6335,6.41692,3.73793,19.7332,6.40381
10.8725,0.453539,-15.8296,8.41651,2.70345,-15.201,9.14709,4.57293,-15.8268,9.0243,3.38565,-15.3681,9.14563,4.41091
4.62511,0.159234,16.246,23.0287,-3.0683,15.2851,23.1159,-3.88474,16.5077,23.0273,-2.54809,15.3344,23.1901,-3.86198
1.68225,0.143313,12.8119,23.5015,5.79751,12.2993,24.1178,5.76885,12.2988,24.0602,5.77725,12.2308,23.4251,5.89641
3.80431,1.46756,2.97608,25.8994,6.25419,1.43315,25.8954,6.09349,1.4455,25.823,6.14693,1.43101,26.0009,6.08444
3.40053,0.323669,-7.05062,10.358,-5.23153,-7.6056,10.8418,-5.64336,-6.2829,10.6314,-5.56142,-7.13916,9.61479,-5.4663
5.42236,0.017927,-8.14573,35.6083,5.25059,-8.99959,34.7858,5.21555,-8.34781,34.8322,5.57131,-8.13474,35.9519,5.09575
0.369848,0.0424305,-15.2968,21.1444,-4.01028,-15.2538,21.3172,-3.97181,-15.1511,21.1348,-4.11743,-15.0815,21.2215,-4.08858
4.92,0.160003,16.4477,22.0015,2.26682,16.7847,22.4931,0.950165,16.7142,22.6442,1.18505,16.7583,22.6878,0.918605
11.8055,0.214976,16.0877,9.95486,0.711963,16.4879,9.34128,-0.0782142,16.2989,8.6572,-0.0640923,16.9036,12.0127,0.650056
1.0671,0.11454,-14.6534,28.0554,-3.24822,-14.8891,27.8447,-3.24746,-14.8008,28.2924,-3.31582,-14.2079,28.1107,-3.60136
0.878217,0.128518,2.56915,38.8377,1.92133,2.97561,39.04,1.8022,2.34919,39.0197,1.98728,2.7043,38.7716,2.12877
8.81571,0.35553,6.75443,13.86,6.267,6.39938,14.4484,6.77748,6.54712,13.2626,6.65725,9.15542,13.7002,5.94199
5.34386,0.0420558,-0.3445,23.2476,6.73615,-0.0241582,23.1092,6.7025,-1.73524,23.1673,6.65623,-1.74449,23.3534,6.65633
2.10117,0.461957,0.362863,4.53899,6.48037,2.12378,4.48291,6.24407,2.08521,4.35585,6.2075,2.03007,4.31364,6.2134
4.0835,0.0671787,15.3198,14.2379,3.64337,15.18,14.9768,3.5429,15.5287,13.0154,3.63048,15.3358,12.6236,3.71573
2.714,0.0737772,0.333637,5.22318,6.73862,-0.125417,5.34424,6.7629,-1.37966,6.02886,6.79598,-1.38878,5.93627,6.73887
37.8172,0.219434,3.71539,37.7377,-1.86241,2.69292,35.9496,-3.5657,3.99641,35.6359,-3.99757,5.81788,37.622,-1.76451
51.4079,0.219743,-4.34237,10.3144,6.78214,-6.93801,11.1727,6.56832,-6.62191,10.3197,6.3811,-5.76283,11.3174,6.69459
6.33026,0.202862,-1.66942,36.5604,-3.71006,-2.62156,34.7948,-4.20075,-2.01837,35.2165,-4.23326,-2.77992,35.4837,-3.95664
2.28102,0.0538226,9.4959,17.8218,-6.1859,9.58433,19.0365,-6.46494,9.76954,19.3294,-6.47741,9.63833,19.4015,-6.55545
23.0699,0.714478,0.528531,20.7034,6.95985,0.912566,24.8862,6.46299,0.168383,25.7877,5.94945,2.11706,24.8843,6.81066
4.29074,0.284681,-0.0506348,4.84901,-5.61332,-0.296132,3.89439,-4.77603,-0.290812,3.73434,-4.6832,-0.590429,3.80525,-4.77624
16.9107,0.0380653,14.6025,23.1225,-4.26638,14.042,22.9037,-4.61433,15.3614,23.0371,-3.8758,15.8065,25.7458,-3.78419
4.26005,0.0830941,1.84169,22.4491,-6.77416,0.590857,22.7863,-6.46708,0.0816585,22.7888,-6.38297,-0.0609266,22.5636,-6.37045
1.63983,1.00905,7.90132,18.7841,6.09031,7.87326,17.2198,6.57594,7.91484,17.2187,6.56181,8.0074,17.2901,6.562
2.66246,0.202852,-13.5628,7.92372,5.52782,-11.488,8.08754,6.32727,-11.6739,7.93176,6.30206,-11.5352,8.01479,6.32726
1.8909,0.394626,1.6219,37.653,-2.04309,3.27359,37.7566,-2.01463,3.2067,37.642,-2.16261,3.40877,37.6929,-2.0431
9.29841,0.425649,7.83795,25.4043,5.72024,9.34091,26.0906,6.37946,9.09825,24.9601,6.3943,8.32354,27.0078,6.15635
35.4602,0.202534,-16.5343,11.9391,1.97917,-16.4243,13.6641,3.29968,-16.899,14.3036,1.7217,-16.7328,14.1248,2.27939
7.27866,0.326497,15.3377,30.019,-1.89257,16.3622,29.7087,-0.0591151,16.1731,29.1313,-1.18505,16.3056,29.668,-0.275373
0.417225,0.403966,6.42209,22.2462,6.89617,6.44907,22.7952,6.86595,6.17749,22.785,6.87193,6.3577,22.7835,6.85983
5.62912,0.229767,-0.51712,39.0627,1.29039,2.32586,39.1878,0.950696,2.08927,39.1567,1.06435,2.59361,39.2177,1.13107
1.89611,0.0828003,2.45495,9.02102,6.68173,1.80659,9.08164,6.67199,0.959894,8.95793,6.56146,0.87633,8.80928,6.5583
1.35803,0.107616,8.8972,21.5829,6.3974,9.21281,21.5917,6.35522,8.74245,21.3891,6.59066,8.69126,21.9543,6.64191
5.61927,0.0199627,11.9518,7.307,4.8128,11.2004,7.21328,5.0211,12.5783,7.38812,4.67755,11.7945,6.41837,5.17046
1.42727,1.07023,-10.1066,24.4109,-5.69997,-10.1433,25.5865,-6.10198,-10.0515,25.5824,-6.09083,-9.96028,25.5841,-6.10825
15.9472,2.12196,13.7096,9.59748,3.89196,10.9577,8.96544,5.52801,10.3764,9.25291,5.39119,10.4169,9.43613,5.38916
2.9084,0.093878,8.7908,19.7951,-6.78872,7.29511,20.3151,-6.84481,7.33852,20.1546,-6.8557,7.38538,20.315,-6.84499
11.104,0.212296,-14.1833,31.6598,-3.25024,-12.1729,30.3218,-4.92794,-16.1515,31.3963,-1.89435,-12.1783,30.4368,-4.86403
1.55634,0.0485616,-15.6739,18.4053,-4.34502,-15.7075,16.5229,-3.56522,-15.753,17.5524,-3.97649,-15.6551,16.4637,-3.58152
11.0302,0.18297,-0.0371337,37.6335,-2.21167,-0.751003,38.4602,-1.50495,-0.325509,37.3587,-3.05763,1.5459,37.6753,-2.00484
4.64779,0.178452,9.89688,37.4927,2.31192,10.3745,37.6769,1.68358,10.8877,37.1648,2.55574,10.4446,37.2195,3.02511
5.59027,0.35315,-1.34393,14.0906,6.64623,-1.48799,13.6904,6.95521,0.155024,14.1597,6.87146,-1.52485,15.1038,7.18577
13.0085,0.160365,2.80513,17.9144,6.96851,7.23635,18.1171,6.77682,7.19676,17.9911,6.79972,2.27559,16.9131,6.98708
3.93812,0.294264,7.0565,9.48887,-5.93921,6.91489,9.89813,-6.38535,6.79648,8.94766,-6.1845,8.30206,9.54062,-5.95235
142.775,0.68506,-2.15606,26.6355,-5.60399,1.29392,29.3736,-5.82239,-1.72466,29.328,-5.8043,1.42563,27.5234,-6.16735
4.28222,1.97144,1.38534,26.0003,6.07795,-0.591044,25.9819,5.81125,-0.585719,25.881,5.80953,-0.580899,25.7998,5.85559
3.81113,0.243492,8.0954,22.7172,-5.9905,7.707,22.4802,-6.36119,9.53663,22.2791,-6.47431,9.58834,22.0837,-6.56379
2.19214,0.00478454,3.2498,33.7265,-4.56884,4.24377,33.7014,-4.53572,3.68786,33.6246,-4.60099,4.20002,33.8371,-4.47252
12.1175,1.34397,-11.4107,36.2516,-2.38092,-12.9175,35.9356,-1.92169,-12.2619,35.1832,-2.77348,-13.1041,36.219,-1.925
11.7407,0.77722,-6.8984,33.8378,5.54213,-7.2683,35.1328,6.01696,-4.21866,34.0874,6.18351,-4.06739,33.8464,6.24188
16.9069,0.290762,11.4204,9.78738,-5.29084,10.215,11.6581,-6.07856,10.6912,11.125,-5.72944,9.56039,11.0988,-5.99026
11.2197,0.361267,-9.06384,4.19075,-3.3351,-8.04959,3.57601,-4.0783,-9.66013,6.19535,-4.58047,-9.44722,3.61175,-3.24171
1.94879,1.04603,-5.94145,8.96202,6.69953,-4.87213,9.03629,6.7597,-4.86934,9.11063,6.78425,-4.86824,8.94588,6.77355
11.5391,0.327637,-8.16444,7.05557,-4.69102,-10.5981,6.9341,-4.2489,-10.3672,6.90644,-4.25712,-7.21388,7.28838,-4.41876
3.62787,0.0693227,-14.0245,34.737,-2.1355,-13.3123,35.6951,-2.2019,-14.2282,34.7351,-2.04533,-13.6734,34.4723,-2.80987
2.82744,0.904658,12.7019,25.5733,4.68174,13.7663,24.3285,5.20445,13.7533,25.3643,4.92358,13.7543,24.5275,5.12626
6.78747,0.314449,-6.35789,32.0397,-4.47326,-6.66984,33.9925,-4.18296,-6.66996,33.0261,-4.41286,-6.66243,31.0395,-5.476
3.35082,0.298342,-9.35643,25.8344,5.54241,-9.50636,25.1846,6.2538,-8.98128,25.8313,5.56476,-9.57218,27.0663,6.10935
2.05824,0.0614661,8.03242,18.9229,6.02937,7.65604,19.2296,6.36062,7.76708,19.0874,6.15878,8.70341,19.194,6.29457
3.06707,0.142155,13.0857,31.1542,-3.17737,13.6217,31.7472,-2.47027,13.5274,31.8174,-2.42383,13.4768,31.0075,-3.42618
26.0356,2.40897,11.2961,18.769,6.02784,8.29947,17.9278,6.45881,8.42085,18.2056,6.38954,8.75822,18.9753,6.29752
4.5925,0.189292,5.28841,20.668,-6.82191,4.69914,20.9711,-6.79348,3.60587,20.9154,-6.82648,4.23862,20.9614,-6.79492
0.654318,0.222058,-6.96808,33.5552,5.79425,-7.14735,33.2585,6.22832,-7.09425,33.1891,6.25864,-7.04939,33.1881,6.2535
15.3909,0.526661,16.0357,30.6377,0.402148,14.7994,30.7956,-2.14808,15.6105,31.0691,-0.627867,14.8568,31.1582,-1.41547
3.86516,0.327019,11.3581,31.4136,-4.13725,12.3626,32.3546,-3.80783,10.9399,31.5144,-4.59317,12.2725,30.3126,-4.67321
3.23625,0.333672,7.97501,3.7623,-3.81833,8.62975,3.14972,-3.52182,8.5929,3.29463,-3.58111,8.71024,4.41657,-4.40537
127.279,0.956681,-16.6186,11.8193,-0.667182,-15.7934,9.5264,3.70965,-15.7729,10.7152,4.1987,-15.6323,9.93038,4.31032
5.06692,0.0843665,16.4902,18.5262,2.01083,16.4159,18.9417,2.24017,16.5853,17.7806,2.09895,16.9274,19.3517,1.39235
3.12299,0.246447,4.23513,23.0795,6.86139,2.86966,23.0245,6.94542,2.62833,23.1597,6.90273,2.63151,23.0851,6.91006
5.12817,0.126415,-0.12647,38.7999,2.49462,2.37411,38.9473,2.74515,2.24029,38.9797,2.63317,2.0695,38.9217,2.78578
9.30153,0.151127,9.82208,3.13421,-2.76317,11.7045,3.56072,-2.04685,7.44304,2.61063,-3.00728,7.44301,2.58682,-2.96834
0.502298,0.16342,-4.36473,23.8232,-6.60791,-4.73618,23.7537,-6.55978,-4.74171,23.6121,-6.57015,-4.6858,23.899,-6.57966
8.88965,0.0933487,16.3817,9.87909,-0.450366,16.9116,10.7043,-0.474333,16.5063,10.0022,0.0824233,15.4069,9.49431,-2.40669
1.86598,0.238534,11.3183,13.7163,5.9561,9.68504,13.7756,5.81494,9.92363,13.7977,5.87098,10.0233,13.6548,5.89632
7.79801,1.53094,-4.65839,11.28,6.66378,-3.72127,12.7552,6.96018,-4.60302,13.6884,6.17933,-4.74434,13.7506,6.16241
6.3371,0.0365521,-14.2078,28.0248,-3.60614,-11.8626,28.0401,-5.28104,-11.859,28.1245,-5.27234,-12.7835,28.221,-4.61622
0.882508,0.228951,-3.69736,28.8789,-5.87407,-3.55929,29.2738,-5.75448,-3.23161,29.4978,-5.8085,-3.46901,29.2774,-5.75021
0.0938376,0.115812,-4.71414,32.0376,6.56411,-4.80371,31.8154,6.55204,-4.85442,32.0346,6.55595,-4.80752,31.8993,6.5328
3.31933,0.330794,-16.6545,13.9216,2.47149,-16.4459,14.0497,3.32383,-16.442,14.3138,3.13968,-16.5484,14.452,2.88309
1.51907,0.0859421,6.15984,23.8852,-6.76705,6.03238,22.8722,-6.48586,6.26835,24.6706,-6.82915,6.08722,24.6692,-6.83542
4.5795,0.202909,9.82973,35.6567,-2.49899,10.4723,35.4607,-2.97256,9.53404,35.8371,-2.81679,10.2197,35.9325,-2.13845
37.8005,0.192203,-14.5186,9.10654,-2.82338,-14.6099,8.0067,-2.08548,-16.4549,10.1314,-1.17848,-15.6331,7.92452,-1.13704
0.04668,0.0680481,-16.9365,24.027,1.45506,-17.0187,23.9523,1.43649,-16.9356,23.9504,1.47063,-17.0098,23.9172,1.5505
2.64319,0.119415,9.53496,17.5845,-6.16497,9.44648,17.7502,-6.20073,10.4228,17.0683,-6.57029,8.97322,17.4561,-6.70334


