
8.18989,0.151066,-8.66784,24.6923,6.15046,-7.60245,23.8997,6.4834,-6.05572,24.4427,6.64156,-5.30328,23.8884,6.76866
9.73345,0.490714,-10.622,8.66467,5.92559,-12.0554,7.39291,5.49168,-10.9465,7.67046,5.46539,-12.0711,7.85385,5.48031
2.90424,0.0940891,-1.37698,7.54592,-5.90537,-0.529191,7.2749,-5.97487,-1.9466,7.27967,-6.02242,-0.726843,7.46822,-5.97878
4.39342,0.22587,2.38826,6.93585,-6.04077,3.44535,6.94591,-5.98815,4.60647,7.27008,-6.04189,4.23602,7.14684,-5.97075
16.5886,0.0880143,8.16284,24.8369,6.38023,9.60712,24.6634,5.9039,10.3788,24.1269,5.75488,10.3362,23.626,5.8304
1.57458,0.0848424,14.3949,13.1294,0.930161,14.6463,13.7728,0.105759,14.6548,13.9835,0.237822,14.6771,13.7298,-0.0480109
18.1558,0.241657,-10.1567,12.7222,5.95608,-10.1759,11.4766,5.99312,-11.3216,12.999,5.95968,-8.89404,13.0377,6.58287
0.681509,0.0978402,-6.08689,28.1258,-5.15352,-6.78848,28.0074,-5.22178,-6.86473,27.9093,-5.26,-6.7998,27.8604,-5.29391
2.41177,0.164748,-14.3955,16.434,2.31925,-14.693,16.8829,2.66908,-14.6885,16.9491,2.60878,-14.6556,16.0066,3.00435
7.78488,0.0762334,7.80231,13.4564,6.26691,8.93001,13.3965,6.10404,8.07351,12.4699,6.41098,8.36202,12.3881,6.40614
67.4096,0.636846,-4.23808,10.5173,7.00823,-4.65908,13.1975,6.72015,-4.46201,15.3129,6.96993,-3.89956,15.5685,6.96948
0.0147974,0.000121145,-5.52481,4.13683,6.42256,-5.57779,4.19729,6.40027,-5.57786,4.17306,6.39488,-5.52572,4.21457,6.43926
2.97602,0.173536,6.4937,18.8997,6.72265,6.10201,19.427,7.07317,6.41212,18.1442,7.00483,6.54803,18.2315,6.93283
14.9948,0.00223997,-10.7979,30.8974,4.31774,-10.0098,33.0558,3.0281,-9.57431,33.109,3.16931,-10.653,30.6399,4.56759
0.254925,0.00469743,-8.63642,17.5169,6.84911,-8.71306,17.8401,6.83468,-8.78132,17.7877,6.82429,-8.57724,17.8447,6.8573
5.87372,0.276677,5.27273,25.2624,-5.77194,7.51764,23.7968,-6.1734,6.59386,24.582,-6.07652,7.17304,23.8541,-6.20307
7.96824,0.242621,7.49213,2.81137,-3.99634,7.20851,4.16592,-5.0924,7.42708,1.97575,-4.10312,8.00801,3.21173,-3.99805
2.85168,0.112663,1.15704,7.53363,6.37276,1.58443,5.7722,6.59826,1.17824,6.94832,6.5099,1.44346,5.85677,6.57939
15.4543,0.640824,-3.53284,4.24795,-5.46686,-6.32193,4.66018,-5.00304,-5.25878,3.72659,-4.71118,-6.15456,4.83554,-5.04638
1.28133,0.0577678,2.80278,7.39196,6.52249,3.94898,7.13194,6.62425,3.88006,7.12767,6.62066,3.75203,7.07663,6.61194
0.596848,0.00762161,-5.82198,0.443414,-1.34713,-5.48839,0.419783,-1.34346,-5.51409,0.489624,-1.49418,-5.62187,0.512524,-1.53475
10.7417,0.0710598,-5.63379,22.9493,6.75586,-8.0822,22.9927,6.41681,-8.0248,23.2707,6.41116,-3.73047,21.4831,6.95345
13.8248,0.652709,12.7607,22.1748,3.83442,11.7513,20.6878,4.929,11.9713,20.6039,4.96234,14.3164,22.0549,2.43241
0.341481,0.0055855,15.1463,17.7274,0.882925,15.1442,17.4112,1.09292,15.1468,17.4979,0.975536,15.126,17.7487,1.11422
4.25859,0.151829,10.9534,23.0681,5.54823,8.59939,22.8856,6.49724,8.67885,22.7966,6.48635,8.6552,23.1126,6.44186
0.357216,0.00710946,-14.8836,23.0769,0.318338,-14.8961,23.558,0.0219695,-14.8795,23.2569,0.372441,-14.9024,23.4596,-0.00900967
33.5649,0.319846,7.15102,0.502791,1.47328,5.20572,0.201665,-0.183235,4.74853,0.254206,-0.219993,5.1972,0.300442,0.551349
2.23791,0.639605,10.7869,20.4481,5.34833,11.5219,20.9406,4.87042,11.8547,20.2504,5.16466,11.5052,21.075,4.83532
2.1441,0.119739,-11.1503,16.6494,5.84966,-10.7589,16.4524,6.015,-10.6258,17.7959,6.38327,-10.7058,17.7873,6.36299
3.84752,0.136751,6.86124,21.9117,-6.41479,8.23849,21.8899,-6.0733,5.85826,22.241,-6.28797,8.0973,21.7469,-6.1488
4.12472,0.14239,-10.3246,16.6805,6.23177,-8.45311,16.9011,6.58518,-8.36642,16.762,6.58686,-10.8374,16.6768,5.95426
9.86077,0.362861,11.0857,19.1381,-5.23695,10.9475,17.375,-5.47542,11.5422,17.7888,-4.72799,11.8331,18.7036,-4.62111
3.02674,0.0715256,-7.90402,22.8927,-6.05968,-6.7856,22.8241,-6.36773,-8.59159,22.6394,-5.52695,-7.23504,22.8965,-6.2375
0.267721,0.0839267,12.0931,16.6323,4.94864,11.8201,16.8233,5.09576,11.8815,16.9089,5.032,11.8826,16.8177,5.03379
2.72403,0.090738,0.334051,7.52263,-5.94249,-0.703542,7.69045,-6.06912,-0.453394,7.32104,-5.96498,0.704615,7.50431,-6.0378
4.04336,0.266824,8.94932,12.4475,5.92814,9.20362,11.0286,5.93544,9.11981,10.6882,5.89072,8.60578,12.7102,6.28861
0.135393,0.00798507,-15.1678,8.83778,-0.199492,-15.1785,9.09583,-0.402137,-15.1701,8.97409,-0.156577,-15.163,8.88583,-0.317365
4.52911,2.38906,6.9942,9.94017,6.15958,4.44892,9.89372,6.30085,4.47596,9.75138,6.29269,4.45317,9.84612,6.28567
0.0766454,0.0230831,-14.6976,1.87477,-0.0707303,-14.6045,1.67989,0.0142063,-14.6462,1.80015,-0.0914029,-14.5963,1.71649,-0.0470528
0.092716,0.0681184,7.31903,14.9778,-7.16336,7.2105,14.859,-7.17396,7.25867,14.8476,-7.16719,7.32269,14.84,-7.16247
10.7113,0.46578,13.4511,14.7124,3.30146,14.504,14.8071,1.34571,13.5005,13.3725,3.44786,14.3214,14.9032,2.14393
11.5417,0.117082,4.90432,33.0493,4.62551,5.46982,31.4889,5.40547,6.76448,31.973,5.11831,5.5863,31.8004,5.26211
14.4681,0.222474,-10.2602,22.3972,-5.41485,-10.5346,21.3922,-5.96041,-10.7212,22.9152,-5.51013,-8.65207,22.6505,-5.50667
1.08723,0.00974531,-14.8578,19.1934,-2.59809,-14.7065,19.4655,-3.01528,-14.7035,19.3074,-3.10576,-14.6334,19.6425,-3.17659
6.34239,0.431412,-10.3706,9.27168,5.82931,-7.68185,8.92345,6.20344,-7.75827,9.24866,6.23287,-7.41552,9.40755,6.24324
4.03237,0.200738,-0.584695,8.12411,6.16354,-0.0164695,7.88242,6.27699,-1.01893,7.9381,6.31164,-0.847955,9.15496,6.78799
14.3786,0.0383124,6.10499,28.7289,6.08801,5.90488,26.1476,6.6046,7.56768,28.8672,5.95389,4.63755,27.6895,6.46041
17.5126,0.297498,7.80538,9.75243,5.83985,11.3471,10.2518,4.8222,10.056,9.84857,5.07378,11.3714,10.2028,4.81528
0.0976842,0.00848411,-10.6626,21.296,-6.02143,-10.5278,21.2006,-6.02064,-10.663,21.1593,-6.03013,-10.7359,21.1594,-6.03522
177.428,0.506237,-6.05878,19.1614,6.89096,-8.77993,21.0868,6.15037,-9.58367,17.2601,6.56245,-9.99279,19.2677,6.06016
0.376331,0.0249045,14.1857,8.56681,0.414925,14.2127,8.69321,0.201865,14.1509,8.57193,-0.770802,14.1564,8.62008,-0.760007
1.98536,0.140702,4.32374,0.305383,0.140946,3.96065,0.285597,0.966556,4.22719,0.369221,0.970519,4.40866,0.419036,1.08346
5.82899,0.601056,5.70533,28.7686,6.19548,2.32263,29.1969,6.38031,3.97385,28.1569,6.36071,4.04048,28.2032,6.31621
18.0777,0.122721,1.21109,7.75984,6.30926,3.8631,7.92569,6.71163,0.730487,9.61454,6.48167,1.5402,9.61588,6.63308
0.0628544,0.0170372,-14.7399,23.4231,-1.77839,-14.7459,23.5833,-1.65227,-14.7605,23.4641,-1.61451,-14.7406,23.6047,-1.7156
1.0388,0.182458,-1.80459,13.1115,6.87451,-0.609709,12.9476,7.03967,-0.949764,13.1583,7.02899,-0.714277,13.0815,7.02969
0.0625987,0.0638325,-4.70264,0.550951,1.73326,-4.70683,0.60409,1.63776,-4.65498,0.599639,1.65025,-4.66097,0.645162,1.6288
7.31074,0.0600061,4.47521,16.902,6.57162,7.36285,17.0969,6.35442,7.07855,16.9875,6.34357,7.7575,17.3485,6.41224
4.46718,0.0882152,13.0156,22.49,3.61601,14.2374,24.1184,2.49385,14.3771,23.9788,2.28331,14.2382,24.2113,2.52092
14.8177,1.39689,13.5513,20.8954,-2.75206,10.3332,21.4807,-5.11128,10.7843,22.1037,-4.65598,10.7617,21.7882,-4.58754
8.95702,0.208962,7.06279,12.7765,6.2583,7.6015,13.4063,6.30796,7.45236,12.0251,6.41888,7.96796,10.9319,6.35161
20.9768,0.210268,14.6066,18.0118,-0.127278,14.594,16.6096,-0.817559,15.0726,18.7321,0.649446,14.2379,18.4998,-2.10992
4.26118,0.273006,9.16139,26.0122,-5.44806,9.0551,24.3065,-5.49507,9.25524,24.6269,-5.40166,9.11437,24.3537,-5.45602
1.53393,0.301156,-8.69404,28.5715,5.70873,-7.61152,28.3534,5.82103,-7.65795,28.1716,5.88218,-7.47262,28.4069,5.84499
6.43872,0.0600543,-14.097,14.835,-0.870027,-14.5093,15.1381,-3.29344,-14.3874,15.2386,-2.33997,-14.5193,15.3126,-3.27129
0.189311,0.0090108,13.8841,30.3401,2.58272,13.9466,30.3102,2.42682,13.9447,30.4674,2.39259,13.9648,30.3764,2.36966
14.2229,0.728281,1.42992,16.7476,6.3375,0.652657,17.3143,7.18914,2.33467,16.7573,6.91591,1.14626,13.6511,7.28258
7.97281,0.0192131,3.26358,7.27052,-6.06927,0.760773,7.45773,-6.0189,0.829388,7.13077,-6.00778,2.49765,7.48344,-6.07351
14.7713,0.171221,-14.5259,6.35133,-2.85485,-14.9633,5.73187,-0.706818,-15.0281,6.55253,-0.836341,-14.9242,6.97021,-1.80055
7.89512,0.219287,-7.94974,31.3831,4.45293,-6.82343,32.4825,4.35519,-7.9862,30.6662,5.28506,-7.53298,32.4328,4.10236
3.67237,0.0528491,7.77359,23.1981,-6.10557,8.60586,23.5027,-5.90909,6.58767,22.8537,-6.25086,8.46599,22.9966,-5.9578
10.0525,0.507161,-2.83782,24.2785,-5.86062,-3.09807,23.6281,-6.5541,-1.79359,24.6773,-6.12777,-3.17865,25.2739,-6.2521
0.185957,0.106999,2.05995,0.119955,-0.395158,1.92784,0.157372,-0.228076,2.03388,0.162465,-0.214383,1.98734,0.182156,-0.200562
13.7705,0.0562692,7.45891,23.6823,6.63292,5.86218,23.9608,6.87498,7.43733,25.7333,6.4363,7.86194,25.6543,6.38777
0.0706836,0.0355749,-8.40205,25.8625,6.17217,-8.25513,25.8194,6.20677,-8.40525,25.9562,6.17174,-8.26654,25.8715,6.18632
14.9859,1.31579,12.6947,7.17435,3.80683,9.66037,6.58005,4.99377,9.27487,5.94273,5.22643,9.77693,7.05333,5.01023
5.03743,0.0613275,-14.569,20.8277,0.224919,-14.7956,21.6791,1.20977,-14.7431,20.8239,1.24632,-14.6855,20.5353,1.08754
7.06292,0.258861,4.35975,31.4567,5.49186,3.94395,31.9511,5.14952,3.43215,32.209,5.15888,4.79389,32.7376,4.79971
4.53924,0.196164,9.44777,17.3027,5.72167,11.152,16.7909,5.47406,9.14245,17.2285,6.02382,11.3758,16.5643,5.42967
3.53477,0.202758,-10.9184,27.6785,-4.6095,-11.2286,27.1482,-5.00303,-9.70332,27.9731,-4.87739,-11.193,28.0074,-4.65872
7.40699,0.214609,6.5442,5.90331,-5.54274,6.40147,4.46965,-5.71012,6.24903,6.30226,-5.85371,8.09288,6.03669,-5.4205
1.23351,0.0870875,-3.02376,25.6951,6.80503,-2.64923,25.1629,6.84516,-2.67154,25.8075,6.84745,-2.86744,25.2854,6.76437
1.7614,0.078012,-9.24434,32.2766,3.79135,-8.35681,32.9056,3.64001,-8.91561,32.6033,3.63662,-9.22782,32.6725,3.5251
1.49117,0.0132361,1.84275,1.15301,-3.62296,2.12095,0.818894,-3.04586,2.15433,0.893998,-3.18599,1.39866,0.836457,-3.04695
16.961,0.331346,-3.40208,18.2292,-6.76478,-4.99411,18.4398,-6.59778,-6.57669,18.0925,-6.55645,-3.78466,19.9588,-7.15422
1.41403,0.136873,-1.93425,16.3791,-7.25865,-1.86039,16.1838,-7.3824,-2.33465,16.4812,-7.37691,-1.60767,16.7191,-7.4555
1.54629,0.200425,-12.3072,26.7009,4.6767,-11.8234,27.2555,4.82814,-11.9384,27.1072,4.73312,-12.1886,27.25,4.61041
40.2371,1.30678,-8.08001,12.1175,-6.50285,-12.9887,11.8592,-4.11024,-11.8679,10.9362,-5.15954,-12.7817,12.0273,-4.26569
0.423386,0.00985233,-13.0949,1.92294,4.0559,-12.5446,1.94562,4.29078,-12.51,1.90363,4.2735,-12.6124,2.01053,4.31219
0.0696918,0.0378596,-3.45219,0.21431,0.732995,-3.48587,0.203101,0.530118,-3.43931,0.202966,0.514219,-3.40239,0.225434,0.597821
0.0123669,0.00599115,-2.75397,0.466662,-0.29408,-2.75888,0.475984,-0.314632,-2.80045,0.41721,-0.268763,-2.81086,0.451433,-0.308465
17.9008,0.560985,3.60365,16.6882,6.2682,3.17408,13.8207,7.17009,4.57536,16.8166,6.57581,2.40877,17.2952,7.13624
0.489093,0.183713,7.26575,26.726,-5.56328,7.04041,26.1869,-5.941,7.23201,26.3291,-5.81016,7.09889,26.2432,-5.88137
0.06663,0.000767985,-2.35685,19.3575,7.21667,-2.21207,19.3157,7.22155,-2.13549,19.3697,7.23049,-2.13962,19.4159,7.23438
7.60832,0.278241,-12.097,20.0555,4.80965,-12.8804,19.7866,4.76368,-12.0735,19.0799,5.17623,-11.5373,20.6058,5.35204
0.904092,0.133054,6.9326,20.5681,-6.65302,6.76812,20.7772,-6.77743,6.83314,20.2666,-6.84358,7.32408,20.6726,-6.72735
44.0347,1.2091,-8.41434,31.0091,-4.54321,-8.93712,29.5364,-4.67826,-11.6305,29.2335,-4.16437,-12.8197,29.2514,-3.55564
0.397592,0.0023445,-13.7592,25.5163,4.18872,-13.4029,25.5728,4.43713,-13.432,25.6665,4.37121,-13.4367,25.5123,4.43881
18.2068,0.0654148,-0.337334,28.6784,6.43855,-1.56988,29.3487,6.30611,-2.96133,28.6969,6.36317,-1.16994,27.2443,6.74853
3.56021,0.334809,-4.28268,22.8182,-6.38067,-2.10996,22.7548,-6.6013,-1.95543,22.8382,-6.63347,-2.04283,22.6107,-6.63213
2.16843,0.185623,-0.935499,24.4528,-6.14399,-1.5977,24.4066,-6.03354,-1.65908,24.6301,-6.11963,-2.25349,24.2395,-6.07908
0.206106,0.211491,0.717708,0.504259,1.41622,0.754191,0.572154,1.75469,0.883582,0.629675,1.85004,0.843827,0.581297,1.7988
20.0203,0.218909,1.48774,22.4366,-6.49909,0.227619,23.2733,-6.47555,-1.97483,22.5594,-6.65904,0.0378984,23.8747,-6.54047
1.9578,0.305561,13.0979,26.2638,-1.91009,13.8477,26.3567,-0.948621,13.6904,26.2087,-1.11947,13.9002,25.9595,-1.07156
2.14656,0.0791022,12.9205,28.823,3.7681,13.3374,28.7698,3.5556,12.3222,29.0889,4.35456,12.0702,28.9999,4.51677
4.08654,0.0368937,3.19505,9.14559,6.71133,1.72383,8.08743,6.5473,1.64288,8.31255,6.5736,3.04637,9.36833,6.70008
4.34236,1.00093,6.92458,6.89432,-5.59632,8.23166,6.63695,-5.32138,8.55406,7.36573,-5.86084,8.2605,6.81599,-5.40707
2.61628,0.761577,-0.513989,5.82633,6.6407,-0.843115,6.9038,6.15579,-0.684876,6.99414,6.05165,-0.609572,6.99934,6.07134
15.0566,1.46633,-8.35651,17.833,-6.62256,-6.64266,18.1434,-6.52925,-7.41548,19.2396,-6.46583,-7.25008,18.7477,-6.19706
0.0776419,0.015003,-14.4414,6.99668,3.78457,-14.4405,6.74182,3.78334,-14.4321,6.8878,3.82511,-14.4364,6.82509,3.71545
6.03537,0.407758,2.0162,25.7128,-5.79251,3.30997,26.3611,-6.17613,2.32113,24.8059,-6.45621,3.03405,26.5625,-6.10336
11.109,0.245484,2.56439,30.9458,-4.43351,1.9513,29.4487,-4.86924,1.71659,30.4596,-4.57342,2.18091,30.2709,-4.51173
6.1714,0.335541,-10.5608,10.0354,6.08961,-9.77092,10.6187,6.42158,-10.1618,11.4315,6.01541,-10.3481,11.4676,5.95712
10.2171,1.87923,14.4084,22.642,-1.50618,13.8569,20.1626,-2.19102,13.8881,20.3031,-1.78527,14.1005,20.1982,-1.54972
3.81077,0.0256946,1.53681,26.7717,6.8627,1.16875,25.7121,7.01652,1.4359,25.9965,6.98166,0.636337,26.4639,6.92818
2.34625,0.0569392,3.88445,22.386,7.15476,3.70465,21.6939,7.21833,3.78658,21.651,7.21459,4.17261,22.4965,7.19915
22.7464,0.367884,12.0167,14.3761,4.26085,12.3034,15.3678,4.71875,8.71895,14.0304,6.43087,13.2011,13.645,3.89624
11.5681,0.982304,-3.95149,20.7548,6.69989,0.236163,20.8756,7.01953,0.633275,20.6202,7.01304,0.54725,20.7467,6.9985
0.00968522,0.00193476,-10.913,0.51899,0.546241,-10.8549,0.54306,0.658009,-10.8955,0.470417,0.65525,-10.9268,0.500737,0.542656
11.2426,0.147893,14.4072,23.5678,-1.41351,12.2284,23.0015,-3.62838,11.9039,23.652,-3.87838,12.2008,21.9946,-3.72197
13.2502,0.399094,2.29302,22.5169,-6.20348,3.96449,22.9192,-6.7439,1.6437,22.3787,-6.55071,2.83817,24.6427,-6.49883
5.27011,0.180615,-8.94721,28.0294,-4.44028,-9.06381,27.7343,-4.64778,-6.85795,28.2915,-5.19711,-7.08148,27.9768,-5.18595
2.11846,0.201716,-10.8166,13.2012,-5.79726,-10.4268,14.0642,-6.28048,-10.3945,14.2827,-6.43305,-10.0197,14.1236,-6.5364
1.01572,0.224132,-10.5442,0.704777,1.74934,-10.857,0.488183,1.18076,-10.7172,0.559557,1.19641,-10.811,0.43844,1.07111
0.298509,0.039876,-5.78401,14.0999,7.38961,-5.57533,13.9214,7.35675,-5.57594,13.9696,7.35816,-5.781,13.7745,7.34006
4.09966,0.157237,12.9559,28.3391,3.96223,10.9489,28.5482,5.04865,10.7976,28.7758,5.07487,11.0882,28.4579,5.00068
2.99119,0.0329152,-13.2984,19.8106,4.71971,-12.6246,19.0086,5.13114,-12.6986,19.3866,4.85705,-13.6918,19.8562,4.8907
1.68997,0.0181941,-2.74298,4.12224,-5.53472,-2.77963,4.60711,-5.75022,-2.64532,5.01193,-5.93878,-2.58479,4.87707,-5.89209
5.6254,0.820874,14.0859,23.1134,2.67548,14.8301,23.4058,0.539305,14.7914,23.6275,0.949612,14.6782,23.9375,1.58716
30.3052,0.0539099,-6.84921,3.60239,-4.05856,-8.05279,3.72526,-4.19493,-7.93234,1.10066,-2.67926,-8.87253,1.57242,-3.04969
4.02631,0.367926,9.55071,3.15297,-3.91267,8.7465,3.46959,-4.46599,8.09469,3.28697,-4.09334,8.06474,3.15921,-3.96618
5.98829,0.917316,-5.45046,7.65784,-5.8099,-4.16349,7.32295,-5.88769,-3.73379,6.65121,-6.08394,-4.48651,7.92179,-6.02225
27.359,0.0221235,-12.9971,13.0065,5.48257,-10.9239,10.0187,6.09801,-11.6337,12.7035,5.951,-11.8807,10.7281,5.80229
10.8562,0.469327,-9.64106,11.2349,6.47992,-7.05746,11.4706,6.73336,-8.16016,11.627,6.47012,-8.15518,12.2409,6.60797
0.649522,0.0568743,13.8562,5.39421,-0.486385,13.8427,5.60823,-0.874856,13.8273,5.49037,-0.833013,13.8216,5.31852,-1.10038
14.8944,0.239806,-11.3748,16.4485,5.78569,-13.412,16.6401,5.39836,-10.2634,15.3542,6.31691,-13.1059,16.7155,5.50188
2.85639,0.0858228,-9.86511,5.85919,-4.8656,-9.04719,5.51396,-4.76132,-10.2354,6.26941,-5.16531,-10.4679,5.51735,-4.83538
2.46451,0.133127,9.34219,5.65825,5.10162,9.25929,5.85445,5.20644,9.06385,5.04406,5.50858,10.1602,5.05793,5.2156
4.27262,0.0875742,4.94958,20.9623,6.7629,2.55229,20.9682,6.907,3.82849,21.0241,6.88459,2.57621,20.8672,6.89395
7.5066,0.227516,14.3143,13.282,-1.60526,14.3174,14.9909,-1.42999,14.432,14.3576,-0.873964,14.3594,14.8307,-1.025
3.6827,0.00679324,6.14896,12.7355,6.2548,7.55092,14.1395,6.67952,6.74961,13.4777,6.43361,6.59543,12.3151,6.43982
38.0085,0.320941,-5.99157,30.0295,-5.03249,-4.4811,27.9476,-5.34765,-5.13251,27.7967,-5.31191,-4.50639,28.6617,-5.1794
31.0195,1.24463,12.4267,25.5477,-3.69353,12.2183,27.5981,-2.59392,11.5998,28.3566,-3.06137,12.9334,26.341,-2.00906
38.257,0.348493,9.90952,21.4377,5.79818,6.61015,21.0125,6.55697,11.6783,21.3487,4.71681,8.16813,23.2428,6.55728
0.782247,0.113106,-10.2882,3.07623,5.63089,-10.739,2.5992,5.32941,-10.5865,2.84767,5.41828,-10.5148,2.66251,5.36627
5.44511,0.447322,0.0894493,26.2098,6.92519,-0.755337,27.4008,6.74348,0.2536,27.0341,6.79497,0.0339323,27.0661,6.76478
3.43143,0.574483,4.15007,19.6154,-7.02437,6.68334,20.0884,-6.83291,6.38572,19.8194,-6.90392,6.3863,19.8708,-6.87268
4.94325,0.476821,14.5774,14.5195,-0.268691,14.6024,15.0426,1.18089,14.9021,15.5385,0.857852,14.5368,14.692,1.09596
5.64608,0.347897,9.96658,5.83072,-4.81332,10.5226,4.16418,-4.03822,9.93252,4.48499,-4.36683,9.99983,4.53172,-4.33372
0.694693,0.246245,-11.0849,18.1226,-6.08139,-10.4398,17.9505,-6.19719,-10.7274,17.8766,-6.09864,-10.2764,17.9343,-6.28939
5.47138,0.178656,-11.5192,11.3394,6.11863,-11.2844,12.2863,5.94491,-10.7486,11.4611,6.06853,-10.7066,12.062,6.05462
5.63035,0.223182,-2.05771,12.2942,6.73396,-1.11092,12.1152,6.82614,-0.210571,12.2511,6.87108,-2.33928,11.6345,7.14175
11.5543,0.0802047,4.6317,29.4913,-4.73139,3.98345,31.6832,-3.85542,3.67238,29.3726,-4.93523,5.36233,29.5073,-4.76601
2.15562,0.475355,12.5333,6.39499,-3.21933,13.6125,6.63465,-1.96554,13.7077,6.4212,-1.66315,13.593,7.1544,-2.19429
5.8561,0.0400853,-1.38082,17.7612,-7.02203,0.34001,17.5954,-7.10745,1.1216,17.8017,-7.02437,0.727637,17.006,-7.4157
0.0952547,0.00275073,-11.5448,15.9168,-6.17353,-11.6996,15.9864,-6.09196,-11.7004,16.0601,-6.09697,-11.5351,16.0077,-6.18913
55.6706,0.220895,1.00566,12.2301,7.06197,4.12617,11.42,6.82763,2.57649,12.1131,7.02245,3.21402,13.1838,6.78524
0.167827,0.00300524,-14.8143,4.73732,1.1942,-14.7989,4.74977,1.34078,-14.7973,4.9124,1.46742,-14.808,4.93197,1.40125
3.13333,0.167087,-14.4435,21.2183,3.56116,-14.7139,19.108,2.85865,-14.7402,18.8359,2.70213,-14.7454,18.9087,2.6843
68.6861,1.35423,-14.7329,16.658,-2.79237,-14.6242,16.8314,0.813504,-14.5516,15.0989,0.942436,-14.6992,14.2449,0.590065
10.6308,0.338147,5.35922,22.5113,-6.10393,6.73437,22.3855,-6.35827,4.9675,22.8178,-6.39045,5.16435,21.6166,-6.89117
24.1988,0.282335,-14.3341,16.2398,2.19166,-14.379,14.4911,2.03547,-14.4989,13.5134,1.77751,-14.7555,13.0828,2.0638
11.4937,0.0188342,-14.8234,4.4949,-1.31353,-14.7928,3.43225,-1.04792,-14.7602,2.16746,-0.275679,-14.8044,2.6177,0.0106123
5.02013,0.100434,-5.94788,16.7452,6.729,-8.14789,16.7259,6.60343,-8.38006,16.9049,6.59379,-8.43011,16.6664,6.60242
0.598536,0.0674369,-1.79517,4.83984,-5.93604,-1.5963,5.91446,-6.14699,-1.90263,5.34403,-6.06017,-2.05364,5.30346,-6.04694
7.92648,0.114292,9.44148,20.5465,5.8642,7.18616,20.4587,6.35449,10.3247,20.3654,5.54827,7.23773,20.6852,6.29504
9.59056,0.129446,-9.12158,28.4449,-4.55895,-8.40672,29.6446,-4.75103,-10.2237,29.3547,-4.67962,-8.65503,29.1142,-4.60645
2.29698,0.127689,-1.80341,22.8048,6.8832,-1.68818,22.271,7.02377,-1.51817,23.2438,6.99048,-2.67831,22.278,7.04961
2.84828,0.0848906,-15.1601,9.31352,-0.784488,-14.9112,9.17884,-2.13028,-15.0912,9.68328,-1.4642,-14.7893,9.3746,-2.64875
9.20436,0.03488,-14.8484,8.52451,-2.39871,-14.9953,6.81629,-1.18284,-15.131,7.81493,-0.800869,-15.054,6.97249,-0.918667
12.6176,0.468463,0.223276,13.1101,6.53289,-0.151778,10.2685,6.88994,1.67427,13.0785,6.94047,-0.425126,13.2717,7.03648
0,0.00172888,12.8326,5.96441,3.35693,12.8901,5.95145,3.24233,12.8881,6.0023,3.27335,12.8307,5.91535,3.33837
1.98674,0.618519,-11.2912,31.0954,4.20206,-11.1887,31.9916,3.50185,-10.9737,31.9685,3.62096,-11.3402,32.1512,3.40988
0.950818,0.0441958,-5.91026,34.0912,-0.52566,-5.49505,34.1499,-0.199611,-5.71539,34.1543,0.0496955,-5.73834,34.1165,-0.196017
36.131,0.46335,-9.58657,15.2196,6.10371,-8.02592,14.9416,7.10771,-10.3605,13.5433,6.32259,-10.5051,16.1269,6.29389
1.94159,0.284105,1.31093,19.0685,6.93554,1.0859,19.775,6.70493,2.12869,18.9652,7.33757,1.31546,19.7793,6.68056
7.48755,0.236123,-8.21814,12.9586,6.44976,-8.45698,13.6456,6.90613,-7.17912,12.8408,6.62141,-8.60371,12.2543,6.50479
2.74086,0.0738383,9.55574,28.8517,5.41224,11.5968,29.0583,4.80218,10.5868,28.8637,5.12005,11.05,29.1034,5.01343
7.06575,0.144602,6.15564,31.554,5.31271,4.16584,30.2508,5.99487,4.85217,30.591,5.75471,3.85699,30.5075,5.91395
3.09437,0.0434473,-8.25704,12.7624,-6.58692,-7.44947,12.3914,-6.81217,-7.72563,12.9538,-6.81796,-7.66303,12.7688,-6.80351
36.5953,0.17616,-11.2642,21.3802,-5.87207,-10.0256,20.8512,-6.08064,-9.68029,17.8087,-6.41654,-9.01926,17.954,-6.59239
6.72703,0.536887,-14.0109,11.6019,1.14022,-14.4173,12.0765,1.41813,-14.6259,11.9753,-0.429611,-14.8405,10.4853,1.32584
26.5383,0.354919,-4.15134,28.2334,-5.17257,-2.48793,28.8538,-5.22409,-0.949123,28.3025,-5.50212,-2.02472,27.2209,-6.09365
51.7455,2.36301,4.96609,10.5843,6.48693,6.21284,13.3737,6.52078,5.78448,13.4001,6.60909,4.254,13.4031,6.75939
40.3222,0.0892891,13.7458,25.9289,3.10733,14.6068,24.8532,1.46951,13.777,24.4333,3.44229,14.6019,24.2157,1.74379
23.2616,0.307939,-10.2122,17.6561,-6.29428,-11.5355,16.6551,-6.16643,-12.9157,18.2466,-5.46055,-12.2031,18.379,-5.74393
15.8362,0.321489,7.77134,16.9203,6.27806,9.12903,17.4209,6.0879,7.32388,15.6775,6.86985,8.67723,15.4055,6.39017
2.55132,0.149957,-10.2838,24.7152,-5.33044,-9.51686,24.6622,-5.61968,-11.0337,24.5635,-4.79394,-8.82579,24.7904,-5.902
7.34305,0.148398,10.6317,27.1563,-3.89594,10.5327,28.1216,-3.55524,11.5373,28.2026,-3.17944,11.5189,26.4552,-4.1826
0.885346,0.00177392,-12.4103,20.6693,-5.52084,-12.0409,20.2701,-5.70995,-12.2605,20.2864,-5.61872,-12.0289,20.5946,-5.68207
6.05516,0.00952997,10.6792,23.8126,-4.64358,11.9816,23.7423,-3.84702,10.9828,22.1558,-4.50671,11.6458,23.6456,-4.05812
0.283616,0.16675,-9.21482,33.8643,1.44932,-9.51452,33.8168,1.17993,-9.48538,33.7918,1.2609,-9.56517,33.7935,1.32888
0.909322,0.0333333,-12.7296,0.758545,-1.61503,-13.0353,1.13783,-2.08691,-13.2285,1.08699,-1.88115,-13.0776,1.14583,-2.07233
10.3362,0.0920228,9.25696,16.319,6.0962,11.5228,16.1498,5.37909,8.88996,16.0628,6.41188,9.2248,17.0906,5.99003
7.3913,0.334094,-12.515,15.4756,5.41329,-12.1245,16.2307,5.76997,-11.3469,14.0281,6.46808,-13.1386,15.5087,5.54404
5.41478,0.084306,-14.5538,2.03058,2.87481,-14.6998,2.34269,2.14483,-14.6973,2.80873,2.07313,-14.7294,2.15966,1.86249
2.57488,0.0745083,13.1729,10.7219,3.46273,12.6767,10.9167,4.12179,12.6965,10.4039,4.07777,13.6445,10.9605,3.06979
1.28934,0.268874,-5.75391,0.597168,1.91994,-6.72575,0.48135,1.27001,-6.49061,0.546033,1.54049,-6.32694,0.409396,1.65116
7.90695,1.06702,7.51337,28.7291,5.97299,8.32916,27.6637,6.02769,9.50117,28.7574,5.44742,8.98287,28.3568,5.76838
12.3192,0.0310109,14.2959,11.1307,-1.07078,14.0814,9.47089,-1.64168,14.091,8.81378,-1.28699,14.4227,10.4423,0.348388
1.42843,0.00478318,-10.6122,22.8749,5.90265,-11.0298,22.3889,5.83115,-10.6585,22.2811,5.97959,-10.9994,23.0709,5.72887
3.97318,0.153757,9.78718,15.288,6.17818,10.7098,15.8777,5.74412,8.62055,15.3588,6.3976,8.75708,15.1695,6.3448
37.9966,0.992528,-10.3547,26.7215,-4.71936,-8.94657,26.1331,-5.53006,-9.85604,25.0899,-5.59151,-7.56775,27.1875,-5.41434
1.0507,0.00738896,-7.04211,5.01173,-4.82409,-6.43974,4.93649,-5.09061,-6.83724,4.82698,-4.91736,-6.84445,4.45684,-4.90803
14.7726,0.0130722,12.4133,13.4005,4.47111,12.4595,12.3883,4.50292,11.6041,12.2282,5.02672,10.3318,12.7237,5.77348
0.356882,0.031574,-11.7808,29.9461,4.61587,-12.146,30.1472,4.44268,-12.2135,30.0999,4.44328,-12.0618,29.9732,4.51463
6.73274,1.04103,13.7213,26.4353,3.2293,13.7567,28.8102,2.71045,13.4685,28.7107,3.23787,13.4672,28.5915,3.1299
1.1285,0.184284,-14.0898,29.9491,3.03318,-13.7615,29.761,3.67029,-13.8213,29.7161,3.48057,-13.7445,29.8348,3.67958
18.9057,0.344371,-6.83812,26.0377,-6.0685,-6.39787,24.3321,-6.30136,-7.7958,23.9495,-6.07441,-6.83258,23.7005,-6.37944
2.4129,0.00082019,10.0689,13.4383,5.66278,11.614,13.5985,4.8773,11.3517,13.6566,5.05056,10.9903,13.6656,5.25616
4.70625,1.28434,-2.94549,9.68359,6.50669,-0.442791,9.95993,6.69642,-0.342049,9.7315,6.69019,-0.437128,9.85585,6.66607
2.17563,0.120168,-0.473065,16.7794,6.95193,-1.67873,16.5816,6.89819,-1.56038,16.8181,6.90138,-1.96633,16.7101,6.922
5.45631,0.176573,-14.7056,2.72615,1.68319,-14.5778,1.56307,1.32421,-14.554,1.53644,1.09297,-14.7239,2.23708,1.08677
14.7668,0.653445,-1.05988,10.3155,6.85965,-3.06775,10.694,6.89367,-2.84497,11.6526,7.09719,-3.26203,10.3555,6.85842
0.671599,0.026047,-11.2494,13.2405,6.0406,-11.9591,13.3471,6.01005,-11.6693,13.2153,5.96671,-11.8891,13.3001,5.98765
22.9426,0.145686,-11.1943,26.1631,5.33672,-12.0717,26.7152,4.77198,-13.5315,24.9273,4.44472,-13.4661,26.0097,4.32947
7.20437,0.287238,11.0069,31.083,-2.86564,8.98387,30.7144,-3.61246,11.1071,32.2273,-2.48062,9.8731,30.8847,-3.42835
23.6672,0.403808,-1.57189,7.70303,6.12095,-2.80031,8.76208,6.86967,0.156662,7.50366,6.20744,-2.19068,6.56336,6.51233
4.5894,0.156907,13.9957,19.4543,-1.35741,14.0009,19.4922,-1.65012,14.275,18.6715,-1.31466,15.0048,20.5534,0.193221
0.944325,0.567182,-9.27804,13.9894,-6.70509,-8.89637,14.6073,-6.78628,-8.9575,14.705,-6.83457,-8.8146,14.5616,-6.8243
5.63412,0.608384,3.95219,22.8988,7.17878,2.52705,24.984,7.00772,2.41096,24.3347,7.00102,2.53825,24.5225,6.98033
12.7584,0.095784,9.82721,19.8669,5.83777,6.89654,18.9461,6.5768,10.7429,20.4534,5.36415,6.71226,18.6762,6.70595
30.562,0.197496,2.99621,32.5052,5.05215,-2.48011,31.0975,5.52343,-1.23539,31.3198,5.42296,-2.50153,31.9021,5.0357
0.00540768,0.00748767,3.499,8.92511,6.78121,3.49465,8.85737,6.79781,3.55853,8.8973,6.78624,3.55943,8.93473,6.78141
1.24177,0.0097467,-4.98058,30.3673,-5.13601,-5.62257,30.6149,-5.02337,-5.56164,30.8553,-4.94273,-5.77288,30.815,-4.95076
2.48845,0.121581,9.24654,13.147,5.84128,10.0756,13.3907,5.65214,8.93432,13.3473,6.0954,9.28747,12.5114,5.94861
6.02073,0.0197161,-10.9992,20.2677,-5.82104,-12.0343,18.9641,-5.84613,-12.1791,19.0638,-5.82621,-11.8753,20.6292,-5.73806
0.0641825,0.200877,14.2777,27.2563,1.78393,14.2864,27.4115,1.60883,14.2927,27.3212,1.58492,14.287,27.3636,1.59505
2.58412,0.558697,4.85632,21.0534,6.78183,6.61022,21.0577,6.56829,6.40484,21.1361,6.65152,6.42695,20.9669,6.67405
7.98366,0.0135438,-12.1525,2.52382,4.85216,-12.8197,4.60455,4.99157,-13.049,4.05459,4.76906,-13.1247,3.66398,4.65001
10.6169,0.238266,13.8749,28.7091,2.32083,14.2502,27.2513,1.93302,14.3119,28.0694,1.12671,14.2019,29.2308,1.45657
99.9886,0.612614,-14.0262,16.9782,-4.52307,-14.4976,14.3286,-3.26236,-13.6411,10.7942,-3.71774,-14.4869,11.05,-3.09668
1.61713,0.39425,0.998289,7.79503,6.30621,-0.372746,7.48125,6.15453,-0.23768,7.5831,6.17781,-0.141343,7.68698,6.22281
25.6874,0.0500269,-4.94451,0.237864,-0.692245,-6.0272,0.202803,-0.39435,-6.39894,0.266037,1.17236,-6.97804,0.203242,1.06106
6.6777,0.342157,-2.18558,19.0293,-7.07257,-2.5059,20.4231,-7.08053,-2.08282,20.779,-7.06259,-1.78369,20.5716,-7.14894
2.44097,0.0582235,-13.7943,28.1211,3.92197,-12.812,28.7346,4.49359,-13.0652,28.7095,4.35754,-13.2846,27.9923,4.27007
0.761796,0.117329,8.26921,17.987,-6.05853,8.5021,18.246,-6.06421,8.09329,17.9235,-6.25414,8.42618,17.8252,-6.15452
2.46629,0.406168,9.04499,19.0963,6.25909,7.90713,17.9804,6.63357,8.04492,17.8412,6.53279,8.25849,17.9849,6.52175
20.4791,0.133108,-8.93984,26.282,5.99282,-7.51496,28.0012,5.96084,-7.03974,27.4483,6.20541,-6.92804,27.769,6.14204
1.59703,0.630438,13.6336,10.741,3.08908,14.205,11.0263,2.14439,14.2997,11.3323,1.9144,14.2424,11.175,2.03109
1.88495,0.279146,13.7516,7.75079,-1.83615,14.0838,8.12759,-0.73663,14.0888,8.10977,-0.680961,14.1084,8.0103,-0.487853
13.2302,0.13871,2.84061,19.779,-6.8077,4.00236,19.6242,-7.00772,3.9687,18.2471,-6.98273,3.00584,18.3099,-6.69627
0.935606,0.00384028,2.85522,16.6935,-7.37928,3.29257,16.3902,-7.48423,3.22173,16.6278,-7.42522,3.15087,16.3517,-7.48245
1.1672,0.0162328,-1.75879,19.5709,-7.03359,-0.665674,19.9289,-7.18125,-0.732283,19.9313,-7.16949,-0.863871,20.0322,-7.13925
6.82185,0.1312,-5.44402,26.8933,6.44904,-3.75081,26.2549,6.71776,-7.01284,26.9492,6.28681,-6.72273,26.7276,6.26967
53.0085,0.0232228,-10.3819,6.13329,5.58815,-13.3131,6.73763,4.80996,-7.25707,7.44589,6.48364,-7.35577,6.13535,6.37959
1.07803,0.0193207,-11.0872,21.4152,5.81668,-11.4848,20.8945,5.46549,-11.3916,20.7589,5.47203,-11.5531,20.698,5.36755
1.03498,0.0109067,7.93649,0.302661,-0.00466215,8.5702,0.449348,0.750154,8.58654,0.433356,0.525548,7.87585,0.283924,-0.286922
9.37619,0.287014,-13.6776,8.08006,-4.20121,-11.1693,7.99611,-5.22251,-11.1154,8.02297,-5.25308,-11.2207,7.54702,-5.16953
0.804295,0.00366186,-10.6394,8.27964,-5.52753,-11.0723,8.30595,-5.40802,-10.7769,7.66624,-5.25867,-10.6925,7.70202,-5.29618
3.33242,0.044555,-9.18262,2.88688,-3.55107,-8.28151,2.92893,-3.81748,-9.04648,2.55758,-3.56086,-7.96211,3.23119,-3.95537
9.95654,0.0606391,4.9209,24.519,6.85656,5.4505,25.1794,6.78527,4.39692,25.5092,6.85922,4.37568,22.8245,7.17184
1.87211,0.199592,-14.5652,22.0881,3.09899,-14.7599,21.4382,2.11928,-14.7575,21.6004,2.07725,-14.7769,22.104,1.86911
27.9257,1.16898,13.2285,12.7657,3.89837,11.4964,10.2432,4.73834,11.351,11.3898,5.06096,12.6917,9.65465,4.39402
32.2009,0.401809,1.84217,17.8062,-6.67578,1.42347,21.5623,-7.04593,1.3298,17.4162,-7.12695,3.99786,17.6107,-6.90953
1.62123,0.0116569,-10.2127,20.625,5.86528,-11.16,20.6502,5.62676,-11.3125,20.5869,5.53549,-10.9342,20.7126,5.73624
4.15386,0.247589,7.19262,17.91,-6.39839,6.96516,17.7396,-6.72781,7.90105,17.8283,-6.36239,7.29584,18.9584,-6.85778
5.33808,0.182699,8.98619,30.6587,-3.6346,7.89165,30.4976,-3.99516,7.67384,29.6677,-4.4997,7.61165,30.7336,-4.00842
2.12079,0.0363006,0.900246,10.018,6.72982,1.24746,10.1198,6.70909,-0.371497,9.95288,6.68712,-0.297927,9.81749,6.66342
4.53133,0.487282,1.38971,20.623,6.36442,0.672231,21.1336,7.08193,2.49404,20.9153,6.87463,1.23785,19.8615,6.65986
9.46923,0.0212609,6.34407,0.693396,2.05357,5.26969,0.69921,2.20585,4.68251,0.442899,1.41184,5.3571,0.383384,1.18096
1.31861,0.101848,7.11425,10.2655,6.13306,7.06699,10.6659,6.41935,7.33791,9.93432,6.04742,7.79533,10.2322,6.02359
4.7523,0.0418922,10.9608,24.8572,5.45284,9.52285,24.8432,5.89744,10.698,24.4937,5.61125,10.878,25.2248,5.47738
17.0652,0.139894,-8.24055,0.384421,1.6243,-8.34631,0.161722,-0.134847,-8.15677,0.186706,-0.0334577,-9.14728,0.203182,0.148636
56.4927,0.0267042,-13.9588,11.2532,4.71055,-14.206,8.50182,4.26639,-14.8266,7.39645,2.25187,-14.538,6.9237,3.38449
2.61,0.0884196,-0.45384,24.6351,-6.04965,0.275697,25.1116,-6.06631,0.0369024,23.9675,-6.51477,-0.867738,24.5026,-6.13381
4.38453,0.100418,1.23599,18.9724,6.93763,1.44019,18.1978,7.33146,1.21639,18.3082,7.21767,0.955399,17.5729,7.31503
0.851781,0.0614985,-6.74616,29.9389,-5.11766,-7.04988,29.972,-5.14421,-7.00429,30.6279,-4.95829,-6.75851,30.2882,-5.07955
1.75274,0.0950337,-1.19374,29.0288,-5.28728,-2.41234,28.8475,-5.23679,-2.40941,28.7017,-5.27603,-2.12019,28.9726,-5.25105
7.45372,0.0831154,2.1068,19.7874,6.87389,5.57991,19.9209,7.13292,1.46959,19.7914,6.7224,5.44816,19.8238,7.13305
35.9795,0.141577,8.49119,17.2708,-6.19381,4.16032,17.6909,-6.93384,8.72643,14.6357,-6.7557,8.02072,16.4269,-6.55658
4.21945,0.167034,-4.27493,7.72737,6.53495,-3.27566,7.5848,6.49163,-2.37138,7.85531,6.49776,-5.83519,8.38399,6.03449
60.7229,0.454642,-12.1672,23.7773,5.01837,-10.2708,24.6386,5.82611,-8.2137,22.8029,6.41254,-11.2406,22.0546,5.81885
13.7946,1.04262,-14.7098,18.5078,1.56255,-14.1548,20.0687,0.39027,-14.3793,20.3694,0.303156,-14.5987,20.3901,0.813607
9.14738,0.196271,-5.66987,7.75619,-5.77234,-7.87748,7.72443,-5.507,-7.56576,6.91097,-5.72043,-7.80592,7.76446,-5.49928
2.06734,0.112524,-14.8929,21.7447,-1.44219,-14.8239,22.5246,-1.77379,-14.7562,21.898,-2.33536,-14.7308,22.5109,-2.13511
0.134368,0.0128106,12.0528,26.2976,-3.84929,12.1205,26.4024,-3.67886,12.1339,26.2928,-3.74345,12.0955,26.4173,-3.70934
0.774167,0.0981732,-7.59058,0.805655,-1.88807,-7.60729,0.7935,-2.03235,-7.70698,0.559326,-1.69478,-7.42937,0.524211,-1.7264
1.44656,0.0392856,-8.89726,20.9612,-6.38422,-9.03308,21.5545,-6.03829,-9.21081,21.1327,-6.1812,-9.183,21.5646,-5.95738
35.3202,0.946861,-9.33307,3.51692,-3.86555,-9.92809,4.70077,-4.30564,-9.11654,5.39197,-4.69156,-11.0431,4.26276,-4.58768
17.0891,0.0475849,11.586,0.611526,-0.642488,9.28072,0.81617,-2.6109,10.1763,0.942963,-2.53516,9.18635,0.630741,-1.98455
9.91163,0.0507683,-5.06034,24.9036,6.67327,-4.42325,22.9668,6.85818,-4.76128,22.7239,6.87102,-4.79859,25.4243,6.69224
0.00951296,0.0191078,-9.10918,13.6581,6.86156,-9.23259,13.6723,6.81381,-9.23557,13.7332,6.85471,-9.18212,13.6535,6.83512
3.97444,0.116127,10.5913,11.7251,5.46352,11.4026,11.66,4.98056,9.674,11.2798,5.92537,10.428,11.1384,5.63465
4.88702,0.352879,-14.452,20.8688,-0.144646,-14.329,20.3197,0.179098,-14.8543,20.9972,-1.44229,-14.2346,20.3802,-0.241452
6.28204,0.31029,-9.58956,20.6997,5.69137,-8.77117,20.5185,6.03248,-10.2762,21.1862,5.97568,-9.77484,19.6001,5.99672
1.54744,0.105072,9.22928,7.00361,5.1754,8.98783,6.97623,5.4176,9.58337,6.81605,5.04067,9.1734,7.50186,5.52707
9.07787,0.14406,8.22548,18.6575,-6.13357,7.85938,18.1875,-6.47721,7.89905,19.7466,-6.52343,9.25302,18.7976,-5.74299
5.94244,0.209957,-10.5063,9.26486,5.80893,-13.8657,9.13407,4.88265,-13.8425,9.23861,4.90025,-13.0893,9.29839,5.16066
2.29778,0.0268684,-8.74765,5.50154,-4.82568,-7.08821,5.11481,-4.91803,-7.16474,5.11457,-4.90535,-7.18816,5.02775,-4.86756
1.22576,0.00622816,12.8863,1.94626,-1.12347,12.4937,1.36435,-1.09516,12.2863,1.28181,-1.44207,12.6357,1.536,-1.04799
21.4836,0.021303,-13.5042,15.0709,-4.27887,-12.3325,15.1345,-5.2342,-11.6384,14.272,-5.51156,-12.2942,13.6314,-4.75557
1.47289,0.242888,-14.0637,14.9866,-0.519431,-14.3115,15.3232,-0.611575,-14.3968,14.5201,-0.390068,-14.1137,15.0279,-0.914377
1.82133,0.192133,-9.00287,29.6688,5.13589,-9.29071,29.8315,5.2018,-8.88428,29.9552,5.31837,-8.89099,29.1815,5.50496
4.39384,0.449281,-14.0577,13.2145,1.6356,-14.4525,12.0753,1.55497,-14.5805,13.5119,0.460007,-14.4997,13.2453,1.84224
17.7628,0.304907,-7.93059,7.94167,-5.48753,-10.1474,7.94701,-5.4495,-7.93354,6.69506,-5.67887,-10.1104,7.16633,-5.3813
3.16208,0.0210323,-12.1423,19.0284,5.1698,-11.9431,17.8834,5.98218,-12.1474,18.3327,5.57599,-11.8521,17.9342,6.02565
0.483534,0.128892,-13.1015,14.9259,5.69153,-13.0859,14.5661,5.66216,-12.8518,14.3961,5.8342,-13.1841,14.6838,5.62686
0.676463,0.418169,12.3941,20.3338,-3.93757,12.6927,20.4213,-3.59784,12.7207,20.5118,-3.59203,12.6893,20.3283,-3.62072
16.4275,0.11442,-5.21077,16.1486,6.89574,-2.1754,16.9453,7.04552,-2.01577,17.5305,7.24727,-3.94253,16.4318,6.87072
3.48536,0.137685,-8.57839,10.8184,-6.35233,-8.08981,11.4795,-6.44901,-8.56147,11.6908,-6.33489,-8.83517,11.0484,-6.4106
0.0810497,0.0471885,-8.76087,27.3674,5.82058,-8.76583,27.2993,5.84209,-8.69583,27.3024,5.84388,-8.62735,27.3903,5.88312
75.1407,0.0269606,0.544472,0.0764357,0.139395,2.40238,0.247217,-1.40793,1.75659,0.508663,-2.2775,1.49371,0.549131,-2.33313
0.045546,0.00254934,13.7194,32.3898,-0.0442618,13.6321,32.5204,-0.14308,13.6523,32.5276,-0.0862839,13.7006,32.4765,-0.0153064
136.007,4.12048,-14.9662,7.71288,1.52835,-14.6143,2.84879,2.76405,-14.7247,3.26952,1.47822,-14.3758,2.54986,3.56374
0.155622,0.00815402,11.1756,19.1782,5.75983,11.187,18.9968,5.77091,11.0403,19.1337,5.8222,11.115,18.9962,5.79861
3.29947,0.250645,4.42266,25.7714,-5.58811,4.18385,25.1894,-5.99618,4.60723,26.5799,-5.73595,4.13623,26.4417,-5.94477
6.09332,0.580764,9.92719,2.87463,-3.11406,10.0707,4.30675,-4.21702,11.23,2.62955,-3.34878,11.4291,2.3951,-3.28625
37.4461,0.0987677,10.7854,28.6611,-3.20068,11.9763,29.9895,-2.30634,9.06118,27.9342,-4.17472,11.007,30.8982,-2.87925
2.59494,0.0406207,-2.02784,21.2016,-6.95966,-1.04822,21.3722,-7.14357,-1.85944,22.0237,-6.94403,-0.901585,21.2738,-7.17764
12.2377,0.447393,14.5153,15.8236,-0.323129,14.4567,14.7824,-0.769372,14.2767,15.2944,-1.63772,14.3368,15.6797,-1.82968
0.169401,0.00535132,14.0899,15.5678,-2.72419,14.1059,15.6707,-2.69239,14.1829,15.6305,-2.49997,14.1733,15.5813,-2.51311
1.32071,0.0184589,14.2359,11.911,-1.65709,14.496,11.9342,-0.80513,14.4953,12.0425,-0.850087,14.2276,11.5219,-1.60215
4.76682,0.147353,13.0378,16.8568,-3.25372,14.0829,16.4542,-2.48701,12.3959,16.7414,-4.14805,13.7375,16.9225,-2.73755
7.59998,0.0530012,-5.0747,1.20195,-3.18971,-5.96842,0.850901,-2.57197,-6.89953,1.42875,-3.20596,-7.16483,1.03064,-2.67773
0.0197517,0.00145618,4.99731,15.2039,7.0722,4.95375,15.151,7.07244,4.95159,15.2121,7.07829,4.98916,15.1583,7.06782
12.3533,0.0565925,-3.95455,31.2085,5.43763,-2.96466,32.2449,4.73205,-5.12592,31.8318,5.00111,-3.12628,32.6525,4.41375
6.44191,0.0519018,4.39751,9.79449,6.29181,1.32343,10.1303,6.70732,2.93994,9.79593,6.44283,1.61692,9.89969,6.63964
0.856723,0.10183,-8.66497,7.24589,-5.4976,-8.82161,6.51199,-5.49098,-8.89851,6.46869,-5.46551,-8.67967,6.83415,-5.47773
9.99662,0.761966,-2.87347,30.7622,-4.80468,-3.57422,29.0436,-5.13832,-2.91978,29.0165,-5.13386,-1.74295,29.601,-5.29213
9.478,0.168089,14.3023,25.4647,0.296498,14.2097,26.012,-0.423796,14.6568,24.0434,0.0774249,14.1805,25.7417,-0.72145
6.1262,0.0437695,7.32153,4.69915,-5.21398,7.21606,4.3001,-5.11696,9.72775,4.83675,-4.70852,6.80626,4.97485,-5.51395
5.78113,0.0380794,14.3336,28.3189,0.177372,14.3097,28.3612,0.994083,14.3496,27.512,1.18982,14.4097,26.8575,0.937039
4.53376,0.397262,-2.52941,13.053,6.67434,-2.77417,11.7962,7.10152,-1.71696,13.0178,6.85759,-2.91367,13.4265,7.2115
2.67464,0.142186,-3.50077,17.546,-6.68342,-3.6896,17.5886,-6.79252,-3.93899,16.9141,-7.1953,-2.19271,18.0427,-6.77096
5.59472,0.0114747,-13.2838,33.0992,-0.936469,-14.0208,32.8728,-0.565535,-12.9715,33.5998,-0.179959,-13.8872,33.1126,-0.166917
1.51012,0.479458,0.736137,16.786,6.97988,-0.489264,16.8742,6.98041,-0.413692,16.8278,6.95371,-0.4014,16.7433,6.96055
7.25467,0.13748,12.3804,6.49445,-3.36997,10.8434,6.66141,-4.30974,10.0456,6.66807,-4.69204,10.0976,6.52962,-4.62622
11.9561,0.281439,12.6465,17.3182,-3.76886,11.1191,16.9188,-5.35762,11.3971,16.298,-5.46309,11.9807,16.7301,-4.48065
0.79889,0.0418007,12.8035,32.638,2.46263,13.1792,32.5234,2.23578,12.7354,32.6196,2.60891,12.924,32.8283,2.27544
0.831882,0.0981711,-14.1218,26.1454,3.07652,-14.2661,26.2073,2.94338,-14.1231,26.297,3.39122,-14.2013,25.9568,3.15838
4.32913,0.474067,0.0423024,28.4362,-4.67471,1.07122,28.3734,-4.85971,-0.360636,27.7217,-5.46783,-0.708691,27.5579,-5.90463
0.448625,0.00850346,-12.1762,2.16988,4.64535,-11.6335,2.32772,4.96347,-11.8515,2.40985,4.92066,-11.6306,2.4244,5.02398
1.29838,0.0926871,6.56371,22.0228,6.98248,5.7879,22.2252,7.06097,5.51693,22.1315,7.13694,5.85539,22.3625,7.0316
119.8,0.125701,-1.26778,0.292794,1.32641,-5.07363,0.508875,2.05601,-2.62989,0.183681,-0.49046,-5.11127,0.366315,0.950293
0,0.00826467,-4.23932,4.44138,6.52015,-4.18722,4.4794,6.5414,-4.23692,4.46562,6.51714,-4.18605,4.44119,6.53384
1.75257,0.11524,-8.35075,22.1314,6.24006,-8.10865,21.8908,6.38743,-7.25288,21.9886,6.617,-9.00508,22.5225,6.24961
11.8662,0.514257,13.1619,17.9314,3.76524,14.6243,18.3628,1.71589,14.5272,17.9257,2.03805,15.0738,18.4572,0.715629
0.5171,0.0440653,0.297063,20.0642,-7.30826,-0.788648,20.074,-7.15246,-0.721843,20.0228,-7.16059,-0.718139,20.1155,-7.16902
0.0525113,0.020904,-9.25926,16.6948,-6.85834,-9.50516,16.6919,-6.77735,-9.47717,16.6248,-6.80774,-9.40693,16.6061,-6.83127
12.3637,1.86015,-4.95434,3.95878,6.36031,-2.16037,3.26309,6.02657,-2.07686,3.56698,6.20575,-1.48462,4.69605,6.58564
2.57035,0.107913,9.98085,6.62208,-4.69631,8.28835,6.58653,-5.30204,8.30317,6.73407,-5.33113,8.50265,6.77321,-5.25395
6.05604,0.127989,14.9527,21.9998,-0.142462,14.741,23.5948,-0.495651,14.685,23.868,0.0255,14.6769,23.9593,0.0525315
4.6353,0.17616,13.4822,2.70609,-0.0546416,13.0529,2.60962,-1.40786,12.9608,2.86972,-1.99944,12.9407,2.78266,-1.91811
10.4276,0.160587,-2.01674,16.1747,6.74178,-2.00643,15.1674,7.17924,-2.10254,15.3339,7.08139,-4.2657,15.8197,6.91119
2.4022,0.0316075,10.7488,23.9544,-4.58528,10.1355,24.1131,-5.13255,10.1609,24.751,-5.1996,10.2123,24.6618,-5.14675
86.962,0.0911246,-1.45038,23.3851,6.99474,-3.41754,22.9276,6.94438,-2.0399,26.0673,6.87068,-5.33578,26.4031,6.56508
2.67475,0.0855525,-14.0918,19.6091,-0.0374392,-14.3491,20.2018,-0.863402,-14.6549,18.8139,0.4169,-14.414,20.1996,-0.934919
24.8409,0.70026,9.01935,16.5215,-6.09199,11.1116,16.8726,-5.38169,9.05595,18.1386,-6.00779,10.0892,17.8804,-5.85149
2.27766,0.0793423,-14.4589,19.917,-1.07735,-14.7227,19.4552,-1.74693,-14.8624,19.3651,-2.3164,-14.8233,19.5473,-2.19049
4.63747,0.208161,-6.49451,3.62345,-4.14453,-4.87826,3.51919,-4.79669,-5.43605,3.18691,-4.56849,-5.51582,3.87252,-4.69379
1.41568,0.0192005,-0.0765102,30.2596,6.01585,-0.494302,30.9853,5.6293,-0.571804,31.0264,5.60848,-0.178615,30.6461,5.80028
0,0.0106781,12.0501,19.2394,-4.48389,12.099,19.2141,-4.45754,11.9889,19.2176,-4.54574,11.9829,19.2524,-4.55177
27.685,0.44817,0.233873,28.6981,6.4308,-0.104707,27.151,6.75317,3.5736,28.1517,6.45539,0.598766,27.1847,6.78382
3.70992,0.025981,5.56106,0.294591,-0.994998,5.41503,0.392941,-2.03616,5.88998,0.379456,-1.69746,5.27944,0.334351,-1.64711
0.774707,0.00238451,-14.6483,25.8931,-0.705526,-14.6868,25.6407,-0.569196,-14.7087,25.21,-0.705197,-14.6956,25.2787,-0.757554
0.189724,0.0317506,15.063,20.9569,1.2308,15.0593,21.3383,1.13556,15.0463,21.3137,1.20067,15.0442,21.2559,1.24476
7.32366,0.137024,-1.70976,7.63688,-6.03434,-2.81279,7.50695,-5.87792,-4.2351,7.46684,-5.87652,-4.21068,7.73848,-5.92157
0.543042,0.0264912,3.7257,0.565947,-2.3283,4.13307,0.510714,-2.26911,4.16481,0.530367,-2.34922,4.0121,0.482404,-2.14465
0.220495,0.0520221,13.4261,33.0733,1.33341,13.2037,33.1729,1.6047,13.2154,33.1061,1.65933,13.3455,33.2189,1.19707
2.74925,0.071933,-9.92946,0.92911,-2.34894,-9.48559,0.609299,-1.84755,-9.64732,0.431438,-1.50112,-8.8321,0.372143,-1.33934
12.7889,0.198958,8.41348,32.8522,4.42558,8.37186,30.2173,5.77533,8.99567,31.5385,5.13415,7.87609,30.2092,5.83927
37.8223,0.064802,6.06133,27.7908,-4.98861,8.99583,27.9333,-4.19664,6.05554,30.9871,-4.05044,5.15824,26.6061,-5.68482
2.16103,0.032324,-3.94499,32.4881,4.44146,-3.38363,32.2952,4.6534,-4.29108,33.1553,3.98546,-4.2654,33.0233,4.08089
5.23988,0.179075,7.12846,8.84627,5.87551,7.64629,8.87771,5.93085,7.34516,9.28882,6.00584,7.2591,7.99323,6.02778
2.19103,0.150339,-12.5927,23.1912,4.89687,-12.9116,23.7792,4.91486,-12.9642,23.2697,4.91319,-12.1896,22.9224,5.2215
13.0595,0.626982,8.98316,21.9983,-5.05832,8.17951,21.5571,-6.23615,10.064,21.4762,-5.25187,9.25539,24.3993,-5.38995
9.14075,0.194433,-14.4288,21.2886,3.61933,-14.1364,21.9538,4.49658,-13.8801,24.2664,4.16669,-14.3108,23.8985,3.34665
5.38841,0.00166538,3.83254,27.0735,6.61645,5.45718,26.4907,6.56713,5.61911,26.2751,6.61206,3.5648,26.889,6.71099
4.25472,0.895186,10.3849,28.8338,-3.40266,8.60699,29.4312,-4.18732,8.66527,28.8721,-4.19013,8.72203,29.1606,-4.07311
14.5669,0.631163,-8.9121,23.2526,-5.60218,-8.91139,25.972,-5.63913,-9.64128,25.6852,-5.58429,-8.44638,24.7205,-6.00038
22.9034,0.324071,-9.81048,7.87107,5.55891,-8.08329,7.97315,6.37521,-9.61904,8.87131,6.05931,-8.69175,6.63878,6.06256
11.9885,0.0673847,-7.85923,20.442,-6.62399,-7.32189,19.3661,-6.54685,-7.61493,19.5154,-6.57814,-8.52227,18.7965,-6.74624
4.56116,0.0249414,-6.84261,12.8432,6.47606,-5.1685,12.8731,6.96064,-6.58754,12.043,6.71131,-6.4421,12.3711,6.69484
5.03789,0.170103,-2.81472,30.469,5.57466,-2.92617,30.2622,5.82379,-2.99214,31.0983,5.50645,-0.777487,30.1874,6.04559
10.0129,0.0203388,11.7487,30.8962,4.64965,11.3424,33.0608,3.43293,11.3939,32.8966,3.51322,10.7742,31.9355,4.42883
3.12841,0.0517476,13.4598,6.95046,2.40248,13.8793,7.06346,1.19154,13.8934,6.86434,1.00072,13.1354,7.12023,3.26049
6.1108,0.233673,-11.4981,24.4621,-4.58562,-11.0995,24.616,-4.74486,-12.0069,23.7964,-5.03966,-12.455,25.5089,-4.69832
0.24861,0.0133838,-14.7969,23.4101,1.39597,-14.8048,22.9526,1.53231,-14.8141,23.1482,1.3756,-14.7852,22.9544,1.63498
2.85028,0.00334587,-4.90667,27.7391,6.38061,-3.93932,27.3776,6.52846,-4.55918,27.9841,6.37582,-3.60786,27.6694,6.51133
12.0695,0.139678,-1.80801,32.5202,4.46132,1.45169,32.3444,5.05367,0.818174,32.2919,5.02028,-3.19216,32.9041,4.2613
123.349,2.50513,-11.4556,0.56869,-1.31282,-8.7597,0.59458,1.48989,-8.28568,0.230321,-0.432233,-8.2818,0.364912,-1.242
4.99828,0.332289,-3.79262,21.0763,-6.5626,-4.17115,21.4794,-6.79164,-2.35853,21.1655,-6.95625,-4.30662,20.3549,-7.04479
5.04533,0.111873,6.73461,19.5804,6.51961,7.04527,20.3181,6.40363,6.30225,20.5255,6.86339,6.88703,19.2239,6.5798
0.139855,0.0495918,2.09214,21.4885,7.23597,1.60034,21.8032,7.32041,1.67784,21.6595,7.29598,1.60051,21.7539,7.31041
3.3278,1.066,-6.7789,22.9095,-6.35397,-4.57083,22.9159,-6.40023,-4.50134,22.8165,-6.40595,-4.52052,22.7295,-6.45723
2.20335,0.0443607,11.2888,23.0592,5.34596,12.0177,23.4804,5.09748,10.94,23.2101,5.55579,12.0185,23.2978,5.08719
1.1844,0.0405541,14.4268,22.0827,2.13553,14.8714,22.2248,1.32165,14.9501,22.043,1.18402,14.3556,22.0904,2.3679
0.201778,0.00520911,-7.5985,26.2747,-5.80027,-7.37918,26.4542,-5.78725,-7.32863,26.407,-5.82876,-7.4543,26.4601,-5.75684
1.48245,0.163268,-12.3477,22.0254,-5.31927,-12.8344,21.3678,-5.11255,-12.8295,21.7927,-5.05021,-12.6903,21.7382,-5.09675
25.7314,0.356305,12.7911,19.5967,-3.5892,10.3098,20.4863,-5.44724,10.2484,19.7235,-5.73592,14.0592,19.7192,-1.6675
9.08074,0.190391,-5.36631,20.7257,-6.995,-4.50981,20.5502,-7.0439,-4.93636,18.791,-6.8134,-5.5851,19.944,-7.09125
10.8877,0.0707263,9.09877,18.9015,-5.73104,8.12347,20.1543,-6.49755,8.58081,20.0194,-6.26158,9.45255,20.3372,-5.92156
0.160569,0.00206652,8.51473,29.4752,-4.212,8.28784,29.3384,-4.32535,8.22016,29.3838,-4.35171,8.35326,29.4777,-4.28548
6.7113,0.561028,-14.9323,17.5848,-0.969625,-14.5176,16.8334,2.00469,-14.5262,17.0203,1.68878,-14.5871,17.3605,1.4966
83.2051,0.928584,13.6828,26.4603,-1.12473,12.3271,31.1792,-2.24987,13.4022,29.7839,-0.679945,12.0578,29.7033,-2.27018
3.6798,0.167289,-6.50951,11.6639,6.59508,-6.93452,12.03,6.70436,-4.67549,11.0988,6.99893,-6.99645,11.5136,6.70725
5.11874,0.495622,-3.06477,9.63038,6.5073,-6.57848,9.54723,6.31632,-6.57784,9.4953,6.29054,-6.18379,9.37526,6.31053
1.0771,0.0185999,0.214158,1.145,-3.43004,-0.199922,0.824065,-2.86661,-0.35559,0.845462,-2.88633,-0.274366,1.13793,-3.34348
0.0660033,0.0119722,-7.43972,29.6915,5.78897,-7.36433,29.5618,5.84247,-7.43765,29.5583,5.82743,-7.28915,29.661,5.83956
7.28776,0.188211,14.6011,12.9775,-0.475587,14.512,12.7926,0.519057,14.1279,12.4484,1.87437,14.1349,12.8281,1.77887
24.8911,0.115914,3.40895,24.0904,-6.23011,4.82891,22.8182,-6.4662,2.81443,23.9992,-6.50137,4.77854,25.5245,-5.63159
0.715969,0.0192388,8.05498,0.312649,-0.947918,8.10947,0.351181,-1.25846,8.18187,0.310664,-0.317379,8.30598,0.317912,-0.276182
0.416613,0.0502012,-14.4846,31.9939,0.658977,-14.4802,32.162,0.553132,-14.5719,31.8094,0.508721,-14.4723,32.2445,0.69554
10.153,0.563078,-3.91976,7.36435,6.45528,-7.39625,6.7711,6.28694,-7.15721,6.37218,6.35553,-7.02071,6.65961,6.37439
4.84728,0.15169,-2.42231,14.5017,7.15757,-3.05136,15.4202,6.97216,-2.00329,14.9871,7.22535,-1.93288,14.0041,7.52126
13.1515,0.147658,0.0847521,30.2905,-4.57283,-0.416101,28.7586,-4.82215,0.19196,31.5289,-4.20057,-0.215549,28.6246,-4.76011
26.7021,0.422077,2.69489,28.8427,-5.11313,2.13091,28.0088,-5.38972,1.01002,28.4714,-4.81872,5.66223,28.5546,-4.93656
8.43818,0.0893448,-1.5413,18.3354,-6.81487,1.17514,18.7044,-7.18918,-2.13053,17.9448,-6.78059,0.733587,18.491,-7.19752
0.499692,0.0431399,-12.8856,1.55855,-2.69843,-12.6738,1.71695,-2.93679,-12.669,1.75592,-2.98218,-12.8264,1.87273,-3.00796
2.54466,0.283843,1.02342,19.7684,6.71773,-0.0800656,19.0885,7.24184,0.0362009,19.8223,6.73906,-0.0279891,19.6476,6.8476
2.17538,0.0634015,-4.78768,16.9093,6.92131,-5.88227,16.7419,6.73587,-5.9567,16.7895,6.72431,-4.09768,16.941,6.93808
16.9773,0.796349,-13.7686,13.0571,-1.02915,-14.6034,13.924,-0.316911,-14.475,13.2148,-2.44992,-14.5935,12.0303,-0.759879
2.13756,0.0396455,9.76055,9.04659,5.37991,9.94921,9.54077,5.21268,9.73522,7.60583,5.39956,9.80241,7.55682,5.36411
8.87638,0.900917,-4.23576,20.8357,6.71496,-6.69994,20.5819,6.19303,-6.63347,20.7253,6.24987,-6.59511,20.1242,6.21331
20.3308,0.00231877,9.41666,27.77,5.71359,9.55098,26.5564,5.96127,9.58514,28.6275,5.49281,6.76444,27.0361,6.38198
0.607223,0.053765,-14.8905,22.438,-1.37784,-14.9185,22.0464,-0.96516,-14.9253,22.3787,-0.869401,-14.9079,22.2751,-0.987543
5.10644,0.633116,-10.0068,28.7315,-4.77072,-11.6012,29.0353,-4.24628,-11.6845,28.8045,-4.28128,-11.466,28.5655,-4.28857
18.9833,1.4665,2.06299,22.6876,7.25046,-1.01282,21.3469,7.16014,-1.4092,22.2841,7.02526,-0.993378,22.1077,6.92515
17.5005,0.493799,9.73281,17.5389,5.67346,10.0405,18.8999,6.19465,12.9815,17.806,3.94361,11.2346,17.5011,5.18775
7.7398,0.103274,7.3,31.6479,5.14436,6.96513,32.7701,4.67406,7.57905,32.1738,4.92995,7.70607,30.7868,5.69665
7.51387,0.0545275,3.63596,5.00219,-6.09239,2.57693,4.99445,-6.08248,3.53451,5.8669,-6.24005,4.45801,5.97251,-6.22261
3.1817,0.247401,-10.733,7.2387,5.28152,-10.0696,6.58424,5.7493,-11.3216,7.0113,5.51895,-10.9631,7.61535,5.43008
1.52927,0.205505,11.0719,11.7624,-5.43414,10.687,11.6652,-5.67657,11.3516,10.9021,-5.13354,11.2254,10.9945,-5.20637
6.32511,0.0154501,0.463778,25.1074,-5.98138,0.498728,24.7175,-6.23306,1.69038,25.7169,-5.85958,1.23619,24.7125,-6.42091
13.6542,0.484581,-6.81345,8.87238,5.82697,-7.11067,10.0758,6.66197,-5.83911,8.43472,6.04003,-7.93143,8.00291,6.36173
2.94731,0.154696,3.38182,0.175307,-0.767974,3.42286,0.488534,-1.23464,3.47064,0.223126,0.83567,3.38911,0.202322,0.491123
9.36464,0.196475,0.978108,23.1396,7.17254,-0.613391,23.9292,6.97116,-1.2798,24.494,6.94323,-0.730655,23.284,7.05058
5.04319,0.0745538,7.06817,10.8557,6.43157,6.53432,12.2665,6.4475,6.29745,10.9722,6.5456,6.27622,11.8025,6.52636
7.33947,0.0646363,6.74034,6.85103,-5.58235,5.62984,7.1076,-5.79149,4.08307,6.92714,-5.94428,4.72312,7.1336,-5.93935
58.3117,1.99129,-4.0239,26.9895,-6.05699,-4.28868,22.9996,-6.36765,-5.43902,24.2225,-6.10781,-4.82909,23.8797,-6.02897
11.9575,0.152673,-7.25169,28.4182,5.87186,-3.10046,28.6892,6.35708,-3.44643,26.8559,6.60315,-3.3023,28.4513,6.36305
37.1902,0.139594,7.6443,8.45182,5.85776,8.92027,8.40659,5.77999,8.08244,6.1265,5.98973,7.87911,6.12262,6.02502
21.3684,0.444608,-1.12761,0.163591,-0.431419,-2.14239,0.517393,-1.73824,-2.37035,0.447966,-1.6759,-2.63151,0.310573,-1.14371


