
1.63439,0.151453,-0.645363,33.9781,2.07834,-0.574509,34.0639,1.8643,-1.1364,34.4129,2.57003,-0.0862223,34.0282,2.26703
5.52716,0.180127,10.0163,15.553,3.69451,9.0795,14.6057,4.10235,11.0345,15.7016,2.58966,9.09316,14.818,4.12844
2.29424,0.0551983,0.790544,17.7915,6.11978,1.62466,17.8189,6.222,2.10401,17.661,6.38829,0.531445,17.438,6.48037
8.0367,0.533455,0.58466,8.5735,-5.31128,2.14831,8.60353,-5.31425,0.74431,7.75657,-5.48461,0.690768,9.53259,-6.359
54.6427,0.180011,-6.21016,25.8101,5.25376,-2.38436,26.8377,5.29184,0.257859,27.2832,5.65619,-1.3023,26.1062,6.07556
4.9968,0.579903,-4.24638,3.46699,-4.3946,-6.84995,3.8928,-3.29048,-7.00324,3.84514,-3.11883,-6.55288,3.66655,-3.38504
0.0321834,0.0310184,-1.88698,23.4586,6.25825,-1.84126,23.461,6.23742,-1.85698,23.5171,6.1474,-1.88013,23.5091,6.23903
4.32363,0.878099,-2.55469,4.82521,5.05193,-5.49399,4.82321,4.86581,-5.55931,4.78082,4.82646,-5.27897,4.67812,4.90572
0.0701436,0.00494716,5.94868,34.3249,3.02549,5.95435,34.3481,2.96337,5.88055,34.3627,2.95193,5.7936,34.3679,2.9638
3.65635,0.175001,9.84173,22.0364,3.84334,9.73547,21.0294,3.99682,9.615,21.3744,4.03482,9.3343,21.4251,4.35064
9.82249,0.281594,2.10105,25.2761,-5.68547,2.11585,24.5574,-6.05822,4.05258,25.7,-5.502,4.04971,25.3819,-5.54063
37.808,0.387137,-11.6497,15.8735,-0.84285,-11.7175,18.7208,-0.997184,-11.7183,17.1862,0.860792,-11.7688,17.5618,-0.111191
1.31321,0.0756532,11.5739,11.4418,-0.409857,11.6773,12.1107,-0.658034,11.623,10.8594,-0.226308,11.6261,11.422,-0.612586
0.465417,0.527005,8.94063,4.11121,-2.58501,9.22308,4.59434,-2.57705,9.32043,4.53873,-2.51213,9.3777,4.50277,-2.48232
1.97033,0.130938,8.85303,8.28749,-3.495,8.70389,8.07186,-3.7821,9.35688,8.96535,-3.45279,9.33046,8.48607,-3.23346
1.45293,0.459686,9.47767,30.0365,2.8682,9.29012,30.8253,2.79077,9.37514,31.0539,2.71522,9.26122,30.7285,2.90591
3.59004,0.026739,-7.97139,13.1157,3.96351,-6.45745,12.8774,5.43455,-7.66088,13.2149,4.3621,-6.40857,13.1358,5.59791
1.19355,0.549865,-4.06025,8.42579,-5.76231,-2.97894,8.43168,-6.1372,-2.98025,8.38427,-6.11529,-3.05802,8.24459,-6.06769
6.7009,0.274497,-9.67891,26.3921,2.96237,-7.78127,26.5546,4.3699,-9.88296,26.6438,3.20784,-9.68606,25.4995,3.12789
7.52015,0.188917,8.79081,20.6597,-4.12077,10.9463,19.8231,-2.99775,7.7618,20.7765,-4.52982,11.1179,19.7757,-2.88438
1.039,0.00171711,-2.85626,10.5011,-6.49865,-3.482,10.7833,-6.4937,-2.50004,10.7693,-6.49265,-2.65005,10.36,-6.49868
2.14586,0.0977171,-8.04638,15.5449,4.44653,-8.39228,14.7682,4.92122,-7.63123,15.4829,4.56102,-8.3763,15.3451,4.66035
15.8075,0.32324,4.19023,21.0529,-5.70572,0.0741494,21.2436,-5.74603,0.286283,21.3766,-5.71463,6.89064,21.0355,-5.13016
3.78372,0.27505,-11.2801,28.0589,0.207842,-11.1473,28.3501,1.00806,-11.2993,28.7731,0.142826,-11.3279,28.4819,0.406421
10.6193,0.533135,8.97535,23.8858,3.94123,10.9012,22.5243,2.87371,10.5545,24.0523,2.51743,10.9299,24.0777,1.95025
1.05797,0.203403,-0.532518,0.576468,-2.51005,-0.722909,0.663691,-2.96674,-0.312799,0.640862,-2.85446,-0.383301,0.651194,-2.85537
0.549952,0.286753,10.1773,9.28842,-2.82611,9.9078,9.45288,-3.21465,10.0174,9.54153,-3.13034,10.0758,9.59073,-3.13361
1.51069,0.395103,-5.35438,8.51142,-5.2769,-4.18716,8.52446,-5.76833,-4.1227,8.47753,-5.75526,-4.13138,8.42469,-5.7359
1.34432,0.517104,-5.34836,4.54417,4.89658,-6.43772,4.58155,4.01126,-6.3773,4.7139,4.09182,-6.43582,4.6276,4.00526
12.2679,0.824616,-6.25756,29.0346,-5.43973,-9.42662,26.7976,-3.96926,-10.2514,25.6523,-3.62686,-10.0536,26.0818,-3.57413
14.4138,0.488933,-3.92866,27.9342,-4.92558,-1.64528,28.3303,-5.40955,-3.06734,28.8791,-4.98993,-2.9303,29.3763,-4.70323
2.10774,0.911839,-6.67744,21.6562,5.1037,-8.07421,21.9984,4.98768,-8.14748,21.5876,4.97931,-8,21.8683,4.91921
3.30093,0.193168,2.349,34.7005,-0.303527,2.96692,34.8496,0.107853,1.83775,34.9973,-0.618845,1.8635,34.6401,-0.0709303
1.91315,0.111239,7.1672,26.0563,-3.72447,7.18307,25.5641,-4.23475,7.09063,25.9,-3.89733,6.90873,26.3485,-4.19379
39.7116,0.220493,0.25815,9.13784,5.70989,5.84771,9.8365,5.03529,5.68623,9.40932,5.22272,-3.26632,8.84722,5.67944
2.02135,0.0295703,-3.1977,7.38739,-5.33149,-1.71909,7.3735,-5.30361,-2.06944,7.42548,-5.32985,-1.72945,7.27207,-5.27816
2.24525,0.0698616,8.68435,23.0013,4.30357,7.87395,23.7125,4.65998,8.34628,22.647,4.65584,9.60359,22.4571,4.01021
2.28201,0.0819188,6.86024,15.7617,5.75312,7.59536,16.0868,5.62755,7.47456,15.4706,5.39671,8.00738,15.402,5.08828
4.29672,0.255848,0.0643862,19.3439,-6.14814,1.59576,19.4114,-5.97781,-0.0685311,19.6775,-6.37334,-0.0506688,18.6773,-6.62431
2.31746,0.0859973,5.11632,0.252514,-1.16024,4.36678,0.169795,-1.23418,4.60486,0.108391,-0.668844,4.87837,0.102993,-0.605784
0.168222,0.00520155,-3.84712,27.9741,5.895,-3.56474,27.7439,5.88275,-3.56536,27.7886,5.88872,-3.63765,27.8807,5.895
2.71182,0.040028,8.63757,6.76021,-3.09554,8.30333,6.82424,-3.36191,9.614,7.14109,-2.46398,9.7134,6.98107,-2.27369
6.30637,0.275517,1.21026,0.780684,-1.95345,0.936576,0.275592,-0.942681,1.7718,0.651646,-2.90808,0.510085,0.56868,-1.82706
1.7326,0.0927978,7.81743,1.76853,2.19728,7.31813,1.79151,2.51822,8.88642,2.48781,1.94859,8.83513,2.50931,2.02393
8.20896,0.526444,-3.408,7.38974,-5.34169,-6.35793,7.78161,-5.12584,-5.14978,6.78717,-5.61497,-6.43729,7.9157,-5.03714
36.0159,0.126672,3.96493,11.7438,-5.63429,6.78376,13.4849,-5.60831,6.66683,11.4577,-5.19061,1.7341,11.7744,-5.7198
0.487153,0.0359383,-0.259781,28.393,6.07655,-0.266211,28.8438,6.1363,-0.200233,28.8438,6.13839,-0.370082,28.4759,6.05404
3.5657,0.156212,2.35705,8.33894,5.71232,2.13779,7.38891,5.61908,2.29491,7.48031,5.57608,2.24022,9.17685,5.57324
6.00063,0.736838,-1.90657,21.0915,6.29616,-5.47267,21.0602,5.48521,-5.33813,20.8238,5.52468,-5.62129,20.6896,5.54002
2.64937,0.0230895,0.0938971,23.3726,-6.57842,0.222771,22.9601,-6.61652,0.727126,23.7296,-6.56978,0.878069,23.2269,-6.6441
8.87838,0.58546,-4.13203,17.2395,6.03972,-6.38808,17.6015,4.87092,-6.13987,17.3029,4.58485,-1.83269,17.6186,6.24801
5.32229,0.648004,-7.49182,28.4413,-4.92582,-7.61656,30.0415,-4.89669,-7.6879,29.908,-4.95173,-7.46158,30.04,-4.91072
10.5305,0.173354,-3.05989,20.2461,-5.99799,-3.19433,22.3133,-6.30404,-3.15503,19.9321,-6.17192,-2.99648,22.3545,-6.27533
13.0208,0.604873,-7.59015,9.40629,3.92087,-7.69169,7.12765,4.29302,-5.91493,9.06867,4.99729,-8.35427,9.82781,4.37734
2.91046,0.330812,-7.84338,24.2689,4.73076,-8.0147,22.7523,5.24317,-8.0702,23.0847,5.16511,-7.93522,22.9334,5.25732
0.240031,0.0765094,-3.9008,14.2973,6.36001,-4.16466,14.4256,6.31835,-4.36301,14.6581,6.29071,-4.22754,14.5178,6.32194
2.09975,0.168671,5.97458,4.22551,-3.8662,6.88184,4.79871,-3.6576,5.64273,4.24823,-4.22072,6.31363,3.76337,-3.84671
3.91651,0.25867,1.71023,13.2005,-6.00154,2.49501,13.9622,-5.95309,0.61012,12.4667,-5.5328,0.331856,12.097,-5.39205
0.857885,0.0381955,-2.37168,28.0973,6.0117,-1.67773,28.4874,6.11686,-2.09391,28.5867,6.06549,-1.61126,28.3514,6.11246
1.63833,0.0353191,-11.6215,20.9108,1.12248,-11.5888,21.3897,1.1198,-11.5953,21.464,1.25558,-11.6062,21.1408,1.54193
9.56373,0.0494823,6.31427,17.0412,5.82122,4.65,17.7012,6.2552,8.02246,16.9942,5.22252,4.83524,16.9218,6.25446
2.43011,0.375101,2.19854,16.2381,6.43087,0.705768,16.4237,6.09155,0.499205,16.515,6.08377,0.697019,16.3256,6.11295
7.05768,0.191404,-6.65579,32.6837,-3.19074,-5.34613,33.658,-3.34186,-5.24335,34.1085,-3.00854,-7.19948,32.2736,-3.52077
24.0848,0.00140559,-11.3578,26.2621,0.0635031,-11.1942,25.1302,2.15983,-11.1377,25.9353,1.95572,-11.3671,24.9335,1.01815
14.4154,0.194375,9.55897,14.2875,3.65423,7.4111,14.2104,5.12992,7.32426,13.8346,5.21477,11.2156,14.5278,2.06723
2.66847,0.0834268,-9.89508,24.0983,3.43591,-9.81866,23.5167,3.66873,-9.84082,22.9683,3.67159,-9.91102,22.9308,3.59804
13.2616,0.256438,5.32156,5.7786,4.25884,5.25859,4.20463,4.44484,6.08937,5.67352,4.33701,3.58859,5.69207,4.9225
6.72509,0.0446347,8.1844,4.40974,3.1754,5.98501,4.76331,4.29113,8.6867,5.02246,2.9634,5.82269,4.30133,4.30343
2.52297,0.0700647,4.92863,27.7712,5.10555,5.51556,27.7858,4.91895,3.61879,27.5262,5.31907,3.54527,27.5773,5.32599
8.03131,0.132588,0.441876,6.99527,6.11263,-0.247167,8.18554,6.17127,0.79356,7.67521,6.23826,0.172181,8.12972,6.24106
8.19704,0.00734486,-5.85145,30.889,4.93491,-8.04134,30.2407,2.08186,-6.76951,30.7413,3.79683,-8.37991,30.4179,1.75335
5.00197,0.105499,4.65672,14.1648,-5.92789,6.18674,14.1363,-5.70297,6.7924,13.7124,-5.60018,7.4258,14.0629,-5.4367
6.03516,0.381983,4.48119,26.2453,6.12099,2.30613,26.4514,6.05256,2.18628,25.7859,6.29647,2.63704,25.9817,6.14656
5.25849,0.395993,-9.59299,31.7827,-2.48109,-8.30268,32.3046,-3.21552,-10.0306,31.1512,-3.14797,-10.2908,32.2442,-2.4048
19.8385,0.126248,-6.23695,19.6691,5.2545,-5.37042,19.7203,5.58274,-8.47444,19.3473,4.91532,-6.24858,18.069,5.68545
1.59013,0.261086,1.87036,11.586,-5.66589,0.830766,11.7812,-5.60355,0.903749,11.8264,-5.63691,1.23782,11.5986,-5.72102
3.33858,0.60095,-6.12113,26.5907,5.25024,-3.65423,26.794,5.32382,-3.65932,26.7017,5.33341,-3.87375,26.7931,5.37058
1.84459,0.171376,4.73181,23.876,5.96817,6.88316,23.9401,5.17971,6.81265,23.837,5.25517,7.03406,23.9458,5.10974
3.58436,1.63793,-0.986801,21.8313,-6.41988,-1.26538,20.1961,-6.47023,-1.17136,20.1899,-6.40064,-1.06184,20.1906,-6.42825
1.15614,0.618753,-2.48293,4.86995,5.0536,-1.43555,4.85559,5.09069,-1.36234,4.95072,5.08839,-1.36417,4.99275,5.11399
0.379581,0.0296178,-5.88479,5.60445,5.40603,-5.75295,5.82781,5.45538,-5.61621,5.73262,5.49141,-5.89306,5.83356,5.40494
0.844232,0.373747,7.22408,20.0275,5.68634,7.15707,20.484,5.74158,7.47393,20.4525,5.58918,7.23768,20.4895,5.681
2.2593,0.066008,5.90817,15.6829,-5.43028,7.49404,15.5491,-4.98766,7.35347,15.4624,-5.03342,7.63223,15.5439,-4.94302
2.63615,0.160905,11.1171,22.6926,2.00653,10.9669,23.8542,2.01075,11.0301,24.1475,1.75074,11.0775,24.9431,1.59004
6.10933,0.00312061,-0.346662,33.9893,2.02368,-0.409725,34.6616,1.24943,-0.458278,34.4114,1.50209,2.67563,34.4501,3.08253
42.8835,0.71965,8.41494,26.6365,3.62659,10.5298,27.0043,1.628,11.1402,26.0988,1.02732,11.161,25.1785,1.32308
0.109849,0.00411663,3.43405,8.57743,5.79876,3.69606,8.73199,5.78884,3.63708,8.7284,5.7937,3.62616,8.59595,5.77954
2.21088,0.0255931,3.66954,0.0871379,-0.21332,5.46308,0.143222,0.180237,4.50064,0.149233,-0.141894,5.32094,0.155746,0.0741895
11.1496,0.870854,-9.06456,30.1298,1.03296,-10.1936,31.3504,1.75922,-9.5927,28.2609,2.6971,-8.29643,30.2782,1.77515
21.204,0.18093,5.16612,34.4096,2.1341,3.11725,34.7191,0.918564,5.71318,34.3243,0.418982,5.85713,34.459,1.74799
11.3592,0.0519814,-2.18983,11.8672,-5.62406,-0.145232,11.7989,-5.76277,-2.34014,13.7611,-6.09442,-2.32215,14.0378,-6.15731
5.88321,0.127295,11.5956,12.8385,-0.0134949,11.6605,12.6072,-1.0005,11.6739,13.6085,-0.290129,11.6007,13.2086,-1.50883
5.38787,0.0357778,-2.98261,19.8665,6.26042,-1.08529,20.3506,6.79502,-4.49174,19.8253,5.8843,-1.21702,20.1234,6.77039
2.88139,0.158394,-9.749,26.9423,3.40994,-9.58565,28.2171,2.71399,-9.78605,27.6666,3.06976,-9.49269,28.2076,2.7432
2.19181,0.195402,5.03642,6.95839,4.97762,6.31533,6.68339,4.85372,6.32255,6.86552,4.84583,6.46393,6.95677,4.84829
4.27714,0.181138,5.55817,32.4878,-2.61041,5.79645,32.1162,-3.18424,6.78181,32.5223,-2.06843,6.18131,31.9915,-3.07552
13.118,0.240619,6.20951,28.6192,-3.47782,6.25774,31.9011,-3.11317,7.36719,28.6033,-3.60216,6.1447,31.9711,-3.11241
0.151618,0.175261,-2.53588,9.84825,6.20652,-2.72495,10.1741,6.22895,-2.70144,10.2091,6.20217,-2.60488,10.1199,6.2476
6.38947,0.383853,-3.00081,22.3999,-6.27569,-2.99607,24.0033,-6.43269,-3.32789,24.867,-6.25656,-2.62697,24.5894,-6.4011
11.273,0.744494,-8.4486,13.2144,3.43399,-8.48175,11.2747,4.10707,-9.45245,13.8056,4.09042,-8.58087,10.7291,4.07508
38.3165,0.234058,4.75049,23.7902,-5.95387,6.6036,22.8377,-5.53374,4.2544,22.5298,-6.26633,6.16119,21.6596,-5.58857
28.0553,0.394865,2.54941,31.7146,-4.43729,0.190093,29.6012,-4.36935,3.06798,28.1587,-4.96334,3.08175,30.4717,-4.38382
3.54249,0.0878601,-1.35285,0.548196,1.42594,-0.968666,0.730652,2.08983,-1.36797,0.653911,1.86366,-0.45267,0.516035,1.70079
11.2075,0.203348,2.8762,4.26964,-4.7978,5.58055,4.11536,-4.24621,5.788,4.52589,-4.2252,1.20005,4.24458,-4.80601
0.145202,0.11024,-2.5778,10.4035,-6.50965,-2.47099,10.378,-6.44918,-2.49977,10.3469,-6.41275,-2.40325,10.3262,-6.4998
6.04995,0.206455,-8.6039,2.40053,3.5381,-8.11715,4.55164,2.9132,-8.59598,3.6069,3.29734,-8.28149,4.74046,2.8487
14.7913,0.208925,-5.93336,10.5902,5.39375,-7.01961,11.2589,5.14898,-8.5122,10.6344,4.09936,-3.58413,10.8556,6.27293
10.2681,0.0290969,10.3755,27.9425,-0.799773,10.5732,28.3376,0.168862,10.6789,27.1826,0.245089,10.7472,27.4082,0.663831
1.75261,0.12121,-0.0223582,0.462122,-1.0944,-0.505038,0.363767,-1.05561,0.616578,0.323986,-1.23474,0.558131,0.355072,-1.32415
4.52146,0.6528,4.58928,23.8682,6.0107,1.43362,22.9493,6.23112,1.73033,23.1823,6.20441,1.42404,22.8554,6.27819
0.956497,0.259114,-4.48855,19.7263,5.88971,-5.30148,19.7657,5.61111,-5.30258,19.717,5.6109,-5.37458,19.8097,5.60952
2.54861,0.2318,-0.224352,29.238,-4.38368,-1.09374,29.3688,-5.26786,0.0635298,28.9203,-4.55179,0.121628,29.508,-4.35561
0.835402,0.0260443,-8.16891,0.901249,2.07955,-8.57506,0.919559,1.91906,-7.97395,1.03677,2.46888,-8.11646,1.04978,2.46164
9.26828,0.238897,-7.17598,12.0213,4.83356,-8.20583,12.2373,4.08099,-3.62525,11.9158,6.23071,-3.49509,12.1362,6.28307
0.987282,0.00447361,-0.61769,24.0849,6.51332,-0.835383,23.6299,6.49277,-0.481661,23.5795,6.51235,-0.623822,23.7176,6.50763
0.921581,0.0938118,-11.3471,23.9581,0.935266,-11.3199,24.2993,-0.0311131,-11.2629,24.0219,0.752724,-11.2944,24.3062,0.117214
24.0508,1.1175,10.6803,8.17053,-1.178,10.9763,11.8341,-2.14618,11.337,12.0042,-1.54645,10.8264,11.37,-2.4664
1.14159,0.101765,6.15997,5.71708,4.33642,6.90219,5.59926,4.03735,6.83553,5.59897,4.05549,6.83296,5.78465,4.04304
10.371,0.310502,-7.4755,6.85938,4.23179,-5.52882,6.92232,4.90998,-9.59575,7.38716,4.24708,-9.52391,6.52307,4.13258
0.198321,0.210894,2.16495,28.1035,-5.40296,2.35004,28.2694,-5.33197,2.32128,28.2273,-5.25702,2.34801,28.138,-5.30033
4.06033,0.165346,-8.91439,17.3469,4.3624,-8.22581,17.0039,5.00802,-7.44441,17.1356,5.47042,-9.38406,17.3682,3.68949
9.56842,0.20526,2.53752,18.3969,6.34716,1.35843,19.0044,6.77457,-1.7632,17.5215,6.27816,0.554982,18.0179,6.1938
3.34979,0.000224359,-7.46703,8.80587,-4.27357,-5.34863,8.6064,-5.31674,-5.4298,8.50784,-5.24644,-5.6327,8.64375,-5.17992
3.91805,0.0281797,-11.5931,18.0469,1.9443,-11.5127,19.2025,2.44585,-11.4441,17.9527,2.52161,-11.5817,19.1497,2.21209
1.22529,0.515884,-0.74286,16.2589,-6.2557,-1.99722,16.3646,-6.25714,-2.00167,16.3192,-6.27007,-1.92538,16.4145,-6.27244
4.55261,0.415611,-10.1362,12.1073,3.15811,-10.2632,12.8807,3.72847,-10.5985,11.7657,3.4177,-8.81273,12.1217,3.89026
9.01628,1.32284,-2.72973,9.80672,-6.38431,-6.296,10.2623,-5.30357,-6.38283,10.165,-5.23455,-5.64557,9.63551,-5.79605
0.339476,0.00746657,0.362295,17.5434,-6.97724,0.516363,17.4106,-6.98523,0.592203,17.7764,-6.99749,0.369995,17.4155,-6.98136
8.28259,0.531905,-8.1433,4.19662,-2.68556,-9.64381,3.39495,-2.21618,-10.0322,4.35698,-2.31161,-10.0851,3.85011,-2.11677
1.11148,0.0708916,-0.903699,3.13238,-4.96492,-1.31473,3.48004,-5.21538,-1.53344,3.33252,-5.11511,-1.6019,3.28753,-5.0844
5.37624,0.205782,-3.24574,22.4187,5.91664,0.334107,22.796,6.04765,0.329831,22.7426,6.09522,-1.5982,22.0979,6.27421
3.29888,0.791175,-10.992,26.982,-2.17412,-11.2109,26.6801,-1.16923,-11.1384,26.0907,-1.29577,-11.1998,26.4614,-1.23962
3.64819,0.166931,-7.4265,13.8335,-5.22778,-8.02185,13.7855,-5.02874,-6.46852,13.7691,-6.10955,-7.71912,14.243,-5.15615
4.84804,1.30445,8.72389,19.3488,4.56844,6.29788,18.7526,5.69044,6.73971,19.1709,5.59585,6.29555,18.7043,5.71652
94.945,0.0953062,2.20491,22.7579,6.29005,3.86719,20.2376,6.65042,3.7139,21.4033,6.43547,1.84697,19.3175,6.83207
4.91504,0.223921,8.95637,25.9489,-2.79634,9.6305,25.7913,-2.39267,10.1635,25.8285,-1.6665,9.10675,25.3627,-3.33768
2.6119,0.0596091,8.02664,25.0186,-4.00183,7.47758,25.1139,-4.31313,8.37627,24.9021,-3.94883,7.6815,24.6126,-4.44366
12.4296,1.30068,5.75405,33.6456,-1.14638,2.82395,33.6485,-2.54529,2.4383,33.805,-2.09895,2.24741,33.9039,-2.28631
3.12142,0.165137,4.0254,2.83655,3.99099,7.20871,3.07403,3.51348,6.84615,2.89085,3.54118,6.91171,2.98633,3.55485
1.61629,0.00241239,7.37458,10.1634,4.75088,8.68354,10.4403,4.11398,8.07871,10.2372,4.40622,8.67828,10.4851,4.11856
11.923,0.349054,3.55823,24.5738,-5.73087,5.90277,25.1102,-5.02544,3.84876,23.4447,-6.2337,5.22769,25.129,-5.30288
3.10441,0.493224,-2.29088,32.968,-3.53974,-0.955484,33.8247,-3.02753,-1.61727,32.7218,-4.27423,-1.09129,33.8479,-3.04521
26.2683,0.677184,1.92875,18.1237,-5.9227,1.81427,21.0837,-5.70425,1.41054,17.6645,-6.77814,3.22035,18.2236,-6.59692
49.7159,0.269557,7.87613,12.0985,-4.49124,9.90071,10.5488,-3.37781,8.68548,10.063,-4.19592,10.3924,10.9021,-3.00907
2.56917,0.153434,-5.99486,20.8935,-5.14864,-5.76278,20.9834,-5.2407,-6.14728,20.5313,-5.28768,-6.81859,21.9874,-6.06528
3.45107,0.670488,-3.17401,15.8631,6.03289,-0.657301,16.1877,6.72449,-0.999662,15.9685,6.68087,-0.658154,16.1431,6.71341
3.43881,0.0610006,1.24112,5.14992,5.16032,-1.29134,4.95093,5.08815,-0.304246,4.94002,5.10168,-1.36577,4.85555,5.09726
2.37767,0.00230421,-6.49922,4.67846,3.96723,-7.79325,4.86165,2.99713,-7.6716,4.98669,3.13986,-7.20226,4.72892,3.4239
4.51417,0.151524,10.1155,8.90768,-2.35621,10.5621,8.25017,-1.51669,10.0843,9.09963,-2.83472,10.1697,8.1486,-1.86828
0.91805,0.0373719,-6.00649,28.4261,-5.5885,-5.77133,28.7584,-5.57358,-5.47346,28.5281,-5.6479,-5.6925,28.666,-5.59541
4.47318,0.0654663,-2.48871,5.98458,-5.75493,-3.25357,6.03595,-5.79431,-3.53308,6.31847,-5.77589,-3.32477,6.72171,-5.65562
5.11481,0.127527,-2.73678,3.24775,-4.9516,-4.1739,3.41916,-4.40762,-3.52912,2.69235,-4.65219,-1.66622,3.3341,-5.10534
11.7413,0.304561,4.48288,28.5659,-3.96113,5.82879,28.5016,-3.94074,4.5436,31.856,-3.92513,4.69167,31.7593,-3.8973
8.20223,0.0785474,7.20805,0.885717,-1.11071,7.35037,0.583622,-0.180913,8.11396,1.1188,-0.988289,8.31886,1.06459,-0.525247
1.64021,0.171875,-4.56916,13.9714,-6.07835,-3.22378,13.8723,-6.28987,-3.21908,13.9214,-6.29135,-3.57651,14.0588,-6.28387
12.8924,0.465226,10.3041,7.66839,-1.40934,10.7779,6.58884,-0.312079,10.8147,7.12384,-0.475582,10.6771,6.02764,-0.751327
6.30652,0.250548,-5.58933,12.9184,-5.73028,-5.59319,12.331,-5.87814,-6.06091,13.1679,-6.01084,-2.69887,13.0818,-6.13558
3.95908,0.0849532,-5.29725,8.69397,5.04335,-4.21105,8.75013,5.36179,-7.30567,8.8302,4.20302,-4.21119,8.65199,5.35884
0.806232,0.0726261,-7.2362,18.1254,5.6802,-6.93148,18.0035,5.51027,-6.60641,17.591,4.98539,-6.45887,17.641,4.9436
3.91845,0.399434,-8.9905,25.1152,3.71029,-8.14632,25.2256,4.3641,-9.11381,22.7952,4.41483,-8.27327,25.0046,4.29012
1.37062,0.0727996,-4.14049,8.70117,5.36521,-2.30241,8.64372,5.85729,-2.37179,8.59686,5.86473,-3.05248,8.71113,5.66931
3.75623,0.302782,-9.62221,17.4008,3.37048,-9.39008,17.4569,3.72753,-9.97839,17.696,3.69897,-9.64218,16.5625,3.49656
2.53573,0.350953,5.38526,21.0738,5.93516,6.9468,20.6634,5.81194,6.60019,20.8883,5.86813,7.16908,20.6698,5.70195
2.61257,0.276102,7.16853,27.898,4.1792,5.51055,27.837,4.91626,6.10809,27.8402,4.75777,7.11951,27.402,4.56049
6.10646,0.153442,7.11803,32.2593,-1.81402,7.56361,32.2849,-1.53839,7.11062,32.2312,-2.2294,6.73973,33.7096,-0.288319
4.09328,0.120502,-7.42065,26.5921,4.40827,-7.41981,25.5852,4.84967,-7.71453,26.5538,4.38488,-6.32491,26.5494,5.23892
20.2029,0.184766,9.99503,6.57366,-1.74321,10.0799,8.12422,-2.04275,10.7376,5.66587,-0.489515,9.81237,8.05749,-2.65206
4.56435,0.255633,-11.3067,27.1966,0.285336,-11.2122,28.4929,-0.752503,-11.1783,28.4397,-0.862393,-11.1388,28.1342,-1.00886
2.55514,0.521886,-6.2163,19.0296,-6.40032,-6.22012,20.3576,-5.43404,-5.965,20.483,-5.29865,-6.05751,20.4829,-5.28382
2.08582,0.0856924,-3.49701,1.19816,-3.21438,-3.86806,0.781812,-2.65826,-2.9169,1.01208,-3.4251,-3.70207,1.21259,-3.26962
0.051059,0.00688479,0.856977,19.4524,6.93,0.795999,19.5397,6.93433,0.857238,19.5421,6.9636,0.75059,19.4926,6.89153
8.8633,0.0477083,11.4703,9.6139,0.198149,11.1526,8.18015,-0.108995,11.066,8.24162,0.808551,11.3879,9.10352,-0.485509
19.1454,0.800649,6.65515,5.88611,-4.27985,4.4168,4.37575,-4.67975,3.84337,5.83237,-5.26841,4.44324,5.40674,-5.07323
5.83588,0.239158,-3.08342,18.8428,-6.22648,-3.04113,19.8884,-6.19562,-3.07166,18.4008,-6.60635,-2.28502,18.6219,-6.71016
3.96553,0.184354,-7.73227,25.1274,4.4102,-7.94825,25.3111,4.45084,-7.84026,24.3153,4.70534,-6.46153,25.231,5.54765
2.08343,0.0398426,-6.5957,31.6583,-4.04032,-6.1224,31.3854,-4.63198,-6.0515,31.3022,-4.83914,-6.9332,31.755,-4.18642
2.05134,0.230563,-7.92264,31.5727,-3.80679,-8.25798,31.8225,-3.86349,-7.18385,32.2366,-3.5606,-7.52549,31.3413,-4.36935
0.318125,0.0422066,-4.0449,22.433,-6.77167,-3.97032,22.1094,-6.77504,-4.17973,22.2049,-6.75451,-4.04019,22.1127,-6.76352
67.4343,0.261288,-11.3936,12.5688,2.05842,-11.5695,12.0785,0.690435,-11.6355,13.7274,-0.0709995,-11.4975,12.6096,-1.79397
5.83397,0.226927,9.25551,31.1852,0.255472,9.71137,30.8121,0.0773579,9.75398,31.1663,1.59803,9.24863,31.578,0.00238755
1.69949,0.0837383,-9.41716,24.5214,-4.37328,-9.78954,24.6613,-4.29438,-9.12891,24.5232,-4.56387,-9.78153,24.0278,-4.49383
11.6174,0.0721955,3.54938,0.170745,-0.479255,1.46117,0.211359,-1.21165,0.903592,0.241872,-0.623931,2.24556,0.169471,0.197654
4.30966,0.493101,8.40448,1.19195,1.13339,7.07913,0.493955,0.642595,6.2689,0.322231,0.527514,7.74943,0.703789,0.603492
0.161896,0.0129812,-0.0921577,30.8155,-5.29936,-0.0759351,30.9075,-5.30246,-0.276403,30.956,-5.334,-0.206864,30.9998,-5.31827
0.65833,0.0497348,-8.08017,0.743924,0.90164,-7.71406,0.703952,0.788702,-8.14273,0.718917,0.581322,-8.07301,0.72266,0.536116
3.3238,0.155948,-4.50286,31.7342,-4.36236,-4.67405,32.4876,-4.0044,-4.2087,31.7121,-4.38372,-4.49393,31.2815,-5.08675
3.27345,0.521836,0.353543,16.4246,6.08139,0.451262,17.3902,6.51554,-0.0914072,15.7827,6.61516,0.214371,17.073,6.51294
7.33347,0.227378,-9.85029,14.3078,-3.88424,-7.95681,13.8769,-5.022,-10.1998,13.9942,-3.93356,-9.85609,15.6516,-4.27966
0.3716,0.0324346,3.76556,31.2619,-4.26424,4.00071,31.139,-4.2185,3.87954,31.0648,-4.23775,4.01049,31.0661,-4.20445
22,0.727565,-0.0621184,21.3383,-5.76706,-0.365418,20.2369,-6.66449,-0.351087,22.2389,-6.45113,4.99138,21.4545,-5.78555
13.8503,0.0908037,1.20349,4.64713,-4.74673,3.818,4.81971,-5.10069,1.23535,5.62587,-5.03215,3.57801,5.9302,-5.29516
0.0112821,0.0339594,9.28618,32.0942,2.03732,9.22498,32.299,2.01547,9.25119,32.1101,2.01923,9.22739,32.3083,1.97528
7.03085,1.16441,10.7585,17.3594,2.12268,9.44781,17.4457,3.83043,9.59302,17.8428,3.96934,9.3802,17.3039,4.06537
1.33808,0.0628355,-7.71683,6.0231,4.43091,-7.71525,5.57862,4.29796,-7.79617,5.53253,4.23603,-7.77938,6.35304,4.35325
1.69981,0.0857862,1.37952,14.1717,-6.17018,1.30895,13.7252,-6.34581,1.14557,14.5629,-6.67485,1.37144,13.7682,-6.26904
21.1119,0.588256,-7.8809,7.72091,-3.52578,-7.39984,10.3773,-4.58103,-6.6548,7.9102,-4.87586,-8.2194,10.3641,-4.13228
1.49697,0.0980641,1.58755,23.1843,6.2075,0.474656,22.7883,6.05726,1.10469,22.9124,6.18304,0.331344,22.8431,6.04215
6.69593,0.0774566,5.38541,6.77446,4.96809,4.55416,6.48613,5.2679,3.67109,7.00545,5.15004,2.3245,7.09704,5.26433
31.6539,0.51761,10.5933,24.5861,-0.707622,11.4667,22.8231,-0.927784,11.4811,23.4515,0.137606,10.761,26.8273,0.0532185
3.14114,0.191432,0.424222,34.4636,-0.324256,1.87048,34.628,0.0698643,0.395143,34.7701,-0.839734,0.0585366,34.6025,-0.123054
8.12835,1.37796,-1.44399,34.5422,1.85949,-4.44653,33.798,1.32277,-3.42246,34.2275,2.19851,-4.7199,33.7906,0.996358
3.70271,0.103012,5.70031,15.7304,-5.48543,2.73044,15.8818,-6.02855,3.35858,15.8246,-5.93654,2.80255,15.9733,-6.01482
3.84772,0.315321,4.77515,5.07338,4.55476,1.76633,4.98242,4.88949,1.84676,5.21342,4.84555,1.99192,5.12173,4.8248
1.44301,0.246429,-6.0218,13.6864,5.55215,-6.1369,13.0892,5.59544,-6.05761,13.0442,5.59199,-6.46104,12.6963,5.41418
3.31508,0.192126,-9.51851,12.6639,-4.04285,-9.76833,13.5432,-4.17679,-9.86564,12.1238,-4.12941,-8.85525,12.4915,-4.44881
23.3646,3.27747,9.35595,5.31444,-2.77699,5.77035,2.42288,-3.49446,6.11162,2.12703,-3.16688,5.71139,2.42913,-3.57556
3.6402,0.172516,-8.2605,5.01774,2.84185,-9.1763,6.05692,4.18717,-7.73413,5.03618,3.12391,-8.27778,4.78741,2.84793
9.47457,0.532392,-1.01254,18.4019,-6.22918,-0.113136,18.4147,-6.73283,-1.92239,17.8523,-6.93879,-1.17509,20.1453,-6.39102
3.49207,0.21684,11.4434,14.5114,-2.12981,11.1125,14.8615,-2.61922,11.0251,14.9229,-2.86926,11.3081,15.396,-2.66992
14.5824,0.135789,1.66862,26.9095,-5.20546,5.49634,27.2103,-4.72771,3.76176,27.1826,-4.73983,1.98652,26.103,-5.86375
33.6993,0.762262,6.97217,17.6203,-5.25033,7.2365,20.5369,-5.14982,5.86742,20.5298,-5.76079,8.46108,17.6555,-5.44098
6.53974,0.00367286,-11.1924,29.4329,-0.531178,-11.0749,28.9053,-1.33268,-11.1558,28.2436,-1.11638,-11.2097,28.6134,-0.695754
9.90771,0.179457,9.21734,17.0725,4.52474,7.71923,18.3443,5.5342,8.09183,16.9504,5.18835,7.33707,17.5152,5.58767
11.632,0.144773,4.58926,34.027,-0.444918,6.73896,33.8098,0.633622,4.8791,33.9362,-1.19752,8.06437,33.6269,1.51031
4.48806,0.849334,-7.32747,26.063,-4.89032,-7.49819,27.8491,-4.88601,-7.41243,27.8475,-4.92716,-7.58169,27.7571,-4.89669
4.33717,1.65381,4.05976,29.5688,5.5312,1.9799,29.2491,5.67842,1.97308,29.5602,5.70737,1.87137,29.0902,5.83637
3.23235,0.0697153,9.70054,31.1148,2.04853,10.2512,29.9992,1.25091,10.1034,30.3458,1.03976,9.61498,31.0566,2.39782
3.8983,0.178078,-9.57084,25.1908,3.05242,-9.12417,25.1236,3.63996,-9.89971,24.1427,3.42344,-9.69082,25.4101,3.11416
2.71686,0.148302,5.22209,19.2563,-5.74285,5.38409,20.5821,-5.7758,5.3086,20.5813,-5.78582,5.2476,20.6347,-5.80231
8.65141,0.0911859,-2.78857,13.1187,5.91088,-5.79229,12.9399,5.6952,-5.65506,12.8905,5.71977,-0.877412,13.4374,5.82266
2.1809,0.0387913,11.3464,10.0146,-1.09174,11.2977,9.31943,-0.762041,11.0657,8.25324,-0.73421,11.0723,8.16828,-0.606352
16.4858,0.0520103,-6.23329,15.3448,5.00799,-6.09233,13.6922,5.51158,-8.30314,15.851,4.64317,-5.98842,17.1142,4.63605
0.659988,0.0300853,3.85834,17.3583,-6.80168,4.0634,17.357,-6.77431,4.12115,17.0323,-6.73623,4.20072,17.4445,-6.78686
8.09655,0.282025,2.77744,32.0249,5.41316,1.5416,30.0105,5.85028,1.91057,29.8348,5.73715,2.26453,31.0627,5.43455
20.635,0.103568,-2.38692,4.82523,-5.52185,-6.05428,4.62587,-4.30829,-3.31627,4.27897,-5.31903,-6.49496,4.84955,-4.08087
2.53792,0.644025,-0.127338,7.20798,-5.23903,1.82968,7.0861,-5.13058,1.82713,6.99356,-5.10535,1.75687,6.94959,-5.12132
0.0571364,0.0229088,-0.720408,14.8129,-6.83382,-0.511072,14.8214,-6.89636,-0.74747,14.7384,-6.85714,-0.513394,14.7765,-6.89899
3.49654,0.239303,-0.511935,32.1832,-4.12068,-0.903515,32.322,-4.66671,0.708057,32.5769,-3.88939,-0.612048,32.4431,-3.87897
10.1421,0.534395,-7.19276,23.8804,-5.22078,-7.39741,25.2516,-5.1429,-7.74535,24.8481,-5.24377,-5.52261,24.2978,-6.0376
5.85302,0.166552,4.32865,19.4305,-6.1086,2.16534,19.4037,-5.9907,2.16402,19.3099,-5.98084,4.95068,19.3607,-5.91864
5.90638,0.395302,5.26602,17.9372,-5.74128,5.09219,17.6459,-6.44576,5.14702,19.2181,-5.80192,6.5178,17.6834,-5.57146
4.85514,0.116749,0.105299,25.0074,5.94556,-0.0241028,24.5501,6.353,1.83275,25.1013,6.26765,0.862124,25.1189,6.12053
15.5698,0.205443,-1.84951,34.4558,0.50839,-0.845053,34.7576,0.527421,-4.09407,34.5025,0.119094,-2.2125,34.5019,1.44283
6.18963,0.0648174,4.75553,0.167018,0.758657,5.69052,0.499256,1.25392,6.49813,0.82046,1.60849,5.20542,0.561453,1.73646
3.24245,0.227811,-5.55723,14.0681,-5.90616,-5.76786,13.53,-6.08737,-4.5654,14.0635,-6.08389,-6.03018,14.4064,-6.19726
5.18608,0.247351,7.97613,22.4143,4.68591,8.17746,21.5897,5.16147,8.35165,22.4596,4.70032,7.5941,23.1661,5.03777
7.73614,0.0156796,0.457491,13.7352,5.96884,-0.655441,13.2995,5.75605,3.54219,14.3743,6.18389,0.948764,15.1259,6.68498
1.65529,0.124061,-7.53403,30.9046,-4.729,-7.53245,30.0852,-4.88428,-8.10936,30.9976,-4.58684,-7.61479,30.0867,-4.88689
6.78099,0.269326,-0.984233,21.877,-6.41966,-0.892832,24.2429,-6.24515,-0.807704,22.9697,-6.43403,-0.973381,24.1542,-6.30418
30.758,0.659668,10.1112,7.41184,0.683591,10.6633,7.49195,1.68134,10.1533,5.15021,0.435992,11.1061,8.00643,0.0437801
8.86887,0.162857,1.59473,14.1646,-6.10208,2.8352,14.1405,-5.92181,4.58376,14.1657,-5.92891,3.99629,15.1009,-6.23725
1.81301,0.0117367,-11.6964,17.8592,0.94212,-11.7647,17.5243,0.263178,-11.7733,17.8735,0.271849,-11.6566,17.4308,1.06364
7.91659,0.248515,-3.17184,31.2995,-4.73187,-3.07668,29.6529,-4.68522,-4.14437,31.8197,-4.31743,-3.59963,32.0172,-4.35074
7.15789,0.0420308,2.95041,12.8265,6.14744,3.45063,12.9634,6.10553,-0.40986,12.6424,5.93066,-0.398927,12.9247,5.86801
33.8716,2.4834,10.1067,27.3495,-1.30264,10.8376,23.2392,-1.33219,11.126,23.0934,-1.27651,7.85704,26.7075,-3.536
18.6223,0.151328,8.85336,8.61775,-3.73304,8.40654,9.66041,-4.40951,5.25431,9.62325,-5.54841,5.28182,8.97025,-5.32254
1.78255,0.0924629,-8.16338,0.910576,-1.27123,-8.22955,0.738626,-0.0984505,-8.1541,0.735823,-0.189173,-8.3769,0.753971,-0.0545259
0.963945,0.178215,-5.56768,23.4802,6.0448,-5.91604,23.1189,6.01412,-5.85535,23.0267,5.98764,-5.5028,22.9741,6.04002
0.207748,0.141715,-1.3714,22.163,-6.65618,-1.41498,22.3524,-6.66129,-1.38814,22.3285,-6.59193,-1.50817,22.3169,-6.74428
8.88645,0.411183,8.71366,4.88619,1.75475,10.3747,6.24364,1.60511,9.4136,4.02934,1.11027,8.78697,4.66226,2.18071
1.68603,0.946326,-6.182,5.35324,-4.1385,-7.49942,5.51078,-3.3669,-7.56692,5.59975,-3.34702,-7.36117,5.33032,-3.48837
8.22476,0.0906485,7.19609,2.28326,-2.72315,9.07168,3.38803,-2.21172,8.93844,4.03412,-2.55409,9.48584,3.87919,-2.176
1.82226,0.361325,2.73828,15.9768,-6.01732,1.41816,16.1368,-6.1963,2.64509,16.4994,-6.69188,1.41086,16.0412,-6.14355
6.3245,0.39611,10.3189,29.2924,-0.452899,10.2132,28.3115,-0.970377,9.6768,29.4304,-1.46489,9.2227,28.2404,-1.73649
6.2074,0.423106,-9.59165,22.38,3.11334,-8.13993,22.2218,5.03869,-9.96751,22.6731,3.40804,-9.747,21.5723,3.38698
1.48723,0.191332,2.56384,0.989359,-3.51321,2.52955,0.653691,-2.95312,2.73709,0.68142,-2.88414,3.05054,0.839385,-3.28732
4.19555,0.170669,3.55066,34.5596,0.230937,3.86364,34.8804,-0.531715,3.25337,34.7081,0.433076,5.07397,34.5453,0.700718
4.80352,0.277889,8.1793,27.5137,-2.47001,9.17938,28.3008,-1.77887,8.45754,27.1879,-2.47207,8.03216,28.1381,-3.33908
0.173487,0.0648161,3.27103,10.9419,6.21867,3.25558,10.957,6.13587,3.16946,11.0839,6.30416,3.31105,11.1002,6.30597
26.4503,0.978115,-6.11669,22.2052,4.62029,-6.99838,22.7195,5.50947,-5.97157,19.7924,5.37464,-2.11939,21.8676,6.36876
25.1306,0.102657,4.0129,11.2347,-5.52041,6.23149,10.6874,-5.19733,7.54068,11.0902,-4.53266,1.93772,11.63,-5.65591
8.44155,1.00642,6.94389,27.9001,-4.06099,4.02742,27.4522,-4.64527,4.44793,27.8551,-4.57138,3.75769,27.2291,-4.7154
1.18994,0.210959,2.79544,6.8846,-5.01581,1.82742,6.94858,-5.11405,1.89353,7.03786,-5.10371,1.8916,6.99131,-5.09856
1.14331,0.0873394,9.90327,30.3635,0.0694335,10.2482,29.9923,0.00926293,9.98538,30.5652,-0.220885,9.84244,30.5805,0.184368
10.3778,0.363686,6.1183,14.7045,5.34114,9.00267,15.3252,4.37578,5.86536,14.1839,5.54609,8.47828,15.2095,4.67126
14.6558,0.61111,6.41436,23.7645,-4.58363,8.02773,23.7441,-4.64751,6.17992,23.5653,-5.39648,6.25057,27.3698,-4.39141
0.789841,0.0252165,2.53054,17.1528,-6.89141,2.39734,17.5167,-6.84398,2.3205,17.5197,-6.83567,2.10786,17.1114,-6.88081
1.66943,0.0839087,-11.6387,12.9723,-0.46667,-11.4549,13.2425,-2.05431,-11.4251,13.1295,-1.78434,-11.5751,13.1643,-1.53114
12.5324,0.676009,-0.486667,11.3347,5.74346,4.42924,12.0015,6.01756,4.49908,12.0464,6.01948,4.6416,12.2701,6.05298
84.775,1.70528,4.59867,6.84649,-4.68541,8.3136,6.3774,-3.49888,8.67085,7.35452,-3.49328,8.3771,8.31659,-4.08125
1.70057,0.101279,8.72785,18.4034,-4.93099,9.3439,18.3913,-4.71349,8.10029,19.0118,-5.06135,8.72852,18.1866,-5.19237
11.1261,0.117392,3.17471,3.57049,4.62235,3.79984,4.50647,4.8711,5.18855,4.11689,4.43851,5.13619,3.44565,4.2583
8.14445,0.321659,-2.48266,13.8592,-6.1576,-3.156,13.8709,-6.28991,-2.35022,15.9223,-6.45095,-2.19792,15.466,-6.51532
8.7447,0.289973,9.65127,24.3369,-2.91225,8.94299,24.5297,-3.63712,8.49365,23.9063,-4.28559,8.6339,23.3199,-4.53513
1.92338,0.133479,10.6111,27.5055,0.937289,10.3134,27.2845,1.67454,10.6542,27.9529,0.797919,10.3508,27.2268,1.67098
28.2037,0.179164,6.52474,18.9855,5.63806,2.24667,17.8067,6.35306,3.84415,17.3308,6.36418,3.05406,18.2833,6.08465
4.61517,0.322699,-0.559971,4.62792,-4.74094,-1.40511,4.86676,-5.58981,0.241195,5.22505,-4.97378,-0.205889,4.16982,-4.78293
5.1459,0.376445,-1.45309,34.3634,-1.06424,-1.76731,34.7744,-1.29867,-0.093177,34.7724,-0.729029,-1.93298,34.4371,0.314858
0.728467,0.0125868,-3.42095,2.1296,-4.37987,-3.19283,2.36537,-4.55551,-2.98093,2.4104,-4.6361,-3.13417,2.12438,-4.43757
6.62732,0.0813419,-1.55843,21.1337,6.30576,-1.61435,22.0035,6.3155,-1.84283,21.0438,6.32241,0.335134,21.1558,6.8797
2.43936,0.0635521,3.09988,9.21066,-5.91341,2.70302,9.68407,-6.1596,2.38115,10.2475,-6.30832,3.71854,9.01024,-5.72035
39.7692,0.687127,9.46065,19.5996,-4.22514,10.6925,17.3639,-3.43075,9.69636,17.0399,-4.47986,7.36516,19.1694,-5.29962
27.789,0.882891,-7.54867,3.43331,-2.21954,-8.61383,2.3602,-2.52861,-8.07361,7.28329,-3.82718,-6.27328,2.8484,-3.57017
9.24195,1.27898,7.83066,15.4937,-4.86649,9.62884,15.7574,-4.3242,9.55754,15.8143,-4.37049,9.17869,16.1611,-4.80674
32.3857,0.106428,-11.2548,24.4792,-0.764181,-11.3108,26.8499,-0.183703,-11.2181,27.1423,-0.905605,-11.3869,25.944,0.11326
15.301,0.537551,10.646,13.5466,-3.08583,9.46079,14.4518,-4.49984,9.40242,15.1354,-4.42119,10.4818,14.8422,-3.65797
61.4958,0.146655,-11.2968,23.6689,-1.12102,-11.6603,20.8335,0.831725,-11.6436,20.8266,0.683718,-11.4952,22.777,1.07543
6.4145,0.197665,7.63006,20.9173,-4.53853,6.95221,20.9925,-5.0926,6.85094,22.4217,-5.43514,7.06251,22.3654,-5.3247
6.91959,0.0647595,2.20296,32.878,-3.46844,0.213511,32.6501,-3.79982,0.616556,32.2675,-4.64968,3.03241,32.8201,-3.44594
15.6082,0.169721,5.32114,27.2497,5.23793,7.75929,26.2611,4.89129,6.95677,26.3486,5.02102,7.3558,26.8248,4.79216
9.69307,0.587297,-10.4415,10.5651,3.00281,-10.6616,11.1811,3.30638,-8.57948,10.5439,4.09481,-8.61447,10.1131,4.31425
16.7156,0.404013,-9.63213,16.2774,3.09397,-10.0237,13.9798,3.70951,-9.84239,13.7749,3.92818,-8.63056,16.122,4.69395
5.5033,0.107036,7.50597,30.9218,-2.61042,9.46926,30.5379,-1.32254,7.90148,30.1763,-2.70953,7.5547,31.2709,-2.58615
4.75834,0.265418,-10.0577,8.9686,-3.20054,-11.1223,9.63183,-2.16666,-8.74626,8.97923,-3.74153,-8.40049,8.93064,-3.8085
8.00684,0.681131,11.0862,12.2268,-1.97172,10.6583,13.6965,-3.11257,10.9055,14.5027,-2.90448,10.7755,14.2693,-3.00895
1.2299,0.000836875,8.92732,5.86291,-3.16856,6.80153,4.85183,-3.722,6.87592,4.84624,-3.66955,8.27752,5.58567,-3.36257
2.45715,0.470904,6.90512,5.73935,4.01097,8.35816,6.24064,3.48944,8.32622,6.25526,3.52471,8.15756,5.75446,3.50535
5.40136,0.148304,7.91684,33.3294,2.17378,7.49701,33.4591,2.99606,7.867,33.7477,1.76922,8.63854,33.0022,2.15488
64.4975,0.509228,0.287181,26.8082,5.84508,4.76662,27.0592,5.7376,3.28116,25.2041,6.50792,3.54833,27.527,5.32908
22.0093,0.0277764,-11.3404,14.4859,2.16155,-11.6061,15.4211,0.787593,-11.4119,15.231,2.16135,-11.5786,14.3803,0.539525
13.2863,0.436402,-1.83942,24.4238,-5.8828,-1.99509,27.6616,-5.69613,-0.142423,24.4938,-5.96954,-2.13907,24.1241,-6.46256
8.20736,0.344821,4.08708,21.2456,6.11671,4.03445,22.6083,6.28396,5.31333,20.9807,5.95023,4.54724,20.5779,6.40109
0.524313,0.0781634,5.58181,14.6305,5.72251,4.78628,14.5799,5.81716,5.07794,14.6716,5.80733,4.78682,14.5332,5.8196
0.519395,0.240351,-11.6335,14.2869,-0.393655,-11.5814,14.5771,-0.283536,-11.6309,14.3884,-0.145154,-11.5683,14.5397,-0.269004
13.0861,0.204465,0.126528,24.5333,-5.82055,0.10435,28.3964,-5.40882,-0.0782421,24.4042,-6.00982,1.43149,24.7102,-6.27663
5.48215,0.270573,-4.09854,20.9957,-6.12081,-3.28402,20.9836,-6.10187,-5.63158,20.8939,-5.2807,-5.76874,20.8005,-5.21125
10.1088,0.361848,8.94938,20.0782,4.0945,10.8763,20.1065,2.88638,8.87542,20.8508,4.64972,9.32999,17.5699,4.21256
0.218203,0.0517537,-7.13346,20.4877,-6.08213,-7.34407,20.5342,-6.05121,-7.34019,20.4884,-6.05087,-7.40514,20.3519,-6.05755
3.03679,0.410027,2.03433,24.5146,-6.10417,2.03853,23.2386,-6.11002,2.11275,23.33,-6.13744,1.93796,23.379,-6.1612
53.2439,0.0884769,4.39696,22.768,6.02911,6.61432,21.4833,5.87407,7.27889,22.1412,5.66927,6.96338,23.3035,5.58102
6.51107,0.318122,-9.39585,8.85627,3.57854,-9.80419,8.65882,3.82161,-9.65783,9.82222,4.09254,-7.91665,8.75598,4.03126
3.00179,0.263975,6.60541,7.22994,4.83612,7.90757,6.59608,4.0782,7.7504,6.76844,4.23458,7.16996,7.85791,4.93005
10.2334,0.276179,3.82158,31.0976,5.40016,8.37132,31.4477,3.49348,8.42375,31.4863,3.46489,2.76176,31.1469,5.43392
5.35966,0.173213,-7.71443,14.2905,-5.17537,-7.81542,15.4033,-5.59516,-7.70772,16.1011,-5.8404,-7.55316,16.0125,-5.9233
3.64773,0.43835,7.42139,21.1484,5.49051,8.49421,21.2378,4.98181,8.79835,20.6661,4.70032,8.79443,20.5501,4.71316
36.6959,1.01224,11.087,15.7547,-2.95083,10.1882,16.6202,-4.11986,9.4706,15.4403,-4.18296,11.084,17.7835,-3.06409
10.1474,0.439892,8.08099,32.6691,-0.0227955,7.9246,32.1795,-1.31473,7.51971,32.3499,-1.4512,9.49736,31.6673,1.72497
2.53649,0.12334,-1.72338,32.3179,-4.71472,-3.48548,32.4789,-4.26759,-3.3223,31.9702,-4.41682,-3.39742,32.0058,-4.38661
5.77457,0.29765,-4.01078,34.3294,-1.08889,-4.39212,34.5942,-0.794465,-3.79102,34.7237,-1.98314,-2.08712,34.5864,-0.491903
18.3679,0.37181,-3.01505,25.0624,5.61005,-6.19804,24.5553,5.41376,-0.489953,25.8423,6.34232,-6.23454,23.7815,5.8398
3.3527,0.263561,7.35858,33.1888,-0.144628,8.15362,33.2075,0.824678,8.12083,33.3095,0.912137,7.86763,32.8442,-0.336303
11.2368,0.101865,3.94054,24.3616,6.16186,0.758312,24.6995,6.23846,5.09057,24.1888,6.00349,0.661655,24.0852,6.40298
8.95265,0.402402,9.98496,23.3304,-2.53004,9.70662,25.7677,-2.31096,10.4327,22.9246,-3.07714,10.5185,23.3552,-1.9392
1.96674,0.00606785,-1.65727,7.32092,-5.27818,-0.197919,7.16139,-5.23978,-1.17225,7.35893,-5.30621,-0.189375,7.30433,-5.31122
1.78684,0.0197793,11.1141,22.6012,2.08149,11.3737,20.9321,2.14894,11.4659,21.8518,1.64051,11.3082,21.1301,2.21991
2.72314,0.783502,-0.66933,16.2585,-6.25327,1.34275,15.9945,-6.16993,1.35293,16.1408,-6.20709,0.277529,16.7691,-6.86389
8.24932,1.13642,1.96847,34.0224,-2.29539,-0.196823,33.5543,-3.03457,-0.250533,33.4863,-3.20555,-0.49484,33.8711,-2.87214
24.2884,0.307633,3.51172,0.292604,-0.964647,3.59505,0.841331,-3.20676,3.79703,0.823303,-3.15234,2.80627,0.682033,-2.83256
7.53323,1.20875,-6.59396,34.2164,-2.27473,-7.73914,32.5522,-3.35908,-8.31235,32.3455,-3.13565,-8.55832,32.5814,-2.98944
7.23954,0.115269,5.38482,33.1317,-2.35823,4.68359,32.7581,-3.22802,3.09429,32.798,-3.43474,3.06884,32.9851,-3.16472
7.54714,0.346857,7.21283,9.60548,4.87743,9.23758,8.19611,3.69832,9.22222,7.3652,3.51433,8.82866,8.09046,3.92975
10.9048,0.0395341,8.26788,26.4103,4.33722,9.92126,25.8818,3.29504,9.84155,25.2392,3.52903,8.67846,25.1855,4.41319
1.84509,0.347215,-1.81878,0.852843,-3.26192,-2.26938,1.32921,-3.90337,-1.78342,1.20494,-3.81493,-2.13892,1.29573,-3.85594
5.77435,0.117872,4.66259,11.473,5.75503,5.36046,10.657,5.62723,5.49235,12.178,5.96239,5.87486,10.4288,5.52874
2.02489,0.597837,2.03296,23.1006,-6.0998,1.83452,21.9106,-5.89932,1.99892,21.9099,-5.91939,1.92038,21.8633,-5.87272
1.18234,0.021152,9.11885,22.7177,-4.36646,9.5802,21.7474,-4.24368,9.37357,21.7984,-4.32306,9.44185,21.7513,-4.29795
15.6671,0.528498,-4.6348,29.2133,-4.51264,-4.47284,28.4934,-4.98251,-5.21443,30.1998,-5.11541,-1.00249,29.8678,-5.22763
7.87885,2.19394,-8.06517,10.5516,-4.1943,-10.5435,10.5551,-3.26742,-10.5892,11.0959,-3.30484,-10.4946,10.2598,-3.35029
36.9025,0.282871,9.25638,12.2313,-3.81749,9.79362,13.698,-4.10005,10.8183,11.9207,-2.38442,6.13974,12.6189,-5.41451
0.483222,0.0440672,-9.67077,31.5716,2.2366,-9.03745,31.5072,2.76187,-9.03911,31.5514,2.8119,-9.35046,31.541,2.46364
0.182035,0.00894824,9.72707,2.52336,-0.656237,9.69656,2.30429,-0.633926,9.57747,2.2862,-0.800503,9.55577,2.22013,-0.807108
0.872946,0.0347246,-10.8215,3.92079,0.586984,-10.7381,3.55026,0.442364,-10.7522,3.70167,0.563216,-10.5586,2.76433,1.00243
18.8184,0.485828,-9.55722,20.4586,3.07546,-9.83124,17.9015,3.93629,-9.75537,21.5283,3.39473,-8.45402,20.3528,4.97465
11.9191,0.0215741,-7.61268,34.4083,0.482846,-8.42998,34.1562,0.901199,-6.56449,34.4083,0.927122,-7.84497,33.9102,1.7561
5.2886,0.141078,6.51466,0.709231,-1.45281,7.1171,0.852704,-1.14261,6.99183,1.28273,-2.27077,7.37268,1.2384,-1.98158
5.24253,0.176915,-9.04644,25.7084,-4.48534,-8.82395,25.1238,-4.8155,-7.666,26.4822,-4.9749,-7.74653,26.0723,-5.00617
1.14935,0.00894504,-10.7235,4.22386,-1.45783,-10.7667,3.67792,-0.929608,-10.7521,3.68073,-0.972301,-10.8549,4.17066,-1.07805
3.76895,0.00262409,10.0442,3.90641,0.0755265,10.3729,4.98994,-0.0975426,10.1713,4.99278,0.269273,10.4838,5.99469,0.0989641
16.6872,0.205569,-8.15734,5.73186,-3.13818,-10.1777,5.14564,-2.53094,-10.3735,6.08672,-2.50146,-10.1049,5.22293,-2.54578
2.05892,0.110343,-7.24876,25.6523,-4.93582,-6.53114,25.8417,-5.38373,-7.39854,25.2947,-5.12827,-7.3315,25.9724,-4.89764
11.244,0.442428,-0.267111,2.89778,-4.15296,0.422193,2.02252,-4.17152,-1.22231,2.43824,-4.70693,1.05778,4.38301,-4.81258
1.16819,0.031167,-2.56462,18.5503,6.5909,-1.09873,19.4284,6.85256,-2.28126,18.5873,6.64193,-2.22211,18.993,6.72137
1.09552,0.217214,-9.73106,6.29298,4.17333,-10.1251,6.0479,3.8647,-10.1238,5.95569,3.86121,-10.2622,6.18649,3.84348
0.900176,0.119858,-9.05501,24.5702,-4.60998,-8.17128,24.6211,-5.13837,-8.2433,24.7579,-5.08034,-8.24678,24.5762,-5.11209
0.451211,0.0520969,-1.31498,17.6558,-6.92526,-1.45424,17.3437,-6.93833,-1.38344,17.1597,-6.9271,-1.31302,17.2047,-6.93673
8.78299,0.0638268,8.25727,12.8238,-4.53417,8.52715,15.0298,-4.88279,7.84915,14.4614,-5.34315,8.15147,14.125,-5.00494
29.5647,0.734313,-5.80982,12.1566,-5.93023,-2.41082,12.1002,-5.7072,-8.85598,12.401,-4.47256,-8.70995,12.2669,-4.56196
32.2802,3.06924,-1.60445,0.908072,2.48623,1.5705,0.95973,2.86076,2.05344,0.312927,1.65894,2.48096,0.183407,0.630524
3.52509,0.175166,-4.28436,22.1719,5.75111,-5.20421,22.1392,5.20516,-3.47343,24.5431,5.79573,-3.38604,22.42,5.90478
14.0819,0.411332,2.805,16.5431,6.0927,2.27136,16.2441,6.42522,6.70693,15.8014,5.84151,5.46207,15.9662,6.14263
3.79642,0.112658,1.9922,5.48242,4.88307,1.3767,5.15105,5.0938,1.71833,4.32315,5.08768,2.76047,5.3866,4.8998
10.2252,0.427442,5.17321,25.5212,5.56515,5.06468,26.0805,5.89186,7.76545,25.5337,5.25685,5.00523,24.9505,6.25266
7.75418,0.947931,0.391403,5.22203,-4.97341,1.2654,6.73255,-5.21875,0.304373,6.21414,-5.58016,2.17474,6.44776,-5.23171
9.27109,0.163397,10.7339,19.4124,2.25835,10.9228,20.0038,2.62676,11.5843,20.5073,1.23351,11.5967,19.4508,0.500479
9.15838,0.177227,4.9354,8.41996,-5.1814,2.2136,8.59919,-5.2843,5.7695,8.58966,-5.08963,2.51751,8.48477,-4.96058
9.75204,0.0227442,3.03531,12.8284,-6.11322,2.06476,12.8414,-6.1815,5.2501,12.6946,-5.85567,2.25362,12.235,-6.02045
1.40399,0.0135308,10.1052,6.52606,2.11151,9.86916,6.54197,2.3707,10.0994,6.14184,1.86566,10.3734,6.84977,2.10432
1.07332,0.0523255,9.67203,29.0766,2.77486,9.55292,30.0094,2.78541,9.56643,29.9325,2.77537,9.69669,30.1052,2.65245
1.27799,0.111459,9.44701,4.02087,1.07305,9.80902,3.54169,0.669095,9.93392,3.33364,0.444502,9.83633,3.44066,0.639266
2.35807,0.0663815,-5.18339,32.8542,-3.77519,-5.55979,32.4218,-3.98859,-6.35847,31.6509,-4.11739,-6.37122,31.7677,-4.013
2.64874,0.302033,2.2525,7.00564,5.25427,3.76077,6.33962,5.42017,1.87365,6.69115,5.7308,2.30689,7.35522,5.47313
11.7159,0.177513,-3.98856,18.6944,-6.87489,-5.51364,17.6547,-6.66228,-4.43462,19.3841,-6.80184,-5.45735,17.3832,-6.62742
2.65288,0.36144,7.23329,10.0689,4.82503,6.07532,10.0644,4.92948,6.06553,9.70418,4.90278,5.97815,9.92937,4.95982
2.73483,0.38409,0.0580682,28.8326,-4.62209,1.43325,27.971,-5.51645,1.15299,27.9764,-5.50467,1.3643,28.0191,-5.49064
26.0378,0.0797982,6.32508,7.99356,5.05707,2.55855,8.19762,5.73986,4.34205,7.78864,5.50846,6.23892,9.65995,4.87058
4.77627,0.349848,10.6663,22.7665,-2.81487,11.3486,20.4905,-2.53581,11.2592,20.6099,-2.62741,10.9959,20.9081,-2.95169
12.8945,0.25551,2.67934,34.2564,1.96986,2.09918,34.4996,1.97369,2.42352,34.757,0.999944,5.66038,34.3691,2.96221
3.77442,0.00589559,8.73546,23.9848,4.14826,7.96685,23.7688,4.52171,7.03762,23.9011,5.09877,8.63342,24.5639,4.37258
4.25592,1.06963,3.88419,2.83736,4.01233,1.4923,2.78134,4.40283,1.5691,2.95882,4.4288,1.65008,3.00833,4.38945
1.8202,0.167966,-1.57354,28.3303,-5.42837,-0.581644,28.5923,-5.51117,-0.86804,28.4136,-5.53117,-0.305699,28.545,-5.4815
12.6569,1.29332,-11.3516,23.8195,0.948362,-11.5331,21.9363,0.982357,-11.5272,22.2762,1.30523,-11.3831,22.5969,1.58726
5.24689,0.0816035,7.55261,13.0747,5.00486,9.40048,11.3506,4.04499,8.25011,13.5672,4.57552,9.39838,11.4346,4.03697
112.913,1.14899,-4.68979,24.0107,-6.06414,-2.41436,26.3518,-6.04278,-4.55807,28.3589,-4.99552,-5.37109,27.6035,-5.42677
11.672,0.594441,11.0581,20.4239,0.0753354,11.5847,20.7876,0.750136,11.8435,16.375,-0.804733,11.669,21.9873,-0.548363
17.4702,0.265801,8.80279,28.0602,3.20259,7.24087,27.8543,4.16303,9.79339,27.9303,2.04745,10.4095,28.2686,1.51414
2.1736,1.1055,-1.53355,12.1114,5.35978,-0.642304,13.2104,5.7606,-0.554185,12.3695,5.95303,-0.652418,13.259,5.75349
7.92368,1.2449,10.6588,17.5149,2.31574,11.6607,17.4195,-0.213996,11.6524,17.5674,0.0754798,11.6629,17.4043,-0.233989
10.3544,2.22298,-2.0582,16.4584,-6.2957,-7.53815,16.9707,-5.92763,-7.68697,17.1088,-5.94971,-7.40479,16.6961,-5.95098
14.5435,0.293061,9.4499,6.51602,2.49125,8.65881,5.11232,2.99023,8.66196,6.71333,3.47207,8.35977,5.55497,3.33372
5.76391,0.254621,8.0412,31.0474,3.80156,4.36427,30.3098,5.46456,5.19199,30.3934,5.05971,4.79724,30.0893,5.3726
4.1147,0.166306,0.0138222,34.4872,0.510647,2.01424,34.7094,1.04356,0.00215008,34.606,0.216242,-0.293764,34.7078,0.781716
7.32835,0.534223,-1.90001,11.7105,5.29936,0.568051,9.73563,6.10026,0.140984,9.92374,6.13923,-2.54505,11.8327,6.04475
1.65947,0.0783769,0.249555,11.961,-5.40613,-0.219915,12.2157,-5.80115,0.0996239,12.1961,-5.46226,-0.156293,11.8854,-5.7174
24.2986,0.0885601,-2.17569,0.516681,-2.0616,-4.21112,0.572042,-0.845298,0.0981146,0.414429,-1.71332,-0.0574887,0.528823,-2.48885
0.00396414,0.0466712,-4.92817,18.1361,6.20735,-4.98964,18.2314,6.28515,-4.92839,18.1887,6.28282,-5.06117,18.2322,6.2664
0.756821,0.0401702,0.603313,15.1329,6.64448,0.110079,15.2739,6.67378,0.68373,15.4017,6.68523,0.0413178,15.4556,6.67159
2.34794,0.333353,8.29219,0.907944,0.55812,8.64675,1.1965,-0.342193,8.40425,1.08732,-0.302905,8.33637,1.04056,-0.344991
3.22953,0.300324,-0.741439,33.6429,-3.09903,-0.538853,32.4667,-3.83729,-0.692718,32.6244,-3.79585,-0.386694,32.5259,-3.79798
5.13324,0.0303593,3.5619,6.86612,-4.84704,3.38199,7.56924,-5.16943,4.1886,6.94737,-4.80614,2.86767,6.9765,-5.03544
6.22363,0.305446,-4.56436,32.7837,-3.42862,-5.06525,33.475,-3.45461,-4.6866,32.6028,-3.85283,-2.51629,33.1912,-3.52951
2.10162,0.398579,8.81932,26.1189,-2.8376,7.31855,25.9648,-3.67695,7.31029,26.0053,-3.65888,7.39265,25.9214,-3.68278
0.948585,0.0558511,-10.2291,7.59008,-3.05719,-10.343,7.28111,-2.93222,-10.2198,8.05471,-3.26279,-10.6436,7.624,-2.59553
1.74287,0.0229076,-0.822586,33.79,-3.01064,-0.883536,34.8503,-2.27548,-0.952592,34.8738,-2.2398,-0.768773,34.2153,-2.72202
3.81843,0.219722,-3.24274,15.8161,6.02982,-5.07487,15.6571,5.45201,-5.93797,15.6094,5.06309,-5.87002,15.6965,5.08593
51.268,0.100903,1.43238,3.03106,-4.44278,5.0122,2.07494,-3.65398,4.53782,3.81647,-4.46888,5.4684,2.90922,-3.99688
29.2502,0.910375,3.72125,13.0205,5.91455,3.87418,15.0182,6.20086,7.22686,13.3203,5.36776,4.93046,14.7588,5.84383
15.4452,0.368343,8.71964,10.5197,4.09148,10.0945,10.7216,3.08789,10.5476,9.52566,2.64572,10.9094,10.9717,2.1568
1.20151,0.0313962,-11.6672,20.5181,0.204827,-11.7591,19.6556,0.274978,-11.7426,19.5949,0.133596,-11.6838,20.1072,-0.0712473
1.63416,0.82668,-7.40188,10.3286,-4.58606,-6.45421,10.1633,-5.20311,-6.51449,10.3083,-5.20165,-6.66726,9.76141,-5.31565
4.93718,0.117748,4.60105,26.3164,-5.03759,4.11854,25.697,-5.48448,5.97308,26.377,-4.67015,4.24933,26.6023,-5.21963
0.162272,0.0259653,-5.0431,3.56365,5.12066,-5.47298,3.53078,5.01382,-5.46902,3.57488,5.01808,-5.3906,3.62175,5.04537
0.0718229,0.108576,3.62697,31.882,5.43726,3.55421,31.7554,5.42465,3.50074,31.7511,5.43366,3.62445,31.7415,5.43634
8.11393,0.0107432,7.4084,29.2247,-3.24802,8.71556,29.973,-2.14901,9.2345,29.8738,-1.82116,8.33603,28.5694,-2.77319
3.97476,0.382438,-4.85715,33.7424,1.12834,-4.58997,34.6415,-0.200477,-5.2936,34.1101,1.45486,-4.51019,34.6126,-0.16481
1.6718,0.0171502,-9.98952,1.41879,-0.476204,-10.2069,2.14818,-0.874602,-10.1016,2.08139,-1.08098,-10.1433,2.17733,-1.08944
6.35189,0.386842,-5.45769,6.92523,4.93449,-1.15955,7.06153,6.02395,-1.64237,6.71496,5.86694,-1.97072,6.86346,5.7469
11.2714,0.517575,-11.514,21.3261,1.83451,-11.6823,19.0179,1.68209,-11.5989,19.6596,1.55271,-11.5421,21.698,1.2265


