
0.720927,0.136615,-7.9275,27.771,-4.22277,-7.26666,28.371,-4.19422,-7.14867,28.3456,-4.26177,-7.12549,28.4096,-4.22023
1.73147,0.202396,0.186547,19.4639,-7.47225,0.264366,20.4263,-7.49026,0.341158,20.4334,-7.4918,0.145502,20.1927,-7.53216
3.097,0.252943,-8.73733,21.6482,6.43068,-8.57574,23.2767,5.22358,-8.7642,23.2561,5.26865,-8.58506,23.5593,4.95863
1.39659,0.00821576,11.6044,2.92227,-0.0430141,11.5582,3.72873,1.24139,11.6133,2.98759,0.300929,11.5808,3.4716,1.0821
0.234387,0.0188748,0.209352,13.3364,7.64126,-0.0305786,13.0342,7.67293,-0.178885,13.0696,7.66304,-0.185474,13.1129,7.65927
146.001,0.349191,8.22821,1.1053,0.0378485,5.15145,0.821142,0.625704,5.30495,0.881696,-1.69744,7.24438,1.29448,-2.7833
4.6199,0.381333,3.09402,2.48087,-4.75494,1.46911,1.32995,-3.55637,1.1391,0.960646,-2.87871,1.18481,0.966146,-2.88357
4.77558,0.915082,-5.19639,17.9929,6.50683,-5.47056,17.1349,7.4348,-3.74689,17.9008,6.71788,-5.40065,17.1432,7.39485
0.163138,0.017946,-12.359,13.1285,3.93036,-12.3201,13.2707,4.01154,-12.2859,13.2571,4.09615,-12.2954,13.1302,4.04394
25.0626,0.179347,6.4048,15.17,-6.81043,4.05443,15.3917,-7.52199,3.88481,18.0549,-7.26509,7.86072,15.3922,-6.62967
39.9079,0.302673,-1.71717,8.54721,6.81612,-1.4248,4.8037,6.15083,-2.20737,5.46071,6.17031,-0.804428,6.24957,6.68563
2.0893,0.0522816,0.466511,29.9132,2.00339,1.05344,29.9108,2.07443,1.6408,30.0471,1.63161,2.12752,29.9655,1.77792
6.47642,0.327774,0.373679,24.5438,-6.07989,0.151922,25.5472,-5.95807,1.95845,24.7707,-6.76194,0.0328065,24.3239,-6.4523
4.85459,0.399614,11.1366,24.3253,-1.72772,11.3227,24.6983,-2.13638,12.0988,23.2058,-1.58385,11.7973,24.6858,-0.201555
8.01678,1.02281,10.5002,21.6575,4.42155,12.2903,21.8549,3.19445,12.1759,21.9174,3.39982,11.5851,22.85,4.35038
5.51832,0.431659,-3.835,21.7019,-6.38146,-4.23886,22.1683,-6.78062,-2.40832,21.902,-6.64612,-3.80528,20.7661,-6.98097
2.43404,0.0609594,7.56697,17.7254,6.41401,8.33257,17.621,6.58456,6.90441,17.8469,6.37683,8.50782,17.8665,6.55446
5.37022,0.371084,7.27376,19.9388,-5.80987,7.41685,21.2307,-5.80054,6.94441,19.8977,-6.30079,8.76135,19.913,-5.84336
5.62237,0.274913,9.32454,20.8288,-4.77629,10.3456,21.3456,-3.65892,9.63949,20.3709,-4.72278,9.42662,21.0763,-5.17895
0.00131273,0.00315787,6.64966,13.91,6.62815,6.57936,13.918,6.64757,6.64577,13.9524,6.61298,6.59084,13.8738,6.65706
38.7302,0.77861,8.68664,17.1121,-4.91727,7.16342,17.9221,-6.62554,4.91161,16.718,-7.41412,6.04169,16.8887,-6.9362
0.0196888,0.0211732,4.77117,16.9156,7.40176,4.80483,16.929,7.34427,4.79575,16.9746,7.28186,4.75866,16.9895,7.38213
11.0304,0.700886,-8.64463,25.2767,3.42424,-8.95978,24.9641,4.06035,-7.02472,25.3798,4.21227,-9.45529,26.7523,4.95371
1.20231,0.0999948,9.77305,19.5083,4.93634,9.70128,19.6976,5.06249,10.3173,19.4423,4.71113,9.6433,19.1969,5.21807
0.0480475,0.0103326,6.40056,12.1044,6.68842,6.46811,12.0293,6.66559,6.53126,12.0729,6.65029,6.52599,12.1221,6.65917
3.08931,0.254514,10.0101,23.4714,-3.83043,10.3885,22.8112,-3.96546,11.2652,24.0512,-3.08721,11.3177,24.0058,-3.05354
5.45088,0.0417835,-12.0477,28.2071,0.0910875,-11.739,28.4239,-1.70213,-11.9874,27.6194,-1.07919,-11.9017,27.823,-1.42374
11.8656,0.0647772,-0.345571,23.1053,6.54171,-0.459155,21.5294,6.94054,1.59876,22.3725,6.8711,-1.85774,23.5536,6.42962
5.3492,0.352899,12.2249,17.8971,3.03461,11.0547,17.7648,4.5795,11.2775,17.6941,4.30773,10.8409,17.8972,4.89961
1.11412,0.0292278,4.91202,30.123,-1.46079,3.88432,29.9174,-1.63382,4.22249,29.9778,-1.66536,3.88379,29.9186,-1.68044
1.60908,0.00897984,5.74872,24.2435,-5.35284,7.22927,24.2339,-5.21819,7.30101,24.1407,-5.21315,6.73544,24.296,-5.25943
2.0184,0.0807766,-5.84386,23.9073,-6.26684,-4.98167,23.6169,-6.52815,-5.1611,23.2351,-6.6008,-4.93268,23.9909,-6.44149
75.823,0.228329,0.81849,11.5194,-7.58654,3.33704,14.6166,-7.6982,4.29294,13.5706,-7.54397,3.34521,14.4789,-7.69054
3.94291,0.348227,4.815,27.2056,-4.24045,4.68959,26.6442,-5.0462,4.78578,28.0114,-4.45194,5.49607,27.2393,-4.10336
0.00432306,0.00574148,-6.84075,23.5531,-6.04907,-6.92434,23.6427,-6.0005,-6.85601,23.6458,-6.0239,-6.92596,23.6069,-6.01001
3.09981,0.161819,1.09616,17.874,6.81368,0.994798,18.0016,6.9336,1.18405,17.463,7.35991,2.91283,17.777,6.84774
9.32405,0.325695,5.21842,21.5782,-5.88251,5.2875,22.3016,-5.97754,5.2865,20.9603,-6.42346,6.84913,21.6599,-5.82672
1.94687,0.0752289,-12.3008,12.0348,4.12303,-12.6987,11.9146,3.13252,-12.5559,12.1851,3.56136,-12.695,12.0514,3.13484
0.80361,0.0312258,-1.02928,22.4298,-6.55683,-0.586845,22.44,-6.83446,-0.165803,22.6782,-7.03205,-0.297715,22.4927,-6.9859
3.22924,0.0323608,9.65687,14.7702,4.75789,10.9092,14.7721,3.94487,8.96888,14.6522,5.15279,10.8496,14.8877,3.97454
0.290281,0.068727,-6.78044,28.2482,5.27455,-6.72678,28.0281,5.38553,-6.49158,28.0474,5.45665,-6.7758,27.9786,5.4088
12.433,1.14775,-0.505261,26.3641,5.3453,1.21327,26.3817,5.9998,-0.32509,23.565,6.44977,-0.445125,23.3258,6.51315
9.06144,3.17498,-4.23153,26.1762,6.37961,-6.83991,23.634,6.14446,-6.9416,25.4322,4.26322,-6.92546,25.3512,4.29295
0.868472,0.0446149,5.36572,8.33428,-7.01008,5.77429,8.54,-6.93642,5.4898,8.61934,-7.03833,5.76762,8.63056,-6.94588
4.58033,0.0193325,11.6067,12.5236,3.78859,10.4472,11.0164,4.77739,10.989,11.1122,4.22803,11.0815,10.2179,3.98391
0.0941865,0.00992824,-9.06821,3.19543,-4.86167,-8.77212,3.20654,-4.96993,-8.9209,3.28947,-4.94478,-8.7689,3.2548,-4.99024
0.819762,0.0105098,-12.6181,13.2676,3.22407,-12.8732,13.0796,2.20504,-12.8617,13.0065,2.24334,-12.602,13.0719,3.31024
10.5564,0.146054,-5.53798,5.908,6.31312,-4.18268,4.61629,5.98846,-4.45585,4.07951,5.81075,-5.91171,4.76532,6.08402
8.42219,0.145099,10.2636,26.8954,-2.96201,9.36637,26.4606,-3.31669,11.7387,27.2488,-1.63987,10.9621,27.1605,-2.27783
2.57666,1.06986,3.82224,29.9297,-1.58313,2.04304,29.641,-1.74638,1.98399,29.6947,-1.61897,2.04468,29.6478,-1.70057
1.46972,1.39819,12.6347,20.6631,-0.433347,12.3841,19.291,-0.838218,12.3593,19.2816,-0.702853,12.3634,19.2882,-0.796272
8.10211,0.249158,-0.448345,28.0752,-4.36159,1.49728,28.6326,-4.71161,-0.807085,28.2703,-4.17079,-1.03128,28.2403,-4.94623
8.85657,0.123607,3.56352,16.5095,7.63143,1.2246,15.6809,7.73849,1.81746,16.2443,7.73922,1.78558,16.6539,7.73486
0.0303836,0.0106316,-11.4707,29.5356,-0.228648,-11.5458,29.4996,-0.103239,-11.5414,29.4959,-0.147484,-11.5066,29.5466,-0.056546
0.545807,0.0110884,8.51243,15.6184,-6.22849,8.38411,16.2228,-5.88405,8.77046,15.7421,-6.02338,8.44743,16.2811,-5.81044
7.49758,0.51496,-4.40954,18.845,6.79903,-4.29479,19.6407,6.97602,-1.74235,18.9236,7.15742,-1.38877,18.9586,7.11674
0.00884583,0.0319642,-2.38843,7.9996,6.63503,-2.42469,8.04542,6.70082,-2.41286,7.99173,6.69354,-2.42008,8.01517,6.67892
14.2475,0.551961,6.47662,21.3365,5.36016,8.12341,21.2254,5.2643,6.36092,21.558,5.98379,6.82404,17.9304,6.39724
3.16512,0.0362872,0.706044,30.3439,-2.50526,0.48963,30.6567,-1.47671,0.284341,30.6754,-1.24234,0.723584,30.4697,-2.12992
1.82028,0.20739,5.5495,1.02075,-2.50849,5.2209,0.883968,-2.02926,5.22154,0.974392,-2.22787,5.66097,1.06795,-1.92834
1.61311,0.0805976,-10.9209,1.31557,1.00722,-11.3207,1.40294,1.29081,-10.9406,1.16143,0.569749,-10.651,1.19784,1.31047
0.178827,0.12812,5.95844,26.2398,5.86996,5.97848,26.0702,5.88401,5.84577,26.0499,5.92654,5.70189,25.9884,5.93413
1.54652,0.173831,9.12783,21.187,4.90479,9.83328,21.3508,4.60992,9.72198,21.219,4.63952,10.349,21.5426,4.51596
21.6044,0.737915,8.61511,24.4958,4.37039,9.53224,23.9808,5.08252,10.3202,26.3622,4.0955,10.7599,25.2532,4.33002
2.25061,0.0778214,-4.21605,25.5767,6.5101,-4.36501,24.6017,6.10734,-4.52052,24.6466,6.19586,-4.37655,24.6539,6.13294
4.96342,0.498643,-6.91414,24.4709,-5.03241,-7.73955,24.548,-5.46299,-6.52832,23.8564,-5.87012,-5.96256,25.5224,-5.22676
2.65025,0.356597,-1.04841,20.5783,-6.89158,0.0231849,20.8382,-7.33673,0.18027,20.66,-7.4266,-0.168201,21.427,-7.30134
2.26939,0.293842,11.0295,27.7754,0.966021,11.2032,27.0639,1.03876,11.2308,27.8635,0.317505,11.4644,28.1116,1.29538
4.87056,0.168623,1.54001,20.7161,6.51724,2.5168,20.905,6.48066,-0.905447,20.5272,6.0901,0.191178,20.6756,6.23006
9.68918,0.563202,6.09089,20.3388,6.42277,2.5263,20.8102,6.47735,3.7012,20.2431,6.65079,3.77687,20.3819,6.45278
2.27216,0.186995,1.93215,17.5525,-7.1358,2.02001,18.6948,-7.22724,2.16606,18.7494,-7.14087,1.68233,17.3817,-7.50386
24.0008,0.582975,6.2617,1.03709,2.36731,6.03319,0.808126,0.793472,5.40333,0.784612,1.01786,6.49581,0.919218,0.217938
4.79524,0.386205,11.4404,16.5895,-2.51057,10.2124,16.6757,-3.93524,10.6536,16.0789,-4.23887,10.1221,16.7195,-4.05271
3.16927,0.0758378,5.55986,18.7215,6.89852,3.47263,18.8819,6.98476,3.36957,18.6436,7.05046,6.37469,18.849,6.7116
5.61639,0.1803,0.713446,15.6032,-7.30337,0.434891,15.5363,-7.44977,0.88028,17.1527,-7.71106,1.80613,15.4631,-7.57474
0.542683,0.196481,-12.4742,16.4681,3.23548,-12.5348,16.8854,2.79561,-12.5997,16.8209,2.57915,-12.5667,16.815,2.66216
2.96186,0.619988,9.32522,22.0212,-4.13211,10.3415,21.5766,-3.54119,9.90231,23.1251,-4.51412,9.61191,21.549,-4.82658
0.887309,0.553974,-9.55698,13.2841,6.54243,-10.3684,13.664,5.99749,-10.4462,13.5198,5.93172,-10.5229,13.4675,5.90216
0.817991,0.130178,-9.50403,12.6527,-5.51598,-9.48198,12.3311,-5.56326,-8.87917,12.1207,-5.85611,-9.97379,12.6871,-5.21067
0.131462,0.0633379,-6.98368,17.1263,7.16574,-6.74117,17.2443,7.27919,-6.75006,17.2879,7.27267,-6.7496,17.3327,7.26832
6.74811,0.239993,-12.6287,7.32363,-0.91044,-12.8594,8.89989,1.13456,-12.8544,8.83031,0.936265,-12.8901,8.47843,1.14094
4.01097,0.0846336,-7.48703,23.5294,-5.89761,-7.54331,21.1853,-5.8336,-7.53977,21.14,-5.83089,-7.34456,21.1489,-5.83834
0.00713928,0.0113591,-5.12163,27.1645,6.18816,-5.01744,27.2617,6.19158,-5.17846,27.238,6.15285,-5.09891,27.2666,6.1649
1.29224,0.0637617,4.0874,29.6764,-2.86805,4.70841,29.8258,-2.79981,5.45983,29.9374,-2.68189,5.52512,29.9085,-2.7691
3.73117,0.155892,-0.188455,14.2076,6.84307,3.86052,14.1367,6.81342,1.50317,14.428,6.77755,1.51132,14.3293,6.76252
0.0341434,0.0108955,1.50386,8.14598,-7.22263,1.38356,8.26236,-7.267,1.38536,8.2185,-7.25755,1.44788,8.13231,-7.23483
16.4274,0.899254,-9.78353,18.5631,4.68713,-8.97588,19.6045,5.77521,-6.08681,15.2832,7.41571,-10.7704,18.3664,5.33452
112.379,5.27814,-4.00545,10.9397,7.32748,-4.48528,4.95389,6.06952,-3.17992,4.71741,5.99255,-2.89041,4.65574,5.98562
5.98929,0.11427,7.08611,28.7872,-3.04807,8.52676,29.0097,-2.85833,6.84495,28.407,-3.85589,7.39152,28.3063,-3.99023
6.86307,0.537155,-4.07665,23.2722,-5.94353,-4.41792,22.6757,-6.65201,-4.656,23.9644,-6.38667,-2.25354,23.5747,-6.29054
2.4931,0.130361,10.3711,26.6862,3.82963,9.47108,26.7364,4.01891,9.86806,27.2342,4.12032,10.6722,26.7693,3.6119
4.69657,0.186327,1.88901,20.7227,-6.84297,2.41462,20.6851,-7.17925,1.26264,21.2159,-6.4133,0.695372,21.1583,-7.09207
6.99688,0.129788,-1.08732,16.4634,7.70332,-1.00476,17.6677,7.29266,-0.95389,15.9257,7.71161,1.1528,16.5933,7.78833
8.42804,0.320117,0.180922,25.8464,-5.47501,-0.235302,25.7724,-5.74729,1.47828,26.1678,-5.98632,0.24656,28.2157,-5.23496
9.45495,0.188623,12.4146,18.6091,2.45142,11.8845,21.0236,2.57609,11.092,18.3193,4.70307,12.076,18.5943,3.2491
0.211951,0.0155806,2.51958,9.36854,-7.36503,2.5218,9.0528,-7.31544,2.40081,8.99809,-7.32007,2.46084,9.00693,-7.31399
3.94665,0.0515359,-11.8203,4.45114,3.46591,-12.3179,4.62425,2.42531,-12.1657,4.25659,2.74049,-12.3985,5.04512,2.29045
0.353833,0.0102755,-7.72378,4.35007,5.8908,-7.36216,4.70704,6.07403,-7.43811,4.74328,6.07504,-7.58506,4.41051,5.92547
2.80702,0.00385034,4.86276,18.5944,-6.44321,7.11113,18.3934,-6.22371,6.90024,18.3402,-6.23348,6.18289,18.3462,-6.29385
2.91471,0.0334271,-5.27619,23.0814,7.06733,-6.00725,23.3389,6.80957,-5.89781,22.1477,7.09379,-7.20774,22.0802,6.80985
6.6187,0.0655825,0.022342,17.7301,-7.17022,0.0997186,18.0079,-7.17935,1.53737,17.7424,-7.46023,0.106008,19.4588,-7.49295
11.8645,0.0339273,2.90955,9.92897,7.17557,3.17987,10.9207,7.2766,4.03805,9.59379,6.90939,4.40365,10.2616,6.97298
4.4425,0.509787,-5.33841,13.9314,6.88667,-7.74035,13.7466,6.75308,-7.96792,13.8101,6.70119,-7.98162,13.8971,6.70956
0.669468,0.365353,-11.9449,23.2002,3.69339,-12.1109,23.2112,3.18733,-12.1207,23.0001,3.18717,-12.118,23.0688,3.18694
0.594613,0.01381,-7.93945,3.21718,5.38234,-7.26262,3.10498,5.43714,-6.90981,3.182,5.51451,-6.89696,3.14291,5.49981
4.95099,0.16423,4.93599,14.486,6.35311,1.58404,14.3354,6.76368,2.3555,14.4625,6.72106,1.57316,14.4337,6.77895
7.1756,0.490415,3.17207,26.1192,5.17982,3.31489,23.738,6.05558,3.22991,23.7288,6.04112,3.10826,24.4556,5.91308
0,0.00258705,4.71814,23.4113,-6.42598,4.65636,23.4289,-6.4231,4.6565,23.4381,-6.42543,4.73462,23.446,-6.44009
0.267431,0.0376998,7.19656,1.15609,1.25379,7.32207,1.25065,1.38042,7.21308,1.24422,1.4181,7.36445,1.19336,1.29171
3.74893,0.246223,9.66668,20.3799,-4.30451,9.63627,20.7617,-4.48878,11.2192,19.9387,-3.1275,9.97201,19.6969,-4.88172
5.83534,0.534797,-1.61462,17.4088,-7.35796,-1.54367,15.8655,-7.12707,-1.91842,15.8492,-7.16609,-1.92586,15.8927,-7.15766
2.01096,0.000277987,-7.30317,0.878414,-1.75953,-7.49292,1.08453,-2.43972,-7.05049,1.10678,-2.72669,-7.29114,1.16383,-2.82783
15.2032,0.135262,6.24166,29.5503,-2.27218,6.26452,29.4865,-2.85837,5.12639,30.1197,-1.28321,8.50995,29.6953,-1.81384
10.0227,0.11229,-12.3457,24.0093,1.63777,-11.9061,26.8479,2.47632,-11.7809,25.9392,3.21541,-12.189,26.1229,1.3823
3.41523,0.192951,6.50875,26.2583,5.07488,6.74313,26.1413,5.11905,6.6058,27.827,5.31442,6.2497,26.1372,5.56103
192.656,0.769951,-8.09849,1.17049,-2.48277,-8.79387,0.953817,2.22948,-9.78969,1.06701,1.65436,-7.65189,0.893572,2.56047
8.70703,0.308106,2.32824,15.5533,-7.12105,2.39381,16.0523,-7.27536,3.77708,15.3775,-7.6019,1.8804,14.448,-7.81344
13.4776,0.551428,-6.50302,6.09007,6.27629,-6.84223,8.35622,6.73845,-7.69505,8.63743,6.64188,-7.45467,8.43307,6.60262
0.0121134,0.0458618,-9.74485,24.3658,5.47073,-9.88714,24.373,5.41141,-9.89247,24.3951,5.40831,-9.84715,24.3972,5.41191
17.1493,0.0826541,3.82387,28.3967,-4.08572,4.86527,28.672,-4.17429,4.43304,28.1731,-4.73637,3.53081,29.9032,-2.02741
11.7045,0.00653932,-11.6468,21.5006,4.16756,-12.488,21.8671,1.57296,-12.2562,22.3644,2.43494,-11.757,21.9029,3.93032
162.483,0.373969,2.51239,0.728227,2.49766,-0.479669,0.25536,1.08629,-0.737427,0.161972,0.376104,0.23805,0.375945,-1.20101
0.548079,0.00162899,-12.0327,27.6166,1.58997,-12.1219,27.5581,1.05387,-12.0911,27.6868,1.09283,-12.0517,27.7608,1.26851
5.41587,0.0790073,-12.0777,20.6173,3.31374,-11.7876,19.8611,4.08985,-11.7252,20.6161,4.08208,-11.7369,19.3819,4.25099
1.37861,0.269019,-6.65168,4.70494,-5.86896,-7.23672,4.77426,-5.7483,-7.454,4.94332,-5.79024,-7.0748,4.45724,-5.74111
2.79118,0.446963,11.8738,21.1666,2.57632,12.1984,21.5761,3.15978,12.8796,21.2889,1.59775,12.886,21.2176,1.5491
9.76582,0.0813833,-4.42908,16.7144,-6.37631,-4.21195,18.877,-6.68353,-2.02478,16.977,-7.38622,-4.13791,18.8306,-6.70846
4.80049,0.341539,9.22442,27.729,-2.78548,8.96907,27.9021,-3.4252,10.106,27.6768,-2.93964,9.17645,28.576,-2.05518
4.50743,0.296287,9.65356,2.24267,2.77908,10.2895,3.07,2.90585,11.6089,4.17979,1.45441,7.47919,1.14108,1.32582
4.08774,0.138208,-3.90452,29.6299,-1.99107,-1.23577,30.3465,-2.04913,-3.75356,29.5306,-2.20269,-4.27844,30.17,-1.86223
5.49634,0.0783503,7.87602,18.3943,-6.08629,9.25947,18.338,-5.72333,9.06765,17.6939,-5.47469,6.82258,18.5631,-6.26518
7.88927,0.37983,-2.54543,18.2945,7.15774,-6.93807,18.5589,6.36894,-7.56126,18.6821,6.21381,-7.47374,18.5506,6.21777
10.4159,0.259449,1.48195,19.4266,6.67191,3.56745,19.3085,6.9118,1.59717,20.4465,6.66629,5.99147,19.3138,6.84065
1.25795,0.130748,3.90977,20.3408,-7.22518,2.85073,20.5696,-7.22516,3.12999,20.9808,-6.69443,3.35274,20.8895,-6.79197
7.2593,0.0267601,3.43584,2.06108,-4.34548,4.5772,2.32325,-4.64562,5.41123,2.10293,-4.39186,4.21935,1.86605,-4.15933
12.1472,0.255724,-2.68426,14.3151,-7.78722,-1.01155,14.5304,-7.9029,-1.06959,14.3901,-7.90351,-0.81001,13.4426,-7.84988
11.371,0.180723,5.42248,23.3245,-5.99365,5.3265,24.6306,-5.51232,5.33991,22.3182,-5.93313,5.11754,25.0139,-5.89735
1.11699,0.040317,-2.8371,22.7206,7.19488,-2.67747,22.1007,7.27931,-2.5719,22.423,7.25609,-2.6088,22.0998,7.29488
3.209,0.347994,6.26465,28.6437,-3.15726,6.16316,28.641,-3.80377,5.85699,29.4421,-3.14978,7.01931,28.7418,-3.08352
0.0929944,0.00118812,8.85346,8.4635,-5.73686,8.39708,8.3838,-5.98327,8.31388,8.42489,-6.04246,8.71635,8.40534,-5.80128
12.7741,0.101386,-1.56863,12.2392,7.51391,0.0345443,11.25,7.5053,-1.55621,10.9082,7.32051,-2.03162,11.5963,7.44245
2.04236,0.0732601,-7.07376,0.777478,-1.27946,-7.5212,0.784261,-1.1638,-7.76744,0.925901,-1.45775,-7.56293,0.920797,-1.63759
4.06532,0.242533,-2.93893,29.1109,-3.31311,-1.2976,29.4935,-3.27365,-3.25464,29.5022,-3.18714,-2.81965,28.9262,-3.9614
1.92008,0.258221,-8.04734,13.8495,6.69158,-9.12819,13.7008,6.66826,-9.29113,13.7718,6.6333,-9.37578,13.9487,6.6285
19.0181,0.169744,-5.74042,0.682491,1.96882,-6.66875,0.421728,0.0575486,-5.84361,0.305798,0.628706,-6.92567,0.691245,1.26603
0,0.025776,-7.19326,15.4753,7.27902,-7.13452,15.5003,7.29957,-7.19695,15.4674,7.3121,-7.12697,15.4572,7.32285
7.57022,1.21332,-0.908877,30.1792,-2.29325,-0.584659,28.2274,-4.16907,-0.813145,28.3129,-4.13724,-0.649015,28.2209,-4.16948
2.94812,0.296808,-1.97426,22.2233,-6.14851,-2.01821,23.049,-6.21712,-2.24307,22.0046,-6.48036,-1.02443,22.3792,-6.56941
0.579648,0.00512048,-1.07421,30.7284,-1.24581,-0.741283,30.5732,-1.815,-0.80611,30.6472,-1.60426,-0.816372,30.5527,-1.80701
3.22996,0.210866,8.10189,19.058,5.28696,9.05002,20.188,5.07374,8.03998,19.1656,6.12513,8.27427,18.8959,5.28367
0.0240041,0.000788583,5.70293,12.6413,-7.27975,5.64044,12.6243,-7.2731,5.70564,12.5538,-7.27182,5.6451,12.5704,-7.26799
3.38849,0.298039,8.88727,26.3757,-3.53028,9.70104,25.3501,-3.94281,9.34577,26.5182,-3.31853,8.756,26.7922,-3.92314
3.23847,0.0592993,1.01816,0.999627,-3.00297,0.430674,0.457357,-1.73426,0.369042,0.615589,-2.22752,0.371865,0.472518,-1.79697
1.30371,0.426686,9.4977,2.78428,-3.38497,9.51415,2.21471,-2.83805,9.74304,2.25633,-2.75969,9.60459,2.25359,-2.81032
7.06178,0.460127,-4.58651,24.1206,5.88017,-4.58285,24.5787,6.163,-1.9249,23.5015,6.44521,-4.98992,23.8927,6.56008
0.842216,0.163843,9.11377,20.1862,5.04321,9.82761,20.9687,4.81626,9.69724,21.0243,4.82293,9.7448,20.8315,4.87866
4.11097,0.295524,1.63065,29.5904,-1.75855,1.79905,29.811,-2.71524,1.17499,30.4586,-1.53749,1.98093,29.6638,-1.65311
0.682706,0.0126428,-9.09425,21.2584,-5.60336,-9.41108,21.3024,-5.43848,-9.78511,21.5201,-5.21544,-9.7225,21.6149,-5.24384
4.62847,0.328194,7.21541,21.5632,-5.40058,6.96747,21.5252,-5.82326,7.38511,22.6268,-5.39699,8.54978,21.6709,-5.39639
10.4142,0.272596,-0.266155,14.2966,6.83694,-3.90971,14.1192,6.93184,-5.56678,13.4576,7.23585,-5.27314,13.9866,6.88884
3.37381,0.00982504,-12.0716,18.4389,3.64641,-12.0732,17.754,3.82175,-11.8984,17.6826,4.27633,-12.1174,18.0989,3.60871
5.06468,0.514586,5.67727,29.7136,-1.27608,7.29434,29.9254,-1.50473,8.62156,29.978,-0.695223,8.49662,30.0251,-0.613482
1.47625,0.162069,0.556244,22.305,-7.0057,0.828342,22.1504,-6.65694,1.10135,22.8751,-7.0962,0.826096,22.9497,-7.19439
28.7309,0.836416,-1.59358,28.0393,-5.10217,-1.57223,25.4463,-5.55166,-0.177008,24.5029,-6.32687,-1.58499,24.168,-6.24463
5.71348,0.199418,12.4987,22.417,0.867374,12.755,20.696,0.54804,12.7213,20.3601,0.148063,12.8191,19.997,0.737328
4.84639,0.309966,-12.8574,8.90303,1.18424,-12.6237,10.2233,3.36637,-12.574,10.4982,3.58,-12.527,9.99345,3.69365
11.3929,0.0758827,-1.09349,18.8948,6.87611,-0.965762,18.267,7.08562,-1.00789,20.3786,6.18584,0.931148,18.9585,7.22432
7.08303,0.536203,-9.39585,16.1429,-4.64938,-9.80302,15.1776,-5.22619,-7.74676,16.2116,-5.91646,-9.99347,16.8852,-4.86468
2.29298,0.333449,7.38342,22.6694,-5.40249,7.39651,23.3558,-5.47673,7.58986,23.8827,-5.29123,7.61052,23.7874,-5.33808
3.78376,0.228711,-4.88576,16.1989,-6.36878,-4.60797,16.5257,-6.48919,-3.57836,14.6504,-7.53546,-5.29742,16.1647,-6.60183
9.54572,0.211718,-4.55534,20.1669,6.35274,-1.56579,20.0877,6.85585,-1.2523,19.9946,6.61933,-5.16253,20.0624,6.65467
4.22783,0.0240455,-1.8385,16.893,7.75948,-1.37608,16.6186,7.78441,-1.32933,16.1174,7.77743,-1.62572,16.1345,7.77449
0.660426,0.0163566,12.4066,11.2104,1.80254,12.5631,11.4852,1.38378,12.553,11.2885,1.42142,12.5734,11.2264,1.37952
5.31586,1.43658,11.7955,14.5493,-0.285107,12.408,16.8363,-0.0699712,12.4298,16.766,-0.112988,12.3651,17.0298,0.115834
6.0903,0.3217,-1.49784,3.89534,-6.26579,-2.6498,4.29295,-6.31044,-2.39418,5.52802,-6.73742,-2.47558,5.97886,-6.83017
0.538973,0.191158,-12.2007,26.1857,1.15016,-12.1954,26.5437,1.10845,-12.1639,26.4695,1.2819,-12.174,26.4648,1.43113
0.935036,0.010854,-1.92578,27.3639,6.23949,-1.8894,26.8175,6.11919,-2.04682,26.8983,6.1362,-2.06283,27.1219,6.18092
21.087,0.490408,10.1342,1.82812,1.8213,9.61206,1.16485,-0.897502,8.96809,1.16807,-0.00638711,8.92518,1.10419,-1.21607
0.0332815,0.00190191,-7.19418,0.665507,1.68126,-7.21462,0.728599,1.4384,-7.25524,0.706004,1.5412,-7.24915,0.727088,1.45758
21.0189,0.643944,9.15753,30.1951,0.560619,6.94476,29.8876,1.26629,7.62595,30.1006,-0.178746,6.91835,29.8367,0.815187
8.86097,0.0454419,4.12427,12.4638,-7.49754,3.94935,10.4029,-7.36447,3.6446,10.806,-7.39842,4.22471,10.6895,-7.36417
11.3812,0.58708,11.1012,24.7837,3.14156,11.9844,25.3975,1.38042,12.2986,24.6168,1.41144,11.9914,24.0602,3.37594
3.31816,0.00164193,7.04387,29.8479,0.580084,5.61387,29.7122,1.93675,6.23915,29.7784,0.813016,6.3225,29.7811,1.09231
0.515844,0.0463069,-9.96844,7.54624,-5.25066,-9.22825,7.56684,-5.61972,-9.00964,7.66573,-5.7183,-9.01102,7.75705,-5.7221
10.6912,0.0410467,-0.0586891,9.54164,7.30568,1.66077,7.55791,6.98479,0.200215,7.91529,7.08662,0.521081,9.55501,7.33091
15.9281,0.434383,-10.351,24.3949,-3.72907,-10.7185,23.8068,-4.1613,-8.72498,24.9462,-4.87801,-10.8827,24.9512,-3.85401
26.057,1.25882,8.14428,24.6708,4.9625,3.43443,24.6218,5.82307,6.26421,25.7242,5.76236,3.565,25.1427,5.67086
4.01357,1.44341,9.46104,26.7833,3.99768,8.59544,28.5319,4.5094,7.77061,27.073,4.77889,7.90413,27.088,4.23218
13.2882,0.764492,-3.69547,25.0791,-5.17994,-2.02551,25.4546,-5.84274,-3.82926,27.7544,-4.8493,-3.69842,28.4283,-4.55523
3.5388,0.252805,3.26636,23.2948,-6.29026,4.37384,23.8997,-6.3031,4.82409,24.5743,-6.13542,4.89042,24.5772,-6.126
1.39442,1.3471,-7.54845,18.5444,6.19725,-8.82759,18.6994,5.75584,-8.82455,18.6512,5.74612,-8.83083,18.5633,5.75249
12.1217,0.281713,-6.73686,20.0019,6.57038,-9.19209,19.8134,5.67989,-9.2234,20.2299,5.75239,-5.30557,20.2354,6.64784
12.1367,0.425084,7.66888,24.2864,-4.65846,7.9261,26.862,-4.12358,7.51833,23.9231,-5.31418,9.40325,24.346,-4.51834
0.527208,0.0523523,-12.1796,2.79147,2.38827,-12.3681,2.65111,1.69484,-12.3952,2.83671,1.6647,-12.3899,2.77576,1.65811
32.5815,1.11644,5.83156,29.7598,0.707152,3.15372,29.8898,1.84777,3.15124,29.8964,1.80079,2.98461,30.1072,0.773181
11.5386,0.293683,-3.33097,25.2535,6.13531,-1.50628,26.4434,5.78732,-0.989931,26.3579,5.7487,-0.909147,24.6671,6.33333
6.13126,0.134819,10.8889,14.903,3.94908,12.3968,14.8451,2.54166,11.5865,14.7841,3.43703,12.5006,15.0848,2.35176
2.71313,0.0382159,-4.05109,0.157174,0.324379,-4.09682,0.237205,1.33558,-3.99521,0.214215,1.16808,-4.56079,0.130492,0.269183
89.0051,0.0811333,-5.59708,14.9815,-7.0428,-8.8177,13.7284,-5.87524,-8.59058,12.2181,-6.00822,-7.40768,10.8804,-6.51919
1.83896,0.118439,-3.07481,0.245626,1.41769,-3.87739,0.342008,1.55099,-3.93953,0.436982,1.90233,-3.73773,0.452536,1.89948
2.25155,0.0298049,5.5434,26.7084,5.84734,3.28302,26.7835,4.9774,4.77133,26.6357,5.5429,3.28429,26.7306,4.96215
5.34988,0.993996,-4.72801,30.1038,2.22176,-7.38949,29.9636,2.24616,-7.49629,29.8671,2.73361,-7.39819,29.983,2.0017
7.54494,0.000694637,-1.95967,23.417,-6.18023,-1.92819,23.1371,-6.20704,-0.352604,23.7332,-6.81894,-2.06791,25.1685,-6.04323
36.1186,0.0202203,6.77477,7.83325,6.15395,5.94784,9.864,6.62484,4.49762,9.90516,6.90815,4.38312,9.57138,6.88207
35.0388,0.433376,-4.16375,19.1093,-6.66278,-4.31657,21.2854,-6.99984,-5.45128,16.5694,-6.63695,-6.52492,17.3708,-6.12505
14.9279,0.573462,-12.1352,24.9627,-1.13378,-12.3856,24.099,0.178996,-12.3545,23.793,-0.733327,-11.9946,23.8553,-1.89233
0.774485,0.0759716,6.92288,1.09706,-1.45508,7.09303,1.01989,-1.28547,6.9396,1.1858,-1.5835,6.99495,1.08874,-1.80872
2.45884,0.109898,10.9174,29.7236,2.32658,11.0269,29.8507,1.72037,10.5273,30.0588,0.822139,9.89145,30.174,1.74593
0.831835,0.0801102,1.27971,15.1485,-7.86335,0.793559,14.8945,-7.86424,0.958536,14.7177,-7.88856,0.813528,14.755,-7.89072
0.542719,0.0729065,11.2347,3.57063,-2.0157,11.2085,3.23477,-2.0268,11.3559,3.7227,-2.02929,11.3071,3.43594,-1.89357
105.956,0.296766,0.534478,12.1747,7.58805,3.33179,8.50356,6.8887,3.70698,7.06932,6.59858,2.73906,6.87918,6.70442
10.2634,0.15254,11.9969,14.1475,-0.71346,12.5488,16.0832,-0.526866,11.7637,14.408,-0.208588,12.6662,13.751,-1.24117
6.19875,0.546833,-7.24219,15.6053,-5.64284,-7.5151,16.7777,-5.81408,-7.65391,15.1525,-6.226,-5.4622,15.8773,-6.79665
46.7113,0.664203,-1.99096,0.269588,-0.970251,-2.0757,0.121381,0.969909,-1.06565,0.330994,1.70975,-0.932413,0.582434,2.60894
0.133956,0.00853777,-6.83422,23.0754,6.5405,-6.57846,22.8675,6.75191,-6.78565,22.8944,6.65627,-6.6221,22.8263,6.75411
1.67189,0.533874,-11.9204,3.78368,3.20766,-12.2583,4.09511,2.47716,-12.367,3.93513,2.14495,-12.3291,3.99867,2.27425
17.8407,0.159061,1.25838,23.536,6.18604,7.36371,23.6702,6.21389,3.93367,23.4311,6.1978,6.79432,23.3359,6.40231
2.05373,0.0260422,5.0208,13.1645,7.15221,4.73585,12.4062,7.16392,5.14361,12.4947,7.0495,4.93823,12.3796,7.10297
5.15434,0.629399,-10.2135,17.8822,-3.93878,-10.1208,17.1145,-4.72956,-10.8979,18.0614,-4.28743,-9.85269,16.9363,-4.87531
17.4218,0.363553,0.099314,20.7662,6.20654,-3.46327,20.3662,6.5798,-1.17513,21.0133,6.19936,-2.65588,20.4444,6.65552
4.04119,0.445522,-3.06579,0.0839388,0.303551,-2.50257,0.275502,1.59559,-1.83188,0.34629,1.86591,-1.78796,0.419569,1.67379
7.70062,0.452636,9.5704,16.921,5.30029,9.85916,17.444,5.63938,11.1213,16.9526,3.61961,9.85277,16.2628,5.78234
17.7309,0.932388,5.68421,25.6124,-5.4566,1.86193,25.47,-6.34101,2.17296,24.7748,-6.78499,2.03479,26.014,-5.76431
10.4425,0.216556,9.27921,24.6435,-4.134,9.17186,25.0257,-4.39059,9.99837,23.1704,-4.26631,10.2597,25.2552,-3.49435
0.0491886,0.173926,-5.91729,12.0839,7.36999,-6.14451,12.1548,7.34233,-6.12688,12.0705,7.34101,-6.1306,12.1054,7.33768
12.6523,1.61319,-1.85903,11.1092,7.3467,-1.72474,8.77869,6.86057,-1.87156,8.67018,6.83586,-0.629806,9.34803,7.22444
27.7261,0.179789,1.47684,29.8733,2.20779,4.98267,29.4909,3.05394,5.22651,29.6198,2.3542,5.33012,29.3533,3.76362
3.59693,0.3847,12.239,20.3707,-1.95185,10.4845,21.4835,-3.3847,10.3871,21.5216,-3.50278,10.3763,21.5923,-3.5052
0.461313,0.0948873,11.0874,2.43996,-1.22797,11.1853,2.53289,-1.3051,11.1182,2.33907,-1.40998,11.1854,2.33706,-1.15955
17.0825,0.571052,9.71092,18.7976,-4.34661,12.382,20.1188,-1.72857,10.503,17.6475,-4.25236,9.78828,19.2301,-5.19109
0.15996,0.217787,1.83423,27.864,-5.45782,2.10134,27.9736,-5.4093,2.02974,28.0166,-5.392,1.96414,28.0577,-5.37737
4.91023,0.0596011,-7.38549,8.57785,6.63197,-7.72348,10.2008,6.85978,-7.82295,9.54237,6.73657,-7.85758,9.90731,6.78365
44.0344,0.630468,10.4678,27.2145,2.99665,11.2259,29.2621,1.97227,11.3176,25.2494,3.03678,11.6695,26.3665,1.47626
1.31216,0.0648572,-6.2888,6.10867,6.26911,-6.02129,5.53782,6.23773,-5.76678,6.02344,6.33306,-6.09444,5.53052,6.2345
5.22414,0.359752,9.17385,28.6415,-1.98405,9.99212,29.9083,-0.457136,8.90491,30.0043,-0.43928,9.04678,29.9093,-0.50804
0.0864319,0.0146856,5.58603,23.9115,6.43529,5.70703,24.0127,6.407,5.57935,24.001,6.41204,5.63198,24.0425,6.3939
3.85459,1.88477,11.3662,14.6942,-3.56656,9.5537,14.6122,-5.01904,9.51292,14.651,-5.02052,9.62291,14.5626,-5.0335
32.5343,0.220415,-4.1805,0.185078,-0.485862,-4.86922,0.239037,1.08052,-5.54024,0.492531,-1.40827,-6.48754,0.353386,-0.134577
0.148358,0.0110237,6.5836,22.8162,6.55527,6.61669,22.5866,6.55964,6.46013,22.6655,6.54585,6.53157,22.5812,6.54995
17.4315,0.232783,8.00902,12.5121,-6.5879,7.64756,8.24207,-6.34199,7.44707,7.91188,-6.37695,7.9175,7.98726,-6.18745
4.52304,0.869333,3.84771,20.9457,6.3242,6.26869,20.8146,5.8291,6.08221,20.8865,5.94847,4.119,21.7444,6.60769
0.146936,0.119297,4.08688,6.46436,6.41791,4.07538,6.64418,6.43892,3.92612,6.58028,6.3927,4.00537,6.6417,6.4474
13.0167,0.333698,-7.17253,26.4485,-4.8943,-8.70972,23.9633,-5.16406,-9.14727,24.4719,-4.86836,-8.13725,25.3033,-4.76487
0.0593059,0.0294784,1.59792,19.6144,-7.67002,1.72808,19.6691,-7.64025,1.72079,19.7113,-7.64045,1.64365,19.7008,-7.6407
39.4597,0.0366517,3.1052,12.8868,7.48714,1.60294,11.4534,7.51418,1.49231,11.9015,7.54744,2.52539,11.453,7.46611
4.91545,4.58096e-06,7.66972,26.0955,5.04421,6.87129,26.2475,5.09161,7.75162,25.1831,5.36067,9.22157,26.1503,4.82662
88.3274,0.373222,-6.05722,30.1356,-0.240254,-2.20961,30.1347,2.96351,-3.60014,30.4604,-1.46935,-1.65768,30.1486,2.25706
4.60545,0.572621,12.4327,16.4224,-0.69147,11.455,16.6695,-2.43066,11.6819,16.561,-2.20403,11.5645,16.7217,-2.33394
0.148578,0.145531,-0.827274,10.5672,-7.58503,-0.551568,10.8155,-7.59746,-0.559429,10.7604,-7.57699,-0.570091,10.7124,-7.5647
0.513601,0.0299929,5.70509,16.7188,7.29515,5.39648,16.1364,7.29937,6.0343,16.7983,7.21568,6.18689,16.7211,7.19034
0.863156,0.0727741,-3.81702,23.2712,6.93182,-3.64762,22.7325,7.11119,-3.71726,22.2679,7.22541,-3.65424,22.3198,7.20644
13.8422,1.58376,11.1063,25.0925,-1.94299,10.2143,25.9902,-3.24561,10.3676,24.9914,-3.397,10.5246,24.603,-3.53895
2.37115,0.194378,1.34521,24.7858,6.211,1.24725,25.1891,6.24455,2.78696,24.7033,6.10532,2.59006,24.6757,6.17186
0.539916,0.0698396,6.50733,12.1883,-7.1083,6.52809,11.7791,-7.06703,6.39624,11.6781,-7.11619,6.46408,11.682,-7.09539
1.91657,0.0430107,2.67297,13.8057,-7.68889,2.4063,14.9349,-7.73487,2.87718,14.0443,-7.69401,2.47961,14.9848,-7.72227
2.29071,0.667385,10.1287,16.8067,-4.01555,8.75815,17.0733,-4.86401,8.76166,17.1175,-4.88776,8.5608,16.9233,-5.03969
1.24533,0.0240348,-2.69892,0.0816936,0.489739,-2.41239,0.106929,0.384726,-2.5155,0.163868,1.06468,-2.67574,0.154981,1.03069
58.1216,0.311852,5.58008,9.80593,-7.12533,1.79974,6.60045,-6.98308,3.5626,6.19111,-6.80102,2.50277,6.5464,-6.93325
0.446756,0.0160159,-2.50635,1.01098,-3.14167,-2.69094,1.20845,-3.46602,-2.73691,1.20907,-3.45763,-2.83327,1.12397,-3.29529
0.0664867,0.0620619,2.75703,8.22367,6.78243,2.84121,8.26638,6.86058,2.72841,8.2153,6.84694,2.71413,8.30036,6.87919
1.81685,0.388011,3.11046,26.758,4.94453,3.06857,26.1543,5.19808,3.16502,26.1633,5.16386,2.77521,27.0464,5.60289
14.6035,0.138859,-0.564403,15.5846,-7.30759,0.366405,15.5794,-7.46187,-1.95366,15.3764,-7.40707,-0.327437,17.3708,-7.59617
132.166,1.41934,4.28807,0.839148,2.48207,3.23548,0.513423,-1.32339,4.86552,0.887518,-2.2146,3.49274,0.559805,-1.42467
0.0723871,0.0725208,-5.58316,21.9948,7.1534,-5.80748,22.0529,7.09792,-5.67622,22.1252,7.12885,-5.74336,22.066,7.10371
16.3936,1.11071,3.18577,23.5554,-6.51805,0.530279,21.5178,-7.04438,1.12874,21.6398,-6.09922,0.816459,21.5629,-6.43999
23.0273,0.0305624,11.7202,14.688,-2.43981,11.3186,15.949,-3.57761,12.4879,15.0595,-1.05708,12.0054,16.1887,-2.2596
3.09476,0.97621,-8.66819,24.7628,3.72523,-8.51118,23.5716,4.98613,-8.7097,23.6422,4.90577,-8.60518,23.6085,4.90938
0.0637411,0.0904763,7.32476,9.68014,6.23789,7.20093,9.57417,6.2579,7.2795,9.58805,6.22373,7.33209,9.58739,6.22212
0.256332,0.032824,2.76476,22.0254,6.81424,2.80068,21.6672,6.79593,2.83732,22.03,6.79341,2.72156,21.7058,6.78123
0.388044,0.155226,9.13655,21.6512,-5.42582,8.56247,21.5757,-5.48357,8.62801,21.6746,-5.39908,8.55749,21.6242,-5.42379
6.91797,1.33219,12.8402,19.7764,0.819868,12.7161,17.0765,0.781159,12.3649,17.0964,0.0694711,12.3662,17.167,-0.0226902
4.99141,0.384298,5.26329,19.9968,-6.32569,6.88687,20.0361,-6.22736,5.10724,19.7818,-6.89079,5.37524,20.9162,-6.35759
0.0775356,0.00751781,-5.56866,19.2972,-6.90882,-5.4114,19.306,-6.9634,-5.48079,19.2607,-6.93514,-5.42832,19.35,-6.96674
0.032044,0.00142031,1.34245,4.42971,6.42465,1.20151,4.33695,6.41282,1.19788,4.38334,6.42103,1.27396,4.34597,6.41144
5.4806,0.227997,11.9535,10.0727,2.57241,10.7016,9.15791,4.25937,10.7838,8.61565,4.07484,10.9757,9.72403,4.02664
2.41083,0.874559,8.25361,18.8209,5.37231,10.1038,17.8142,5.29524,9.93226,17.7953,5.39044,10.2673,17.608,5.19461
1.81662,0.144931,11.4082,21.5061,-2.74614,12.0467,21.859,-1.95314,12.0653,21.7802,-1.9456,12.073,21.9617,-1.91854
1.68374,0.538537,-7.41865,20.2783,-5.70929,-7.42441,21.1011,-5.80483,-7.53042,21.003,-5.83147,-7.34522,21.1031,-5.83816
0.407392,0.0378137,4.28265,0.971995,-0.988562,4.39066,0.786951,-0.8447,4.26205,0.898518,-0.782747,4.38127,0.833199,-1.03474
2.34309,0.00439565,-8.631,29.4191,3.396,-7.96601,29.7195,3.04917,-8.1169,29.4779,3.47921,-7.85206,29.669,3.19944
0.137039,0.00555807,5.7304,10.8527,6.75337,5.86831,10.9103,6.72386,5.95096,10.7816,6.698,5.94802,10.8292,6.70197
0.00372893,0.0321943,2.19718,24.5461,-6.89455,2.12883,24.4931,-6.92151,2.20971,24.4649,-6.91223,2.26838,24.5001,-6.91538
26.3457,0.570515,6.87442,17.5703,6.46863,3.23363,18.3591,6.99725,2.9762,17.7335,6.83618,7.02636,15.5642,6.6031
0.204029,0.00117607,7.84116,2.99864,-4.48164,8.04005,3.05474,-4.46369,7.77335,3.17306,-4.62876,7.84526,3.22424,-4.64565
2.56547,0.22388,-3.75691,29.5263,-2.2474,-3.81259,29.4855,-3.20527,-3.62685,29.416,-3.42621,-3.76325,29.4219,-3.42069
1.73532,0.0396673,-6.97013,26.5948,-4.93135,-5.60891,27.7625,-4.94904,-6.07188,27.2328,-5.01761,-5.52757,27.7195,-4.99759
2.75926,0.13823,7.67554,21.0045,5.39003,9.06677,21.1837,4.93019,9.08085,21.1358,4.96097,6.79564,20.7752,5.48546
2.72213,0.0343888,-9.30685,29.8119,-1.71962,-8.88712,30.0641,-1.07198,-9.00426,29.7465,-1.99522,-8.41674,29.8866,-1.91712
11.5927,0.100423,-8.46764,19.4648,-5.29945,-9.98512,18.0719,-4.12205,-6.90174,20.4727,-6.01273,-6.10423,21.1286,-6.59681
8.78544,0.0573993,7.62823,14.662,5.623,5.01374,14.4438,6.36726,4.93123,14.5823,6.37643,8.90687,14.6453,5.18307
32.248,2.3461,-7.37562,19.9141,-5.71471,-7.51926,16.8246,-5.79654,-9.43504,17.2634,-5.12811,-8.08338,17.248,-5.96877
0,0.0194083,-0.0597229,13.1455,-7.76341,-0.0587607,13.0959,-7.76345,0.0348821,13.1664,-7.80621,-0.0599503,13.1149,-7.7521
31.2067,0.31128,1.57579,29.6276,-2.9327,3.21045,28.4932,-4.46627,1.89285,28.477,-4.91342,3.41902,29.6279,-2.86925
1.73239,0.438033,7.70007,16.2276,-6.11075,7.76469,15.6179,-6.57032,7.49824,15.6851,-6.73737,7.96473,15.677,-6.44776
8.69607,0.439676,0.610986,18.0054,7.25443,-2.85576,17.9079,6.88669,-3.68807,17.9995,6.73875,-3.68967,17.9568,6.71479
9.98328,0.141408,-3.0877,13.6115,-7.70459,-2.58372,12.0345,-7.68628,-3.63316,13.2231,-7.58534,-1.79998,11.935,-7.70289
2.91614,0.0217912,5.31966,10.0313,6.75843,6.01346,8.90649,6.48435,6.14998,8.96479,6.4699,5.03901,10.0955,6.8394
0.137444,0.0105816,-10.1769,28.0265,4.33138,-10.4387,27.5763,4.31492,-10.1997,27.8547,4.40299,-10.3796,27.6111,4.35955
2.67947,0.0664352,-4.65024,6.64164,6.46339,-5.54743,6.13843,6.37584,-6.33562,6.98118,6.49288,-4.89951,7.4929,6.68363
1.43356,0.0537533,-2.96911,20.1484,-7.24586,-3.95704,19.3863,-6.78769,-2.70575,20.2897,-7.27922,-3.96176,19.3404,-6.77419
3.35073,0.144559,11.0813,19.5948,4.22857,12.2578,19.5634,3.10083,12.1861,19.4201,3.26386,10.3373,19.5112,4.66978
0.751328,0.0367604,7.65938,11.3625,6.24693,8.12453,11.3634,6.07807,7.98823,11.5309,6.14718,7.87615,11.2385,6.184
11.2023,0.0295623,1.71094,6.7809,6.86765,0.771041,5.67518,6.71684,0.441764,6.46783,6.84627,1.23498,5.26079,6.63674
4.13457,0.537731,-1.71896,30.1399,2.49523,0.0906537,29.9286,1.87425,0.366934,29.952,1.85663,0.475953,29.9326,1.91397
1.10333,0.0259448,3.65526,0.525492,0.89506,3.5099,0.656574,1.57713,3.7327,0.565024,0.964526,3.6103,0.664267,1.60776
12.7338,0.0381597,-4.85411,26.9162,-5.12837,-6.26287,26.0024,-5.44674,-4.10932,27.4219,-5.02835,-5.8504,25.4827,-5.18558
4.07785,0.0216625,2.24942,20.0307,-7.37269,2.32521,18.7637,-6.96115,2.54521,18.8856,-6.70447,2.29996,20.3986,-7.35272
10.2664,2.43948,12.7071,17.1371,1.11444,11.1273,17.0736,3.63128,11.1483,16.9565,3.5838,11.2182,16.8599,3.64601
6.66119,0.317049,11.5173,22.4327,-1.07557,12.1941,21.8227,-1.42305,11.5246,22.8788,-0.533736,12.0595,22.8794,-1.93716
1.58445,0.125263,9.27848,14.4823,-5.48973,9.42218,14.3291,-5.7067,9.46741,14.7037,-5.05119,9.23427,14.7226,-5.71307
4.98578,0.0689455,-2.34723,3.35866,-5.9441,-1.35711,3.49382,-6.08779,-1.22772,2.56392,-5.41036,-1.86138,2.52174,-5.40493
16.3325,0.377111,-9.50386,25.8878,-4.00198,-10.4501,25.5839,-4.32215,-7.93774,27.7343,-4.21137,-9.89397,25.0953,-4.51029
2.71919,0.0282154,2.43196,16.735,-7.49926,2.92157,17.0679,-7.645,2.47585,16.0575,-7.30237,2.29839,16.1395,-7.32826
11.0656,0.173683,12.0935,24.5642,0.971178,12.4927,22.4828,0.922255,11.2322,27.0049,0.995829,11.7949,25.4182,0.438909
123.145,0.449847,0.41898,6.07205,-6.99357,-0.0176622,11.475,-7.64609,2.0721,11.6279,-7.58272,3.00968,12.4512,-7.58052
35.6421,0.0288486,-12.5542,22.6754,0.358259,-12.3056,25.6013,0.564171,-12.2465,25.9239,1.02178,-12.3369,23.6508,1.86158
15.7014,0.827809,-2.06169,21.8315,-6.55083,-2.34256,20.0324,-7.24845,-1.04492,20.4869,-6.90817,-0.817728,21.8176,-7.03427
0.220132,0.020114,7.3554,22.6602,6.40678,7.63789,22.6872,6.36647,7.63266,22.7323,6.37071,7.57411,22.5858,6.3629
1.65242,0.228398,2.09922,17.5538,-7.14466,3.60014,17.6096,-7.63996,3.60241,17.5661,-7.65114,3.39964,17.3793,-7.66085
4.75841,0.425092,2.7995,21.5276,-6.37623,3.12856,21.0214,-6.66072,5.17118,23.1595,-6.2776,4.7731,23.0894,-6.39389
1.02304,0.00167379,3.75344,3.22017,-5.45285,3.17216,2.52532,-4.80923,3.1717,2.56735,-4.85752,3.53475,3.07824,-5.34927
3.3212,0.0785649,11.7969,25.143,0.33452,11.6411,23.5909,-0.475394,11.5227,22.9685,-0.673262,11.5127,22.9612,-0.628055
3.50446,0.0188613,4.0835,8.89635,6.82857,4.642,8.81654,6.74161,3.92654,8.05664,6.72872,4.15416,7.66529,6.6233
0.331253,0.138554,3.16425,6.92459,6.65461,2.96866,6.6289,6.63512,2.89347,6.66762,6.63932,2.8176,6.75199,6.66475
3.50166,0.323929,2.75047,18.8455,-6.67433,4.71744,18.5872,-6.45879,4.79234,18.5913,-6.45084,3.12421,18.1068,-7.36427
20.7556,2.23141,9.06677,27.307,-3.57511,5.6683,27.8535,-3.99464,5.56724,27.1976,-4.10508,5.5819,28.3501,-4.09003
4.41501,0.381952,-3.60458,26.1014,5.85153,-3.80051,24.7478,6.38035,-3.93326,26.3242,6.33118,-2.39459,26.2669,5.89377
9.94371,0.0858162,3.33542,22.7289,6.37226,5.79544,22.4139,6.67901,3.21942,23.3199,6.15897,3.28262,21.298,6.54174
0.357448,0.133971,4.16807,21.7051,-6.8479,4.3819,21.8126,-6.85067,4.48104,21.3526,-6.97912,4.47679,21.3957,-6.97161
5.6458,0.277668,11.9042,17.213,-1.14937,12.1163,16.9445,-1.4758,12.3775,17.1011,-0.0672416,12.3416,19.2189,-0.757699
0.217495,0.123694,-6.18012,22.0935,-6.51545,-6.45259,21.9468,-6.38838,-6.51955,21.8944,-6.38966,-6.52512,21.989,-6.37858
7.17682,0.0957134,8.27746,7.60245,-5.94236,8.45759,6.16018,-5.50347,8.35408,4.88231,-5.17259,7.86958,5.48413,-5.65421
14.4191,2.2474,-1.62407,19.9348,-7.28762,-0.307005,17.8444,-7.28992,-1.79872,17.644,-7.21593,-1.87504,17.6334,-7.2642
0,0.00116159,-11.2087,29.6256,1.24116,-11.2785,29.588,1.23305,-11.1837,29.6154,1.30022,-11.2222,29.6351,1.19333
13.9379,4.87365,6.54707,26.0539,-4.96357,1.15421,27.0564,-5.32585,1.16967,26.6362,-5.46382,1.02881,27.4033,-5.57799
12.1604,0.18786,11.1041,27.8153,0.000101282,11.9283,26.8125,-1.31416,11.6882,27.7753,-1.11378,11.7587,24.9476,0.178849


