
5.59194,0.0951092,11.4172,18.4034,4.43081,12.41,17.8149,3.52508,11.5677,17.8036,4.42486,11.224,19.3721,4.00403
2.00943,0.265035,11.1201,17.3118,-5.38108,11.0449,16.359,-5.23262,10.8436,16.3257,-5.3671,11.1883,16.2852,-5.14917
12.3513,0.644502,11.1354,19.5524,3.88897,11.207,20.8735,3.48614,11.9599,19.8928,3.80698,10.6204,20.0188,5.12101
12.8184,0.217256,6.21813,9.35469,3.78523,5.49689,9.67712,3.51733,7.31033,8.71741,5.46169,6.41266,8.80146,5.121
0.971927,0.0602728,6.45424,28.1511,3.87364,6.65113,27.945,4.29249,6.73073,27.8886,4.45669,6.1905,28.0745,4.01955
1.0494,0.197674,-5.19012,16.1311,-6.79524,-4.28476,16.1676,-6.89948,-4.41179,16.3547,-6.89597,-4.34525,16.1723,-6.87979
0.0576478,0.0181865,-12.9663,28.7352,-3.24052,-12.9654,28.8539,-3.1565,-12.9378,28.8436,-3.19034,-13.0127,28.733,-3.16512
0.56303,0.456132,-12.7768,14.1119,-3.63372,-12.5301,14.1479,-4.03434,-12.5964,14.3508,-4.04714,-12.5227,14.0772,-4.03469
12.8546,0.328357,3.58652,22.0576,-6.95829,6.6687,21.4691,-7.04922,3.94462,23.5491,-7.03865,7.80444,21.7053,-6.89445
0.586447,0.199845,-1.27865,10.0093,-7.60017,-1.14782,10.1938,-7.62614,-0.723996,9.70762,-7.54762,-0.584794,9.58261,-7.48548
4.97591,0.380315,8.18396,25.6589,4.87844,11.2255,25.4703,4.10615,10.7363,25.5285,4.28982,10.75,25.4375,4.326
63.7791,1.67079,-11.2099,18.2109,-5.04064,-8.35673,16.3221,-6.21393,-11.731,15.8972,-5.28016,-9.51095,16.444,-5.45426
6.37011,0.148535,-13.2988,4.55814,-0.666589,-12.7129,4.92615,1.07198,-12.901,4.53984,0.56866,-12.7025,5.88221,1.31316
116.092,1.02468,-13.3448,15.8171,-2.59441,-12.9997,12.3542,-2.83739,-13.3401,12.5932,-2.03794,-13.5684,15.8882,0.210874
3.1374,0.212906,-5.49783,7.35988,-6.76354,-4.10407,7.18112,-6.97879,-5.00508,8.05958,-6.78127,-4.8133,7.61143,-6.89205
7.50538,0.399652,10.0196,5.68638,-4.10378,11.984,6.56189,-3.69465,10.5574,3.8996,-4.18559,9.52874,5.72027,-4.77254
37.737,0.30142,6.7648,30.4275,3.00533,5.67265,31.0209,1.59358,6.86519,31.1867,0.0612635,9.21928,30.9346,0.747271
5.30935,0.132977,-10.1972,9.44594,-4.90921,-8.76574,9.41461,-5.56442,-11.3329,9.47416,-4.11419,-8.77567,9.3152,-5.54764
9.10867,1.47066,-9.02018,23.1688,-6.01162,-9.4468,25.4145,-6.41788,-9.50513,25.4091,-6.39532,-9.89069,25.1976,-6.33964
0.728344,0.273555,5.9951,25.279,-6.82179,5.57762,25.0704,-6.87167,5.63445,24.8682,-6.93015,5.50872,25.1056,-6.90588
1.00979,0.0818111,11.0164,1.23818,1.6007,11.8745,1.25468,0.811058,11.4429,1.18323,1.17068,11.8688,1.26943,0.856167
1.30251,0.510496,-12.0664,29.8566,-2.64461,-12.2104,29.2848,-3.53537,-12.281,29.2696,-3.48453,-12.4287,29.237,-3.42271
22.2984,0.56021,-11.4912,18.4704,-4.7143,-10.2781,18.399,-5.48112,-11.9975,20.4399,-5.47992,-12.1965,17.6722,-5.05725
0.594479,0.678221,-8.70613,9.35947,-5.56253,-8.00169,9.32646,-5.75558,-8.00525,9.27624,-5.77133,-7.99463,9.3762,-5.77155
32.0249,1.53089,10.6913,4.03637,2.96115,11.9621,5.90807,2.62634,12.0855,5.83463,2.45779,12.7216,5.90455,1.25361
91.8678,0.894794,-9.03298,21.4612,-5.69528,-6.26599,23.4791,-6.41382,-5.44783,21.3131,-7.07382,-8.18207,23.1131,-6.29082
0.344667,0.0531114,1.42612,19.6572,-7.68971,2.04275,19.481,-7.67238,2.1194,19.5333,-7.66523,1.76246,19.4759,-7.66923
1.71375,0.432927,2.31369,24.0362,-7.28102,2.38954,25.0924,-7.36312,2.31726,25.0483,-7.37588,2.73819,25.0477,-7.39469
6.44355,0.36031,-7.85369,3.52698,5.03558,-5.83868,2.28494,4.32351,-5.18085,1.88018,3.89834,-6.33049,1.97532,3.84627
125.185,0.660076,-3.21888,6.16648,-6.97309,-0.282515,5.81727,-7.00991,0.676415,7.13289,-7.24335,-0.761209,4.48674,-6.68077
0.059961,0.0954184,-0.617276,4.35938,-6.61834,-0.556024,4.29174,-6.51257,-0.477225,4.28029,-6.58939,-0.587583,4.28143,-6.54378
8.35381,0.11124,10.4473,16.2761,4.66396,12.5014,16.6366,3.33365,10.0932,16.6557,5.07093,12.3383,16.3618,3.44083
11.1503,0.685735,3.09314,21.2595,6.30363,3.11308,19.1348,6.61357,2.49609,21.5548,7.10999,5.12785,21.7697,6.91678
0.151378,0.0345801,11.3374,30.4085,-2.03101,10.8888,30.5814,-1.89013,10.8741,30.5588,-1.93674,11.0746,30.5436,-1.86047
1.65968,0.0636928,-12.266,8.76095,-3.87107,-12.3304,7.785,-3.65842,-12.4543,7.91228,-3.49389,-12.4419,8.40629,-3.52007
78.3496,0.0221389,-10.2124,4.71319,-4.99133,-6.85853,5.18417,-6.17686,-7.19512,4.41227,-5.85879,-9.13455,5.96816,-5.69549
20.3446,0.00416075,7.57992,14.699,6.63998,4.93939,15.3605,7.32451,6.36227,13.6086,6.79335,6.13076,14.6481,6.96877
24.2291,0.091874,13.3338,12.8589,-2.24472,13.2935,17.6818,-2.79735,13.5499,17.4303,-1.70251,13.2442,16.9279,-3.01145
2.37702,0.140982,12.1646,11.1285,-4.16407,12.3904,11.8168,-3.92085,12.284,12.7689,-4.30983,12.3153,12.5623,-4.19803
0.649979,0.060967,-11.2465,27.1659,3.38412,-11.8312,27.0318,2.99988,-10.8885,27.1059,3.53099,-11.7594,27.0836,3.03167
0.0668397,0.0821836,-1.34789,27.1176,6.22561,-1.4321,27.2198,6.10625,-1.33677,27.2434,6.15831,-1.34725,27.2025,6.14646
4.62404,0.0152371,-13.3783,26.9157,-1.49888,-13.4347,26.6297,-1.33844,-13.4423,27.9397,0.0657022,-13.3498,27.0703,-1.82141
45.0646,2.30063,5.80921,10.1072,3.23295,7.59179,11.3846,4.71992,7.85983,9.60237,4.57418,8.38269,10.0569,4.15437
27.3639,0.688633,-4.05016,14.9791,6.48306,-2.30793,14.6573,7.13957,-3.69216,13.3188,6.72616,-4.01415,16.4315,7.62121
0.0227684,0.00273769,-6.75409,25.7157,6.08503,-6.67788,25.7116,6.09632,-6.67656,25.648,6.11074,-6.75437,25.6263,6.10791
0.0219434,0.0212249,8.87606,19.0182,6.39201,8.88802,18.9793,6.43556,8.92971,19.026,6.3069,8.8869,19.0996,6.39389
0.0826694,0.0454688,0.139249,23.4951,7.1957,0.200574,23.4633,7.21602,0.149688,23.3799,7.19328,0.0842959,23.3623,7.20355
20.0169,0.3655,7.39357,21.2574,5.81849,9.19077,21.4746,5.60006,7.43966,22.8834,6.39316,10.1393,21.8333,5.30887
0.112828,0.0473662,-11.4766,4.13187,-4.00919,-11.2794,4.20432,-4.29282,-11.5527,4.12338,-4.00459,-11.3881,4.21445,-4.20013
17.6935,0.427973,9.70985,27.6224,3.76864,9.7599,28.9856,3.36339,9.87825,27.3824,4.50872,12.0532,26.8427,2.36253
0.0781646,0.0359005,1.12397,13.2603,-7.74748,1.17771,13.369,-7.74971,1.05365,13.3214,-7.72059,1.03355,13.2758,-7.74009
3.85881,0.328875,-3.93565,2.53765,4.79113,-3.08666,1.7697,4.04332,-2.65997,1.89738,4.28697,-2.85138,1.88606,4.21366
3.92001,0.153373,2.69773,16.1153,7.39475,1.99802,16.4529,7.69163,3.38446,16.1549,7.4741,2.19502,15.982,7.59073
0.76813,0.11651,5.64799,12.0685,4.52067,5.44171,12.4736,5.398,5.38714,12.4861,5.46475,5.55901,12.6162,5.71245
0.484977,0.0906245,12.2051,26.7356,-3.07204,12.3637,26.9355,-2.95683,12.3326,26.6581,-3.11301,12.2539,26.8298,-3.11561
12.1514,3.83549,8.29397,20.9446,-6.76122,2.59902,20.9189,-6.97402,2.6812,20.8936,-6.88908,2.67715,21.2478,-6.94258
5.4914,1.32167,5.93911,8.83732,-6.13884,8.22708,8.69787,-5.3845,8.44161,8.8592,-5.51228,8.44287,8.59849,-5.42165
0.988946,0.00986562,-13.1447,5.3492,-2.07039,-13.2776,5.32206,-1.63635,-13.2839,5.06928,-1.76641,-13.1107,5.06445,-2.31294
52.3487,0.118788,-2.66651,9.75023,-7.25194,-1.61133,9.97651,-7.52191,-2.64784,13.5266,-7.474,-1.68214,12.8121,-7.58701
2.21355,0.308033,-5.06667,23.4261,6.35072,-5.26467,23.2855,6.68215,-5.28354,23.9617,6.57387,-4.28625,23.4272,6.67435
0.427328,0.121952,-8.59792,6.74461,-5.99911,-8.8004,6.63586,-5.85808,-8.88009,6.54633,-5.85216,-8.90702,6.74102,-5.8439
15.174,1.09227,1.66396,28.7392,3.58132,3.3073,29.5226,4.54055,2.79169,30.493,3.26377,0.41307,29.4907,4.25437
12.1543,0.0136484,8.08788,16.102,6.60142,7.58093,18.7928,6.76402,7.98916,17.4465,6.63538,7.45104,17.1832,6.82822
11.2506,0.0956136,-13.4598,22.6116,-2.02099,-13.3235,23.6036,-2.5527,-13.4396,23.6207,-1.58358,-13.2867,23.2118,-2.78321
4.38817,0.108287,5.26847,29.9246,3.7205,4.49347,28.85,4.13184,5.68831,30.0621,3.62418,5.9948,29.7228,4.00131
0.737744,0.0462329,-2.67914,16.1031,-7.03869,-1.9751,16.15,-7.08517,-2.47329,16.1967,-7.05395,-1.97655,16.1937,-7.10583
8.20272,0.298907,4.9078,3.10469,4.38103,6.29191,2.96942,4.29414,4.13622,2.53566,4.41523,4.02539,2.59665,4.51581
1.46727,0.0745586,12.3444,7.41887,2.61765,12.2559,7.67721,2.98745,12.3274,7.18361,2.68991,12.599,7.54254,2.42064
0.864581,0.0388015,-11.1502,30.2252,-1.73811,-11.8156,30.0848,-1.63112,-11.669,30.0915,-1.73485,-11.8013,30.1132,-1.49673
26.8111,0.252164,-1.39539,10.0309,7.23148,0.618306,9.81714,6.87562,1.33501,8.9115,6.58458,0.447149,8.54782,6.81905
14.4794,0.435354,2.89336,10.0967,4.85544,4.41665,9.89081,5.69095,3.74431,9.49551,6.19013,4.28052,10.6112,4.85136
0.179068,0.0253919,-3.8471,20.1771,-7.61883,-3.90477,19.8726,-7.69294,-3.41037,20.2141,-7.67444,-3.83499,19.8725,-7.69873
11.9421,0.534861,-11.3062,2.86803,-1.195,-12.2883,3.88524,-2.31054,-10.9878,2.61221,-1.72624,-12.4783,1.74831,-0.928837
1.65602,0.0793856,-10.8402,3.19493,-4.00981,-10.8745,2.70508,-3.48631,-10.9312,2.49945,-3.14362,-11.0804,2.71868,-3.2432
0.0633183,0.0523787,8.88444,3.89443,-4.71714,9.0964,3.92979,-4.81969,8.94522,3.89084,-4.68965,9.09602,3.97214,-4.84081
3.97246,0.0174593,-1.24428,9.51201,7.14206,-0.585964,8.82456,7.05698,-1.70079,8.70157,7.15311,-0.587243,8.68258,7.04853
0.443067,0.0327886,-3.35608,25.2912,-7.2411,-4.18966,24.9273,-7.16323,-4.18113,24.9811,-7.15753,-3.27826,25.2021,-7.22717
3.29484,0.0026169,13.0267,8.44165,-1.8595,13.1984,9.17345,-1.59553,13.1954,9.47063,-1.7055,13.0856,9.72324,-2.12426
0.408825,0.0321701,-5.71849,29.8262,-4.79882,-5.48835,29.9938,-4.6103,-5.40884,30.0425,-4.57342,-5.4301,29.8707,-4.76952
2.90765,0.354063,4.16589,3.47046,-5.22013,4.74566,2.79057,-4.90636,3.34179,3.18076,-5.82566,4.59828,4.09009,-6.00123
6.33623,0.255349,-0.911164,20.9692,-6.97624,0.411424,21.0371,-7.15438,-1.38041,19.4667,-7.76312,-1.20481,21.199,-7.18511
15.4792,0.393769,10.1475,17.9295,5.73377,8.40064,19.2524,6.54918,7.80318,18.2495,6.50935,7.61989,19.3834,6.67706
3.44222,0.0510236,5.87101,23.8412,6.42524,5.78804,22.8911,6.83398,6.23095,23.7065,6.37167,6.21345,22.8106,6.80079
5.66815,0.335533,-9.70357,10.4704,4.40116,-10.1861,10.2883,4.53987,-10.0966,11.7187,5.25765,-8.9595,10.1702,4.89705
1.6531,0.363618,-6.62627,9.28355,-6.02506,-5.03933,9.22635,-6.35041,-5.05807,9.14012,-6.33219,-4.9808,9.07999,-6.36129
3.7463,0.121045,-7.43073,6.35547,5.76144,-8.24377,6.28157,5.60758,-6.97103,7.47623,6.21624,-8.1045,6.39475,5.6647
3.02774,0.0306535,9.41375,8.74408,-4.84308,11.0287,8.78338,-3.94065,11.5035,8.71847,-3.65871,11.5095,8.62195,-3.64748
0.749274,0.217451,9.14238,7.13084,5.00782,9.06543,7.55303,5.04118,9.42512,7.26858,4.92406,9.13304,7.50747,5.00991
0.159381,0.221734,4.8978,14.6384,-7.49747,5.25608,14.554,-7.45296,5.17792,14.5196,-7.45623,5.05134,14.4565,-7.48324
15.8129,0.292224,3.3866,13.9549,6.55393,0.177994,16.0311,7.52947,3.35351,14.5441,7.27369,1.59719,14.644,6.9555
2.86552,0.0499175,-7.2444,29.8017,2.6493,-6.96902,28.4803,3.00756,-6.89272,28.4858,3.03984,-6.3716,29.8845,2.95848
23.5367,1.01947,3.19267,19.0025,6.61978,4.6729,17.5615,7.53948,5.23375,18.8829,7.04373,5.86693,18.58,6.89353
0.914705,0.0341698,12.9139,19.7805,-0.280563,12.7197,20.4025,-0.477541,12.6881,20.4651,-0.359365,12.8254,20.0144,-0.415057
2.50121,0.120993,-9.85743,13.6757,5.47672,-10.2259,13.6397,5.36463,-8.82599,13.692,6.36656,-10.2991,13.9503,5.28216
4.96591,4.11996e-05,4.12081,4.73285,5.30536,3.66502,3.85685,5.14159,4.03899,5.25129,5.52909,3.34996,4.01723,5.31522
8.89647,0.441343,6.38447,20.9539,6.12873,6.91117,20.2736,6.65687,5.98196,21.0093,6.58939,6.9731,22.1183,6.35739
3.10438,0.600409,-5.09488,2.53301,4.7799,-4.93035,1.7165,3.68559,-5.07568,1.65953,3.64124,-4.56192,1.67612,3.7008
12.7824,0.143751,5.25411,30.6985,2.56166,4.42606,31.3525,0.553039,5.20245,31.2846,0.862667,4.50403,31.008,1.89302
3.43624,0.0525222,5.97479,25.8734,5.24602,5.73301,25.7349,5.64268,8.0494,25.6562,4.91068,5.6654,25.5862,5.89353
21.5124,0.901039,11.7057,6.71169,-3.98656,9.99345,7.72725,-5.22848,9.33385,6.89739,-5.58515,9.28109,6.30089,-5.2996
5.75107,0.500321,-9.15148,28.8924,1.80242,-8.43819,29.2238,2.34443,-9.83246,27.9869,2.91448,-9.87723,29.6,1.76878
11.5867,0.0126719,-8.014,5.72128,5.53346,-6.13156,5.11574,6.10798,-6.03257,6.56389,6.13003,-6.3538,5.9336,6.03795
3.66197,2.383,5.80198,8.87057,-6.17224,3.31076,8.93742,-6.62701,3.31712,8.97062,-6.66195,3.31968,8.80216,-6.56536
0.00380696,0.0123729,-10.8098,24.4047,-5.97414,-10.8708,24.4294,-5.95885,-10.8234,24.4557,-5.97107,-10.8771,24.4692,-5.96703
8.07269,0.215967,12.2531,3.17076,-0.764243,12.3311,2.3722,-0.450284,12.4182,2.45273,0.109125,12.621,3.76123,-0.69204
11.6455,0.609806,-4.75006,17.4552,-6.57402,-3.42013,18.8411,-7.72487,-5.7521,17.2758,-7.09753,-4.0685,16.4425,-6.93982
6.09317,1.40469,2.06797,20.6297,-7.37919,0.607962,20.7433,-7.0151,0.372575,20.582,-7.30064,0.703152,21.2067,-7.0443
6.44383,0.0486747,10.7188,14.9412,-4.6226,11.019,13.944,-4.94031,10.187,15.1793,-4.9395,10.8644,13.9491,-5.10169
10.3545,0.219013,4.36111,23.6791,-6.90496,8.98207,23.2598,-6.15333,8.98639,23.3521,-6.15615,4.63597,24.2965,-7.09667
2.29224,0.0685078,9.61156,3.46545,-4.60855,8.92041,3.30909,-4.44794,8.87154,2.92515,-4.0889,9.62211,3.13613,-4.40251
3.71728,0.402304,4.28138,1.53662,-3.58881,4.89806,2.30548,-4.57757,5.08744,0.680869,-3.0327,3.73867,1.34597,-4.22647
0.339359,0.106069,2.11994,2.10956,-5.33175,1.79718,2.18354,-5.33913,1.76584,2.27548,-5.4208,1.70114,2.11033,-5.30673
3.43982,0.429564,-8.69762,17.2445,-5.88515,-8.14422,16.5685,-6.1867,-9.19325,17.109,-6.24417,-8.10346,18.4941,-6.77952
22.7895,0.102073,-9.31259,7.37963,5.21562,-10.2667,5.51753,4.21155,-10.8878,7.00018,4.05203,-9.34664,5.53404,4.9234
0.143068,0.018748,-6.56591,21.6624,-7.151,-6.30644,21.7428,-7.20783,-6.30723,21.8328,-7.22185,-6.7166,21.7015,-7.16157
22.1858,0.225456,-2.33847,1.77388,4.15802,-0.658294,1.42068,3.94098,1.13781,0.590307,2.21443,-0.603121,0.787448,2.62708
17.1245,0.540258,12.4412,2.71115,0.323292,12.5535,3.53098,-0.342198,12.9596,5.32117,-0.290389,13.0799,6.932,-0.399024
13.8137,0.717122,-9.75722,18.0676,4.88105,-9.14656,18.3953,6.04789,-10.9483,18.6653,5.09277,-10.306,15.6555,5.24612
1.01149,0.111809,3.36692,29.0767,-5.51544,3.18746,29.3478,-5.23971,3.39632,29.296,-5.25077,3.48335,29.4611,-5.14377
3.02352,0.0207559,-5.13063,26.9305,-6.80007,-5.5528,26.5384,-6.85569,-5.98488,26.4371,-6.85448,-5.75648,27.1963,-6.66657
0.0377672,0.0758068,-9.42445,21.3391,5.98221,-9.51731,21.2749,5.88919,-9.63464,21.2653,5.85413,-9.57114,21.2787,5.85316
16.5781,0.00641606,-6.72595,16.735,6.83196,-6.05797,17.964,6.54415,-4.65661,18.734,7.17984,-5.79739,18.9954,6.04373
8.77119,0.0246304,-13.6359,17.8263,-0.583239,-13.6541,19.2151,-0.906222,-13.6154,18.076,-0.322184,-13.6316,18.1662,-1.56241
16.9199,0.452714,12.3877,14.7671,3.56433,10.5434,15.7179,5.16446,10.3693,14.6503,5.21337,10.8842,14.7974,4.63101
1.42449,0.43534,-6.99333,3.19847,5.05627,-6.35313,3.20882,5.16989,-6.07608,2.6803,4.78061,-6.16322,2.82163,4.85457
2.29184,0.0212701,7.21495,12.7174,-7.22527,6.85097,13.2022,-7.32292,6.22286,12.9377,-7.42796,6.29969,12.9895,-7.41558
0.656945,0.049059,-6.5274,7.36103,-6.4704,-6.6041,7.11771,-6.52089,-6.38567,7.34801,-6.54252,-6.80161,7.25899,-6.48329
1.75061,0.41299,-7.16903,26.0745,-6.71852,-6.81096,25.2737,-6.5543,-8.19676,26.379,-6.57569,-6.64988,25.1967,-6.50049
2.90692,0.0848391,-12.5308,26.1107,2.67017,-12.4094,25.7491,3.1965,-12.167,26.6176,2.82729,-11.723,25.628,4.00889
0.00249622,0.039693,-9.87725,21.0839,-6.263,-9.82229,21.0472,-6.27554,-9.82154,21.0777,-6.27646,-9.81619,20.9927,-6.28551
12.8074,0.959399,1.41115,5.99527,-5.87657,3.17319,3.8286,-6.25911,0.414367,5.53323,-6.85189,2.37363,7.59774,-7.10539
24.5522,4.46054,10.6387,25.2026,4.57272,6.22377,24.9675,5.90049,6.29359,23.7492,6.33491,6.32006,23.325,6.55495
25.5236,0.499152,-12.2658,9.20746,3.10851,-10.1501,6.41227,4.50274,-11.2243,5.77686,3.3989,-10.877,6.31353,3.87435
4.77146,0.630596,-6.78201,19.7066,-6.87427,-6.19269,18.475,-7.33543,-6.19095,18.7194,-7.29549,-6.30116,20.2456,-7.20519
4.65182,0.247625,10.3701,28.4174,2.76163,10.3242,28.9706,2.69971,10.5854,28.1936,3.20822,11.91,28.118,1.67661
38.8456,0.782911,-6.34294,20.0976,5.8404,-4.03238,20.2459,6.71876,-3.91731,21.823,7.2313,-7.74499,19.4016,6.43327
0.494303,0.0735821,-8.12437,29.488,2.67598,-8.45027,29.281,2.32736,-8.36174,29.2688,2.43056,-7.8439,29.5638,2.81877
0.773526,0.0559744,1.3437,31.24,-2.67935,1.16817,31.0317,-3.09213,1.0895,31.0574,-3.04471,1.31826,31.0685,-2.96584
32.5627,0.488621,-4.28773,4.58661,-6.46909,-7.26316,4.07221,-5.70985,-6.98769,4.75352,-6.017,-6.38775,5.47984,-6.34345
0.119157,0.0424283,10.2555,2.98005,3.25923,10.2551,2.79261,3.24284,10.3961,2.78545,3.17264,10.5363,2.66853,3.06419
48.3083,0.0773804,-13.4202,25.8971,-1.41832,-13.5112,27.112,-0.145261,-13.3851,25.783,1.26654,-13.4383,26.634,1.05615
3.03872,0.501428,0.0425202,28.0587,4.89344,0.524849,27.345,6.05071,0.646978,27.3283,6.09564,0.635308,27.7764,5.82888
7.88515,0.264689,12.1642,6.39513,2.61079,10.3382,5.4243,4.07883,10.071,5.49668,4.27923,11.4444,6.33267,3.43745
11.4454,0.163203,-12.0715,4.95902,2.14386,-11.5613,3.11976,2.38575,-10.0542,3.63586,3.93345,-12.2733,4.17377,1.68619
7.88113,0.178478,5.46465,7.5708,5.67251,5.21505,6.47802,5.62633,5.08997,8.24071,5.91813,4.99138,6.61236,5.61688
4.87732,0.0385561,-3.84086,30.1065,3.377,-4.12034,29.497,3.42337,-4.19837,28.6397,3.59591,-4.35026,28.6751,3.56361
13.031,0.314551,-6.31275,10.6108,5.70042,-5.21345,7.69258,6.24844,-5.71099,7.23206,5.88472,-6.1017,8.08155,5.79092
1.38789,0.00363592,2.03429,28.2519,4.72351,2.5085,28.747,4.83824,1.80319,28.4882,3.99088,2.43977,28.6193,4.89803
2.21707,0.000383859,2.07065,16.0064,-7.11548,1.01384,15.9334,-7.13339,0.507488,15.977,-7.14232,0.4435,16.0748,-7.14363
1.65033,0.0459066,7.73549,5.03901,4.82597,7.80043,5.29946,5.00645,8.34526,4.63837,4.53732,7.74077,4.7282,4.70992
2.69425,0.133526,0.379407,16.0735,-7.14096,-1.92283,16.0495,-7.09868,-1.78797,16.153,-7.09311,-1.9164,16.1033,-7.09075
61.4771,1.45055,11.8805,1.67806,-1.0526,10.6277,2.82008,-2.1212,10.2132,1.89508,-2.82718,11.129,4.63966,-3.60026
5.35403,0.129897,-9.20752,8.42624,4.83974,-7.21974,9.08832,6.20185,-9.83553,8.44906,4.59568,-7.36501,9.10889,6.10873
36.1964,0.603816,-8.82935,2.12948,-2.59926,-9.19941,0.816891,-2.1375,-7.19674,1.58774,-3.47433,-9.47729,3.75756,-4.68306
0.991963,0.145913,10.0304,14.5732,5.31032,10.3924,14.4324,5.28631,10.3628,14.6961,5.20646,9.69444,14.7516,5.6809
2.74948,0.00611878,0.521612,10.9909,-7.69833,0.113478,12.0963,-7.73939,-0.0294811,12.0919,-7.74421,1.02038,10.9531,-7.67383
1.0743,0.138205,11.9661,3.49175,1.75287,11.9815,3.80201,2.0521,12.1423,3.64518,1.60308,12.2405,3.14893,1.4714
29.0886,0.498154,-1.52202,25.5807,5.92058,-0.169838,25.331,6.30742,-1.88912,26.5785,6.18769,-1.89968,23.9064,7.05738
34.653,0.148738,2.26762,31.4073,0.783166,5.06388,30.5659,2.94774,2.8894,30.8849,2.45883,4.56546,31.0466,1.77622
16.8697,0.228335,-13.2063,6.59437,-0.785009,-13.3064,7.96156,-0.271527,-12.5442,6.43109,-3.16179,-13.0883,8.18477,-1.82046
4.62932,0.0752836,-2.4515,7.71173,6.99003,-3.3003,7.96481,7.02296,-2.36959,7.08132,6.82803,-2.7763,6.69152,6.81682
0.137749,0.0729789,-12.6537,15.63,3.24649,-12.4809,15.5326,3.53623,-12.3126,15.6655,3.74502,-12.3062,15.5929,3.74141
11.4632,0.0081249,10.8248,4.79315,3.34055,9.2602,4.74611,4.43532,9.60857,3.94203,3.866,9.53516,4.46205,4.12508
45.6459,0.817581,-7.01927,15.0149,5.81699,-7.34483,16.7931,7.01632,-4.72679,15.0285,6.67639,-7.41069,12.836,6.19784
4.84869,0.556614,-10.9744,2.61845,-1.76442,-10.4858,1.585,-2.84497,-10.9772,1.79076,-2.32952,-10.7703,2.04689,-2.68675
19.3612,0.0455389,-6.27717,14.8529,-7.22349,-4.53329,13.1198,-7.32871,-4.1769,14.2754,-7.40732,-4.1744,13.3485,-7.36672
2.91645,0.100402,-12.611,15.1895,-4.01289,-12.5044,15.3507,-4.4931,-12.7945,15.265,-3.92348,-12.313,14.8026,-4.60437
8.95212,0.63952,2.94199,6.03719,-5.73005,3.27674,6.519,-6.13682,4.37925,4.12452,-6.05264,4.10332,4.46381,-6.17888
29.2541,0.0199424,1.43324,31.0622,2.20612,-0.45679,31.4638,0.719953,-0.234758,31.5853,0.302076,-0.59809,31.1806,1.71945
9.28071,0.477648,9.74012,29.1101,2.37413,9.38538,30.3095,2.29692,10.0997,28.9731,3.01656,11.9075,29.3694,0.682613
18.364,0.0195072,8.02364,31.0651,-0.0634195,6.10394,31.1543,-1.62658,4.33804,31.4641,-0.818729,5.38878,31.3697,-0.335365
0.128512,0.0230281,-5.65663,25.4446,6.3716,-5.60425,25.1433,6.51505,-5.60821,25.3599,6.43924,-5.67808,25.1816,6.48162
0.443891,0.00232702,-13.3183,22.821,0.813307,-13.3846,23.0239,0.534703,-13.3775,22.8492,0.547458,-13.3447,23.0765,0.714317
0.561584,0.183149,5.02781,11.6096,-7.46045,4.43007,11.6304,-7.51758,4.3845,11.9154,-7.51071,4.31228,12.004,-7.53376
98.4807,3.12916,-4.99369,23.9639,-6.41266,-1.30825,25.9298,-7.23794,-1.14642,22.9646,-7.48845,-1.05586,23.99,-7.28447
10.0572,0.218147,12.341,14.8468,-4.08832,13.3459,14.6971,-2.52489,12.7554,14.5722,-3.63716,11.0169,14.9815,-4.64571
1.11535,0.158823,-12.5593,28.2722,1.02213,-12.8256,28.7967,0.783855,-12.5791,28.8,0.986459,-12.5063,28.8627,1.06888
0.737122,0.292297,-13.5341,18.1115,0.233771,-13.5842,17.7245,-0.201128,-13.5676,17.495,-0.0460823,-13.5323,17.6376,-0.0699576
5.63677,0.158472,3.33664,10.1905,-7.45189,4.23943,10.7989,-7.48545,3.75457,11.0165,-7.53219,4.52348,10.4917,-7.40745
19.3781,0.635141,2.29583,9.23617,5.37945,2.04003,8.3915,6.14351,1.38138,6.92011,6.35705,1.09525,7.35888,6.2943
1.53393,0.478099,-6.61783,9.32644,-6.04348,-7.934,9.3225,-5.77164,-7.86618,9.37061,-5.80044,-7.9394,9.26762,-5.7862
25.9054,0.165757,11.7336,21.0151,2.8554,13.1507,21.1257,0.382869,12.3743,17.9315,3.49105,12.7851,17.3671,2.96003
0.0343713,0.00372077,7.474,9.68822,-6.73176,7.37787,9.64709,-6.74612,7.47461,9.61555,-6.69705,7.39631,9.60351,-6.72115
16.2699,1.44821,-3.89822,0.895164,2.67967,-7.09978,1.06709,2.34842,-6.35042,1.46612,3.18873,-7.469,0.843578,1.63643
1.5197,0.415363,-9.91754,19.7975,5.25112,-10.6352,19.9306,5.06303,-10.6206,19.7595,5.17186,-10.7134,20.0963,5.00057
5.42575,0.165576,12.8254,7.58372,0.551428,13.2335,8.84428,0.00412583,12.723,6.53562,1.2029,12.7104,6.06021,1.29505
0.0802332,0.0091371,10.6283,11.0145,-5.71025,10.3872,11.0842,-5.91143,10.3955,10.9976,-5.88789,10.4824,10.968,-5.81862
10.5428,0.115723,-3.44097,12.0696,5.90912,-0.471165,11.3574,6.42712,-0.0664924,11.1771,6.33902,-0.797564,11.34,6.10254
1.39395,0.14582,8.95851,8.74961,-4.98335,8.5069,8.51355,-5.41168,8.51522,8.7052,-5.40193,9.41963,8.83207,-4.8886
16.6164,0.171752,-0.44627,12.0423,-7.7349,-2.04401,11.3619,-7.58944,-1.35578,10.7883,-7.66302,-1.08383,10.7925,-7.66938
1.89341,0.0222484,-11.9716,6.1882,-3.99166,-12.3673,6.94185,-3.60864,-12.4211,6.72847,-3.49258,-12.1119,6.81915,-3.9117
2.86577,0.010615,7.76206,7.28047,5.38696,8.20244,6.42924,5.19889,6.73882,6.71525,5.5555,6.74449,6.38193,5.5238
4.02597,0.18964,-10.2738,26.597,-5.97339,-11.8672,27.3301,-4.80089,-11.6687,27.2914,-4.97703,-10.9456,26.2948,-5.64134
4.56063,0.342079,-2.72816,16.1991,-7.02866,-4.24309,16.0693,-6.91581,-3.5306,16.5422,-7.13551,-3.93652,16.4803,-7.00939
4.60172,0.00872854,-0.796578,23.204,-7.46537,-0.658716,22.5355,-7.54244,0.319158,22.7063,-7.62467,0.322093,22.9485,-7.60514
6.92078,0.140222,12.1985,22.5625,3.38974,11.076,22.2802,4.71368,11.318,23.1238,4.443,10.6035,22.619,5.17142
0.837532,0.118208,2.51181,25.099,6.75749,2.18134,24.9312,6.93299,2.63806,25.2957,6.8255,2.80395,24.906,6.91867
9.56949,0.546654,12.3762,16.659,2.02456,12.6767,16.9718,3.20537,12.3689,15.9458,2.55564,13.5606,16.8604,1.29975
0.27622,0.0140426,1.58696,9.70638,-7.4375,1.59387,9.52998,-7.38974,1.39922,9.78349,-7.46149,1.30296,9.69719,-7.458
9.40739,0.158181,12.5386,4.92062,-1.89185,12.892,4.97231,-0.452639,12.8717,4.83972,-0.462409,12.8779,5.91042,-1.60998
3.64602,0.629093,-0.357111,20.5909,6.49599,0.846345,20.6813,6.96171,0.485375,20.8985,6.96202,-1.25152,21.0451,7.16635
4.06468,0.0933455,6.81367,12.7087,5.59437,8.61332,12.1617,4.69968,9.22593,12.4828,4.50486,8.61725,12.0622,4.66919
38.8911,0.198745,2.90535,13.29,5.8131,5.18939,13.3562,6.69173,2.89288,10.617,5.40845,3.38868,10.759,5.58248
3.48665,0.00429104,-6.84673,31.0296,-1.69394,-5.98709,31.1846,-1.53495,-5.31597,31.0856,-2.38352,-5.96394,30.9598,-2.55885
54.3757,0.205103,-13.4594,23.4232,-0.541487,-13.4768,25.1474,-0.03971,-13.4834,25.6437,-0.346873,-13.3339,25.5,-1.4049
3.81833,0.313625,-6.01351,24.0531,-5.99087,-5.52013,24.0132,-6.19713,-6.58717,25.1545,-6.48077,-6.32587,23.5396,-6.36946
53.4916,0.684175,-3.58164,20.241,6.2865,-3.00418,18.071,7.49318,-1.45022,20.6366,7.00202,-1.22059,16.9974,7.81439
4.53698,0.463497,-8.22386,18.6077,6.04652,-8.77838,18.9161,6.28824,-7.74042,19.3591,6.4428,-7.93107,17.7632,6.92307
80.2726,0.100933,-4.60107,7.00701,-6.89602,-7.9669,5.81243,-6.0321,-7.88795,5.94044,-6.07404,-5.62507,5.45862,-6.47868
4.13353,0.00927965,4.77097,1.36708,3.27947,6.95174,1.55999,2.97442,5.74809,1.49169,3.18644,6.50706,1.4031,2.87183
7.01331,0.431981,-0.446223,18.4165,7.29208,0.171939,20.2889,7.02218,-0.466718,20.0405,6.79503,-0.423996,20.3739,6.60261
5.9191,0.310311,0.680155,23.4292,-7.5749,0.59541,21.5754,-7.26954,0.767239,21.8101,-7.27405,0.60853,21.1902,-7.11447
1.04784,3.2054e-05,-12.2964,3.91967,-2.33668,-12.612,4.51842,-2.90015,-12.7134,4.46581,-2.78969,-12.5946,4.38892,-2.75427
0.274815,0.0186274,-5.3548,31.2377,-1.76308,-5.06886,31.2816,-1.50596,-4.94012,31.286,-1.74112,-5.13498,31.2713,-1.50331
6.42792,0.431186,0.256901,2.29219,-4.18991,0.616612,3.10434,-5.82591,1.28441,2.48605,-5.49265,0.206937,3.45108,-5.92929
6.71113,0.19924,-2.52722,21.1703,-7.02756,-1.40639,21.1338,-7.23874,-2.7531,21.0794,-7.21568,-2.53145,22.8684,-7.3997
0.0216774,0.0115395,-2.78208,26.7223,6.17247,-2.77334,26.6944,6.16309,-2.66356,26.677,6.14693,-2.7085,26.723,6.14809
4.21852,0.138198,13.5583,12.9088,-0.323509,13.6176,13.6982,0.896159,13.5316,13.3606,0.332973,13.57,13.5565,1.21314
4.35237,0.173285,8.3377,6.28558,5.13954,9.52809,5.57038,4.53006,9.59022,5.7609,4.54983,9.58097,6.05536,4.63479
2.42878,0.467199,7.94356,1.79537,3.11403,6.823,1.99367,3.5211,6.64636,2.30817,3.97309,6.65209,2.36974,4.02626
14.5098,0.0209635,-4.00181,31.0137,-3.03383,-2.15987,31.6004,-1.24381,-2.78212,31.555,-1.06643,-2.68029,31.3753,-2.10105
0.402671,0.0196189,-13.1353,5.70328,-0.0349784,-12.9554,5.66226,0.599922,-13.0009,5.60028,0.440224,-12.9421,5.7321,0.657908
1.37242,0.134322,-0.516469,18.1044,7.3644,-0.541843,18.3751,7.33407,-0.443136,18.3725,7.30325,-0.1314,17.8408,7.62494
6.13893,0.317973,6.72059,5.4508,-5.00694,7.24101,5.16295,-5.26314,6.58164,5.7965,-5.33074,5.47644,4.89417,-5.56611
21.7239,0.0356522,4.77986,19.5755,6.85459,7.47372,19.9104,6.53653,4.01978,19.3738,6.92676,4.64858,20.8855,6.45993
13.6468,0.143288,-3.26427,31.4679,-0.233614,-1.57149,31.3328,1.11694,-2.17033,30.7199,2.63726,-1.57165,31.5275,0.474843
35.9498,0.199467,-4.87374,24.018,6.51796,-3.22787,25.3235,6.46079,-4.53838,25.958,5.88076,-2.46915,24.3523,7.08694
14.3501,0.0450011,-3.09811,31.0322,-3.08089,-1.77633,31.4501,-2.01742,-1.62856,31.4128,-2.159,-2.11907,31.0439,-3.12602
6.2464,0.205458,10.3076,13.0082,4.36508,12.6335,13.4409,3.18955,11.9579,13.1877,3.44076,11.8984,13,3.43173
2.14417,0.38459,3.71026,30.7998,2.57582,4.70859,30.127,3.65651,4.22838,30.7071,2.77069,4.39419,30.5294,3.1001
23.4883,1.25544,-10.266,7.98542,4.20651,-9.50507,9.78125,4.91692,-10.0261,9.97392,4.60666,-11.101,9.74755,4.35407
3.15735,0.858113,-6.44542,13.5479,6.28845,-6.43536,14.6067,6.01552,-6.6459,14.7023,6.05531,-6.06329,14.749,6.18607
7.92835,0.267106,9.68763,17.7488,-6.44916,9.85319,15.6662,-5.95112,9.20642,15.6634,-6.31188,9.11772,16.4779,-6.64515
3.56442,0.264464,-5.45573,19.3172,5.94203,-5.95317,19.8354,6.10179,-5.72332,19.0368,6.01944,-4.12594,19.3412,7.07566
0.0533087,0.0397377,-12.6088,21.2929,-4.87186,-12.7141,21.2051,-4.76407,-12.649,21.3654,-4.82172,-12.6469,21.2758,-4.80713
2.15477,0.0774863,-8.37188,18.2159,-6.56175,-9.44046,18.4353,-5.96337,-10.2088,18.4378,-5.51529,-10.2028,18.4793,-5.54283
6.88446,0.585473,4.91747,16.1458,7.33656,3.36824,16.2444,7.46698,3.67745,15.8433,7.4712,3.44923,16.5967,7.58416
3.38434,0.187974,-2.03597,25.5499,6.46441,-4.02921,25.4949,6.02453,-3.40333,25.6367,6.16539,-4.03498,25.536,6.00027
0.136699,0.0384127,-13.2885,12.2974,1.76471,-13.3312,12.3784,1.56457,-13.3414,12.2412,1.5098,-13.3164,12.2995,1.58649
65.7578,0.247225,12.706,23.0513,-3.18583,12.7625,26.9184,-1.25506,12.6767,27.862,-1.45639,12.3525,27.9902,-2.78485
4.50835,0.304668,5.29896,1.69772,-3.50409,5.9345,0.738742,-2.80036,4.81242,1.48658,-3.82665,6.10121,2.33717,-4.47693
13.8543,0.324362,-6.06196,29.8775,-4.74246,-3.17915,30.9553,-3.24525,-3.21126,30.7582,-3.71659,-3.25005,30.9704,-3.2029
1.76468,0.115537,2.28559,6.82717,6.16062,2.65187,6.71879,6.23805,2.3411,7.6498,6.33155,2.30941,6.46871,6.24899
34.1497,0.08251,-3.55863,18.116,-7.61183,-0.412232,17.8378,-7.76621,-0.0660674,18.0148,-7.82478,-2.57254,18.8485,-7.73041
164.824,0.0467966,-8.5519,11.6417,-6.65417,-0.647339,14.6079,-7.75541,-2.1008,14.9127,-7.57833,-2.53025,11.9915,-7.46674
14.0807,0.714674,-11.1401,14.3141,4.23596,-9.34682,15.6847,6.04393,-10.1295,15.5997,5.39991,-8.46048,15.4031,6.24084
0.717694,0.0725425,-10.6728,5.3529,-4.79352,-10.5102,5.35573,-5.018,-10.8692,5.35676,-4.72906,-10.9566,5.109,-4.63752
0.684956,0.0632465,7.29471,30.6264,-2.63843,7.49316,30.6168,-2.78248,7.07848,30.6777,-2.72813,7.38022,30.7535,-2.4794
0.763748,0.0662269,6.80051,30.1797,-3.67898,7.01306,30.1431,-3.81827,6.58556,30.2107,-3.81395,6.82359,30.3665,-3.48657
1.49668,0.00357228,-2.88276,11.2581,7.2038,-2.18109,11.3316,7.14898,-2.28329,11.4905,6.77468,-2.64312,11.498,6.69667
3.76862,0.320711,-11.519,9.5497,-3.99154,-11.8327,7.94238,-4.35196,-11.8918,8.6247,-4.14218,-11.7551,9.73606,-4.19448
3.05223,0.0719065,-1.09775,5.84548,6.38465,-1.10617,6.34897,6.61884,-1.6527,5.89176,6.53252,-0.673669,5.47649,6.30079
27.231,0.668864,0.697511,18.5351,6.63672,1.47029,17.8831,7.46664,0.0393684,19.8289,7.04625,2.27543,18.9007,6.53529
4.98483,0.59953,10.4339,15.4696,-4.78292,12.9092,16.9491,-3.61728,12.8608,16.7067,-3.53419,13.01,16.8369,-3.42685
0.381124,0.0227813,-13.3663,4.07649,-1.6788,-13.3544,3.73918,-1.44853,-13.4037,4.11216,-1.20968,-13.4019,3.97328,-1.16555
1.04273,0.00258768,13.7572,16.1587,-0.0180784,13.7643,16.4062,0.490164,13.7871,15.7287,0.0653044,13.7542,16.3664,0.1518
6.37858,0.370693,7.39101,3.11138,4.2995,8.65999,3.13481,3.91895,8.03505,3.77235,4.48199,7.89718,3.88761,4.60023
0.088578,0.0041141,-12.5363,2.56676,0.98847,-12.4773,2.5582,1.09326,-12.3912,2.39622,1.20872,-12.4054,2.47539,1.20755
1.98128,0.0687045,3.38891,15.8856,-7.09432,2.13446,15.963,-7.0932,2.05108,15.8568,-7.12115,3.0425,15.8441,-7.05627
1.64805,0.0592833,4.99235,17.9443,7.27389,5.09128,17.6551,7.44233,5.34478,18.1407,7.25112,5.03545,18.5201,7.1196
5.72385,0.00238328,-9.27821,4.45185,4.76591,-9.89911,5.6269,4.5112,-10.0334,3.95299,4.01819,-9.80947,4.78113,4.39372
4.91061,0.241665,-0.176862,24.6995,-6.93719,-1.17754,24.6774,-7.16602,0.208628,26.0763,-7.28961,0.493873,25.9383,-7.28242
11.9999,0.0501599,-0.388532,31.615,-0.166216,2.07447,31.3993,0.843931,0.387416,31.4936,0.613985,2.41556,31.4589,0.479501
0.733397,0.0634201,8.76453,29.4865,2.59222,9.36116,29.7047,2.78699,9.27173,29.8312,2.71922,8.65064,29.5101,2.61764
55.1125,1.66091,-9.54168,22.9909,-5.55784,-12.5098,23.5549,-4.62423,-11.2627,20.9177,-5.7061,-11.0818,21.8386,-4.98538
59.8322,0.296855,2.05138,2.692,4.33721,0.119682,2.91685,4.88624,3.92351,2.53103,4.47988,2.3838,5.74565,6.09383
19.7743,0.289186,10.1443,21.3737,5.05423,10.4778,17.9929,5.47835,10.5586,17.7889,5.37465,11.8286,21.1506,2.94712
17.4084,1.30917,13.0888,20.1045,-2.2488,10.3545,19.1803,-6.18603,10.9137,20.2701,-4.57373,10.9345,20.4268,-4.51669
0.978722,0.1608,10.1368,18.5755,-6.07423,10.5574,18.6932,-4.83199,10.6852,18.7942,-4.91201,10.4016,18.5731,-5.17829
19.0156,0.805097,3.35763,2.90779,-4.5099,2.86507,3.0003,-5.78035,2.684,1.08478,-4.28525,6.09416,2.72208,-4.65598
17.1422,0.180109,-10.7319,20.2715,4.95261,-10.8813,18.9527,5.13228,-12.7717,19.2179,2.65724,-10.8504,22.3108,4.97324
1.40708,0.00461225,-1.5448,14.0136,-7.65471,-2.02553,13.5212,-7.55346,-2.38254,14.2584,-7.55774,-1.89675,13.7435,-7.58863
12.4568,0.841466,-0.88485,8.99778,-6.75948,-4.91268,9.12969,-6.36034,-4.92581,9.03708,-6.37261,-3.70191,7.74742,-6.98717
6.01209,0.0139102,-5.46341,31.2559,-0.409803,-5.90643,31.2191,-1.21918,-4.84851,31.3499,-1.06519,-6.54434,31.1373,-0.752082
0.161456,0.000700138,-12.7685,19.5556,-4.81858,-12.8094,19.4966,-4.78001,-12.7564,19.1793,-4.83557,-12.649,19.1474,-4.93752
0.033945,0.0601318,-5.55343,6.62394,-6.68892,-5.6089,6.65609,-6.64123,-5.69878,6.62736,-6.65959,-5.69312,6.57996,-6.65582
6.01357,0.189164,-5.39989,30.9834,-2.68382,-4.99385,30.5543,-3.87486,-5.87056,30.7111,-3.44091,-5.1483,30.4262,-4.06599
2.53746,0.963844,1.92049,26.8715,5.33644,1.56746,26.2917,6.10985,1.64199,26.2968,6.1454,1.38049,26.3656,6.04405
2.27521,0.124604,-12.5999,26.7962,2.0623,-12.1806,26.8717,2.70595,-11.9783,27.0019,2.87267,-12.9685,27.2153,1.62693
1.24076,0.0152249,-9.97645,10.1935,-5.95897,-10.4607,10.4791,-5.71963,-10.1852,10.9421,-5.9469,-10.3191,11.0498,-5.87947
13.6017,0.76072,-9.18495,19.7518,4.81692,-10.3052,20.854,5.27284,-7.68796,19.9129,6.20619,-9.73331,18.5246,5.35222
10.0336,0.0330439,-3.37986,3.64422,5.58523,-3.2444,4.22231,5.88624,-3.87522,5.06269,6.29983,-4.87956,4.83668,6.07608
0,0.00620511,-6.83471,18.9387,6.64103,-6.77897,18.9369,6.68153,-6.7888,18.9687,6.67768,-6.82589,18.942,6.64099
19.3133,0.563833,6.48947,18.3223,6.45251,6.93726,19.4713,6.82419,5.46399,18.3047,7.09647,6.12471,17.2848,7.20113
28.4222,0.158742,9.45753,30.6176,-2.17455,10.5299,30.7932,0.437755,11.2996,30.6136,-1.18843,11.0638,30.7463,-0.0428102
2.20416,0.187378,-3.68547,12.5494,6.03764,-3.28025,12.3346,6.05631,-4.04735,12.8717,6.60579,-3.21766,12.9368,6.5727
1.79644,0.363521,9.28095,21.3132,5.69153,9.29077,20.6703,5.98707,9.45319,20.4427,5.96393,9.60678,20.2267,6.02104
3.02602,0.508114,9.26448,20.004,6.16068,7.75278,19.8076,6.43726,7.61576,19.8596,6.50463,7.59804,19.9961,6.4934
49.3154,0.644419,7.86407,2.35911,-3.04216,7.25539,1.8931,-3.99786,8.59741,0.954303,-2.25721,9.22711,4.64688,-5.15414
3.27718,0.0241368,6.93539,3.06567,4.20307,6.64418,3.47314,4.66766,6.37019,2.95883,4.26339,6.21337,3.09296,4.41884
12.193,0.00831334,-1.0741,31.4271,-2.18888,1.4602,31.5211,-1.95414,-0.422023,31.6004,-1.65235,0.0913242,31.2711,-2.67579
21.7554,0.313287,-6.00908,19.7894,-6.95313,-5.20496,20.7451,-7.3085,-4.71182,20.5531,-7.35437,-4.58865,18.3383,-7.42372
5.92233,0.159749,4.82929,10.6461,3.84387,5.37781,9.91082,3.21008,4.18493,10.8287,5.2202,5.33109,9.82668,3.28231
11.4994,0.108383,-13.3773,10.6473,-0.98395,-13.0708,11.5009,-2.46963,-12.7992,11.1663,-2.97249,-12.7985,11.0299,-2.83124
3.89642,0.0293882,-3.39798,28.1128,4.92924,-4.34911,28.6296,3.58392,-2.83464,27.9874,5.1798,-4.2012,28.598,3.61093
5.17512,0.0562442,-0.131147,6.51594,6.52132,-0.0227898,7.877,6.8201,-0.438356,7.91457,6.87108,-0.760952,6.75135,6.68924
8.10429,0.450215,-4.45549,26.3587,5.25718,-2.96499,27.8978,5.20854,-5.52223,27.0856,5.39411,-4.40246,26.0083,5.88554
1.21656,0.79034,11.6112,13.6066,4.03717,11.2608,14.2382,4.52827,11.1293,14.2014,4.59703,11.0579,14.165,4.66775
0.129267,0.16392,10.762,20.4129,-4.40739,10.4398,20.239,-4.99306,10.5315,20.3762,-4.7147,10.5505,20.4444,-4.8151
35.8966,0.000834143,5.96591,16.0283,-6.42211,9.13658,15.6558,-6.33481,6.15533,17.8182,-6.9624,9.03812,17.1024,-6.77012
12.3067,0.468106,-9.68089,27.3688,2.8216,-9.89744,27.9244,2.91704,-10.7602,24.2291,5.05753,-8.95504,27.7827,4.03717
3.28446,0.0952835,7.49198,2.71814,-4.52414,6.16329,2.69171,-4.61121,8.08255,2.84261,-4.40427,6.17097,2.75903,-4.71465
0.146855,0.0875231,2.9533,18.7835,-7.68748,2.74093,18.7748,-7.69161,2.77419,18.93,-7.67014,2.78223,18.8439,-7.66949
3.05314,0.00035452,-9.0583,3.6677,-4.29904,-7.28856,3.11107,-4.98535,-7.08131,3.01861,-5.00443,-8.23194,3.3525,-4.49603
0.367765,0.0166983,-9.0105,10.9061,5.70732,-9.09757,11.2501,5.92563,-9.12732,11.2027,5.85479,-8.97794,11.1089,5.89917
25.7266,1.00815,-7.89729,20.045,-6.94892,-7.54752,16.919,-6.5463,-7.61267,16.9705,-6.51736,-8.88323,19.0063,-6.75825
1.70567,0.419473,2.26285,9.63688,4.56488,2.03169,9.51674,5.16447,2.82317,10.0921,4.83095,2.72526,10.1346,4.8963
20.3843,0.16237,7.28563,11.1616,-7.06887,4.24873,10.9849,-7.49875,4.17157,11.8134,-7.54293,5.71962,12.3707,-7.42797
0.46808,0.0829985,-2.67922,29.5236,-5.06196,-2.58045,29.6826,-4.96472,-2.44574,29.6204,-5.08769,-2.8889,29.5576,-5.14485
0.0942018,0.249341,-0.0664864,5.50618,-6.93197,-0.347553,5.42582,-6.89774,-0.333769,5.51213,-6.91772,-0.337783,5.46791,-6.89956
6.45706,0.601455,3.44923,15.8864,-7.08654,3.27624,14.833,-7.60039,6.2091,15.5047,-6.64096,5.64497,15.6768,-6.88332
10.8066,0.0721059,7.80107,8.22446,5.44464,8.09862,7.60652,5.30772,9.96032,7.39291,4.73214,8.80416,6.95287,5.11977
0.125303,0.00577326,-2.58814,14.8198,-7.55056,-2.6354,15.1091,-7.5131,-2.57683,15.1048,-7.52345,-2.64864,14.9551,-7.52335
4.53431,0.0150114,-3.12567,1.26614,3.25164,-2.59023,1.40607,3.55973,-4.04638,1.44845,3.46673,-2.56007,1.61637,3.89541
0.304428,0.0219139,5.42155,12.6726,5.8755,5.3246,13.173,6.67316,5.4131,12.86,6.21258,5.24605,13.1463,6.59672
17.2636,0.135924,0.335355,10.7859,5.62989,1.22878,10.0708,5.33775,0.312881,12.1255,6.37695,2.06539,10.0322,5.20367
35.8668,0.869583,-13.3986,18.5742,-3.34115,-13.6666,18.4514,-1.28379,-13.6299,18.798,-1.29946,-13.6256,17.0197,-1.52767
0.214017,0.196138,-9.96763,1.04658,1.53219,-9.90545,1.11901,1.7054,-9.82306,1.08268,1.69244,-9.98139,1.11079,1.74176
5.34814,0.0940043,7.21413,20.4446,-6.82859,8.4062,20.3133,-6.52758,6.41762,19.8012,-7.32367,6.01528,20.4382,-6.99279
1.115,0.0323336,12.77,10.5934,2.54435,13.0665,10.3058,2.09539,13.0086,10.5429,2.05061,12.694,10.2858,2.81725
4.73276,1.61077,13.6943,16.814,-0.16726,12.9269,19.7303,-0.385943,12.9247,19.7145,-0.288041,13.4899,19.3635,-1.15813
21.9772,0.153419,-12.4344,11.1231,-3.62334,-11.937,12.6931,-4.53265,-11.8141,12.2197,-4.56645,-12.3851,13.4572,-4.12122
1.63921,0.0206294,7.48303,1.13692,2.32051,5.42023,1.21252,2.90083,5.86555,1.14857,2.71826,5.49188,1.23969,2.91132
4.03755,1.30994,-8.87798,10.0492,5.00306,-7.02906,9.41406,6.16919,-8.32084,10.7296,6.27403,-7.02593,9.36822,6.16886
7.14724,0.20903,11.178,3.88941,2.67469,9.28433,3.1094,3.65576,8.73789,3.03617,3.88025,8.72582,3.13608,3.88976
4.93846,0.192651,6.14694,18.3107,-6.88351,5.96808,19.2468,-7.4651,5.98997,17.8453,-7.04902,6.80141,18.4302,-6.81536
0.705006,0.148915,1.11396,27.4853,-6.77386,1.33403,27.7631,-6.59343,1.27207,27.8747,-6.56545,1.54286,27.7604,-6.61717
56.479,0.128353,-13.4451,13.7396,0.963429,-13.6634,15.179,-0.989076,-13.6432,15.3777,-0.367146,-13.5791,14.2314,-1.59541
9.93348,0.0807261,-2.91868,3.54519,5.46451,-0.262581,2.4765,4.70899,-0.321839,2.33811,4.64285,-1.0189,2.51286,4.76466
4.32777,0.00117479,-5.70338,25.569,-6.95001,-4.88749,25.0716,-7.0999,-4.81171,25.7861,-7.06839,-4.67223,25.4001,-7.11174
0.321418,0.00211493,7.02303,3.33889,-5.28847,6.87353,3.53804,-5.43781,6.7455,3.48911,-5.43658,6.75076,3.40554,-5.38711
3.74338,0.109483,12.4817,12.6084,3.09133,12.8437,11.8457,2.55458,12.8701,12.0195,2.50753,12.0345,12.9125,3.42885
17.1239,0.715612,6.50291,28.4943,3.70182,5.28041,28.6475,4.65039,7.26666,30.1517,3.19382,7.37199,28.7243,4.3348
0.54425,0.0365895,-1.28263,31.5795,0.300098,-1.21313,31.4934,0.742605,-1.07083,31.5096,0.730842,-1.28363,31.5013,0.694385
9.43987,0.269366,8.477,30.6115,-2.59395,7.31054,31.1103,-0.832203,7.79787,31.088,-0.757404,7.02407,31.1034,-1.09852
8.10092,0.273906,-3.97188,1.60533,-3.58389,-4.22391,1.61774,-3.89369,-4.23299,0.506651,-3.17657,-0.37379,1.33316,-4.09573
5.75719,0.21953,-2.74974,19.2216,6.88579,-2.04556,20.0247,7.07063,-2.48145,19.9065,7.0371,-0.838614,18.0217,7.51707
0,0.0125737,1.45554,17.3334,-7.70943,1.53942,17.2971,-7.76434,1.45871,17.3342,-7.72473,1.53869,17.2479,-7.76699
9.20925,0.170657,-4.79936,9.77602,6.12499,-6.03735,10.008,5.63299,-4.87018,10.7146,6.69559,-3.25773,9.3879,7.18107
23.6441,1.74327,-11.6693,14.2794,3.83205,-11.8028,17.3148,4.25355,-10.7235,15.6839,4.96789,-11.3556,16.5685,4.83801
5.18714,0.162183,12.3653,25.5775,2.13642,11.7769,27.8815,0.373779,11.7645,27.8641,0.418853,12.0934,27.0873,0.921808
1.86263,0.0365521,-8.26087,13.2875,-6.81964,-8.19449,12.8267,-6.83224,-7.85471,13.2241,-6.91315,-8.83097,13.6589,-6.79859
0.650222,0.118552,1.68268,25.6543,-7.3811,2.47387,26.0276,-7.21401,2.47815,25.9311,-7.23106,2.6954,26.2918,-7.10197
3.48312,0.235939,8.31509,13.8485,-6.62924,8.46105,14.5759,-6.72294,7.72354,13.937,-7.02148,8.56569,13.4732,-6.86788
0.217469,0.00635194,-13.2319,29.4074,-1.16651,-12.9707,29.6638,-1.03646,-12.9747,29.667,-0.925922,-13.2397,29.4153,-1.0637
0.029839,0.00131789,1.41453,23.0599,7.24474,1.55798,23.0624,7.22972,1.55741,23.1062,7.22125,1.41346,23.1036,7.2377
0.190574,0.0110909,5.86082,5.51231,5.54396,5.92894,5.26758,5.46777,6.01253,5.22022,5.4393,6.06196,5.362,5.45656
2.17457,0.136304,1.25275,9.76826,5.37525,1.76248,9.55104,5.42871,0.776559,9.9645,6.51731,1.17136,9.98721,5.42676
2.5774,0.0916281,5.6583,24.1957,6.38209,5.59078,25.2669,5.91375,5.80047,25.3674,5.90306,5.46805,25.1737,5.93798
1.4869,0.0069122,7.30866,5.16335,-5.28405,8.41578,4.90438,-5.44821,8.4091,4.76737,-5.43854,7.57338,5.01985,-5.3235
14.4633,0.0283721,9.66071,16.6886,5.10167,9.89246,14.8612,5.46431,9.44555,15.6127,5.61659,8.93587,15.4099,6.14486
233.213,0.615391,-13.2862,23.7658,1.11425,-13.4966,19.8594,-2.5968,-13.6235,19.8121,-1.6774,-13.4498,21.1166,-2.71109
1.93489,0.143329,4.90841,9.58039,4.41722,4.56024,9.79372,5.82465,5.28435,9.72788,3.50908,5.28297,9.66967,3.58933
0.0066955,0.0192713,3.12519,12.4368,-7.61285,3.08204,12.3997,-7.5899,3.07734,12.3623,-7.59331,3.12943,12.348,-7.60392
3.32386,0.483869,5.77681,11.6948,3.80002,5.003,12.4796,5.74127,6.64212,11.8225,4.33252,5.27029,11.0726,4.07006
2.64653,0.264727,13.0672,18.1741,1.48089,13.5374,17.8815,0.495768,13.5794,17.9385,0.0959298,13.5996,17.9139,0.18677
1.47357,0.0951443,-1.12585,7.39491,6.73529,-0.78768,7.90219,6.88479,-0.969703,7.1301,6.7831,-1.34323,7.36072,6.8402
0.586877,0.0565714,8.30321,9.38362,5.04578,7.95876,9.31758,5.0509,8.47576,9.29185,5.27826,8.30518,9.59329,4.93364
9.84251,0.756609,-6.28885,3.77858,-4.7621,-5.32437,4.34153,-6.23838,-7.44381,3.35005,-5.18065,-5.79802,2.16797,-4.70008
6.9312,0.221255,6.57425,7.01197,-6.17587,6.63994,5.84509,-5.33487,6.61607,7.98695,-6.39902,6.8878,7.57101,-6.40168
0.408766,0.00723182,-11.3999,20.3611,4.28984,-11.4016,20.7326,4.35616,-11.2806,20.756,4.44203,-11.4816,20.4451,4.24351
12.6988,0.454712,-5.12171,13.2193,5.9796,-6.32631,12.4282,5.71042,-4.09645,13.0164,6.67379,-4.66598,12.8658,6.46297
5.05026,0.444934,0.500795,1.95492,-3.62574,-0.298796,0.993951,-3.92452,0.259225,2.22787,-4.08196,1.85745,0.934535,-4.07668
6.08047,0.348746,4.29634,28.4397,4.20461,4.49618,28.8083,4.14678,3.2737,28.9098,5.05421,5.53228,27.3345,5.85668
13.0544,0.264796,-5.71888,28.268,3.94421,-5.50949,26.1069,6.18277,-5.9302,26.169,6.10346,-4.85404,28.4744,4.16845
1.52503,0.149919,-0.637767,0.276791,-1.79418,-0.568387,0.177873,-2.18413,-0.804947,0.0985963,-1.53851,-0.287208,0.163504,-2.21923
10.2823,0.0430583,-10.5176,14.6025,-6.08535,-11.411,14.7655,-5.53094,-11.2642,15.5012,-5.59743,-11.5996,15.5947,-5.40717
1.7819,0.11488,-12.1042,18.6532,3.46178,-12.4746,18.4171,3.24151,-11.7531,18.6469,4.08005,-12.3458,18.8966,3.29419
0.0946157,0.0344803,4.1178,14.7133,-7.55336,3.98632,14.7006,-7.57814,4.18359,14.5636,-7.57867,4.11741,14.5678,-7.57465
0.813767,0.231602,8.39388,27.7419,4.53996,8.43625,27.1369,5.08856,8.29325,27.009,5.16218,8.27892,27.2203,5.0607
2.48205,0.0319913,-3.689,17.7242,-7.47607,-3.95589,17.5633,-7.35445,-2.85487,17.1367,-7.48382,-2.90632,17.3374,-7.56468
0.475947,0.245806,7.34684,31.0712,1.31754,7.78505,31.0978,1.24287,7.70302,31.0963,1.06532,7.70899,31.1189,1.00908
4.80541,0.02084,-12.4339,12.4573,-3.79875,-12.77,13.1401,-3.39839,-12.9421,12.6997,-3.04206,-12.8917,12.0105,-3.01087
5.68932,0.337872,-12.5123,27.824,1.24443,-10.6682,28.312,2.87448,-12.5478,28.1826,1.0543,-11.2012,28.3587,2.46901
12.1622,0.18212,4.14011,0.258957,-2.25656,5.0602,0.328105,-0.107996,2.29529,0.121858,-1.78232,4.62199,0.26537,-0.114501
11.1976,0.331629,11.6006,26.2856,-4.32068,12.4207,22.4436,-4.03172,12.0987,21.7944,-4.47118,12.0235,22.2352,-4.54171
3.55616,0.0151258,-13.6299,14.5354,-0.589075,-13.6006,14.5882,-0.19815,-13.5885,13.7413,-0.232486,-13.6037,13.4995,-0.731131
4.82001,0.21713,3.09744,21.9712,-6.90695,3.29575,23.5661,-7.14751,3.72703,21.8674,-6.98619,3.13807,23.2271,-7.16924
6.57349,0.0137333,8.52803,20.4008,-6.37878,10.4675,20.472,-4.897,8.96954,20.7246,-5.33448,10.1257,20.3268,-5.4816
0.634655,0.12667,13.2235,10.6339,1.49002,13.4587,10.1773,0.664476,13.479,10.2526,0.574941,13.4261,10.2269,0.879209
51.3551,0.796487,8.81808,9.96723,4.0753,10.2319,10.3731,4.50833,10.6718,12.7655,4.21068,11.097,12.8066,4.09933
8.54704,0.805601,9.46296,4.36967,4.10379,6.98133,4.73238,5.10337,7.25943,4.43356,4.94677,7.31895,4.22824,4.8317
8.98476,0.632398,-5.13214,7.43597,6.35157,-4.07264,8.24283,6.93972,-4.52791,8.68363,6.43718,-4.63491,9.19041,6.4304
0.259542,0.000352182,2.37193,2.96613,-5.92151,2.08068,2.87443,-5.88066,2.23092,2.87539,-5.8724,2.07819,2.94564,-5.92556
2.17602,0.154522,7.30382,27.4544,5.0377,6.85709,27.7771,4.60531,7.54978,26.8688,5.35706,6.83297,27.9726,4.39999
21.0803,0.26717,13.2435,9.05463,-0.993599,12.9586,6.0728,-1.13281,12.99,6.12362,-0.700134,12.9052,6.55816,-1.8866
14.864,0.046898,3.42777,18.2287,-7.72397,5.06582,19.2069,-7.59688,4.56782,19.4937,-7.53224,4.98928,18.9607,-7.63108
4.48835,0.123023,8.91537,15.105,-6.2793,9.55101,15.0318,-5.9152,6.72116,15.379,-6.61315,7.47673,15.1519,-6.59259
1.76311,0.611507,2.24196,22.6461,-7.1894,2.15222,23.4677,-7.26805,2.31963,23.5336,-7.21815,2.23402,23.5299,-7.21663
126.056,0.108722,-4.98723,3.83934,-6.03472,-0.44462,1.78655,-4.81473,-2.99789,1.71795,-4.53176,-0.270925,3.0641,-5.76366
6.434,0.406835,-11.7542,13.5786,3.52323,-12.1161,14.0424,3.60504,-10.6518,13.5604,5.02778,-12.2773,13.1325,3.78585
0.346973,0.00972901,2.72653,26.6228,6.41815,3.01841,26.5604,6.5323,2.93211,26.7233,6.41537,2.73934,26.413,6.55837
6.93879,0.457478,11.6087,28.6706,-0.00548862,12.4997,28.5659,-0.689446,11.7274,27.9171,0.473453,11.9064,29.2586,0.618412
2.7031,0.0811105,-3.70133,23.4305,6.85585,-4.22202,23.482,6.69531,-2.37129,23.4674,7.01278,-2.53105,23.5941,7.02521
19.5013,0.208611,1.19363,19.4661,6.29495,1.88125,21.2106,7.13632,2.90971,19.0302,6.58455,1.24879,21.6079,7.1838
1.28772,0.0217319,1.921,8.90054,-6.67955,0.799308,8.96712,-6.75949,1.22512,8.97393,-6.75026,0.789618,8.87638,-6.72504
0,0.00134033,2.45059,17.9134,-7.73522,2.38165,17.8724,-7.76481,2.52665,17.8669,-7.76403,2.44483,17.9053,-7.7395
1.57321,0.702654,-0.751292,8.99574,-6.76717,0.800956,9.00171,-6.80141,0.727549,8.96577,-6.75358,0.7125,8.8741,-6.72561
3.93377,0.0357052,2.16618,31.5337,-1.47548,1.88686,31.5571,-1.70337,2.203,31.5191,0.0614347,2.5478,31.5595,-0.380995
0.916578,0.0491192,2.03285,30.6785,2.8698,1.83771,30.8717,2.68421,2.28865,30.5842,3.07474,1.9582,30.4644,3.31035
0.170127,0.298094,10.7889,4.3424,-4.0736,11.1191,4.60112,-3.57502,10.9942,4.54998,-3.42657,10.9981,4.36457,-3.68516
1.31248,0.00581517,-8.83049,2.27,3.7788,-9.35832,2.52262,3.74603,-9.85021,2.47602,3.45866,-9.4118,2.68448,3.86224
2.07204,0.270518,13.16,19.2196,1.47463,13.0939,19.5673,1.63789,13.388,19.3175,0.628711,13.3901,19.2755,0.271415
21.5133,0.165495,-3.02798,8.54733,7.13671,-1.27707,10.9161,7.24573,-1.40922,8.24417,7.11307,-0.712331,10.5562,7.16536
8.33676,0.488503,-4.96619,5.35008,6.10389,-5.71212,7.18752,5.8867,-5.42876,6.89907,6.03721,-4.0118,5.05608,6.28079
2.05141,0.703607,2.92406,14.5273,7.01846,2.62412,15.2719,7.3637,2.77147,15.3079,7.29675,2.91883,15.392,7.42513
42.3048,3.37658,13.6717,13.3223,-0.509753,13.3549,9.75397,-1.09855,13.4068,9.56238,-0.504829,12.7251,10.2444,-3.00478
10.2824,0.041561,-8.19683,13.8267,-6.91732,-9.63678,14.5866,-6.58827,-8.90726,14.5677,-6.73533,-9.23756,13.4531,-6.66312
6.94778,0.365463,-1.50373,15.5195,6.84598,-0.528086,15.9105,7.26484,-2.18813,15.0807,7.16036,-2.40888,16.2218,7.63322
5.25263,0.103019,13.0267,11.2374,1.80183,13.294,10.7593,1.38087,12.5876,10.5066,3.05043,12.8874,11.9897,2.47944
3.47377,0.0490458,3.54206,6.904,-6.46784,4.13046,7.71334,-6.88755,3.20245,6.5735,-6.14541,4.07467,6.2628,-6.70562
9.35945,0.745826,0.281472,4.67487,-6.73167,1.49535,3.61045,-6.32291,1.30453,3.32101,-6.1561,1.56204,3.78175,-6.39572
6.22973,0.0927369,-6.54448,14.5819,-7.17928,-8.19246,14.3368,-6.92125,-8.55156,14.4488,-6.8421,-8.47801,14.7274,-6.85422
7.58199,0.0256998,3.45452,23.8144,-7.08482,2.09177,23.5147,-7.29034,3.37069,24.656,-7.29795,4.15002,23.6665,-6.95874
34.8556,0.0896032,0.935714,11.9291,6.18545,2.16816,12.727,6.25526,2.61172,10.8031,5.48386,2.54381,10.6996,5.45235
2.66025,0.00598078,-13.077,7.87864,1.15173,-13.0502,6.83726,0.863238,-13.194,7.07701,0.30379,-13.1775,7.00325,0.350775
0,0.00424045,2.45327,14.9187,-7.60128,2.40976,14.9059,-7.59746,2.41294,14.8952,-7.59901,2.44377,14.8767,-7.60241
1.87943,0.0813939,13.0426,18.1775,1.53465,12.5212,18.5122,2.54448,12.5888,18.2153,2.28548,12.4873,18.4443,2.54914
9.31878,0.669772,-6.0378,1.90192,-3.14757,-5.2549,0.364999,-2.54119,-7.12086,1.54574,-3.41902,-5.79599,2.1284,-4.66821
14.9361,0.034096,13.0882,8.38228,0.777951,12.3108,8.36624,2.93515,12.7749,8.20991,1.52541,12.2848,8.93709,3.21328
10.7919,0.015299,9.22008,24.5389,-6.13372,8.98365,22.3375,-6.07388,8.96896,20.8517,-5.79628,9.02053,20.8259,-5.71332
46.0385,1.10292,-7.03554,28.3471,3.06181,-6.07834,27.0902,5.3081,-7.68859,25.8993,5.74915,-8.22739,26.4931,5.29019
0.314309,0.0609045,12.6537,15.8533,3.33005,12.4332,16.2733,3.41072,12.5081,16.2804,3.29273,12.4362,16.0313,3.61944
0.155897,0.00793815,1.11841,26.7303,-7.1052,1.2563,26.7086,-7.09321,1.27685,26.5627,-7.14865,1.21561,26.552,-7.15816
4.88813,0.943641,12.7259,12.7515,2.82244,12.4504,15.6904,2.50399,12.5628,15.6324,2.24923,12.4548,15.4315,2.38013
25.4495,0.859068,-1.88742,28.5522,3.90714,-2.41315,26.0779,6.35732,-0.189121,29.4267,4.56358,-2.38614,29.7763,4.12244
0.650846,0.0129713,-8.42196,23.0855,6.25097,-8.9974,23.1534,5.95989,-8.97927,22.5447,6.10165,-9.13328,23.0027,5.92399
6.81852,0.564264,-1.80758,22.5589,6.6874,-2.31194,23.894,7.09919,-2.24629,22.0903,7.30995,0.667567,22.5692,7.25599
0.54538,0.00230404,-2.64782,5.45112,-6.86478,-3.28752,5.5447,-6.83343,-2.9223,5.58583,-6.87379,-3.28662,5.63278,-6.85316
0.999069,0.149522,0.138994,3.49826,-5.93324,-0.107055,4.07266,-6.49436,0.0980383,3.90968,-6.37129,-0.0361544,4.06994,-6.48529
11.3772,0.147646,-6.66108,1.53191,3.24146,-8.65431,1.60419,3.15631,-8.27451,1.96051,3.61886,-7.77151,1.99631,3.75504
3.35662,0.0803532,-7.92909,16.3732,-6.21998,-8.29377,16.3274,-6.21534,-7.46315,16.481,-6.41067,-6.95088,15.1631,-7.06122
10.3015,0.0538354,-13.0857,11.9082,-2.45634,-13.4346,11.063,-0.500254,-13.4034,11.5525,-1.13875,-12.806,11.2959,-3.01536
44.9943,0.470023,-6.04084,10.892,5.66525,-8.00137,13.5153,6.22661,-9.24388,12.7522,6.13398,-6.39855,12.3641,5.67466
1.32631,0.0345966,-13.3482,13.7759,1.57954,-13.086,13.5212,2.37634,-12.9713,13.632,2.70139,-12.9699,13.7735,2.71833
0.755969,0.226945,11.9774,17.0262,-4.41568,11.9728,16.7061,-4.39711,12.0548,16.5003,-4.14505,11.7105,17.0617,-4.67122
3.02228,0.000456462,-1.64466,2.51271,-5.23602,-2.36303,2.73312,-5.46147,-0.40405,2.49911,-5.37211,-0.523202,2.55546,-5.4376
3.86178,0.364081,-5.31366,16.1824,-6.78815,-7.34093,16.2335,-6.48188,-6.97835,16.3976,-6.58542,-7.40916,16.4756,-6.43022
0.966207,0.0616408,-6.18018,17.4854,-7.00426,-5.89396,17.1821,-7.09537,-6.31993,17.4714,-7.01866,-5.97262,17.7587,-7.21386
0.447519,0.0848944,8.09615,6.83902,-6.18139,8.30957,6.94659,-6.14808,8.16964,7.11537,-6.21309,8.30309,6.90279,-6.12867
3.09387,0.236395,-0.0466133,24.4962,-7.00469,0.96847,24.1398,-7.56511,1.11496,23.8111,-7.62392,0.959149,23.7088,-7.58339
5.37217,0.0195296,5.74286,31.1175,1.05955,5.46985,31.335,0.187296,5.74798,31.0521,1.44785,6.64502,31.1162,1.06604
7.88201,0.197073,5.1325,3.85449,-5.38285,6.1395,2.8896,-4.95511,6.25479,3.24352,-5.25867,5.57798,4.51423,-5.80438
1.04798,0.0615028,13.2784,9.27676,-0.171953,13.252,8.89975,0.0575091,13.3917,9.53545,-0.0155084,13.3902,9.48034,-0.313116
2.76615,0.0297995,11.0488,22.0792,-4.54077,10.7795,21.9933,-4.65817,10.7543,21.4595,-4.52331,10.91,21.444,-4.45687
0.246395,0.0876469,-12.1517,25.4726,-4.76674,-11.8821,25.4938,-5.02552,-11.9474,25.4579,-4.93084,-11.954,25.3128,-4.96071
5.80809,0.103377,-5.25471,21.2193,-7.1013,-2.80925,21.1635,-7.24052,-3.442,21.3296,-7.30112,-3.31693,21.6012,-7.55471
2.0371,0.384134,9.03835,6.15977,-4.85455,8.35049,5.62928,-5.54544,9.53432,5.7644,-4.79136,9.15521,6.37269,-5.42288
2.79804,0.103603,12.3802,11.1158,-3.80138,12.4232,9.89612,-3.51907,12.3378,9.84207,-3.64196,12.2111,9.58449,-3.81929
1.50868,0.280752,4.63784,21.0184,6.41607,4.43083,21.1504,6.6668,5.8846,21.3648,6.5137,6.10653,21.3725,6.50814
17.9078,0.086971,5.09508,6.08914,-6.23059,4.97186,7.78726,-6.80472,4.8036,4.4553,-6.03146,5.1023,4.78176,-5.63054
7.32531,0.366597,8.19112,29.1789,2.72705,8.32481,27.78,4.51808,8.66641,29.4206,2.6361,7.67332,30.0637,3.07544
11.2538,0.0597409,12.5254,12.3588,-3.81535,13.0402,13.0217,-3.0456,12.3493,13.697,-4.42885,13.0444,14.0342,-3.368
0.458203,0.0037576,-10.445,7.37819,-5.38745,-10.2376,7.27444,-5.48938,-10.4522,7.15186,-5.37315,-10.3723,7.09107,-5.40943
22.4714,1.10514,-8.44293,23.9378,6.09119,-6.38812,21.6508,6.82718,-7.00773,21.616,6.76067,-6.10347,21.8121,6.89594
6.08089,0.203821,4.04162,12.6554,5.91,4.87509,12.3711,5.67957,3.9851,11.751,5.52163,4.54049,10.9555,4.74357
2.09353,0.00506417,1.984,8.85411,-6.67257,3.25424,8.93387,-6.62587,2.34648,8.95716,-6.68441,3.17419,8.79356,-6.57959
0.0297977,0.0211974,-8.21853,21.5632,6.44109,-8.2841,21.6373,6.40468,-8.28664,21.5697,6.38422,-8.2106,21.6543,6.44646
1.37379,0.0867624,13.3003,21.3903,-1.63804,13.0118,21.3626,-1.12611,12.6976,21.1299,-0.780781,12.652,21.2456,-0.690004
9.83435,0.518514,-0.0801819,25.2115,6.42045,-0.19713,23.0732,7.16801,0.342317,23.8377,7.18538,-0.250045,23.8825,7.06755
2.03135,0.635814,5.88183,26.1561,5.33108,5.66375,27.2451,5.83657,5.73376,27.2407,5.80738,5.54323,27.115,5.92544
7.42337,0.30165,-8.53616,14.6954,5.95339,-9.21773,14.8555,6.21983,-7.86417,14.0845,6.25762,-7.49371,15.7987,6.41903
38.7199,0.582455,4.22369,22.3413,-6.80603,7.37381,22.0772,-6.89263,4.50651,23.4899,-6.92669,8.68382,22.5293,-6.43825
1.29986,0.168405,10.1388,15.4242,-4.65574,10.5198,15.4057,-4.70409,9.57306,15.1149,-5.86146,9.70977,15.2585,-5.54976
62.3631,0.432963,-13.225,10.5122,1.46274,-13.3917,10.9117,-0.73979,-13.293,7.72806,0.0523507,-13.2426,9.26266,-1.05611
0.207261,0.043306,5.45223,12.7799,-7.4759,5.16792,12.675,-7.49789,5.39676,12.6522,-7.46389,5.44745,12.5907,-7.46666
13.3871,0.0222339,8.24309,14.0648,5.80631,10.7161,13.3067,4.34239,9.74471,13.8647,5.07883,7.7079,12.7981,5.32805
5.93033,0.0193096,7.34248,7.18772,5.4627,6.2672,8.64453,5.58952,5.98891,8.35914,5.81377,6.49502,8.68769,5.46264
4.21818,0.274142,3.92509,5.77605,5.39916,4.11484,5.29304,5.51629,5.00761,6.46599,5.59292,3.61543,6.03441,5.83813
8.83672,0.189208,9.87096,2.29604,-2.94505,9.33139,2.14489,-3.60508,10.0085,3.11062,-3.97094,10.7335,3.53664,-3.74258
0.941513,0.0214454,4.96029,0.78367,2.22489,5.29489,0.663474,1.95547,5.05304,0.924744,2.53656,4.6499,0.883834,2.54543
10.6813,0.459671,-4.54698,13.5342,6.32511,-4.88414,14.7152,6.51081,-5.29167,14.206,6.32914,-4.81128,14.7136,6.49303
1.08066,0.0355707,-8.78261,26.7322,-6.35798,-9.22591,26.7202,-6.28629,-9.02911,26.8684,-6.30154,-9.10353,26.4165,-6.38792
1.06212,0.565239,6.7125,11.8341,4.37654,7.8536,11.947,4.95325,7.64394,12.1393,5.04563,7.84517,11.9914,4.97181
0.59209,0.0195585,-3.47723,0.808992,2.5651,-3.57387,1.22003,3.16125,-3.65444,1.1049,2.96741,-3.50666,1.17244,3.09664
12.2072,0.434319,-11.0943,11.1582,4.68805,-11.6941,12.5251,4.12792,-10.4731,12.3655,5.04722,-11.3683,12.5792,4.32199
0.424077,0.189563,-12.9508,27.552,-3.43486,-12.7926,27.7014,-3.71069,-12.7868,27.4247,-3.67302,-12.7877,27.5594,-3.67489
0.0242281,0.00265829,4.17323,31.4218,-1.63788,4.11228,31.4152,-1.72558,4.10879,31.4323,-1.64034,4.18127,31.4013,-1.72148
4.74119,0.297382,2.26297,21.4628,-6.8453,2.59541,21.2487,-6.9587,2.07384,22.5668,-7.31919,2.15703,22.5914,-7.22214
1.0941,0.0979287,12.1395,28.799,-2.91076,12.5076,28.2796,-2.27398,12.5163,28.2085,-2.28483,12.4553,28.5059,-2.32694
0,0.0184189,-9.51648,15.114,-6.47348,-9.56299,15.1266,-6.47322,-9.51486,15.1758,-6.47087,-9.51914,15.1504,-6.47923
0.159704,0.211697,-2.68713,3.92649,-6.37983,-2.56963,4.11918,-6.48666,-2.61237,4.12729,-6.44123,-2.70432,4.14105,-6.47055
0.0056024,0.0500448,5.89187,6.44597,-6.60174,5.81695,6.55613,-6.62862,5.81905,6.54091,-6.60767,5.88187,6.52418,-6.61751
0.0161286,0.0536343,-4.11615,21.1349,7.07088,-4.25232,21.1295,7.04357,-4.24868,21.172,7.0622,-4.16852,21.0885,7.0026
11.4131,0.487897,2.33546,27.4134,4.65583,1.8911,26.9424,5.23062,1.95368,28.1118,4.76129,4.275,27.762,5.9496
1.59605,0.0114304,-1.45007,25.4092,-7.24069,-1.38381,24.861,-7.19067,-1.11126,25.0427,-7.24023,-1.1738,25.5839,-7.30133
11.0836,0.699988,-0.117715,25.5452,6.19381,1.46325,25.4435,6.85859,0.711616,26.0036,6.53653,1.48876,26.2442,6.13045
18.4791,0.0899205,-0.611507,12.9559,6.57636,0.905009,14.035,6.80886,-0.641371,14.2795,6.98332,-0.376521,12.1094,6.45168
43.1685,0.26936,-0.0336334,3.06001,5.03396,-2.21305,5.47923,6.43737,-2.40687,3.97032,5.85055,-3.03751,5.14787,6.36254
14.6879,0.45061,-5.25733,11.0506,6.35224,-3.85279,12.0483,5.86203,-4.27234,10.8598,7.11077,-3.56577,11.9772,5.91088
0.310435,0.0442151,3.73111,24.8018,-7.27676,3.94035,25.015,-7.20329,3.79792,25.0059,-7.22499,3.94064,24.9676,-7.2025
2.54421,0.0868657,-1.31107,19.0485,-7.81438,-0.262374,18.8092,-7.79802,-0.192169,19.3822,-7.77689,-0.966776,19.385,-7.73228
7.30902,0.456584,12.5831,21.1786,-0.333192,13.1976,21.4832,0.256898,13.2686,20.2127,-1.95802,12.6742,20.4749,-0.445479
2.32362,0.236823,11.2429,8.65379,4.05541,12.2605,7.81688,3.02809,12.0434,8.40868,3.27852,12.0533,8.19038,3.22532
21.0097,0.721265,9.70619,18.2346,-6.34017,11.2318,18.0404,-4.87985,11.9751,17.1941,-4.51342,6.85871,18.3824,-6.79803
58.5331,1.09125,-13.444,13.269,1.14668,-13.2828,11.206,1.4781,-13.232,12.3364,-2.14524,-13.4382,11.6241,-0.946498
1.69575,0.266316,6.34595,15.1935,-6.79201,6.67788,14.6141,-7.07375,6.31098,14.4407,-7.20853,6.2408,14.381,-7.26306
3.93138,0.368409,-0.0204129,28.3291,4.34671,0.576241,29.1016,4.36183,0.0540212,28.1182,4.80455,-0.998791,28.8239,4.74406
2.52049,0.00807826,-12.1576,8.03892,2.78907,-11.951,7.11537,2.78803,-12.1947,7.55925,2.47356,-12.0332,8.27679,3.14117
9.93324,0.0758258,0.150327,30.4167,3.48834,-1.37504,30.9246,2.37339,-0.406366,30.9687,2.30761,-0.879642,31.0504,2.08574
2.75895,0.30286,0.331053,1.57051,4.14146,0.955378,1.06859,3.20744,0.582906,1.16743,3.31831,0.362316,1.05119,3.21448
2.41802,0.0122756,-0.605776,16.1423,7.29607,-0.0284544,15.9569,7.42191,0.172396,16.339,7.69163,-0.171058,16.7038,7.75704


