
7.42285,0.382014,5.85724,18.8125,6.27391,6.12539,17.5763,6.61143,5.45874,18.8101,6.69063,7.15648,20.0475,6.57205
3.1022,0.260851,10.0206,17.0881,-5.7854,8.01436,17.1509,-6.3366,8.64429,17.0242,-6.22677,8.10165,17.2407,-6.34238
7.68913,0.400201,13.3983,15.0803,-3.99754,13.1127,13.7557,-4.50706,13.6458,13.7556,-3.67834,13.4358,13.8894,-3.91916
2.91591,0.201559,-0.636146,16.6596,6.95407,-0.479803,16.2569,7.29581,0.478099,17.4996,7.4354,-0.929866,16.9138,7.02162
2.19589,0.146133,-3.18854,25.1411,6.01272,-4.09417,24.9465,5.80001,-2.61726,24.8255,5.8315,-4.77482,24.8792,5.5539
9.96313,0.257424,8.65646,30.06,3.81812,11.0325,29.508,4.20728,11.0652,29.7544,4.03299,11.592,30.0863,3.86088
2.65684,0.782387,-10.0907,5.09755,4.90032,-10.4086,4.09551,4.80775,-10.3256,4.09299,4.84871,-10.4869,4.14665,4.82897
10.0758,0.217928,1.03715,23.0315,5.79156,2.30496,23.4403,6.06449,-0.0603452,24.1904,6.80747,2.57818,23.1885,5.89244
1.81493,0.0793119,12.1904,17.5251,4.80159,11.8653,18.8325,4.69886,12.1376,17.0458,4.74736,11.9669,18.4006,4.77838
11.784,0.0383512,-0.727788,28.2681,-6.43805,0.503589,27.359,-6.74103,1.14421,27.6539,-6.66228,0.909437,28.9397,-6.22387
12.4924,0.217331,9.94859,12.3303,5.36573,11.5459,11.4654,4.80744,10.632,13.1825,5.15903,12.427,12.5071,4.2247
1.88875,0.0129789,2.32259,24.945,-7.10326,2.33734,25.3335,-7.06751,3.05659,25.645,-6.96534,3.04529,25.1044,-7.03253
0.390364,0.177878,-10.7527,15.9341,-6.488,-10.3559,16.0433,-6.59083,-10.3469,16.0851,-6.59602,-10.2784,15.917,-6.66648
10.0721,0.602774,1.32017,24.8298,5.32025,0.886742,23.5542,6.01001,0.349207,25.654,6.19045,2.41738,25.0708,5.68642
9.32646,0.0272538,4.33878,27.0296,-6.50404,3.47654,25.7128,-6.88384,2.63398,25.7329,-6.99791,3.25146,27.2851,-6.57311
1.79404,0.0813648,-2.74123,17.8226,-6.94818,-3.24022,17.8939,-7.07508,-1.9038,17.8491,-7.0326,-1.90539,17.7985,-7.01145
3.86832,0.301632,-10.4793,15.3842,6.11934,-10.3449,17.2283,5.43177,-10.2584,17.0442,5.70812,-10.0716,15.6921,6.37164
12.2264,0.123213,-4.06958,15.7003,-7.44059,-4.1628,13.6775,-7.03448,-2.88875,16.0981,-7.68464,-4.19554,16.6671,-7.39787
2.61931,0.122934,-6.39195,25.0604,5.69355,-7.37097,25.0533,5.57599,-5.82931,25.0255,5.57104,-7.44128,25.153,5.56289
3.44899,0.166318,2.9465,1.27606,2.90166,2.91726,0.692998,2.04616,2.76269,1.90101,3.32556,2.99413,0.732741,2.08527
8.9397,0.152881,8.42635,0.752675,-0.490155,7.58057,0.565575,-1.4818,8.62226,0.826305,0.615663,8.66613,0.660533,1.45405
7.58374,0.661896,-10.8503,13.5355,4.52517,-10.5873,12.7558,5.03513,-10.5771,14.9292,6.06948,-12.1457,13.2331,4.65242
4.67433,0.519417,0.982539,14.5431,-7.05611,2.35481,14.4624,-7.24141,0.633522,13.7717,-7.57293,0.589016,15.2316,-7.79468
5.61059,0.365583,-2.34574,2.4748,4.46503,-2.98949,2.53609,5.24559,-2.87686,1.69004,3.92481,-0.391565,2.4772,5.12275
11.2165,0.115017,0.375102,25.6712,-7.11554,-1.83995,24.7661,-7.15823,-1.53887,25.2045,-7.12987,-1.45375,25.6926,-7.07756
0.499201,0.017612,1.49175,25.4659,-7.11552,2.13867,26.0767,-6.98922,2.21052,25.8814,-7.00854,2.00327,26.0731,-7.00272
4.04585,0.422873,-7.90726,18.4379,5.67929,-8.40789,18.5673,5.89196,-7.14175,19.2993,6.25937,-7.1636,17.1324,6.8939
1.45094,0.152834,7.60425,31.2927,-3.30973,7.49252,31.4846,-3.26936,8.00917,31.519,-3.2264,7.63782,31.2902,-3.64254
4.76641,0.181935,-4.8055,2.58175,5.2397,-4.26123,4.56531,5.78709,-4.35158,3.96217,5.60022,-4.33942,4.6171,5.7513
0.383179,0.0760564,14.5822,24.7322,0.0328518,14.5823,25.0982,-0.0677353,14.5704,25.0194,0.119843,14.5522,24.951,0.0179342
16.6053,0.178117,1.29619,32.254,1.54514,0.128214,32.6566,1.06396,0.644421,32.0586,2.42962,1.47776,31.975,2.62513
0.772277,0.0667095,11.4359,11.38,-5.59056,11.8663,11.3797,-5.39321,11.1342,11.3045,-5.86088,11.8755,11.2904,-5.38378
0.256026,0.185783,-9.96465,1.43029,3.31265,-10.3679,1.47216,3.2576,-10.304,1.52343,3.38744,-10.2959,1.50734,3.29834
0.664442,0.0373544,2.30184,7.58373,-6.75186,2.86218,7.45924,-6.83751,2.6408,7.32869,-6.79756,2.7208,7.41892,-6.80984
36.0789,2.15144,-13.1975,6.99903,-3.60819,-11.1829,5.15067,-4.79386,-10.4299,5.58283,-5.25367,-9.28154,6.571,-5.26622
2.79096,0.386727,-2.90459,4.27966,5.32793,-3.33029,3.4583,5.74518,-3.30335,4.86315,6.20649,-2.35219,4.21987,5.46358
4.84855,0.24145,-5.90675,3.57085,-5.23804,-4.2632,3.35373,-5.97382,-5.27773,2.9109,-5.17235,-3.91898,3.21081,-5.95992
1.97298,0.167168,-14.1985,10.7117,1.12713,-13.8022,9.60142,2.31253,-13.8012,9.67058,2.35918,-13.7973,9.52967,2.31144
7.13429,0.418131,-0.913104,18.9901,6.44675,-1.34535,20.6176,7.43359,-0.138768,18.8991,6.50012,-1.13017,18.4707,6.9506
0.250429,0.0593491,13.0459,13.6463,-4.56564,12.8546,13.4853,-4.79458,12.7925,13.7247,-4.86551,12.779,13.6559,-4.87186
2.28867,0.550152,5.33746,3.46659,5.82451,4.9911,4.47549,5.57068,4.76698,4.54249,5.68271,5.05337,4.51971,5.55233
3.48821,0.0644241,-5.24825,23.4662,6.2348,-3.75478,23.242,6.79956,-3.44217,22.9972,6.96168,-3.41708,23.4907,6.82306
2.32993,0.109969,-8.61483,25.0625,5.27468,-8.93102,25.0166,5.05087,-7.37275,25.0107,5.6296,-7.51309,25.1094,5.53848
3.30749,0.195997,-7.45919,1.62011,-2.77331,-7.74472,1.68104,-2.95673,-6.62547,1.49223,-3.23911,-7.3845,0.878997,-2.54889
8.21514,1.24131,-3.88524,32.9363,0.282293,-2.31915,32.4743,0.603764,-2.5745,32.5287,0.799994,-1.972,32.7823,0.452906
9.24704,0.359949,-5.36304,17.3948,6.70088,-5.57218,17.8722,6.83087,-2.14627,17.3695,7.60328,-5.86082,16.9504,7.26642
64.7244,0.459417,-10.4131,3.63804,-4.19328,-13.0211,3.93081,-2.65594,-12.8153,2.82514,-2.17713,-11.5301,4.78973,-4.54541
0.0416952,0.0491186,1.27532,4.39088,-6.52603,1.25522,4.51781,-6.5524,1.1948,4.47932,-6.531,1.19155,4.50888,-6.55079
5.52334,0.188253,13.7639,9.73305,1.44556,14.3284,10.2533,0.025832,12.8028,8.98129,1.7595,14.1457,9.99179,0.553456
17.9119,0.460658,7.14717,19.2983,6.28737,6.89618,18.2488,6.27597,7.40649,17.6929,6.5484,9.82799,19.4558,5.73425
7.10967,0.506057,4.78525,29.8834,4.03239,5.89709,30.112,4.29042,4.11686,29.4711,5.17052,4.41374,30.915,3.91369
2.46475,0.401181,-12.0145,7.30107,3.99137,-12.4656,6.6568,4.17953,-12.647,7.7193,4.19881,-11.5035,7.31628,4.64587
1.58468,0.179474,-0.371547,25.1824,6.06967,-1.78688,25.1105,5.99594,-1.63094,25.0137,6.02066,-2.20339,24.9921,5.9173
3.10931,0.417387,2.70191,2.2725,3.43527,2.69354,2.36876,4.16445,2.31951,1.38592,3.20703,3.59799,1.97919,3.50251
0.309509,0.122237,12.0898,19.845,-5.26344,12.4056,20.051,-5.04109,12.4098,20.0072,-5.02673,12.5502,19.9751,-4.9543
20.5701,0.0547663,-4.31384,13.4273,-6.91907,-2.62533,13.5094,-7.24958,-4.36936,11.5953,-7.00805,-2.75819,11.5749,-7.38582
14.7715,0.573051,-0.326343,15.6224,7.5811,-1.68829,15.4704,7.70959,-1.87468,16.1706,7.73376,-1.17007,16.6152,7.28197
3.17066,0.11201,-13.8897,25.8356,-2.80063,-13.6848,25.9625,-3.44899,-14.0966,25.5693,-2.6313,-14.1616,26.1869,-2.53412
2.82782,0.0523534,5.19124,6.59419,-6.13092,4.05998,6.44782,-6.14329,3.26697,6.50722,-6.13281,3.26901,6.46198,-6.12789
0.497612,0.0632438,-0.824726,5.5793,-6.56715,-0.180535,5.72496,-6.52887,-0.179659,5.7723,-6.52309,-0.474727,5.58638,-6.52606
1.63206,0.026209,0.445032,30.9416,4.14128,0.0301415,30.8018,4.37065,0.396452,30.5191,4.75126,0.968718,30.8744,4.27766
0.0393082,0.0367597,4.98046,26.6657,6.36481,5.10192,26.7059,6.37764,4.96376,26.7582,6.37567,5.04493,26.7467,6.37061
3.96741,0.230201,6.87137,12.3623,-5.9559,7.34923,12.2172,-6.10557,6.87661,12.6158,-6.07574,6.0882,11.8319,-7.2146
4.94621,0.370401,0.642762,2.79359,-4.46687,0.294002,2.83416,-5.46785,1.04638,2.72161,-4.59617,0.312072,1.61568,-4.51743
6.00425,0.0252186,6.39731,9.0403,-6.65338,7.39959,9.91398,-6.72996,5.68129,8.70077,-6.88277,5.77885,8.22735,-6.17522
2.96707,0.0952016,12.23,21.7242,-5.03919,10.8938,21.1067,-5.73053,11.3412,21.1657,-5.53819,10.84,21.4426,-5.74322
0.55693,0.141613,-12.384,8.47321,4.7981,-12.6537,8.7884,4.55502,-12.7647,8.65567,4.41075,-12.6218,8.63757,4.5088
0.905697,0.120689,-2.53962,4.91721,6.21891,-2.45307,5.4307,6.39388,-2.31719,5.33114,6.36926,-2.5251,5.43495,6.40117
8.61456,0.12895,10.2591,19.1497,-6.09941,11.6945,18.7606,-5.5717,11.7699,21.1705,-5.31967,11.1945,20.9006,-5.62699
4.38729,0.0884509,-7.76293,0.648362,-1.80619,-8.47734,0.575604,-1.17924,-7.00697,0.490038,-1.10994,-9.09889,0.606726,-1.19243
7.35963,0.520763,10.5983,29.4292,4.29465,9.22455,28.0574,5.3057,9.41298,28.3598,4.97173,8.68671,28.4003,5.23381
0.791414,0.242032,13.2432,18.5978,-4.4316,13.1524,19.1158,-4.43071,13.2153,19.1061,-4.3586,13.1021,19.1969,-4.52781
0.327723,0.0219715,-5.02595,32.329,2.20434,-5.01276,32.3669,2.11913,-5.65832,32.3412,2.20554,-5.59438,32.3065,2.24462
5.48819,0.295703,-9.14729,28.8833,3.86626,-9.28206,28.4015,4.45279,-9.52144,29.583,3.61763,-8.00798,29.9016,4.34452
1.99657,0.743945,-0.0676524,18.946,6.48196,1.04382,19.0333,6.64723,1.11125,18.939,6.65954,1.10926,18.8925,6.69192
0.647591,0.172212,-9.53764,32.3052,2.04612,-9.56663,32.4614,1.56242,-9.35824,32.465,1.582,-9.28216,32.4975,1.54924
5.58409,0.202737,7.84101,5.76311,5.31725,10.0595,5.77647,4.58371,7.81931,6.31702,5.38891,7.92506,5.18066,5.68553
3.76217,0.324781,7.75974,6.88423,5.20608,7.9232,6.3272,5.33089,7.40354,7.12678,5.82168,8.46318,7.36656,5.39395
54.7764,0.611702,-7.81257,32.9541,-0.814056,-9.58853,32.6769,-1.85766,-8.85356,32.7615,0.659167,-9.67262,32.8646,-0.383629
12.2112,0.301677,-2.96766,31.7058,3.30751,-4.74625,31.4886,3.76264,-5.19561,31.9225,2.9836,-4.91577,31.554,3.62015
19.3086,0.157905,-9.37195,6.90188,4.89333,-9.52007,5.15879,5.6482,-10.1705,5.14894,4.91217,-8.76977,6.60336,5.94099
17.1336,0.980847,-2.9892,11.6928,6.10346,-4.03674,11.8416,7.02491,-1.39736,9.20207,7.44264,-1.86391,13.1496,6.98415
0.128423,0.00672435,3.91616,18.718,-7.46907,3.71139,18.8142,-7.48894,3.44018,18.7613,-7.52503,3.56619,18.7085,-7.5086
25.6465,0.368243,-2.49914,5.8466,6.39878,-1.44796,7.3521,6.35796,-1.64897,7.40064,6.28261,-2.33166,7.33113,6.03233
2.88936,0.161697,13.4654,8.72097,0.0500212,13.7669,9.68867,-0.590058,13.8675,8.82201,0.663687,13.9571,10.0223,-0.828639
1.29101,0.294042,9.75505,23.8386,5.09615,8.66113,23.6313,5.318,8.80781,23.7067,5.23193,8.71857,23.762,5.25914
9.02837,0.119227,4.53597,32.0138,2.37515,3.24541,32.2835,1.81529,4.72824,32.3657,1.63173,5.47432,32.599,0.902135
0.980645,0.13068,13.7395,22.9255,-3.50902,13.956,22.9961,-3.13815,13.9956,23.055,-3.09331,13.9564,22.6702,-3.19927
2.63575,0.310629,12.555,8.8459,3.21685,12.0436,8.81882,3.64622,11.6857,8.56741,3.84285,11.3011,8.47502,3.93113
3.69884,0.105237,-4.52153,32.6773,1.34524,-3.83937,32.8208,0.825116,-3.56602,32.767,1.07136,-4.29252,32.8804,0.613148
5.47929,0.420922,-6.79245,14.5055,-6.52417,-5.39869,14.997,-7.06819,-6.83758,13.9858,-6.81502,-7.77554,15.5376,-7.27971
65.1078,0.0393087,-2.74212,32.408,1.9482,-0.646996,31.7176,3.22464,-0.538821,31.4788,3.64628,-1.56766,31.3168,3.84831
1.30554,0.232316,-8.77606,26.6347,-6.17823,-10.0858,27.3631,-5.68419,-9.38759,27.3466,-5.87988,-9.17774,27.3273,-5.93628
6.39648,0.271525,-1.52721,2.2024,-3.94736,-1.55367,2.49642,-4.81926,-1.65643,1.49977,-3.40847,-0.900833,1.52601,-3.63226
1.57171,0.0371697,-4.37309,15.3448,-7.36391,-5.32637,14.9995,-7.10391,-4.91267,15.2412,-7.23697,-5.40184,15.051,-7.08315
5.13842,0.0403805,6.6922,32.6032,0.442774,6.51173,32.6347,-0.04035,5.52232,32.7464,-0.293025,5.46666,32.6621,0.455151
7.80325,0.831527,-10.1028,11.7007,4.66813,-11.5821,8.64966,5.38531,-11.2043,9.05271,5.51438,-10.8845,12.3188,5.09257
4.28517,0.270407,8.49941,1.92824,-3.06184,8.52312,1.20742,-3.0652,8.3561,2.07381,-3.44738,9.32662,1.5093,-3.01545
2.27915,0.132642,-11.9696,4.05906,4.24514,-11.7334,3.95542,4.51582,-11.2031,3.53103,4.69551,-11.2001,3.29393,4.61714
3.1981,0.509317,-3.65791,7.14989,5.69428,-3.14707,7.20591,6.33268,-3.99379,6.21631,5.91037,-4.2542,7.39232,6.19785
30.7805,4.07468,2.14967,9.32648,7.2386,1.39477,13.4334,6.85476,2.82411,13.3425,6.59357,2.12851,13.3709,6.41839
1.15206,0.150216,12.2419,31.4898,-2.04599,12.0983,31.1947,-2.52253,11.9703,31.2699,-2.59883,12.2827,30.9902,-2.63151
2.6862,0.107945,5.23914,6.24282,5.31154,5.07351,7.30323,5.23289,5.21665,7.38846,5.19695,5.29872,7.33587,5.19658
1.67134,0.42735,4.19752,2.56266,-4.74359,5.784,2.86356,-5.12856,5.71764,2.76089,-5.01837,5.85923,2.83921,-5.05638
20.2814,0.467881,-5.41815,7.10739,5.77126,-4.17576,6.96374,6.02102,-5.80968,8.10528,6.70213,-5.8449,6.18723,6.00897
0.954858,0.0879753,2.80483,32.6654,-0.495405,3.08099,32.7671,-0.44312,2.51118,32.7254,-0.366601,2.59297,32.7549,-0.680314
14.6879,0.19196,3.78511,19.0544,-7.48204,6.86677,20.0012,-6.88704,8.20831,19.4585,-6.58899,8.05459,19.2558,-6.63619
0.547018,0.0885755,1.95912,32.5024,-2.85337,2.53698,32.6588,-2.52174,1.75802,32.609,-2.69929,2.32622,32.6572,-2.49025
0.968616,0.0370262,-6.88295,18.8267,6.24293,-7.22573,18.8396,6.13092,-7.3605,18.7073,6.07291,-6.46149,18.7631,6.28414
9.43261,0.701879,6.57667,2.92275,-3.6769,7.75065,2.9064,-3.82132,6.04298,3.22399,-5.36816,6.39801,1.41377,-3.64409
0.931873,0.414551,0.418699,25.085,5.93854,-0.371807,25.1353,6.05579,-0.372594,25.0873,6.07189,-0.302963,25.1825,6.06907
0.0209097,0.0574941,-4.58416,32.9177,0.265373,-4.52944,32.8629,0.279134,-4.58815,32.888,0.397527,-4.64841,32.8862,0.394782
0.886021,0.111358,-13.7743,29.8668,0.841367,-13.9253,29.6441,0.891538,-13.8546,30.15,0.67319,-13.836,30.0095,1.04648
15.5362,0.242913,9.96858,5.14286,-5.1454,10.7437,2.85242,-3.06255,10.5196,3.46968,-3.72114,11.5634,3.31839,-3.77572
17.853,0.0703708,-0.368265,13.3962,6.99025,-4.72607,13.4668,6.75088,0.635476,13.0408,6.5817,1.31712,13.1075,6.79241
4.79241,0.429914,12.9201,20.3959,2.49062,13.1097,19.7254,2.50425,12.9785,20.6318,3.4063,14.0843,20.6043,1.85823
0.300109,0.110782,3.76713,22.2131,6.94703,4.04482,22.0648,7.04165,3.97117,22.0234,7.02154,3.96566,21.9771,7.04257
40.2522,0.156796,-0.308292,32.6223,1.17243,-2.17534,32.6678,1.1645,-0.0172486,31.7149,3.18584,-1.29387,32.4833,1.6182
2.78912,0.209061,-5.73366,23.3497,6.06542,-6.31949,22.8099,6.71359,-5.38866,23.3764,6.2106,-5.95113,23.7287,6.1642
3.65291,0.470038,14.269,14.8338,1.1348,14.6346,15.0824,-0.290704,14.6593,15.0148,-0.330737,14.6655,15.2282,-0.33439
0.834904,0.137145,2.84266,2.56609,4.40228,2.55145,2.44612,4.57077,3.1855,2.47637,4.60955,2.84523,2.39141,4.2047
4.51118,0.0868687,12.4786,16.6917,-4.58664,11.1039,16.9604,-5.37551,13.3685,16.5419,-3.90004,11.022,16.9104,-5.37887
1.68764,0.0751967,-9.28804,28.3599,4.51104,-9.63853,27.2314,5.4337,-9.78809,27.1942,5.41973,-9.59125,27.801,4.97985
40.5717,0.354101,3.56772,32.7431,-1.54826,5.37426,32.6854,0.348287,5.68016,32.7463,-0.460789,3.94449,32.4247,1.34415
5.30779,0.0116211,-8.39867,19.7297,-7.10718,-7.35964,19.2199,-7.21773,-6.9242,20.0043,-7.27495,-7.07728,19.2985,-7.25226
1.85503,0.0633974,12.3685,1.20793,-0.404744,12.3209,1.13362,-0.923401,12.4462,1.16192,-0.0498671,12.7933,1.32697,-0.431543
0.261753,0.141248,1.81654,3.36001,-6.09401,1.81435,3.52209,-6.20501,2.02805,3.52186,-6.19577,1.88023,3.52073,-6.19457
5.72026,0.110934,0.870458,21.0871,7.1772,0.838678,20.546,7.30242,0.959998,22.5629,6.37786,0.899173,22.6099,6.3496
1.19665,0.137977,-10.2029,22.8847,-6.25411,-9.92375,23.0567,-6.51235,-10.6075,22.8101,-6.2291,-10.6222,22.6125,-6.25484
0.573307,0.114881,12.2263,1.38799,1.62987,12.3197,1.19231,0.973056,12.3648,1.20669,0.966501,12.2824,1.17648,0.97157
0.695838,0.142044,-5.69839,13.4736,6.67833,-4.79456,13.5234,6.78971,-5.00347,13.5327,6.79846,-4.86544,13.4272,6.78529
11.2292,0.47149,12.8833,8.60267,-3.43663,14.3049,11.0548,-2.11053,13.6528,7.75345,-3.01801,13.1351,8.58841,-3.93502
2.85034,0.0015646,-4.56028,21.6323,6.9069,-2.62299,21.5951,7.34425,-2.69663,21.5066,7.3515,-2.97078,21.655,7.25125
0.0664678,0.0215025,-12.9787,24.7481,3.54812,-13.3033,24.7981,3.3484,-13.2524,24.7549,3.39276,-12.98,24.8393,3.55055
0.334553,0.247764,11.5575,11.1931,4.33967,12.007,11.202,4.18064,11.8624,11.3668,4.22609,11.8876,11.2786,4.18742
3.10549,0.289476,-4.82218,1.87147,-3.38181,-3.57601,1.5731,-3.90678,-4.81291,1.41487,-3.13705,-5.1255,1.90493,-3.9795
16.0897,0.422743,-12.2739,8.8777,-4.18453,-9.97077,8.42648,-5.78555,-11.0575,10.5952,-6.03247,-11.4383,9.77677,-5.04323
31.7311,0.511127,3.88336,2.11644,3.51845,4.99849,2.27894,4.89157,5.96104,1.71833,3.84075,4.05067,0.82957,2.20235
0.377919,0.290337,-7.88816,25.9683,-6.46698,-7.73695,26.3188,-6.40644,-7.87933,26.273,-6.39262,-8.02386,26.2274,-6.40047
22.0599,0.54624,3.8684,12.8322,5.89293,2.88352,13.4784,6.68826,3.91923,8.84784,6.93085,3.84301,8.85329,6.95329
5.9548,0.354593,-5.34132,13.5816,-6.72879,-5.76387,14.0988,-7.24703,-4.37944,13.4642,-6.92105,-5.9432,12.7863,-7.05315
8.8725,0.549144,10.5826,8.34329,-4.56648,10.2432,9.00821,-5.78263,13.1635,8.15987,-3.59047,9.96894,7.32566,-5.15773
15.5504,0.167313,-4.51756,32.9792,-0.619639,-2.91893,32.9633,-0.247256,-2.93705,32.9202,0.30996,-3.36914,32.9645,-0.952136
4.87032,0.0288978,-7.30819,23.9545,6.56511,-8.02869,24.2972,6.28562,-7.57613,23.0637,6.82196,-6.74255,23.8822,6.65524
5.74907,1.14625,10.2754,24.5197,-5.69386,10.0937,23.2262,-5.86607,9.68728,23.5471,-5.94856,9.47299,23.718,-6.00816
12.1282,0.161908,7.02014,7.59998,5.74047,4.57901,7.75741,6.13742,8.19061,7.75465,5.48175,4.91292,7.56188,5.49878
0.0236679,0.00654325,-13.0512,23.6394,-4.54364,-13.148,23.7275,-4.44336,-13.1534,23.7687,-4.44006,-13.0702,23.7458,-4.52095
2.69068,0.0151791,11.166,32.1989,1.38197,10.7822,32.2478,0.939275,11.7495,32.286,-0.0610144,11.7709,32.2338,0.829287
0.121948,0.0426165,5.33882,18.7184,-7.26584,5.03952,18.6089,-7.31623,5.04054,18.6566,-7.31653,5.11849,18.5803,-7.29037
2.5294,0.00841258,7.41489,12.2065,-6.12324,8.78523,11.7566,-6.51643,7.48901,12.2586,-6.13421,8.93583,11.8034,-6.53521
18.8915,0.175131,-0.492172,6.56093,-6.06437,-0.77607,7.84578,-6.74043,-3.43115,6.61942,-5.93902,0.969794,6.4155,-6.36419
19.4002,0.535825,11.8673,20.0518,3.92326,13.0356,19.7948,2.86422,11.8299,18.9111,4.73436,12.2928,21.8911,4.86345
6.96009,0.251099,14.241,14.7521,1.2198,13.0454,14.4372,3.36873,13.1549,14.2631,3.25586,13.5432,14.6031,2.64601
3.26393,0.0216221,11.9572,13.399,3.98984,11.5457,13.8816,4.06324,13.0031,12.4528,3.47656,13.1821,12.3759,3.33421
5.76174,0.161152,9.66285,13.4072,5.3998,10.044,12.9024,5.4979,10.9448,13.8565,4.71148,9.72657,13.017,5.65661
7.0224,0.273289,-6.59206,17.8605,-6.59314,-3.09375,17.6688,-7.00171,-3.65051,17.8285,-6.96352,-4.49008,17.9466,-6.92214
7.87818,0.123038,-4.18543,8.88075,-6.70185,-2.44341,8.88007,-7.0003,-2.1031,8.86231,-6.88492,-5.72464,9.10657,-6.63065
36.7808,3.42567,2.11574,17.9619,7.3829,-2.19723,18.5448,7.25401,-1.5298,17.4345,6.92186,-1.7664,18.0404,6.83535
4.55117,0.034326,-8.69069,8.94342,-5.9352,-8.16373,9.23466,-6.58146,-7.89934,9.07728,-6.80268,-8.09226,10.0208,-6.99503
1.06875,0.140944,-3.51007,1.53933,-3.8824,-2.52816,1.49984,-4.12314,-2.59637,1.40097,-3.99464,-2.87283,1.50764,-4.11048
17.186,0.282197,-1.72517,32.8906,-1.5851,-0.712854,32.7845,0.515534,-0.510519,32.9079,-0.248139,0.365923,32.8274,0.0504918
279.343,3.08321,-7.60965,32.8931,0.185345,-4.25378,32.9801,-0.118676,-4.03602,32.2882,2.28319,-4.0861,32.7675,-1.96626
19.5616,0.540103,12.4743,25.4889,2.86301,12.7876,23.7034,3.11639,14.1146,26.6076,1.44512,13.7465,26.502,2.01273
5.61537,0.221582,-7.97372,17.7915,-6.36959,-9.86153,17.8142,-6.01232,-9.79386,17.6187,-6.01057,-9.43713,17.8667,-6.15197
8.93553,0.433038,-5.75356,13.2296,6.55929,-6.06019,12.5994,7.17697,-8.12659,13.2414,6.20254,-8.12193,13.337,6.16799
43.8458,0.487241,10.0478,19.1054,5.42173,11.1798,17.0516,5.94128,11.6532,19.7097,5.1006,9.14323,18.8298,6.44237
10.5049,0.27998,3.07603,7.0972,6.13376,4.09232,6.64263,6.33445,4.43832,7.43533,6.0146,3.5687,6.16935,6.43577
0.604821,0.162119,12.362,30.0443,-3.17174,12.0234,30.4021,-3.19795,11.9623,30.2653,-3.34245,12.0073,30.2942,-3.2674
25.2531,0.615144,4.45841,28.1985,5.08423,3.94025,29.4256,5.20199,3.81439,27.4085,6.23842,8.02229,28.2619,5.40944
169.745,0.285178,-2.33216,18.5647,-7.52216,0.390186,23.4066,-7.34182,1.52517,24.0457,-7.24505,2.27699,22.981,-7.28635
7.58215,0.32734,-12.6717,5.16866,3.42131,-12.3494,6.529,4.35155,-12.6792,5.97589,3.97874,-11.9986,4.13831,4.27522
5.15503,0.384273,-1.18017,1.99731,3.57275,-1.46167,2.04783,4.51058,-1.69772,1.32972,3.34421,0.503428,1.85154,3.61698
0.275336,0.0535804,10.6873,31.7771,2.70548,10.3565,31.8272,2.5899,10.4239,31.8439,2.55279,10.4938,31.8831,2.48105
5.95105,0.0881601,7.55815,11.018,-6.85164,8.56498,8.89552,-5.72096,9.17508,8.7907,-5.91044,8.56766,8.85693,-5.69578
10.1543,0.12522,7.03613,1.74291,3.18477,5.95801,1.69844,3.75279,6.81053,1.92869,4.17373,7.51445,1.94847,4.02775
1.21622,0.0917543,-1.3826,5.44677,6.15834,-1.44793,5.73562,6.29947,-0.960533,5.20099,6.18333,-1.61743,5.28361,6.24431
33.0629,1.89569,11.5847,32,1.98354,8.72301,32.0577,1.94184,9.72406,32.2828,0.807487,10.1092,32.2619,0.220128
27.0305,0.905864,-10.8104,29.2843,2.6743,-9.22757,29.7032,3.6552,-12.0219,30.6447,2.96558,-11.5795,26.564,4.70721
3.27393,0.108871,3.19035,4.83265,6.02005,4.3087,4.9991,6.15022,2.56245,4.89976,5.87273,4.39307,4.95218,6.10307
10.7127,0.489606,-0.631349,7.94046,-6.7443,-0.0721914,9.07669,-7.25149,-0.547015,10.1145,-7.28614,-0.603616,10.4927,-7.29655
3.37673,0.237662,11.8182,16.5079,4.66933,11.946,15.8651,4.94524,12.1571,16.2719,4.24345,12.0304,17.0561,4.9554
4.66627,0.561645,-9.37268,1.88739,-2.2072,-9.61566,2.58638,-3.32003,-9.96073,1.29907,-2.29102,-8.45078,1.20105,-2.79479
2.57157,0.14683,8.27227,6.60883,-4.90268,8.41805,6.68642,-4.95878,7.68148,6.65566,-5.43942,9.18586,5.31364,-5.46763
1.87695,0.656834,-9.64319,24.6969,4.17172,-8.93421,25.1508,5.04866,-9.00387,25.1641,5.0159,-8.93316,24.9344,5.12227
17.2,0.566674,7.76104,2.84573,-3.69355,9.85095,2.26786,-3.69132,10.0644,2.76851,-3.94173,8.42531,3.29643,-4.50185
0.570932,0.1548,6.53268,25.266,-6.36298,6.65983,25.0458,-6.44303,6.15638,25.2623,-6.54411,6.23356,25.2286,-6.50667
20.6203,0.228203,-9.8868,10.3752,-6.62004,-8.15173,10.7981,-7.09941,-8.69923,11.7115,-7.07286,-8.08684,11.5441,-7.14499
8.96073,0.573849,-2.77567,1.79329,2.49722,-1.05511,1.05002,2.14523,-2.80847,1.69086,3.87909,-3.44658,1.09933,2.27135
2.62813,0.455964,-1.36705,14.8632,-7.63626,-0.672834,15.398,-7.74407,-0.367947,16.1878,-7.80365,-0.590688,15.6142,-7.82351
3.08133,0.167122,-2.16693,8.40511,-6.65024,-2.74088,8.4109,-7.00067,-0.835597,9.69398,-7.27631,-1.66753,9.03344,-6.91962
3.40886,0.350542,-4.98624,2.65431,-4.34289,-3.8795,2.37858,-4.82221,-5.35562,2.85157,-5.06174,-5.06184,1.98408,-4.06226
1.54284,0.864185,11.8948,11.3653,4.19096,13.0208,11.9583,3.48637,13.0791,12.1739,3.40678,13.0942,12.244,3.40631
2.50812,0.164116,-4.29339,0.68803,1.47131,-4.36187,1.06349,2.60589,-4.15249,1.03694,2.56645,-4.43059,1.02179,2.33524
3.86743,0.343057,-13.7821,9.5306,2.35433,-13.247,8.70546,3.54159,-12.7935,7.93381,4.17511,-13.0239,8.14202,3.91057
5.05905,0.0137443,6.86145,16.5655,6.44454,8.10169,15.1903,6.81892,8.0971,15.0984,6.82333,7.37427,17.143,6.53973
4.79103,0.600003,3.18909,18.4773,6.02021,3.29409,17.2733,6.72414,3.94199,18.9725,6.54876,2.73302,18.8539,6.60875
10.0924,0.0528539,-2.72333,27.6737,-6.54163,-4.40102,27.927,-6.38709,-4.03936,28.4354,-6.27196,-3.77374,27.4065,-6.52794
0.348546,0.177264,-11.5689,11.6308,5.3114,-11.3379,11.8028,5.2604,-11.5609,11.8116,5.28834,-11.4106,11.8,5.25445
7.78607,0.186203,-7.15331,5.74917,5.22763,-6.81198,5.32299,5.26863,-6.26352,6.5894,6.27722,-6.30433,4.49155,5.74611
17.65,0.279332,6.93903,25.764,5.78353,10.965,26.0177,4.65683,4.40774,25.286,5.722,10.1422,25.887,4.99545
4.65813,1.61919,-10.1377,22.3489,4.57079,-10.5898,21.009,5.72121,-10.1804,21.459,5.95648,-10.879,20.8399,5.61802
0.625809,0.0397466,13.9582,29.4815,-0.400606,13.9529,29.7047,-0.498614,14.0223,29.2626,-0.567781,14.0449,29.2955,-0.217171
3.99908,0.279142,1.13638,7.65438,6.04975,2.14716,9.04947,7.17936,2.1456,8.95341,7.15816,1.7203,8.68703,6.88509
0.123432,0.0201017,11.753,15.7635,-5.55824,11.98,15.8936,-5.40284,11.9063,15.8912,-5.43845,11.8897,15.7266,-5.47732
6.77042,0.030122,0.433285,12.9963,-7.12463,1.12718,12.7506,-7.31991,2.67467,13.1404,-7.56382,-0.378705,13.2373,-6.96929
3.47321,0.236915,-12.3546,7.77163,-3.88165,-11.9446,7.14357,-4.1164,-12.7245,7.6172,-3.93342,-12.1424,8.24418,-4.41783
5.52568,0.260835,7.04826,31.9885,-2.6969,5.95159,32.7151,-0.355807,6.63159,32.5099,-1.29883,6.16241,32.4776,-1.73931
2.63991,0.331618,1.56712,5.07016,5.51414,1.30055,4.73098,5.75977,2.50018,4.8527,5.84157,1.30427,5.34537,5.91427
5.53489,0.359055,0.769537,3.15889,4.88183,0.874275,2.03019,3.66843,0.3919,2.94117,5.25823,1.23922,2.98664,5.24944
0.805786,0.153693,-0.973306,1.45676,-3.54455,-0.0712701,0.919124,-3.74727,-0.418487,1.04205,-3.66739,-0.06936,0.956744,-3.79505
17.9486,0.508071,8.5283,20.6907,-6.43998,9.5408,23.4822,-5.99377,10.8152,23.0961,-5.63495,8.17443,23.1701,-6.29286
24.3246,0.232189,11.1983,6.75811,-4.05307,9.44814,6.68766,-5.11652,11.0754,8.05801,-4.52084,13.3209,6.72572,-3.31927
3.97364,0.160905,1.2192,8.15618,-6.42051,2.22953,7.58745,-6.73508,1.19725,9.28166,-7.15864,1.06253,7.87227,-6.40813
0.742107,0.135806,7.38322,32.1173,-2.05476,7.68542,32.1941,-1.90809,7.46201,32.2134,-1.78978,7.38835,32.2245,-1.79156
0.462319,0.288409,-7.45561,5.07272,-6.019,-7.18669,4.97056,-6.04555,-7.2039,4.90543,-6.00929,-7.10323,5.24235,-6.06912
1.30244,0.058553,-4.60629,27.1531,6.3698,-4.49674,27.8309,6.28907,-4.86288,27.5304,6.32603,-5.1377,27.5465,6.30044
5.9485,0.684125,3.02445,24.915,5.06629,2.52111,25.3799,5.66557,4.3982,25.3802,5.70154,2.86701,23.5905,6.00807
6.68387,0.450134,3.03997,1.49487,-3.44853,2.92453,2.45011,-4.5159,2.52205,0.955469,-3.71285,4.07961,0.935767,-3.55237
7.98923,0.128115,12.4949,9.16158,1.97644,13.0347,7.41075,1.70562,12.5102,9.13087,2.48671,12.6847,9.32424,3.38831
0.61453,0.125882,-12.3979,19.7243,-5.37777,-11.9116,19.9086,-5.71961,-12.0508,19.6674,-5.5889,-11.9842,19.4887,-5.68586
5.25603,0.36038,-6.6054,9.17358,-6.41349,-7.12831,9.56345,-6.91787,-7.15603,8.00337,-6.71036,-5.72291,9.15151,-6.6382
5.89397,0.391355,-5.30012,6.82263,-5.77141,-3.43445,6.57285,-5.93506,-5.59782,7.24832,-6.29643,-3.50997,6.52815,-5.93273
1.05804,0.127117,-9.4425,32.3885,-2.63417,-9.22568,32.6665,-2.01434,-9.36493,32.6479,-1.98355,-9.44015,32.6327,-1.99581
5.60301,0.0538108,0.824811,15.825,7.34464,3.08393,15.7958,7.26022,-0.133535,15.5213,7.62894,3.08149,15.749,7.28442
0.918181,0.0249333,3.48618,27.921,-6.35477,4.20999,28.1054,-6.21472,3.62137,27.6607,-6.4243,3.93276,28.1612,-6.20767
1.24191,0.121808,-2.33371,24.5325,5.70538,-1.71802,24.8824,6.04487,-2.5045,24.4007,5.76564,-2.69619,24.7872,5.83465
5.66353,0.168986,12.0335,26.3226,4.02369,10.895,26.1564,4.66834,12.9563,26.3679,2.98758,12.2606,26.1183,3.89306
3.23611,0.361064,-1.56605,7.25519,-6.86123,-2.01533,8.44244,-6.67785,-2.16528,8.31455,-6.6399,-2.01043,8.30643,-6.65237
3.47318,0.102962,-2.70011,2.27834,-4.98159,-3.94531,2.26248,-4.72435,-3.82146,2.47823,-4.98666,-1.99368,2.40239,-5.01348
2.28116,0.16738,5.89331,17.4258,-6.7498,4.05542,17.4591,-7.03057,3.99025,17.6072,-7.02522,3.83742,17.5028,-7.04141
22.0077,0.743815,11.7964,2.67008,-3.17483,9.62458,1.52196,-2.35625,9.21353,1.24065,-2.74891,10.7451,2.68658,-2.97167
0.23452,0.01892,1.69915,20.077,-7.61186,1.27284,19.9302,-7.64395,1.27396,19.9805,-7.63994,1.41337,20.125,-7.61573
2.23807,0.239749,13.4731,7.06172,-2.20214,13.7106,7.8905,-2.81729,13.6975,6.69671,-2.27887,13.7458,7.16873,-1.60787
177.995,0.232674,-5.80097,25.3456,-6.75236,-1.82165,25.4133,-7.07915,-2.19192,21.5836,-7.44764,-1.05922,21.7562,-7.45897
0.473924,0.075034,3.56115,32.2631,-2.82336,3.79698,32.4286,-2.65893,3.34703,32.3298,-2.87237,3.7958,32.3048,-2.88813
20.1203,0.166003,-6.11485,3.5479,-5.12934,-8.04854,2.72235,-4.20513,-7.04252,3.91215,-5.75618,-8.69929,3.23845,-4.78005
0.759766,0.235398,7.43812,32.307,1.5669,8.10473,32.3287,1.01445,8.02225,32.2574,1.22182,8.17949,32.3278,1.06632
3.27425,0.119533,2.4572,19.1013,6.65876,3.31744,19.047,6.48723,1.17959,18.8902,6.70446,1.11501,19.0295,6.65731
6.30758,0.0685234,-14.1145,13.524,2.16466,-13.7058,9.89633,2.85231,-13.6361,10.1707,3.11444,-13.871,12.8331,2.9597
2.1819,0.0149932,-2.81732,32.9677,-0.474569,-2.59351,32.9451,-1.02968,-2.41934,32.9263,-0.0698329,-2.44899,32.9238,-0.980032
12.592,0.385311,9.05114,12.0607,5.78981,9.68605,12.8425,5.71533,8.87831,11.8477,6.51021,9.94172,10.4138,5.38505
9.23947,0.159912,-6.44079,6.50497,-5.76627,-9.20438,6.51969,-5.25941,-9.21671,6.4254,-5.25874,-5.0383,6.39159,-5.78152
10.2531,0.750335,-8.64377,16.4204,5.829,-7.74959,17.5187,6.62792,-9.53261,16.5446,6.42918,-7.50304,14.4986,6.99848
4.31914,0.326124,8.033,25.1756,5.19597,7.62704,25.4038,5.63176,8.87132,25.4607,5.35964,7.88108,24.047,5.50633
15.2423,0.569499,-11.7198,6.80104,4.33863,-10.4934,7.10435,5.06327,-10.4385,8.20558,5.78582,-10.1022,6.30125,5.06668
1.19358,0.250452,-4.84539,31.6628,-4.12087,-4.49665,31.763,-4.08695,-4.68787,31.4668,-4.29578,-4.75792,31.3878,-4.50582
0.0891687,0.00188886,-7.36342,10.1396,7.12394,-7.64435,10.1516,7.05055,-7.71777,10.0152,7.02302,-7.78005,10.0632,7.00886
20.8214,0.482425,-12.6152,11.9212,3.58208,-12.1474,13.1858,4.65049,-11.3652,9.91779,5.25099,-12.1003,11.9079,3.63149
5.73035,0.0836666,13.4127,17.571,2.89495,13.4866,16.7136,2.93507,13.1712,19.7894,2.42634,13.1058,19.5162,2.55476
1.51346,0.324802,5.82861,17.3611,6.48253,7.46894,17.4074,6.45024,7.46562,17.4546,6.4612,7.2554,17.3265,6.48261
0.830866,0.139726,13.4095,16.5824,-3.8931,13.9605,16.3474,-3.38117,13.8994,16.5736,-3.43727,13.9865,16.418,-3.33414
5.83979,2.07611,-7.15467,30.6503,4.58955,-9.35875,29.8891,3.55308,-9.05573,29.4324,3.91108,-9.16937,29.6578,3.70525
0.543696,0.0305821,-14.3802,19.264,-2.136,-14.4411,19.5452,-2.07309,-14.5102,19.6098,-1.90713,-14.4186,19.0468,-2.11981
4.43511,0.471236,-9.86954,24.6593,4.03787,-10.1601,23.6502,4.76275,-10.2711,23.2444,4.81316,-10.3504,24.9648,4.18463
2.53419,0.00964311,-6.40934,23.6496,-7.01279,-7.79144,24.448,-6.75645,-7.56792,24.7972,-6.7045,-7.63954,24.7518,-6.70839
29.5284,0.0700976,-0.135516,25.0791,-7.18426,-2.48055,24.0065,-7.19117,-1.72953,23.1492,-7.29981,1.24683,24.1421,-7.24244
19.2079,0.389429,6.519,3.16227,4.83879,7.74164,3.65894,5.27293,5.9962,2.64769,5.16375,7.54773,2.51021,4.38224
1.30421,0.132167,6.80013,26.8473,-6.00702,7.42171,26.5919,-6.05762,7.35232,26.5342,-6.08523,6.2053,26.4631,-6.35894
12.9451,0.94529,14.0524,16.9404,-1.80599,14.485,16.6614,-0.711032,14.4543,15.8268,-1.53636,14.3799,16.0395,-1.18329
1.71585,0.0254464,12.9024,14.9984,-4.83811,12.4556,14.3397,-5.16047,12.4363,14.8206,-5.17097,12.3069,14.4525,-5.27535
2.66002,0.0740854,-1.63174,2.53744,-4.87513,-1.7528,3.38016,-6.1332,-1.67539,3.2704,-6.01109,-1.60207,3.30054,-6.08256
6.80747,0.535762,8.45625,1.90201,2.58839,9.15708,2.29356,3.9098,7.21448,1.50162,3.04811,9.45191,1.00299,2.22486
19.028,0.212515,7.16633,13.6493,6.2733,3.8783,13.3424,6.03664,5.04737,13.303,6.34622,9.67649,13.7803,5.51487
11.6914,0.478515,2.94228,23.12,5.81998,2.57688,20.997,7.08811,2.47848,21.4947,6.85265,4.93784,24.0227,6.70996
2.26341,0.0927358,-1.85409,19.006,6.77667,-1.35425,19.2602,6.84761,-3.05335,18.8301,6.76937,-3.12739,18.9327,6.71496
0.248579,0.0665834,-8.81767,12.2726,-7.06879,-8.40682,12.1162,-7.15211,-8.5489,12.1192,-7.13179,-8.33514,12.1545,-7.17471
4.93843,0.0440462,10.3541,19.8893,-6.02498,8.84387,19.535,-6.45173,8.41146,19.0289,-6.58314,9.11284,18.8759,-6.42344
1.32772,0.176335,13.3924,12.1531,-4.09263,13.7763,13.2006,-3.46883,13.8083,13.1708,-3.43181,13.6256,13.0541,-3.62609
90.6111,0.775765,2.03542,11.845,-7.1058,3.50965,13.7678,-7.6734,5.16194,11.4655,-7.36529,6.33139,12.9746,-7.19137
3.358,0.56765,9.9047,10.4851,5.09192,10.2955,9.68071,5.44679,11.2825,11.0045,4.4502,11.5143,11.1917,4.38571
6.79494,0.518868,12.3081,7.05081,2.46485,13.003,7.33948,2.36104,13.2197,6.33618,2.38837,12.3066,6.83604,3.36731
0.971859,0.0694976,-2.96678,31.0175,4.12049,-3.19104,31.0141,4.29159,-3.04895,31.2359,3.89942,-2.73987,31.1351,4.02968
2.35667,1.16668,13.0425,7.34178,1.70731,13.5694,5.1772,1.55144,13.572,5.24972,1.50815,13.6029,5.32223,1.46097
2.21364,0.13832,-9.72773,0.86493,-1.10618,-9.58303,0.791635,-1.60742,-10.1586,0.715271,-0.649255,-9.3957,0.580389,-0.712984
0.269886,0.0272404,-13.0477,27.7193,3.47872,-12.7321,27.5051,3.85871,-12.7363,27.4623,3.86118,-12.9083,27.6889,3.65807
0.666176,0.0715695,-14.1663,9.53001,-1.64874,-14.2058,9.52874,-1.8701,-14.2408,9.74872,-1.76661,-14.2556,9.33287,-1.41961
2.62277,0.00181161,-8.72494,11.7904,6.66031,-9.95527,11.7441,4.77296,-9.04852,11.9194,6.25827,-9.89166,11.6977,4.839
3.26903,0.117582,8.32993,22.0938,6.44954,8.14762,23.1344,5.94761,8.32513,21.0972,6.72179,8.25112,21.1021,6.73917
1.84118,0.112737,-12.0644,5.44428,4.39773,-10.6505,5.37366,5.16056,-11.3355,5.43017,4.85332,-12.2165,5.68679,4.47539
0.680791,0.0263177,-7.87151,28.4931,-5.8421,-8.23674,28.4197,-5.77743,-8.51443,28.6363,-5.69185,-8.2936,28.6811,-5.71443
7.32868,0.20764,3.45977,14.7666,7.26361,3.35679,17.225,6.78855,3.18603,17.2236,6.7344,3.81577,16.1693,7.2217
2.92864,0.234532,9.38639,17.4102,5.76091,10.0189,18.1068,5.77357,8.90227,17.4148,6.36205,9.71358,17.2129,5.79132
4.29982,0.0850581,-7.80073,32.2401,2.2747,-7.4768,32.6707,1.23396,-8.02065,32.7262,0.911791,-8.0517,32.6176,1.26148
3.10759,0.0439365,13.9689,10.0884,-0.731143,14.0578,10.5094,-1.14394,14.3963,12.0407,-1.92266,14.356,11.7626,-1.88387
0.423451,0.0460785,9.25004,13.9916,-6.68679,9.8319,14.2307,-6.49153,9.82323,14.1955,-6.47641,9.69054,14.0845,-6.50131
34.7927,0.778684,-12.4383,17.1909,4.53984,-12.1206,19.569,4.65588,-11.3151,17.3682,5.52225,-10.7893,18.8791,5.12776
2.52567,0.208531,-9.19526,8.61631,-5.58136,-9.96725,8.51199,-5.80556,-8.57483,7.95677,-5.71823,-8.8322,8.88909,-5.80188
10.9267,0.72193,-4.98087,11.629,6.4109,-5.88958,11.8571,7.2153,-3.68479,13.2382,6.89363,-4.06566,10.1112,7.15066
5.10983,0.194079,-10.3974,4.00439,4.80266,-9.83697,4.01083,5.42868,-10.8631,2.99909,4.6143,-10.8653,2.9557,4.60835
1.79,0.262503,-2.18441,32.7344,-2.58142,-2.00113,32.8901,-1.51545,-1.70569,32.8502,-1.88483,-1.923,32.8051,-1.81714
2.24689,0.442097,11.3407,23.8893,4.87077,9.82153,23.9314,5.09251,9.75044,23.8873,5.09483,9.82355,23.7901,5.13498
4.39431,0.0388784,-3.56747,31.8694,3.0139,-2.60751,32.1223,2.50264,-2.16932,32.1154,2.4867,-2.20328,31.9954,2.74339
14.3174,0.117113,0.62958,8.53848,-6.94421,0.496468,7.48265,-6.30089,1.34287,9.45501,-7.20423,0.420985,9.73696,-7.42652
0.640092,0.392933,11.6211,1.09489,-1.547,12.1879,1.39835,-1.61279,12.2464,1.35126,-1.53821,12.2628,1.41924,-1.71686
18.7191,2.11632,3.84993,17.6459,-7.05941,-0.797424,17.9342,-7.34838,-0.959705,17.3822,-7.27914,-0.885196,17.3335,-7.31159
8.74393,0.720024,-8.36925,7.63226,-5.351,-9.92083,7.4016,-5.88504,-7.97005,8.67554,-6.70405,-7.75367,6.70304,-5.76522
6.26667,0.44455,13.4782,6.86496,-0.484627,14.059,6.28063,0.00933214,13.8246,7.92061,-0.0781958,13.7986,7.08071,-1.49158
5.1953,0.0886015,14.0584,27.9218,-1.24799,13.8728,28.4651,-1.69345,13.9883,28.9927,-0.951305,14.1153,28.4024,-0.337204
9.88433,0.356513,6.98658,27.3463,5.32924,7.64199,27.9628,5.4978,6.98162,26.5961,5.93824,8.32716,27.6566,5.58138
0.408355,0.0173146,12.4025,29.4956,3.70944,12.4305,29.6767,3.61607,12.2894,29.8988,3.66132,12.2623,29.833,3.69995
0.296246,0.147573,0.671049,11.9241,-7.57392,0.949953,11.7704,-7.59569,0.796731,11.7453,-7.55483,0.733924,11.6783,-7.57606
0.866122,0.360462,-12.6118,15.953,3.55367,-13.2932,17.0248,3.87651,-13.3621,16.9608,3.75512,-13.3507,17.0993,3.84359
14.2691,0.481791,-11.7543,2.59855,-1.92953,-10.3169,1.53117,-2.50863,-11.824,1.43933,-1.63433,-12.3921,2.76887,-2.3942
7.10814,0.513475,1.49214,6.53684,-5.89575,1.11611,7.10794,-6.44144,3.21244,6.51076,-6.12393,1.26659,4.79506,-6.58311
9.4618,0.348555,-0.419746,11.4109,-6.70301,-0.725469,10.9313,-6.9458,-1.23743,10.7558,-7.37017,1.275,10.6341,-7.57621
0.694388,0.0252837,-12.455,31.8387,-1.94042,-12.3198,31.7437,-2.31908,-12.5996,31.7856,-1.93979,-12.2186,31.986,-1.98745
6.47222,0.0386576,-0.498453,28.9712,-6.13664,0.271839,30.1595,-5.66887,0.461862,29.8169,-5.8518,0.282513,28.9989,-6.19578
13.5506,0.38532,-6.07642,1.46631,-2.77387,-6.88041,2.55706,-4.60146,-6.19745,0.659646,-2.43944,-5.09149,1.27247,-3.13528
2.63685,0.360746,1.35741,32.4607,-3.01618,1.51092,32.8516,-1.07924,1.74575,32.3112,-3.30922,1.6796,32.7126,-2.28827
4.86713,0.193905,6.10733,29.769,4.27084,6.97365,30.1899,4.14713,5.88316,30.0195,4.32458,6.47601,28.5733,5.48449
1.41103,0.121967,-4.79085,1.17002,-2.95888,-4.25986,0.866123,-3.20807,-5.09118,0.890661,-2.96378,-4.73266,1.3653,-3.12798
5.74628,0.276319,-6.48647,12.288,-6.4593,-6.56246,12.5224,-6.65052,-4.47592,12.0549,-6.92267,-7.02552,11.4326,-7.17671
0.120116,0.24187,-12.2839,11.0653,-5.38298,-12.4773,11.203,-5.23553,-12.4762,11.2478,-5.24216,-12.4822,11.1537,-5.23825
44.8092,0.885362,2.01108,32.8227,-0.0944326,0.690791,32.4212,-3.03483,-0.292593,32.6955,-2.57018,-0.878554,32.7231,0.825146
1.82795,0.327178,-4.66039,18.9543,6.67448,-3.32922,18.8989,6.68974,-3.12758,18.837,6.75055,-3.19892,18.9416,6.71841
0.528213,0.0314402,14.1368,25.394,1.89678,14.2121,25.6053,1.77174,14.0675,25.3269,2.11593,14.2105,25.1769,1.87111
5.66508,0.490841,6.8338,30.5283,3.25934,6.27492,30.4155,4.13758,6.91052,31.4016,3.18695,8.52178,30.1138,3.77678
3.75037,0.654543,-13.6681,7.62114,-3.08257,-13.056,8.7585,-2.88862,-13.2742,8.7261,-2.83586,-12.997,8.74564,-2.93492
0.0941673,0.000729465,-13.6338,13.9606,-3.88134,-13.5283,14.0802,-4.08184,-13.6196,14.1769,-3.933,-13.5138,13.9845,-4.09509
45.3848,0.0837045,-3.65332,26.9346,-6.65565,-7.31441,26.7604,-6.36514,-7.54291,27.8981,-6.08009,-7.50196,27.1226,-6.2667
14.3364,0.0445842,12.1234,22.9815,3.61572,13.4478,21.496,3.09053,12.835,23.6926,3.0837,13.8375,22.7408,2.61415
90.6081,0.0487565,-6.02387,19.3292,-7.29636,-3.30844,18.9699,-7.46303,-4.20967,22.2211,-7.28141,-2.33434,21.5882,-7.44382
5.74235,0.0298041,-8.02185,23.8599,-6.83047,-8.99992,23.3695,-6.7216,-8.60644,22.7908,-6.8611,-7.34416,22.985,-7.02338
40.3398,0.40211,-5.56801,3.70857,5.67971,-4.73196,5.90553,6.17251,-5.91114,6.04329,5.96697,-6.43758,5.28856,5.89691
27.4016,0.831346,-5.56178,24.7288,5.35989,-6.06581,23.8757,6.18189,-2.99576,24.6783,6.09361,-5.88272,26.8481,6.27769
1.8978,0.110908,4.44958,14.5019,-7.40147,6.34786,14.4865,-7.40085,6.1358,14.5719,-7.4357,5.4352,14.434,-7.44065
2.79935,0.0179162,10.4439,5.58514,4.02754,12.2953,6.67548,3.35965,11.4276,6.05417,3.70822,11.8891,5.24954,3.79758
0.0180251,0.00213458,-2.15888,14.5074,-7.74722,-2.15755,14.461,-7.74138,-2.00811,14.5154,-7.72978,-2.05124,14.4809,-7.72996
5.81264,0.351566,-12.5844,15.8198,3.52761,-10.7245,15.7479,5.83884,-13.2941,15.3538,3.66058,-10.7266,15.6602,5.88845
11.7373,0.356096,0.545786,4.09887,5.33064,-0.546662,4.23527,5.8402,1.34058,3.14205,5.40619,0.673425,5.14058,5.91023
2.1741,0.397985,0.579626,16.9486,7.51919,2.42298,17.0334,7.4599,2.27671,16.9538,7.50171,2.42492,17.0791,7.45661
153.833,0.0789805,8.83943,26.4287,-5.77069,8.80556,22.957,-6.18241,5.85772,24.2637,-6.70035,7.15365,22.4234,-6.59051
1.3819,0.0248532,13.4968,8.50362,-0.082068,13.5491,8.79974,-0.206292,13.8834,7.98737,-0.296397,13.9025,8.05731,-0.342354
7.74384,0.252539,11.7591,24.4399,3.87968,12.112,23.3328,3.84905,11.3723,24.1084,4.77633,12.3065,25.016,3.59164
9.88984,0.0752541,-3.71899,0.24998,-1.33971,-1.84575,0.0937153,-0.82962,-1.69816,0.179256,-1.64524,-3.38662,0.179922,-0.384397
0.618518,0.3198,-10.542,12.3972,5.16974,-10.5125,12.7174,5.18756,-10.6516,12.7153,4.99141,-10.5829,12.714,5.04997
21.0168,0.138267,-1.21627,30.0761,-5.66884,-2.16675,27.348,-6.67528,-2.50212,27.9387,-6.45537,-3.33855,28.4937,-6.27797
2.29104,0.933053,5.96062,17.3889,-6.72132,8.02209,17.237,-6.35023,8.01738,17.1961,-6.33317,7.94081,17.1362,-6.3607
2.13501,0.100406,12.2841,14.1516,3.87503,11.4096,14.0337,4.07786,13.0555,14.2862,3.32887,12.7537,14.3234,3.62235
0.427252,0.404797,11.3151,25.0152,-5.27914,10.7954,24.8091,-5.52471,10.8666,24.7665,-5.49851,10.9391,24.7215,-5.47786
1.29619,0.182171,4.29949,29.7327,-5.24213,3.95078,30.0941,-5.32597,4.70946,29.5586,-5.46535,4.59328,29.847,-5.31408
40.9772,0.642871,1.68959,9.49911,-7.19929,5.53504,9.16177,-7.09986,2.37801,8.12582,-6.83611,3.8313,7.91167,-7.05887
93.5857,0.104948,7.19832,8.73782,-6.34486,9.94925,7.1989,-5.11602,7.2504,6.76279,-5.5977,9.88652,8.7245,-5.78928
34.3545,1.05628,7.11825,6.52137,-5.4222,4.97163,7.96677,-6.81841,6.49283,5.70249,-6.0263,5.24828,6.49892,-6.08724
133.526,0.19013,7.66337,20.6865,-6.63695,2.5017,23.4213,-7.24461,2.56868,23.4692,-7.23221,3.18196,24.9564,-7.03041
0.39651,0.00329404,12.6342,12.456,-4.91494,12.0332,12.1975,-5.35179,11.9565,12.2299,-5.40781,12.2635,12.4316,-5.18759
14.1577,0.504988,-2.48912,12.9065,-6.85496,-1.49079,11.84,-7.41704,-3.14685,12.9312,-7.29306,-1.00161,14.9982,-7.63542
0.0888333,0.00814614,-8.72051,21.1448,-6.99681,-8.57069,21.1356,-7.01304,-8.71906,21.0456,-7.00166,-8.57593,21.0625,-7.01024
7.48142,0.193562,-6.1908,18.6052,6.19125,-4.73397,19.0163,6.65847,-6.46934,18.7161,6.28309,-5.72022,17.7905,6.86627
8.05221,0.123435,-12.6898,17.732,-4.68428,-9.86003,17.8947,-6.05735,-9.8652,17.6254,-5.99323,-13.591,17.8098,-4.08925
4.33948,0.466534,-10.0548,22.5717,4.37939,-10.7482,23.0703,4.48028,-8.83715,23.6018,6.18518,-9.15742,23.2822,5.8651
5.50011,0.453329,10.0555,8.66621,4.44511,11.4885,8.10162,3.74966,10.5653,9.66573,5.23187,9.87936,8.03434,4.83106
2.18278,0.0592675,-7.21303,19.398,6.25955,-6.52332,20.5887,7.00442,-6.51866,20.2168,6.87356,-6.38221,20.4917,7.02177
16.1082,0.148146,1.4053,26.9368,-6.83944,-2.54073,26.7889,-6.80438,-2.59631,27.1484,-6.71933,-2.00081,26.2633,-6.9544
5.41757,0.234912,-3.99318,6.11858,5.88643,-4.42727,4.66835,5.76108,-4.26021,4.61387,5.78586,-4.01169,5.25507,5.96122
3.67107,0.448749,-4.82621,7.77116,5.73304,-4.66652,7.22019,6.01277,-5.28318,7.62871,6.03991,-3.99453,8.91379,7.16405
1.72307,0.212234,-4.5574,21.582,6.91654,-5.37754,21.6613,6.66776,-5.79178,21.5301,6.44936,-5.79268,21.5806,6.43897
5.06811,0.256269,-5.92983,7.2043,6.14155,-8.77285,7.27273,5.57278,-7.94721,7.15517,5.82372,-7.86865,7.27852,5.8366
0.219925,0.16628,-0.979792,32.7913,-2.21537,-0.784631,32.8074,-2.10084,-0.795565,32.8561,-1.94925,-0.784277,32.816,-2.05325
3.72665,0.368999,9.45971,4.98556,4.381,10.3791,5.51862,4.01338,10.0981,4.20408,4.52062,9.11729,5.14895,5.09573
3.48563,0.0807026,10.3464,32.2382,-0.28939,10.8877,32.2603,-0.94979,10.4576,32.1881,-1.19575,10.1696,32.1753,-1.13144
0.821839,0.504613,14.4171,24.0302,1.46936,14.2128,23.8343,1.93907,14.2035,23.6936,1.93841,14.2226,23.5469,1.94575
1.16597,0.00924727,13.8039,25.8724,-2.90706,13.8316,25.5177,-3.04403,14.05,25.6678,-2.57744,14.0096,25.7756,-2.59975
8.85238,0.759162,7.01624,23.5342,5.42419,6.61251,23.5619,6.58558,8.5917,23.6338,5.31004,8.59884,23.8673,5.29467
0.215346,0.120197,-3.57783,15.9969,7.88299,-3.58895,15.7153,7.86013,-3.79667,15.8175,7.84261,-3.65143,15.8145,7.82937
5.7385,0.344669,11.0897,14.4116,4.2667,11.5214,13.7442,4.10902,10.8793,14.0571,4.73531,12.1315,15.9196,4.57087
4.80405,0.0395019,-10.3368,32.6947,-0.439507,-9.68776,32.7851,0.260936,-9.98768,32.6698,0.536091,-10.1021,32.7508,-0.73568
0.758795,0.355245,-2.44976,0.990529,-3.5631,-1.86384,1.5758,-3.48395,-1.94048,1.4559,-3.40647,-1.72648,1.49912,-3.41625
4.41851,0.174846,4.78339,19.2556,6.63814,5.85838,19.2375,6.47084,3.38422,19.0446,6.48144,5.71732,19.1999,6.51116
3.81712,0.252758,1.27711,2.20604,-4.02261,0.83712,2.482,-4.43623,1.32847,0.962573,-3.89692,1.68078,2.15591,-4.21794
6.89495,0.27886,-7.91492,5.51089,5.29343,-7.49362,5.67226,5.44835,-8.71078,4.39022,5.793,-8.63415,6.46582,5.94498
0.0200348,0.0477198,-6.3767,8.52325,6.96617,-6.42208,8.63804,6.99981,-6.36829,8.64832,7.01907,-6.51202,8.66715,7.01108
12.4343,0.131203,3.07606,2.56613,-4.57937,5.30919,2.10675,-4.63782,0.891588,2.90441,-4.82182,1.54603,2.52775,-4.41984
2.83998,0.085891,-0.777317,3.92303,5.80736,-2.35061,4.16769,5.45256,-0.274857,3.93507,5.76052,-2.35672,4.12302,5.4703
6.18491,0.590338,4.5863,17.3601,6.23529,5.77154,17.3122,6.48555,3.96902,16.3925,7.23069,4.1615,18.2874,6.84519
0.119104,0.0591279,12.0856,31.8209,2.03015,11.7871,31.8691,2.14968,11.7194,31.9181,2.11715,11.742,31.9216,2.0745
1.1604,0.0825466,-0.987408,1.03567,2.14888,0.053839,0.708208,1.94193,0.121104,0.698889,1.94248,0.117242,0.737482,2.031
4.46359,0.0896135,3.19284,3.00915,-5.22758,2.9459,3.77611,-6.10303,3.30315,4.15558,-6.25775,3.09341,2.66697,-4.7761
3.22392,0.0298644,-9.3036,12.597,-6.99515,-9.84722,12.9327,-6.80348,-10.8862,12.6975,-6.315,-11.0298,13.1366,-6.2794
4.36731,0.00654275,-4.22586,0.582811,1.11978,-2.47637,0.197614,0.0359877,-4.29347,0.673771,1.42743,-2.06267,0.189036,0.0380989
1.40598,0.0982334,7.52696,17.4571,6.45915,8.81645,17.5229,6.44637,8.52489,17.5409,6.485,8.82191,17.4315,6.41245
3.37461,0.241779,12.7349,7.63707,2.90624,11.5545,8.17484,3.71708,12.875,7.98213,2.4635,12.2384,7.98365,3.37359
2.13161,0.184905,-1.20305,17.7964,-7.00791,-1.84245,17.7502,-7.00759,-0.869988,17.6702,-7.27624,-1.00294,17.9501,-7.2937
0.438233,0.113311,6.75116,23.2801,-6.61076,6.97619,23.5438,-6.52203,6.97075,23.4499,-6.5158,7.11245,23.3512,-6.51444
11.3916,0.582964,-11.2879,24.5585,3.31119,-10.4947,24.7862,4.13733,-11.8632,23.2669,3.6041,-12.679,25.5669,3.71642
2.04865,0.0179265,-7.90048,17.7849,-6.38205,-7.56994,17.8925,-6.46512,-6.58339,17.7651,-6.58993,-6.65495,17.9061,-6.60098
5.84909,0.482123,-6.38536,21.5933,6.14265,-6.73498,23.0177,6.81348,-6.83602,20.9251,6.94081,-5.8561,21.5327,6.41512
0.949201,0.355626,-2.75852,22.5462,6.93681,-2.74318,21.8719,7.22767,-2.81066,21.922,7.20429,-2.67426,21.8698,7.25986
0.389465,0.00672919,-11.3432,14.2602,-6.17641,-11.2696,14.4809,-6.23069,-10.9278,14.0078,-6.37247,-11.0059,13.9786,-6.32671
2.08154,0.0846187,-6.69822,13.4281,-6.97089,-6.71161,13.1073,-6.9402,-6.83121,13.9384,-6.83281,-6.48056,12.6034,-6.69982
1.18704,0.0819917,-13.0668,18.849,3.97297,-13.4152,18.8048,3.67641,-12.4172,18.7402,4.36813,-12.2079,18.7798,4.42067
2.10521,0.0324381,2.1539,31.1712,3.98616,1.85927,31.4536,3.51647,1.347,31.4333,3.61752,1.57958,31.1583,4.02283
7.28742,0.106493,7.15766,13.5428,-6.48869,7.36335,15.3672,-7.1078,7.21528,15.2186,-7.13081,6.96024,12.6286,-6.03376
2.33336,0.0322903,-13.2083,8.87253,-2.83752,-12.2806,8.83117,-4.16695,-13.7212,9.34137,-3.25061,-12.7379,8.79198,-3.27772
0.00822605,0.0139375,11.3332,27.4537,-4.78489,11.3593,27.613,-4.72353,11.2809,27.6448,-4.753,11.2747,27.5478,-4.77633
10.3775,0.177643,-0.487704,27.9513,6.36038,-1.9964,28.297,6.1627,-1.81468,27.9265,6.28843,-1.76995,29.2778,5.77159
11.3048,0.124532,0.29647,11.2054,7.08644,0.583757,9.04533,7.3162,0.289261,9.3881,7.41908,0.267146,12.8202,6.52615
5.06854,1.84282,0.786816,2.03568,3.62255,0.960824,0.669614,1.76924,0.885057,0.625862,1.72817,1.1668,0.680315,1.90163
0.250461,0.00689924,-14.6482,19.7242,-0.498712,-14.675,19.904,-0.629051,-14.6465,19.7137,-0.623071,-14.6657,19.8534,-0.65762
6.33142,0.101262,-9.8363,32.803,-0.697318,-10.3894,32.6397,-1.40778,-9.1821,32.8862,-1.0979,-10.2131,32.468,-2.11835
1.71073,0.0154295,-0.964832,30.132,5.19335,-1.71966,30.3004,5.03725,-1.74862,30.0826,5.21824,-1.02795,29.6861,5.54373
2.0053,0.0118885,14.4008,20.238,0.90105,13.9393,19.9812,1.82265,13.683,20.0212,2.08969,14.1747,20.0375,1.45946
4.11008,0.16045,-12.414,9.50677,-4.326,-12.1424,9.27089,-4.46346,-12.7649,9.33023,-4.27814,-11.8061,10.7151,-5.60672
3.7049,0.109389,-9.21977,13.3339,5.89118,-10.3173,13.2233,5.45238,-8.19255,13.2394,6.19732,-10.4535,13.3153,5.2994
7.08889,0.899071,-11.7826,22.7368,3.21946,-10.818,23.1659,4.46093,-12.6661,20.819,4.30142,-12.7798,23.5518,3.64681
11.4772,0.651093,-10.0085,18.3593,4.68931,-8.32452,18.7896,5.90676,-10.6467,18.8277,5.10144,-10.342,17.2666,5.41288
2.10728,0.039325,4.38486,14.5018,-7.3997,2.42425,14.4615,-7.24811,3.33007,14.4291,-7.34363,2.43039,14.513,-7.24161
14.1449,0.48216,-0.770906,11.7428,-6.7126,-0.531369,13.7002,-7.35643,-0.53162,13.3185,-7.01035,-0.731115,14.9905,-7.67956
1.63071,0.93562,2.86668,7.50316,-6.85322,4.59681,7.40001,-6.82136,4.52845,7.4494,-6.81698,4.25967,7.65822,-6.92877
10.9328,0.704597,-6.84247,16.3048,6.27009,-5.98485,14.7615,7.41589,-7.67248,16.4662,6.78471,-6.01294,17.7191,6.99445
1.10391,0.347651,9.93975,16.9968,-5.79056,10.9454,16.8588,-5.40048,10.9486,16.9078,-5.40138,11.0234,16.9578,-5.39951
6.99946,1.32189,12.2012,16.2637,4.20691,14.0801,16.3658,2.19736,14.1662,16.5831,2.02889,14.1524,16.5187,2.02856
6.66321,0.0782645,11.6349,9.26848,-4.95175,11.2085,8.58012,-4.69128,11.8013,11.138,-5.39884,11.8438,11.0098,-5.3603
0.044513,0.101788,2.41931,20.5741,-7.51686,2.32965,20.4264,-7.53546,2.44224,20.4578,-7.5145,2.49149,20.4788,-7.51797
0.316707,0.340134,0.386242,32.5327,1.48928,0.0785305,32.5743,1.29264,0.0451359,32.4782,1.44929,0.07036,32.542,1.32903
10.1858,0.669656,-9.54757,3.20393,-3.33171,-8.89668,2.4046,-3.99549,-10.0776,5.06641,-5.23264,-10.3336,2.49906,-3.32506
0.0576344,0.0073527,5.62327,21.4854,7.14032,5.62679,21.6704,7.13998,5.6835,21.4807,7.13755,5.58223,21.6132,7.13436
4.57628,0.498325,-2.41837,24.3549,5.77557,-2.68106,22.588,6.94252,-2.75442,22.5921,6.91699,-2.72839,23.1292,6.71479
24.1777,1.42662,9.38804,4.39266,-5.17375,9.0092,3.02814,-4.06894,8.69904,2.99834,-4.06486,9.98754,3.05816,-4.10051
0.632638,0.741194,-3.48681,9.26257,7.33568,-4.00323,10.0588,7.18732,-4.14869,10.0658,7.1704,-4.07118,10.065,7.16373
4.93452,0.385492,8.50836,7.99616,5.1707,8.51683,9.06315,6.25604,9.75672,7.98442,4.90045,8.30093,7.40105,5.46781
0.495848,0.110503,7.15173,20.095,6.58891,7.65335,20.7242,6.82159,7.58,20.4953,6.75859,7.57771,20.726,6.83707
0,0.0004071,0.270262,27.6824,6.41004,0.265117,27.6612,6.41518,0.20479,27.6896,6.42239,0.200656,27.6534,6.43086
6.90959,1.84167,10.3666,2.48761,3.78138,8.31522,3.18341,4.29684,9.01355,3.72985,4.16726,8.55473,3.38283,4.21026
0.183217,0.00208914,5.5741,26.7461,-6.3809,5.71417,26.6434,-6.38678,5.79114,26.7035,-6.36305,5.79532,26.7569,-6.35069
44.712,0.0420494,2.6312,31.6593,3.01797,0.20072,31.6593,3.23842,3.05677,32.4382,1.22709,0.215369,31.9706,2.58223
2.52732,0.992162,8.34441,3.66168,5.10477,7.79332,3.08004,4.39068,7.93694,2.93134,4.3421,7.56266,2.98864,4.54627
92.1693,1.8196,3.33577,5.25003,6.2201,1.00142,7.61138,5.9387,-0.0770135,7.01254,5.86512,-1.2373,7.14481,6.20925
12.5225,0.0766782,9.50249,22.166,-6.08613,9.43167,20.1144,-6.25247,9.93657,19.9582,-6.14511,10.8487,21.7813,-5.71691
8.33666,0.070916,-14.3545,21.693,1.50732,-14.6481,21.1868,0.410815,-14.3766,22.8796,1.59576,-14.2241,23.1692,2.07092
3.31504,0.0341856,-7.59425,32.6475,-2.25799,-7.6188,32.8901,-1.48555,-7.17031,32.8078,-1.70308,-7.8397,32.7482,-1.88388
12.7023,0.158855,5.09214,5.96479,5.1785,5.30328,4.00818,5.68155,5.56276,3.77296,5.82729,6.10787,4.99347,5.93045
7.68874,0.218957,-8.15398,1.82997,-2.91859,-7.81388,1.63644,-2.92595,-8.39744,2.96742,-4.35208,-8.36951,1.36918,-2.88248
21.8362,0.301696,-6.37035,7.67076,-6.18854,-5.79262,8.87118,-6.61843,-6.29041,8.84332,-6.56825,-4.91307,7.63039,-6.63198
3.1954,0.323047,10.8956,15.4574,5.89648,9.61388,16.9438,5.93956,9.70954,17.1684,5.8089,9.75481,16.8433,5.87229


