
0.735457,0.00300191,-1.58517,8.07603,7.65525,-1.4478,8.21098,7.68674,-1.13571,8.05985,7.79562,-0.951115,8.18859,7.84564
1.7931,0.102987,-4.11502,4.4867,7.2053,-3.83621,4.21115,7.10776,-3.98822,4.66008,7.55508,-4.48942,4.66607,7.48781
19.0851,1.68954,3.49833,27.5352,-3.20941,1.85374,27.7108,-1.96725,2.36862,27.2142,-1.81342,3.48686,26.4575,-1.19327
3.92353,0.238572,6.43844,7.23224,-3.58768,5.69897,6.97774,-3.4942,5.2077,7.14693,-3.43454,6.84629,6.96198,-3.43549
9.18102,0.00956894,0.793402,24.2186,-6.53838,-0.439045,22.7812,-6.84149,-0.347166,22.7785,-6.85034,0.898699,26.1429,-5.97372
9.05353,0.0648358,9.35861,8.17538,-3.35817,8.37526,7.79667,-3.45693,8.90317,8.65664,-3.66314,8.555,6.80768,-3.09367
9.78053,0.363124,10.9299,11.1848,-2.37404,9.181,12.2952,-3.92623,8.90193,12.2829,-4.06515,11.9203,10.4942,-2.13169
3.31279,0.191664,2.82087,8.65904,7.35512,2.82341,9.20749,7.49123,4.61927,7.6111,7.78504,4.57613,7.54519,7.78886
8.9445,0.928681,-4.80001,1.89387,4.48843,-6.18454,2.82222,5.13977,-5.27875,2.47409,5.26703,-6.85744,3.20914,4.9717
0.863552,0.292967,-3.49851,28.0543,-6.73734,-3.17092,28.5638,-6.54681,-3.31379,28.4964,-6.57581,-3.54309,28.4766,-6.69597
85.4911,0.666219,-8.26779,3.77647,3.95405,-8.40504,4.32659,1.96557,-7.44253,3.76882,0.182579,-5.18155,2.96489,0.62652
0.513787,0.0070939,-8.7931,20.1204,-7.11739,-9.14456,20.7202,-6.98538,-9.36265,20.9538,-6.92364,-9.32772,20.6538,-6.96327
2.76459,0.0490758,-9.88143,19.5433,5.89459,-11.5198,19.8854,3.99872,-10.5013,19.542,5.32904,-11.3468,19.6767,4.34159
2.35482,0.0561073,3.77721,0.971417,5.75384,4.49003,0.824461,5.61458,3.57046,0.439454,5.28954,4.64869,0.552677,5.4262
0.127568,0.0153893,12.5083,1.45368,2.16262,12.0868,1.22387,2.14086,12.4106,1.3819,2.19172,12.3524,1.36865,2.08107
12.406,0.769735,11.9256,17.4071,4.18028,9.64922,17.1059,6.65239,10.8885,16.4816,5.95923,9.80363,16.7295,6.62144
0.379413,0.0145843,-5.77333,27.8448,1.12014,-5.34186,27.5307,1.49461,-5.63095,27.7533,1.16077,-5.2787,27.5309,1.39279
1.30647,0.133936,9.01383,24.7916,1.63827,9.01187,25.1463,1.3082,9.49313,24.9422,1.69981,8.78804,24.8295,1.81116
9.55077,0.0532976,-1.14669,13.6114,7.29337,-0.830871,13.8171,7.34626,0.991479,11.1158,8.01861,0.080588,10.9892,7.94126
2.9666,0.0650013,-12.0654,28.3335,-0.0478369,-11.6356,28.5116,1.10513,-11.4764,28.7423,1.08702,-12.2159,28.0716,-0.28646
7.05862,0.0643972,10.2919,22.0683,5.76151,10.14,22.581,5.09461,8.85915,22.9948,4.8524,8.23064,22.7562,5.2467
29.764,0.160008,13.4439,13.0142,-0.513416,13.5686,16.0632,0.956358,13.4065,13.8858,1.54206,13.5927,15.061,0.367706
4.35758,0.0335201,-11.4662,25.248,3.6176,-10.8392,25.1441,4.25811,-12.284,24.7715,2.55329,-12.3968,25.2026,2.50396
0.262592,0.079653,4.37252,13.8013,-6.00672,4.4532,13.5503,-5.74802,4.36798,13.4885,-5.70994,4.51033,13.6775,-5.89586
15.5257,0.306929,1.09495,2.1992,3.37941,2.4586,1.8572,3.35028,1.54148,1.16077,2.10024,2.36985,0.797567,2.21154
33.4243,0.1111,12.5423,7.428,-1.11264,12.3517,10.4436,-1.99305,13.5656,9.1045,0.149444,13.3064,7.8027,0.112985
8.63925,0.448458,-9.01772,21.3471,5.18369,-9.99425,21.088,5.47074,-8.88348,22.2168,5.45992,-6.71501,19.1903,6.89155
0.382832,0.0236052,4.73198,22.1924,-6.1237,5.10379,22.4567,-6.1623,5.0969,22.3905,-6.13116,4.91557,22.4093,-6.17152
3.3592,0.319974,0.629942,5.53493,-2.53354,-0.121509,6.72863,-2.70221,0.435809,6.93344,-2.71723,0.200949,6.66947,-2.64674
4.0149,0.0290512,5.78196,1.88858,6.18877,5.05385,1.68159,6.04998,4.41504,1.70442,5.9636,4.36663,1.77764,5.97884
4.81861,0.0593052,-0.668665,21.8967,7.56821,-2.99194,21.8698,7.23602,-2.98965,21.9587,7.21057,-2.53865,21.7778,7.34134
8.55851,0.116317,-2.58448,9.82413,-4.88587,-2.51349,8.79129,-4.15264,-1.81139,9.43047,-4.48588,-2.87615,8.92733,-4.24922
1.81799,0.134826,1.25695,29.3401,-5.08961,1.74386,29.2349,-5.13825,2.03863,29.1395,-5.32704,2.04112,29.0741,-5.40043
105.349,0.0217017,-9.40092,29.5489,-4.50269,-11.5913,29.1982,-1.86957,-12.3264,27.5565,-2.28315,-12.2018,27.2574,-2.70976
5.49537,0.15842,2.82361,19.5348,7.78305,4.56333,20.6824,8.06394,3.09101,19.0132,7.84563,4.60889,20.6115,8.05021
3.88338,0.0562641,8.34991,18.2311,-5.53444,8.18077,16.9998,-5.28771,8.55106,17.0441,-5.29988,8.33042,19.2846,-5.6375
35.5541,0.0113645,-10.6839,28.8398,1.45855,-7.6087,27.8495,2.1197,-7.52864,28.0012,1.62425,-8.46677,27.8799,2.65415
5.40922,0.168932,11.7715,19.2851,4.54114,10.9907,19.3443,5.38273,10.6723,19.7808,5.90413,10.5895,19.0367,5.92238
0.85419,0.0574239,-3.50299,6.92505,7.34486,-4.27616,7.01437,7.27678,-3.82618,6.82468,7.3799,-4.2783,6.91511,7.2974
15.3191,0.0189264,13.5651,10.5991,0.851471,13.228,7.83083,0.89917,12.9477,8.97061,1.45907,12.4616,8.94434,2.11187
54.004,0.139906,-8.93881,23.3418,-6.96575,-5.6507,23.3529,-8.18532,-11.1651,24.0325,-6.4267,-6.85648,24.4117,-7.85233
3.3582,0.203346,-9.44171,7.54124,-2.49849,-10.116,7.49943,-1.62866,-10.5208,7.77423,-1.16131,-10.4802,7.69096,-1.14091
36.2896,0.246745,-2.33495,5.64612,-2.22524,-2.24316,3.71382,-0.769875,-4.59597,5.55993,-2.29765,-4.80164,5.12308,-2.07578
45.5141,0.347529,-0.779698,16.48,-6.50062,1.02554,17.6235,-7.07467,-1.86055,17.3345,-7.10686,0.924643,15.2369,-6.49285
9.68389,0.460519,2.3291,1.61063,4.60305,2.72579,0.562404,5.32166,2.18883,1.1334,5.12836,1.56469,1.89929,5.87966
1.94778,0.092928,-0.747556,5.49921,-2.49306,-1.79997,5.43579,-2.18789,-1.44214,5.6044,-2.40907,-1.54249,5.54997,-2.33903
12.735,0.880337,-1.23552,14.5209,7.39174,0.345645,14.3228,7.77089,0.711853,15.415,8.04231,0.334769,13.1868,7.86897
67.0216,0.318299,3.8252,25.6418,0.462843,3.48332,26.8283,-1.90912,6.43071,25.9232,-0.896296,5.46412,26.5259,-2.15949
7.6833,0.151875,12.9428,15.1798,-1.63126,13.2404,15.2841,-1.04578,13.407,14.5808,-0.506735,13.347,14.3264,-0.795182
0.0735309,0.00272304,-3.31598,14.3261,7.86491,-3.36203,14.5395,7.87338,-3.40214,14.4581,7.8709,-3.31542,14.5398,7.87195
0.139235,0.00309901,12.0338,26.0144,-0.578262,11.9801,26.0595,-0.899698,11.9086,26.0734,-0.580083,11.8826,26.1043,-0.929918
4.45486,0.163807,10.6962,10.7492,-2.48716,11.3578,9.89624,-2.3793,11.4159,9.70158,-2.36085,10.1634,10.618,-2.95765
9.29325,0.136177,12.4808,9.65527,3.15134,12.5601,9.1069,2.84481,13.2025,11.0176,2.52419,13.0797,11.4392,3.35835
22.0336,0.111575,0.784808,2.70466,6.58339,-1.52215,4.99462,7.60636,-1.00346,3.73685,6.9134,-1.47348,4.60302,7.35947
18.9651,0.218529,5.62112,22.6386,6.16996,7.25508,22.6644,5.53763,7.52642,22.7224,5.72404,7.43139,22.7587,6.63409
11.8392,0.216834,11.9844,5.49238,-1.04554,11.4846,7.13547,-1.94599,11.1771,6.61927,-2.0204,11.8339,7.11165,-1.73286
17.075,0.372892,5.46916,27.0229,-4.27946,4.3221,28.0112,-4.20771,7.23772,27.2502,-4.52379,6.55144,26.6002,-3.79837
0.0304448,0.0448598,-5.37485,13.7148,7.65128,-5.50984,13.78,7.64764,-5.50282,13.7253,7.63328,-5.45467,13.7772,7.63552
13.7306,0.197219,-3.69415,26.0335,-6.97326,-1.81194,26.2404,-6.74045,-2.67009,26.5603,-6.59656,-2.48395,25.2007,-7.10758
10.8018,0.403635,-4.99452,16.4534,-6.46866,-3.55177,17.5068,-7.11328,-5.59099,16.4058,-6.83982,-3.9237,15.3893,-6.76843
0.0066078,0.0158821,13.0623,11.3503,-0.948549,13.0352,11.4854,-0.998632,13.0849,11.4179,-1.00411,13.0733,11.4882,-1.02164
17.1628,0.18155,2.44474,8.57551,-3.27326,-0.480742,9.16185,-3.65707,3.85519,8.35395,-3.56283,-0.118701,8.83877,-3.36386
2.14011,0.0756336,-2.34958,25.2164,6.94937,-4.25768,25.8235,6.89924,-4.04865,25.7784,6.77285,-3.41583,25.5709,7.12313
35.3196,3.36151,4.19273,7.05487,-3.17875,-0.56595,7.3597,-2.84831,-1.00728,8.23384,-3.284,-0.917055,7.92393,-2.97714
6.54341,0.286136,-9.70125,25.8027,-6.68419,-9.31195,25.0058,-7.19597,-8.68257,26.2915,-7.47851,-9.66726,27.2422,-6.99882
0.0382447,0.00851533,6.99038,22.7317,7.16841,7.2942,22.6275,7.03713,7.28394,22.6897,6.96953,7.19617,22.6485,7.10017
9.34688,1.10005,8.66849,0.811614,4.58744,6.8607,0.797414,3.15503,7.02397,0.778264,3.09039,6.31101,0.674174,3.12339
0.416755,0.111687,-13.2431,22.1354,-3.56499,-13.0902,22.1882,-3.95014,-13.1085,22.0518,-3.85031,-13.1043,22.1182,-3.85043
31.8264,0.625816,-10.6456,7.28376,0.151385,-9.13136,4.5992,1.18452,-9.64627,5.46495,0.200354,-11.6383,6.17522,2.97612
24.8131,0.380485,2.09844,21.9641,-7.14191,2.3885,23.9372,-6.71839,1.84402,23.7899,-6.73156,1.45923,23.5206,-6.81356
0.332493,0.146985,-3.88978,24.0229,-8.06083,-3.58289,24.09,-7.989,-3.57763,24.0247,-8.02156,-3.80126,24.3316,-8.02249
5.81994,0.0966832,7.9802,19.7348,-5.47581,8.523,19.5119,-5.49692,6.19019,20.1882,-6.02562,6.30506,20.5755,-5.79869
7.92296,0.164726,-7.20073,6.19919,7.03859,-7.59394,7.43756,6.78708,-8.70555,7.84004,5.89335,-6.30612,5.5261,7.43943
39.8828,0.104791,9.2469,9.74452,6.33587,9.97401,7.43805,6.44731,11.4808,9.26609,5.60529,11.401,7.39442,5.87471
5.09052,0.303823,-4.27873,8.44073,7.65702,-5.98713,9.69578,7.20518,-5.90026,10.2971,7.51744,-5.80754,9.47569,7.25997
4.70979,0.19289,-3.8508,2.30317,2.79752,-4.19409,2.16378,2.94257,-2.20084,1.10668,3.90145,-3.40949,2.09466,2.30228
0,0.0120789,-7.05815,5.76056,7.25017,-7.07117,5.68091,7.27435,-7.05496,5.7532,7.2402,-7.03304,5.68356,7.27214
4.89196,0.15963,9.22627,1.13065,2.89454,10.2709,1.01297,2.43246,8.17886,0.919968,2.99378,11.083,1.03765,1.72514
18.1665,0.0284716,6.55226,5.96413,-3.06492,8.17503,6.56668,-2.98776,8.13917,4.79975,-2.44061,9.60781,6.83583,-2.81052
0.0126444,0.0105038,8.10049,20.7969,-5.29558,8.10167,20.6843,-5.30555,8.05615,20.6922,-5.30563,8.0677,20.7492,-5.29477
9.72706,0.198628,6.58637,7.6324,-3.64993,4.99293,7.97703,-3.58014,5.03632,7.89961,-3.55309,8.33606,7.84119,-3.48669
10.7648,0.114942,6.06081,3.09195,-1.97094,7.20043,4.22831,-2.63685,7.90081,1.62118,-0.823528,7.80978,1.61925,-0.838846
0.444062,0.0816729,5.76066,8.18739,7.62351,5.81526,7.95922,7.78359,5.68752,8.31779,7.66013,5.82124,8.38977,7.74865
29.0115,0.602553,1.7303,2.30638,3.99674,-0.543545,1.31816,4.25447,2.45505,1.85227,4.16026,0.711333,1.80653,5.08115
11.621,0.471912,-3.19087,18.4851,6.84506,-2.06501,19.3038,7.50387,-2.05473,16.1151,7.62883,-1.52006,19.2811,7.6064
4.04607,0.175784,13.2151,20.5379,0.975109,12.9225,20.1713,-0.439323,13.1298,19.9711,0.201521,12.9401,20.3171,-0.397321
2.95906,0.0935569,2.19073,28.4857,-3.72445,2.92722,27.9603,-3.28895,2.00542,28.8004,-3.87627,2.15328,27.9667,-2.78371
4.26694,1.16358,2.73766,2.54166,6.85008,1.09834,2.83945,6.76645,1.19496,2.70298,6.63537,1.1941,2.62754,6.609
1.66891,0.0631916,1.60802,18.9216,-7.26419,1.63506,18.17,-7.08815,1.56736,17.5698,-6.869,2.03109,17.4678,-6.95759
8.12763,0.409763,3.21607,28.5105,-4.18853,2.23509,28.6519,-3.91246,4.55228,27.2836,-3.3273,4.70432,27.2104,-3.29271
1.00159,0.274806,5.19697,24.5568,3.23525,4.55689,24.6042,3.38697,4.63375,24.6283,3.28685,4.70224,24.6792,3.17157
3.96543,0.122334,-3.90561,21.7419,-7.76828,-5.37577,21.4371,-7.59337,-5.37297,21.5232,-7.60956,-4.46162,21.5324,-7.76325
5.43423,0.170936,5.90182,18.8462,7.49919,4.76693,18.3503,8.08024,6.63979,19.5575,7.48911,6.3101,18.152,7.4109
16.2891,0.143131,-0.981463,28.6554,-4.01057,0.675758,29.0562,-3.94761,-0.551586,29.2199,-5.25282,1.4453,29.3201,-4.45007
0.600781,0.056012,11.7961,1.68342,5.04416,11.2973,1.40663,5.1361,11.2271,1.26798,4.97183,11.1182,1.50232,5.44212
9.73234,0.0535546,-11.6146,22.5928,3.36394,-11.3566,21.967,3.82044,-11.2901,20.775,4.2471,-10.3293,23.2864,4.97108
2.29614,0.246547,-8.48321,10.2734,6.70294,-9.5941,10.3783,5.84637,-9.37227,10.2641,6.1361,-9.59804,10.4621,5.80334
1.22872,0.0827048,-7.19622,11.5672,6.97096,-7.14882,11.0823,6.8886,-6.87948,12.0392,7.14182,-7.24078,11.092,6.81197
15.9729,0.439459,-2.91548,26.2688,3.33945,-3.2259,27.0485,0.724606,-2.94824,26.7749,1.12212,-2.08071,26.02,3.55482
1.09888,1.14661,6.91909,20.6562,7.63759,6.19569,21.6462,7.68696,6.05161,21.4218,7.71531,6.10104,21.5004,7.69823
12.4468,0.171207,-12.6691,21.5796,1.50838,-12.2862,21.954,2.38619,-10.4093,20.4797,5.34953,-12.5671,20.1467,2.06324
9.45726,0.0758003,-0.371002,24.6479,6.88367,-1.08416,24.8576,6.92812,-2.35465,25.2756,6.38111,-2.27386,25.1712,6.67487
7.99355,0.395241,-8.43135,27.4858,4.01597,-6.40552,26.3473,5.31484,-5.98237,26.2445,5.03064,-5.84016,26.16,5.50728
1.7186,0.162549,12.7571,14.2236,-1.4818,13.0216,13.2543,-1.47128,12.8031,14.0603,-1.69374,13.0174,14.4719,-1.40314
5.41257,0.00828692,-6.34185,11.704,-5.20864,-4.82369,11.8821,-5.66771,-5.11544,11.4006,-5.69687,-5.11656,11.4828,-5.67525
0.0417808,0.0281611,2.91536,10.1473,-4.36747,2.92916,10.2455,-4.43372,2.888,10.1079,-4.38157,2.88089,10.2495,-4.43213
2.06019,0.129363,-13.4538,18.7833,0.41339,-13.546,19.0332,0.114208,-13.5954,19.0256,0.886703,-13.6052,18.4591,0.365976
3.0543,0.112394,9.40399,21.2418,-5.0552,9.6494,21.6825,-4.94907,8.76971,21.6643,-5.25073,8.48754,21.4458,-5.2988
3.16274,0.0570553,-4.63492,29.057,-3.27786,-5.10876,29.2438,-3.19667,-4.49682,29.1547,-3.64855,-3.74151,28.6583,-2.38327
3.54402,0.306789,-0.917956,25.0805,-6.26917,-1.11801,24.9381,-6.76214,0.305306,24.6853,-6.37417,-0.479721,25.9563,-6.06106
2.4407,0.0551591,-11.8071,22.5646,3.09647,-12.3244,22.2242,2.41972,-11.894,23.1125,2.90469,-12.221,21.8934,2.54342
52.4836,0.632257,-6.65787,4.95911,-1.00264,-2.87612,4.12793,-1.08256,-6.91319,3.56932,0.0358011,-4.04485,2.51533,-0.435795
6.21266,0.242318,-4.94923,21.8012,6.87926,-3.03823,21.863,7.23592,-5.05939,21.3182,7.25886,-3.03561,21.9598,7.20912
0,0.019277,-5.44614,15.0668,-6.77183,-5.46166,15.1187,-6.74304,-5.47443,15.1148,-6.74022,-5.48087,15.0776,-6.77215
1.26205,1.33655,6.57908,17.2277,-5.87024,6.49934,15.9784,-5.36322,6.41808,15.9558,-5.42915,6.54665,15.9776,-5.35037
19.6488,0.144151,-11.6246,10.9722,3.44478,-8.7824,11.2146,6.45176,-9.21262,12.2666,5.98671,-9.61982,11.6042,5.60837
7.74637,1.14306,1.46099,15.1239,7.54057,3.4676,15.9843,7.93323,3.42598,15.9295,7.90192,2.04388,13.8386,7.6242
4.455,0.0677291,8.32421,12.5484,7.07883,9.25911,12.1733,6.70407,7.21561,12.9418,7.36977,7.53224,12.3752,7.30286
46.519,0.450969,10.0978,15.3908,-3.8995,12.0452,18.182,-2.72614,11.1556,13.9543,-3.51951,11.8496,18.9187,-2.9141
7.14961,0.506132,6.18827,22.3956,-5.53097,6.29865,20.7246,-5.8426,5.37974,22.4009,-6.11463,5.24293,22.3261,-6.11826
1.20214,0.549101,10.9151,14.8092,5.64993,10.6731,13.9105,5.71761,10.6604,13.9411,5.88677,10.7513,13.7092,5.65645
25.3501,0.61899,-12.1802,12.3581,2.71992,-12.0289,10.8123,3.07176,-10.6515,11.812,4.65482,-11.5434,12.9029,4.33753
0.330427,0.0233774,9.7277,3.76874,-1.92222,9.54601,3.91273,-2.00923,9.4048,3.83667,-2.0414,9.39923,3.69628,-2.00198
2.60522,0.262915,-5.36092,3.04715,0.514307,-3.67346,2.06031,0.384191,-4.20597,2.28455,0.443181,-4.46,2.42821,0.575999
74.7941,0.635051,2.5134,13.5954,7.28612,6.40061,14.0548,7.43339,5.98228,13.6934,7.48313,8.07844,15.7022,7.23599
2.20379,0.0360036,-7.39686,3.75546,4.05289,-8.2695,3.73017,4.51775,-6.75299,3.1381,4.44933,-7.77133,3.82595,4.20041
2.5334,0.480552,3.80247,24.9551,-5.85621,4.65498,24.4701,-6.09409,4.55639,24.1619,-6.22474,4.54975,24.0118,-6.31681
11.2423,0.304888,-6.90699,7.29068,6.66188,-4.32352,6.91217,7.29518,-4.64154,6.90781,7.25808,-7.59127,7.91859,6.85206
0.211669,0.000296393,-5.17551,10.7424,7.80282,-4.94808,10.7377,7.84357,-5.04046,10.6021,7.83573,-5.12914,10.8121,7.80635
54.2984,0.254927,-13.4609,25.6003,-1.85642,-12.5259,24.5814,-5.07217,-13.0118,24.4265,-4.02901,-11.4187,26.1107,-5.63765
3.63059,0.350391,4.91832,15.4609,-6.1781,3.62666,16.6352,-6.10233,3.71575,16.6394,-6.07494,4.44296,16.2578,-6.16113
6.34174,0.104849,1.9031,1.02031,1.65412,1.10869,1.13022,1.77726,2.43407,0.872281,1.04357,2.40775,0.938971,0.76893
38.269,0.24102,4.38595,16.7382,8.04248,-0.123604,17.906,7.84936,1.25552,18.7486,7.86815,1.88262,17.0559,7.81879
3.93448,0.0562018,-0.333708,18.2338,-7.09103,-1.03112,17.5697,-6.79622,-1.02459,18.1914,-7.41412,0.510862,19.0241,-7.24036
0.792458,0.0864908,-8.89318,27.2795,-7.4804,-8.80181,26.9762,-7.57864,-9.16557,27.3002,-7.41987,-9.15813,27.5767,-7.48012
28.4276,0.732167,4.76606,16.3572,-5.87659,5.92442,15.2653,-5.88488,6.90235,17.6896,-5.93563,6.83994,18.7306,-6.20019
8.1474,0.0176138,10.7849,24.7363,-2.99212,11.9514,24.2323,-1.79388,10.9973,26.0542,-2.84401,10.315,24.893,-3.50874
0.504494,0.0173133,-2.62529,1.76636,0.64507,-2.37382,1.79594,0.505652,-2.13435,1.67012,0.657066,-2.04389,1.69902,0.58904
17.8535,0.0450185,0.0381681,5.3982,7.6719,0.660378,3.9852,7.65832,1.33953,4.10328,7.822,1.38576,4.94253,7.8972
2.69234,0.0308387,-10.6766,25.2455,-6.79193,-10.6097,24.2459,-6.75519,-11.1081,24.493,-6.58879,-11.0576,24.7068,-6.62843
3.21056,0.336488,-11.6524,19.7585,3.86027,-12.417,19.9462,2.30246,-12.6065,19.7587,2.04363,-12.6563,19.6805,2.03215
17.3189,0.205834,13.1196,21.0126,1.03037,12.3905,20.6139,-1.6938,12.3903,20.7574,-1.68349,12.537,21.1086,-0.895853
1.57509,0.0970938,-0.0595912,2.87756,-0.82484,-0.608884,2.96223,-0.792607,-0.799679,2.57444,-0.550984,-0.653889,3.03476,-0.842011
2.13504,0.143892,-10.0637,18.6842,-6.01577,-10.2485,20.4476,-6.58061,-10.2016,20.4419,-6.606,-10.2985,20.246,-6.49463
0.471101,0.178611,-9.00435,29.9183,-4.65588,-8.70328,30.0035,-4.67322,-8.77452,29.9303,-4.57305,-8.65707,30.0792,-4.55302
0.0130657,0.0181783,6.20252,4.50241,-2.93694,6.20523,4.43937,-2.89873,6.25832,4.44038,-2.8841,6.27489,4.4962,-2.93574
2.01763,0.0421567,-8.03073,26.1623,5.57237,-7.53144,26.1911,5.81293,-7.06931,26.4778,5.85795,-7.11275,26.4794,5.83934
2.05685,0.0678847,-0.607867,29.1704,-5.43061,-0.251881,28.9588,-5.58735,1.08095,28.8232,-5.73672,1.01581,28.7234,-5.75757
0.00116043,0.00757982,-10.5388,13.9518,-5.05013,-10.5133,14.0355,-5.07298,-10.5479,14.0341,-5.05416,-10.4498,13.9427,-5.10697
0.761194,0.086261,4.86356,25.2016,-5.92251,5.05952,25.6352,-5.79065,5.16863,25.4587,-5.76955,4.75524,25.5322,-5.85415
7.71665,0.346262,3.48694,6.31537,-3.04799,2.56897,6.02535,-2.82628,2.39688,6.5774,-2.89116,2.55668,5.66846,-2.71022
0.818249,0.0300936,-1.15194,20.1085,7.75644,-1.06226,20.4469,7.85852,-0.879619,19.967,7.77653,-1.42615,20.1725,7.78257
16.8531,0.87651,-8.27439,26.0056,-7.3896,-6.38562,26.782,-7.69863,-6.05627,26.84,-7.60473,-7.90734,28.1116,-7.88952
20.5838,0.224149,-2.85161,27.6552,-0.930509,-5.23269,28.7363,-1.53828,-5.36381,29.0427,-1.99665,-4.45009,28.6931,-2.075
32.9542,1.9485,-9.67752,11.5865,-4.20262,-9.35456,13.8062,-5.37909,-6.94404,11.3638,-5.27408,-8.05789,12.5538,-5.05955
18.2008,0.507923,-1.13627,13.1845,-5.39176,-2.64714,12.9953,-5.97428,-0.375388,14.5201,-6.28871,1.46043,14.5604,-6.16974
120.737,2.77015,3.28559,11.8195,-4.73876,8.20659,12.4153,-4.67509,6.77955,8.45992,-4.30804,8.8551,12.1964,-4.05806
4.18752,0.161794,2.49153,26.4758,-0.696406,2.34612,27.1039,-1.36938,1.92174,27.3376,-1.36694,3.19878,26.354,-0.827357
0.937407,0.036689,7.17861,6.27796,7.66922,7.27422,6.77922,7.62549,7.36507,6.71062,7.60266,7.35503,6.06918,7.6714
7.61522,0.0950368,-9.17383,19.2955,-6.6071,-8.89195,17.4826,-5.75767,-8.98359,17.3566,-5.69535,-9.47319,20.3091,-6.90697
18.6262,0.339142,7.35432,20.3755,-5.51916,9.38968,19.0942,-5.28142,9.5008,19.7497,-5.07402,7.76892,22.0383,-5.31397
5.21618,0.0431567,9.41106,1.08174,4.54935,9.99892,1.25467,5.41651,11.0015,0.935072,3.78827,9.76332,1.23499,5.37228
16.8695,0.264523,6.78879,6.29904,-3.05429,5.61374,5.32375,-3.20106,7.54385,7.3078,-3.39789,5.05078,6.62242,-3.15008
17.3374,0.275214,-5.8464,3.74874,2.56639,-5.15234,2.6092,2.98043,-6.20383,2.69208,4.10112,-3.93161,2.10025,2.35493
0.251175,0.0625782,9.81858,5.54793,-2.32886,9.39976,5.60172,-2.51584,9.68707,5.4931,-2.30904,9.45817,5.47686,-2.43592
0.233058,0.0812546,3.39403,23.8921,6.47097,2.96926,24.1187,6.32927,2.89826,24.1693,6.39844,2.8274,24.2262,6.33098
38.5984,0.280431,1.12596,16.0213,-6.22572,2.05746,18.7034,-7.20066,3.7212,15.448,-6.54233,1.39241,17.4981,-6.87679
21.1624,0.228595,-9.14707,22.299,-6.79122,-11.0901,21.513,-6.19642,-9.64068,20.9606,-6.87134,-11.0215,22.3725,-6.19411
5.6755,0.153809,-7.46029,29.6951,-7.50646,-7.55426,30.5571,-7.04646,-6.83107,30.1268,-7.6793,-7.86199,29.4299,-7.71881
10.735,0.085535,-4.65874,2.67116,5.41605,-1.47836,1.18199,5.15111,-3.4177,1.58064,4.93468,-1.42615,1.0966,5.09111
0,0.0241784,11.9838,24.3445,3.54903,12.1564,24.306,3.47982,12.0272,24.3533,3.46643,12.0912,24.3513,3.4384
3.25226,0.127013,0.703502,2.20594,3.5999,1.22538,2.34817,3.96767,-0.509048,1.29866,3.10483,-0.0372883,1.54365,3.5831
5.64363,1.07893,-6.71174,22.4548,6.3379,-8.47031,22.5655,5.55957,-8.51823,22.3329,5.55503,-8.52019,22.2633,5.5734
0.907884,0.0784907,10.1918,19.3015,6.17453,10.4982,19.0463,5.98378,10.2942,19.7373,6.30562,10.1847,19.0078,6.20704
0.214724,0.0060447,4.6678,10.4534,-4.47025,4.66115,9.9785,-4.50583,4.60555,10.449,-4.47116,4.57038,9.98361,-4.49756
5.73855,0.22272,3.82888,1.80086,5.87856,3.68368,1.30125,5.92778,3.61631,2.69098,6.63084,4.32392,1.85476,6.02537
4.71424,0.0453216,2.67182,23.5938,4.88985,3.72264,23.1168,5.24463,1.74322,23.9547,4.8276,2.29972,24.0261,4.47971
0.638042,0.0568475,-5.43614,19.0631,-7.52933,-5.49313,18.5712,-7.46589,-5.65619,18.5866,-7.47999,-5.45042,18.5007,-7.46069
0.302056,0.0188925,1.01534,20.7209,-7.09312,0.866634,20.3082,-7.12029,1.08875,20.5986,-7.08569,0.955164,20.2347,-7.12644
8.20368,0.0468912,-0.975314,22.704,7.38804,-3.06966,22.7536,7.09649,-3.11619,22.6051,7.07928,-1.92588,23.2205,7.26876
4.40753,0.410663,-3.4002,16.7478,7.14752,-1.70023,15.5339,7.75398,-1.38478,15.1608,7.82007,-1.83342,15.7524,7.71307
0.316578,0.0303712,-11.7251,26.6636,-4.35494,-11.5534,26.8968,-4.35183,-11.9384,26.6034,-4.33059,-11.5885,26.7527,-4.4055
43.3505,0.221731,0.0610224,26.2148,1.77443,-0.954107,27.598,-1.31519,-1.88271,26.7136,0.594618,-2.22349,26.8964,0.284791
0.394275,0.0812203,1.95488,6.14894,7.82098,1.62666,5.91845,7.91415,1.80938,5.77713,7.90517,1.81334,5.85534,7.87701
102.618,1.55897,-9.92775,7.22117,5.46637,-8.9376,9.24547,6.44447,-7.76529,9.45441,6.98461,-11.9083,8.19349,3.63547
0.831046,0.473769,-10.5567,26.466,-6.23034,-10.1461,26.1719,-6.65775,-10.2938,25.955,-6.69,-10.154,26.0245,-6.66509
21.1632,0.0180887,-10.8498,26.6195,-5.55451,-10.2607,27.7632,-4.91324,-9.44387,27.7285,-6.54997,-9.25711,28.0522,-6.39336
25.0058,0.494756,-9.87565,16.9789,-5.20286,-7.12845,16.9737,-6.65335,-10.1097,18.6354,-5.99937,-10.5243,16.675,-5.45444
18.0464,1.91889,-4.33932,13.1003,-5.9584,-3.30208,14.6651,-6.732,-3.70132,15.1641,-6.80879,-2.1825,13.5008,-6.18652
7.66547,0.219813,-1.97375,25.4245,-6.92578,-2.77718,24.7267,-7.4826,-1.1042,23.8727,-7.18251,-2.33351,24.1228,-7.63955
3.35468,0.0442828,-8.54422,12.8931,6.57853,-8.81367,12.6351,6.28405,-9.61683,12.5241,5.61835,-9.61506,12.3836,5.61101
0.687359,0.278729,-1.63353,26.1752,2.64492,-1.78354,26.1036,3.05781,-1.5011,26.0595,2.97671,-1.86067,26.1244,3.09364
0.561457,0.280029,-12.0884,17.3602,3.86825,-12.3045,17.6223,3.54021,-12.3496,17.3378,3.47364,-12.3083,17.4114,3.50106
7.96915,0.24956,-8.04429,8.98402,-3.22985,-8.01803,8.33726,-3.26694,-6.26931,8.89565,-4.14664,-8.08118,9.47839,-3.69716
2.30639,0.0448121,0.194789,8.49132,-3.21908,-0.316819,8.23227,-3.12689,-0.311166,8.3747,-3.19482,-0.138486,7.8989,-2.97486
1.00318,0.102438,-5.76553,29.1744,-2.83257,-5.98665,29.4455,-3.08337,-5.99018,29.2669,-2.77327,-5.1414,29.1319,-2.59427
18.2171,0.600042,0.352277,26.632,0.81232,3.39106,24.87,2.12483,3.25166,25.1181,1.64825,2.89631,25.0006,2.01019
2.05875,0.062674,7.69013,7.97399,-3.68473,8.48288,8.30359,-3.67038,7.93206,8.36938,-3.81492,8.49601,8.84515,-3.82917
0.395995,0.155998,5.12244,21.1956,7.97083,4.98148,20.9645,7.99556,4.84786,21.0352,8.02599,4.89796,21.0372,7.99605
0.128844,0.00479352,0.866039,28.3013,-5.83421,1.04567,28.2966,-5.84273,1.04007,28.2334,-5.84491,0.783782,28.4352,-5.8179
1.19135,0.0212953,8.28117,4.72841,-2.40176,8.33007,5.09267,-2.49218,8.46486,5.0668,-2.49544,8.67976,4.37455,-2.38294
21.2273,1.09136,5.82735,21.6432,7.70198,3.00974,23.5751,7.62085,3.01478,22.8424,7.36639,3.28796,23.7136,7.62771
43.5191,0.605698,-7.15769,18.0043,6.21587,-4.50265,17.0229,7.24037,-3.98103,18.6382,7.23089,-7.66846,19.2196,6.69724
6.83923,0.210409,6.16307,13.2215,7.38707,5.8708,12.8251,7.68258,6.95008,13.9229,7.40021,7.12417,13.0084,7.38788
4.64983,0.361128,3.00339,20.9235,-6.42529,3.84536,18.7689,-6.95845,3.30021,18.7581,-7.11329,2.67382,21.0773,-6.87065
13.985,0.199101,-4.20437,2.92834,5.6065,-4.81092,3.50622,6.0259,-2.61623,2.11654,5.80418,-1.90225,2.56137,6.27881
5.89671,0.11553,2.96112,26.1108,-5.4784,3.75811,25.0278,-5.85039,5.13584,28.0928,-5.36955,4.70319,27.5521,-5.44191
0.592954,0.088082,-3.44137,3.60836,-0.786016,-3.77137,3.25262,-0.839238,-3.25456,3.58549,-0.876564,-3.3842,3.81439,-0.8919
42.8898,0.19611,-9.49511,16.7358,5.80647,-8.12934,15.1455,7.07339,-8.20664,16.3005,6.94053,-8.98521,14.5985,6.5359
42.0195,1.08801,-4.78257,11.8254,-5.66669,-2.29822,12.3351,-5.558,-2.32352,11.1504,-5.35998,-2.83472,12.9977,-5.99731
2.19786,0.0641499,3.67914,25.5813,0.670676,3.7447,25.2818,1.22434,2.35455,26.4854,-0.437661,2.07266,26.4955,-0.116773
0.194111,0.0599186,-11.6407,27.7274,3.22037,-11.5743,27.8746,3.24355,-11.4886,28.2547,2.89512,-11.5696,28.1831,2.88242
4.17203,0.249312,-10.7575,26.8167,3.55827,-10.2941,27.5918,4.31115,-10.44,24.8235,4.62259,-11.0329,26.9566,3.60417
0.0479294,0.0174956,7.43468,11.0219,-4.66203,7.339,10.9443,-4.68505,7.38669,10.8782,-4.66092,7.34133,10.8733,-4.6698
7.79017,0.308409,-8.43806,25.252,-7.20748,-7.30288,24.7937,-7.69532,-8.46122,25.9408,-7.40923,-8.04688,24.3255,-7.70345
0.208613,0.0720942,-11.3119,5.45377,4.43854,-11.3732,5.3946,4.12287,-11.3559,5.46021,4.18344,-11.4151,5.54846,4.09543
11.1086,0.395223,-4.98206,26.5382,4.23411,-5.57971,27.389,2.20532,-5.49711,27.3707,2.17623,-6.1609,27.2461,2.91931
3.84639,0.10621,-1.43417,27.6291,-1.44342,-2.48961,27.8793,-1.48042,-1.57841,28.1891,-2.22407,-2.2707,28.3933,-2.4689
3.61081,0.149522,2.65583,1.60581,4.3262,2.10369,1.97332,4.46377,3.35005,0.518433,3.9913,1.87917,1.85523,4.77574
3.06008,0.0516866,-5.78704,25.209,6.819,-4.74535,25.1514,7.16894,-5.1481,25.5288,7.01975,-4.88655,24.7245,7.17134
1.33491,0.292798,7.77793,4.25882,6.88855,7.94774,4.62588,7.38416,7.64097,4.3664,7.16446,7.89711,3.93891,7.26194
6.32259,0.31449,-3.01711,20.4899,7.57992,-3.94334,18.1488,7.17102,-3.24202,21.1275,7.60476,-3.65504,18.3338,6.92116
25.3346,0.154746,5.4752,13.8116,-5.787,5.94872,14.4882,-5.90999,3.11968,12.6835,-5.14114,3.56763,12.0055,-4.84321
2.74572,0.762484,11.9625,17.3041,4.11964,12.9691,17.3428,3.06056,12.9166,17.2409,3.22582,12.9924,17.3698,3.0253
28.4074,0.274235,12.9416,16.9585,-1.24558,13.4304,17.8462,1.04809,13.4964,17.3452,0.807942,13.2065,17.9473,-0.126706
0.136924,0.018146,13.0131,7.21675,3.66773,12.8928,7.42053,3.87136,12.8943,7.35528,3.89185,12.9188,7.27513,3.87265
52.3824,0.511245,8.29314,17.6322,6.95496,8.01304,19.8039,6.66597,8.02961,22.3886,6.82656,7.10729,20.2542,7.50892
1.77853,0.149973,-0.717174,17.0971,7.60251,-1.04872,16.8588,7.81563,-1.13248,17.628,7.83229,-0.307145,17.0809,7.67952
2.70603,0.591145,-7.9034,28.5775,-3.18009,-7.48751,29.3091,-3.18104,-8.29518,29.1708,-3.38152,-8.40639,29.4137,-3.05896
0.816564,0.0571299,12.6267,23.9943,1.16792,12.7006,23.4727,0.956475,12.6522,23.6794,0.799468,12.6539,23.6809,0.680906
49.3903,0.129573,-4.0917,7.93694,-3.54321,-2.43174,5.96821,-2.49934,-2.92499,11.0079,-5.48909,-1.16836,7.26036,-3.24079
0.709256,0.197092,-9.22128,15.5697,-5.91408,-9.20462,16.2113,-5.89154,-9.34514,16.1439,-5.86565,-9.43955,16.0758,-5.85725
15.9688,2.24411,7.22638,17.694,-5.87949,6.98321,14.8401,-5.10636,6.0797,14.2089,-5.83517,6.43875,15.0722,-5.12264
7.6679,0.129089,-11.2484,23.8133,3.81899,-10.4956,24.1069,4.7157,-12.5335,24.4552,2.28286,-11.9047,23.4817,2.58595
13.8171,0.0143325,-4.64393,28.036,-0.711085,-4.48925,27.4055,0.8438,-3.21313,27.271,0.256862,-3.55718,27.6305,-0.419262
9.94804,0.737122,-3.00815,9.14815,6.92374,-1.1582,10.1004,7.83371,-2.4885,7.70084,7.34106,-3.99601,9.54291,7.79773
4.04863,0.784408,-7.49429,8.82333,6.9406,-6.08172,9.35071,7.19628,-6.08708,9.07407,7.17471,-5.90944,8.77126,7.31812
2.30493,0.160682,-12.2338,16.3234,-3.6099,-12.2428,15.9602,-3.79322,-12.7583,16.1807,-2.92756,-12.2554,16.752,-4.08344
33.586,0.68271,6.57589,22.115,-5.42239,8.54455,23.38,-5.25273,9.64951,23.3502,-4.73817,8.54228,23.4425,-5.25351
1.72495,0.501454,-6.30147,24.6634,-8.0121,-7.168,24.7396,-7.68175,-7.07889,24.6493,-7.71675,-7.21646,24.8039,-7.69766
16.1938,0.0242429,-13.251,26.8296,-0.5491,-11.3965,29.5026,-1.07811,-11.5528,29.36,-0.307591,-11.5069,29.324,-1.24832
0.513786,0.0363246,12.8342,8.79331,-1.27933,13.1258,9.62909,-1.12634,12.9716,9.30113,-1.28752,13.1199,9.71373,-1.16669
3.82321,0.0148717,-0.251991,2.47707,6.20484,-0.540962,2.7836,6.58486,1.20538,2.1844,6.25841,0.749363,2.25308,6.21687
10.2454,0.138028,4.67823,3.99367,-2.20669,4.58522,4.50461,-2.65269,5.60229,4.85463,-3.10283,5.82441,4.37418,-2.86962
7.80702,2.65739,5.32558,18.9372,-6.52342,3.35072,16.8405,-6.27192,3.11771,16.8528,-6.68064,3.53745,16.7094,-6.09164
60.9316,2.3705,2.21789,19.488,-7.15024,-1.44072,19.7256,-7.55935,-1.06763,21.5635,-7.07481,-1.14188,20.7773,-7.19166
6.09382,0.12039,0.454257,28.2085,-2.2099,-1.14894,28.1814,-2.35803,-0.323982,27.809,-1.4181,-0.941448,28.2507,-2.5611
0.0225335,0.0449754,-2.68083,25.191,7.45994,-2.51548,25.1956,7.45368,-2.51599,25.1004,7.51913,-2.47098,25.1848,7.47549
27.7824,1.95114,7.40084,25.52,0.25066,5.08308,25.5284,0.850221,6.40817,24.9387,1.8752,6.19196,25.0071,1.69774
8.98234,0.207371,-7.35414,28.3605,-8.0333,-6.34122,28.5627,-7.97461,-8.7745,28.1898,-7.60216,-7.93897,28.751,-7.98794
0.0290443,0.0080909,-3.6137,20.6327,7.61847,-3.56483,20.4858,7.57834,-3.65942,20.6349,7.61781,-3.60565,20.4874,7.58509
45.0596,0.200247,11.7718,14.0112,4.35817,12.0156,14.693,4.29837,13.2377,13.4335,1.98493,13.3639,12.4869,1.77547
0.0877238,0.00511081,-5.47084,24.3882,-8.16162,-5.41263,24.3961,-8.16094,-5.40344,24.1855,-8.19652,-5.44836,24.1869,-8.19181
0.166825,0.00882385,-4.85291,11.0319,-5.70738,-4.81197,10.8274,-5.64569,-4.67686,10.6836,-5.60696,-4.6735,10.831,-5.64432
6.23252,0.0010351,-0.771896,10.8406,-4.85528,-2.14645,10.9536,-5.28092,-1.49553,11.1727,-5.17889,-0.929659,10.0322,-4.60157
16.7201,0.567036,12.771,11.8618,3.83437,13.3332,10.5491,2.02202,11.0523,12.919,5.28983,13.2935,12.092,2.1728
7.42212,0.0567381,-6.07419,9.69999,7.17382,-7.99932,11.4907,6.47359,-7.45859,10.7774,6.57894,-6.39458,11.2239,7.41617
0.492935,0.0208358,4.84807,7.40254,7.80558,4.93106,6.89701,7.88111,4.66918,7.54757,7.78878,4.84488,6.89408,7.86895
6.40887,0.365807,8.8825,18.7516,6.52048,9.21121,17.1547,6.91116,10.0343,18.6312,6.39015,9.71606,18.639,6.54067
2.19026,0.323271,-2.171,12.6179,7.41031,-1.31491,12.7231,7.69038,-1.26694,12.7862,7.71799,-1.27397,12.4203,7.79039
13.5494,0.097058,-7.77645,14.8072,-6.0132,-7.61465,16.023,-6.39065,-7.12191,11.971,-5.35951,-7.92188,12.4753,-5.04507
4.93178,0.00611774,1.45297,8.17351,7.22457,1.94426,7.25203,7.28714,2.26954,8.64803,7.46253,1.41336,8.96186,7.25888
5.63505,0.267353,-1.41026,1.60876,2.73355,-0.625123,1.26254,2.74304,-1.27769,1.41799,2.3751,-2.09249,0.930029,4.39949
0.0891506,0.0153058,6.65565,13.9038,-5.73807,6.76647,13.8664,-5.70951,6.67686,13.7926,-5.73568,6.64366,13.7973,-5.74852
15.5222,0.248168,-6.26343,12.5244,6.68149,-2.63124,12.6098,7.47546,-6.86531,13.1847,7.0256,-4.72206,12.3305,7.10792
60.9134,0.604163,-5.69287,30.4771,-6.88869,-4.2166,29.0149,-3.33966,-3.83657,29.3899,-4.95773,-3.43041,29.1364,-3.88762
1.47681,0.121492,-3.56363,22.7343,-7.6574,-3.50725,23.0498,-7.95266,-3.92212,22.7808,-7.91584,-3.61343,22.449,-7.65909
1.26713,0.184998,1.5526,26.9617,-0.184622,1.14439,27.5415,-1.17813,1.14496,27.4299,-0.984361,1.04679,27.4491,-0.912411
1.60037,0.0985123,-0.319555,14.8374,-6.40138,-0.195906,14.1916,-6.08297,-0.498558,15.0951,-6.69155,0.0313987,14.0546,-5.99606
2.64302,0.0830351,-6.78785,28.6542,-0.6001,-6.72376,28.5362,-0.225185,-5.88665,28.4315,-0.112442,-7.21217,29.0156,-1.03759
40.1852,0.0232206,12.868,18.2441,2.7808,12.4373,21.0453,2.9845,13.4147,16.294,2.03136,12.9617,21.5016,1.78376
8.68356,0.219188,2.19214,2.55017,-0.686605,1.3019,1.75826,0.121297,1.67181,1.29593,0.437017,1.50406,2.74235,-0.551755
26.5078,0.00942052,10.1102,12.3095,-3.54108,11.7883,12.3301,-2.60103,11.9603,13.718,-2.8027,12.0814,12.4916,-2.46904
9.90022,0.136369,-6.67496,15.0623,-6.51377,-6.13969,14.4778,-6.55003,-6.92798,14.0704,-6.13825,-7.24672,14.0263,-5.98467
7.85508,0.493762,11.0017,24.2648,-2.94427,9.17432,24.667,-4.67846,9.08658,24.7852,-4.77527,9.14063,25.0672,-4.60766
4.06385,0.270817,-9.10316,22.7477,5.29467,-8.65314,23.924,5.93692,-9.43289,22.2835,5.43237,-8.56218,22.5675,5.53441
87.1172,0.563203,-5.55683,21.5232,-7.56699,-7.71736,19.2207,-7.31448,-6.63318,18.5422,-7.38267,-8.52264,21.7563,-7.01316
7.43961,0.200357,8.57993,10.6088,-3.85211,8.6203,9.97359,-3.86915,9.86318,11.5651,-3.4228,10.0333,10.754,-3.0125
3.44816,0.33411,-3.78981,26.2105,4.39505,-3.61712,26.3962,3.37257,-3.48519,26.5445,3.06537,-3.84213,26.435,3.63104
97.2114,0.0343444,0.760634,24.7506,3.62787,-5.50876,26.14,6.30515,-5.97666,26.3158,4.86149,-4.59832,25.916,6.51829
1.0746,0.0393371,-6.60325,6.00765,-1.97652,-7.1611,5.5347,-1.91009,-7.16201,5.66376,-1.96406,-7.10843,5.80246,-2.01348
1.90365,0.0391793,2.90574,24.372,-6.55292,2.7847,23.7135,-6.69094,3.19734,24.8952,-6.34277,2.92191,23.3451,-6.76223
8.33482,0.332031,3.29904,2.96284,6.64432,5.39322,3.0118,6.88302,2.80099,4.0983,7.82406,3.01627,2.5437,6.79483
4.83564,0.106405,-7.80238,28.3745,0.95318,-9.62896,28.8387,0.860584,-8.78883,28.6088,0.785144,-9.35481,28.6036,1.34739
7.67741,0.268174,-0.142037,28.3874,-5.82422,0.143934,27.1592,-5.92434,0.568811,27.5109,-5.93705,-0.174756,27.357,-5.97131
53.6127,0.00606647,-9.69089,29.5897,-2.15184,-7.97483,29.1152,-0.860747,-6.87712,29.5203,-3.28106,-5.91577,29.2435,-2.52376
14.8896,0.315276,-9.04732,15.2125,-5.8953,-9.35127,13.8776,-5.40259,-8.70916,14.1614,-5.78957,-10.0314,14.255,-5.38204
37.6492,0.121249,6.55066,7.89765,7.71891,5.87252,8.95485,7.74591,8.27263,8.03213,7.1434,7.74906,10.8402,7.21614
7.80704,1.12221,-4.62413,13.1789,-5.99044,-6.98678,13.2173,-5.68301,-6.85697,13.0102,-5.58633,-6.76429,12.9383,-5.53436
3.96941,0.196059,-2.93427,13.5457,7.2525,-2.79661,13.3205,7.31544,-1.70194,14.2188,7.53945,-3.36239,13.7063,7.70074
10.7448,0.0244732,-2.50093,3.43335,6.60889,-3.03101,4.3032,7.49651,-1.41592,3.79619,6.99589,-3.2249,3.24099,6.34431
11.4787,0.140417,12.2172,5.38131,4.66371,11.603,5.90661,5.68144,11.6156,5.43233,5.67131,12.7874,5.6438,4.15192
8.77415,0.291863,0.749583,24.1555,4.76075,2.15606,23.8312,5.27323,-0.0893197,24.9169,4.07516,2.59235,23.6856,5.09799
12.0077,0.538102,4.5228,10.0343,7.53215,5.35009,7.46585,7.84781,6.17188,10.9249,7.67493,7.42283,10.9628,7.35492
3.78333,0.170239,-7.69762,6.27342,-2.29935,-7.95403,5.09754,-1.59162,-7.65,6.61345,-2.78406,-7.08895,6.1577,-2.41584
1.70814,0.178162,10.6455,13.0356,5.57972,11.013,12.8431,5.35208,10.6224,12.8746,5.97735,10.784,13.7372,5.60068
37.4397,0.571344,-8.16492,9.77285,-3.77967,-4.46036,7.77471,-3.69743,-5.92572,9.47763,-4.4603,-3.83838,9.19522,-4.48895
11.815,0.121532,6.34909,17.7207,7.35722,6.49798,18.6513,7.38532,10.0807,15.7792,6.57853,10.2225,15.789,6.53901
27.5733,0.215662,0.653801,3.83066,-1.00641,2.33859,3.65864,-1.48297,1.45872,2.74396,-0.53724,0.298747,4.96302,-2.17419
0.138563,0.0518347,-8.06299,17.0155,6.8842,-8.24126,17.0288,6.81207,-8.24215,16.9555,6.81411,-8.19845,16.8758,6.85066
3.40905,0.338439,1.82945,9.71769,7.32971,3.18937,10.303,7.72849,2.86859,10.1013,7.69632,2.91383,10.2992,7.76543
1.86738,0.0924517,8.13273,9.1266,-3.96069,7.93655,8.4353,-3.84933,7.62099,9.15741,-4.31152,8.31042,8.83765,-3.86212
1.5905,0.0425334,2.17788,20.2034,8.00198,1.94939,20.0659,8.00567,2.49844,20.4021,8.10275,2.86395,20.1921,8.07306
32.5174,1.65927,-4.30235,22.4243,-7.96759,-8.04799,22.489,-7.29187,-4.90289,24.1007,-8.12808,-5.41247,23.7463,-8.1776
0.314269,0.183208,-5.55484,8.05088,-3.86564,-5.83345,7.85079,-3.87649,-5.87277,7.68237,-3.83201,-5.91421,7.73963,-3.80945
0.0320279,0.0838726,7.88031,18.0757,-5.74985,7.98224,17.9763,-5.68403,7.9742,17.9297,-5.6856,8.01612,17.981,-5.6882
20.6581,0.296487,-5.64324,19.5811,-7.26529,-3.34584,20.4462,-7.82362,-4.85121,18.8847,-7.66921,-4.22615,20.7456,-7.7141
0.163382,0.0720037,-0.196436,5.43018,-2.471,-0.0605571,5.42216,-2.47908,-0.0581435,5.49031,-2.52128,-0.109445,5.22568,-2.38301
11.5024,0.479007,-8.13382,12.2704,6.47062,-6.41669,13.9624,7.48105,-6.96024,14.5299,7.43858,-7.22091,13.7546,6.98229
24.0938,0.934179,12.5421,19.2061,-1.71987,13.3326,19.4022,1.02809,13.3028,18.5913,0.312725,13.3542,18.7987,0.547558
2.50846,0.172924,-3.8491,16.9016,6.99657,-3.49053,16.7284,7.1288,-3.66797,17.8708,7.11736,-4.09126,16.8037,7.20623
9.49933,0.396078,-2.23943,28.4615,-3.65678,-1.33233,28.7708,-4.2104,-3.14903,29.5932,-4.94938,-1.28567,28.2497,-2.57626
1.44893,0.137468,12.3498,8.81449,2.37842,12.5578,7.94304,1.86277,12.512,8.85631,2.66561,12.4405,9.08895,2.26764
27.2324,0.0597541,-12.5523,26.1438,1.40152,-11.3889,28.5535,1.67461,-11.2659,26.4631,3.54209,-13.0119,25.1479,1.50935
14.3134,0.0955851,-6.48016,30.2037,-5.67259,-6.88918,30.3775,-6.12992,-7.83024,30.1884,-4.51516,-8.23918,30.2822,-5.09246
0.00462512,0.0181103,-0.15449,7.32183,7.88589,-0.212364,7.32352,7.89353,-0.185712,7.26299,7.90688,-0.148763,7.26671,7.9132
13.6035,0.385814,7.54843,15.1392,-4.57293,7.60906,18.4751,-5.93002,8.77649,14.6179,-4.47807,7.12771,14.8701,-5.03707
0.27881,0.0476833,-10.8615,28.4136,3.0604,-11.0042,28.5229,2.71803,-10.9966,28.5501,2.61305,-10.853,28.5756,2.61024
7.29175,0.485208,-5.823,10.5168,-5.52985,-6.76992,10.9757,-5.34815,-6.75352,11.7276,-5.20757,-6.79966,11.7251,-5.22954
6.02048,0.279762,-3.51423,23.9012,6.98569,-3.11461,22.8909,7.1092,-1.69181,24.8796,7.5182,-1.87464,24.9522,7.52329
14.054,0.00997865,-9.3411,14.0805,6.07539,-11.573,14.4748,4.20043,-11.2922,14.1371,4.10803,-8.22648,13.7716,6.85778
5.36915,0.248697,-11.1832,16.6683,4.21301,-9.99231,16.7641,5.57521,-11.7342,17.0277,4.1921,-11.2404,16.2916,4.38453
15.3454,0.0993699,-7.05902,27.4162,2.77877,-8.39159,27.881,2.60964,-7.32206,28.2449,1.01613,-6.1627,27.0702,3.46363
4.84624,0.163141,5.20904,0.909661,-0.0723434,4.34796,2.15039,-0.687598,4.23218,1.69586,-0.375081,5.55889,0.527317,0.372382
5.09184,0.211687,8.92693,14.9326,-4.18604,9.06986,17.5439,-5.25852,9.33651,14.7263,-4.12343,8.77546,14.691,-4.45362
108.532,1.02986,10.1086,24.1781,3.50546,11.9519,26.0239,-0.458774,10.4825,26.3978,-1.40054,11.3219,26.2855,-1.27953
25.6017,0.0880119,4.5677,0.63408,2.70742,6.51251,0.635733,2.53436,3.27519,0.38804,4.36707,7.61796,0.557241,4.47826
54.2105,0.314508,-0.523394,22.4821,7.47645,1.9703,21.8988,7.94253,2.12854,22.9182,7.77478,-0.453479,24.6044,7.44102
30.3892,0.0026874,-1.67999,27.6463,-6.3353,-5.40413,27.4637,-7.03951,-2.70746,26.6956,-6.61447,-5.39805,27.6393,-7.02144
23.8854,0.1711,7.80842,24.8135,2.02345,8.8614,24.4447,2.77326,9.42041,24.8598,1.96573,6.11021,24.4516,3.30148
2.44721,0.249024,-12.3538,23.4991,1.9863,-12.5439,22.8204,2.22559,-11.9403,23.5582,2.51835,-12.8006,24.1403,1.95215
26.2539,0.33081,-8.34457,3.76123,4.65522,-5.55524,2.9648,5.96215,-7.17713,4.42953,7.00184,-9.97542,4.66412,5.50011
0.0247424,0.00962787,-4.31977,14.1474,-6.6276,-4.40355,14.0645,-6.60191,-4.36427,14.0406,-6.58576,-4.41252,14.1495,-6.63511
63.8504,2.30525,-2.72909,19.5803,-7.81063,-6.71102,15.4798,-6.59722,-6.55344,16.2552,-6.54575,-7.43567,17.5854,-6.79244
1.17021,0.0881226,-3.64093,1.57164,4.37858,-3.10106,1.30967,4.69783,-3.9398,1.53857,4.26987,-3.5869,1.5516,4.52652
0.55288,0.0682641,6.64746,16.0159,7.56334,6.58778,16.1447,7.70407,6.68733,15.7332,7.5284,6.82583,16.1515,7.62431
0.0160431,0.0198284,5.18395,9.06401,-4.3359,5.16104,9.01312,-4.29354,5.09501,9.01424,-4.31903,5.09806,9.07982,-4.35304
10.3663,0.317811,7.60337,22.6132,4.98811,6.40457,23.0444,4.75377,7.79218,22.7851,5.95458,8.65752,22.8541,5.08478
1.89392,0.169879,-8.45255,11.6627,6.26698,-8.27362,12.2001,6.46481,-8.68587,11.5583,6.40705,-8.04773,11.4035,6.49016
12.6625,0.0932676,0.958449,10.1182,-4.16825,2.13884,9.66259,-4.13648,2.3854,10.5924,-4.5163,2.18581,9.73005,-4.16974
0.567958,0.0155688,-1.38084,18.2544,-7.52348,-1.69822,18.6599,-7.65392,-1.28748,18.5914,-7.60221,-1.60683,18.6592,-7.6455
7.96886,0.320128,2.55455,1.08383,0.496207,3.73072,0.593644,0.389955,4.4108,1.34797,-0.293607,3.92797,1.48641,-0.0659076
2.58221,0.257778,-7.05788,24.8081,6.15647,-6.11495,24.2276,6.78022,-5.89321,24.0028,6.87154,-5.75911,23.6299,6.94944
23.8052,0.606562,3.26581,24.081,2.97223,4.0688,24.3657,3.79717,4.02147,25.2862,1.32275,1.18463,24.5704,3.80586
26.6272,0.234122,-1.19715,18.7445,7.43083,1.11668,18.669,7.90164,1.40225,19.6546,7.90084,1.85839,20.0674,8.00374
12.5935,0.507396,-11.8882,16.9792,-4.44663,-11.1821,17.5255,-5.32192,-10.8993,16.1333,-5.18538,-10.7323,16.7438,-5.34458
1.51995,0.268712,-5.70401,29.6524,-5.55323,-5.93112,30.1202,-5.82024,-5.419,29.8155,-5.49777,-6.23218,30.0883,-5.18791
4.36415,0.393966,7.35969,0.980394,0.995829,8.09012,1.0338,1.2364,7.9617,0.94429,-0.00422094,7.92224,0.913285,0.269554
0.134476,0.358848,2.56354,21.9733,-7.0705,2.62877,22.3271,-6.96426,2.66771,22.3276,-6.94845,2.70455,22.3291,-6.94226
8.3045,1.61144,1.61421,3.96623,-1.43443,1.54882,5.64315,-2.65639,3.20254,5.7152,-2.88336,2.3323,5.82415,-2.72406
2.45382,0.0154282,3.91417,0.230917,1.10357,4.02926,0.25852,2.3237,4.09851,0.216093,2.22982,4.11646,0.189538,1.9398
3.44671,0.122421,-0.262014,17.1553,7.68244,1.28153,17.1839,7.96955,1.4624,17.0421,7.96713,1.51001,17.0394,7.97161
3.64849,0.239229,1.89919,1.79681,5.9725,3.40498,1.62924,6.08223,2.80668,1.79033,6.17276,3.40563,1.69964,6.10695
3.52394,0.181248,4.4598,6.7255,-2.98086,4.24027,6.22642,-3.01908,4.88633,7.78833,-3.49298,4.91523,6.49426,-3.09655
2.65804,0.00277566,1.30564,25.3828,2.5207,1.81817,25.281,2.29781,1.40788,25.1188,2.8035,2.26069,24.9694,2.39778
0.197489,0.000393646,-7.06304,15.9146,-6.5716,-6.84398,15.7694,-6.60531,-6.84122,15.697,-6.59562,-6.93758,15.6359,-6.56269
1.80408,0.0418122,-4.9019,5.40883,7.71608,-4.81538,4.92548,7.65873,-4.99406,4.99484,7.61845,-4.49516,5.26857,7.76582
7.95228,0.424768,-11.3024,10.2503,3.44933,-9.89597,10.5075,5.45143,-9.64121,10.3934,5.77888,-11.8467,10.7985,3.24667
0.248889,0.0202607,9.97238,3.06183,6.80473,10.0691,3.34843,6.78513,9.97549,3.41612,6.82101,9.9294,3.34488,6.82729
6.03602,0.423172,-8.43218,25.5853,5.17689,-8.25109,26.7457,5.52796,-7.09488,24.7165,6.17653,-9.0842,25.2643,5.457
0,0.0324308,5.5328,27.5383,-5.33404,5.4924,27.5343,-5.33961,5.51821,27.5756,-5.31816,5.51477,27.5753,-5.33183
19.8699,0.136278,5.77525,3.24537,6.63479,6.28657,0.524582,5.24614,7.39303,3.86373,7.34325,7.9809,1.5438,6.04093
4.7906,0.116095,-0.778323,6.7947,7.72888,-2.21904,6.85799,7.26655,0.539461,6.76336,7.92217,0.586506,6.90336,7.9279
0.0196865,0.00796084,11.4372,25.4829,-2.39268,11.4313,25.5816,-2.40008,11.4015,25.5764,-2.42486,11.4115,25.4659,-2.42528
14.3071,0.361015,8.33826,13.4041,7.02034,9.24397,15.8933,6.85488,9.97047,14.5026,6.66226,8.689,15.5436,6.85543
21.1507,0.531466,11.375,9.11834,4.91196,12.0556,10.4907,4.92192,12.4999,9.6385,3.33424,12.5905,8.23978,2.67691
0.0580762,0.0209961,10.8937,23.6339,-3.48804,10.8104,23.7184,-3.58306,10.8546,23.7449,-3.53275,10.8011,23.7976,-3.57471
1.14396,0.100144,1.975,26.2828,0.34416,1.70739,26.4273,0.440615,2.33113,26.0052,0.80943,2.26481,26.0297,0.802887
1.36715,0.0546735,13.0007,18.0687,-0.819873,12.8001,17.6842,-1.49784,12.818,17.8189,-1.40064,13.0244,18.345,-0.76429
3.21572,0.179781,7.2961,14.1839,-5.41398,7.16028,13.1904,-5.35652,7.46065,12.9389,-5.18766,6.82376,12.6446,-5.29931
7.21448,0.0786706,-8.79377,28.6217,-6.97654,-9.35855,28.4117,-5.51656,-8.6476,29.24,-7.14648,-9.07643,28.2952,-6.13683
0.515883,0.0793986,10.6421,1.74937,5.97846,10.0359,1.78905,6.22132,10.181,1.67108,6.05775,10.1302,1.73682,6.14565
2.52497,0.0150348,10.7602,23.0258,4.76173,11.4995,23.4469,4.44512,11.459,23.2571,4.62645,10.8878,23.7967,3.99753
0.294926,0.133905,1.8456,24.3326,5.99605,1.97795,24.4584,6.06324,1.63008,24.5376,5.7803,1.97371,24.5091,6.14884
4.35769,0.0857217,-2.16635,2.91629,-0.365866,-1.43365,2.81843,-0.53616,-2.70168,3.54781,-0.53726,-2.63419,3.80737,-0.809573
2.83196,0.0566576,7.79432,14.6575,7.14203,8.25866,14.8108,7.08196,7.91623,13.4523,7.15577,7.69641,14.858,7.22812
1.31055,0.0472417,-3.33492,2.08185,2.21948,-3.12422,1.8793,1.67598,-2.91836,1.77514,2.16873,-3.34086,2.01859,1.91903
25.4797,0.45385,-5.13566,3.73574,6.16973,-3.3968,2.79618,5.96328,-3.17365,4.05245,7.14978,-5.99238,3.70758,6.73985
2.17575,0.0192228,3.08405,18.9372,7.87663,3.58318,18.3751,7.9592,4.2959,17.2255,8.11129,4.20408,17.0847,8.09691
1.43117,0.218789,6.8686,18.6589,7.30408,8.0838,18.5722,6.86657,8.07995,18.7195,6.83163,8.13141,18.6511,6.81843
0.00730796,0.007508,-8.48431,24.1815,-7.57909,-8.46578,24.1277,-7.60062,-8.44147,24.1785,-7.57257,-8.50865,24.1354,-7.59593
20.1657,0.61015,-11.8492,15.3367,3.06003,-12.6249,16.6162,3.16063,-12.4186,14.452,3.36906,-9.94662,16.1218,5.67134
3.93281,0.0837331,12.821,7.26699,1.38175,12.5482,8.01367,1.83958,13.0597,5.94163,0.706606,13.1229,5.64789,0.717191
1.43853,0.127341,11.1064,8.62151,-2.37227,11.2385,8.43276,-2.42147,10.9961,8.74454,-2.59088,11.2397,8.9184,-2.49138
0.368917,0.248614,12.3483,25.2586,1.73704,12.2454,25.5785,1.12221,12.1128,25.5176,1.23651,12.0133,25.5325,1.26512
199.96,0.0241167,7.06071,25.608,-0.473934,6.40618,26.5487,-3.62956,9.94337,26.6221,-2.84922,8.49407,27.0063,-4.4422
4.91422,0.0231028,2.24547,14.9384,-6.34721,1.86381,14.146,-6.02724,1.40577,14.157,-5.99159,2.04345,14.0097,-5.98931
4.8714,0.00912259,1.21901,10.1594,7.78597,0.94199,10.9111,7.98043,1.81609,11.3977,8.02008,1.81114,11.1217,7.96023
3.59796,0.513441,-10.2327,5.68507,2.4476,-10.1677,5.24968,1.95399,-10.6553,5.13838,2.40675,-10.1289,5.20609,2.23537
5.82376,0.116383,-1.74104,11.2971,7.7867,-1.34305,10.1644,7.81726,-2.75439,13.3258,7.30636,-2.53146,13.1902,7.3754
1.25774,0.140923,-10.4931,27.9323,-4.11589,-10.6371,27.8017,-4.31455,-10.6494,28.1494,-4.00409,-10.2039,28.3153,-4.32356
9.6924,0.498459,-6.30317,6.0394,-1.88661,-6.63413,5.11624,-1.48875,-4.82561,5.62614,-2.43008,-7.08701,4.93678,-1.27956
0.00094908,0.0253242,7.76303,25.2424,-5.13401,7.84224,25.229,-5.10614,7.76409,25.171,-5.144,7.8131,25.169,-5.14125
0.769817,0.0472939,-12.6246,22.6168,-4.81887,-12.909,22.928,-4.45504,-12.9462,22.7978,-4.3645,-12.7534,22.1386,-4.59927
10.0613,0.479732,3.03758,10.9087,-4.6282,1.14093,12.1544,-4.83881,1.27136,11.7985,-4.71588,1.26156,11.3899,-4.60651
0.0654066,0.00331267,-0.797778,10.2859,7.96923,-0.75285,10.4228,7.97993,-0.708441,10.2857,7.98451,-0.707912,10.4241,7.98937
0.154283,0.0198088,2.50901,13.0374,-5.51553,2.39419,13.2001,-5.61739,2.34645,13.1147,-5.56273,2.48709,13.2006,-5.62906
3.77853,0.199805,11.4805,16.2146,5.418,10.9532,14.7852,5.56888,10.9723,14.7027,5.54953,11.6328,14.5033,4.96352
3.35448,0.161576,10.1666,17.486,5.88551,10.8922,17.9437,5.45966,10.2714,18.37,6.23357,10.8785,17.4582,5.35347
6.39821,0.0676542,-12.6237,14.3238,2.53889,-13.0615,14.3223,1.91046,-12.8937,13.7782,2.27017,-13.343,13.7792,1.73454
110.491,0.259281,5.66283,27.0198,-4.98844,5.29392,24.2507,-6.04237,9.0691,23.9607,-4.972,6.45782,23.1712,-5.95001
0.339141,0.0616167,-10.0205,29.2369,-0.295111,-10.2318,29.3753,-0.410713,-9.87826,29.2356,-0.151595,-10.1625,29.3714,-0.452641
35.5381,0.315107,2.89832,3.85228,-1.49178,4.61102,4.02135,-2.1902,3.83341,2.50873,-0.930001,4.78487,2.92893,-1.71422
2.09914,0.258701,-12.0747,26.3859,-3.12878,-12.3489,26.4264,-2.96558,-12.326,26.2668,-3.4741,-12.2643,26.845,-3.00784
32.823,0.894895,5.61379,2.74953,-1.60146,3.73578,1.8578,-0.307484,2.54856,2.28514,-0.543063,5.5552,1.47841,-0.732137
0.215747,0.0330426,-1.25941,15.8053,-6.79694,-0.959741,15.7174,-6.78257,-0.985679,15.7987,-6.82095,-1.21282,15.8778,-6.80945
9.96433,0.528463,-1.33484,1.57188,1.87849,0.683325,1.12976,1.74954,0.725611,1.12672,2.09042,0.128403,1.11319,1.26787
0.554702,0.0171835,8.94856,22.6479,6.35238,9.42362,22.392,6.31832,9.755,22.294,6.14713,9.67216,22.3065,6.21682
6.76476,0.225584,-6.08321,26.0958,-7.44445,-3.83407,26.0931,-7.07148,-6.29019,26.4111,-7.6602,-6.18619,25.3265,-7.91356
0.164441,0.0489677,0.769829,18.5915,-7.26321,0.737769,18.9328,-7.25239,0.781161,18.9294,-7.26578,0.68626,18.7245,-7.26943
3.46304,0.115349,10.9519,23.8808,3.91571,12.0625,25.0004,2.45128,11.5747,24.3356,3.54928,11.5741,24.9376,2.36359
1.02494,0.386572,-7.78591,27.3455,3.98837,-8.54901,27.7029,3.34801,-8.35,27.4171,3.47145,-8.17996,27.5531,3.45132
3.46491,0.341428,11.4088,19.5626,4.84416,11.8493,19.934,4.25667,11.3948,20.8757,5.3136,11.9358,20.0456,3.84172
6.094,0.87848,-0.121647,1.92842,6.07457,-1.5808,2.62644,6.2788,-1.594,2.99389,6.60483,-1.75983,2.28317,6.0891
4.31377,0.073787,8.74524,19.2399,6.54948,8.83453,20.1386,6.80451,9.28299,18.8738,6.71044,9.152,20.4594,6.94538
0.0192294,0.0039847,12.4214,1.93819,1.02142,12.4342,2.01332,0.926129,12.3539,1.96583,0.901168,12.3746,1.88278,1.03633
31.5894,0.251398,9.07106,10.1727,6.28335,10.5204,11.7453,6.13742,10.3429,13.622,6.37962,11.0273,11.065,5.87805
3.08621,0.031878,4.26351,8.39449,-3.65694,4.62101,7.79166,-3.45397,4.94387,7.97702,-3.56737,3.4863,8.23779,-3.45516
2.13797,0.205873,3.41654,27.7299,-5.88833,2.57492,28.199,-5.82208,2.54925,27.8185,-5.89279,2.60879,28.0259,-5.84189
0.189265,0.179404,7.43984,23.994,3.95093,7.58776,23.8765,4.19425,7.36675,23.943,4.11286,7.44282,23.9042,4.13071
2.16646,0.0191575,-12.3005,27.752,-1.88575,-12.7056,27.1375,-1.93812,-12.7261,27.0451,-2.07145,-12.238,28.0229,-1.43157
1.44353,0.184897,13.1338,9.89711,-0.540103,13.2496,9.66832,-0.632739,13.1442,9.91055,-1.11225,13.3892,10.1148,-0.52362
2.71814,0.348512,1.10251,9.46612,7.13848,1.78327,9.78984,7.34395,0.38814,9.79333,7.88578,1.31923,8.8178,7.26962
55.5548,0.0714123,-0.687522,12.3771,-4.92727,0.871163,10.3203,-4.24806,0.273459,10.1344,-4.18588,3.3444,12.35,-4.96035
5.60253,0.0993255,-10.1182,17.4126,5.52757,-8.31317,18.4565,6.62576,-8.26935,18.4554,6.64111,-9.89437,17.0376,5.59612
11.5075,0.00186131,-6.48858,22.4257,6.47479,-6.66566,22.5919,6.40338,-3.16084,22.6864,7.07394,-3.16376,22.5352,7.10484
0.0711669,0.00197892,6.46249,8.41511,-4.27988,6.54176,8.27137,-4.21674,6.54541,8.41071,-4.28536,6.5004,8.27562,-4.21611
18.6032,0.115303,0.358784,26.4685,-5.74935,-1.22802,27.1988,-6.35672,-1.01117,26.723,-6.11334,3.2128,26.8849,-5.83325
5.74518,0.195282,-5.76162,27.6403,-7.09358,-5.44592,27.5527,-7.01594,-5.96876,26.8556,-7.55514,-6.14502,28.9062,-7.97779
24.9927,0.479565,2.08901,7.07726,7.12782,5.87421,5.21089,7.85345,3.04577,5.72092,7.8234,2.35884,8.15275,7.42807
1.05313,0.0356286,0.591279,10.0606,-4.11882,0.622034,9.57422,-3.94644,1.12866,9.50058,-3.95593,1.31309,9.68791,-4.05359
8.95404,0.361048,-1.49424,8.93813,-3.52712,-1.0578,8.17183,-3.26905,0.12647,9.79985,-4.08635,-1.43972,9.83213,-4.64948
1.2978,0.127554,-12.7431,19.9086,1.80525,-12.5401,19.8991,2.10183,-13.0214,19.4705,1.85818,-12.9664,20.1199,1.7678
25.1554,2.87269,-9.16464,29.1076,-0.659239,-6.11072,28.2119,0.48179,-6.28025,27.495,2.39493,-6.18725,27.9294,1.17356
12.9542,0.837188,1.51797,24.5146,7.68761,0.414751,24.8176,6.07578,-0.777427,25.1017,5.53536,-0.0696211,24.4246,6.24807
0,0.00498345,12.0145,1.23979,4.12539,12.0298,1.28357,4.2302,12.0829,1.26956,4.12231,12.0629,1.27848,4.17208
49.0241,0.894911,-10.2803,27.9105,-4.58332,-8.56228,29.9873,-5.37312,-8.44268,29.5627,-7.3251,-8.26056,30.3274,-6.84078
5.15889,0.0448541,6.98734,21.9521,7.46395,7.49721,21.8238,7.3273,4.84628,22.9811,7.52534,4.9079,23.0508,7.47284
8.31288,0.32911,11.9902,7.04704,-1.58403,12.7691,6.60202,-0.294304,12.3882,6.35141,-0.920981,12.1816,5.96146,-1.03005
4.09413,0.28656,2.64772,22.6226,7.28024,2.24327,21.8996,7.92729,2.1352,24.0344,7.89041,3.05919,22.6157,7.35275
0.618729,0.122296,4.63527,23.7894,-6.35424,4.80608,23.4342,-6.41977,4.57407,23.2973,-6.4687,4.5405,23.3044,-6.47722
35.3904,0.38125,4.08643,22.9601,5.26399,5.83821,22.6259,5.93937,2.66026,24.0583,4.42795,6.81892,22.7778,7.1514
44.2251,0.185534,-5.41021,16.7162,6.89494,-4.14163,16.7211,7.27555,-7.04251,17.3883,6.68209,-4.68054,14.4834,7.73678
13.7866,0.531878,-3.39244,16.3927,-6.27345,-2.92909,18.9294,-7.64964,-1.13483,15.3087,-6.82575,-3.90819,16.0975,-6.67387
5.89519,0.085187,-3.08285,6.82595,6.9621,-0.742312,5.05968,7.56377,-0.785181,5.12842,7.56286,-2.80944,7.5737,7.3353
5.33983,0.53109,-1.59757,12.6748,-5.09284,-0.962466,12.3799,-4.99021,-2.08111,11.8591,-5.39484,-1.27266,12.207,-4.99048
43.2516,0.252765,-0.302394,22.4167,-6.82517,-3.61609,22.2625,-7.59664,-3.51216,21.0988,-7.74968,-0.494971,24.059,-6.87411
0.655588,0.360082,-11.9554,23.7965,-5.83665,-12.0277,23.169,-5.53978,-12.0873,23.1769,-5.47079,-12.0197,23.0256,-5.62836
1.19285,0.068068,5.96891,23.3112,4.69347,5.7441,23.8054,4.44285,6.29476,23.328,4.55093,6.42089,22.9807,4.82789
0.625938,0.041026,9.56439,26.0322,-0.239194,8.86785,25.8166,-0.238144,9.00702,25.7952,-0.0796079,8.86378,25.7975,-0.186429
23.2717,0.279482,5.11685,21.0633,-6.07992,3.26843,20.7573,-6.41236,6.03885,18.0422,-6.24321,5.71321,19.5321,-6.29636
14.8192,0.0372493,0.877598,28.7359,-3.39846,1.36928,28.2426,-2.56868,0.229015,27.6922,-1.16408,1.35721,27.4759,-1.14191
1.8659,0.113463,11.2451,19.88,-3.48704,11.3195,20.3647,-3.53512,11.1772,19.8179,-3.76076,11.6754,19.4598,-3.16303
1.46946,0.52326,10.203,14.4195,-4.08495,9.38214,14.7271,-4.11544,9.60239,14.4602,-4.25048,9.33998,14.8048,-4.12255
68.6449,0.170775,7.00341,0.997575,2.32058,9.58784,0.979402,0.870844,6.70368,0.726572,0.00423736,8.44978,0.946898,2.57048


