
5.28763,0.408828,-8.3215,23.0957,-2.46321,-9.8507,21.2276,-1.97958,-8.99428,24.1696,-1.91766,-9.38707,24.4044,-1.8608
2.09097,0.37717,3.36051,47.1205,12.8369,2.42063,47.5945,12.7618,2.21315,47.497,12.7421,1.97769,47.2677,12.7737
8.31699,0.0713386,-0.280579,52.4656,-10.8275,-0.243977,55.2018,-10.235,0.0682309,54.2484,-10.6123,-0.950278,53.0734,-10.2117
0.453104,0.070315,9.03661,17.1417,12.459,8.88024,17.7492,12.4085,8.72489,17.4808,12.3775,8.75315,17.6202,12.3733
0.151573,0.0906658,3.41888,42.1241,13.4413,3.3624,42.4106,13.294,3.55801,42.5269,13.1686,3.46683,42.55,13.1522
1.24361,0.079282,6.39618,59.5253,-3.88731,6.06839,59.8243,-4.22072,7.18387,59.2352,-4.14091,6.66723,59.4434,-3.6213
3.6872,0.374369,3.09166,27.2244,-11.9034,2.63906,27.896,-12.5106,3.84225,27.7071,-11.7806,3.77441,26.0131,-12.1547
1.16458,0.0752369,3.09077,46.8751,-11.5885,2.43221,47.1375,-11.8107,3.21063,47.6958,-11.5368,3.3256,46.6916,-11.6264
6.76369,0.0673111,-4.78872,20.5829,13.3026,-3.36372,20.1368,13.3986,-1.35453,20.3112,13.4408,-1.47393,20.1944,13.438
2.46823,0.037775,13.9646,39.2922,1.60092,14.1985,39.8538,1.20448,14.0086,41.3776,2.03275,14.0288,41.5361,2.01238
38.9411,0.338349,13.6072,10.1913,-5.84563,13.6153,16.3699,-5.49234,13.3928,16.3528,-6.95707,13.8899,17.9034,-4.16473
0.710853,0.0297776,-12.4354,15.7474,3.98752,-12.5889,14.4884,4.18041,-12.5997,14.6362,4.25698,-12.4998,15.0413,3.95713
4.53753,0.185143,-8.62862,33.2412,8.58072,-8.62916,34.5644,9.38462,-8.50193,36.1217,9.44431,-8.57667,33.8346,9.08392
10.0248,2.73979,4.19486,58.4978,-10.2782,7.43735,55.0717,-9.6062,7.5505,55.8885,-9.47811,7.40111,54.7007,-9.67231
2.31401,0.118676,13.2893,5.55462,-2.02791,13.2745,6.19861,-3.88851,13.3498,6.34041,-3.96032,13.2369,5.91454,-3.40174
15.3156,0.414585,-4.91839,42.8992,-4.82029,-3.87851,45.9054,-5.80025,-4.56511,44.0658,-5.88778,-4.26197,45.7526,-4.85509
1.85287,0.112166,-3.31558,38.8139,-11.7411,-3.04114,39.4523,-11.823,-3.19108,39.9055,-11.2712,-3.78439,38.5027,-11.5589
2.60329,0.00479113,10.0913,3.05575,-0.848103,11.3703,2.92873,-0.577715,10.2077,2.7972,-0.552092,11.4472,3.27662,-0.94333
8.64905,0.199731,9.01792,29.3236,-9.24407,8.24411,27.0425,-9.69933,8.53465,27.9111,-9.41036,7.76711,27.1514,-10.2943
1.0767,0.0127471,13.7897,22.5246,-6.4566,12.9006,23.8613,-6.74592,13.2153,23.596,-6.56143,13.4095,23.4793,-6.43045
10.4576,0.355684,9.19869,19.5422,12.7889,10.6302,21.5257,12.6673,11.5679,21.7446,12.2258,10.6012,20.0998,12.548
2.23494,0.499506,6.46842,18.2507,12.6022,5.61924,18.1258,12.753,5.26738,17.7951,12.7668,4.93037,17.5615,12.6494
10.6825,0.0893786,-2.23541,47.6452,-9.99767,-1.62864,47.3089,-11.0262,-1.67429,50.653,-10.3543,-2.2844,49.5353,-9.73741
24.4959,0.590044,-1.59854,44.1357,-11.7239,-4.7965,42.6221,-7.71657,-3.85101,44.3679,-8.39771,-4.7872,42.7642,-7.63506
3.51741,0.539863,-2.74242,2.88098,-3.27129,-0.749942,2.16351,-3.37266,-1.53091,2.44652,-2.71698,-3.33596,2.61273,-2.52162
1.77197,0.0544107,-4.60566,49.2084,13.2356,-5.5405,48.8475,13.1541,-5.55543,48.6817,13.2042,-4.86819,48.8432,13.2545
1.10734,0.434414,10.0479,43.5957,13.0131,9.29577,43.609,12.9841,9.5211,43.2626,13.1173,9.32866,43.7388,13.025
15.0872,0.196427,6.83233,15.661,-12.359,9.53682,14.9413,-11.4038,11.1555,15.7792,-10.6228,8.73089,13.9708,-11.8276
4.48661,0.128465,9.5545,3.49566,-2.36389,9.97994,3.36375,-2.3973,8.992,3.29226,-1.27466,7.81581,3.39526,-2.4385
0.971402,0.181404,-1.51533,15.069,13.4636,-2.2864,15.3753,13.5391,-1.90644,15.8611,13.5169,-2.31408,15.24,13.5525
2.17428,0.0992299,-13.8231,8.45298,9.62118,-14.2009,8.66226,9.8749,-14.1422,8.37463,9.0001,-13.3517,8.07809,9.88829
4.27901,0.200742,-4.73967,30.6799,12.4279,-4.14218,31.1266,12.7064,-4.79063,31.2679,12.5266,-5.01947,28.5867,12.9192
0.814022,0.118799,-9.88068,26.8255,1.40344,-9.55014,27.3299,2.03086,-9.52179,27.3396,2.22965,-9.85487,26.9841,1.87933
8.38257,0.429469,3.66887,4.92597,11.5864,2.79226,5.40901,12.0469,4.47311,4.2306,11.9574,3.8174,6.95023,12.6568
1.85652,0.214494,12.0258,53.2632,-7.50356,12.185,53.8383,-7.57814,11.5653,52.1267,-8.2862,11.6009,52.5549,-8.20272
25.4643,0.47971,10.7693,34.6104,12.7957,12.6641,39.0319,11.2974,13.6409,38.3791,10.1903,12.722,38.4445,11.2394
5.56473,0.442231,1.87248,6.75217,12.4446,3.42534,7.88202,12.3625,2.6842,7.59724,12.1112,3.09248,6.66874,12.4904
5.3512,0.34127,2.76767,23.4345,-12.2139,3.78217,24.1249,-12.0109,3.94592,23.527,-12.3562,1.46692,23.4847,-12.8177
2.71104,0.21145,4.66421,5.15143,-1.43674,5.12324,3.06136,-3.29778,5.01733,3.12396,-3.39627,5.52784,3.5809,-1.73572
1.27919,0.04817,-12.5543,9.91541,13.4565,-13.1682,8.861,13.2314,-12.8467,8.52028,13.0872,-12.5602,8.73734,13.1271
3.95512,0.0427328,-0.797876,58.1684,-7.19033,-1.81496,57.2614,-7.10637,-1.91854,57.44,-6.97543,-0.757278,57.1602,-7.63247
1.01799,0.523258,5.71515,60.1354,-7.33266,5.75118,60.1794,-6.68449,5.51699,60.356,-6.69684,6.02406,60.106,-6.60897
1.9833,0.0615208,-3.76446,2.32953,2.19884,-1.72546,1.60339,3.55253,-2.52812,1.97749,2.79029,-2.40627,1.83302,3.22699
12.9354,0.434292,10.9666,28.9024,-8.48264,10.4892,27.0648,-8.45878,12.1129,25.9047,-7.18202,11.3856,26.9802,-7.71066
3.357,0.0628223,-5.53467,35.253,-9.99465,-6.18344,35.1848,-8.3581,-6.18213,35.0371,-8.43955,-6.08039,34.8609,-8.7699
1.69837,0.0214923,-11.7514,18.9891,2.49261,-11.8883,19.3261,2.79447,-11.7105,18.242,2.30165,-11.8387,17.7142,2.60706
2.22695,0.0483114,0.398723,61.7492,-4.35688,1.18938,62.1135,-5.10896,0.285582,62.0707,-3.85671,1.48957,62.4556,-5.07186
2.87217,0.184143,-2.42874,20.698,-8.05234,-2.25309,20.1224,-8.0271,-3.14402,20.3277,-7.03183,-2.77478,20.9484,-8.22979
4.19998,0.207167,4.30102,13.288,-13.1111,5.98443,12.1437,-12.917,5.32106,15.5313,-12.8063,5.23796,13.0744,-12.8959
3.57841,0.756598,2.92239,63.354,-1.16669,3.40996,63.6125,-0.548543,2.8161,64.1685,-0.253189,2.38836,64.853,-0.402912
1.8525,0.152927,-1.23742,59.9739,-5.7071,-0.496747,60.5925,-6.03534,-1.03241,60.5583,-5.49987,-1.93067,59.4816,-5.86151
6.06897,0.0546668,14.252,23.0406,7.30372,14.5087,23.6105,6.21597,13.9634,23.421,8.47895,14.4643,21.365,7.55019
8.90553,0.518639,6.04598,29.6987,11.5052,5.98503,26.8769,12.1688,6.8871,30.4069,12.0203,6.23832,30.9542,11.9672
40.7221,1.45063,-1.82767,42.6514,-10.8643,-2.59648,41.0868,-10.134,-4.26509,41.8602,-9.09907,-3.50082,39.8984,-11.007
3.77534,0.0335322,-8.39225,42.0573,11.301,-8.32689,41.3668,12.0301,-8.47177,39.8994,10.5509,-8.46954,41.2097,10.7887
3.71936,1.16271,2.79171,61.2122,13.1091,1.35099,59.2219,12.449,1.97338,59.1032,12.3482,1.84955,59.4197,12.3295
7.65447,0.45277,8.75386,3.23472,0.15058,7.15215,3.31825,-0.200347,9.67616,3.12888,-1.03176,10.1775,2.64869,-0.414243
6.85496,0.117572,9.779,12.9334,-10.9593,9.30241,12.1889,-10.7493,10.5245,11.627,-9.326,11.727,13.2468,-10.0677
12.946,0.0181602,-1.83993,39.075,13.3185,-3.39767,38.4033,13.2422,-2.42008,35.2202,13.6461,-3.47453,36.1507,13.4657
0.873107,5.74082e-05,12.6528,12.3865,-8.84667,12.2733,11.7293,-8.63349,12.3174,11.4613,-8.42463,12.4718,11.4945,-8.35257
3.42783,0.0640208,-9.23314,18.7935,-1.78389,-8.76916,19.4829,-2.89809,-8.7533,18.6148,-2.19494,-9.98809,20.5034,-2.0134
11.0478,0.18975,-12.9973,10.7318,4.64769,-13.7145,8.90327,5.52542,-13.0181,9.0825,4.17543,-13.2272,8.58194,4.55477
36.9392,1.13775,3.4856,3.08915,7.71953,3.51731,3.24332,10.7999,4.5439,3.29002,11.2264,6.44283,2.34285,9.77816
3.87836,0.152929,10.1888,59.0145,10.5405,10.312,59.3012,9.70266,10.7875,57.9331,10.929,10.6095,58.2,11.5812
4.43663,0.0186506,-5.65501,34.6115,13.6383,-3.67788,36.0444,13.4644,-5.58352,35.0168,13.5261,-3.95946,36.1059,13.398
2.46015,0.281227,-5.9124,47.7703,13.4677,-4.37602,48.0216,13.3055,-4.55952,47.4924,13.4625,-4.42495,47.1876,13.5883
2.69068,0.637289,6.24741,35.2714,12.192,7.62799,34.9558,12.5462,7.68501,35.2568,12.4978,7.33554,34.8763,12.6277
24.2742,1.87801,-5.66052,49.752,4.15338,-8.32873,51.6598,7.7169,-7.81647,51.6436,6.63157,-6.26632,51.6261,4.52669
17.5205,3.6858,2.62406,63.9448,10.2572,6.18948,64.984,10.5574,6.2965,64.8739,11.8206,6.24455,64.9295,11.2226
3.47137,0.517744,4.29827,32.2245,12.2066,4.17684,29.9806,12.798,3.86099,30.3334,12.7657,5.06587,30.6559,12.8297
14.32,0.716581,-12.9593,13.1065,7.58927,-14.0899,9.74337,5.98332,-13.771,12.062,8.80341,-13.8083,10.5615,6.74811
26.7188,0.0634619,-7.79213,30.1215,-4.35864,-7.15739,32.0428,-6.39334,-6.84191,33.8635,-5.73413,-6.9519,33.925,-4.81528
39.5761,0.33262,-12.0875,16.4984,3.14691,-11.8068,20.2731,6.17233,-11.8401,20.3731,4.50173,-12.2635,16.9412,6.59991
2.75154,0.0138669,-6.38732,39.8762,13.1716,-8.2338,40.582,11.5281,-7.36517,39.7786,12.2959,-8.20432,40.4372,11.555
3.07866,0.288256,-2.57919,3.08815,9.58898,-3.46171,3.49701,10.396,-3.65166,3.48615,9.60134,-3.16906,3.48208,10.7792
2.9839,0.503486,9.36092,2.71923,0.179135,9.06918,1.96065,0.987243,9.66946,2.04755,0.634976,8.66773,1.95,1.06424
7.25876,0.309036,-7.52113,33.4418,5.71257,-8.47106,35.0239,6.97243,-7.80653,32.6573,6.09585,-7.75402,34.3316,4.76852
21.4434,0.466435,10.6067,43.4194,-9.13084,6.72183,43.1124,-10.5566,7.64141,43.6513,-10.3246,8.68671,41.3629,-10.1114
6.3856,0.588718,10.447,4.29288,-3.1489,10.8951,4.20858,-4.24364,9.87033,3.89396,-4.7639,11.1566,3.71994,-2.49111
3.78728,0.296152,0.41071,64.8916,2.57561,2.76931,66.0921,2.62891,1.57409,65.7496,3.28802,1.2602,65.4027,3.0892
7.45032,0.0228331,13.3223,28.4928,-5.7366,13.0737,28.7655,-6.42062,12.8272,30.7124,-7.53663,13.4244,29.9121,-5.69839
2.49311,0.136454,14.4104,29.6498,5.64458,14.5602,30.4376,5.63924,14.5454,28.6669,5.89892,14.5254,29.9405,5.19047
11.1383,1.88608,-2.46109,40.9263,13.52,-0.860073,44.2729,13.104,-2.63358,43.6731,13.5305,-0.379714,45.3188,12.1658
9.74807,0.534447,-4.14535,58.3943,7.09913,-4.73224,58.0007,8.35998,-5.63266,57.5614,2.89906,-4.82165,58.7577,5.21979
0.897421,0.463729,13.3556,36.6086,-5.71005,13.3412,37.4413,-5.62758,13.3142,37.5698,-5.91005,13.4119,37.4497,-5.45885
6.6755,0.063505,-1.44989,15.8823,-6.59983,-2.06008,17.8884,-5.87672,-3.46173,16.9943,-6.01483,-2.53159,17.4615,-5.96092
8.77305,0.00268711,-4.17516,37.4264,13.1871,-4.49855,36.2126,13.3581,-3.25812,37.2424,13.3276,-6.44065,36.0394,13.1618
43.8183,0.269798,13.9119,15.7977,-3.15635,14.3197,13.8196,2.29266,14.1163,17.6344,-2.49262,14.3701,12.4181,1.81459
1.83778,0.0954394,-4.07729,47.6325,0.176089,-4.07136,48.187,-0.172808,-4.36508,47.4428,0.875894,-4.22478,46.9558,0.302791
24.1072,1.19799,-8.31423,44.704,13.0343,-8.73664,46.8259,9.77621,-8.32406,47.7704,10.6762,-8.70012,46.968,9.86155
2.33261,0.0532877,11.6471,49.2375,11.5838,10.6238,49.4393,12.1668,11.8825,49.5926,11.3723,10.8205,49.9604,12.0428
1.5426,0.177353,-0.924641,35.5583,-12.4368,-2.74943,35.8323,-12.3945,-1.16637,36.1194,-12.5685,-2.57477,35.5991,-12.4226
1.68648,0.126364,12.8853,56.0319,3.40286,13.6063,55.3378,2.371,13.5104,55.4926,3.77488,13.3002,55.7459,3.84787
14.4099,0.271568,13.4199,19.4243,-5.8713,12.4527,20.4945,-8.74496,12.7709,19.3885,-8.54884,13.9065,20.7057,-4.52108
16.6409,0.392538,11.3203,39.0384,12.7263,12.5444,43.4771,11.1514,13.2307,41.8906,9.99256,13.3094,41.8728,9.88558
116.169,0.364637,-3.60905,50.0136,-2.05971,-2.92736,59.8276,-3.04376,-2.44815,56.6512,-4.55413,-2.49698,59.5285,-4.40898
19.7533,0.0908323,6.16997,8.30589,12.5939,5.98516,5.22195,12.6256,4.83881,8.1858,12.6443,5.46461,4.91286,12.6899
1.41861,0.0315379,14.5311,23.0738,4.17081,14.6586,21.2547,4.93864,14.6323,21.6685,4.64453,14.6255,21.6718,4.46307
2.95633,0.154756,14.0612,22.6547,-2.2828,13.828,22.226,-3.06672,14.38,22.8243,-2.00848,14.008,21.5333,-1.84817
0.325127,0.0616721,12.2372,1.3686,0.555601,12.8775,1.71816,0.267623,12.705,1.68319,0.284652,12.2512,1.47926,0.405876
3.39351,0.0172643,-10.4818,15.3046,12.6839,-10.9574,13.9696,12.5872,-10.6332,13.0708,12.9617,-9.94454,13.9423,13.305
6.65825,0.848125,-9.50244,29.1239,8.18979,-8.3218,31.5285,7.02991,-8.4966,32.3372,7.84965,-8.43403,31.8605,7.54187
73.711,0.71454,14.3152,8.61739,2.31192,14.2045,6.85676,8.45501,14.1552,5.67751,0.664135,14.5015,5.34296,7.67697
9.79093,2.2367,10.6442,57.3088,3.83261,11.2063,56.8382,7.75052,11.4732,56.5231,6.81136,11.2123,57.1024,8.14601
4.65545,0.611958,-8.55844,43.2605,11.2973,-7.93344,41.9112,13.2513,-7.84077,43.0573,13.4496,-7.85428,42.9157,13.3874
1.90019,0.0930372,-10.0392,25.1073,0.408534,-10.3301,24.7539,0.74162,-9.85961,26.5005,0.497513,-9.92623,25.3463,-0.0677705
5.46301,1.09353,3.46899,6.71203,-8.71678,1.5519,6.37491,-9.10891,2.16411,7.00289,-9.28301,2.2079,7.00043,-8.73113
2.69935,0.0382727,14.4512,34.8601,5.31638,14.4109,35.5175,5.9101,14.5324,33.9929,6.19057,14.5497,34.1284,5.40295
5.00904,2.08313,-6.36908,26.5731,12.2807,-8.59197,26.7286,11.5164,-8.50871,27.1458,11.4754,-8.54233,27.0066,11.447
1.71539,0.148994,-0.0308363,62.7933,-2.01966,-0.0535347,62.4882,-2.56929,-0.0397533,63.5352,-1.72168,-0.432823,62.607,-1.76796
2.08448,0.181821,-8.12599,9.75654,-1.52724,-8.39208,9.38978,-1.75671,-8.19627,10.4839,-1.14176,-8.05958,10.603,-1.35731
40.0159,1.33209,-9.71693,27.6667,6.17375,-11.5669,20.3719,6.71295,-11.5832,21.0727,6.04959,-10.3548,25.1774,4.43202
1.94203,0.114007,-13.2799,14.4284,10.2278,-13.3606,15.0177,10.0434,-13.2937,14.5968,10.8788,-13.4508,14.1731,9.99921
2.33144,0.175393,4.34543,24.2821,-11.7646,5.26001,23.5641,-11.995,4.5892,25.6681,-11.8739,3.93877,24.4323,-11.9245
6.28064,0.239752,-6.43358,16.1975,12.7191,-2.97381,15.2281,13.5488,-3.03981,15.3867,13.5158,-4.4448,15.9719,13.2484
2.78895,0.184054,5.58205,10.2698,-11.4492,4.71349,9.96306,-12.6889,4.63737,9.83431,-12.6126,4.97429,9.89716,-11.6965
1.78991,0.115745,11.7287,25.4282,12.6801,10.8651,26.344,13.3794,10.7689,25.495,13.2374,10.8061,26.0626,13.344
0.429132,0.230077,-5.01725,23.657,-8.9468,-4.37307,23.2375,-9.06933,-4.37919,23.2311,-8.97226,-4.26367,23.0794,-8.9243
12.8342,1.56349,-1.65634,3.15027,11.2052,-3.8031,5.51645,12.58,-4.56171,5.48577,12.3401,-5.68678,5.5713,12.3306
7.68489,0.0342939,-3.956,42.6629,13.665,-3.23292,40.2416,13.7556,-4.81101,42.124,13.7456,-3.4577,43.703,13.6484
1.95936,0.0258424,8.91747,53.9444,12.8102,10.4932,53.617,12.3825,9.29961,53.5645,12.7457,10.2886,53.5112,12.4507
2.89284,0.159732,3.43572,49.9062,-10.8574,4.20165,50.4438,-10.6674,5.2282,51.7241,-10.5445,4.55466,51.3997,-10.5466
18.3558,0.678567,-6.43179,3.70164,0.096448,-8.9747,5.14597,0.432969,-9.17871,4.73317,1.05812,-8.06095,4.91837,-0.401072
0.00318208,0.00762938,-5.11793,55.8063,11.625,-5.29283,55.4049,11.5944,-5.22724,55.5444,11.6158,-5.31509,55.5571,11.4957
10.8051,0.780591,-4.98363,41.9845,-6.55553,-5.33155,39.9008,-6.91223,-5.49726,38.9832,-5.99639,-6.08124,37.9688,-6.05663
5.79031,0.25186,10.2518,1.07407,4.22779,9.62752,1.29453,6.18264,8.10658,1.79573,5.0573,9.48935,1.34812,6.00138
6.87588,0.0669035,-9.61508,27.6894,3.31658,-9.30291,29.0735,3.92891,-9.56604,27.2128,2.42242,-10.1599,27.2833,4.06057
17.1192,0.4348,13.6196,36.3897,10.2618,13.5971,33.7878,9.28594,13.0336,33.9436,10.6645,13.9846,33.812,8.44606
4.75886,0.425361,-0.740954,63.4793,3.52121,-1.51626,63.3034,4.84961,-1.2738,63.5616,2.79352,-0.598903,64.206,4.07916
28.9294,0.745467,-0.610533,55.3594,12.2506,0.823231,57.338,12.9231,2.05098,54.5208,13.2637,-3.17792,53.9096,12.9514
8.50914,0.445192,10.4691,56.8804,2.21568,11.9624,56.3314,4.64561,10.5891,57.3182,1.23156,10.5589,57.4449,3.76596
5.01102,0.224075,11.6634,30.6234,-7.98135,11.3494,29.6301,-8.33303,10.9308,30.0268,-8.77578,12.5541,31.6642,-7.74496
3.40103,0.331241,6.1767,37.5468,12.3209,6.19848,38.5364,12.4137,7.56339,37.4019,12.4403,7.53967,37.2643,12.4797
6.23788,0.102614,10.0234,22.5561,-9.17403,11.0721,20.8023,-9.80914,12.3853,20.3366,-8.91039,11.316,21.102,-9.31133
1.27083,0.539091,9.30345,11.9684,-10.5188,8.04624,11.278,-10.5919,8.12882,11.392,-10.6805,8.122,11.4076,-10.8689
3.69492,0.0908007,-12.7879,15.5619,8.71358,-12.6203,16.2116,8.29221,-12.9885,14.1357,8.13627,-13.0426,15.0544,8.88856
20.1407,0.141847,-2.84656,2.96741,7.20473,-4.66312,3.68486,8.28136,-7.05754,4.69251,7.79224,-7.04377,4.55813,8.7228
4.26727,0.0978711,6.24446,44.5213,12.4429,5.91368,47.2809,11.8948,6.10133,47.2519,11.8647,6.21647,43.9458,12.4532
3.4658,0.330847,14.0377,45.8652,6.31699,14.0767,47.4047,5.575,14.09,47.5386,5.18875,14.0285,47.1128,6.1086
1.80124,0.199622,1.83803,7.74048,-9.47968,2.12461,7.06585,-9.48078,2.21112,7.08727,-9.63263,1.63536,8.08214,-10.0447
5.4056,0.00118464,6.83066,46.6586,-10.1889,6.48885,44.8459,-10.6586,7.73387,45.6547,-10.0488,7.73477,44.4607,-10.2763
7.27889,0.245009,1.97013,3.48153,12.1249,1.23646,4.91317,12.6035,2.82896,4.70718,12.0711,1.54968,4.68835,12.4292
0.165044,0.0878422,-3.1154,13.7753,-7.2342,-2.30686,14.5792,-7.17898,-2.26082,14.7282,-7.09706,-2.53885,14.5263,-7.10357
6.81147,0.00700164,-6.47814,28.271,-10.6512,-5.59138,25.2948,-10.932,-5.66754,26.4386,-11.9314,-5.72788,26.328,-11.5545
9.81696,0.320658,13.9719,39.0095,1.52655,14.1469,37.7671,0.974544,14.1207,35.1014,0.950057,14.2853,35.1012,1.56484
18.658,0.124144,-3.32276,10.5161,-5.90562,-2.66892,6.15883,-6.03452,-2.17314,6.68853,-6.48783,-1.74111,9.24369,-7.14258
1.97955,0.105015,-14.7165,8.87435,8.56574,-14.5907,9.78149,7.65219,-14.6369,9.49812,7.67295,-14.8371,9.46913,9.6294
6.36138,0.143263,12.7273,36.8409,-7.53095,13.1839,36.3134,-6.03788,13.1806,35.3418,-6.88553,13.0406,36.8543,-6.47477
87.6464,0.260388,-11.5194,18.8708,0.655387,-10.2176,23.4239,-0.618375,-11.0946,23.2858,2.30444,-10.5269,24.3934,0.911527
17.7419,0.189107,1.98277,2.44074,-2.87962,-1.87967,2.53834,-1.54287,-1.52632,2.43879,-2.62892,-0.71292,2.6408,-1.28357
1.47967,0.318624,-6.98473,55.4041,5.31247,-6.65167,55.001,4.60071,-6.62349,54.9826,4.41909,-6.71314,54.8801,4.68698
11.3307,0.454499,-1.89547,2.95879,9.5656,-0.273178,2.86764,7.72961,0.198952,2.8715,9.00265,-0.206093,2.75801,9.82802
18.415,1.17674,1.08462,4.22555,-7.08746,2.47098,4.43883,-5.11081,2.68217,4.81706,-2.54972,2.51426,4.94404,-3.81897
5.67976,0.0803233,8.71222,6.95497,12.7997,11.0693,6.7475,12.4062,9.99782,6.96429,12.6019,10.1402,7.52687,12.8525
1.93881,0.0349734,-10.7489,22.5114,12.7097,-9.99275,25.0311,11.5741,-10.6424,23.3182,12.1904,-10.2498,24.6559,11.6077
14.5915,0.117584,-4.80429,53.2136,2.7809,-4.88914,51.3619,2.57917,-5.31732,48.7826,3.59982,-5.36073,48.0578,3.19145
3.38134,0.166714,12.7039,16.8723,-9.15279,13.1015,18.1462,-7.18601,13.0001,17.4503,-7.61737,13.1589,18.1455,-7.01161
1.69491,0.103284,-11.7498,19.3051,3.70987,-11.8045,19.7789,4.2165,-11.888,19.6065,3.36044,-11.8706,18.76,3.53073
20.3959,0.587221,-2.55172,31.5358,13.5486,1.1877,33.6235,13.681,-3.13761,34.5135,13.6325,-4.04984,31.1054,12.7464
12.3169,0.183864,2.08245,34.4333,13.4883,2.96301,36.1,13.1911,5.41752,33.5874,13.0014,4.08084,33.4239,13.1312
38.1616,0.481956,0.291937,61.4201,-4.49249,-1.26021,62.4892,-1.05473,-2.29954,61.7906,-0.872547,-1.94661,60.4024,-4.4376
4.44567,1.2388,-3.70573,47.9318,-4.34611,-3.31578,49.0993,-5.31492,-3.14714,49.0337,-5.73552,-3.1251,49.024,-5.91179
10.1091,0.513798,2.8138,43.8024,11.6112,3.35099,43.539,11.8677,1.5733,42.7964,13.2991,2.12434,44.9425,12.7039
2.3158,0.408874,1.58758,65.1187,0.879947,2.31725,65.5134,0.550693,2.72159,65.7365,1.38795,2.26649,65.7169,1.43944
28.3606,0.436789,-3.18258,59.9131,-2.36484,-4.71334,53.1025,0.614421,-3.50044,55.1292,-2.30836,-4.47528,50.7419,0.282082
5.05076,0.0724444,13.6988,35.3662,-4.94367,13.9178,33.9803,-4.11665,13.8502,33.8452,-4.96304,13.7687,34.8059,-4.36639
0.953732,0.0460306,-4.51981,50.3566,1.07878,-4.61242,51.3808,1.22126,-4.53354,50.7675,0.832264,-4.57218,51.1037,1.36294
2.12913,0.2325,7.2377,19.5374,12.9748,6.78318,18.0244,12.3795,7.81558,18.528,12.3325,7.41269,18.7652,12.4752
27.5233,0.306736,-12.6572,14.5381,5.40352,-12.7475,14.4953,7.49477,-13.2395,12.1216,6.16962,-12.9219,13.2389,7.58332
2.61864,0.0505644,14.2275,33.0031,3.89088,14.3547,32.0268,4.927,14.2821,32.8422,4.83771,14.3749,31.8779,4.32959
13.5149,0.771523,-6.70414,34.5557,2.18531,-8.27848,32.1594,0.729709,-6.92583,35.1228,0.723753,-7.81018,32.8803,0.209889
6.56941,0.295093,-0.968619,39.3133,13.0918,0.281305,38.7935,13.4992,-0.930897,38.0421,13.3536,0.278916,39.2226,13.512
1.74296,0.0579839,13.0648,46.5137,10.1112,12.8909,45.8237,10.6321,13.368,46.1521,9.89181,13.3511,47.1446,9.65117
30.2789,0.505259,-3.55218,48.5229,-2.92635,-2.8099,52.1149,-5.49508,-2.56928,51.8574,-6.92617,-2.80544,51.9756,-5.47953
15.0011,0.282928,1.01159,7.09166,12.4054,-0.849659,5.93091,13.0503,-1.31355,6.87431,13.0062,-1.02773,7.37278,12.7866
9.75696,0.0245144,7.8042,2.15721,9.25143,9.38244,1.56078,8.80286,7.53868,1.96412,7.62316,7.21811,2.50111,10.4418
95.7539,0.450899,4.50406,2.61122,3.03174,6.99248,2.78448,1.00645,4.18345,3.36094,-0.605048,7.30981,3.41926,-0.895536
149.064,1.89378,-0.507636,15.0026,13.3564,-4.14452,10.0545,13.6267,-1.43446,9.20515,13.4323,-6.31661,11.9178,13.3874
2.18479,0.168615,-7.97877,26.0494,-5.47758,-8.16079,27.0099,-5.56537,-7.1817,24.3459,-5.14257,-7.14866,24.5537,-5.38633
10.4368,0.0185936,-8.23461,35.9721,11.0886,-8.39219,36.97,9.6692,-8.5198,38.3288,10.335,-8.43573,37.7695,11.394
5.02247,0.174736,12.1702,24.3554,-6.88476,10.7543,23.8529,-7.80621,11.908,25.4524,-7.11023,12.5912,23.8422,-6.92103
43.0042,1.5784,5.84191,3.26052,11.5438,12.6449,1.1341,10.0316,12.3759,0.903522,8.35931,10.6164,1.41127,11.3033
10.6116,0.286115,9.38437,59.6454,7.0061,9.38358,60.5166,7.67934,9.5831,59.5223,5.95545,10.4774,58.8818,9.06149
15.5644,0.0980303,13.4171,36.1912,-5.52644,13.6383,34.8075,-5.77793,13.4317,37.313,-5.27144,13.9476,37.0517,-3.02368
4.78471,0.238656,-1.91116,60.1614,9.81631,-2.88877,59.1303,9.64618,-2.1985,60.478,9.01401,-1.97349,60.3424,10.2691
7.73959,0.117679,-7.56708,38.1839,5.35998,-8.09769,37.6584,6.78988,-8.26465,38.1537,7.35575,-7.8123,38.9879,5.76419
3.63765,0.199301,-13.5139,15.5291,10.2336,-13.3129,15.8573,9.47563,-13.1172,15.2244,9.02574,-13.2203,16.2694,9.35627
0.553653,0.204306,-8.97278,5.14238,0.52418,-9.5269,5.27302,0.362176,-9.53462,5.29223,-0.0214231,-9.37731,5.30009,0.284411
6.19132,0.271044,-1.64826,36.34,13.4368,-0.564265,35.1208,13.686,-0.395797,35.5195,13.6006,-0.95607,37.904,13.374
4.56082,0.157436,-11.0617,23.5568,10.9395,-10.0752,25.5926,10.3447,-11.9691,22.337,10.5052,-11.2035,23.6032,11.3713
1.63025,0.468827,13.3497,10.1788,-6.91464,13.5103,11.3214,-6.02833,13.4715,10.6137,-6.19252,13.3987,10.8828,-6.18466
7.71924,0.076996,-10.7814,12.0586,0.53159,-10.1835,8.3626,0.31095,-10.0709,12.0809,0.14667,-10.4999,9.03662,0.423653
3.39485,0.23061,10.1354,43.5742,12.9963,11.3309,43.1714,12.6985,10.9573,42.2463,12.7686,10.8937,42.8487,12.7448
12.0183,0.0238192,14.3014,18.8896,-0.73468,13.9375,19.7152,-2.17907,13.9585,21.3928,-1.92633,13.7513,20.8204,-2.90946
3.64651,0.31099,-5.50158,39.3313,-0.476183,-5.07158,41.6048,-2.2368,-5.07426,41.7659,-1.8691,-5.10773,41.4652,-2.21688
6.92776,0.337214,-4.99304,3.48352,-1.88156,-4.19559,3.08858,-1.41106,-3.42205,2.72571,-1.71154,-6.01238,3.36235,-1.94653
5.3953,0.272192,12.6,3.13115,-0.361438,11.7449,4.16441,-1.14438,12.0645,4.2742,-1.35136,12.9234,3.21014,-0.0663845
3.12544,0.110411,4.07378,56.1983,-10.4333,4.06044,55.5892,-10.7201,5.28077,56.0907,-10.2186,3.93679,56.5747,-10.4922
2.79194,0.0714846,7.8282,6.31612,-7.25336,8.1827,5.44267,-6.87717,8.88782,5.05783,-6.37265,8.75945,4.99403,-6.45746
1.58183,0.353429,-8.44024,31.3033,3.85119,-8.26408,32.4286,3.86923,-8.23409,32.1161,4.00328,-8.31341,32.1623,4.4632
28.0917,1.30951,6.12939,3.21643,-4.08941,4.50087,3.7774,-7.34606,4.30529,3.66339,-7.86098,4.49262,3.78009,-6.4398
6.94093,1.28491,2.67434,9.46933,12.7307,1.16481,11.8087,13.3426,3.28003,10.7936,13.1951,4.60445,10.2575,13.4379
5.28105,0.797917,-11.0052,21.2301,7.27614,-10.7893,23.0673,7.02782,-10.951,20.9925,8.3727,-10.6441,22.7492,7.20984
6.54887,0.319296,-2.65275,58.3712,10.7624,-1.92417,59.5483,11.9131,-2.08101,59.4235,11.4843,-4.16245,57.0031,11.6928
1.35757,0.201741,10.2894,37.5459,13.073,11.2165,37.3544,12.5518,11.3919,37.7492,12.5005,11.3647,37.6053,12.4899
0.560476,0.259534,-1.82075,11.2338,-7.2513,-1.58817,11.7613,-7.48421,-1.42854,11.6783,-7.54492,-1.42445,11.531,-7.57554
8.12044,0.0688505,14.1521,40.4087,7.17431,14.3259,38.7397,5.6684,14.3713,40.7138,5.9011,14.0166,41.3797,7.69316
8.03455,0.630309,-2.47644,61.5906,6.77714,-1.72173,63.088,5.49376,-0.304644,64.5063,6.50955,-1.16176,63.6846,6.4075
22.7009,0.013529,-5.62329,55.8296,2.6164,-5.50682,52.7025,3.86011,-4.8806,52.8149,3.09027,-5.3711,57.4331,1.65195
3.05068,0.116212,3.02849,66.9101,6.06314,3.22371,66.3215,4.82663,3.63376,66.5233,4.50897,3.36214,66.3343,4.65142
4.34832,0.516218,-6.83723,18.703,12.8072,-8.47057,19.4601,12.6374,-8.12031,18.9533,12.6342,-8.47555,18.4726,12.8697
54.1797,0.00115433,-1.51586,5.44781,-6.86846,1.11753,8.91222,-9.81869,0.408729,9.9196,-8.63115,0.469409,9.97239,-8.70458
5.26944,0.0139228,2.85737,8.55361,11.8741,2.73799,9.02238,12.4519,4.70561,8.05558,12.5441,4.45869,7.95752,12.2341
5.73847,0.0245501,13.0735,38.6806,-6.52347,12.9377,37.7041,-7.03799,13.4844,39.1187,-5.42182,13.2751,37.7177,-6.09567
4.30688,0.522032,-1.48454,17.9039,-7.99175,-0.592245,15.9509,-9.03557,-0.649307,15.9566,-10.3024,-0.583851,15.8029,-9.5405
5.28269,0.376685,-8.31707,37.752,7.96218,-8.40803,36.3273,7.6126,-8.46771,36.2473,9.04803,-8.4165,36.3514,8.3758
29.6735,0.332091,5.30362,34.8604,-11.1516,5.27959,27.0435,-11.5205,7.3106,31.6169,-10.6291,4.2941,26.3683,-11.9539
24.3735,0.254094,9.19188,15.1253,12.5765,7.01707,17.8346,12.3668,9.28121,16.9546,12.4971,6.4126,16.127,12.6894
2.45582,0.0536083,-4.67182,50.4208,1.88503,-4.62758,49.6815,1.50384,-4.90533,51.0845,2.5097,-4.91026,50.5045,2.4814
17.482,0.228157,9.15022,8.46359,-7.18469,6.63183,9.25289,-9.42077,7.70459,8.20582,-8.28671,6.85968,6.13282,-7.93993
2.59465,0.609737,5.39244,47.689,12.2987,4.40828,47.8946,12.2728,4.03576,48.2612,12.4395,4.52359,47.4399,12.542
8.25526,0.36203,-13.516,12.2641,8.37827,-14.5163,10.2225,8.49106,-13.8474,10.8786,7.7556,-14.2476,11.0436,9.54058
10.9166,0.690357,10.1236,11.0244,-8.70475,10.3162,9.49795,-7.00441,10.7929,8.92692,-6.49451,9.82949,8.54787,-6.74767
3.39312,0.260372,10.8609,1.61235,0.606605,10.2728,1.21275,2.00127,10.3025,1.55055,1.05429,9.94548,2.07625,0.452026
6.81142,0.250032,-3.57443,35.8583,-11.687,-3.79027,37.3477,-11.6211,-4.58184,37.5662,-10.9218,-4.32204,38.3608,-11.0275
3.85775,0.489755,14.1013,42.7813,-0.278149,13.8801,43.7396,-2.45495,13.8793,43.7417,-2.26214,13.917,43.8863,-1.78976
5.6368,0.0824378,4.59686,19.7899,13.089,4.78328,20.9083,13.5475,5.28242,19.0769,13.1107,4.26939,18.2556,12.1762
57.5678,0.0518562,14.6063,2.85976,5.15593,14.4682,6.24691,2.10855,14.5617,6.21774,5.19794,14.5562,6.65366,4.98969
1.0937,0.0719079,14.42,28.1194,1.7238,14.4782,28.0322,1.96921,14.4994,28.2437,1.62017,14.4927,27.7886,1.58362
18.43,0.404976,-6.43681,45.3208,3.64379,-5.62877,41.3614,2.80639,-5.90808,40.8736,3.16136,-6.24679,41.6925,3.72886
59.0892,1.09076,4.66776,60.5522,-8.15208,9.50834,57.1564,-7.49292,6.83813,59.3511,-9.61596,9.07607,57.2828,-8.51837
24.3781,0.946521,8.06337,2.58945,-5.70727,9.82902,2.90129,-3.26836,7.40857,3.46084,-2.33747,7.54149,3.41804,-2.24499
29.2259,0.2401,2.80463,61.4536,-6.16842,4.14811,61.0369,-6.85799,6.93776,59.396,-4.91689,6.07519,59.8359,-4.41673
3.59437,0.0989629,-6.6867,4.53552,7.07197,-7.92453,4.95086,6.10991,-8.26554,5.11686,7.61441,-7.45272,4.88054,7.55427
1.61066,0.175631,-3.9845,44.263,-8.2327,-3.83986,45.5698,-7.09476,-3.69282,45.8096,-7.26226,-3.73866,45.668,-7.26165
5.52196,0.263404,10.7829,56.5318,-6.07343,10.3587,57.2724,-5.02928,10.5,57.1564,-4.37592,10.3164,56.8738,-6.38846
0.913895,0.298583,2.35774,2.46078,-0.238573,2.68096,2.75445,-0.134863,2.38414,2.22622,0.198405,3.08057,3.13759,-0.624429
0.388242,0.0574316,12.7811,17.7184,-9.10044,12.7716,18.2789,-9.10085,12.8007,18.1289,-9.02894,12.6513,17.9998,-9.24701
2.1816,9.27665e-05,1.22351,1.46084,3.09905,1.64108,1.50446,2.54119,2.43734,1.23196,2.56903,2.58733,1.30101,2.2046
5.30887,0.315001,10.6867,55.561,12.1681,9.84192,54.8882,12.6046,9.59765,56.3719,12.5883,9.42931,55.1244,12.6458
8.86272,0.655697,-0.711622,16.0927,-10.3856,-0.109845,15.3831,-12.5013,-0.633644,16.7381,-12.5557,0.0252028,14.9543,-12.6558
5.11831,0.296803,2.90253,57.1969,12.4029,4.55246,55.8481,12.9998,3.17505,58.0126,12.5175,4.85341,55.9271,12.9785
0.929371,0.103897,-3.15875,55.0484,12.7367,-4.09175,55.2329,12.403,-4.11777,55.0964,12.4192,-3.97066,55.3628,12.4303
2.50086,1.39544,12.4194,40.0411,-8.06081,12.9978,40.4936,-6.43366,12.9648,40.6409,-6.52066,13.0476,40.3387,-6.36721
70.3589,0.447079,-0.935702,22.6576,13.6214,1.24783,27.0654,13.9847,2.43589,23.095,13.6049,2.16405,26.1594,13.8039
5.9841,3.56649,-8.29735,50.7239,9.47139,-6.24136,53.3107,10.8841,-6.24309,53.1736,11.1802,-6.46964,53.6327,10.4877
12.5799,0.385252,11.6305,56.0096,-6.29451,12.0618,56.5179,-4.36145,10.7063,56.4846,-8.46883,11.9546,56.6081,-3.98505
11.8126,0.230952,13.9914,41.924,-0.418227,13.6585,44.1466,-4.71519,13.6311,44.1469,-4.99543,13.7354,44.4357,-4.36136
40.2515,0.415559,10.2749,21.8704,-9.45658,7.82042,24.4902,-10.2621,9.31794,21.6691,-10.4573,8.15558,25.359,-9.82215
1.25471,0.116173,-1.05004,2.42462,-4.73742,-1.83463,2.85484,-5.10371,-1.8372,2.91287,-5.26702,-0.360023,2.2438,-4.30437
1.07781,0.0135499,-9.493,7.87369,-0.00789585,-8.52283,7.36711,-0.552942,-8.83782,7.64351,-0.364031,-8.50829,7.14593,-0.593039
4.10517,0.00265962,-7.19865,35.3255,4.2534,-7.62085,37.2008,5.25842,-7.87065,35.977,5.51229,-7.64381,35.9059,5.10747
1.97361,0.429278,5.82297,61.8851,1.33437,4.77606,63.5484,1.29232,5.01783,62.9962,1.40542,4.83471,63.2593,1.27676
1.27594,0.495562,11.7793,31.7545,-8.34632,11.1327,32.6913,-8.71881,11.4363,32.852,-8.62058,10.9569,32.6898,-8.83619
35.5038,2.66227,13.226,47.471,-6.18105,12.9014,51.9188,-5.66246,12.5768,51.9011,-6.80677,11.9128,51.3155,-7.90998
3.38143,0.336742,-6.08944,27.9752,-12.1359,-4.71145,25.6677,-12.9265,-4.85808,26.4194,-13.0016,-4.71992,25.8334,-12.9883
6.80884,1.81877,3.72844,26.8046,13.0905,3.17248,22.6588,13.455,3.94734,23.6408,13.5208,3.05499,22.5408,13.4631
1.02877,0.143831,7.41848,18.8997,-11.4402,7.82962,18.7329,-11.3019,7.18109,19.7339,-11.8132,7.44845,19.9595,-11.6077
1.89796,0.0473157,1.00676,10.3954,-10.3247,0.436927,11.0172,-9.66349,0.629911,10.6231,-9.41038,0.54592,10.5436,-8.95784
2.03348,0.833642,-0.0181143,20.0301,13.3308,-1.41043,20.0366,13.464,-1.26506,20.2928,13.4379,-1.14375,20.4119,13.4625
7.52925,1.44162,7.68822,54.3304,-9.61245,8.63591,52.8235,-9.5084,6.04844,51.8445,-10.4287,6.9775,52.1162,-9.99396
2.94321,0.143607,14.1126,45.864,4.71838,14.1324,43.3464,4.37758,14.1023,43.4849,4.19476,14.0592,43.901,4.09897
1.19997,0.0146327,11.9611,4.47634,-1.67498,12.6743,3.84695,-1.67218,12.9157,3.56266,-1.4019,12.1908,4.17438,-1.37748
18.7122,0.146225,14.3927,36.2426,2.68765,14.3794,38.187,2.9269,14.4127,35.9435,6.47874,14.3108,35.6541,4.76655
0.604171,0.447307,3.87213,5.08263,-2.23956,3.87073,5.56468,-1.68034,3.97235,5.5341,-1.71294,4.12592,5.37685,-1.78264
1.9029,0.892529,13.6195,9.05765,-4.77406,13.0761,9.25182,-6.47288,13.1234,9.03191,-6.34561,13.2225,9.29502,-6.37555
1.89556,0.0258562,-2.37019,56.2955,-5.8298,-2.48449,57.8905,-5.65865,-2.39695,57.5811,-5.88363,-2.53715,57.7743,-5.47022
0.941616,0.412592,-6.94078,30.8516,12.6749,-6.72162,30.0866,12.6229,-7.01507,29.9997,12.6777,-6.9045,30.1247,12.6058
4.60484,0.226167,-5.59834,38.3644,-0.115602,-5.47446,39.207,-0.0758549,-5.8108,38.9555,-0.917642,-6.20537,37.2404,0.393517
3.80907,0.234954,6.57679,64.8227,10.4432,7.81449,63.9967,11.0428,7.6653,63.5507,9.93607,7.90142,63.7055,10.7282
5.53498,0.528094,3.0512,63.2581,-1.34248,2.79041,63.7192,-2.69958,1.86973,63.7902,-3.61834,1.89489,63.8431,-2.96852
5.31041,0.357992,8.41082,17.9602,-11.0973,7.70172,18.5192,-11.4413,9.60145,18.3876,-10.937,7.87567,17.9113,-11.6994
2.03087,0.157643,0.851302,46.2193,13.0277,1.71841,48.1793,12.9343,1.68726,47.6103,12.8915,1.21558,47.1349,12.9037
5.70482,1.21345,7.09182,62.602,12.9348,5.82026,61.4222,12.9542,4.86048,61.7817,12.9796,5.29915,61.6678,12.9091
5.72525,1.02862,-6.95877,3.7585,0.872223,-4.8056,2.65354,-0.420052,-5.45155,2.69755,1.12461,-5.1794,2.6839,0.740353
0.622628,0.67643,0.593967,2.92231,-6.04032,1.36602,3.32447,-5.33348,1.53694,3.59466,-5.30718,1.45191,3.45827,-5.32049
6.34709,0.351584,4.12496,21.611,-12.1565,3.68178,20.1378,-12.3997,5.06823,21.5524,-12.2743,3.90144,22.0784,-12.6556
0.950271,0.130343,-9.65145,26.4919,10.3643,-9.91844,25.825,10.1736,-10.1004,25.5866,10.2174,-9.79086,26.1053,10.4674
2.4246,0.332008,-8.43204,38.738,10.5187,-8.7611,39.3602,9.96039,-8.41042,39.7494,10.6981,-8.39246,39.5632,10.9584
2.07464,0.60703,-9.41299,27.7465,2.30338,-9.35447,29.1839,2.36395,-9.34332,29.18,2.4617,-9.37083,29.0482,2.75926
1.17732,0.140096,1.70742,58.727,12.3844,2.22222,58.9242,12.4186,2.7756,58.7821,12.521,2.75379,58.6362,12.6238
6.67046,0.207847,-4.78709,46.7415,2.07657,-4.77945,48.3096,1.90167,-5.48597,47.0699,2.68847,-4.48144,47.0531,1.36646
1.6803,0.126713,-2.28555,47.6634,-9.91856,-2.87797,46.9563,-9.4406,-2.89223,48.1251,-9.00447,-2.87029,47.9789,-9.07788
0.281068,0.447608,5.31479,64.273,2.25547,5.56118,63.6933,2.13272,5.50425,63.7039,2.09533,5.41418,63.7009,1.9362
0.0175297,0.00180648,0.237362,40.5128,-12.3352,0.460551,40.3565,-12.2506,-0.0359338,39.7263,-12.3426,0.266406,39.8152,-12.2588
7.84257,0.236147,-7.32715,6.83165,13.0948,-5.89385,8.68154,13.1575,-6.77363,8.5669,13.0817,-7.19136,9.65773,13.1677
0.84767,0.152063,5.2701,60.2792,-9.51739,4.5215,60.3417,-9.98841,4.40149,60.4069,-9.9982,4.25304,60.4597,-10.0819
13.5036,0.160026,-9.63225,8.42594,13.0438,-10.8797,7.47994,12.9383,-8.51334,8.6417,13.3385,-12.4731,8.35732,12.9549
1.00706,0.111634,-14.2914,10.1175,7.22592,-13.7459,11.0018,7.67989,-13.8261,10.7111,7.20472,-13.7713,10.8508,7.39896
1.52399,0.00486271,0.150659,63.1702,-2.38957,0.391798,63.6819,-2.56386,0.584659,64.3189,-2.43363,0.390395,64.14,-2.04381
2.06576,0.0286805,3.03341,60.4929,-8.12982,1.87388,59.279,-8.72376,1.96237,59.4416,-8.57821,2.03621,59.2592,-8.89375
2.17408,0.995368,-6.61275,35.4067,-5.06746,-6.80924,34.1053,-6.51584,-6.62561,34.4985,-6.39878,-6.54209,34.7772,-6.31396
0.909543,0.129616,-6.83718,4.28944,-1.62146,-6.7228,3.87822,-1.86811,-6.7502,4.04245,-1.92228,-7.43002,4.52969,-0.928537
31.3129,0.279598,-2.92125,59.4909,8.9925,-3.94052,59.4201,6.5933,-3.7958,60.3744,4.87315,-2.20003,61.8419,7.40758
3.94141,0.593053,5.86168,40.611,13.0214,6.46328,42.6271,12.9319,5.73432,42.2197,13.037,5.86601,42.0382,12.9159
4.27225,0.881003,7.955,35.2001,12.526,9.53933,34.8753,13.0954,8.08241,33.8795,12.8365,9.69264,35.1218,13.194
0.838728,0.0738943,13.9599,47.5231,0.065284,13.9023,47.5203,-0.502133,13.9143,47.3741,-0.409201,13.9201,47.7957,-0.505622
2.19516,0.358673,-7.80795,38.8606,11.814,-6.38751,38.7337,12.777,-6.54519,38.4716,12.7008,-6.45042,38.8912,12.7584
2.09665,0.128281,0.497679,35.4589,13.2724,0.9421,35.8014,13.2814,1.09831,35.2012,13.3165,0.185252,35.6705,13.4407
1.30821,0.0694843,14.1338,16.9031,-0.240521,14.2966,18.1695,-0.231724,14.3596,18.33,-0.465496,14.333,18.3345,-0.342374
10.6207,0.172351,8.84057,35.4647,-9.95269,8.60038,33.139,-10.0305,5.95184,38.2613,-10.8906,6.21972,37.8665,-10.8114
0.307432,0.0692216,1.53426,10.1522,13.0174,1.40116,9.59243,12.8786,1.31167,9.60841,12.891,1.25853,9.76426,12.9201
4.5811,0.14612,13.0121,24.6821,11.0499,14.3856,25.4245,7.7886,13.5025,24.6524,9.81757,14.1848,25.131,8.07013
6.08244,0.138051,4.04955,3.40239,-5.49604,4.52024,3.24687,-4.98824,3.19017,4.27308,-4.48386,2.18708,3.41773,-7.01804
21.3448,0.926639,4.0418,41.0321,-10.2417,6.63032,39.8458,-10.7752,4.47108,39.1168,-11.1777,3.6286,40.2757,-11.2823
5.91593,0.453432,14.0255,39.1767,4.20734,14.3191,37.4626,3.47713,14.3011,39.7119,2.22989,14.3528,39.2217,2.95652
17.5973,0.35748,13.1932,32.6347,10.1569,14.3382,32.5778,7.55901,14.2287,30.6013,8.72289,13.6836,30.2678,10.7117
0.769989,0.111384,-0.0429928,16.54,-13.3835,0.64354,16.8983,-13.5527,1.04756,16.7716,-13.6087,0.863712,16.6029,-13.5983
3.85622,0.653982,-4.02304,45.1345,-0.871439,-4.03283,46.1576,-0.895848,-4.47282,45.8982,-2.23587,-3.97801,45.8109,-1.4212
1.82763,0.0679794,-2.18796,55.3976,-5.95902,-2.56046,54.1931,-5.84533,-2.1054,55.7789,-6.46065,-2.35958,55.157,-5.60416
3.94304,0.955741,14.2033,32.0164,1.76128,14.4213,30.7978,2.74509,14.4765,30.7516,4.22289,14.4154,30.7916,3.60807
6.59154,0.582034,12.8239,52.333,-4.68091,12.6951,53.4463,-6.29568,12.7993,53.8673,-6.63848,12.7764,53.0179,-6.60848
4.14143,1.10764,14.4188,26.867,0.319458,14.1845,30.7688,-0.257482,14.2124,30.6322,-0.168527,14.2649,30.1997,0.211055
4.22821,0.189671,13.714,34.9401,-2.79579,13.8606,35.7885,-1.99576,13.9641,34.9574,-3.3738,13.8174,34.6654,-2.05139
1.96011,0.175308,-5.27832,26.0846,12.8181,-5.66759,24.0395,13.2192,-5.48321,24.0039,13.2248,-5.5568,24.1583,13.1832
5.52398,0.55349,3.48294,5.38734,-1.8545,2.63157,4.75983,-2.43246,3.09849,4.73164,-3.19235,2.74558,4.79777,-1.90729
7.13854,0.22427,13.9485,31.8747,-0.968577,14.2798,31.6204,-2.2471,14.2684,30.2072,-0.472835,14.0632,32.1667,0.338232
3.42546,1.03808,9.23075,19.2581,12.7791,8.34383,17.9888,12.2389,8.59998,17.7941,12.3283,7.97943,18.0703,12.2039
0.674868,0.159292,-6.72698,35.0574,3.95096,-6.96183,34.8399,4.07913,-7.00041,34.6889,4.00324,-7.19968,34.9135,4.18603
1.05117,0.0502338,1.3461,5.58688,-8.39272,1.777,5.54406,-8.79467,1.46165,4.96676,-8.13256,1.31051,5.12676,-8.11807
1.93044,0.0134989,13.5059,21.822,9.73161,13.3073,21.1583,10.1482,14.2529,21.7662,8.42067,14.2402,21.9071,8.42142
6.00766,0.304824,-3.64755,22.6501,-9.30287,-2.8809,21.0688,-8.27946,-2.59399,20.7639,-8.75242,-5.24204,24.2436,-9.92911
8.90295,0.0607556,6.75244,60.6523,0.912951,5.11408,61.9751,-0.270954,5.88549,61.7461,0.821069,5.73453,62.5843,1.83561
4.05656,0.220563,0.826317,45.6115,-12.3335,1.99047,46.8973,-11.9613,1.71229,49.4826,-11.42,1.60474,49.4037,-11.4255
0.979261,0.347087,5.119,9.50597,-11.1491,3.44337,8.23856,-11.0516,4.07699,8.56061,-10.9531,3.90777,8.47911,-11.0466
16.5957,0.0247148,9.44564,1.46166,6.72702,9.12372,1.61143,9.29865,9.39135,1.53642,9.17654,7.68003,1.93403,7.62154
8.2755,0.438002,-2.49496,19.2707,13.5917,-2.59363,17.0069,13.6158,-1.97615,16.4443,13.488,-3.24851,17.0035,13.6386
10.284,0.0793916,7.91582,59.0194,-0.323585,8.52593,58.6582,-0.416684,6.80032,59.3951,-3.4419,6.35975,59.729,-3.36652
3.40832,0.156298,-8.49739,48.1746,9.12084,-8.28972,49.322,10.2097,-8.67955,48.4942,8.83655,-8.57169,47.2293,10.0731
20.0397,0.567585,7.80376,50.3319,-9.80431,5.30291,45.6025,-11.079,6.70789,47.0788,-10.1916,4.72862,46.6221,-11.1885
136.609,0.327865,-3.2757,3.81921,-5.00734,-8.0503,11.605,-2.76935,-7.84898,10.4857,-2.83563,-3.6317,9.91783,-5.51215
24.6706,0.481121,7.47605,62.8342,7.76386,9.14132,61.7994,11.2781,9.73758,60.9612,11.9533,10.174,60.0033,10.9194
33.8619,1.40261,14.485,25.202,-1.42181,14.1326,25.4762,-4.69675,14.1111,26.3024,-4.71113,13.947,22.5201,-3.89289
0.615855,0.000249799,3.2294,10.963,13.2545,3.27407,11.5422,13.448,3.54272,11.4711,13.4604,3.52473,11.0302,13.3151
6.21001,0.0756347,12.5066,22.4412,-7.74637,11.1493,22.1968,-8.69433,10.6657,22.9711,-8.38571,11.4995,23.0733,-7.77521
1.07015,0.0174601,14.5224,19.546,6.59215,14.3423,18.0037,6.29098,14.305,17.9862,6.51265,14.421,18.8451,6.64398
1.73316,0.12885,3.37581,12.6614,-13.363,2.14552,13.044,-13.6437,2.16496,12.4063,-13.4667,3.76242,13.3347,-13.3082
4.01284,0.344412,1.29464,23.7569,-12.8497,0.922473,22.3887,-13.511,-0.435779,22.3662,-13.8544,-0.0336786,22.3365,-13.7583
5.46336,0.0712176,13.7139,19.7044,-3.56113,13.7263,21.3889,-3.10732,13.9083,18.7449,-4.08987,13.7998,22.0837,-3.23873
3.70452,0.0890263,7.35348,13.1905,-12.2172,6.27034,14.5047,-12.5838,5.5322,14.0558,-12.8311,7.63017,12.3928,-12.2616
1.17617,0.127751,-3.77109,2.9794,-1.05117,-3.52676,2.82061,-1.38906,-4.20589,3.06367,-1.337,-3.53035,2.66898,-0.668081
1.11305,0.62162,3.23285,48.8609,12.6864,2.55407,48.8305,12.4862,2.5373,48.6921,12.5813,2.59422,49.0109,12.4881
2.65058,0.148235,-0.204941,51.4287,-10.9658,-0.708116,50.333,-11.3844,-1.26603,51.5667,-10.3377,-1.18766,51.5442,-10.4052
0.954729,0.127843,6.72338,5.33712,12.2939,6.71104,6.19568,12.1297,6.88663,5.7263,12.1775,6.93212,6.44247,12.1584
2.14573,0.58633,1.13795,26.2468,-13.1664,-0.647756,25.3192,-13.6864,-0.347469,24.6381,-13.7305,-0.449117,25.0815,-13.6529
10.4973,1.19525,-7.47775,6.74392,-0.986886,-9.42139,8.96205,-0.115959,-9.31544,9.72011,-0.347304,-8.88682,9.01147,-1.06058
1.90408,0.123387,3.71035,2.9895,0.405419,3.00275,2.58739,0.242415,3.79734,2.75312,0.784374,3.98776,3.16173,-0.133914
6.7697,0.189301,3.10058,17.694,-13.432,2.86892,19.8747,-12.8997,2.19468,19.4889,-13.2914,2.75626,19.9783,-12.9321
5.27639,2.0011,3.03533,3.19323,6.91709,0.980362,3.06235,6.53156,0.739499,3.07036,7.14521,0.468129,2.97617,7.78828
5.24515,0.373434,-9.64787,26.2107,10.8811,-8.98452,25.4075,12.1807,-9.43538,25.0863,12.1126,-9.31883,27.1565,11.0044
1.39823,0.00251392,-3.27606,51.3567,13.5139,-3.11816,50.7547,13.5127,-3.12382,52.0382,13.5605,-2.63945,52.5158,13.6529
5.93294,0.208672,14.5544,27.9589,6.12025,14.4677,26.5604,5.57796,14.467,26.7178,3.43026,14.4894,26.4283,3.81903
41.4372,1.19497,14.5428,1.99962,4.90404,13.6213,3.86932,-0.89599,13.2823,2.66275,-0.0194356,13.7999,4.40538,-0.641911
2.72861,0.90373,4.20533,6.23078,-0.802618,4.00854,5.61669,-1.5881,3.32015,4.59933,-1.14502,4.79096,5.02724,-0.932936
3.67939,0.604854,-2.46455,18.2487,-5.71752,-3.05235,19.64,-5.59901,-3.38363,19.097,-5.4786,-2.59713,19.4193,-5.46266
36.1391,0.199207,9.74067,50.3439,12.6699,9.8608,53.1777,12.5702,8.50523,52.4577,12.7429,6.50395,52.5955,13.0486
1.08955,0.743257,-4.05211,41.0695,-9.91247,-4.77908,39.8114,-9.77963,-4.76293,39.5125,-9.94103,-4.76307,39.6595,-9.86132
1.17079,0.107588,-7.55603,17.6566,-4.9948,-8.04633,18.8534,-4.77751,-7.91472,18.956,-4.92421,-8.0748,18.6646,-4.72737
1.85168,0.0898328,-6.14172,33.8493,-9.15823,-6.06921,34.4073,-9.19869,-5.93116,33.7754,-9.85138,-6.45364,33.506,-8.92329
1.2965,0.139366,-4.64507,51.1255,1.53056,-4.73921,52.2829,1.75949,-4.76052,52.3068,1.84036,-4.66123,51.989,1.62046
6.16194,0.0882931,-6.74405,23.4064,13.1338,-6.2036,25.015,13.3087,-6.07823,23.8445,13.207,-7.93921,23.0886,13.2877
4.15718,0.186212,8.63302,59.4723,2.48601,9.3353,58.9253,2.46001,9.48415,58.9478,3.64911,9.3604,59.0856,3.59508
44.8059,3.82488,-7.39172,32.362,-3.34037,-8.74892,25.7949,-3.48186,-8.90532,25.6995,-3.05427,-9.2108,25.6657,-2.37603
2.66557,0.221211,-10.9615,20.7041,8.40695,-11.2906,21.1356,9.03103,-11.236,19.7459,8.13999,-11.382,19.6377,8.10903
2.0667,0.143191,8.81606,58.3386,-0.650846,7.94059,58.8167,-2.10331,8.18538,58.6525,-1.22433,7.9539,58.8462,-2.31
9.67673,1.08447,-2.82786,2.1012,1.8571,1.72953,1.12901,3.28365,1.37047,1.58144,2.56773,0.559558,1.75511,2.7966
4.49995,0.131043,8.18725,31.1058,-10.0428,8.72163,31.134,-9.46271,8.04187,29.7024,-10.0649,8.53204,30.0045,-9.67001
6.38077,0.0754595,11.6074,56.4987,6.61046,11.9669,56.2417,7.94923,11.3327,56.5624,7.31007,11.4883,56.4949,8.58659
2.60818,0.0294246,3.92263,45.2826,12.8439,5.31298,45.7095,12.7981,3.91403,44.8649,12.7765,5.22486,45.7317,12.8037
4.99021,0.194675,2.33095,65.4939,5.27885,2.43936,66.5066,6.0077,2.15711,65.3672,4.94188,1.90678,66.3823,6.60035
7.70196,0.340052,2.11572,15.9437,11.4703,3.54949,15.277,12.2172,1.6548,16.3303,11.66,2.42397,17.3262,11.587
5.43667,0.269544,0.327822,2.26556,-4.94959,-0.413152,2.19802,-3.64533,0.278771,2.47287,-3.62918,0.474992,2.50867,-2.74927
1.36749,0.645039,5.57776,46.6538,12.5448,4.65275,47.1312,12.6339,4.56066,46.5794,12.7178,4.44362,46.4612,12.8457
3.44494,1.12439,12.4971,43.6317,11.2409,12.8682,45.6855,10.6836,13.3352,45.4351,10.1346,12.7986,45.6998,10.7953
7.03565,0.0173708,13.084,47.497,9.9804,13.6138,50.3182,7.94619,13.6947,50.1823,7.62894,13.225,48.7732,9.40377
29.6251,0.868647,8.91112,6.77764,-6.6039,12.7657,6.13835,-4.47023,12.4148,6.98428,-5.42097,9.81904,3.95522,-4.92687
7.18713,0.27855,-0.867326,26.6445,-13.6222,-2.10983,26.3142,-13.6787,-2.75336,27.4125,-13.8236,-2.51223,24.8682,-13.8262
2.65166,0.0795347,14.0291,23.4968,-4.33406,13.9988,25.1906,-5.32781,14.0529,24.3573,-4.74806,14.0527,24.3612,-5.42437
1.45454,0.100153,-0.739022,61.6453,10.1317,-1.50471,62.0587,9.25829,-1.64455,61.945,9.21685,-1.63611,61.1022,9.87826
10.1982,0.350081,-6.16974,55.2529,9.82244,-6.75133,53.8146,9.9928,-5.40455,55.9824,10.7386,-4.17317,57.6074,10.0254
2.0817,0.41819,7.52349,61.9404,13.0066,7.80396,61.0297,13.0852,6.83319,60.4997,12.9078,6.92275,60.4831,12.8981
1.01304,0.216895,-8.61052,18.9118,-2.97175,-8.64494,20.1445,-3.3211,-8.59471,20.1457,-3.39839,-8.54269,20.1094,-3.4783
5.14984,0.224381,-2.75377,44.5421,13.3258,-4.4408,44.3365,13.7444,-1.95122,43.8186,13.4852,-2.353,45.4772,13.4787
2.58366,0.124266,-11.006,23.4852,4.80528,-11.3707,22.5534,4.61167,-11.6191,22.0506,4.677,-11.5634,22.4321,3.6983
4.77017,0.339183,12.1626,56.0661,5.94336,11.6136,56.492,6.50854,12.8813,56.3044,5.25316,12.6139,56.118,3.71958
4.75951,1.29427,11.3601,11.3029,-8.57688,11.0033,10.3803,-7.22707,11.3971,10.3532,-7.14283,11.3172,10.7731,-7.20271
17.2367,0.180705,-3.65937,46.2803,-6.15892,-3.34854,46.0947,-8.72219,-3.38518,47.3356,-6.76929,-3.88681,47.248,-4.61213
11.5442,0.204576,5.39147,24.7598,-11.6773,7.62283,25.6038,-10.3989,7.30631,23.4957,-11.1381,7.61877,23.5105,-10.9523
2.95127,0.186891,-6.00176,38.0212,-4.31646,-6.22132,36.9245,-4.2578,-6.16396,37.2052,-4.08498,-6.73215,36.5303,-2.93305
1.72565,0.234196,5.15508,11.5617,13.4473,6.22051,12.9279,13.7138,6.401,12.8929,13.7707,6.15832,13.0856,13.7108
10.771,0.514488,-5.36599,24.425,-9.81419,-6.68111,26.6482,-9.00462,-6.18844,26.4774,-10.2791,-6.89411,28.4229,-9.45251
9.70812,0.175154,-9.7847,18.1576,12.6886,-10.1558,17.5308,13.0022,-6.98924,17.4518,12.9136,-7.15862,17.0606,12.9958
1.15172,0.0336645,-13.3081,10.9758,5.79778,-13.271,11.353,5.76706,-13.0836,11.3212,5.15291,-13.0817,11.4709,5.13704
2.09406,0.142315,-10.5726,24.357,8.4132,-10.9237,23.5829,8.38043,-10.7767,24.2886,9.11372,-10.4843,25.1882,8.13617
2.69563,0.233495,-3.52259,7.90139,13.1668,-2.82012,8.49843,13.299,-3.72966,8.96134,13.5129,-2.79644,8.91744,13.5508
2.3526,0.996938,4.51677,43.5631,12.155,3.54541,43.9614,11.9846,3.50033,43.8099,11.8687,3.46857,43.6469,11.8654
0.631821,1.00791,0.705078,19.2599,11.9721,0.35852,20.0946,13.2281,0.206647,19.8192,13.1523,0.237444,19.9597,13.19
2.69628,1.2809,-5.50357,41.6066,2.43309,-5.00275,41.2883,1.18053,-4.9613,41.7074,1.14688,-5.06484,42.1505,0.970082
3.2,0.171523,-14.1165,8.68565,6.2665,-13.8614,7.98146,7.04774,-13.3767,7.46965,7.15754,-13.2342,7.39802,6.88744
1.08951,0.136579,12.9853,1.05603,8.62297,13.4996,1.1261,7.66402,13.8874,1.3172,7.72519,13.3698,1.07245,7.67519
5.63156,0.112666,-5.99135,22.4495,-4.69889,-5.2772,20.7859,-5.55582,-7.56141,19.3738,-5.11977,-6.9016,21.8157,-4.42256
4.14652,0.51827,12.6785,54.7055,8.65393,12.5717,55.7395,8.30332,11.9525,56.209,8.05349,13.1613,53.9483,8.05206
10.3185,1.72563,1.60175,57.5135,-9.76483,-0.218014,56.1173,-9.44004,0.898944,55.96,-10.2521,0.464603,55.9328,-9.79304
1.99427,0.31133,1.77198,49.0002,12.571,2.5067,49.0341,12.4792,1.56731,48.3493,12.9675,2.464,48.8471,12.4755
5.9901,0.0272584,1.42189,40.6494,-11.6792,3.38087,41.3662,-10.9606,2.66758,41.5781,-11.0903,1.51397,39.6122,-11.8928
35.2313,0.00284044,9.45232,60.8101,9.01919,4.27738,66.2953,4.46468,4.87923,66.1985,5.93821,7.97506,62.1344,7.29033
6.1613,0.92768,2.67785,36.8535,12.5622,4.57732,36.7591,12.9621,5.08521,36.4979,12.8819,4.96546,36.3702,12.9773
2.19808,0.162725,-12.2115,19.2126,10.1125,-11.9306,20.1268,9.80861,-11.5595,19.8594,8.88983,-11.6519,19.5983,8.89277
0.818994,0.139533,-2.40415,18.1715,-5.7188,-2.4684,17.8084,-5.88972,-2.31123,18.0118,-5.78479,-2.16149,18.0359,-5.97427
2.93657,0.26853,12.795,15.1326,10.0894,14.2288,17.1334,8.42862,14.1016,17.1116,8.58751,14.1093,16.5616,8.39562
15.8509,0.040004,14.4549,32.1672,6.35248,14.4557,31.1934,4.5159,14.501,33.4343,6.31007,14.4538,34.4106,3.47171
9.87073,0.0789758,-2.21513,19.9592,-7.84808,-1.2252,16.8509,-7.46208,-1.41149,16.6928,-6.95231,-2.24254,18.9023,-7.1035
3.20846,0.155547,-0.367709,14.8362,-10.0097,-0.393867,15.3965,-10.9528,0.30128,12.3078,-10.6027,-0.0461618,13.1038,-10.1395
2.24698,0.0790176,4.72364,62.2121,-0.639275,3.92436,62.9428,-1.51447,3.75401,63.1071,-1.6153,3.94354,63.0783,-1.13605
8.9592,0.972741,12.6044,12.9359,-9.13029,13.2683,13.4078,-7.24972,13.2294,14.245,-7.73788,13.3951,12.9875,-6.89756
6.07199,0.0140418,4.01372,64.4996,1.36326,3.75766,63.3942,-0.540242,4.26912,63.8034,0.790363,4.77716,63.6879,1.37629
2.13135,0.183629,-5.43883,39.0087,-4.73475,-5.48852,39.193,-4.19559,-5.44548,39.5784,-5.09981,-5.89587,38.2786,-4.31393
5.03084,0.415492,1.01696,2.45149,0.249118,1.94596,2.21093,-0.395786,0.0244029,2.62588,-0.596496,-0.820187,2.64185,-0.410442
0.776761,0.331086,-12.6914,6.58024,1.86193,-12.4726,7.26503,1.4724,-12.6904,7.27748,1.70765,-12.8274,7.33984,1.79486
5.08724,0.036773,-2.81107,2.27525,4.72072,-1.20313,2.17405,5.80512,-1.07523,2.1249,5.78548,-0.876846,1.38388,4.16944
0.803017,0.114632,6.40239,31.3525,11.7422,6.2697,31.0866,11.9455,6.34438,31.9297,11.7277,6.55511,32.0458,11.6693
3.39224,0.047027,-4.53896,48.4917,1.09267,-4.85212,49.758,2.09793,-5.04824,49.248,2.57545,-4.94165,49.3593,2.30693
1.88722,0.386934,-3.51361,11.2924,-6.01416,-3.95489,12.1788,-4.79727,-4.03043,12.1926,-4.63943,-4.13351,11.9098,-4.91343
1.16558,0.119105,-4.55324,43.5838,0.194805,-4.54276,43.9938,-0.329085,-4.79268,43.0668,0.178929,-4.59019,44.0334,0.424001
2.19923,0.116536,-0.174979,64.2163,0.22468,1.4528,65.1102,0.977036,1.45031,65.089,0.767179,1.33137,65.0584,0.976875
7.24604,0.106968,-6.3689,52.5016,11.4109,-7.33671,50.3227,12.2239,-7.06538,51.22,11.3347,-6.33466,52.6628,11.9803
3.16919,0.33301,6.66852,32.5536,11.7282,6.45156,32.0602,11.6746,6.25596,32.9628,12.4135,7.8978,32.6327,12.6772
2.18467,0.155707,14.2396,9.55329,5.24347,14.4386,9.16531,4.69369,14.3669,9.9992,5.08713,14.3906,9.435,5.78503
8.06926,0.631059,-10.3322,25.5025,1.32942,-9.56546,27.7393,1.02637,-9.30836,28.8039,0.409877,-10.2205,26.6693,2.47837
2.24951,0.219514,4.01279,18.0119,11.9619,4.59332,18.055,12.2973,4.65647,17.1951,12.6257,5.1148,18.3893,12.8253
2.03799,0.200207,8.92287,20.3814,-10.6722,9.00284,19.5419,-10.7924,8.47639,20.9184,-11.2048,9.57657,20.5446,-10.538
8.36002,0.146619,14.1559,43.2121,5.04176,14.3855,40.7053,5.80311,14.0969,42.6413,6.75372,14.2603,41.5287,5.05419
47.5413,0.379009,14.3069,19.3093,0.34099,14.4736,10.2882,4.754,14.5045,18.7423,2.60502,14.3972,11.2619,5.44446
5.33829,0.0157129,-6.08014,28.4093,13.1053,-8.17699,29.3887,12.7165,-7.30128,29.5082,12.7155,-8.06142,29.5176,12.6799
2.01968,0.0298388,14.4399,19.8708,-0.025499,14.4758,21.5459,0.216912,14.4439,22.3759,0.210404,14.4027,22.3783,0.132071
2.27847,0.16514,-4.79232,43.0626,0.0843857,-5.02972,42.1117,0.115426,-5.23348,40.7087,-0.254774,-5.29448,40.582,-0.456111
5.07013,0.0199501,14.6188,20.9709,3.69013,14.5166,20.2912,1.39736,14.5631,20.7093,1.46434,14.4627,19.8627,1.03724
4.12557,0.244586,-0.184818,15.3724,-8.76868,-0.177412,14.817,-9.26521,-1.17999,16.6995,-7.48052,-0.585621,14.2175,-8.3683
0.0525324,0.0639851,9.36962,61.3212,12.3486,9.44416,61.1425,12.4769,9.39308,61.1735,12.5284,9.44004,61.1648,12.3977
4.0631,0.163207,1.63679,59.142,-8.6987,0.229753,59.2813,-7.54742,0.627652,58.7164,-8.0945,0.237032,58.9219,-7.74413
26.0065,0.27542,14.3286,14.5059,4.33481,14.3031,17.8578,6.61446,14.5457,18.7268,4.93878,14.5502,18.5869,4.65054
6.33463,0.230837,11.8808,4.37944,11.4106,12.9031,5.00254,10.836,13.2524,5.05772,10.5035,11.7979,2.55329,11.525
9.17802,0.0923166,13.252,4.2991,-1.86128,13.8001,6.49877,-1.59735,14.117,7.26391,-0.689345,14.1498,6.95917,-0.237324
6.5526,0.0748392,-4.39664,13.0201,-4.16033,-5.88575,14.386,-2.43632,-5.72491,13.8677,-2.90918,-4.82876,13.7254,-3.5026
7.77391,0.560994,5.60103,20.7397,13.6449,5.76099,23.966,13.1664,5.71218,23.6913,13.2447,6.43439,23.851,13.6242
1.36157,0.186227,-6.85565,4.48499,-2.54272,-5.97608,4.10825,-3.37344,-6.16146,4.3152,-3.18345,-6.18207,4.64793,-3.30729
13.3758,0.0908472,0.588404,65.0802,-1.04979,-2.13428,62.5058,0.298668,0.34952,64.2205,-1.65324,-1.87737,62.5636,-0.0789306
8.35928,0.00378486,-3.47503,60.864,1.19451,-3.17528,61.0495,-0.0931931,-3.15146,61.2466,2.37527,-2.41782,61.6791,-0.902598
2.16928,0.508686,-3.09209,19.5193,-5.49729,-4.1712,19.9412,-5.65944,-4.12133,20.2325,-5.86669,-3.15929,20.0849,-6.47646
8.4195,0.555395,3.3308,38.9994,12.6808,5.11124,39.7719,12.8358,5.02562,39.4994,12.6526,5.85757,39.05,12.5376
1.85413,0.427629,-7.98597,31.4013,-2.0669,-7.81501,32.9596,-1.80734,-7.733,32.9295,-1.97506,-7.62164,33.036,-2.23965
5.47292,0.338394,11.3355,56.8833,-2.11603,11.2638,56.7659,-3.4734,10.6241,57.0787,-4.08561,11.6858,56.6882,-3.86488
11.8868,0.577763,-8.08771,31.2907,-1.90106,-9.47639,26.9191,-1.15832,-9.50643,26.934,-1.07366,-9.30668,26.2815,-1.80214
4.55592,0.367031,8.08744,39.7033,11.9513,7.62661,39.9637,12.346,9.72311,39.4026,12.9979,7.98014,39.1616,12.0436
6.93944,0.0335816,6.84326,38.5392,-10.6551,8.46863,41.1457,-10.1771,8.35863,41.2911,-10.2125,5.94796,38.7483,-10.8918
3.35517,0.0406072,-3.12713,47.8266,-7.40832,-3.24672,49.6182,-6.02071,-3.1034,48.8149,-7.33501,-3.20093,48.4463,-6.35499
2.64693,0.0513064,-11.6741,17.2134,1.84411,-12.019,16.6095,2.58027,-12.0695,15.7736,2.23487,-11.9889,16.7404,2.57438
1.6482,0.0343786,14.0521,43.2074,2.36121,14.0524,41.6643,1.89574,14.1635,41.9469,1.46732,14.0252,42.0761,2.19947
1.09434,0.225166,-8.16663,11.4996,-2.31511,-8.41583,11.4277,-1.80781,-8.25642,11.1239,-1.91678,-8.23044,10.9238,-1.92264
3.24197,0.111867,-11.7033,19.0959,6.33508,-11.7456,19.7004,6.83561,-12.0489,18.0413,6.92493,-11.8563,18.6825,5.85794
2.09357,0.0373223,13.3255,18.5801,-6.51101,13.5119,16.908,-6.44267,13.1422,18.0083,-7.00569,13.4933,16.7693,-6.52497
5.67408,0.408956,4.12165,46.409,-11.497,4.28316,44.2518,-11.3346,4.83108,44.1149,-11.1805,3.22218,44.3663,-11.6555
1.58784,1.01072,3.17245,36.3206,-11.4023,3.21909,34.5538,-11.3957,3.16517,34.1684,-11.6535,3.08813,34.354,-11.5007
9.23889,0.238694,8.95148,29.4415,13.0476,11.5574,29.319,13.0954,9.93278,29.6493,13.0111,10.5281,30.1169,13.2938
1.03534,0.144441,-1.85191,7.71754,13.3269,-0.818323,8.34672,12.9607,-0.904748,8.3595,12.9915,-0.881905,8.06834,12.9254
0.362963,0.0578061,-8.70106,39.4412,8.90367,-8.79159,39.5122,9.24608,-8.61705,39.1625,9.1523,-8.68728,39.1848,9.31625
89.6372,2.15926,-12.629,6.72409,3.82141,-7.15458,3.75055,2.8997,-7.93494,3.93191,1.78803,-5.35281,3.58093,5.89248
0.608655,0.026225,9.90903,53.0223,-9.05812,9.04502,52.4165,-9.3727,8.97209,52.5961,-9.40136,9.57168,53.0028,-9.16349
4.66256,0.220228,-3.75567,45.0443,13.5129,-2.35687,46.3209,13.5288,-2.84703,46.7114,13.4804,-4.0483,45.822,13.6279
1.41888,0.316119,-4.24418,15.9627,-5.73802,-4.04858,14.6471,-6.13217,-4.32626,15.3046,-5.74227,-4.16386,15.1117,-5.86164
1.12347,0.0520624,-2.04402,2.52236,-1.74261,-2.91576,2.57151,-2.42423,-2.49494,2.53854,-2.42439,-2.48378,2.50533,-1.75899
22.954,0.980561,-1.23826,50.2159,13.6947,-0.667901,52.525,13.6756,1.78795,49.7227,13.1523,0.808024,51.5094,13.6288
0.143563,0.0353459,12.9953,56.3989,6.8847,13.1585,56.0223,7.11906,13.0927,56.1726,7.14471,13.1698,56.0277,7.01895
0.788979,0.356522,-8.24545,33.9653,7.0665,-8.52092,33.6142,7.50195,-8.54028,33.9127,7.55631,-8.55616,34.0701,7.53957
2.11927,0.723667,4.78818,3.83967,6.396,6.65485,2.60377,5.35521,5.52843,2.19472,6.18874,4.88039,2.8186,6.09229
7.41811,0.0165864,14.5237,28.8177,2.38953,14.4766,30.6067,2.65926,14.4815,30.3348,2.96374,14.501,29.1048,1.11835
4.78077,0.0792871,10.1041,16.8186,-11.0213,11.2501,18.4385,-10.308,10.853,16.4611,-10.7069,10.5587,18.5402,-10.549
4.83585,0.0837345,-9.03973,18.021,-0.936128,-9.30238,18.6124,-1.56263,-9.03392,17.5002,-0.556603,-10.6126,17.944,-0.643454
0.761296,0.104571,-7.26734,35.3253,-0.270288,-7.06077,35.2905,0.270879,-6.87952,35.6739,0.371215,-6.90705,35.5479,0.388464
2.17214,0.302005,0.922135,64.9906,4.83922,1.45049,65.6044,5.45596,1.16262,65.2008,5.27105,0.337731,64.9748,5.25738
0.487098,0.094635,9.61124,57.7631,-1.69382,9.43359,58.0435,-1.65565,9.93912,57.4873,-1.35236,9.97265,57.5336,-1.59129
10.809,0.131726,14.5459,25.9429,3.92734,14.5236,27.6991,2.42365,14.4907,27.8487,0.959476,14.6331,26.0297,1.32963
3.57614,0.0655539,10.3594,23.2969,-8.12099,8.9846,24.019,-8.91529,9.70497,23.3313,-8.61378,10.7913,23.5103,-7.87195
0.0404204,0.103303,-5.14453,5.91231,12.902,-5.04668,5.75184,12.7229,-5.2466,5.57083,12.5096,-4.76617,5.71793,12.8472
9.00193,0.177353,-1.68493,49.353,-10.7879,-2.10143,45.4324,-10.8617,-1.33333,47.6627,-11.5455,-1.37673,45.6641,-11.6329
6.16124,0.616416,5.38477,35.2679,12.0325,5.12179,34.7733,13.0243,5.97537,36.8843,12.6518,6.15636,35.2816,12.1714
4.87302,0.539324,3.21013,3.24205,6.76656,4.1471,2.9093,7.06456,4.67053,2.35776,5.86654,4.5582,2.45243,6.39865
2.21163,0.222104,-7.95425,7.09151,12.8546,-7.72813,6.45027,12.9932,-8.34668,6.82779,13.0366,-7.92966,7.51531,13.138
7.2716,0.0125653,13.9053,22.6631,-4.07339,14.0001,22.3981,-5.76103,14.0424,23.373,-4.52805,13.7789,20.9744,-5.25795
24.2702,0.174127,8.09466,14.5195,13.241,6.62345,15.7994,12.6044,2.77672,16.257,11.7829,4.02766,15.181,12.4836
3.53169,0.128455,10.4927,24.9988,13.3762,9.30846,26.3896,13.62,9.92553,25.8292,13.448,9.31158,25.9517,13.5571
3.29442,0.0341539,10.5845,19.1077,12.611,10.8722,18.3287,12.4302,10.1619,15.3474,12.451,9.95586,15.6755,12.539
6.53425,0.582143,-4.09381,2.42284,0.679842,-1.25039,2.62404,-0.534016,-2.99105,2.61461,-0.961958,-2.12404,2.54223,-0.569614
1.58755,0.108684,12.9935,55.1526,-4.40428,13.081,53.8879,-4.69794,13.0187,55.1519,-4.90747,13.1405,55.293,-4.1696
5.22136,0.146944,-8.81662,13.1242,13.1475,-7.66721,13.6115,13.2378,-10.0097,12.2418,13.3702,-7.54264,13.3002,13.2476
1.17262,0.440835,-2.41064,2.63401,-4.02602,-3.4787,3.06586,-4.49065,-3.76477,3.08862,-4.48562,-3.20415,3.01165,-4.49178
2.34718,0.228722,7.98463,35.3283,12.5593,7.77961,37.0746,12.446,8.01711,37.3144,12.4622,7.76355,36.5076,12.5402
8.0545,0.0039636,-0.153238,56.6724,-8.5597,-0.520831,58.9691,-7.10638,-0.125852,57.9966,-7.74489,-1.01566,55.567,-9.17414
7.2828,0.0955251,-5.14645,26.3425,12.7479,-6.18267,26.5324,12.3527,-4.01777,25.9931,13.4001,-4.95012,28.4576,12.9503
2.79837,0.256868,-8.41111,34.4802,12.2599,-8.7032,33.095,11.9444,-8.68769,33.6601,11.5932,-8.72202,32.3801,12.0633
3.71093,0.151023,-2.23352,50.1358,13.3699,-3.17271,48.7631,13.4404,-2.91249,50.423,13.4687,-1.66702,50.0294,13.566
5.36349,0.1969,-6.51177,17.6305,12.7114,-6.3103,19.0268,12.7274,-5.45034,19.4363,12.9283,-5.47203,18.2945,13.133
1.2807,0.123182,14.2416,15.3778,-0.25034,14.1484,16.7701,-0.352009,14.1787,16.6411,-0.447918,14.1377,16.7709,-0.241924
7.03532,1.4756,-12.9431,11.2739,4.62681,-12.5205,13.3225,4.42771,-12.6625,13.8228,5.0995,-12.596,13.6554,4.94509
0.4069,0.1151,0.438385,58.7119,12.7439,0.228491,58.0335,12.9379,0.0506082,58.0696,12.9294,0.0972264,58.3511,12.896
0.734187,0.0322517,12.8823,0.74584,7.13424,12.6691,0.616418,6.80653,13.6249,0.948076,7.06222,13.4527,0.93547,7.15718
0.709018,0.000812788,0.188511,55.129,-10.5291,0.900673,55.9217,-10.3224,0.788375,55.8453,-10.3201,0.264399,54.9087,-10.7239
2.94101,1.27036,14.5191,26.9832,6.72664,14.3818,24.8605,6.24616,14.4352,24.8685,5.73143,14.415,24.8669,5.93989
6.49288,0.020344,13.576,46.9238,-5.12582,13.7074,49.7366,-4.0667,13.6937,48.6217,-4.33439,13.5094,49.7235,-5.06676
0.617941,0.0935058,14.3898,34.6825,4.75748,14.2947,33.9681,4.90623,14.2349,33.8347,4.73078,14.2695,33.9725,4.82036
4.43305,0.147213,13.8026,41.788,3.8456,14.1187,44.1806,3.00282,14.1313,44.046,2.01894,14.0075,43.4781,2.56918
5.87204,0.156331,6.52981,43.6202,12.524,4.60466,43.5604,12.1789,4.54585,43.7477,12.1117,6.29826,42.8024,12.8511
5.59604,0.937023,6.4626,58.6041,11.4571,5.63973,58.2023,12.4167,7.01113,60.054,12.7987,7.06811,57.5914,12.0741
2.99742,0.182224,-6.2479,51.7643,4.5103,-6.71883,53.4499,4.56274,-6.16841,53.0201,4.38833,-6.31937,53.2031,4.4211
1.09253,0.327403,3.79815,17.9037,11.9494,3.10303,18.2255,11.8322,2.74667,17.9729,11.6044,2.77019,18.1085,11.6085
0.75493,0.182891,3.80913,60.7247,13.0804,3.97127,61.527,12.9955,3.67107,61.4462,13.0162,3.71602,61.7299,12.9173
4.708,0.187693,-9.25071,42.5344,10.5836,-8.49231,44.8189,11.3397,-8.52239,44.4014,11.3717,-8.98802,44.3241,10.2775
7.11725,0.00147226,-1.76364,19.1534,-10.1266,-1.00393,16.7706,-10.9003,-1.027,17.3011,-11.864,-1.31122,17.9394,-11.0338
24.8124,0.867699,-11.3426,6.70997,12.0856,-14.4937,8.79261,10.2389,-7.2342,5.71808,12.236,-6.01219,4.85682,11.1821
2.3329,0.577521,0.761031,35.1098,-12.2103,2.94623,36.5071,-11.426,2.57343,37.0079,-11.5989,2.60487,36.6808,-11.5298
0.442597,0.0150414,-9.71557,14.4611,-0.122311,-10.2002,14.7433,-0.0506518,-10.2777,14.0353,-0.354994,-10.3785,14.4986,-0.165618
2.61369,0.0140639,-3.19033,57.8617,10.4443,-4.28068,57.2574,10.8253,-3.33747,58.1282,9.84192,-3.78815,58.3599,9.04233
0.726071,0.0211283,14.4381,12.1369,2.96683,14.3929,11.4241,2.71422,14.3924,11.5598,2.89874,14.4029,11.4262,2.61303
2.08101,0.0434515,11.8415,3.16076,-0.668371,11.7358,1.81081,0.0281751,11.4525,2.62063,-0.293489,11.3855,2.29152,-0.127558
7.91274,0.451032,-6.45625,46.19,3.73557,-5.91677,48.8118,4.2803,-6.12643,48.4425,4.44099,-6.04874,49.8631,4.60549
40.4133,1.86939,-6.50386,15.4448,-0.231176,-11.0556,15.9828,-0.0407296,-8.11327,17.5092,-1.87989,-8.26557,17.0104,-0.470734
18.3638,0.313779,-10.8192,24.3098,9.29047,-11.6412,20.6267,9.45371,-12.3325,20.143,11.5169,-11.6568,21.6537,9.90574
3.76134,0.00507292,14.5844,25.8804,3.09555,14.6083,25.1832,3.0165,14.6544,25.3449,2.12471,14.6206,24.3226,3.32195
6.03651,0.164056,-8.28104,38.3661,8.86474,-8.5422,38.4514,9.64132,-8.28943,38.0395,8.03123,-8.96045,40.6241,7.43328
1.47174,0.0793371,2.26376,63.03,11.221,2.92923,62.7594,12.3214,2.74985,62.8799,12.0135,2.79662,63.2276,11.7023
12.4439,0.781563,-6.37438,29.1082,-10.7118,-5.20403,31.6737,-10.9422,-5.05594,32.3593,-11.1572,-6.52784,29.7584,-9.86722
5.74701,0.0930541,-2.10829,35.0264,-12.4297,-0.645213,34.2406,-12.5176,0.472896,35.4622,-12.2424,0.637897,33.9583,-12.4516
46.6085,0.0366016,14.4589,25.965,5.00779,14.6325,22.2359,3.46714,14.6809,23.9962,2.60325,14.5228,23.2161,4.45826
2.14974,0.0941297,-4.48726,50.1897,13.2746,-3.88425,49.9095,13.3119,-3.49521,49.9684,13.339,-3.06705,50.1745,13.4079
2.23333,0.0849624,6.17394,64.6861,8.90155,6.36858,64.3492,8.24052,6.33654,64.3389,7.86238,6.65513,64.1269,8.39976
40.1037,0.699123,-5.26297,38.0799,13.154,-2.11604,39.8608,13.5703,-6.24067,42.4261,13.8206,-4.86643,41.8671,13.7298
12.4069,0.139632,-13.7475,13.2828,10.8881,-14.3063,10.8003,10.4145,-14.5435,10.3076,11.1717,-14.507,10.5988,11.6327
17.7803,0.132146,-9.53659,28.4563,5.27098,-9.30027,29.3168,6.79385,-8.31792,31.351,6.1975,-8.99248,29.858,4.1214
2.45833,0.107617,2.35809,62.4174,-4.44299,3.19719,62.458,-3.88535,1.63103,62.7796,-4.71926,3.25973,61.98,-4.57099
6.52562,0.674614,-12.0349,18.0683,7.60515,-12.6151,15.1812,7.36363,-12.5382,15.5968,7.63163,-12.6155,16.0643,8.22789
3.39646,0.151152,-11.6727,17.9325,1.8679,-11.4848,17.8419,0.59912,-11.5777,17.4415,0.795798,-11.634,17.3432,1.65501
19.5961,0.0502142,-4.97332,40.8326,0.759129,-6.3248,36.5998,1.7864,-6.15127,37.1041,1.21324,-6.41384,36.3772,2.93615
0.126636,0.00258717,3.46465,66.4249,4.33453,3.18881,66.3339,4.56434,3.36099,66.3408,4.61452,3.21475,66.3186,4.63318
2.99824,0.506976,3.61643,27.6776,12.9904,4.23686,29.8334,12.8229,3.83362,29.6289,12.9226,3.85053,29.335,12.8276
6.71193,0.239101,-6.90673,33.3642,-7.89628,-6.97499,33.0122,-6.25328,-6.36391,34.8265,-7.61323,-7.14401,32.1817,-6.4042
2.94805,0.34572,3.91159,11.7915,-13.3274,3.74135,10.5094,-12.9772,3.07586,10.4234,-12.9327,4.31353,10.14,-13.0182
2.71196,0.280515,-8.34909,31.2353,6.86361,-7.89841,32.5558,6.46644,-7.90856,33.1401,6.49887,-7.79187,32.8059,6.18123
12.8578,0.224345,12.2193,47.9743,11.4544,10.7218,48.8611,12.4119,11.1426,46.196,12.7167,10.7477,47.0026,12.8975
3.35371,0.0644182,2.24329,55.7664,-11.0448,2.83371,57.7279,-10.7176,2.16269,56.8162,-10.9426,3.72489,57.336,-10.5052
3.35508,0.197858,-3.72596,60.2526,-0.749375,-3.28029,60.095,-1.83784,-3.58529,59.749,-1.60581,-3.01913,60.8662,-1.75971
3.90112,0.0319753,1.05378,52.7377,13.5285,1.12692,53.5812,13.4244,1.69694,51.3227,13.5724,1.0792,51.0205,13.6326
2.05956,0.293935,1.24904,19.2246,-13.4597,1.63464,17.5286,-13.5538,1.81338,17.6921,-13.5693,0.530537,17.2222,-13.5388
2.16105,0.30532,4.35058,32.4978,12.2045,5.44633,32.5747,12.63,5.58062,32.6921,12.7068,4.24542,32.9821,12.8759
3.51979,0.106582,-2.11189,52.3177,-7.22591,-2.27273,53.5085,-6.92795,-2.02017,52.7035,-7.72051,-2.46561,53.139,-6.46515
9.98411,0.20342,-4.0529,45.5975,-0.549735,-5.07067,42.5914,0.917056,-4.48811,43.9537,-0.68965,-5.04666,42.1241,0.496532
2.16751,0.0973959,9.12518,35.6445,-9.89282,11.0282,35.4877,-9.20044,10.5067,35.7267,-9.42429,10.5193,36.0209,-9.51555
1.14081,0.0697995,-9.11994,28.4098,11.184,-8.59259,27.1751,11.4617,-8.98889,27.3756,11.1175,-9.23375,27.9828,11.0456
20.183,0.908146,-7.16444,28.5169,-8.68228,-7.30158,30.7197,-8.29454,-7.10293,25.1415,-6.6113,-7.68557,26.9826,-6.9476
16.2517,0.134838,14.1649,10.3217,-0.595425,14.1499,7.50502,-0.346856,13.9071,7.95746,-3.09046,14.1305,7.50693,-0.544331
0.889364,0.368669,13.7559,19.5565,-4.92825,13.7336,19.8499,-3.76143,13.7906,19.4333,-3.96388,13.7564,19.5648,-3.85574
19.2093,0.682582,3.13835,62.8919,-3.28446,5.81334,60.4917,-2.53729,5.73135,60.6114,-2.26532,6.409,60.355,-1.49671
3.00142,0.123279,11.2744,6.41312,12.3418,12.3131,7.466,12.0826,12.1433,7.07526,12.1429,11.3335,7.54499,12.4701
3.08228,0.146534,-5.19127,51.0425,3.38546,-5.79735,51.488,4.00549,-4.97898,52.279,3.21601,-5.32744,52.3776,3.66587
0.685519,0.00329773,7.97381,57.707,-9.32662,8.40874,56.465,-9.16996,8.28426,56.4607,-9.21809,8.016,56.8497,-9.31929
8.75041,0.482476,6.14625,49.0922,11.3654,5.55553,49.2115,11.7208,8.34662,48.6533,12.5645,7.68131,49.5013,12.5798
8.95437,0.0725377,-8.21663,5.31945,-0.593845,-7.13386,6.15711,-1.02542,-7.60742,6.60162,-0.835283,-9.7274,6.68129,0.094371
2.39678,0.690718,14.0712,47.2655,2.17876,13.9864,47.257,3.18765,14.0736,46.6932,3.45178,13.9741,47.1071,3.28354
2.86794,0.811942,8.62828,20.2372,13.1561,9.67224,20.8872,12.838,9.51761,21.06,12.8352,9.77583,21.2885,13.0002
1.80317,0.120119,-0.682479,59.334,-6.62361,-0.982201,58.6312,-6.97745,-0.588551,59.8691,-6.5516,-1.13747,58.659,-6.9121
31.4114,0.0611562,-9.73495,29.5241,9.51728,-10.6563,24.6788,9.00969,-9.91091,27.2103,8.37715,-10.4097,25.3258,8.62931
2.6761,0.513877,1.52693,57.6791,-9.60623,2.49971,59.6419,-9.06276,2.03688,58.5702,-9.65406,2.22752,59.1084,-9.37075
5.5765,0.260741,-5.36344,42.6982,1.87134,-5.01304,46.3361,1.66993,-4.9632,46.0378,1.52289,-4.71992,46.2463,1.18873
7.86044,0.366002,-7.71937,32.0155,12.6491,-8.42378,31.9899,12.2476,-4.94122,31.4271,12.5589,-6.26298,31.4187,12.5275
2.4699,0.24842,4.88882,4.28262,11.9421,5.33126,3.80042,12.5498,4.43634,4.44538,11.9225,5.02999,5.13972,12.4908
7.85629,0.18628,-6.71457,24.9359,-7.62692,-4.70694,21.6395,-6.74559,-4.74989,21.7786,-6.82189,-4.6821,22.1983,-7.30673
1.80709,0.197765,10.9384,2.74937,11.8196,11.0483,3.16965,12.0787,11.5103,2.48038,11.6571,10.6633,2.35058,12.1303
9.13497,0.382547,7.11177,6.68908,12.1855,7.36876,5.64329,12.3825,8.43247,7.74968,12.9634,8.49126,6.42487,12.6829
2.32387,0.0237616,-8.44785,11.6247,13.3503,-10.201,10.8505,13.4236,-10.2915,10.8676,13.4249,-9.93551,11.2208,13.4109
1.93567,0.0993463,-7.46343,11.4247,13.305,-7.94826,10.8196,13.4304,-7.0111,11.2071,13.5188,-6.85684,12.0222,13.4052
9.76949,0.284528,2.94197,58.7463,12.4381,3.7768,60.5904,13.0584,4.90382,58.1977,12.5381,5.53718,58.5013,12.5718
10.3573,0.264241,-6.82939,15.699,12.6017,-6.37686,17.3278,12.776,-7.08388,13.342,13.094,-6.15629,13.1585,13.302
1.50354,0.165335,-6.80347,35.804,0.483536,-6.2785,37.1133,0.495073,-6.80485,36.2239,0.244437,-6.33202,36.9872,0.585995
0.0250131,0.142596,-8.16745,15.0617,0.109889,-8.23225,15.2336,0.157778,-8.65066,14.8934,0.0485062,-8.58276,15.0134,0.183561
24.5207,1.08137,-11.3121,21.3229,12.4782,-8.82719,19.0985,12.7316,-6.85917,19.8613,12.8846,-7.67275,19.7334,12.748
3.75534,0.121718,12.2509,17.4212,11.1321,13.2194,16.447,9.57561,11.6006,16.7271,11.744,13.3698,16.8466,9.40396
1.64926,0.319576,3.5122,4.30057,-3.58747,4.21793,3.58474,-3.7236,4.08853,3.6931,-3.9814,3.83104,3.88039,-4.31221
5.9598,0.149086,-2.03206,53.1478,-7.3879,-1.81681,55.2419,-7.45902,-1.84627,55.3923,-7.38218,-1.34211,55.6544,-8.61278
1.26871,0.619363,-2.36657,20.2669,-9.5674,-1.74615,19.1585,-9.93433,-1.86061,19.2368,-9.46386,-1.81219,19.2735,-9.6342
1.24679,0.308412,-9.62088,26.6285,10.3717,-9.65453,27.3607,10.2718,-9.60085,27.2109,10.5969,-9.89522,27.8451,10.0383
4.63588,0.0106145,-11.0379,7.95104,0.709825,-10.6745,6.03273,0.614807,-10.7803,5.60469,0.627325,-11.9422,8.85641,0.861632
2.63739,0.0548584,9.74384,58.6723,4.53612,9.85195,58.6801,4.78971,9.68092,58.6748,3.67688,10.1918,58.099,3.53622
7.82385,0.0307216,14.1111,32.5494,1.19189,14.365,32.7288,2.9517,14.2644,31.6251,1.47218,14.3388,31.4689,1.91553
10.9124,0.654103,1.10462,3.01143,6.43464,-2.47245,2.80037,6.85439,-2.1487,2.91918,7.20723,-2.65232,2.93924,8.75119
7.8764,0.111885,0.940443,18.0093,10.496,2.68476,18.1358,11.5669,0.585221,16.5507,11.7666,1.72004,18.071,10.8592
7.97887,0.43711,13.8441,33.2641,0.681048,14.1318,35.1093,0.736179,14.0837,34.9452,0.961561,14.4679,30.7852,0.808222
2.7777,0.384007,1.4172,19.8785,13.0183,0.685982,18.0711,10.6283,0.671721,18.663,11.1982,0.636813,18.2231,10.7681
6.5315,0.4036,9.05301,58.0003,-3.60036,9.09528,58.3171,-2.15861,9.61983,58.1181,-2.27742,10.2853,57.314,-3.42176
13.0313,1.81581,-7.11202,22.0298,-4.02996,-7.94322,23.7319,-3.01907,-7.05124,24.0303,-3.62801,-7.27598,24.4275,-4.0845
10.0398,0.653928,12.295,27.5878,-7.37467,13.6514,26.2771,-5.41676,13.1881,25.8429,-6.59856,13.6566,26.4176,-5.42325
0.496142,0.0344107,5.03599,65.2455,9.00764,4.57601,65.4918,8.47921,4.81461,65.1073,9.24062,4.55636,65.0017,9.33238
9.8409,0.301577,-8.89052,11.7711,-0.361438,-9.97393,12.3327,0.109231,-8.1459,10.572,-1.12507,-9.5609,13.1593,-0.673189
1.27543,0.482878,-0.558415,59.7793,12.7249,-1.14239,58.752,12.8273,-0.849865,58.8302,12.7978,-0.942319,58.8474,12.7761
9.76759,0.310245,13.6872,14.5561,7.8859,12.2879,14.2498,10.6784,14.1484,13.7663,6.66124,12.0204,14.6084,10.9841
13.9308,0.588338,-7.08594,6.57432,-1.45472,-6.61066,6.72842,-3.18556,-6.66548,7.38962,-3.36022,-7.29166,7.95253,-2.71549
5.93268,0.500203,-7.14622,14.7871,-0.759224,-9.55885,13.6678,-0.770014,-9.15592,14.3126,-0.336932,-8.57386,13.9635,-1.36354
3.60854,0.223604,2.70018,46.1164,-11.7557,1.96731,45.1129,-12.0067,1.887,44.3055,-12.0569,2.04846,43.9958,-12.087
1.94846,0.222235,0.666254,60.437,-6.53035,0.498505,61.2001,-5.83973,0.480795,61.2539,-5.76237,1.19039,60.6042,-6.87377
3.12067,0.00587856,13.7848,5.79103,0.21697,13.8785,5.53523,-0.404127,13.9783,4.6869,0.171748,13.9617,4.68104,0.373543
23.7272,0.641378,4.20934,2.24758,5.49545,7.48546,2.05898,2.90057,4.92312,2.55847,3.30093,6.8528,2.54622,2.37545
3.10564,0.143831,14.5692,20.1346,3.72856,14.4994,18.8673,2.80429,14.5069,18.8682,3.08819,14.498,18.8751,2.70442
1.98045,0.128367,3.03346,53.9592,-10.8422,3.52054,53.6879,-10.8424,3.2532,54.9732,-10.8655,2.27526,53.7466,-11.2129
1.29054,0.0975666,-1.89697,56.1443,-6.81991,-2.05658,56.1888,-6.58546,-1.98257,56.7328,-6.91006,-1.86863,55.4024,-7.29869
3.61606,0.346399,6.58471,39.5968,12.135,6.22659,38.6656,12.4005,7.49628,39.8478,12.2699,6.3186,40.2224,12.7498
10.8209,0.250933,-7.33445,43.4301,4.83124,-8.48355,40.2011,6.86453,-7.91821,40.3266,6.25363,-7.6381,41.0953,5.67571
1.1384,0.236091,-5.17649,20.8958,-5.63139,-4.54951,20.2483,-5.76976,-4.47744,19.8737,-5.7171,-5.16477,20.0499,-5.75351
1.82135,0.157114,-8.6865,28.0298,11.4978,-9.11949,29.4451,11.9411,-8.63623,28.7833,12.576,-8.66532,28.9269,12.6134
3.92192,0.00500671,-1.77584,18.755,-8.95517,-1.67625,18.2859,-8.4438,-1.87752,19.2144,-9.27431,-2.26442,20.285,-8.2928
17.0939,0.418387,14.1118,12.7093,-0.53731,14.0237,11.8912,-2.72756,14.4344,9.3103,4.59773,14.4743,9.59535,4.37716
2.11058,0.306445,-6.26499,19.8716,12.4428,-6.40992,20.1744,12.803,-4.96572,20.2059,13.1852,-5.02979,20.3498,13.2032
18.2257,1.07913,-4.7714,42.989,-5.45803,-5.55894,39.8189,-3.2349,-5.51094,40.0937,-3.06148,-5.49883,39.2018,-4.11338
1.66098,0.0621249,-6.18294,22.6168,-4.66689,-6.82418,23.9009,-4.95591,-6.95971,23.8097,-4.81002,-7.06367,24.0776,-4.87453
15.603,0.36833,-9.67608,26.7093,-0.428911,-8.26583,31.9707,-0.302536,-8.04567,32.4893,-0.486625,-8.288,31.5242,-0.928541
13.5599,0.87765,-8.30965,31.6802,3.36381,-6.6168,34.5588,3.07818,-7.7855,33.8871,4.04026,-6.62591,34.8804,3.71059
8.14603,0.303657,14.4082,23.9239,0.193364,14.6902,22.9472,2.55374,14.4317,26.7306,0.317537,14.3905,27.2967,0.0319635
0.776919,0.41779,13.814,51.7054,4.02712,13.6758,52.5532,4.16102,13.7194,52.6974,4.14784,13.6986,52.4074,4.24849
56.044,0.179039,-8.17188,5.26682,9.04295,-13.2327,7.44379,7.62736,-13.163,7.32321,6.31453,-11.239,6.33916,5.63069
5.18728,0.165027,13.7183,52.1084,-2.56083,13.6674,53.9303,-2.29499,13.6747,52.9376,-1.69235,13.7006,52.386,-1.50324
5.54014,0.774513,-0.219447,45.7089,12.0134,1.19404,45.2856,12.8772,1.41258,45.388,12.9471,-0.661966,46.9669,13.2875
4.78943,0.255732,2.91414,49.5781,-10.9515,1.96349,51.9528,-11.3936,2.08616,49.2045,-11.4859,3.40868,51.6649,-10.9716
4.61488,0.225456,10.4092,32.5114,-9.0339,9.11232,31.5795,-9.41388,8.77144,31.7137,-9.68544,9.78356,34.1446,-9.60979
11.3537,0.347566,8.1108,58.6695,12.6461,8.59837,56.1465,12.5399,8.93526,55.932,12.6074,9.5287,56.9424,12.6328
12.3706,0.199105,12.9834,43.2873,-6.87698,13.5448,41.6391,-5.59271,13.7957,42.4838,-3.1784,13.7385,41.7861,-4.11218
0.668156,0.144268,-8.372,34.7517,12.1514,-7.78204,35.1741,12.8395,-7.73529,34.8768,13.0321,-7.65893,35.2893,12.923
3.14604,0.114714,7.20846,3.23801,12.5146,6.91253,5.31826,12.2596,7.65225,2.93244,12.7048,7.17983,5.25678,12.2829
1.66269,0.556868,-9.12166,9.15995,-0.507291,-9.31801,11.0041,-0.407598,-8.97219,10.6068,-0.733782,-9.41342,11.0337,-0.346122
16.7356,0.402485,-5.60719,14.4204,-3.12466,-4.66932,15.7199,-5.28897,-6.12709,15.5267,-4.3325,-4.87627,16.2889,-5.65087
1.89669,0.286822,3.48251,38.8302,12.6335,3.59114,37.3816,12.9867,3.49793,37.9607,12.7283,2.84801,37.9543,12.9434
3.71635,0.0837112,-3.01141,61.3654,3.01856,-2.68505,62.0176,3.3139,-3.14481,61.2406,2.46621,-3.64495,60.7175,3.73034
1.83989,0.204078,-10.8984,12.3491,0.484949,-11.5259,13.4103,0.405577,-11.8775,12.6942,0.692723,-11.4935,12.7942,0.615041
3.1683,0.339387,7.27077,2.67476,5.1229,6.96618,2.11983,4.77783,6.73174,2.5976,5.40656,7.72265,1.9871,4.90647
4.42249,0.267949,14.3119,37.4733,5.80362,14.1517,38.1683,4.28458,14.3583,36.7683,4.43466,14.2306,37.3363,4.66562
0.478166,0.0247196,12.5143,33.2046,11.687,12.5716,33.493,11.5673,12.8559,33.7046,11.1997,12.8251,33.5708,11.2421
1.4981,0.231518,3.70279,22.1183,13.3436,4.5165,22.8083,13.4722,4.67148,22.636,13.4984,4.57294,22.6492,13.4674
3.63538,0.0111783,-7.94261,40.0475,6.27435,-7.57121,38.895,4.88997,-7.43903,39.7316,4.93203,-8.12586,39.3779,6.3934
23.4606,2.275,-5.74629,37.515,-8.29442,-6.12781,35.2225,-6.91524,-6.07053,35.5229,-6.45189,-6.52878,36.1113,-5.02737
4.30144,0.295282,1.10547,4.87548,-7.33382,1.37235,4.90637,-8.04179,1.02071,4.24302,-7.04644,0.102536,5.35064,-7.68172
2.86652,0.355683,4.35613,40.4979,13.1119,5.49196,39.8372,12.8371,4.4623,39.7641,12.9939,5.87482,39.8915,12.799
5.22732,0.184059,13.6865,41.2253,-3.98779,13.0764,40.6362,-6.28242,13.0884,40.7743,-6.27797,13.9413,40.6864,-3.68027
2.63016,0.0957282,3.34138,20.9137,13.1518,3.25527,21.3407,13.2484,2.37721,18.4763,11.5598,2.29338,18.4918,11.5505
1.89701,0.188273,2.50341,64.0287,9.20272,2.96651,64.3376,8.77836,2.07615,64.1141,9.74174,3.28224,64.4077,9.20364
11.4897,0.0859644,14.1654,39.0046,7.88707,14.3849,37.9079,6.84719,14.3945,37.057,7.06432,13.6205,39.2584,9.84912
1.95439,0.293615,1.76622,2.92134,8.38813,0.0347535,2.93979,8.14637,0.0423245,2.94686,8.24542,0.469549,2.9966,7.98478
5.14239,0.102169,12.6076,56.1019,3.63578,12.9063,56.4557,0.741298,12.612,56.5187,0.957087,12.3167,56.509,1.80121
2.32408,0.0342548,3.76286,62.0049,12.8041,4.64836,61.6855,13.0062,4.67579,61.8254,12.9653,3.77789,63.1603,12.4864
1.22964,0.180953,12.5329,22.2248,11.4027,11.9391,22.6566,12.0755,12.0344,22.3356,11.8262,11.819,22.1115,12.05
9.21744,0.575275,6.35583,56.625,11.6979,7.48429,54.8068,12.6437,6.64695,57.4117,11.9799,5.40555,55.9678,12.7988
2.66263,0.122585,-3.96341,47.3277,-3.11139,-3.92047,47.263,-4.43247,-4.42037,46.4211,-3.53068,-3.84153,47.3918,-4.51781
7.39445,0.1399,-2.96811,21.4096,-10.0639,-3.67639,22.8724,-12.0176,-4.09104,23.5682,-12.2211,-3.65497,22.8354,-10.5525
6.59859,0.300894,13.7409,41.3666,4.17783,13.9168,41.0916,3.15508,14.2108,39.8262,4.32371,14.0307,41.3811,2.40267
1.13829,0.33419,1.01129,49.6206,-11.5388,-0.0767382,50.4122,-11.6542,-0.200852,50.3102,-11.646,-0.0879023,49.9786,-11.6917
2.92231,0.417224,-8.90576,16.259,12.3654,-7.10138,16.1812,12.6331,-7.33252,15.9277,12.6791,-7.19225,16.207,12.6387
17.3692,1.52782,11.4718,4.26564,-1.43568,11.8984,4.7365,-3.99998,11.138,5.02591,-4.86237,12.7318,4.66451,-3.29369
7.41893,0.0525339,-4.99319,41.8724,-2.23929,-4.60925,43.824,-1.37837,-4.74646,43.6315,-3.41683,-4.81419,42.8244,-2.483
1.59175,0.107828,-4.11282,23.5009,-10.9276,-4.75323,23.9642,-10.8888,-4.15113,23.2462,-10.5238,-3.5416,22.76,-10.8651
0.981784,0.154682,2.99535,22.2641,13.4498,2.75646,21.5874,13.4553,3.2826,21.4838,13.2547,3.04752,21.6761,13.3278
62.3567,0.79071,-8.53445,49.7211,7.97013,-7.3242,45.5758,4.79046,-8.20838,41.6968,6.49646,-9.35763,45.6226,8.08502
0.484774,0.0595494,-13.6563,7.7275,8.49183,-14.2565,8.1617,8.4288,-14.2478,8.33278,8.75922,-14.2099,8.35611,8.8669
7.41841,0.273542,-0.959479,13.7437,-7.67791,-1.21391,15.9959,-6.62572,-0.496904,12.7155,-7.64909,-1.00017,15.2322,-7.25288
7.59115,0.228287,14.358,13.2424,4.24725,14.2213,12.2289,6.27593,14.0638,13.2024,6.51243,14.0397,13.4747,5.9274
4.64609,0.16053,12.7825,0.694382,2.76322,13.1462,0.606718,2.06175,12.0402,0.358697,3.98014,13.2202,0.130941,2.95866
3.60382,0.224391,8.2214,61.9219,12.5509,9.01736,61.615,12.6287,8.20569,63.2069,12.5485,7.94513,61.2752,12.9848
14.0452,0.178861,0.88647,65.1249,2.1649,-0.733797,63.9218,1.61907,-1.74797,63.134,1.67697,-0.125174,64.1829,0.825365
0.249933,0.041972,6.82836,57.2319,-9.7487,7.77637,56.5678,-9.42284,7.58858,56.4269,-9.45764,7.75417,56.4305,-9.41758
3.20537,0.173686,-6.11611,49.6617,13.1528,-6.29942,50.437,13.395,-4.5784,50.2031,13.2782,-4.75485,50.2467,13.2916
8.19883,0.566295,-5.7604,40.5189,2.4754,-6.27374,37.6386,2.83538,-6.32825,37.3589,2.75539,-6.71826,37.493,3.58742
4.73503,0.123706,14.3973,29.3559,7.99784,13.8651,29.8704,10.0599,13.8446,30.1432,10.0666,14.4078,30.3237,8.17495
4.16915,1.18003,5.32672,49.271,12.0925,3.70055,49.3136,12.5441,3.96322,48.9766,12.1967,3.97804,48.548,12.3368
1.07697,0.303638,-3.76617,2.32401,2.10252,-4.748,2.53302,1.47448,-4.90114,2.51713,1.36039,-5.04991,2.50819,1.35908
5.18142,0.0572383,1.43134,33.9918,13.522,1.11386,36.1853,13.2714,1.47253,36.551,13.2106,1.83599,33.6351,13.622
0.0627218,0.0166933,-13.3527,13.4589,11.5449,-13.1003,14.1272,11.5754,-13.1959,14.1465,11.444,-13.1395,14.0919,11.5389
4.3288,0.49661,-6.63969,35.1722,3.87162,-6.79632,37.5166,3.74269,-6.92029,36.9642,3.77512,-6.46413,36.5321,3.18874
4.83329,0.123197,-10.3152,25.2985,4.04553,-10.955,23.6085,4.70919,-10.9061,24.5445,2.8849,-10.2684,25.725,4.20008
4.86242,0.298254,6.83627,43.6769,12.6014,9.26635,43.4653,13.0083,9.20648,43.6301,12.9783,8.31382,43.3709,12.9979
1.17273,0.0966112,10.3133,0.985449,3.86148,10.5621,1.02315,3.01511,10.2782,1.12691,2.45726,10.414,1.07904,2.63716
1.65169,1.00015,-5.58297,30.003,12.9002,-6.57804,30.3436,12.601,-6.62879,30.0709,12.6353,-6.60676,30.1994,12.6037
13.7019,2.54849,-6.40247,36.5639,-3.7028,-7.51361,33.1373,-2.50424,-7.48042,33.1285,-2.58985,-7.3034,33.0616,-3.10364
1.8552,0.0633755,11.8934,42.0571,12.2169,11.2603,40.9173,12.9712,11.019,42.0977,12.7612,11.3922,41.7282,12.6095
24.7346,0.391791,-4.28565,45.3517,-4.03654,-4.5994,45.499,-2.52135,-4.78619,43.1059,-2.4072,-4.81344,43.4904,-3.70373
2.20007,0.0967305,-3.70903,21.1794,-7.10095,-4.39912,22.106,-7.4958,-3.72543,20.6022,-6.72104,-3.86077,21.873,-7.75021
56.6755,0.505509,12.1763,56.3582,-1.8042,11.988,56.203,0.873939,11.0678,56.8544,1.71851,10.1509,57.2644,0.585003
2.8316,0.434622,-12.397,19.2714,10.9164,-12.1446,19.0687,12.4759,-12.5344,18.4554,11.4553,-12.2367,19.5128,12.3906
1.72072,0.663868,4.30473,11.4489,13.575,5.27637,11.261,13.474,5.33214,10.9686,13.5738,5.33787,11.5256,13.4625
16.4872,0.335012,9.4377,46.5771,-8.85906,11.8708,46.5652,-7.90196,8.4919,45.9111,-9.77359,12.0663,44.4795,-7.82944
0.451243,0.320889,13.8391,34.5264,-2.0563,14.0228,33.8278,-2.40567,13.9091,33.9937,-2.43242,13.8772,34.1129,-2.43211
9.64886,0.475541,-3.99297,46.864,-0.768674,-3.68367,47.9782,-3.0922,-3.5693,48.6897,-2.57183,-3.65012,47.9938,-2.80227
8.77593,0.0450963,-1.8414,2.2683,1.07295,-0.252795,2.56435,0.0549961,0.151734,2.22349,0.821901,-1.42259,2.07056,1.59636
4.9682,0.149137,-8.98807,29.8439,3.64971,-8.44647,31.3932,2.50551,-9.46049,28.5102,3.26518,-8.30202,31.5244,2.90095
6.38914,0.0807691,10.0216,11.1331,-8.94942,8.35665,11.1388,-10.0205,8.39662,10.4331,-9.32928,7.76356,10.7508,-10.0803
0.894354,0.125526,10.9052,5.19917,12.0605,11.4599,4.65812,12.2651,10.5584,4.83176,12.2466,10.848,5.35627,12.164
1.57754,0.015739,-8.67621,34.2958,9.39664,-8.56729,35.3195,10.3762,-8.60148,35.193,10.4758,-8.51039,35.4399,9.9942
0.615904,0.28637,-12.8054,17.9494,10.8382,-12.9466,17.1098,11.0911,-12.8791,16.9535,11.4163,-12.946,16.9598,11.2988
7.2522,0.226091,-11.7154,17.2594,12.2807,-10.9013,16.0936,12.5181,-10.7576,16.7828,12.4464,-12.482,18.4464,11.5718
2.94504,0.620576,8.98099,1.53733,3.52453,7.7084,1.95996,4.81342,8.38565,2.47234,4.42116,8.08414,1.86155,4.01207
2.51554,0.0785479,-6.26854,39.8263,3.54981,-6.44673,39.4336,3.54702,-6.61979,41.2253,4.15269,-6.0985,40.9336,3.47943
1.25656,0.0852719,8.96862,1.52153,3.43153,9.47093,1.4107,2.05318,8.93711,1.46197,2.92502,9.5936,1.39081,2.042
0.76329,0.138874,9.10076,5.72884,12.6644,9.36897,5.24946,12.6099,8.98922,5.17852,12.7122,9.45788,5.22671,12.5983
7.7287,0.379486,1.17696,20.9054,-13.5146,-0.332233,19.1359,-13.0864,-0.76696,19.0912,-13.071,-1.27369,19.6073,-13.0512
33.2604,0.101913,-5.60308,8.32626,13.0496,-1.56653,6.50977,13.1283,-5.53425,10.1939,13.511,-2.57255,5.41633,12.8433
1.5533,0.0942193,11.4046,8.9407,-6.28979,11.9086,8.90465,-6.35428,11.0515,8.84174,-6.37113,11.3462,8.03445,-6.07627
4.05614,0.42743,9.29603,57.4661,0.201924,9.88796,57.5185,0.501885,9.03544,58.368,0.208334,9.27909,57.942,-0.777135
0.843495,0.0336739,12.8657,10.8026,-7.65711,12.4211,11.3386,-8.27942,12.5236,11.4335,-8.28208,12.7357,11.4023,-8.14591
2.07962,0.422178,-5.41782,39.8326,-5.68097,-5.1565,41.0864,-5.07334,-5.05835,41.3369,-5.35714,-5.04318,41.6231,-5.39003
4.81268,0.99558,-3.87961,12.5125,-5.92893,-4.45221,13.3605,-4.21401,-4.28738,13.146,-4.34748,-4.49391,12.4744,-4.22169
0.232209,0.0174437,13.2915,1.87398,9.89144,12.7316,2.02821,10.6908,12.9246,1.82095,10.3845,12.7623,2.16141,10.686
4.93084,0.355567,-12.6296,17.4354,9.89534,-13.1327,17.0048,10.4632,-13.0427,17.1291,10.6686,-12.236,19.0705,10.1223
3.91912,0.909862,3.23418,64.4404,8.68565,4.34799,65.3494,8.5005,2.03364,65.2002,7.98057,4.50367,65.3725,8.59623
0.698997,0.0439626,-0.727301,17.8922,-13.0447,-0.453566,18.5473,-13.1249,-0.356891,18.3672,-13.1783,-0.588722,18.5351,-13.077
0.528289,0.107557,-2.57694,4.3609,12.0704,-2.55646,4.7714,12.6328,-2.63517,4.83085,12.5818,-2.43989,4.4458,12.5111
20.7684,0.573242,7.99921,11.3349,-10.9648,5.00739,8.97838,-10.5828,5.18118,8.56437,-9.93996,5.24444,9.99742,-11.4416
17.0383,0.87191,-3.01758,21.6635,13.6677,-4.71723,23.9983,13.4009,-5.4788,23.5833,13.2697,-6.03781,22.1265,13.4999
15.871,0.273562,0.141232,9.71699,13.1282,0.920375,15.1309,13.3308,-0.649928,13.0298,13.2672,1.19627,12.8076,13.4057
0.124551,0.0209961,-10.9262,16.6714,-0.0094702,-10.7543,16.7803,-0.0770108,-10.48,16.7058,0.00205253,-10.4926,16.6154,0.0541794
1.90003,0.181606,0.250027,16.078,12.1527,0.404343,16.593,11.7827,-0.21695,15.7715,12.9968,0.420642,15.6468,12.8582
15.0156,0.478699,-0.270057,12.8733,-8.11345,-0.199876,11.8465,-7.63144,0.509572,10.6922,-8.83538,-0.0848105,9.55507,-8.29685
1.74852,0.222701,-7.1328,4.59836,-1.62038,-7.2401,5.71524,-2.35439,-7.15985,5.46851,-2.40723,-7.45729,5.07512,-1.68293
0.963407,0.0600697,5.0683,15.9747,12.765,5.67161,16.5626,12.8507,5.15345,15.3923,12.8986,5.1349,16.2507,12.8068
33.5796,0.0237806,-8.82125,30.3913,12.1223,-8.76171,34.1976,9.86466,-8.47543,32.7469,7.91109,-8.79233,34.215,10.1433
1.62237,0.358232,0.709201,54.3692,-11.1146,0.332893,54.4743,-10.7737,0.599719,53.4932,-11.3176,0.226959,54.6511,-10.7101
1.17205,0.621977,14.6181,24.6464,0.97897,14.6098,24.6282,2.25132,14.6376,24.3367,2.43938,14.6685,24.2171,2.55025
5.28477,0.764915,10.1012,33.3259,12.6245,12.847,32.7267,11.3121,11.9573,33.0631,12.0439,12.33,32.6977,11.7926
1.88413,2.84449,6.06717,26.8659,12.119,5.69472,24.1176,13.1768,5.78431,24.1042,13.1251,5.87241,24.0959,13.1387
2.59881,0.0133018,8.2329,37.4115,12.5496,8.66735,37.1828,12.7303,10.0029,37.0556,13.1891,9.93827,37.2146,13.1296
0.866823,0.242366,1.21512,41.1945,-11.7257,0.584161,42.4251,-12.3608,0.576181,41.4968,-12.2824,0.472825,42.2245,-12.3896
2.80892,0.0358172,3.67172,27.5257,12.9819,4.62358,28.0419,12.9251,5.18752,28.0686,12.9138,3.85022,26.924,13.1101
0.719102,0.850212,-4.57638,33.3361,-12.461,-3.71307,33.3505,-13.1369,-3.73781,33.4152,-13.0648,-3.80721,33.5709,-12.9368
0.524042,0.0231697,0.0992045,44.5647,-12.5206,0.621577,44.0114,-12.4267,0.702099,44.1551,-12.3945,0.516323,43.9183,-12.4629
1.13959,0.163277,14.3287,36.6161,3.42307,14.338,36.6309,4.05111,14.3326,36.5779,4.04069,14.3417,36.1504,3.75455
4.91218,0.388922,7.02373,53.9066,12.7619,6.9101,55.2191,12.5818,5.53955,55.2102,12.9265,6.40215,55.466,12.585
0.283844,0.0855101,1.67565,4.06537,-5.11682,1.70676,3.81498,-5.77628,1.63723,3.88858,-5.3476,1.69105,4.06254,-5.80256
3.67218,0.575018,1.72622,37.2054,12.3741,1.66185,36.7737,12.9329,2.55452,36.7272,12.5621,1.5265,38.5328,13.4022
1.22883,0.216628,-5.93869,15.4922,-4.46781,-6.43073,16.048,-5.05842,-6.21904,15.9617,-5.0087,-6.48416,16.053,-5.00411
0.839256,0.0884877,0.585422,60.2638,-6.67181,-0.0607709,59.2757,-7.28087,0.148556,59.8438,-6.87735,0.0783114,59.297,-7.37743
44.7205,0.116566,-12.5363,11.4071,3.10234,-12.5022,13.4638,4.32232,-12.9708,8.76368,2.79062,-11.7608,16.6334,0.928818
7.89837,0.237591,1.88333,8.95016,-10.5039,1.06164,10.6242,-10.654,3.22238,8.81122,-12.0221,3.12633,9.10141,-12.2208
4.9442,0.103248,-5.06075,32.9458,-10.6496,-4.85296,32.8827,-11.0588,-4.29936,35.4731,-11.2791,-4.4177,34.1869,-11.7465
1.01804,0.0685402,14.3585,22.931,0.125613,14.4382,22.3905,0.0242897,14.437,23.6518,-0.108091,14.4094,23.7813,0.292688
2.0636,0.0892378,14.4714,20.5267,7.97389,14.4909,21.232,7.55788,14.4569,19.3934,7.99078,14.2102,19.501,8.56688
0.315671,0.0661392,4.32879,61.0738,-7.96102,3.77245,60.8264,-8.64145,3.88201,60.9521,-8.18962,3.63665,60.7987,-8.55565
3.65099,0.219324,3.28418,61.03,-7.31457,1.57163,60.749,-7.01903,1.92726,60.9883,-6.96271,2.89396,60.4774,-8.01499
0.655104,0.530799,-9.10891,13.2286,-1.63947,-9.1992,12.7295,-1.06025,-9.1027,12.4647,-0.997501,-8.98417,12.2006,-0.924907
0.873081,0.470849,-0.575091,56.6557,-8.21191,-0.379745,57.1908,-7.91665,-0.738762,57.0768,-7.69175,-0.588304,57.0934,-7.77722
0.334656,0.170182,5.2218,66.1998,7.62685,4.48636,66.3419,7.60744,4.65684,66.3482,7.4945,4.82436,66.3791,7.35221
6.52711,0.0521134,-12.2243,17.6984,7.87187,-11.4745,19.5393,8.37814,-12.5242,17.6832,9.52043,-12.1253,18.1155,8.52957
1.32739,0.0813579,0.643342,5.16637,12.6442,0.767033,5.31344,12.711,1.15142,4.93345,12.6126,0.331216,4.53041,12.7534
1.56824,0.161582,12.0698,49.224,-7.83152,11.1313,48.3386,-8.53912,11.1849,47.9221,-8.5446,11.0703,48.1931,-8.61
2.19561,0.228751,-6.3798,48.4427,13.0704,-5.83237,48.3305,13.2264,-6.02268,49.215,13.1216,-6.53388,47.9005,13.4174
8.89231,0.434565,8.92955,27.7924,-9.0802,8.54459,24.8267,-9.26209,8.50154,25.6617,-9.17598,9.00215,25.1366,-8.84089
4.26705,0.318199,7.21312,33.342,12.7683,9.89327,33.2229,12.6558,10.1366,33.0238,12.6492,9.92712,33.3656,12.6781
0.823933,1.20361,14.0751,40.1347,-3.42626,14.2435,40.1378,-1.93256,14.2261,40.4222,-1.93026,14.2308,40.2784,-1.92759
2.35343,0.0868396,8.23162,53.809,12.7999,7.37337,52.8376,12.8143,8.2069,52.8175,12.7821,7.4975,52.522,12.8311
3.44275,0.450993,-10.2038,16.5089,12.0561,-10.3768,17.1272,12.6829,-9.08747,16.3025,12.3352,-10.4603,15.9872,12.4366
5.54589,0.232714,10.7124,4.6739,12.2384,9.77401,4.57761,12.4028,10.1198,3.6277,12.2555,9.23767,3.70268,12.6485
0.821666,0.119722,0.671112,11.5501,-10.8526,0.51346,11.9812,-10.7172,0.318559,12.3465,-10.8817,0.509526,12.1368,-11.1508
0.571496,0.0204324,13.0396,3.24664,-0.239579,13.1484,3.10816,-0.0256036,13.3233,3.2504,-0.504141,13.4677,3.14314,-0.336302
6.42554,0.236473,-3.26375,46.5019,13.4711,-4.57642,49.347,13.2411,-3.07356,48.3309,13.4376,-3.16499,48.3492,13.4322
0.373179,0.119668,13.2756,0.565809,1.95109,13.3257,0.965626,1.21901,13.1429,0.660234,1.88639,13.4589,1.03528,1.20638
1.56501,0.14406,10.5433,49.4598,12.2072,8.88078,49.3916,12.6571,9.41364,49.7051,12.5719,8.99859,49.4994,12.653
3.24311,0.186939,-13.9586,12.2885,10.0677,-13.3078,13.673,8.76254,-13.5626,13.2603,9.55891,-13.2822,13.6597,8.67251
4.18984,0.20345,-10.796,22.3722,8.07449,-11.1531,23.3709,8.9074,-11.3281,22.2678,8.98686,-10.8829,23.4239,8.1123
7.6619,0.510316,3.59482,19.9837,-12.4717,2.13299,20.9642,-13.299,2.1177,21.7887,-13.2171,4.34033,17.9972,-13.0074
110.006,0.787067,6.52963,60.3649,-0.464241,8.85054,61.1946,7.07655,8.15721,61.7306,5.95258,9.39493,58.7474,2.02016
7.53428,0.126368,-4.11912,48.492,-0.12696,-4.37051,49.7097,0.0468325,-3.68343,50.1922,-1.81289,-4.07774,49.3323,-0.398084
2.93777,0.138772,0.073076,13.5912,-11.9431,-0.478186,14.7346,-10.9826,-0.315091,14.6777,-11.2422,-0.225924,14.7473,-11.404
3.92684,0.227505,2.12949,65.3642,4.35499,2.29953,65.9169,3.98125,-0.0619657,64.7466,4.32648,2.26996,65.3793,4.93533
8.78424,0.0774014,13.8955,20.0539,9.09884,13.3411,20.873,10.1367,13.3889,18.4559,9.89608,13.5299,18.3884,9.67775
10.3879,0.389269,3.0801,7.93419,-10.7815,5.4812,8.43393,-9.65622,6.37678,6.48496,-8.61416,5.41168,8.06958,-9.54736
2.20498,0.530466,-10.5518,10.496,13.4495,-10.455,11.9065,13.3844,-10.5554,11.9224,13.3606,-11.3281,13.0493,12.6961
9.54019,0.0411816,-6.02588,15.0329,-1.49378,-6.18602,13.5726,-2.43624,-6.02217,14.4227,-1.61312,-6.29917,15.3749,-3.42078
1.79031,0.198471,13.9741,42.0774,7.69161,14.1553,42.0929,6.66093,14.1044,42.4924,6.74575,14.2161,41.6607,6.91473
6.58357,0.453891,0.168668,60.0706,12.8361,1.35448,58.2371,12.6049,0.345889,58.73,12.7356,1.53027,58.7654,12.3768
15.8715,0.225293,-6.32832,31.8993,-9.00045,-5.35057,32.4559,-10.4898,-6.67977,30.2385,-9.39589,-6.87539,33.0631,-8.32863
1.38658,0.218077,13.3879,25.2944,-6.38138,12.9611,24.1375,-6.66064,13.508,25.8609,-5.74485,12.9552,24.4268,-6.67817
11.6441,0.0202933,14.2172,39.4433,-1.61802,13.6793,37.4538,-4.3947,13.7183,37.8874,-4.22219,13.5395,39.1254,-5.24611
14.7845,0.184488,1.71544,62.3669,11.3873,-1.43458,60.7565,10.615,-1.87139,60.0613,10.9977,2.23769,61.9011,12.7281
1.74017,0.0429949,12.6254,52.4391,9.93044,12.2979,51.514,10.515,12.9383,52.3758,9.47274,12.1376,51.5414,10.7144
2.44429,0.212514,13.9891,37.1818,-0.89802,13.8546,35.6393,-1.69406,14.1662,37.7677,-0.984378,13.9018,35.5111,-1.61224
2.50317,0.00509472,-4.29424,22.9521,-8.67188,-5.36764,23.4724,-7.9912,-4.09851,22.2352,-8.03529,-5.35201,23.6621,-8.23849
0.394333,0.000371172,11.3753,56.4215,11.5523,10.8262,57.3762,11.9243,11.2117,56.4527,11.7338,10.9135,57.5193,11.7834
1.32184,0.380145,-3.95627,3.44991,9.09697,-4.74845,3.79108,9.18837,-5.16357,3.89719,8.92523,-5.30458,3.91077,8.82395
2.68822,0.0224519,12.1489,9.836,-6.73141,13.0263,9.95022,-6.93969,12.4268,10.4556,-7.34769,12.8015,10.6648,-7.56924
1.28405,0.481833,-4.00268,18.5479,-5.65068,-4.66213,16.9949,-5.88739,-4.38344,16.3002,-5.88122,-4.00293,16.7177,-5.98812
2.1018,0.10466,-2.04741,62.5992,3.08961,-2.46785,62.1942,2.98468,-1.90123,62.9955,3.45311,-1.73509,63.1664,2.25153
1.08675,0.139792,4.37188,3.74384,-8.09036,4.54611,3.8668,-8.60846,4.50806,3.66619,-7.9302,4.50557,4.10676,-8.48943
3.76713,0.401054,3.38343,29.5803,13.223,2.13968,28.2948,13.765,1.55418,28.1375,13.8595,1.14241,27.9352,13.9194
0.693745,0.247879,10.1298,59.4479,11.9366,10.1274,59.5737,11.4514,10.2502,59.4442,11.2024,10.1364,59.7089,11.4632
22.8979,0.396574,-0.612792,27.8522,13.4676,-1.3915,24.8918,13.7619,0.783996,28.0075,13.9162,-2.05519,25.3064,13.7499
2.25852,0.420533,-6.19643,37.0727,-4.08144,-6.57285,35.3075,-3.80393,-6.57929,35.1591,-3.97997,-6.72114,34.76,-4.07387
1.37737,0.596147,4.89661,4.87852,-1.03871,5.60455,3.55484,-1.18969,5.65105,3.66901,-1.40803,5.90014,3.46499,-1.39909
2.58864,0.31835,13.9513,45.4295,-0.759994,13.8759,46.9642,-1.26012,13.8657,47.1077,-1.15275,13.9079,47.3904,-0.595338
1.64532,0.0126929,-0.349432,60.8947,11.8836,-0.137446,60.5383,12.5735,0.33861,61.1085,12.3621,-0.204224,61.23,11.6425
6.1988,0.360458,3.53125,41.6303,-10.1763,4.44177,41.8718,-10.305,3.78606,41.1061,-10.2741,2.81651,43.837,-11.7894
6.59957,0.449199,4.22363,6.32029,-8.08342,5.83301,5.58676,-8.5434,3.21024,6.71515,-8.5238,4.49252,4.88955,-8.4011
1.87635,0.432103,7.93232,37.3363,12.4196,7.86732,39.0377,12.11,8.07721,39.1495,12.0582,7.96112,39.0205,12.082
10.8297,0.125226,13.5235,13.1246,-4.71005,13.8477,15.6588,-3.90972,13.848,12.5866,-3.84383,13.4807,13.8364,-5.47261
6.45471,0.362343,-6.67895,9.82165,13.2454,-6.32686,11.3513,13.5491,-5.53803,11.0498,13.6326,-8.00442,10.5467,13.4566
4.37851,0.184909,9.33407,9.83396,12.9297,9.20816,8.29197,13.0537,9.49466,11.3791,13.1806,9.41222,8.39593,13.0048
10.2239,0.331023,-12.2762,15.6374,12.0599,-11.9571,13.3047,12.4997,-10.885,15.2397,12.5229,-11.0844,13.8565,12.554


