
0.370955,0.00551648,-5.72363,33.4521,3.91107,-5.59546,33.6215,3.6806,-5.57361,33.4426,3.95312,-5.52286,33.6281,3.67913
2.69705,0.385716,2.85858,26.5406,6.08372,2.83285,25.5785,6.65488,2.91,25.5303,6.63668,3.85381,26.551,6.16062
3.71994,0.210326,-8.87298,11.029,6.17602,-8.24396,11.3377,6.58906,-6.8096,10.909,6.78614,-6.88609,10.8133,6.75001
14.8249,0.313989,6.49533,29.1259,-6.0162,6.52262,29.9425,-5.61413,8.40144,30.0221,-5.51053,6.49028,27.7252,-5.84551
1.06472,0.052891,4.29109,1.50987,4.32392,3.5875,1.64643,4.47851,3.52548,1.62107,4.43832,4.13073,1.71598,4.57373
0.786227,0.0401453,-8.06877,27.8196,-6.42168,-8.35899,28.0449,-6.28258,-8.44698,27.8303,-6.32556,-8.49175,28.3634,-6.1829
30.3525,0.852282,-9.66165,25.6152,5.00622,-4.44596,25.4264,6.83291,-7.68522,25.6484,6.2535,-6.61372,25.8391,6.29285
4.00871,0.367293,2.49875,10.4204,6.51377,2.72579,11.5103,6.91225,3.27764,10.3642,6.50409,2.33244,9.70669,6.95684
0.804942,0.0327358,5.22603,6.63336,-6.40862,5.15308,6.98149,-6.33942,4.6597,6.70785,-6.51937,4.86483,6.55503,-6.4867
2.67249,0.141586,13.3747,6.00024,0.660063,14.0151,7.47782,-0.573015,14.0373,7.54486,-0.67317,14.0146,7.47695,-0.76094
1.19937,0.23791,-1.70916,6.4272,6.12444,-1.02819,7.10721,6.99746,-1.17616,7.09002,6.95015,-1.03457,7.00014,6.92998
9.62594,0.225353,6.98583,11.0487,5.68604,8.74957,10.3456,5.60923,6.47638,11.695,5.91275,7.38709,11.807,5.63774
4.75176,0.287018,-3.23829,4.0653,-5.30009,-3.22081,2.96931,-5.41765,-3.53112,4.4073,-5.629,-2.04975,4.25891,-5.68954
1.66643,0.118443,7.5582,9.12892,6.07769,7.15944,9.0308,6.29545,8.53526,8.61471,6.04458,7.65179,9.55632,6.13396
15.6519,2.28195,9.48363,2.09522,4.2435,9.13554,6.49212,4.65411,9.0754,6.44143,4.68821,9.87803,6.51215,4.53823
0.0639595,0.00254081,-2.6748,17.8453,-7.71681,-2.62528,17.8786,-7.7152,-2.67731,17.7517,-7.72398,-2.53667,17.7467,-7.73734
3.37408,0.288487,2.38105,11.6101,6.95231,0.957114,11.4212,6.94293,1.04025,11.2831,6.95916,0.37482,11.2105,6.81711
33.9694,0.116571,-3.36763,27.6648,6.69464,-5.52685,28.8709,6.18784,-3.39161,26.6524,6.7175,-2.45497,29.5013,6.40768
5.43353,0.247492,10.4264,20.2201,-5.8575,10.2983,21.4449,-6.0078,12.3716,20.3376,-4.72935,10.2987,19.9686,-6.31252
19.8537,0.605576,1.07297,20.3831,7.1423,2.25105,19.1672,7.5306,1.1921,18.8054,7.54428,2.83686,20.0937,7.00137
7.05833,0.439587,-9.65111,4.93637,-4.21407,-10.1426,5.25847,-4.63736,-7.87954,4.85849,-4.83115,-9.62045,3.5932,-4.53718
3.90007,0.000861612,-5.81952,34.7134,-2.10176,-5.46029,34.606,-2.86993,-6.56928,34.3448,-3.08245,-6.49551,34.5783,-2.13085
3.11302,0.101115,0.936465,26.3316,6.48003,2.58909,26.4774,6.27122,2.52496,26.579,6.29228,2.11145,26.5904,6.37439
2.14661,0.210546,-2.4036,11.1268,7.13434,-1.40731,10.9911,7.13832,-1.20145,11.2143,7.09843,-1.20065,11.0271,7.09547
3.1676,0.118565,-6.88937,1.77229,3.29145,-7.7713,2.95089,4.70606,-6.45035,1.62516,3.17244,-6.5376,1.29472,2.1872
4.33491,0.220498,8.57055,0.926739,-1.61767,9.49486,0.907626,-1.60301,9.83098,0.809113,-1.23812,8.12252,0.642527,-1.78931
5.32344,1.17555,-9.80963,18.3869,6.31144,-12.6327,18.2225,5.20066,-12.4319,18.3655,5.18674,-12.5143,18.4997,5.17909
4.44916,0.338991,-11.7166,24.6282,4.66054,-10.4272,24.3536,5.47482,-12.2747,24.2006,4.89655,-11.8222,25.3154,4.89293
52.0605,0.813334,-2.08376,34.9547,0.846866,-7.86616,34.3927,1.37692,-8.01636,34.5341,0.185667,-6.7793,34.6417,-1.38397
22.4789,0.323348,12.1345,16.4958,3.97798,10.208,16.5385,4.71987,13.831,17.5187,2.49175,13.531,16.3672,2.80274
5.10878,0.38861,1.07446,18.6129,7.48041,1.65831,18.4448,7.35819,1.26021,17.1878,7.81449,1.30665,16.6645,7.73339
2.76326,0.134595,-4.68049,6.85488,6.44478,-6.26432,7.80677,6.09341,-6.18561,7.80643,6.10296,-4.21072,6.41867,6.377
0.0289607,0.0467012,4.21305,26.3136,-7.20778,4.25944,26.2294,-7.16055,4.33199,26.2169,-7.15428,4.34045,26.2586,-7.15143
15.2932,0.170564,4.14798,5.05713,-5.25305,6.30099,4.97925,-4.80756,4.31516,4.00801,-5.39719,6.27738,4.49936,-4.96985
14.3503,0.36675,-3.40823,34.4016,-1.64528,-0.125533,35.0536,-1.68846,-3.72272,35.0939,-1.28706,-0.524126,35.1762,-1.652
0.0659277,0.0242294,3.35636,29.361,-6.8355,3.50966,29.3407,-6.88034,3.51064,29.3836,-6.87459,3.31144,29.4344,-6.84498
6.08426,0.216521,-0.0832403,15.8195,7.39481,1.98905,15.4863,7.11378,-1.08648,15.5547,7.25379,1.84649,15.7058,7.09664
24.5572,0.17396,-10.2834,1.68741,0.647437,-8.81284,1.32119,-0.609293,-7.95012,1.27077,-2.21953,-9.24994,1.48575,-1.8045
5.24836,0.156607,-12.6133,21.7381,-4.4708,-10.6873,21.6119,-5.56884,-13.3366,22.0394,-4.25371,-12.8593,21.2132,-4.62546
0,0.000809943,-14.0733,27.5727,-0.694864,-14.0727,27.5746,-0.749229,-14.0606,27.6452,-0.755238,-14.071,27.5788,-0.793703
2.18843,0.00815844,5.24646,16.7074,-7.57239,6.10534,16.228,-7.40942,5.80357,16.8497,-7.46336,5.95453,16.0105,-7.43685
6.25076,0.21362,-13.5692,5.5704,2.25257,-13.6152,6.95253,2.55783,-13.5455,7.09022,2.89039,-13.6791,6.4796,1.95988
1.2088,0.0913528,9.35715,0.820746,2.01978,8.84706,0.984073,2.60129,8.97488,1.03872,2.82652,8.84712,1.01014,2.73525
10.9796,0.121945,0.0499322,33.5261,-4.04997,-0.131511,35.0404,-1.73237,1.94318,33.9773,-4.03995,0.0428633,34.7913,-2.14048
4.61538,0.0756133,-13.8805,7.44343,-0.469523,-13.87,10.9306,-2.12004,-13.8496,9.51947,-1.41741,-13.9419,9.56575,-0.967656
4.0616,0.168692,8.8313,22.9518,-5.71448,8.82304,22.1478,-6.27265,8.55413,23.2822,-6.35858,9.10478,22.8748,-5.62942
0.401988,0.0790788,1.67895,19.7831,-7.93228,2.02067,19.6253,-7.89397,1.93531,19.5823,-7.88962,1.93312,19.4913,-7.896
6.41112,0.390534,-5.17288,4.60055,-5.18111,-3.65925,4.42013,-5.64986,-5.68541,4.82538,-5.58105,-5.30781,3.43229,-5.37311
0.130919,0.00203855,2.02528,16.2677,-7.91925,2.03044,16.3607,-7.91793,1.89206,16.2742,-7.93123,1.89253,16.4146,-7.9331
8.24707,0.372103,8.13903,5.30704,4.74919,8.28188,3.09708,4.71726,8.24243,2.13418,4.5749,8.13202,2.49937,4.72329
1.85422,0.0255661,-3.0676,24.7256,-7.09693,-3.3696,24.5456,-7.05707,-3.01564,25.6382,-7.06175,-3.16155,25.6902,-7.05297
10.4283,0.378337,-0.742793,30.4188,5.83863,2.11397,30.3984,6.25779,-1.24777,30.3632,6.2782,1.97457,30.3546,6.27748
13.48,0.467158,9.52495,33.2672,-2.87246,9.51102,33.3601,-3.85072,9.24726,34.8443,-0.618301,10.9426,33.4692,-2.87821
1.64416,0.178348,10.6462,5.66855,4.60462,11.7563,5.57079,3.73715,11.6081,5.65545,3.89637,11.7088,5.52399,3.77834
79.1904,0.115098,8.7687,10.4392,-6.52608,6.06529,12.3441,-7.30588,8.93278,12.9447,-6.67521,7.65928,13.3829,-7.04218
39.3484,0.120969,4.27932,18.0584,-7.68211,6.28108,18.9848,-7.42584,7.03813,17.8655,-7.25836,6.80268,17.4223,-7.29756
2.41547,0.0849637,-10.7576,1.98956,-2.57362,-10.2363,2.11301,-3.25901,-11.0985,1.95524,-1.58337,-11.2747,1.97351,-1.51918
17.0538,0.143026,5.22716,7.82385,-5.83904,2.50681,9.44802,-7.17554,2.19387,8.2612,-6.26857,0.884267,9.47355,-7.15151
7.16252,0.246416,-7.04291,8.24628,5.97622,-6.13433,9.48133,6.83189,-7.3208,8.28902,6.19948,-5.23724,7.78208,6.44493
33.9756,2.08396,11.8939,7.03496,3.3794,12.5131,5.1521,2.64012,11.8991,4.67837,3.07716,13.7836,6.87599,0.530624
2.37253,0.111154,-1.63359,20.7057,7.06861,-1.85607,20.5411,7.16592,-2.05499,20.9227,7.24465,-0.804546,20.8157,7.15191
19.5581,0.884937,10.456,13.6548,4.76466,9.05739,14.2839,5.3719,8.75749,14.1089,5.96284,8.65588,16.0307,5.79022
67.095,0.650385,-9.76288,23.9287,5.15804,-10.3866,21.4142,5.88303,-10.2562,26.1037,5.42196,-7.87896,24.004,6.64083
0.900017,0.523244,-4.77352,22.599,7.56657,-4.48808,22.0692,7.69233,-4.4057,22.0698,7.71234,-4.85459,22.0609,7.65817
8.42688,0.492415,3.92148,15.8379,6.23799,4.7938,15.9873,6.54823,3.8593,14.023,6.71519,3.96771,14.0192,6.69045
1.4779,0.0271236,-9.04989,33.5729,-3.49688,-10.13,32.6939,-3.48049,-9.89974,32.9608,-3.49233,-10.0689,32.6989,-3.48152
5.79526,0.0829143,-1.24588,26.2383,6.47106,1.00382,26.5137,6.46858,-2.10297,26.0804,6.36206,0.865749,26.3317,6.47995
0.634373,0.324101,14.2147,13.0406,-2.54859,14.148,12.4186,-2.88402,14.2258,12.3696,-2.60062,14.1926,12.4021,-2.68099
6.71633,0.329338,1.38977,2.4401,5.02562,1.29676,4.27698,5.34341,1.48091,4.91627,5.29385,1.39765,4.87437,5.31133
11.1819,0.194547,-13.2771,32.1583,1.45391,-12.6525,32.176,3.35584,-12.8374,31.4259,3.11675,-13.0609,32.655,2.31113
1.53299,0.520888,-6.56443,30.3904,5.36033,-5.36614,29.6561,6.16327,-5.06917,29.6147,6.2167,-5.07103,29.5696,6.2209
25.71,1.21153,-10.2822,5.41957,3.45211,-7.7492,5.1469,4.88237,-11.3059,4.276,4.33307,-6.00049,5.82841,5.74919
15.9363,0.118812,3.23594,18.5365,7.09356,3.2418,16.8827,7.40188,6.65153,18.6751,6.84359,1.65591,18.5457,7.37666
9.43147,0.101196,12.025,22.1171,3.82399,10.6024,21.9195,4.6072,13.5253,22.774,2.95219,14.1097,22.0504,2.15967
7.08211,0.297513,-11.842,30.7093,-3.15468,-11.7374,30.3997,-3.66644,-12.2539,30.8788,-3.25469,-10.1176,32.6452,-3.48082
6.12782,0.125911,5.41865,31.4664,-5.59107,5.43647,32.2829,-5.16473,5.30986,30.5747,-5.76355,6.13063,31.9551,-5.36971
0.94779,0.0212634,12.4754,32.0851,-1.54738,12.3532,32.842,-1.13163,12.3496,33.0989,-0.891376,12.3776,33.1139,-0.784311
10.2442,0.542489,6.55131,30.5199,4.78992,6.64839,29.381,5.23189,8.10862,31.1712,5.20212,6.46231,31.2637,5.41089
17.4779,1.41139,-4.4267,23.38,-6.52108,-3.19658,24.1996,-6.95563,-2.75524,23.2935,-6.84582,-4.20364,26.1669,-6.79293
1.02494,0.111843,0.167886,26.5523,-6.8066,0.83153,26.1362,-7.36781,0.686752,26.0611,-7.43432,0.979249,26.1348,-7.40883
24.2193,0.73527,-6.35174,31.2747,-4.63356,-4.9362,33.0112,-4.35109,-4.79106,32.6137,-4.58798,-5.42745,30.905,-5.67519
33.0419,0.0984028,8.48614,30.899,4.64914,8.84035,28.728,5.09249,10.2113,30.9237,3.79041,10.3275,29.7349,4.01369
3.94413,0.306832,3.64267,32.8748,-4.41664,3.25999,33.2401,-4.60438,5.19724,33.1417,-4.24673,3.60697,32.4244,-5.20616
0.28264,0.179195,-4.48854,0.854004,1.39801,-4.49564,0.833742,1.18406,-4.33484,0.781846,1.07855,-4.3725,0.812753,1.09984
0.708905,0.319183,12.1777,7.77339,-3.93387,12.7067,7.87269,-3.59359,12.5536,8.07868,-3.90713,12.6748,7.93497,-3.6596
14.6171,0.412219,1.41541,26.7293,-6.51225,4.37199,28.7937,-6.53933,3.93148,26.5184,-7.22903,2.41757,25.7352,-7.34995
0.00962389,0.0262649,12.6047,4.60539,-2.20048,12.6233,4.50155,-2.14331,12.5875,4.46076,-2.15075,12.5261,4.47294,-2.22739
1.08631,0.0207962,-13.5419,21.7344,3.5974,-13.7167,20.5958,3.39707,-13.6203,20.7792,3.58483,-13.7298,20.7515,3.32793
14.8159,0.677607,-0.190082,27.2196,-6.15224,-1.30132,27.4335,-7.01025,0.0978432,26.5942,-6.75707,3.0472,30.1935,-6.56616
0.0638705,0.0194075,14.2329,21.1759,2.10143,14.216,21.2547,2.11799,14.2403,21.3174,2.06429,14.1909,21.3049,2.21453
9.35795,0.0632056,3.13163,0.308725,-0.026671,4.28174,0.380873,0.0139975,3.85577,0.395236,-0.902844,3.90388,0.401462,-0.908623
1.72427,0.00132021,14.2026,17.1338,-2.0258,14.1033,18.941,-2.01837,14.1224,17.5455,-2.24255,14.1261,18.845,-1.95079
53.384,0.0719221,-2.34397,6.61302,6.63055,-1.83171,8.36857,7.03842,-4.88158,11.9693,7.44814,-5.16006,8.31428,6.55515
0.446349,0.0139406,7.3887,13.4034,-7.09057,7.47128,13.6744,-7.06807,7.33297,13.7815,-7.12002,7.40574,13.7697,-7.09578
7.33601,0.39537,9.50653,24.8383,-5.65432,11.3119,25.9559,-4.68454,10.2182,23.808,-5.76,9.21715,25.0826,-6.32611
9.53209,0.0906972,3.91856,19.9263,-7.75386,4.96585,20.4455,-7.62465,5.0182,21.0891,-7.60082,4.49064,21.3146,-7.70249
0.318025,0.099232,-7.75758,6.76512,6.24628,-7.77443,6.54221,6.08952,-7.99998,6.69683,6.14108,-7.85817,6.58837,6.0914
4.87418,0.0806042,6.64659,31.1011,-5.36137,6.53289,32.5486,-4.78638,6.52255,30.0395,-5.60612,6.82105,32.5847,-4.81439
7.13978,0.0924152,-9.96428,17.287,6.35246,-9.43383,18.1528,6.54326,-8.11605,16.7377,7.16393,-8.18646,16.4147,7.17453
2.01547,0.676041,1.12957,0.44659,1.09574,0.103956,0.471084,1.47038,0.119048,0.473441,1.69915,0.144238,0.500927,1.53371
35.2095,0.172422,-8.36751,32.4701,-4.19051,-10.8545,29.2968,-4.65964,-8.42485,33.5256,-3.76744,-11.384,29.8461,-3.9977
0.0996014,0.00428048,12.8307,30.666,0.987413,12.8076,30.3703,0.88246,12.8751,30.6112,0.852664,12.7901,30.3641,0.923614
6.81482,0.211096,-1.46564,7.42,-6.59529,-1.56689,6.50111,-6.28507,-1.7062,8.36558,-6.62936,-1.55237,8.57671,-6.55057
0.382485,0.0380724,0.583752,16.8037,-7.97503,0.364766,16.6783,-7.9851,0.500115,16.4876,-7.98676,0.342782,16.4922,-7.97205
5.674,0.143586,-6.08129,11.3657,6.96019,-6.30218,12.2208,7.3119,-6.95072,10.1102,6.47417,-6.73765,10.0903,6.38355
0.478401,0.0690314,10.0875,33.8922,2.47264,9.98653,33.4652,3.18761,10.1956,33.5012,3.05162,10.0584,33.4181,3.21819
0.535135,0.0877162,5.18842,34.9023,-2.25058,5.19063,34.9311,-2.4677,5.30491,35.0019,-2.25325,5.00256,34.9868,-2.2265
7.43277,0.141827,-3.92295,19.54,-7.55934,-3.20145,20.7115,-7.63306,-4.33916,20.7508,-7.51501,-4.05709,20.6919,-7.53842
2.88985,0.154333,2.49853,33.8687,-3.81105,4.28144,34.1037,-3.66516,2.16362,34.0723,-3.71315,2.46393,33.8294,-4.32349
4.40457,0.182759,5.96961,25.8007,-6.37885,6.2703,27.2525,-6.36311,5.77401,25.7039,-6.6097,6.76227,25.811,-6.42505
0.0112859,0.0107623,-5.42898,32.7115,5.09236,-5.48582,32.5886,5.22027,-5.56078,32.6253,5.16541,-5.63977,32.7021,5.06878
1.37654,0.0384608,-4.44685,30.4464,5.96389,-3.6172,30.081,6.52452,-3.61471,29.9094,6.59798,-3.26131,30.2761,6.59726
2.29305,0.0520869,12.3701,20.5768,-4.39136,12.6305,20.4716,-3.98513,12.3067,20.4759,-4.70322,12.3161,21.3142,-4.33307
20.6886,0.305998,10.4718,26.0871,3.83718,10.7817,24.9787,4.31862,11.7884,26.4705,3.28425,9.35984,26.9202,4.6691
8.49993,0.1184,-7.83276,7.31662,-5.73135,-5.48676,7.25541,-6.67946,-9.61704,7.43603,-4.79346,-6.47284,7.03417,-6.14994
0.782922,0.00355887,8.53909,8.70749,6.06222,9.43547,8.21691,5.898,8.8573,8.45664,5.99586,9.43761,8.26541,5.90434
4.16075,0.0899668,-9.16717,28.8288,4.59067,-7.81458,29.3887,6.23209,-7.89903,29.1459,6.16413,-9.88067,28.8047,3.90248
10.7163,0.0864288,11.5069,31.3331,1.85986,12.5741,31.4239,1.0839,12.0069,29.6576,2.03882,12.4671,28.7159,1.93029
14.9727,1.66306,-4.28164,14.6799,-7.60986,-11.5726,11.4986,-5.34081,-8.1971,12.2479,-6.76539,-5.71591,12.3034,-7.31236
7.84334,0.272569,11.155,30.9115,3.36919,10.1568,31.3083,3.85392,11.7765,30.9225,2.56084,10.2146,31.2039,3.60914
8.79929,0.0954335,3.9092,11.9839,6.75233,4.0375,13.3032,6.83033,4.89943,13.9159,7.12575,3.85481,13.9785,6.72294
33.4589,0.0478805,-12.3654,6.25567,-3.82683,-11.7249,4.821,-4.04454,-10.6886,6.62483,-4.63646,-10.3471,5.31844,-4.68204
2.28724,0.221572,6.74534,33.1124,4.24668,7.0379,33.6753,3.33116,6.75485,33.7561,3.17418,6.82599,33.7678,3.12921
7.75271,0.103711,2.22618,8.69642,6.29784,2.25496,8.35678,6.44122,2.07257,7.8736,6.83781,5.40995,8.391,6.3843
148.373,0.884504,0.715086,20.9875,-7.99826,-4.49935,18.3095,-7.46553,-4.81889,18.7832,-7.44144,-3.53316,17.6865,-7.62009
2.47085,0.177128,14.1588,13.5585,0.246165,14.3742,14.0962,-0.164521,14.289,14.1889,0.84439,14.3254,13.2694,0.360143
0.289059,0.0990983,4.09882,11.9767,-7.5802,4.30942,11.7747,-7.47777,4.38757,11.9007,-7.50682,4.38115,11.8075,-7.49226
5.36783,0.0615552,-0.694234,24.3657,6.60572,-1.08536,23.9667,6.96071,-0.788202,23.8176,7.1378,0.672712,24.3716,6.91301
5.59157,0.320384,6.0243,34.608,-1.83746,5.7977,34.9979,-1.66277,6.12576,34.6956,-2.84013,8.86671,34.824,-1.30421
0.150253,0.0140007,-13.462,6.56624,3.01995,-13.5004,6.87094,3.01658,-13.3993,6.60879,3.18285,-13.4594,6.73445,3.07993
1.98959,0.197307,-11.4841,26.3757,4.58737,-11.6713,25.4667,4.94869,-11.5033,25.6133,4.99787,-11.5893,25.4291,5.00032
93.4723,0.230122,-0.642556,17.2279,-7.94799,-5.11278,16.4861,-7.40109,-6.35183,18.4493,-7.17779,-3.75442,16.4561,-7.63908
7.29671,0.329489,11.043,8.86906,4.49874,12.1485,8.16048,3.78527,10.7814,8.65143,5.24459,12.155,9.83766,3.84406
5.65085,0.151595,11.3851,23.3898,4.51879,10.7804,24.8984,4.43774,11.4536,22.6487,4.49345,10.7865,24.9352,4.32713
2.03597,0.291696,0.842674,6.63351,-6.36416,0.78562,7.72944,-6.55978,0.777226,7.63737,-6.5709,0.936969,7.49076,-6.55596
1.4905,0.487534,-4.01222,11.0334,7.13646,-2.47034,11.1756,7.14502,-2.88886,10.9874,7.1436,-2.67611,11.0767,7.12208
21.3687,0.739905,13.3643,19.8915,-1.42776,14.1163,25.4926,-0.362103,14.0024,19.481,-2.39269,14.2307,19.737,-0.451404
0.258238,0.130508,5.79325,28.543,-6.2049,5.87357,28.6746,-6.21485,5.6064,28.6822,-6.20139,5.80843,28.6732,-6.19376
10.3225,0.791088,7.81998,25.024,5.27555,10.6843,24.5259,5.04706,7.62993,24.4574,6.40592,8.01021,26.3008,5.73133
5.0545,0.188793,6.71759,34.3748,-2.77629,6.80695,34.1432,-3.37825,8.91141,34.4671,-2.38031,8.91721,34.4924,-2.34518
1.61701,0.0417705,-8.39931,27.7971,6.38117,-7.24469,27.2525,6.70316,-7.74556,27.4612,6.55003,-7.09483,27.4362,6.70014
1.85879,0.240356,1.42285,23.2479,7.57821,-0.0245395,23.2332,7.23798,1.01022,22.7479,7.63378,-0.095409,23.32,7.21452
3.07717,0.308552,-6.79401,30.4779,5.30436,-7.17463,30.5341,5.64134,-6.09411,31.8654,5.61422,-6.02522,31.8659,5.6096
0.650797,0.0134096,-12.446,8.81156,5.00446,-12.5985,9.10855,4.9406,-12.9069,8.88966,4.59046,-12.6312,9.00308,4.87748
6.96582,0.333102,9.69079,28.0425,4.30747,10.5428,27.6402,3.64836,8.35417,27.5686,4.85318,8.32549,27.8305,4.73085
3.5536,0.302122,5.90575,8.71391,5.8543,6.82562,8.24666,5.86147,5.58205,8.64279,6.22143,6.62553,9.77432,6.29529
0.229398,0.0190217,12.4588,1.78668,1.21764,12.4411,1.72442,1.03622,12.4858,1.78337,1.04165,12.223,1.52163,1.22469
25.8744,0.446933,-3.57116,23.1479,6.54198,-3.83554,25.1828,6.75408,-2.49021,24.5993,6.86264,-5.25339,23.904,6.85325
0.164573,0.43614,-0.066687,1.74206,-4.4477,0.4977,1.76438,-4.45298,0.559646,1.70545,-4.39256,0.433013,1.8261,-4.51511
0.891325,0.0214856,9.51522,7.41275,-4.44325,10.1988,7.38355,-4.1971,10.1066,7.20182,-4.1701,9.77436,7.2816,-4.29848
2.03587,0.112354,11.889,10.6796,3.81691,11.1295,10.6172,4.42405,12.1742,10.6288,3.36699,11.1266,10.665,4.42834
7.74997,0.320268,-8.19627,1.31315,-1.44161,-8.24835,1.28095,1.04396,-7.37487,1.09861,-1.04698,-7.42004,1.07585,-0.761364
0.0117945,0.0492577,-3.53018,34.5769,-3.33442,-3.54945,34.5228,-3.44727,-3.59598,34.5919,-3.41695,-3.59734,34.592,-3.38185
0.875295,0.0598488,-12.6633,5.53296,4.03342,-12.2217,5.52277,4.32194,-12.1258,5.67292,4.41684,-11.9689,5.61113,4.47655
16.818,0.0299148,-6.36479,15.9127,-7.16642,-8.86848,14.1894,-6.5661,-9.01191,15.2109,-6.56021,-7.82667,15.6124,-6.84776
23.6272,0.168078,11.1409,27.425,3.14412,12.9236,27.7693,1.49822,8.04442,27.252,4.99148,6.9783,27.1229,5.34069
4.02376,0.0296058,9.49825,32.5949,-4.14152,11.2044,33.1186,-3.13101,11.3362,32.8536,-3.27067,9.01464,32.506,-4.33768
5.14399,0.0485588,-4.57492,1.02379,2.14092,-4.61867,1.26386,2.86529,-5.01023,1.61958,3.62575,-5.50652,1.15964,2.28754
1.94386,0.317453,0.585474,24.4531,6.83032,1.93509,24.6614,6.94696,1.80469,24.4775,6.96867,1.73729,24.5157,6.924
0.680065,0.0511924,4.92358,1.67424,-4.34832,5.0792,1.33037,-3.97052,4.80597,1.40929,-4.0476,4.30679,1.32193,-3.9828
0.00598345,0.00612875,3.65511,27.9322,6.72369,3.74277,27.8995,6.73266,3.66303,27.8506,6.73173,3.74064,27.8542,6.73356
1.09174,0.0625687,14.1693,8.08145,0.0620287,14.1723,8.00788,-0.402805,14.1886,8.22721,-0.331513,14.1735,8.08089,-0.413002
0.310525,0.0109055,3.78625,7.07823,6.54947,3.56576,7.0279,6.54833,3.5037,7.26998,6.6232,3.43464,7.22528,6.61829
63.4986,0.0970539,-2.86425,13.105,7.05534,-2.77889,14.6835,7.31428,1.99969,15.0248,7.37178,-4.0308,13.5,7.18764
9.40828,0.139991,-1.04375,28.1145,6.10908,0.0983811,27.8693,6.82782,-0.831643,27.4907,6.76728,0.126637,28.5754,6.36985
3.60781,0.110429,7.11011,22.1564,-6.7105,7.21903,21.3871,-6.84055,8.44051,22.5476,-6.36868,6.86895,22.3308,-6.89422
0.00578217,0.0307168,-1.49161,27.462,-7.03644,-1.4198,27.4915,-7.04047,-1.49402,27.5815,-7.02793,-1.42984,27.4525,-7.0273
2.589,0.0285071,11.686,30.9553,-2.79789,11.3967,30.7503,-3.1011,10.609,30.7854,-3.72067,10.6051,30.6509,-3.7478
7.18026,0.343994,-2.48595,15.6287,6.87819,-2.813,15.4864,7.14311,0.749949,14.8111,7.46017,-2.05529,16.8566,7.7956
6.19748,0.281176,-5.78443,18.3609,6.89946,-2.90064,18.2455,7.53934,-6.13815,18.2623,7.12323,-5.86117,19.229,7.34711
3.78755,0.190486,-9.18073,6.46715,-4.94562,-7.50993,6.1144,-5.55588,-9.41408,5.98337,-5.05568,-9.36897,5.56132,-5.04418
2.64447,0.10147,13.7764,9.89019,-2.46894,13.9999,11.2547,-2.58719,13.8553,11.1008,-2.83736,13.9271,11.2154,-2.73968
6.33391,0.380238,-8.45915,31.2184,-4.12978,-6.34912,31.5872,-4.54536,-8.83227,31.8099,-4.24351,-8.57244,30.9045,-4.68931
0.0994347,0.0911458,7.9698,19.3246,-7.14736,8.12341,19.4179,-7.06327,8.11409,19.4912,-7.11289,8.04926,19.501,-7.13362
3.81322,0.235234,6.89698,33.7399,-3.57754,6.63089,34.1083,-3.53882,8.95374,33.983,-3.2224,7.02957,33.6128,-4.11088
78.8935,0.156312,12.4592,26.4816,-3.63385,8.41115,26.5873,-6.28388,8.67834,27.8812,-6.08229,11.04,27.2125,-4.66121
4.68699,0.233919,-0.596417,20.7924,7.01842,-0.541577,19.3269,7.61938,0.776779,20.7439,7.26536,-0.6189,19.3272,7.61965
22.5129,0.652984,7.74542,3.14409,-4.15632,6.22318,2.14361,-4.44045,4.64317,3.23116,-4.96553,4.50624,3.88664,-5.26869
1.41763,0.100513,11.1895,1.11953,-0.0318787,11.0412,0.980093,-0.575159,11.558,1.13204,0.539368,11.4462,1.0817,0.586965
0.968621,0.00612712,12.1977,33.6374,1.03926,11.8845,33.759,1.404,12.0835,33.5944,1.35113,11.9736,33.8303,1.06245
6.87379,0.474478,3.79364,23.8101,6.06593,3.27273,23.7551,6.57192,4.33048,25.3331,6.33784,5.92729,22.7954,6.58146
2.78072,0.193019,-8.18219,16.916,7.12542,-8.07302,18.3049,6.62567,-8.2816,17.6721,6.95662,-8.22252,18.3097,6.62729
1.91789,0.115516,2.98528,19.7411,7.09568,3.12489,19.1603,7.20594,2.97588,18.8993,7.29632,3.18229,18.7413,7.21347
1.63279,0.245129,-1.78052,22.1445,7.34885,-1.77254,21.4973,7.60041,-1.69366,21.5877,7.59544,-0.86005,21.3945,7.5545
0.772636,0.184357,13.6561,18.9434,3.30915,13.6125,18.3762,3.30723,13.5225,18.2852,3.42051,13.7806,18.5148,3.0613
3.4812,0.210077,-11.1029,4.07549,-4.20612,-11.5548,5.31416,-3.98626,-11.0949,3.39974,-4.08412,-11.4976,4.99391,-4.03198
1.13384,0.0635253,-11.7088,2.08523,1.80089,-11.447,2.01281,2.26701,-11.8411,2.11631,1.92508,-11.5693,1.90484,1.68473
7.78424,0.047126,9.49497,1.21918,3.19309,10.1846,0.897911,2.04599,10.7234,1.01477,2.07129,11.0928,1.3126,2.70019
22.2876,0.166915,-3.03079,23.0394,6.66494,-1.71369,22.4877,7.19895,-0.0982919,23.2739,7.21133,-1.85649,22.1466,7.36315
6.29242,0.0417805,9.69976,30.1637,-4.96139,10.4723,29.9519,-4.35201,9.95027,30.6753,-4.3932,10.5365,30.6567,-3.77693
9.23748,0.372511,-1.27064,17.4335,7.14123,0.44919,16.4601,7.61933,-0.542522,19.2821,7.62817,-2.00747,17.4932,7.45945
32.6854,0.0440391,9.65536,15.7606,-6.61224,7.49262,16.2114,-7.12397,7.36107,15.4346,-7.11582,7.94201,14.7871,-6.96653
4.67769,0.296273,-10.9913,28.8035,3.08826,-11.0461,28.4135,3.27868,-11.2812,29.3831,3.47753,-9.79646,28.724,3.98697
9.19669,0.263015,-3.78986,5.81696,-5.69581,-3.668,4.89405,-6.03051,-0.947471,6.3175,-6.17897,-1.67469,6.20297,-6.12217
6.41745,0.525034,1.4265,6.07928,5.29346,2.78673,5.90071,5.50688,1.14394,6.43492,6.13153,1.40424,4.92,5.31517
17.3148,0.397284,-3.23635,27.5843,-5.72815,-3.45812,27.1893,-6.12472,-3.1403,29.9005,-5.87654,-1.78967,27.7518,-6.80093
2.55646,0.180242,12.1071,3.57029,-2.09214,10.933,3.29418,-2.81493,10.8872,3.35787,-2.91614,12.5375,3.92056,-1.61882
0,0.0052209,3.21068,25.6903,-7.27885,3.17879,25.6904,-7.29593,3.17245,25.6426,-7.29914,3.21568,25.7055,-7.28231
6.53473,0.944722,-4.44449,15.1006,7.09013,-2.85177,15.0059,7.30611,-4.37937,16.4042,7.85548,-3.05523,15.4296,7.32257
0.941147,0.0440158,-7.11987,8.52498,-6.60454,-7.33003,8.39703,-6.6207,-6.80581,8.79771,-6.68553,-7.08558,8.79694,-6.63265
1.71633,0.361197,-9.84927,7.48201,-4.7363,-9.94688,6.99274,-4.82138,-9.86224,6.94296,-4.82647,-10.2856,7.70812,-5.1606
0.827156,0.10397,-13.8402,9.19192,2.06485,-13.799,8.26805,2.01331,-13.7747,8.32404,2.13492,-13.7838,8.25755,2.10556
19.091,0.229915,-11.7306,15.9908,5.6619,-10.8388,17.9256,6.07182,-9.99965,15.841,6.34112,-10.3663,16.3691,6.18774
80.2544,0.406844,-6.27267,0.9771,-0.893863,-4.37263,0.751266,0.897932,-3.4575,0.627684,0.638753,-4.48993,0.927373,1.76784
8.00834,0.276113,2.99136,30.5812,5.98134,5.8946,31.1242,5.9396,5.46188,31.3125,5.95383,3.17134,31.4817,6.13246
0.750281,0.124632,7.06826,17.2181,-7.22024,7.02811,16.7527,-7.20074,6.91269,16.8126,-7.22209,6.75886,16.7764,-7.27581
4.7396,0.0859213,13.4479,23.4428,-2.23723,13.2098,22.5884,-2.56107,13.7329,26.0803,-1.54718,13.6351,25.6693,-1.79849
5.34672,0.0361533,10.5283,29.7823,-4.45225,11.4578,29.9617,-3.72975,11.5957,28.4103,-4.56549,11.6651,28.4439,-4.4957
3.94275,0.21322,-3.92784,31.9345,-4.56674,-4.01285,31.7846,-4.76913,-4.30463,32.3442,-4.77427,-1.97482,32.2477,-4.91353
66.3225,0.574261,5.77755,20.4786,-7.07712,9.60082,20.5548,-6.63471,8.04513,22.7792,-6.56421,5.60141,23.0271,-7.17027
23.9371,0.0940087,-9.46234,33.456,3.48135,-7.76607,33.8964,2.96965,-9.1515,33.8922,2.52461,-7.93331,33.4758,3.73473
2.77309,0.709823,-7.8136,4.81273,-4.86286,-5.916,4.65097,-5.58176,-6.24657,4.85561,-5.58571,-5.76073,4.78041,-5.58689
0.452561,0.0027351,13.3022,16.6756,-4.25665,13.3349,16.0702,-4.23244,13.43,16.5809,-4.09505,13.2705,16.3679,-4.30284
6.93727,0.421415,12.0644,3.1427,-0.634725,12.6786,3.04174,-0.0351881,12.7499,5.34974,-1.26625,12.3029,2.72847,-1.05244
13.6191,2.36285,13.6215,12.3576,1.44779,11.5964,12.2774,2.72095,11.5887,12.3593,2.70477,11.8744,12.3661,3.37478
0.644593,0.0117756,14.2444,14.5963,1.19707,14.3425,14.6203,0.661611,14.3635,14.9215,0.534499,14.29,14.8798,0.991372
53.2253,0.516643,4.16232,0.400698,0.620941,3.93697,0.54409,2.06413,-0.298024,0.666426,2.32512,-0.725449,0.904616,2.80326
5.44391,0.162618,-11.9669,20.3208,5.20775,-12.2481,18.8745,5.43061,-12.3092,20.471,5.27858,-10.7673,20.4496,5.66039
13.1179,0.066112,6.91164,27.1148,5.35257,6.79492,29.3494,5.22866,5.70546,26.8986,5.77095,6.55618,29.3228,5.29622
4.88399,0.193401,-2.42185,34.3353,-2.81953,-2.80718,34.6085,-2.68453,-2.61184,34.2307,-3.39016,-0.478289,34.7569,-2.66064
2.96552,0.205005,1.04998,21.2561,7.06541,2.55681,21.4237,6.92551,0.942836,21.6082,7.42885,0.973976,20.8182,7.16994
0.447321,0.0212218,-13.335,19.6535,4.34027,-13.2084,19.4351,4.60529,-13.3558,19.3539,4.30754,-13.2804,19.4714,4.44419
19.4784,0.272147,-7.61925,19.6865,-7.02071,-5.20998,21.6433,-7.35466,-5.74686,19.9132,-7.30732,-5.24862,20.9141,-7.39367
8.13146,0.0898691,-8.69163,9.82639,-6.17538,-8.28913,9.06343,-6.45833,-5.66152,9.27186,-6.52243,-5.79438,9.41625,-6.48393
0.694191,0.0500246,-7.60818,12.1365,6.88037,-7.63228,11.4919,6.89583,-7.70781,11.5304,6.853,-7.78817,11.4748,6.80317
9.29505,0.55647,-5.52836,28.1193,-5.78406,-6.22275,29.2386,-6.35562,-3.82508,28.5568,-6.25218,-5.57553,27.0989,-6.36077
9.42903,0.355533,-10.1853,21.6562,-5.40224,-10.1741,22.5924,-5.50393,-8.44214,21.4435,-6.78653,-10.548,21.2613,-5.76989
3.06515,0.361932,6.60019,27.5775,-5.83547,7.19606,27.5518,-6.17163,8.41746,27.9081,-6.2006,6.1296,27.5148,-6.21908
3.52353,0.00660181,-6.3335,5.02904,5.47959,-7.75074,5.09633,4.8833,-7.6753,5.0151,4.94767,-7.44123,4.5605,5.23146
7.53548,0.392054,-2.54362,30.169,5.96753,-2.94517,29.9663,6.39624,-2.71791,31.315,6.19107,-1.38373,30.3684,6.32957
1.12268,0.0199935,13.5942,23.2997,2.97744,13.1046,23.1531,3.41947,13.0635,23.016,3.42199,13.2083,22.9384,3.24643
6.37168,0.388671,5.02528,29.1074,5.77152,5.81829,30.3301,6.1457,6.46891,28.235,5.69327,4.67668,29.1068,6.26317
74.5228,0.0762907,4.51234,27.4705,-6.30302,3.81726,31.1315,-5.93935,6.14953,30.4447,-5.79061,6.14703,27.8132,-6.04288
4.27499,0.384571,9.01421,10.412,5.24186,11.0645,10.6574,4.4613,11.0882,10.5702,4.47714,8.87609,9.71859,6.01249
3.16976,0.0268522,6.04968,22.9225,6.53238,6.81427,22.169,6.4613,6.68995,22.4012,6.5048,6.58422,23.3244,6.72335
30.8402,0.140418,-2.58544,8.94886,-6.55614,-5.72544,9.45755,-6.50162,2.20099,8.35515,-6.29715,2.1204,8.17739,-6.28532
67.476,0.0362096,-10.8717,25.4293,-5.42774,-13.4824,23.0247,-4.05295,-9.02422,26.2938,-6.35002,-10.2704,27.7789,-5.65219
5.76807,0.268861,-6.3819,18.5527,7.19782,-8.29925,18.4376,6.58038,-9.73599,18.3498,6.35625,-9.73593,18.3908,6.3319
0.537479,0.0591992,-13.7408,19.0096,-3.68775,-13.7923,18.3758,-3.62699,-13.6727,18.6277,-3.78782,-13.6172,18.6764,-3.87998
6.56113,0.151204,4.01563,11.5314,6.53191,2.52329,11.7936,6.95224,5.97693,11.6653,6.00942,5.8565,11.7377,6.12645
0.142933,0.00139452,7.98481,0.995922,-2.93187,8.10709,1.2248,-3.17907,7.95456,1.09404,-3.06454,8.03363,1.22273,-3.20133
4.34376,0.0809338,-5.21071,20.637,7.19297,-5.86883,20.5688,7.06561,-3.1745,20.7867,7.25844,-3.23263,20.6541,7.29135
9.79654,0.597842,-10.7052,20.6635,5.57077,-10.2287,21.3673,5.86256,-8.67652,19.6626,6.68819,-8.41535,20.1268,6.43836
22.9826,0.1241,6.08806,15.3133,6.17675,7.91835,15.2752,6.20368,6.40464,17.1535,6.85466,4.86527,16.0396,6.5902
24.0394,0.687841,-2.98295,25.3325,6.05642,-1.7694,28.4897,6.42308,-3.76671,25.3562,6.70034,-1.36234,24.2065,6.99309
1.6182,0.83579,11.424,12.7455,4.27132,10.5297,13.6186,4.73652,11.582,13.6382,4.59165,10.4768,13.5788,4.77715
1.14412,0.0626778,7.28506,5.1107,-4.74324,6.37711,5.03044,-4.83159,6.50533,4.91836,-4.78023,6.29657,4.92921,-4.79654
0.388424,0.00787522,-1.28705,34.9914,-2.34602,-1.04277,34.945,-2.51112,-1.04008,34.9774,-2.3959,-1.1718,34.9422,-2.50621
4.59527,0.00558325,14.2338,10.5659,0.126931,13.9738,10.5271,0.947692,14.3235,10.3761,-0.247313,14.2974,12.0536,0.376829
0.0718956,0.0166,-1.09436,16.9245,-7.90499,-0.980368,17.0421,-7.8935,-0.981454,17.0023,-7.89175,-1.09214,17.0098,-7.89212
7.11784,0.249487,8.70027,33.2733,-4.09893,6.37548,32.9939,-4.27701,6.44732,32.9502,-4.3095,9.85639,32.9217,-3.954
10.2052,0.714053,-7.006,28.303,5.57603,-4.09074,26.7418,6.69653,-6.21895,29.9029,6.01089,-7.69606,28.4687,6.25156
7.76269,0.353353,7.06899,25.6361,-6.24769,7.18981,27.5093,-6.19144,7.25668,27.4605,-6.21189,8.58557,25.7327,-6.50506
11.6022,0.762908,-3.11045,4.72631,4.59472,-1.18447,4.36442,5.58911,-1.14333,2.76481,5.04149,-0.8573,2.67669,5.05604
5.84514,0.277769,-9.5282,20.9144,5.92803,-8.8619,22.3556,6.46533,-8.46324,20.4155,6.50597,-8.86435,22.2564,6.44455
5.9874,0.318267,4.78395,25.7932,-6.62229,5.65556,25.8818,-6.54158,4.95017,27.1783,-6.41343,4.57112,25.4776,-7.21043
0.166187,0.198885,5.86717,10.4833,-7.13807,6.09218,10.6579,-7.11718,6.0179,10.7014,-7.13026,5.95583,10.7577,-7.16179
0.129465,0.00618715,-12.2528,7.92927,4.9883,-12.4101,7.7314,4.83303,-12.2247,7.65605,4.95396,-12.3979,7.8222,4.85741
0.780093,0.0873463,-12.581,31.7595,3.5123,-12.1858,31.3624,3.97939,-12.1445,31.8201,4.03266,-12.2479,31.5015,3.92716
69.0156,1.03888,2.89381,21.2774,6.6419,6.45286,20.0934,6.73845,6.55567,21.3766,6.04427,4.71025,19.0775,6.98838
6.12568,0.155692,2.21579,3.24661,-4.6572,2.20706,4.48626,-5.15155,3.38093,2.97893,-5.06226,2.31712,4.5333,-5.19337
2.29415,0.064702,7.15116,30.3423,-5.35716,8.42025,31.0549,-4.97702,7.01113,30.0508,-5.52768,6.73659,30.0701,-5.58147
0.253612,0.00550263,-8.7937,32.8463,4.64593,-8.94563,32.9611,4.49383,-9.1594,32.9392,4.50688,-9.21952,32.894,4.55623
11.383,0.443236,3.31376,6.16293,5.15816,3.38844,2.7859,5.0889,4.60829,5.96974,5.37591,3.36079,2.30259,5.02016
2.00246,0.187626,12.9001,5.78918,-1.27841,12.553,5.53981,-2.04571,12.739,5.64322,-1.88057,12.777,5.34147,-1.17982
0.377741,0.0291409,-13.3657,32.5839,0.260892,-13.1866,33.1893,0.241718,-13.1402,33.2427,0.185115,-13.3434,32.7041,0.324173
2.29712,0.145394,-2.82132,20.7613,7.10098,-3.10999,20.8776,7.26531,-2.1153,20.6791,7.18011,-3.01699,19.9752,7.37909
0.101281,0.00505284,-5.4003,19.6723,-7.35162,-5.25933,19.6667,-7.36553,-5.2496,19.7522,-7.36394,-5.39697,19.7641,-7.35453
3.21652,0.287421,-7.81985,20.5081,5.95184,-7.98434,20.0577,6.05504,-8.1568,21.101,6.70071,-7.32087,20.5546,6.22448
0.240953,0.02892,-5.13514,18.3259,-7.36901,-4.85748,18.2269,-7.41329,-4.86098,18.1815,-7.41468,-4.9179,18.3732,-7.40571
4.20739,0.0790866,2.19215,9.56919,6.96806,-0.0219198,8.50667,6.77544,-0.0273605,8.64918,6.78038,0.693003,8.75689,6.85974
5.83919,0.455374,11.7532,22.0194,-3.99894,12.0153,21.5018,-4.71107,11.9185,22.6347,-4.49276,12.5341,21.9933,-3.44637
7.72954,0.309866,-2.88775,33.7559,-3.72417,-3.09361,34.3127,-3.51747,-2.84941,33.5268,-4.51577,-0.453519,34.2035,-3.66526
0.397142,0.104317,8.60078,32.2658,-4.46753,8.94175,32.4674,-4.36922,8.87057,32.3797,-4.3761,9.01576,32.3335,-4.40515
1.89956,0.127351,-8.82849,30.6615,4.75798,-8.1708,30.9169,5.44772,-7.69806,30.8827,5.78939,-7.77478,31.0148,5.75676
58.1787,0.0561633,0.484049,0.489357,-1.66123,4.20361,0.418273,-0.899673,2.33471,0.314905,-0.147729,4.79761,0.625339,-2.31795
7.87602,0.116211,12.5143,7.06959,-2.82416,10.2661,7.37761,-4.1643,13.3556,6.97216,-2.11367,10.1892,7.33918,-4.17645
121.345,1.29661,8.94031,0.649632,1.31879,5.81232,0.934212,3.07969,4.5162,0.398341,0.708379,4.9961,0.511673,-1.64555
1.76358,0.00366096,3.36054,19.8675,-7.79594,2.72557,19.7215,-7.85267,2.66306,19.9093,-7.86655,2.42871,19.5094,-7.87132
10.6801,0.0226219,-7.61578,12.7689,6.78411,-7.69828,12.2309,6.88623,-5.75881,12.9108,7.51759,-7.45805,14.0373,6.61195
1.16765,0.0431875,13.1926,3.65432,1.25542,13.0762,3.8616,1.61545,13.3804,3.95369,1.08239,13.1378,3.37235,1.37122
11.3359,1.50165,0.916026,3.45173,-4.90592,1.49435,6.7169,-6.50717,0.985316,6.57671,-6.3523,0.763324,6.59141,-6.3775
2.91947,0.386972,8.61071,7.05824,-4.88573,8.44843,6.24968,-5.29199,8.69834,6.03152,-4.85597,8.67361,5.7841,-4.74779
4.99361,0.240663,9.91044,4.04645,-3.43181,9.73595,3.46294,-3.54475,12.2442,4.32305,-2.40239,9.60953,4.14404,-3.98922
0.141165,0.0813056,1.0596,35.4592,-1.45923,0.846457,35.4591,-1.34454,0.83921,35.4305,-1.38344,0.7741,35.4109,-1.41607
12.9824,0.112607,-8.83996,14.2257,6.88041,-10.1591,15.6915,6.30085,-10.8877,14.3617,6.38889,-10.6108,15.1355,6.29591
0.263023,0.00501226,-2.29585,12.586,-7.79276,-2.3088,12.3496,-7.76584,-2.38156,12.3511,-7.7597,-2.44593,12.4496,-7.7628
25.297,0.344598,5.04964,6.02989,4.9704,7.704,6.1645,5.17832,5.29149,3.06281,5.04237,5.25999,2.205,4.96875
8.55553,0.12542,-8.85517,1.3675,0.0497958,-8.55413,1.30823,0.696899,-9.19386,1.6269,1.94175,-9.54835,1.6076,1.53126
1.98212,0.158726,2.30747,7.57958,-6.36405,2.20637,6.49697,-6.22024,2.39182,6.58103,-6.20517,2.38071,6.48471,-6.17773
0.184778,0.0251744,0.0443994,29.8301,6.68008,0.193652,29.4741,6.77179,0.048208,29.6093,6.73911,0.124679,29.4747,6.76583
1.97191,0.256241,4.81218,31.9951,-5.52649,2.82728,32.009,-5.24532,2.82214,31.9157,-5.28469,2.67408,31.9628,-5.22203
0.505651,0.021528,11.8303,8.24594,-4.5567,11.3857,8.08183,-4.67516,11.5283,8.06436,-4.54282,11.6278,8.28132,-4.71978
10.0999,0.313513,-8.79811,23.0072,-5.95482,-9.34137,22.8323,-6.1712,-7.76825,22.2321,-6.72823,-7.07091,24.9138,-6.37883
40.0958,0.0369349,-11.6555,1.89473,1.3937,-10.8242,1.77461,1.65317,-9.39222,1.60148,-2.42368,-10.8441,1.84962,-1.62542
4.60062,0.158369,7.10882,31.6636,-4.93593,6.93654,31.8283,-5.05555,7.6907,31.1815,-5.3131,8.60648,32.2234,-4.48908
5.80548,0.413596,-5.68261,6.1487,-5.46184,-4.15132,6.11514,-5.97778,-6.05407,6.47477,-5.90599,-5.7307,4.98786,-5.70137
8.43328,0.0634836,14.0358,20.1122,2.06827,14.3444,20.6138,0.519209,14.317,19.8816,0.857072,14.0076,20.3407,2.55463
2.50727,0.00967734,14.4182,19.015,-0.298103,14.4525,18.541,-0.383186,14.4176,18.5075,-0.739861,14.3383,18.9504,-1.0133
16.3913,0.425308,2.24863,28.7498,6.10582,2.86756,30.2813,6.11648,4.74788,28.8737,6.23779,1.97627,28.259,6.69091
1.47065,0.118443,11.6095,12.5669,4.08109,11.1755,12.4386,4.42305,11.9283,12.4357,3.66549,11.9391,12.33,3.73101
5.05492,0.585756,-1.90843,32.2493,-4.91967,0.175132,32.5397,-5.1389,0.0392641,32.9109,-5.15816,-0.0401814,32.4198,-5.17895
11.0909,0.230846,-8.1469,29.9069,-5.11714,-8.19761,29.5147,-5.6052,-5.42709,30.6055,-5.84455,-8.50108,30.8852,-4.71485
3.91936,0.229796,-4.29173,23.1456,-6.54071,-5.2791,22.8011,-6.71288,-5.04672,23.1399,-6.63045,-5.41507,22.8646,-6.77899
4.61143,0.0344886,-1.49632,0.673978,1.61767,-1.31533,0.503541,1.12344,-2.13571,0.657825,1.35226,-2.4662,0.53469,0.628528
5.35781,0.0450685,-13.795,5.67949,-0.443403,-13.7145,6.32905,-1.91511,-13.7411,5.81968,-1.66541,-13.7885,6.41842,-0.971737
6.50685,0.776043,3.49239,10.416,6.51906,5.20263,10.2157,6.67765,5.29109,9.80121,6.92985,3.96863,11.0747,6.81351
6.60539,0.424283,6.90361,21.4017,5.53292,7.08981,19.7606,6.20816,8.16501,21.5403,5.5869,6.66051,21.665,6.00725
5.57638,0.335203,-9.64889,29.5317,-4.60332,-10.1275,29.5908,-4.75968,-9.0642,28.8438,-5.76744,-8.55756,30.7565,-4.78907
3.54197,0.401254,-12.1332,22.874,4.42394,-12.5573,22.494,4.67691,-12.3774,23.4511,4.82664,-11.2108,22.8574,5.13099
3.06482,0.032226,9.44201,7.36987,-4.45296,7.39968,7.53858,-5.25345,7.41918,7.6849,-5.28677,8.35649,7.48668,-4.86928
8.63142,0.0890796,-14.1177,13.3611,1.90031,-14.1946,12.5443,0.120515,-14.1914,12.4761,0.131133,-14.1184,11.7626,0.619244
4.37306,0.411992,-2.8091,17.6799,7.21796,-1.81163,19.2785,7.60423,-3.30457,17.7772,7.75544,-2.07775,17.4513,7.46347
0.727372,0.0357313,13.3295,9.3211,-3.2979,13.5258,10.0329,-3.09033,13.5391,9.93155,-3.02744,13.6339,9.98495,-2.86081
38.3,0.647328,-7.49568,15.5671,6.33723,-7.46089,14.0811,6.59349,-4.8154,15.1945,7.32901,-8.65931,14.9729,6.66493
7.50994,0.736724,-10.9205,30.6776,3.2212,-8.90805,30.7468,4.7005,-11.0425,29.5337,3.57686,-11.4939,31.5883,4.19892
5.18986,0.385127,-3.18415,26.2321,-6.29622,-3.59078,25.9069,-6.83491,-1.54606,26.4174,-7.23108,-3.38761,27.1446,-6.12186
14.6181,0.744216,-1.84404,29.6113,6.21811,-3.02449,28.5044,6.49006,-0.239441,29.5141,6.72681,-1.84942,28.7052,6.30184
0.279039,0.000182388,-11.633,2.79756,3.67244,-11.1623,2.57663,3.62909,-11.11,2.60632,3.69601,-11.3843,2.65144,3.61052
0.00476851,0.00318592,-1.02858,28.5086,-6.99329,-1.04452,28.4347,-6.98865,-0.956502,28.4704,-6.99748,-0.954783,28.5156,-7.00178
27.6881,0.108023,-4.74343,29.689,-5.76655,-2.80031,30.3543,-5.59012,-3.40014,31.7341,-5.03054,-4.73569,32.0888,-4.77615
229.875,0.489288,4.74421,18.7161,-7.61246,-0.476864,19.1435,-7.90328,0.359245,17.6391,-7.95157,-0.858627,18.4737,-7.89677
0.332283,0.011018,13.5838,14.0669,-3.97944,13.5834,13.5441,-3.99867,13.6413,13.495,-3.91512,13.6395,13.9445,-3.88478
0.80857,0.00188604,0.0941297,20.0929,-7.96363,-0.366152,19.7866,-7.92986,-0.240863,19.3228,-7.90908,-0.319633,19.3708,-7.90902
0.218623,0.150276,-7.24136,1.28219,0.520307,-7.25772,1.13103,0.653857,-7.30825,1.15555,0.640139,-7.19386,1.07712,0.338423
0.0833719,0.00205516,2.6368,12.9534,-7.81673,2.77701,12.8567,-7.78407,2.6337,12.8613,-7.81538,2.78335,12.9252,-7.78577
0.137714,0.018595,4.11766,6.83706,-6.58351,4.25592,7.00308,-6.50246,4.2538,6.91685,-6.53547,4.12053,6.97033,-6.55316
2.96386,0.224476,11.152,4.41497,3.63698,10.1652,4.31375,4.4647,10.1612,4.45508,4.47941,11.25,4.30509,3.15996
1.22571,0.0509512,8.70138,2.72505,-3.2456,10.0488,2.89298,-3.26758,9.54011,2.68754,-3.26864,9.82534,2.76656,-3.26551
4.23733,0.149031,8.77802,23.5312,-6.26792,6.43068,23.9142,-6.51787,6.42118,23.8661,-6.51408,9.726,23.3505,-5.95125
9.26807,0.638265,2.13694,34.6232,-1.54449,1.68805,35.4366,-1.36127,2.32364,34.8279,-2.60076,5.927,35.2622,-1.2452
8.63922,0.473471,11.6402,29.4481,-3.14503,11.9344,33.1548,-1.95224,12.7067,29.2076,-2.52291,11.8672,29.1722,-3.80606
6.62551,0.378323,8.1796,3.09692,-3.41028,8.7136,4.79759,-4.3693,9.47167,3.2983,-3.5932,8.44728,5.10401,-4.48229
2.87874,0.144515,-4.83683,33.8093,-4.13152,-4.70993,33.3153,-4.2956,-4.34199,33.4105,-4.45527,-4.86615,32.9957,-4.38389
6.51057,0.371899,-11.39,26.4221,4.58141,-11.0451,28.3748,3.30906,-11.0361,28.3347,3.3396,-11.1924,28.2637,3.45839
8.35878,0.412698,5.74364,14.063,6.44512,5.57688,13.6059,6.95171,8.71882,14.0623,6.00998,5.85593,14.782,6.79967
2.31667,0.239937,-5.86571,20.52,7.06179,-7.2222,20.4219,6.27065,-7.24334,20.5661,6.27521,-7.09801,20.5244,6.32771
4.02009,0.235831,-4.28189,21.5899,-6.95946,-4.26312,22.6991,-7.00558,-3.55557,21.6185,-7.08339,-4.54012,21.3261,-7.28787
1.61987,0.237139,-6.1875,26.0051,6.4408,-4.8411,25.8733,6.46979,-4.55989,25.9118,6.457,-5.11612,25.8602,6.43542
15.0032,0.0448,-0.754065,0.439722,-1.27957,1.46592,0.319499,-0.848159,1.61406,0.29643,-0.347677,0.498097,0.308931,0.0993084
16.9336,0.0448427,2.507,14.0742,6.99506,2.28837,15.9541,6.90105,2.38381,11.996,7.05925,3.42413,16.0177,6.72437
1.38453,0.00296393,13.4733,28.1657,-1.5352,13.4604,26.7982,-2.05208,13.4005,27.6128,-1.90594,13.66,26.6081,-1.6546
25.9702,0.428981,-1.17346,19.5117,7.6211,-1.91911,20.4524,7.20284,-4.85587,20.2082,7.37742,-5.15066,19.193,7.42725
4.49076,0.333242,-7.41048,21.8462,-6.404,-8.076,21.7907,-6.76054,-6.7523,21.0727,-7.02974,-6.91876,22.4486,-6.56309
8.66785,0.655425,0.38087,31.0385,-6.02357,-2.72698,30.3114,-5.64794,-2.50976,30.6486,-5.50605,-1.32572,31.3889,-5.628
0.701549,0.930011,-5.27505,9.27203,6.93773,-6.37933,9.88647,6.50904,-6.36451,9.9716,6.47008,-6.37657,9.92509,6.4841
9.43097,0.424116,-0.632282,11.1237,6.62382,2.00841,10.4579,7.01397,-0.140923,12.4561,7.54707,-1.02048,10.9619,6.99354
64.2952,1.16461,-10.6816,10.5888,4.37773,-7.34413,10.3714,6.63498,-10.461,6.15481,4.1344,-11.2315,11.5157,5.83171
6.472,0.010406,0.30997,14.702,-7.9977,1.59871,13.9865,-7.93724,1.36829,14.7432,-7.98849,0.0684748,14.205,-7.9827
3.61877,0.825721,-0.830019,19.0208,-7.87772,-2.34503,18.571,-7.76398,-1.72519,18.3159,-7.8057,-2.06629,18.4668,-7.76903
2.70181,0.284809,12.9045,5.88102,-1.38231,13.5124,8.12566,-2.0666,13.4382,7.84782,-1.91319,13.4518,7.68671,-1.74814
1.51764,0.318662,6.37474,32.9511,-4.31158,5.09965,32.8814,-4.39455,5.19268,33.0541,-4.27532,5.09547,32.925,-4.3555
5.493,0.32534,0.543774,31.8182,-5.03019,0.22526,32.3464,-5.10355,0.433653,31.4908,-5.62226,2.60732,31.9697,-5.20622
0.288035,0.0550926,5.06601,6.77862,6.21737,5.25532,6.54753,5.97555,5.17911,6.54668,5.96319,5.04533,6.60328,6.03558
3.44434,0.589028,-8.16753,18.5739,6.56279,-8.06099,19.8916,6.1658,-7.81058,20.0153,6.07742,-7.98092,20.0127,6.06265
9.85949,0.144649,12.7879,29.7658,-1.90966,13.3777,28.8534,-0.93838,13.1893,29.0693,-1.42609,12.6644,29.7249,-0.0539838
1.08052,0.0688182,-8.51867,15.7658,6.92304,-9.46832,15.9404,6.61894,-9.39074,15.996,6.6688,-9.31748,15.9545,6.69076
7.62818,0.298485,-12.0861,7.27029,-3.88122,-12.5067,6.84954,-4.01926,-9.86844,6.89755,-4.83147,-12.2354,7.65825,-4.19306
4.71098,0.228739,7.35079,5.10539,-4.72336,9.75702,5.71456,-4.31648,9.74336,5.66545,-4.2617,8.77976,5.6554,-4.56007
1.91987,0.125155,-8.82673,9.87682,-6.1644,-10.4854,9.9494,-5.82341,-10.3371,10.0417,-5.87504,-9.76824,9.85341,-6.02121
8.68878,0.492833,2.42498,24.0021,6.36331,2.97833,25.4823,6.6347,5.12622,22.4444,6.96421,1.91205,24.1367,6.86384
0.462994,0.068316,-2.71645,0.591097,-0.907419,-2.95318,0.538515,-0.817874,-2.57478,0.544968,-1.09129,-2.96155,0.555945,-0.871821
7.30791,0.383141,12.1017,29.5525,1.80629,12.8168,29.3827,0.684347,12.804,29.5393,-0.388254,12.8414,29.489,-0.387168
3.0808,0.273031,2.33061,0.620353,-2.29702,4.49851,1.64642,-4.34111,4.16574,1.76418,-4.43089,4.17188,1.71005,-4.36564
0.00688035,0.00690584,-11.5388,2.57669,-3.21367,-11.5017,2.49895,-3.14774,-11.5394,2.46506,-3.06686,-11.4999,2.55966,-3.22207
6.06945,0.259463,8.03666,29.4629,-5.66645,9.06165,28.4552,-6.0543,9.49737,30.1874,-5.06192,9.09231,30.0075,-5.30394
2.89646,0.223437,-5.27591,30.9209,5.48115,-4.59831,32.0211,5.71255,-5.61794,30.8554,5.64614,-4.52917,30.4409,5.93778
1.87339,0.270737,-13.9506,14.2583,-3.06195,-13.8106,11.7801,-2.81189,-13.8142,12.1448,-2.77575,-13.7673,11.8755,-2.9311
0.145529,0.106606,1.83088,0.738734,2.70457,1.66616,0.757753,2.69018,1.71573,0.742182,2.60658,1.70635,0.796102,2.70527
2.32995,0.0953299,8.69169,7.34852,5.76755,9.38431,6.98648,5.39641,7.38693,7.8849,5.88571,6.81705,8.19601,5.84413
31.0852,4.07205,-6.93642,27.9141,-6.4988,-5.37718,23.1772,-6.74363,-6.70817,22.6352,-6.35376,-6.56943,22.8737,-6.128
2.30747,0.190852,13.5895,11.9989,1.39089,12.53,11.9952,2.09114,14.1851,11.9547,0.591257,12.5172,12.038,2.08309
2.61183,0.840691,-0.871928,6.37164,-6.22693,0.492128,6.47657,-6.43703,0.557857,6.32723,-6.39486,0.430088,6.53036,-6.47348
5.02409,0.248029,-5.14483,26.6384,-6.1943,-3.62986,26.9155,-6.42428,-5.06471,25.7224,-6.91713,-5.40836,27.0211,-6.26999
1.8386,0.102411,2.39061,28.0536,6.56015,2.44445,27.1305,6.57588,2.30734,28.3072,6.44156,2.38103,27.2269,6.60553
4.55041,0.099551,11.6791,11.8076,2.66549,13.1704,9.99678,2.01417,12.1993,9.98992,2.58083,12.114,10.1532,2.60041
4.48824,0.352626,8.05434,6.36631,4.76169,8.94111,6.32318,4.71339,7.77222,6.53061,5.40793,8.11947,5.44555,4.7406
18.2835,0.380643,2.33152,23.0227,-6.98838,2.693,25.7129,-7.28336,2.09825,22.773,-7.38122,5.19158,23.0244,-7.31214
75.0411,0.497142,9.95158,16.6842,4.74801,6.19864,16.2477,6.37264,12.7334,14.2677,3.95733,11.6446,18.8085,5.13998
4.23854,0.228221,-1.24621,24.692,-7.17544,-0.906293,26.2173,-7.32898,-0.924746,26.0345,-7.34228,-1.25242,26.5886,-7.23588
6.80566,0.8028,12.0544,10.0775,2.68967,13.1925,8.80582,2.14886,12.7291,7.49468,2.63179,12.7632,7.40433,2.55994
4.069,0.162981,-5.00256,10.4349,6.7127,-4.20887,11.5037,7.18473,-3.97054,9.64641,7.16849,-3.72858,12.1418,7.59102
3.51149,0.0665651,0.165054,5.7532,6.00086,-1.25698,5.73909,5.95175,0.864537,5.83506,5.93236,-1.38879,5.93,5.97161
10.7209,0.101107,10.5305,29.5489,3.79458,11.8993,29.755,2.79189,10.6404,28.3794,3.83711,10.3744,30.6951,3.54437
0.0315468,0.0208916,1.09551,25.1061,-7.7653,1.07459,25.0336,-7.78271,1.14672,25.0262,-7.78377,1.23686,25.117,-7.78939
15.9153,0.335041,-12.0496,13.4551,5.26942,-12.2205,14.3067,5.73902,-8.64125,13.5289,6.88362,-8.23692,12.7394,6.87364
15.6711,0.1994,4.50686,33.845,-3.98528,4.23503,34.9539,-2.13866,5.60449,34.8707,-2.61587,6.4049,34.3205,-3.54705
2.95722,0.229152,-3.06051,8.90723,6.69677,-3.40178,8.667,6.92628,-1.49204,8.62597,6.91878,-3.25525,9.13865,6.9276
5.43156,0.651647,3.69604,0.689203,2.48219,6.28579,0.641465,1.77063,6.34649,0.671966,2.15161,6.35599,0.610245,1.65405
7.36678,0.661577,7.15168,24.0049,6.64361,7.10719,25.9112,6.07099,6.91281,26.7108,5.52769,6.87041,26.1045,6.00019
13.644,0.0683293,-3.15375,21.4946,-7.00818,-2.20568,22.5467,-7.29714,-3.04522,22.7152,-7.20102,-1.73232,21.4964,-7.15837
9.51943,0.189336,13.7726,20.333,-2.33645,12.7295,20.2266,-4.04776,12.6427,20.3357,-4.19902,13.1828,20.1518,-3.40821
4.34204,0.00265092,6.63738,12.6269,-7.21423,6.36311,13.5692,-7.30686,5.9599,12.7734,-7.34431,6.01397,13.5573,-7.37117
5.04437,0.343382,4.14654,26.6559,5.6945,5.63938,26.9026,5.77599,4.41686,25.4219,6.30144,3.95477,26.8078,6.04289
4.52946,0.303991,5.53138,23.9638,-6.58334,6.36714,23.9211,-6.52597,5.44943,24.4256,-6.9096,5.05968,23.2468,-7.22932
17.0012,1.60268,-11.1436,30.2691,-3.96665,-13.6621,29.1327,-2.71099,-12.997,29.6481,-2.63416,-13.2543,30.4624,-2.79649
10.3543,0.231915,-10.3358,24.8616,-5.50837,-10.1589,22.6841,-5.49236,-11.0805,23.3687,-5.46735,-10.4341,22.6088,-5.51397
0.194016,0.0234485,-9.65081,1.64216,1.69327,-10.0784,1.69378,1.64239,-9.98002,1.66137,1.47187,-9.97369,1.69183,1.689
28.6439,1.68503,-11.5314,33.1724,3.29587,-9.916,34.0277,1.78036,-9.35586,34.0116,2.14159,-10.6728,33.9425,1.34184
2.88216,0.0607285,5.58465,7.88857,-5.77792,7.41153,7.634,-5.25658,7.33572,7.54712,-5.27465,6.28249,7.87333,-5.62338
94.5434,2.90394,-7.77431,21.4925,6.82099,-5.80952,24.7155,6.73399,-7.27513,25.1565,6.36112,-5.2435,24.6716,7.00526
3.97974,0.0193385,4.44025,19.4304,-7.67743,5.4029,19.2278,-7.55084,5.37874,19.9635,-7.53701,6.31245,19.6218,-7.39872
0.419861,0.0210549,6.50419,35.2302,-0.2822,6.10609,35.3195,-0.456395,6.30919,35.2353,-0.24971,6.1042,35.3318,-0.507729
0.113521,0.00313049,-12.695,17.6482,5.26225,-12.6622,17.638,5.29446,-12.6552,17.3818,5.30934,-12.7112,17.4035,5.2462
7.1059,0.827526,-5.40998,4.86835,4.40468,-5.62249,6.19082,5.93378,-4.02287,4.63134,4.85181,-6.47951,3.80421,5.17954
1.30675,0.804693,-7.37141,6.01677,-5.58735,-6.25417,5.76454,-5.79052,-6.38355,5.68586,-5.83483,-6.16894,5.85474,-5.77929
1.95542,0.0875537,10.7302,6.56448,4.5572,9.95015,6.4242,4.50644,11.5836,6.75619,4.18688,11.844,6.74454,3.96928
33.4873,0.148264,7.08207,17.4466,-7.22641,10.2484,17.5048,-6.46722,10.1769,18.6202,-6.50498,9.31649,16.8983,-6.72706
4.80682,2.11588,-3.41984,4.9583,4.5615,-1.4941,6.32681,6.11801,-1.87155,6.42213,6.1145,-1.14009,6.21141,6.2234
38.4851,0.456849,-12.8434,5.34396,3.80575,-13.7003,4.44025,0.339485,-13.9799,11.5274,1.75124,-13.4212,3.24667,1.87142
285.28,0.0167669,6.93194,13.9929,-7.1939,1.43357,13.6716,-7.93298,6.87879,16.3471,-7.24001,1.45327,16.1214,-7.98817
14.6043,2.1038,8.40087,21.2336,5.39668,12.7499,21.8149,3.35714,12.7097,21.1244,3.88992,12.8019,21.3866,3.59492
15.3302,0.169278,-3.85281,1.0782,2.53992,-2.3446,0.636578,1.33532,-3.61199,0.731813,1.15185,-2.66272,0.648749,1.18312
6.56369,0.237323,1.90984,29.5996,6.43615,1.5163,28.568,6.84403,0.996867,28.8217,6.47943,0.115303,28.6246,6.37293
0.0206169,0.0177363,4.28125,31.5469,5.97609,4.26448,31.4662,5.99565,4.2087,31.5389,5.98213,4.20619,31.4774,5.98506
5.24979,0.409493,12.5837,22.0137,-3.36941,13.6215,21.8459,-1.96392,13.407,22.0792,-2.21627,13.7876,21.8822,-1.3832
3.93702,0.167056,9.1036,8.94342,-5.89317,8.85427,8.07394,-5.27794,9.15031,10.1281,-6.40378,8.79013,8.14292,-5.39426
2.31083,0.0219171,14.0933,14.8889,-2.48242,14.3314,13.0166,-1.90135,14.1943,13.4897,-2.31493,14.2445,13.8791,-2.0445
2.50109,0.286864,11.087,34.4597,-0.0407701,10.6271,34.2435,1.37816,11.3155,34.2382,0.832682,11.0253,34.2977,0.956409
2.06004,0.17712,8.12376,2.66067,-3.26782,8.5503,2.63672,-3.2428,8.05619,2.16899,-3.65954,8.17139,2.99471,-3.35356
7.12781,0.249622,8.88329,12.1247,5.48892,11.4665,12.2318,4.21476,7.42418,11.7338,5.61451,11.1101,12.5211,4.48089
9.00791,0.351337,9.79277,5.33383,-3.69258,9.84589,4.55147,-4.02381,12.5723,5.47088,-2.00267,9.655,5.57632,-4.26687
4.96339,0.0996693,10.0965,31.047,-4.11786,8.48428,31.0414,-4.91765,8.36938,31.6021,-4.87529,10.6167,30.8799,-3.73855
21.1161,0.527572,7.23619,19.5856,6.23053,6.41351,17.6321,6.94407,7.14737,17.1577,6.59828,7.36621,17.5626,6.54926
1.13833,0.00029345,-13.7037,3.27603,0.217199,-13.7499,3.82607,-0.206897,-13.7097,3.78218,0.316467,-13.7239,3.77109,0.121576
22.8369,0.105236,0.974708,22.6894,-7.42759,3.16683,20.1977,-7.79737,2.06966,23.4984,-7.31011,2.97514,22.1836,-7.46809
2.84407,0.348032,-4.8906,13.5097,6.98625,-5.28086,13.1234,7.40973,-4.10438,13.4021,7.14078,-5.04049,14.0528,7.43112
5.0977,1.07494,11.8226,22.8371,-4.63256,9.19067,22.9755,-5.66062,9.61283,22.8063,-5.32041,9.48397,22.832,-5.44662
0.13039,0.0317601,14.3801,12.3044,-1.83989,14.3925,11.9912,-1.64805,14.403,12.1229,-1.61085,14.3898,11.9651,-1.68773
5.75902,0.103658,1.25738,0.479954,1.20483,2.15982,0.306543,-0.04836,1.77945,0.345057,0.648844,1.77469,0.296197,-0.250909
79.6958,0.133162,0.228194,21.4381,-7.75906,-1.75441,21.3379,-7.23499,-2.52516,23.6705,-6.96532,-1.24829,24.6444,-7.16976
29.1396,0.100166,-11.1371,2.01686,-1.25776,-12.8447,2.19718,0.13761,-12.0718,1.96767,0.732743,-12.2174,2.16531,-1.25126
44.1993,3.62842,13.3771,5.92448,0.687259,11.7046,3.35226,3.14586,11.4348,3.7201,3.08379,12.0805,2.17907,2.61606
0.191529,0.0143343,14.4153,22.3506,0.408546,14.4132,22.3125,0.277037,14.4027,22.0545,0.507122,14.4089,22.0649,0.561793
1.88185,0.0644977,13.3019,8.46237,-2.91964,13.1869,8.1534,-3.20488,13.4043,9.03673,-3.0906,13.5118,8.59318,-2.66792
1.79963,0.147163,0.964379,3.18528,-4.77902,1.75015,3.17082,-4.91953,0.821324,3.34965,-4.89595,0.676867,2.86009,-5.00632
11.4009,0.296409,-1.54088,3.51976,-4.97807,0.27364,3.63263,-5.36152,-1.62736,3.17886,-5.17687,-1.53824,6.05828,-6.11983
2.73811,1.24736,3.97892,34.7693,-2.7716,2.34484,34.6251,-2.95883,2.18088,34.8155,-2.62715,2.33762,34.6177,-3.14798
4.49019,0.279758,-1.25737,8.28633,6.60003,-1.50515,8.52344,6.86441,-0.10565,8.64775,6.78205,-1.08718,7.4771,6.97555
16.8649,0.167224,6.97844,14.7271,-7.18788,9.60763,13.8632,-6.55082,8.5429,13.3535,-6.81278,9.58372,13.5401,-6.53254
0.739335,0.0149479,0.91419,0.42739,0.869294,1.03099,0.322996,0.558403,1.12439,0.337441,0.621974,1.10387,0.316356,0.557473
2.14109,0.265826,-4.56409,25.9575,6.43602,-3.36812,26.0473,6.4202,-3.5745,25.9163,6.47147,-3.08715,25.9925,6.35313
0.139406,0.01383,-13.597,3.39394,1.23836,-13.5375,3.20077,1.37924,-13.5357,3.12517,1.32593,-13.5464,3.27189,1.38121
10.1976,0.188414,2.37301,6.38286,-6.14217,2.40396,4.53981,-5.2423,2.3236,4.58267,-5.22262,3.25669,5.13995,-6.11862
73.4543,0.516007,1.51597,12.7826,-7.86833,-2.34525,14.9536,-7.89834,-2.20688,13.8417,-7.91297,-2.43552,13.525,-7.88267
5.99509,0.1799,-12.7198,28.2364,3.96754,-13.2015,30.2818,2.5868,-12.5001,29.9388,3.86047,-12.6228,29.7976,3.73248
1.69155,0.0417342,13.4524,7.76551,-1.79918,13.8112,9.29964,-2.1332,13.737,9.16429,-2.23079,13.6606,8.50807,-1.93127
12.1324,0.00588591,5.73904,13.6223,-7.42509,5.39226,12.5788,-7.42201,4.0102,12.5843,-7.64599,4.05115,12.2105,-7.62029
5.53708,0.226105,-12.1565,23.3202,-4.73376,-10.7209,24.2817,-5.52896,-11.6934,22.7963,-5.15385,-11.6307,22.4199,-5.40807
15.2814,0.620831,5.57638,10.7002,5.81101,5.25049,10.5892,6.45519,7.14033,13.3062,6.59769,7.58349,9.70021,6.14125


