
24.7174,0.365813,6.29478,18.2743,-2.39906,4.01428,12.8919,-3.90967,4.84123,13.7772,-2.78117,3.60083,11.6198,-3.74805
0.641215,0.0219426,1.05997,7.05392,-4.67358,1.35471,7.58272,-4.46154,1.15491,7.45421,-4.66955,1.33628,7.38991,-4.41051
1.36345,0.0162152,-4.90196,3.25939,-4.92186,-5.27099,3.73775,-5.12654,-5.28745,3.7306,-5.1129,-5.27534,3.59624,-5.01613
5.3842,0.0152756,-11.5056,20.7138,3.01349,-11.7743,21.5385,2.87394,-11.6575,21.9319,3.5826,-11.7967,22.3827,3.5023
1.56122,0.110117,7.84785,24.9505,-0.391259,7.57878,25.3059,-0.153947,7.84876,24.8466,-0.706939,8.07516,25.1272,-0.307312
4.81854,0.0715707,5.98249,12.1962,5.35468,6.02707,11.7446,5.59281,5.89736,13.7204,4.93368,5.88082,13.4812,4.99949
16.0362,0.211389,-12.2693,24.0806,3.44268,-12.0073,23.5537,4.20403,-11.1149,21.0087,4.82315,-11.0521,20.9719,4.93132
7.38573,0.317048,6.16756,22.4571,-1.26058,6.50396,23.4804,-0.963273,5.72057,21.9923,-1.95688,5.93763,23.6451,-0.879915
11.0972,0.229851,2.27449,13.7533,5.25443,2.0025,12.8141,5.34667,1.89688,14.4316,5.88445,3.53798,13.9617,5.03039
9.22289,0.591498,5.36085,8.75478,4.94148,4.87639,8.17133,5.79514,6.50646,8.67805,5.56904,5.66373,9.69753,5.221
5.85858,0.0834018,-9.48092,22.9618,-1.08565,-9.90482,22.5576,-0.939484,-9.74199,22.0813,-1.53381,-10.0366,22.2966,-1.06334
3.53566,0.0139812,-7.72707,4.91517,-0.534501,-7.91879,5.93161,-0.0391117,-8.02371,5.36352,-0.841805,-7.38543,4.66737,0.15862
15.7167,0.824244,7.01631,12.8648,4.79298,7.58116,11.185,5.26614,8.81099,12.278,5.01891,8.70701,12.69,5.10561
7.44223,1.00938,-9.30242,8.41919,-3.88728,-8.0662,7.06846,-4.39186,-8.15362,7.50789,-4.40933,-8.15426,7.59186,-4.28088
6.94367,0.392702,-7.93244,25.7726,4.97601,-7.79785,27.1137,5.59872,-8.40539,25.0102,5.24209,-6.46527,25.3535,5.32063
33.5222,0.827157,-11.9975,24.7043,4.39172,-9.7375,26.0248,5.47072,-9.85496,24.6861,5.24203,-11.0254,26.1118,4.28773
50.8481,0.145249,-11.2436,16.3787,-0.537886,-12.112,20.4009,-0.537725,-10.8229,16.2282,1.84564,-11.4236,14.7142,-1.96157
22.9547,0.815139,3.73456,6.97607,-1.92947,5.26485,8.12268,0.462929,5.32307,8.76842,0.119615,5.73343,9.59962,0.0659525
3.47137,0.0236838,0.881624,3.98497,-3.81818,0.800981,3.27868,-4.21907,0.555566,2.76218,-5.11933,0.468035,2.11476,-5.59544
0.949818,0.0982578,-4.14744,2.65109,-5.27766,-3.81072,2.46746,-5.5066,-3.64706,2.31765,-5.50317,-3.61597,2.21434,-5.44521
2.71841,0.186428,7.03573,8.87763,5.33775,7.31505,9.49721,5.24539,7.39162,9.87367,5.30722,7.5796,9.35675,5.21295
0.773722,0.045842,6.10566,7.79499,2.7197,6.29827,8.22417,2.5167,6.18806,8.18542,2.31036,6.41723,8.38975,2.49303
0.019308,0.001135,-11.7483,23.9816,-0.111019,-11.7375,24.0745,-0.143778,-11.7849,24.0982,-0.0829586,-11.7301,24.0415,-0.148195
10.7328,0.552746,-3.66212,1.33852,-4.60873,-5.23781,3.94382,-5.43432,-4.80366,3.25546,-4.96737,-4.60113,3.42719,-5.35574
43.8742,0.854694,-6.82497,7.64434,4.88209,-5.38012,5.77594,5.64453,-3.49936,5.37679,5.70064,-2.18287,5.71854,5.79552
42.6151,0.836866,-9.7754,24.575,0.0242592,-12.0437,20.858,0.0176461,-11.6128,21.8647,-0.157242,-9.91126,22.9688,-0.77161
0.235528,0.00156616,-6.41986,21.7729,5.8194,-6.60601,21.9483,5.79893,-7.00125,21.9014,5.75148,-6.97293,22.0297,5.75507
17.0417,0.410243,-10.6273,17.8919,-3.29011,-11.5059,16.139,-3.32744,-11.6144,15.7309,-4.71369,-10.9632,16.6539,-4.12195
18.5853,0.584019,-10.7627,16.0404,4.04634,-11.4806,20.6329,3.05135,-11.3078,20.0342,4.29278,-11.4493,20.5243,3.97276
7.74603,0.191542,0.542654,16.0206,5.46981,4.42165,16.829,5.56681,4.45854,16.7198,5.59202,3.37472,16.7323,5.56642
11.7127,0.152541,2.30587,23.4307,-0.86614,2.8825,24.407,0.417699,3.33746,24.0753,-1.06278,1.75818,23.1159,-1.41406
4.89234,0.306463,7.99529,12.9869,1.61788,6.19236,10.3443,0.294079,6.22389,10.2922,0.395294,6.6367,10.8581,0.895031
4.02018,0.203492,9.23394,15.1715,2.3438,8.50574,14.3443,1.53738,8.53088,14.4548,1.46234,8.91776,15.4728,1.44146
7.09378,0.352969,-10.8782,20.6452,-1.46415,-11.8021,18.8917,-2.00762,-11.8918,19.2374,-1.64494,-11.8919,18.8059,-1.93884
2.00524,0.0361223,10.4683,26.1086,0.615302,10.2303,26.2703,0.44899,10.773,25.4534,0.407721,10.7524,25.6648,0.528579
22.5099,0.104683,9.30003,18.1166,0.725346,11.3413,22.5247,1.82556,11.5723,23.3052,1.81148,11.2593,21.4124,2.32059
3.45937,0.0955414,-4.75813,1.67285,-4.0629,-4.8636,1.96238,-4.59892,-4.54323,1.30536,-3.77225,-4.63156,1.88735,-4.54937
0.23267,0.00435455,1.59969,22.8114,5.84129,2.20166,22.6206,5.89768,2.10635,22.7722,5.88898,2.30125,22.6332,5.90611
2.36597,0.584438,-0.737684,23.77,0.622528,-2.37988,23.751,0.253486,-2.5432,23.4637,0.0147932,-2.39303,23.6533,0.201039
2.93647,0.717787,-5.9951,1.83257,-4.25125,-5.67805,1.47614,-3.28838,-5.82931,1.457,-3.04733,-5.53744,1.33994,-3.96243
7.99822,0.371318,-2.4584,7.4491,5.11578,-1.49669,7.30892,5.20746,-0.443395,6.78322,5.65873,-0.990683,7.14521,5.46474
2.1728,0.275525,-9.58131,20.0734,5.46675,-10.5944,20.5785,5.02858,-10.8673,20.3303,4.85877,-10.6108,20.3906,4.95826
10.8801,0.0957773,-6.37525,20.9753,-3.86203,-5.71164,22.0967,-2.35615,-6.22418,22.7212,-2.25327,-6.35921,22.7402,-2.36168
62.4553,0.585498,2.42766,7.16253,-2.85436,1.44662,7.89412,-4.51802,2.54311,10.0874,-3.03277,1.34023,10.143,-4.2099
5.45834,0.929807,5.6414,23.6019,5.5204,4.77241,24.2648,5.25165,4.55239,24.1654,5.29016,4.32008,24.0118,5.28814
12.1112,0.357788,-8.79581,7.12648,-5.58105,-5.95565,10.1841,-5.2337,-5.36708,9.83246,-5.31075,-9.55429,9.82629,-5.33551
3.41962,0.131456,7.07629,25.1669,5.19436,7.06986,25.3747,5.47437,7.10221,24.3802,4.87083,7.72648,25.2109,5.32404
23.6735,0.258407,3.17858,26.4115,5.94587,1.06018,29.1359,5.06407,2.18935,29.2016,4.65849,1.62522,27.8827,5.46825
20.3699,0.258833,2.07898,5.2989,-2.62583,2.22273,7.00101,-3.18772,2.4614,6.59546,-2.75692,1.23008,5.64573,-4.42768
10.0746,0.245017,7.61363,21.9191,4.78492,10.2924,21.6752,5.37283,7.30916,22.3262,5.62897,9.4343,21.5395,5.04447
34.214,0.221397,0.352792,6.61911,-5.03037,-0.644485,3.67352,-5.77645,-4.27053,3.25057,-5.8812,-1.24827,5.93346,-5.3882
8.03454,0.0498146,-6.14969,3.25137,1.11633,-6.94603,2.96347,-0.525661,-6.56075,2.66292,-0.215552,-6.72809,3.79912,0.640883
8.19975,0.368114,-4.6094,12.5404,-4.39257,-5.84413,11.5243,-4.83093,-5.88762,12.0368,-4.72509,-5.31664,10.8266,-5.02783
25.7117,0.0968826,-2.69357,2.28903,-2.35569,-4.25877,2.24549,-2.12518,-3.99484,1.30445,-3.73102,-4.91806,1.35153,-3.36706
0.0244394,0.0145927,4.30081,5.38195,2.45503,4.32972,5.37884,2.47495,4.16223,5.27512,2.5686,4.17405,5.28877,2.50817
1.64578,0.0996688,5.71363,8.3074,5.55931,5.77632,7.26076,5.93797,5.5349,8.55866,5.37461,5.73975,7.59637,5.86643
0.0942493,0.00811229,-5.33275,10.0855,5.88632,-5.47615,10.1538,5.88197,-5.42938,10.2401,5.88307,-5.30568,10.2147,5.89293
7.19106,0.00790819,0.952645,5.23851,-4.21869,1.26488,5.261,-3.5578,1.62558,5.03858,-2.88129,0.479299,4.27436,-5.42255
4.0763,0.0279653,-7.74353,12.6364,5.53761,-9.70685,13.0251,4.67626,-9.66812,13.2063,4.71312,-8.04909,12.9624,5.45688
0.450966,0.00897201,-11.8689,12.4699,-5.30428,-11.7118,12.2378,-5.2634,-11.8399,12.2384,-5.22334,-11.7325,12.0072,-5.17703
65.0559,0.0285683,-10.0829,15.6346,-5.0613,-7.05718,12.4829,-4.88676,-10.5429,12.9237,-5.39067,-8.49263,10.3166,-5.29255
83.1812,0.566069,2.32449,4.96732,0.821177,1.47963,2.6392,-1.24452,3.20721,5.50663,2.50842,-1.04661,3.58543,-0.482998
0.247012,0.0203424,3.89984,18.5649,5.67751,4.19401,18.6552,5.67066,4.10812,18.8141,5.67467,4.52948,18.4503,5.67286
15.441,1.11347,1.36656,13.3489,-3.64994,1.62987,15.8877,-3.04927,0.421002,16.467,-2.84717,2.00815,15.852,-3.14132
36.1544,0.594884,-11.1008,12.3888,-3.05162,-10.1165,10.0427,-2.23671,-9.14592,8.01611,-3.60367,-9.37473,8.07757,-2.95235
37.2526,0.669524,1.63699,4.69322,-2.49317,2.63965,4.26392,-1.58818,1.60917,3.0397,-2.41514,0.82686,3.0599,-4.15102
24.5881,0.700771,-6.27708,24.8647,5.20985,-4.1837,26.2345,5.90139,-6.34478,23.7482,5.68321,-4.06122,27.0625,6.08016
5.4711,0.103585,-9.6769,18.9249,-4.78531,-8.26037,18.9145,-4.72907,-9.33999,19.8449,-4.81114,-9.84592,18.0795,-4.94583
12.2264,0.150885,11.7311,23.1294,5.19525,12.1824,23.1923,5.06886,10.4106,24.6027,4.98722,9.99756,24.3678,5.46353
22.1163,1.88007,0.642917,22.3404,-1.69155,-0.837395,17.3898,-2.82195,0.0432111,18.2866,-2.57734,1.12645,19.0926,-2.10369
65.1904,0.0855233,1.70343,18.5687,-2.14958,-2.5092,14.4396,-3.63876,1.97164,16.3318,-2.88709,-2.08977,14.1715,-3.69974
16.3115,1.45395,9.34964,13.5989,4.23153,9.28138,15.6462,2.07428,9.53961,15.3528,3.11996,9.84612,15.1086,3.93373
3.67105,0.38129,3.30223,16.2645,-3.14845,4.42556,15.6115,-3.52242,4.75193,16.2658,-3.30649,4.11533,14.6029,-3.93805
4.52331,0.113855,-2.63638,12.3497,5.31653,-1.69711,12.3001,5.71884,-2.34202,12.4864,5.49099,-2.64922,11.3716,5.65823
2.59578,0.0375021,4.14204,6.47566,5.20331,4.61684,6.42447,5.45317,3.9345,6.18667,4.52868,3.49208,6.34292,4.62898
0.874753,0.183509,-1.08934,1.1808,-5.89158,-1.02273,0.353586,-4.9999,-0.511167,0.165712,-5.24453,-1.24402,0.783834,-5.47272
26.1264,0.310459,9.43845,22.9671,5.49026,7.64521,24.002,4.96403,6.87694,24.2662,4.96861,7.88033,24.0433,4.90669
10.0647,0.486777,6.4765,22.555,-1.22075,7.6936,22.8449,-1.72664,7.62971,22.9288,-1.58352,7.98511,23.917,-1.33976
1.65797,0.00860687,3.54096,28.4334,4.14733,3.77377,28.1489,3.9141,3.319,28.5523,4.4903,3.67798,27.4631,4.87341
3.27044,0.30152,-1.05252,2.71597,-1.7231,-2.70505,2.79301,-1.57545,-2.57575,2.57271,-1.87777,-3.00961,2.83988,-1.42168
14.496,0.0237866,-6.27149,24.3497,0.260972,-8.63539,24.2861,-0.167403,-6.0938,23.8181,-1.25128,-8.32145,24.5359,0.631042
1.93403,0.162241,-11.1972,17.6487,2.02245,-11.4332,17.7403,1.18033,-11.5038,17.9121,1.063,-11.4481,17.5631,1.12081
10.9799,1.49804,-12.257,23.4019,2.93062,-12.4645,25.0248,3.61853,-12.5112,25.0745,3.16774,-12.2126,25.0461,2.06612
3.86408,0.206903,6.53894,19.1529,5.18782,6.08673,19.1776,5.44477,7.12892,17.9284,5.34465,7.38191,19.4957,5.3009
4.47786,0.213273,10.3774,27.4169,3.72836,9.12365,25.9675,4.84434,9.7585,26.259,4.59876,9.87588,26.2385,4.63393
14.8674,0.546415,3.18031,23.7926,5.15191,3.25665,24.6966,5.48295,4.56275,23.9361,5.30228,4.2974,22.1461,5.83964
13.199,0.0135274,-0.965124,13.9471,4.93752,0.694226,13.6122,5.13855,1.46049,13.579,5.59164,-1.12535,14.2121,5.69803
6.42217,0.0113018,-1.77814,11.9161,-4.50785,-0.825331,11.5351,-4.50284,-0.317044,11.9241,-4.27488,-0.435939,11.7157,-4.37418
3.19206,0.378701,8.01498,16.2933,5.49334,7.11763,17.8876,5.3557,7.87564,17.4729,5.35478,7.05529,17.8971,5.36871
8.34707,0.0625411,-7.99858,5.06424,-4.31025,-8.0912,7.45558,-4.24617,-8.06876,5.61296,-4.19765,-7.70247,4.21203,-4.42687
4.17013,0.0471875,-12.2231,22.2614,1.16643,-12.1994,22.1452,0.825274,-12.404,22.0339,1.58309,-12.1809,23.5062,1.38008
6.45281,0.507031,-3.04674,17.8179,-3.33253,-3.16143,19.7471,-2.75651,-3.38788,19.1505,-2.8797,-3.96719,19.2261,-3.13534
45.3503,2.60381,-6.91091,23.0004,5.33405,-10.0263,22.7054,5.03919,-9.65519,23.1873,4.70939,-9.62506,23.73,4.95426
28.2448,0.103331,-9.03415,7.71873,-1.33778,-8.08632,5.32358,-1.03869,-7.22689,5.58021,1.27036,-7.6875,6.66509,1.18934
10.9745,0.0422905,7.72458,14.8461,0.00176377,8.81608,17.3013,0.479601,8.83622,16.4154,0.822635,6.85163,14.7044,-0.915498
42.0704,0.170507,7.83829,17.5436,5.34918,9.32615,20.1772,5.25736,7.68324,20.4299,5.00401,10.2085,20.2721,5.35351
3.36073,0.375888,-10.2299,21.103,-3.08208,-9.81077,23.136,-3.3977,-10.0795,22.4803,-2.73328,-9.94344,23.2325,-3.13417
39.1711,0.579272,1.17792,12.7232,-3.67382,0.563277,9.42503,-4.71735,-2.18741,11.495,-4.63127,2.80181,14.3137,-3.95253
0.0155414,0.00423786,12.2655,24.9325,3.95575,12.3408,24.8152,3.96959,12.3014,24.8576,4.01529,12.3231,24.851,3.952
122.628,0.219213,-11.0065,14.7887,0.177359,-9.1594,9.71389,4.06184,-9.04566,10.1605,2.27124,-8.75154,9.55454,2.15148
20.0375,0.361028,-8.34811,27.129,5.03928,-5.55441,28.1813,5.05745,-8.80639,26.2737,3.68327,-10.106,26.471,4.16201
72.2745,0.72889,-0.698979,21.587,4.90814,0.842504,18.7249,5.64754,-1.28828,21.9557,5.61432,1.9164,21.4176,5.78867
14.7848,0.039543,10.0552,22.9298,0.0928901,7.61766,19.6669,-1.45241,7.45043,18.6991,-1.34261,8.63643,19.5085,-0.39672
12.9127,0.0702784,3.23343,21.2948,-1.95145,3.8205,19.1316,-2.30617,3.94248,19.1124,-2.32115,5.08713,19.9917,-2.3535
10.9537,0.351957,10.9376,18.8285,3.60347,9.85856,15.2179,3.90802,9.62719,15.9587,2.7398,10.0513,17.1124,2.5279
25.35,0.711373,-2.60534,13.6211,4.90886,-1.73207,14.4238,5.85201,-2.71876,12.6111,5.4006,-3.20948,14.0559,5.72387
26.1158,0.474186,-2.72941,9.44188,-5.20411,-2.40943,6.99743,-5.63143,0.668305,7.29469,-4.85416,1.01301,7.94124,-4.76237
3.01988,0.2388,-4.51115,11.3325,5.39474,-4.17697,10.5825,5.69063,-3.31976,10.2571,5.81758,-3.16551,10.5199,5.8378
3.09873,0.571783,-9.35708,23.7923,-0.896944,-9.65314,23.6837,-1.60588,-9.51232,22.949,-1.005,-9.47656,23.023,-1.15993
0.202574,0.0275093,-3.4554,28.1751,6.10917,-3.89018,28.2492,6.06884,-3.69263,28.2727,6.09291,-3.90514,28.1868,6.0744
118.95,4.4578,-0.257273,4.54095,0.400624,-1.10469,5.77308,5.10703,-5.65481,3.49841,2.49407,-3.12255,4.88228,3.95689
4.27293,0.0362971,0.532409,22.9228,-1.22139,0.992239,23.6612,-0.0312834,1.21152,23.4749,-0.543693,-0.241476,22.8546,-1.0104
3.13217,0.201048,-1.66967,17.074,5.32736,-1.82706,16.9052,5.6546,-1.41547,17.2465,5.43092,-1.05097,16.9343,5.51804
4.9961,0.372185,-4.60938,2.77327,-0.770201,-2.30903,3.46381,-0.428901,-1.38784,3.27049,-0.962022,-1.89633,3.43256,-0.614138
22.8458,0.137009,-7.259,21.1877,-4.29751,-7.47994,23.0464,-3.13115,-6.5287,21.6109,-3.33578,-8.70964,22.3555,-4.42172
9.52321,0.456098,-4.74796,17.3693,5.18586,-3.30469,18.1351,5.7756,-4.41422,16.5091,5.52386,-5.27459,17.4937,5.65945
9.9629,0.0966425,-5.67192,26.8636,2.18795,-6.07557,24.9945,0.699111,-6.72615,25.3162,0.950843,-5.96644,24.983,0.688159
6.29114,0.241181,2.38651,11.0737,-3.96913,2.03392,10.237,-3.73996,2.65961,10.0513,-2.97203,2.1747,10.6586,-3.70965
4.17134,0.219964,-11.6278,14.7002,-3.71659,-11.1745,12.7401,-3.03256,-11.1963,13.0083,-2.50429,-11.1918,12.9795,-2.42738
98.0831,0.344176,-1.0835,23.0803,5.30973,1.18546,24.0507,5.61521,1.80742,25.7483,5.43053,2.79075,25.5022,5.4933
57.5486,1.97672,3.06823,24.8597,1.83993,3.50273,28.3603,3.92101,6.60176,26.7186,2.95799,7.06797,26.3692,2.64225
12.1937,0.340032,-3.01025,19.3891,5.17111,-2.26075,21.1112,5.49893,-2.49009,19.2988,5.26342,-3.48297,19.1004,5.76334
0.0121105,0.00462808,2.35402,29.2668,4.47556,2.21456,29.2796,4.55154,2.32416,29.2723,4.4702,2.24532,29.2872,4.49793
40.9018,0.71101,-2.934,7.77313,4.88268,0.341172,8.31666,5.56155,-3.21084,8.12699,5.56888,-3.55927,6.94361,5.65597
14.3179,0.274259,-5.89659,22.7776,5.09031,-3.67675,21.6583,5.8633,-3.42085,22.7826,5.88175,-4.75519,21.7616,5.63737
2.99852,0.0474271,-9.42687,17.2941,-4.7935,-9.22174,16.8832,-4.81843,-9.35998,17.5889,-4.79502,-10.6917,16.9949,-5.26253
26.8456,0.454346,-5.38991,12.2533,4.81265,-4.59649,11.3643,5.34567,-4.10571,13.267,5.26107,-3.21732,13.5275,5.28013
38.0165,0.100329,7.53389,11.6347,1.67251,6.55105,9.32655,1.93316,6.27418,8.8654,1.86633,5.50275,8.65502,0.464299
84.1848,0.342633,11.5568,20.8004,5.26828,8.86582,14.3064,5.60109,10.1896,15.0539,5.48029,8.35825,15.0064,5.56182
8.25368,0.165169,-9.97353,22.1336,-1.18689,-10.6379,20.8181,-1.53145,-10.2832,21.2666,-1.44793,-9.78163,21.4321,-1.80146
9.43567,0.191646,-8.9276,24.7495,5.07461,-9.51663,23.9582,5.1183,-7.43122,25.0182,5.3748,-9.77814,24.804,5.24147
33.0389,0.151201,-3.80744,26.2226,5.58294,-2.67219,25.2223,5.77209,-1.81264,26.4294,5.87446,-4.21667,24.448,5.64067
7.91351,0.223342,5.93803,23.9948,-0.62056,5.43047,23.4237,-1.26796,6.77955,24.6089,-0.382468,7.08227,25.0666,-0.332635
13.7928,0.011274,-10.4405,15.3475,2.80094,-10.606,15.0482,4.32023,-10.5441,13.8463,1.65409,-10.6512,14.054,3.35589
5.7358,0.308527,3.61224,10.376,-2.86872,4.08749,11.8096,-3.14108,4.64539,12.3728,-2.57451,4.31827,11.9745,-2.7692
15.2872,0.454723,0.737487,10.0699,4.78548,0.672074,9.4269,4.9627,3.27539,9.89702,5.62653,0.514756,10.4912,5.47982
6.46324,0.138817,-5.96357,2.34826,-1.70334,-5.69347,2.04469,-1.89802,-6.85851,2.26819,-2.62524,-6.49981,2.56819,-1.05211
7.9128,0.00134324,-3.73103,2.71902,-1.46246,-4.19246,2.34843,-1.97758,-5.18698,2.28037,-1.74283,-5.6742,2.3106,-1.51024
3.46023,0.573346,-2.42743,19.0907,5.34624,-1.21279,19.237,5.70508,-2.31837,18.7657,5.81742,-1.10946,19.2437,5.6771
26.6425,0.967111,5.57404,26.2669,4.75159,5.97966,27.3821,3.42003,5.42788,27.2502,3.48378,4.79771,27.3564,3.48586
32.5552,0.21437,-5.41087,14.3562,-4.2077,-4.90615,16.8436,-4.11153,-5.28688,17.4584,-4.20294,-5.67352,17.0557,-4.35848
1.44912,0.164187,5.86542,13.9998,4.9482,5.93268,13.7448,4.90259,6.28719,13.8726,4.92014,5.55612,14.1976,5.50157
1.23692,0.0502235,3.90141,5.76804,0.288453,3.92027,5.3972,1.25682,3.66893,5.01031,1.02333,3.99926,5.6836,0.797466
2.77039,0.0269287,-4.89408,24.3505,0.338475,-3.72121,24.9741,0.596473,-3.85783,25.004,0.617961,-4.78991,24.9103,0.624884
11.4227,0.101317,-11.3741,14.0685,-2.86753,-11.5954,16.2887,-2.62797,-11.5476,15.812,-2.20478,-11.5444,14.8915,-3.30113
2.77669,0.0225033,7.7075,20.516,4.97242,7.7331,21.6472,4.76333,7.64576,21.7333,4.79245,7.59667,21.3237,4.89849
1.58674,0.385509,1.28029,24.1236,1.16213,0.999828,23.9141,0.911939,0.95776,23.9474,1.00267,1.27966,23.8462,0.225013
12.4824,0.79668,-5.41902,3.81201,-5.12027,-7.16267,4.10724,-4.78644,-6.57314,2.55837,-4.56662,-7.67849,4.0568,-4.27322
2.50886,0.237125,-0.949372,22.2464,5.63362,-0.921356,22.8373,5.31027,-0.714269,22.8546,5.25116,-0.775826,22.8678,5.24752
1.74892,0.212645,1.58266,20.2334,5.60417,0.338585,20.3871,5.42389,0.736328,20.598,5.48248,0.320607,20.3174,5.43802
1.11829,0.0553542,10.1113,14.6312,5.37595,9.78077,14.1991,5.4003,9.76385,14.1638,5.04813,9.78911,14.1848,4.92644
4.64311,0.0576292,-9.58233,9.34869,-4.01028,-9.84341,10.1799,-3.44848,-9.3744,8.5295,-3.88187,-9.76825,9.74141,-3.36509
0.37837,0.0147416,-8.15317,9.41495,5.50357,-7.88418,9.73576,5.63315,-8.1553,9.69131,5.4929,-8.0023,9.77162,5.57345
0.727339,0.0726114,3.05218,6.89543,5.85023,2.26837,7.25,5.73167,2.3289,7.11317,5.75828,2.41982,6.96559,5.78596
13.5198,0.117729,-4.94567,18.5094,-3.9498,-7.22837,17.7661,-4.62046,-5.38687,17.4852,-4.24497,-7.16891,18.1854,-4.5752
1.08323,0.0160007,-3.98696,3.10303,-0.339598,-3.22666,3.35751,-0.181116,-3.18014,3.33271,-0.260226,-3.74653,3.12288,-0.454112
1.60552,0.047604,4.9551,22.9834,-1.62656,4.35291,22.9419,-1.733,4.15155,22.545,-1.84426,4.15859,22.7574,-1.79264
2.9007,0.12145,-5.95019,3.78534,2.62007,-5.83339,3.54728,2.59866,-6.85406,4.49084,2.20333,-6.45958,3.91545,2.79945
8.13258,1.31183,-8.64999,5.78216,-2.72487,-7.03489,2.1999,-3.64635,-7.09145,2.44863,-3.16862,-7.17954,2.68016,-2.31653
15.0375,0.233599,-3.86209,4.69142,4.83708,-5.40162,5.50637,5.60114,-5.46885,5.25607,5.46167,-6.18423,4.89182,5.46927
12.3336,0.335085,-1.41077,25.371,5.54387,-1.17996,26.4364,5.94394,-1.92857,24.8452,5.80415,-1.49456,24.1783,5.83127
28.2038,0.999638,-10.2405,16.14,4.64805,-7.85479,15.2272,5.50383,-8.73459,18.0186,5.60277,-7.53026,15.879,5.49835
1.52435,0.120617,-12.1699,23.5871,1.37543,-12.1308,24.5089,1.46272,-12.3429,23.4336,1.73472,-12.1428,24.485,1.58455
15.6082,0.0419976,2.41221,18.4982,-2.17008,3.47973,19.3261,-2.21674,1.41377,22.2156,-1.77133,1.77461,22.51,-1.77137
0.40079,0.125639,-4.00009,26.8502,1.73398,-4.38456,26.1247,1.32445,-4.0277,26.0948,1.20909,-4.44357,26.1812,1.39175
9.74296,0.426557,-2.31875,10.1626,5.1424,-1.65365,9.73137,5.33144,-2.1542,11.5642,5.62544,-2.55503,8.46253,5.57374
1.18692,0.0219345,-10.5868,18.5238,-4.59914,-10.6964,18.0094,-5.01103,-10.5944,18.2421,-4.95622,-10.7076,17.9932,-5.0016
7.89119,0.472514,-7.1697,15.205,4.98058,-6.15001,15.9903,5.61709,-7.63752,15.2877,5.44456,-6.3566,13.8318,5.31601
9.56334,0.139569,-7.67563,7.20682,2.21921,-7.12184,4.20198,4.38376,-7.03259,4.42996,3.26563,-8.01113,7.03581,3.8582
2.21347,0.0786668,9.41493,16.802,1.57993,9.77447,16.5982,2.44135,9.01548,16.1392,1.27608,9.05605,16.1251,1.35199
6.0091,0.0719854,-10.1211,22.6404,5.0701,-11.2415,23.7794,4.88142,-11.2999,23.2563,4.91624,-11.0065,23.9295,4.87854
16.7968,0.654786,-5.72821,17.1965,5.60411,-7.36741,16.567,4.80084,-7.70478,16.8014,5.15867,-7.02653,17.0915,5.13359
2.87121,0.129908,-5.66076,15.5288,5.37136,-4.94183,14.3302,5.74113,-5.95071,15.5477,5.52143,-5.43301,15.7292,5.44099
4.55552,0.0692298,-0.355906,23.5283,0.602589,0.923561,23.9176,0.967888,-0.707046,23.3196,0.259009,0.911934,23.989,1.04609
1.73207,0.120214,-7.41608,6.68506,2.24913,-7.29918,6.05578,1.70256,-7.20615,5.77851,1.77987,-7.21415,5.78802,1.88159
11.0354,0.545826,-2.10688,23.879,5.29511,-2.03945,24.7812,5.79314,-2.24504,22.655,5.91559,-1.47999,23.9282,5.78925
2.93609,0.0798304,-5.52868,27.9173,5.88378,-3.44298,27.4753,6.12584,-3.4351,27.5738,6.12618,-3.1231,27.7921,6.14964
4.62067,0.227544,-2.16248,21.6091,5.39656,-1.38994,21.5283,5.54992,-2.33916,22.5451,5.90006,-2.34543,21.1636,5.52698
3.53017,0.036093,-1.1036,12.9456,5.22252,-0.995615,13.6735,4.9572,-0.817484,11.7582,5.67223,-0.90515,11.7135,5.66498
7.46721,0.119589,4.59708,25.0878,5.4695,5.81564,25.2183,5.60112,4.63101,25.6011,5.57695,4.4721,24.6308,5.5988
7.61408,5.84294e-05,-3.72241,17.405,5.3658,-2.11302,18.1845,5.95447,-3.28874,16.6143,5.59092,-2.07264,18.3176,5.9617
4.01594,0.943784,6.57302,6.72908,5.56289,5.26764,6.74538,5.78396,5.46691,6.47218,5.45569,5.45113,6.66465,5.50762
6.51334,0.333247,-5.55636,16.5196,5.12233,-6.13627,16.6525,5.4441,-4.67744,15.2606,5.66704,-4.9585,16.6323,5.43447
23.0101,0.10936,-2.39452,3.95176,0.470898,-4.64246,3.48826,1.2189,-5.26586,3.08962,0.790294,-4.94087,2.86143,-0.162749
0.203869,0.0460469,3.01283,15.363,-3.62034,2.44122,14.8459,-3.70236,2.8095,15.2692,-3.63308,2.49204,14.9891,-3.64184
5.0023,0.101092,-8.18827,20.7223,-4.8405,-9.54995,19.9688,-4.91183,-9.8045,20.293,-5.14416,-9.31322,20.9489,-5.23953
32.7772,0.237444,7.37034,25.4645,0.0500708,3.63484,24.834,0.791107,5.97811,25.7332,2.1425,5.79096,25.4847,1.55171
1.0596,0.0562418,-8.71395,15.3529,5.41402,-9.33855,14.7772,5.38666,-9.23078,14.7874,5.39427,-9.41057,14.8477,5.37054
9.55385,0.377767,6.4873,10.126,5.33302,5.64653,10.2902,5.55482,5.69158,9.71373,5.20656,6.60001,11.5535,5.50062
180.203,4.71584,-7.49387,12.0421,-5.03007,-2.66119,17.5351,-3.25913,-2.58844,15.2356,-3.47647,-1.94122,11.9937,-4.48183
3.41579,0.154512,-9.94328,19.2161,-3.39689,-10.4122,18.8251,-3.88868,-9.89275,19.5295,-3.05496,-10.3681,18.617,-3.50019
1.59645,0.214904,6.93426,7.82596,4.96054,6.86143,8.08278,5.32194,6.85818,8.67006,5.38228,6.87581,8.33196,5.37863
2.18632,0.0413919,9.88896,20.5325,0.351503,8.74039,20.5206,-0.560997,9.52861,20.6979,-0.00775145,8.79697,20.3609,-0.483666
3.58365,0.0912274,-11.5789,19.427,1.70757,-12.0796,20.1414,1.12355,-11.5364,18.6974,1.58708,-11.3603,19.2677,2.45521
8.68554,0.128854,-8.62249,23.6505,-2.40163,-8.76498,23.5432,-3.47942,-9.1698,23.9566,-1.31438,-7.08659,24.0704,-1.74932
6.00861,0.437883,-10.5834,13.0664,3.07709,-10.0428,12.8035,4.2973,-10.1647,13.3651,4.24236,-10.1473,11.9668,4.06134
8.81752,0.0157137,0.00784191,12.9597,4.82084,0.978763,12.8917,5.34781,0.49394,11.3633,5.64032,0.182415,11.7682,5.32669
2.92716,0.201397,-2.69196,8.35186,-5.44008,-3.97126,9.21756,-5.24163,-4.10811,9.58695,-5.0967,-4.15057,9.4944,-5.16375
5.36028,0.177757,3.33263,25.4928,5.34553,2.19004,24.796,5.01474,2.2293,24.6702,4.97949,3.557,25.8979,5.73742
36.5902,0.0522579,6.09212,18.5024,-2.68912,8.2315,22.6825,-1.74052,10.1945,24.7267,-0.369125,9.86665,23.8432,-0.46689
14.4179,0.279397,-10.5309,18.3099,-2.65232,-11.2276,17.189,-3.26054,-10.482,19.5141,-2.45943,-10.1396,19.313,-2.63927
35.6647,0.677514,-7.78257,16.8763,-4.5967,-6.13831,17.3147,-4.49223,-6.71147,15.7621,-4.68785,-6.17248,16.058,-4.41086
5.28472,0.406769,0.0755933,25.5026,5.34093,0.839045,25.3955,5.51497,0.0392004,24.5515,5.77388,-0.411811,25.8632,5.93453
42.3153,0.605683,5.12976,12.9822,-1.2165,5.87414,10.3981,-0.115213,3.66797,8.10794,-2.25286,7.04195,13.0573,0.384472
56.255,0.1948,3.15053,4.97684,-0.88798,5.67172,7.64024,1.97138,6.01748,6.91792,3.58823,6.02771,8.38616,1.86045
4.83662,1.56378,2.95805,24.8396,1.85267,1.39002,24.1524,1.14676,1.38809,24.2348,1.25949,1.39233,24.135,1.09208
198.325,1.35864,-9.87737,19.4646,5.38471,-4.86499,18.0681,5.77263,-3.29561,19.9236,5.78115,-2.82664,21.2438,5.89125
0.77581,0.0521496,-9.78292,9.54335,-4.88752,-9.74714,9.60803,-5.1941,-9.68727,9.25734,-4.36995,-9.76333,9.78877,-5.21106
10.3904,0.0471385,-4.95249,23.3681,5.57663,-4.33443,23.0935,5.69846,-4.50557,25.0625,5.84959,-5.2954,24.5914,5.68063
9.67494,0.332357,6.83899,13.8148,4.67376,9.05267,13.9631,5.52015,6.39006,13.9437,4.9582,6.82326,13.0002,4.82858
2.03615,0.119103,2.9254,10.7566,-3.50452,3.11059,10.6518,-3.3924,3.09347,11.8784,-4.15131,3.15061,11.5445,-3.8672
5.12139,0.333432,1.61591,11.8863,5.1226,3.25859,11.065,5.73344,2.84754,11.3777,5.67757,2.39681,11.3339,5.57593
14.1287,0.04969,5.42501,19.6409,5.31763,5.06203,17.363,5.56361,5.40131,17.5319,5.55049,6.16141,17.3998,5.5654
11.5586,0.11601,-2.10231,28.5108,5.20341,-1.94373,27.2674,5.63796,-1.63646,26.7503,5.93865,-0.232049,27.7014,5.92449
2.3535,0.377998,5.79528,20.2531,5.10622,7.06326,20.5333,5.33169,7.25458,20.5009,5.31057,6.89348,20.3764,5.35615
2.53753,0.0536606,8.01488,12.463,5.01843,8.40891,11.2553,5.14938,8.0099,11.3618,5.20769,8.44153,11.6244,5.06079
57.902,0.910721,3.54644,14.0935,5.05677,4.4056,7.71504,5.87296,4.47876,9.15212,5.83917,5.27922,14.165,5.59809
6.12299,0.356688,1.24178,12.3725,4.86777,1.84325,12.8138,5.32361,1.64942,12.0056,5.07724,0.646209,12.4559,5.34179
17.1543,0.244897,-5.86855,8.69186,4.9746,-4.51237,9.47448,5.63468,-3.54264,8.56017,5.78758,-6.33066,8.22812,5.07076
149.282,0.266958,-4.30339,22.8017,-0.687062,-6.20951,20.3049,-4.32539,-4.11434,19.2442,-3.21941,-6.49779,23.7854,-1.51617
2.20572,0.0300631,10.2034,27.6971,2.87026,9.95095,27.7321,2.50644,11.3336,27.0786,3.28297,10.8842,27.3355,3.23364
31.8171,0.110503,5.53425,6.24644,5.2624,2.42489,5.83701,2.92283,1.70829,5.45637,1.89256,3.6928,5.3448,2.51822
1.10222,0.0508531,-3.51855,9.51824,5.85261,-4.0734,10.078,5.77829,-4.40357,9.91517,5.73331,-4.38137,10.1418,5.74992
0.43494,0.0211696,3.68061,6.30198,4.58455,3.20165,6.24335,4.36781,3.18118,6.20865,4.28812,3.45747,6.20245,4.29268
9.19813,0.0768597,-6.54383,13.3158,4.56773,-5.01948,13.3827,5.32341,-7.13265,13.8726,5.53032,-6.76566,13.5043,4.73381
18.1097,0.586873,9.92447,17.2393,2.24597,10.3592,19.2239,1.6971,10.8708,19.9409,2.3849,11.5064,20.7601,3.59708
54.981,0.169813,-0.067697,3.02377,-1.15814,0.229034,0.393048,-3.63706,0.714701,0.626408,-3.08874,-1.29415,0.596449,-4.49498
41.9481,0.178037,-8.59393,5.65364,-5.57768,-5.77104,5.30083,-5.92552,-5.27885,8.40013,-5.72681,-4.58483,7.5777,-5.8215
1.94809,0.129229,-9.8322,22.3191,5.245,-8.27646,21.4879,5.58106,-8.59433,21.4926,5.53185,-6.68883,21.5712,5.79635
6.23776,0.0313312,10.6613,23.8736,0.69002,10.561,22.7265,0.719926,11.1179,25.9858,0.836806,10.2451,22.6863,0.323758
15.9082,0.163166,5.87662,23.4806,5.47838,6.21733,24.8828,5.68095,7.25734,22.5212,5.67296,5.97866,21.8857,5.61466
9.8413,0.0399385,8.47893,14.5267,1.2129,7.11116,13.3754,0.336414,7.74846,13.4103,1.04106,7.03972,13.6027,0.106752
0.688772,0.635857,10.4681,21.4042,0.713988,10.2582,21.9201,0.376453,10.1607,21.8167,0.290577,10.0823,21.7216,0.197359
5.44954,0.235464,-10.6193,15.9054,2.5426,-10.8685,16.5092,2.03355,-11.0302,18.3913,2.82083,-10.9675,17.5935,2.60008
3.41908,0.390134,9.25275,26.801,1.13677,10.4143,27.7507,1.80751,9.55449,26.5582,0.45246,10.0295,26.5819,0.609972
20.2636,0.44195,-6.56747,12.9606,4.61732,-6.76936,11.4512,5.36792,-6.11532,10.163,5.77357,-5.60153,10.1888,5.86603
9.78653,0.0918608,-7.59996,6.78856,1.74952,-8.46577,8.90792,2.2516,-8.73309,9.47593,1.77851,-8.75531,9.53692,2.20981
2.65257,0.275052,5.16162,21.4711,-2.05852,4.10415,21.2585,-2.00751,4.80947,22.2756,-1.97946,4.17243,21.5916,-1.93311
6.28952,0.0432903,8.86556,24.4312,-0.892491,8.69771,25.0803,-0.554288,9.71889,26.4025,0.259549,9.87169,25.3467,-0.374753
24.7653,0.447364,-3.43712,15.9972,5.25331,-2.62422,14.7422,5.93904,-4.42108,16.4157,5.54635,-2.1044,16.9137,5.75912
0.511986,0.0713892,-12.3323,25.0396,2.77326,-12.2952,24.6611,2.63693,-12.4154,24.9203,2.89082,-12.3231,24.6382,2.75767
1.71133,0.0325494,4.23712,24.6318,-0.684322,3.4042,24.1249,-1.03926,3.42503,24.1243,-1.10029,4.73604,24.8031,-0.887124
4.61632,0.200738,1.97258,24.5723,4.9529,2.18026,24.7442,4.98244,1.4602,24.7086,5.4275,2.87644,23.5738,5.4057
1.26914,0.39093,-1.54688,9.81707,5.34712,-0.186968,9.66039,5.65762,-0.167518,9.7424,5.65143,-0.264076,9.89262,5.64899
41.3411,0.489983,-1.95237,15.5523,5.69654,0.499741,15.9263,5.49282,1.32754,15.2818,5.93363,-0.844653,14.4288,5.85571
29.1896,0.0954838,-9.92222,15.8877,-5.0625,-5.99198,15.053,-4.48126,-8.15815,16.8888,-4.70785,-6.75687,14.6026,-4.6792
60.2631,1.33028,-5.90281,18.843,-4.18262,-9.1961,18.163,-4.78632,-8.34869,19.8219,-4.72496,-9.23183,18.0728,-4.78141
0.705996,0.065719,-9.59529,22.5404,-4.32493,-9.80231,22.3573,-4.1529,-9.7926,22.4435,-3.92159,-9.82465,22.3469,-4.05372
0.14856,0.0528884,1.58433,1.77303,-2.05822,1.58112,1.71887,-1.90664,1.54643,1.64724,-2.02083,1.53192,1.64977,-1.93356
16.6352,0.323604,5.51092,15.2669,-1.83211,6.72506,16.9522,-1.48406,5.12741,14.8458,-2.95578,5.25583,13.601,-1.8592
18.9006,0.820795,9.77334,27.616,2.47327,7.07271,26.3438,2.59882,6.81167,27.6452,3.34799,7.66545,26.6921,2.81997
3.4504,0.035034,-11.6029,17.0655,-1.96629,-11.584,16.36,-2.35636,-11.461,16.8537,-1.25923,-11.4682,16.0454,-1.62007
13.9513,0.314683,-9.1542,25.0602,1.49056,-8.6048,26.3305,3.65301,-8.66289,26.3067,3.6663,-8.36792,24.534,0.626725
0.284874,0.00664704,-3.91211,3.89636,1.50144,-3.71616,3.91947,1.36952,-3.60329,4.02429,1.52544,-3.61482,3.9849,1.43316
2.3783,0.125448,1.79079,3.25443,-1.05349,1.8437,2.81176,-1.34835,2.13294,3.14145,-1.02186,1.66404,3.53746,-0.554441
16.6076,0.125819,9.56331,20.0972,0.191492,7.36638,16.9622,-0.899084,7.05065,17.362,-1.27541,6.76768,16.5183,-1.33718
3.77914,0.0364182,-6.52528,4.11143,1.28744,-6.29641,3.96247,1.98947,-7.20978,5.78329,1.6587,-7.15479,5.60626,1.57411
13.5424,0.0923881,8.32729,27.2407,4.09342,5.95474,25.8008,5.33461,7.20585,26.3138,5.00961,6.70521,26.6386,4.58338
2.19864,0.110989,1.68056,20.2427,5.60581,3.7441,20.175,5.71086,2.94278,20.1004,5.7057,3.77065,20.2999,5.72022
26.4121,0.318182,-0.565017,12.8349,-4.02153,-1.70042,14.0696,-3.68425,-2.96001,13.1918,-3.9901,-2.18078,13.2744,-4.02058
9.71655,0.24388,-2.03042,22.4486,-1.49718,-3.97505,21.4685,-1.83895,-4.28975,21.1448,-1.97013,-2.35962,21.922,-2.10244
3.87981,0.504356,-4.2335,9.61717,-5.08953,-3.62816,10.9626,-4.75534,-3.36749,10.9187,-4.77178,-5.091,10.5433,-5.1146
15.9328,0.0282425,-9.87576,21.2518,-1.72235,-9.89109,19.5387,-3.0321,-9.87157,20.434,-2.4093,-10.157,19.3509,-2.59679
8.28103,0.084959,-5.14583,27.1531,2.55565,-4.62617,27.6018,2.96199,-4.86902,25.6393,1.07333,-3.28666,27.943,2.87445
4.45426,0.411721,8.10518,10.5847,4.96171,7.16508,10.3009,5.26466,7.04856,10.1775,5.33837,7.49633,11.0689,5.28964
0.251219,0.249275,11.9928,24.0449,2.67062,11.9156,23.8264,2.55279,11.9322,23.7955,2.67222,11.9193,23.8113,2.61453
11.6253,0.137632,5.16324,19.0788,-2.58754,5.89974,21.8667,-2.02149,6.52623,21.8675,-2.13504,6.89735,21.3335,-2.36446
4.59088,0.249393,0.885874,28.5176,5.27804,0.312053,27.7144,6.05129,1.26937,28.5752,5.41486,0.923863,29.0334,5.34266
0.634614,0.229344,6.3687,11.49,0.112681,6.03381,11.9039,-0.168836,6.01635,11.7795,-0.165822,5.95127,11.5123,-0.215022
11.7219,0.115308,-0.911387,23.2684,0.182858,-1.6499,22.4308,-1.63522,-1.23924,22.5758,-1.27518,-1.8885,22.5279,-1.3756
8.1366,0.0576373,-11.0888,19.1382,2.97002,-10.8381,16.5205,2.98417,-10.8978,16.7563,3.14803,-11.2363,19.6928,3.08514
12.6234,0.149214,0.781399,6.67946,5.54743,3.94026,7.37897,5.8865,0.809924,9.41938,4.92505,0.909617,8.89577,5.08658
25.7842,0.0120951,3.26461,17.1845,5.53028,-1.51358,17.5887,5.63146,-1.02633,16.9547,5.50216,5.65928,17.2839,5.55935
10.5424,0.509172,-4.18832,23.3328,-0.250829,-6.01109,24.3485,0.26557,-5.6406,24.2649,0.286827,-2.6143,23.5348,0.0821642
0.193283,0.10493,-7.55851,4.61607,-5.6437,-7.47352,4.49332,-5.45122,-7.37564,4.52418,-5.43889,-7.34627,4.5382,-5.45881
0.680694,0.0979032,-7.49938,3.58242,-1.04996,-7.38028,3.05501,-1.77945,-7.74168,3.87714,-1.5674,-7.49238,3.20124,-1.86497
46.0393,0.856393,4.62921,20.3443,4.72965,4.07414,19.5441,5.58488,7.04676,21.057,5.35574,4.84424,22.3528,5.78919
10.5412,0.269683,9.11757,25.1908,4.8281,10.2119,25.1331,4.96763,8.74869,24.607,5.27168,11.7013,24.6636,4.85756


