
395.622,0.203469,-10.1665,7.99219,3.78072,-10.0379,1.83072,0.239568,-10.4223,5.90689,-0.890463,-9.94693,2.08135,2.59404
4.68874,0.439818,-4.40045,10.783,-6.96231,-4.51331,11.549,-7.04163,-5.16604,10.4309,-7.45938,-3.61448,10.8545,-7.63524
3.23189,0.0871466,-8.08445,13.6258,5.57001,-8.61899,12.965,6.34115,-8.3616,14.7276,6.30285,-8.05728,13.8839,5.72872
0.972391,0.389816,6.87681,0.290252,-2.43161,7.78328,0.414004,-2.56757,7.43848,0.364522,-2.33737,7.57624,0.411781,-2.42884
0.116655,0.0047505,4.82278,22.8745,-1.49427,4.82255,22.8619,-1.40255,4.68809,22.864,-1.35539,4.68337,22.8721,-1.4475
6.51879,0.0551584,6.88982,4.56423,6.29038,5.01609,4.19058,6.4089,5.28307,4.05068,6.40094,7.87579,5.20332,6.30982
2.46596,0.348459,0.606747,12.6658,-6.82907,0.327084,13.2961,-7.44987,0.398128,12.0211,-7.35342,0.262964,11.8539,-7.43413
129.666,0.6084,8.60368,0.463092,0.826989,8.44247,1.43857,3.69371,3.65155,0.188031,-2.22115,3.1879,0.367403,-0.49695
1.91457,0.0275359,-10.6541,8.9903,-1.94495,-10.6293,8.4931,-2.49443,-10.6511,8.29124,-2.24339,-10.6243,9.26632,-1.65462
12.7737,0.23093,0.943428,6.99855,6.62924,-1.16221,6.45342,6.65206,-0.528331,6.271,6.60434,-1.57884,6.73005,6.67018
156.626,0.0664154,5.88661,22.8637,-1.5431,9.66358,22.8781,-1.15978,8.73828,22.8983,-2.65862,8.54731,22.8884,-0.312046
18.014,0.555948,9.93402,13.5866,-3.61592,10.5479,15.5517,-3.44622,10.0438,15.1163,-4.19694,10.0547,13.4163,-4.42002
2.4094,0.138529,-9.12818,3.63902,-4.80539,-8.81485,2.47508,-4.53699,-9.07502,1.99454,-4.04992,-8.67209,2.3886,-4.59368
1.394,0.0505552,-8.55639,1.92873,4.16397,-7.09454,1.89706,3.73252,-7.65996,1.87267,3.69133,-7.51985,1.87788,3.6914
19.4558,0.0703026,-3.22005,22.6243,0.222357,-3.45514,22.8544,2.20142,-1.5972,22.715,0.436735,-2.20291,22.8104,1.63061
0,0.0108519,-7.73815,22.4551,-3.58376,-7.73929,22.453,-3.54456,-7.67073,22.4583,-3.53967,-7.66563,22.472,-3.57825
181.579,0.60651,-7.02625,1.89245,3.40829,-5.8706,1.05691,0.868881,-2.53138,1.48464,4.74452,-2.9094,0.944176,3.171
2.53314,0.00101612,-3.48821,14.6688,7.16573,-4.89452,15.5246,6.40836,-2.83149,14.4446,7.40833,-4.81479,15.522,6.4226
90.4947,1.04293,-3.148,19.5314,5.24205,1.03688,18.1149,6.80399,-0.77467,21.3449,5.72715,-1.20911,17.6932,6.95209
10.677,0.298422,0.323689,21.3493,-5.62268,0.124013,21.924,-5.70409,0.348324,21.0091,-6.08749,3.26606,21.6112,-5.88193
0.0493215,0.000383127,9.41457,2.93837,-4.09156,9.36913,2.81125,-4.06961,9.43989,2.90426,-4.02108,9.40225,2.81219,-4.0128
11.7851,0.716654,-4.60522,4.23513,6.45603,-1.94005,4.77323,6.46866,-3.20358,5.3738,6.51426,-2.08511,4.86688,6.46471
0.713917,0.136612,-7.18069,17.9159,5.75548,-6.5761,17.964,5.9502,-6.64489,17.8173,5.99991,-6.63729,17.6631,6.10705
14.8299,0.0416612,6.92323,1.49726,4.03967,7.08409,0.755798,2.11862,6.58019,1.72541,4.89401,5.67749,1.78319,5.37585
5.30807,0.229471,10.335,21.8221,-2.32916,9.72033,22.6013,-1.78978,9.75601,22.4028,-2.50094,9.361,22.7327,-2.13305
4.94955,0.269487,0.650249,19.7449,-6.81974,2.91576,20.1495,-6.99236,0.584025,19.4247,-7.33272,0.312642,20.1359,-6.87869
1.76531,0.229335,9.9221,17.2394,0.985596,10.2942,17.8449,1.24602,10.1899,17.7067,0.962618,10.2967,17.7318,0.745813
145.655,1.00717,8.49391,15.3428,-5.59868,8.05479,20.2891,-5.0971,6.7669,17.867,-6.59225,10.0052,19.58,-4.48577
7.35938,0.0932772,-2.76877,20.5279,-6.625,0.0816482,21.129,-6.17412,-0.448692,20.8348,-6.29238,-2.96355,21.2227,-6.34013
0.83436,0.0377955,-4.85873,12.8956,7.36607,-5.28199,12.5115,7.44563,-5.48995,12.517,7.41116,-5.70075,12.5697,7.36311
14.802,0.470283,9.40468,9.765,-1.67667,10.2104,10.975,-1.23821,10.3201,11.7997,0.0545148,9.78782,9.38753,-1.69633
43.9704,0.121227,2.11243,6.74413,-7.53548,-0.31339,7.88298,-7.84139,-0.118185,7.31096,-7.80898,0.768436,9.31554,-7.64152
0.301224,0.509158,6.99094,22.9685,-3.39617,6.28483,22.9939,-2.91984,6.35275,22.9648,-2.88806,6.50449,22.9844,-2.87397
3.85895,0.166025,1.66208,9.81035,-7.18073,1.63102,10.6418,-7.34897,3.37,9.80933,-7.33659,1.26524,9.8081,-7.34912
0.437373,0.00355786,-0.773381,0.507835,-4.80549,-1.12725,0.508284,-4.75535,-1.1953,0.462649,-4.66621,-1.19647,0.412615,-4.58052
0.694209,0.282606,-10.0914,20.9426,0.135737,-10.0512,21.4973,0.0762527,-10.0907,21.4985,-0.00767761,-9.98173,21.5631,0.295718
6.37452,0.346856,0.402158,9.75398,-7.21215,0.00618159,9.43905,-7.70497,0.324961,11.7134,-7.43931,1.20245,9.85768,-7.34705
0.503008,0.0119656,-7.13134,22.6299,1.11134,-7.40888,22.5555,0.813323,-6.84223,22.6417,1.02051,-7.47268,22.5577,0.906663
2.85653,0.113168,1.37774,11.5513,-7.19871,1.70019,10.6827,-7.32562,1.79879,12.1474,-7.18628,0.944445,11.5273,-7.39724
5.28846,1.15285,10.4048,17.3632,-3.99822,10.3388,14.9553,-3.58542,10.1289,15.442,-4.08759,10.1502,15.2651,-3.92904
3.11327,0.0935583,-10.5125,13.3995,-3.127,-10.6497,12.843,-3.1227,-10.7128,12.9827,-2.61045,-10.682,13.6375,-2.4818
16.6584,0.311221,9.74158,9.27713,-0.263467,10.1218,9.39079,-0.732619,9.95274,6.74821,2.02139,9.8275,9.93742,0.755426
0.712764,0.148923,9.97992,5.80393,-4.32142,9.45332,5.9343,-5.15209,9.42561,6.03654,-5.19431,9.41589,5.99033,-5.20022
10.9132,1.14568,-4.74315,7.79868,6.74628,-6.7798,8.24504,6.94534,-6.91167,7.56426,6.8649,-6.77722,8.46863,7.00281
0.982057,0.335815,6.4646,2.64227,-5.91938,7.57107,2.63034,-5.6309,7.31654,2.70419,-5.74952,7.7559,2.58146,-5.53017
0.132626,0.0760236,-9.35021,10.2035,6.62421,-9.37639,9.98656,6.6318,-9.52865,9.92397,6.49299,-9.43521,9.99049,6.55528
0.0976395,0.048991,-2.40988,22.6214,4.11809,-2.26909,22.6062,4.11802,-2.26815,22.5787,4.20089,-2.18746,22.5983,4.20743
18.7299,0.194689,10.3058,18.0451,1.35385,8.79563,19.8063,4.65948,8.63259,19.1673,4.92205,9.03141,18.7341,3.92514
9.44451,0.707754,-10.618,9.18682,-1.55921,-10.1956,9.85371,-0.721426,-10.4622,10.1747,0.00757892,-10.4897,10.1324,-0.608009
0.0313068,0.0622682,1.77391,22.5885,4.12406,1.71182,22.5581,4.17669,1.78404,22.5745,4.197,1.71206,22.5252,4.14596
6.67075,0.573846,-7.47749,11.2446,-6.35169,-7.63375,10.7965,-6.90864,-6.19528,11.4445,-7.27302,-8.08208,11.9937,-6.78071
8.29777,0.0822194,-2.68076,21.9572,-5.7849,-2.62219,21.1797,-6.37072,-2.95647,22.6924,-4.95694,-1.04904,22.0121,-6.04915
16.706,0.0397123,8.11583,17.7079,5.79731,8.49019,19.5201,5.12694,9.00902,18.5239,5.34953,7.7719,19.9882,5.13341
4.9594,0.220945,-8.31406,19.2162,-6.71994,-8.5897,19.5601,-6.78235,-7.24643,19.7212,-7.04877,-8.74505,18.9412,-6.94383
41.221,0.0261729,-3.79854,10.4832,7.34846,-1.02079,8.18525,6.81056,-1.28275,9.71102,7.15,1.61003,11.003,7.36755
0.031593,0.0059761,3.7098,9.38843,6.93748,3.76672,9.29529,6.94208,3.76998,9.38618,6.9437,3.69696,9.29557,6.94176
3.90022,0.534981,-0.913743,13.827,6.7927,0.182357,12.9269,7.22192,-1.70142,13.8266,7.46097,-0.113731,14.4163,7.16858
0.760611,0.098554,4.67156,14.9661,-6.86802,5.02863,14.9691,-6.92725,4.39595,14.825,-7.08175,4.52588,15.2048,-6.8858
5.20425,0.0807424,-10.58,11.5867,-4.251,-9.94667,11.7373,-5.27887,-10.1542,12.1001,-4.83691,-9.87892,11.9395,-5.30383
0.108537,0.00237938,-9.25487,4.30746,-4.96385,-9.46648,4.23196,-4.79135,-9.53495,4.32703,-4.78263,-9.39193,4.19074,-4.82489
22.5703,2.16807,-1.65789,18.9355,-7.4553,-1.52925,15.4659,-7.35199,-0.48202,15.5219,-7.51269,-1.89864,15.2989,-7.40656
0.255763,0.0113601,-1.65046,11.8332,7.8438,-1.85364,11.9258,7.85866,-2.07266,11.7905,7.84153,-2.07382,11.8353,7.85027
12.3057,0.219438,5.29466,11.3642,-6.24284,4.74628,12.0762,-6.90459,8.88613,12.6521,-5.98348,5.55504,11.0208,-6.28383
4.51778,0.155081,6.69781,10.1886,-6.2102,7.7013,8.95919,-6.02531,7.05311,9.49024,-6.54363,7.79821,8.59233,-6.17328
1.96448,0.0544156,-4.1549,14.2448,-7.50791,-2.47663,13.9457,-7.5835,-2.48315,13.6675,-7.59533,-2.40913,13.8981,-7.58586
0.685676,0.0936873,4.69264,21.6344,5.42421,4.61442,22.141,5.19843,4.39489,22.0767,5.26525,4.53412,22.1804,5.17966
2.29682,0.500905,0.25816,12.8776,7.25118,2.11444,11.5378,7.49318,1.76493,11.7201,7.52329,1.62205,11.6784,7.49442
17.9561,0.135349,-2.60804,0.468031,-1.01866,-4.92116,0.67249,-1.06816,-2.27934,0.190494,-1.6033,-6.18757,0.706052,-2.10477
2.29697,0.027023,0.617097,22.9306,-3.03724,0.0738987,22.9346,-3.41258,-0.084896,22.9107,-3.27769,-0.0880416,22.8974,-3.09193
0.348027,0.00861548,-9.09422,3.35371,5.90964,-9.02814,3.14081,5.81057,-8.66042,2.94542,5.87933,-8.66544,2.90193,5.85225
0.0226473,0.00370094,-5.91243,22.6551,3.93635,-5.91424,22.6218,4.0213,-5.8537,22.6584,3.93876,-5.84642,22.6304,4.02332
9.90633,0.535018,8.74188,8.88792,-4.29943,9.05726,8.63479,-4.9638,9.93153,8.93627,-3.03565,9.02062,10.2064,-4.59542
1.70378,0.0507657,-7.53891,8.95046,-6.81716,-8.63079,7.96516,-6.21125,-7.90061,8.39539,-6.56712,-8.6248,8.06062,-6.21897
1.57614,0.0383596,-9.859,1.58499,0.439223,-9.71679,1.33414,0.854858,-9.71964,1.33983,0.483036,-9.95095,1.63858,1.06819
0.430655,0.010704,-9.00734,21.9516,2.66896,-8.53161,22.389,2.65126,-8.97374,21.948,2.7536,-8.53108,22.3789,2.69537
7.90979,0.260304,9.03577,10.3458,-4.53371,9.11445,10.742,-5.3551,9.49622,12.0232,-4.93543,9.54097,12.1189,-4.8556
0,0.00684488,-4.69229,2.29648,-6.08882,-4.67279,2.316,-6.09483,-4.66451,2.33271,-6.11321,-4.69342,2.2797,-6.07844
1.16691,0.118345,-9.99894,10.5116,-5.16559,-9.9658,10.8152,-5.4142,-10.1644,9.92699,-5.08484,-9.95315,10.5186,-5.38737
0.828853,0.0451869,-10.2362,6.66628,1.05567,-10.2589,6.81426,1.31065,-10.2983,6.95958,0.98552,-10.2439,6.10441,1.24463
4.84335,0.0248252,7.91733,10.9765,-5.95081,9.29707,11.9656,-5.36427,6.86829,10.201,-6.13418,9.23559,11.9291,-5.41011
218.321,0.154601,1.42993,0.317529,-1.53897,-2.09621,0.80893,1.26137,2.24237,0.276102,-3.80485,-5.13105,0.778307,-0.684572
7.4718,0.324534,8.62065,22.8449,0.80394,8.26477,22.9005,-0.59157,8.12094,22.8859,-0.407156,7.6335,22.8264,0.141726
2.47728,0.192502,4.29708,15.5352,6.76185,4.07375,15.4786,7.10057,4.56143,15.8277,6.78179,5.38392,14.5871,6.69983
0.313263,0.034737,2.053,22.7345,1.3807,1.91314,22.7464,1.19644,1.77742,22.733,1.28592,1.77245,22.7341,1.33354
13.9623,0.203318,7.25739,19.505,-5.94203,7.98784,19.3964,-6.04473,7.3976,21.959,-4.45958,6.8249,19.5434,-6.30516
76.0006,1.50642,-5.76874,19.8182,-7.23676,-3.16799,17.3218,-7.38468,-2.34611,19.5294,-7.31572,-2.75602,20.1697,-6.96671
26.1566,0.0964716,3.64033,0.25562,-3.36362,3.69383,0.389915,-4.82106,2.24562,0.271446,-3.52992,2.92331,0.428375,-4.76212
15.5528,0.255459,-9.71167,12.3426,-5.34479,-10.0473,13.3891,-4.82241,-10.4615,13.1337,-3.5857,-8.58902,11.5438,-6.57749
18.4829,0.548309,-5.06007,21.1744,-5.54829,-3.65068,21.9571,-5.6969,-5.50882,22.0959,-5.48116,-4.50404,20.4282,-6.89375
0.405847,0.0340007,0.754319,0.537352,-0.17855,1.09627,0.472264,-0.371614,1.0315,0.517823,-0.183379,1.17181,0.465074,-0.32892
0.422258,0.354453,9.10419,4.8051,5.04712,8.94856,5.06122,5.31325,8.98097,5.15457,5.30647,8.91377,4.88181,5.33952
0.179575,0.0179883,-3.42399,2.40929,-6.37445,-3.41817,2.67135,-6.52292,-3.48458,2.67313,-6.51147,-3.59284,2.49013,-6.3729
0.892265,0.0182841,7.67338,0.262971,-0.237924,8.43899,0.251005,-0.293195,8.28439,0.261583,-0.379554,7.80781,0.271339,-0.146339
0,0.0691952,4.52776,21.3227,-5.68161,4.62623,21.379,-5.76082,4.67279,21.382,-5.72606,4.58674,21.3852,-5.72304
0.527292,0.242653,-2.90035,9.22559,7.05013,-2.12903,9.27028,7.03236,-2.12979,9.13369,7.01758,-1.98061,9.35415,7.08597
7.96325,0.128524,2.0323,18.679,-7.25113,3.38371,19.6662,-7.20271,2.26872,19.6916,-7.21058,3.22844,18.8111,-7.3465
0.0887572,0.0683534,-4.76376,22.6171,4.2042,-4.75574,22.6361,4.1265,-4.64229,22.6503,4.12387,-4.69323,22.6144,4.13449
13.7191,0.0432221,0.36313,22.7449,-0.448508,3.63886,22.8387,-0.893439,2.30738,22.8118,-1.04139,3.63882,22.8428,-0.939739
12.8729,0.247136,-4.83805,13.5139,6.852,-7.32737,13.4864,5.84375,-1.29838,14.0824,7.29374,-7.92154,13.671,5.56843
58.3292,1.05674,-8.03449,16.7548,-5.8183,-9.26335,17.8624,-6.59967,-6.30768,15.2298,-7.29944,-8.8326,15.5315,-6.88868
2.14212,0.14013,6.70414,15.3542,5.36034,6.4353,14.6842,6.28164,7.0651,16.0244,5.50624,6.88817,15.3838,5.24759
0.129431,0.00437682,-9.78452,15.4596,-6.14183,-9.72652,15.6435,-6.27109,-9.69492,15.603,-6.30647,-9.72429,15.4323,-6.22786
1.61906,0.0514591,9.9195,17.9744,4.45391,9.26053,18.4587,3.9567,9.526,18.3146,4.28516,9.42359,18.3152,3.87035
0.0526657,0.0151563,2.66837,22.7617,0.450497,2.66792,22.7711,0.358359,2.80875,22.7691,0.452133,2.81008,22.7661,0.404903
1.94436,0.0551572,-1.99249,8.06793,-7.88925,-1.96893,9.08845,-7.85651,-1.82736,9.12936,-7.84324,-1.69575,8.61028,-7.81721
12.4574,0.157089,-5.89411,1.76018,4.62671,-3.51679,1.55218,4.80793,-6.8111,1.84597,3.99969,-4.78469,1.44881,3.98213
13.8474,1.91462,-4.78017,14.8542,-7.44654,-3.79734,11.8465,-7.42854,-4.59926,11.6994,-6.80651,-4.50281,11.6226,-6.94283
13.3463,0.0223918,-7.76552,3.88552,-5.56878,-8.85752,3.34395,-4.88395,-5.18236,2.78072,-6.17732,-5.97532,2.36238,-5.64928
11.2007,0.245041,4.3241,18.9693,5.89657,3.96471,18.3451,6.66191,6.94728,18.7393,6.07797,4.04544,18.1956,6.75621
2.73414,0.194641,3.02613,14.0251,6.84948,2.90572,13.5014,7.3152,2.49627,14.4687,7.33322,2.80742,13.9126,7.03474
0.930356,0.00123472,-8.81473,21.0943,3.9059,-8.9798,20.6827,4.01285,-8.33023,21.5858,4.16859,-8.38477,21.5889,4.09103
2.90896,0.271807,8.42548,20.9202,-4.49528,8.29082,20.7225,-4.9163,9.33748,20.8769,-4.37537,8.18137,21.6156,-4.75421
6.9323,0.35101,-7.37998,14.9906,6.04098,-6.13986,13.8401,6.58812,-7.073,16.2686,6.48258,-7.93739,14.7257,6.29285
11.2282,0.028254,-9.3011,8.52108,-5.66988,-9.5083,6.90114,-5.32991,-9.94778,8.89041,-5.27878,-10.0313,8.05474,-5.10243
0.254757,0.0135075,-10.1259,18.3583,-2.77514,-10.1177,18.1456,-2.87551,-10.1318,18.295,-2.96892,-10.1228,18.1454,-2.92296
12.3071,0.0381925,2.84214,1.06391,3.48765,4.15354,1.04922,2.5044,4.30312,1.17316,3.11478,3.94435,1.01263,2.4104
30.4726,0.448225,-7.81134,10.1433,7.30172,-5.7734,9.82119,7.20581,-4.13249,11.3273,7.60326,-4.84705,10.5339,7.36115
3.04795,0.0423386,10.6942,15.2008,2.11997,10.7735,15.6834,2.31852,10.7926,15.5875,1.57747,10.698,14.7598,2.07933
1.97709,0.00671531,-5.57295,10.9755,-7.33322,-5.00438,11.2007,-7.35936,-5.12905,11.627,-7.37348,-5.91893,11.1662,-7.32119
2.09774,0.00981492,-9.54923,5.87054,6.40417,-9.66041,5.53768,6.15094,-9.67471,4.97108,6.05171,-9.62659,4.76199,6.12837
6.94663,0.148615,7.92776,21.0416,4.57289,7.6829,21.1143,4.83654,9.10831,20.9001,4.23139,7.69612,20.065,5.17104
10.8904,0.177876,3.85788,0.217353,-3.04812,5.33588,0.248063,-2.60258,6.37186,0.302557,-3.34272,5.89048,0.287729,-2.8801
3.84573,2.24479,9.31683,7.20459,-5.30165,7.7454,8.96267,-5.97125,7.78431,8.9684,-5.82307,7.91538,9.03833,-5.68832
0.925725,0.00805737,2.35278,15.6395,7.24507,2.70418,15.5795,7.32244,2.13118,15.9206,7.21865,2.27813,16.1926,7.2585
66.1619,0.376347,-5.48804,3.96077,-6.40908,-7.34618,8.0318,-6.68777,-6.98153,10.8178,-7.09575,-6.23085,9.84507,-7.21485
2.41446,0.427768,9.28346,1.86122,3.15339,9.65541,1.97167,0.885459,9.64198,2.03377,0.948318,9.67434,1.87486,0.678144
8.92316,0.0807932,7.45361,19.7585,5.44511,4.3754,20.4737,5.75596,5.63664,20.3931,5.61732,4.95467,19.7641,5.83598
3.23764,0.100115,-5.97925,22.7628,3.58563,-7.58921,22.642,3.27402,-6.74428,22.8166,3.17504,-6.96344,22.6922,3.56761
22.0665,0.150246,-2.12883,1.27456,3.74899,-1.51393,1.04679,2.65913,-2.02397,1.89084,5.70592,0.465612,1.13628,4.58036
13.4354,0.854304,6.04235,20.1432,-6.31103,5.00395,20.1269,-6.42647,5.12935,19.3464,-6.92861,4.71182,20.7974,-6.43432
37.2995,0.154167,-0.72215,9.85317,7.09585,1.37948,9.80405,7.03391,3.63645,10.9692,7.19946,3.49358,10.7869,7.18309
0.75178,0.0176387,-3.69815,6.05499,6.61361,-3.40783,6.00719,6.6259,-3.48495,5.55602,6.54605,-3.41163,5.55563,6.54668
32.4933,0.493875,5.75623,22.5143,-4.46253,7.25577,22.0285,-4.30239,6.212,21.5542,-4.68273,6.4511,19.6041,-6.44981
9.76581,0.32708,9.23527,11.1721,1.74357,9.50042,10.1805,1.98228,10.2167,11.0398,0.101282,9.37135,11.5234,2.29602
0.205319,0.015123,-10.3477,21.6446,-1.37706,-10.1312,22.0861,-1.35828,-10.085,22.1354,-1.3013,-10.2661,21.7924,-1.3131
11.0342,0.416818,0.0728859,19.6811,5.95218,1.198,20.4111,5.68761,1.04542,18.7065,6.25194,1.4526,19.5592,6.11214
9.23484,0.151856,2.09463,12.4716,-6.97997,0.722039,12.5566,-6.85391,4.80968,11.7356,-6.83829,4.80886,11.6907,-6.84339
23.5011,0.480702,-10.1149,5.95194,5.69113,-9.71394,3.15782,4.97269,-9.82404,3.85602,4.33847,-9.74433,3.22627,4.78936
62.816,0.654974,9.21696,10.3184,-4.06784,10.5223,8.00101,-1.38233,10.4906,12.9079,0.285008,10.3318,11.6659,-1.06598
4.98177,0.117968,-10.5068,12.6896,-0.0464403,-10.4112,14.2968,-0.403575,-10.3813,14.3656,-0.759951,-10.4006,14.6413,-0.651243
26.2982,0.0822143,10.1523,11.8766,-3.19453,10.2552,11.269,-1.88792,10.5564,12.698,-1.62794,10.106,13.3356,-4.13167
40.8798,0.358005,-10.1372,4.91808,4.17296,-10.1201,9.03922,4.36062,-10.0106,9.94029,5.64735,-9.98926,10.2955,5.15297
30.9071,0.226818,-9.16171,21.3971,2.86817,-9.57369,19.0269,2.0678,-9.67585,19.6663,1.42817,-9.29348,19.785,3.58097
18.2306,0.349378,-7.7913,17.576,-6.73443,-8.6928,18.1976,-6.97086,-6.29663,18.1161,-7.28802,-6.00139,18.9574,-7.33186
4.01103,0.283042,3.9128,15.625,-6.74917,3.77918,15.9237,-7.00162,3.83438,14.8196,-7.23692,5.25348,15.5937,-6.80653
2.85237,0.0393641,3.36377,12.8827,7.40514,3.43479,12.4623,7.43949,4.33542,12.8397,7.32567,4.61493,13.1261,7.25898
21.1007,0.133131,10.3839,18.9208,-4.02567,10.4687,18.5609,-2.61145,10.1419,19.2549,-4.76888,9.95223,16.4658,-4.87018
1.51105,0.0918377,-9.73531,13.2958,3.09154,-9.84457,13.0229,2.9335,-9.74822,13.7087,3.93006,-9.75914,13.5096,3.83183
13.35,0.379999,-6.13091,9.50695,7.15336,-4.28572,10.3091,7.29157,-3.24208,9.94268,7.21711,-3.46548,9.68726,7.07359
7.85627,0.217856,4.34455,12.856,-6.79379,4.25212,14.5606,-7.14732,4.1301,12.4385,-7.01669,6.22828,12.5224,-6.71522
7.44514,0.512335,9.27814,9.82141,1.00818,10.0405,10.6896,0.588894,9.74141,8.71291,0.939161,9.80713,10.8214,1.32331
5.00282,0.135481,-10.3178,10.4439,1.56619,-10.2777,9.94606,0.813525,-10.4563,10.0304,0.0518349,-10.3462,10.0232,0.548068
4.58663,0.186938,-9.63534,10.3654,-5.70725,-8.82965,11.4325,-6.21786,-9.02341,10.7637,-6.14109,-9.20028,10.8541,-5.85561
2.3687,0.199254,2.17539,15.7684,-7.14206,1.69561,15.8786,-7.4235,3.0186,15.6368,-7.27818,2.1875,16.0988,-7.16311
6.92396,0.0371932,10.2747,18.0125,-1.75932,10.4817,18.4896,-2.59576,9.74477,16.9715,-0.0864783,9.62925,17.0345,0.300449
1.10955,0.105286,-6.82625,2.63379,6.07662,-7.48149,2.31586,5.71929,-7.68732,2.48649,5.80225,-7.76534,2.40825,5.70643
3.67036,0.00917918,9.49194,12.2044,-5.00747,9.31503,11.9645,-5.3316,9.75845,13.4889,-4.93688,9.72534,13.4865,-5.00987
2.32687,0.107001,-9.78568,3.09292,3.72843,-9.84595,2.43859,3.86485,-9.92868,3.16188,3.53814,-9.79424,3.92823,4.52316
38.0558,0.198154,6.90437,7.78532,6.71924,7.05145,6.22595,6.6337,5.2327,7.05227,6.74573,6.15155,6.12548,6.73121
1.14903,0.163607,-2.6407,12.5271,7.89148,-3.27376,12.8706,7.76239,-3.27543,12.6359,7.78922,-2.8486,11.7502,7.83869
0.436465,0.260554,-2.11488,22.6906,-2.53377,-2.39152,22.6709,-2.72501,-2.2427,22.6272,-2.784,-2.17777,22.5766,-2.781
154.672,0.641578,-2.48146,22.7747,-3.87865,-7.26561,22.5419,-4.55109,-6.69013,22.3587,-2.94719,-7.33289,22.4376,-3.30503
16.3163,0.412072,-8.11406,12.9194,-6.37353,-6.7904,13.0435,-7.03162,-5.11696,12.1691,-7.27818,-7.93007,12.0835,-6.77962
0.0575629,0.00886285,1.54318,2.50718,-6.62184,1.44122,2.63327,-6.67795,1.51146,2.64875,-6.68264,1.46037,2.6704,-6.69536
13.7953,0.0701165,0.223799,0.176553,-2.87352,1.00099,0.171325,-2.14792,0.336763,0.443613,-4.68613,-0.600204,0.144093,-1.94877
17.2005,0.674236,-8.14034,13.5214,-5.76283,-8.13347,13.055,-6.32396,-9.43724,13.9079,-6.28959,-6.96815,14.0569,-7.19047
13.8625,0.0354497,1.3653,8.21989,6.79817,3.06352,8.9751,6.94642,1.86411,8.85073,6.89273,3.19599,8.34358,6.83168
6.8786,0.715343,-0.660538,15.2841,6.59693,0.786448,17.1914,7.13831,0.233454,14.471,7.10143,-1.55515,15.2105,7.50597
119.295,0.0273616,-9.29071,17.6826,4.48715,-9.40329,15.3753,5.08998,-9.83013,14.0648,3.13752,-9.68852,17.5636,1.75203
0.148993,0.0597006,-8.88575,7.48623,6.83582,-9.10745,7.58546,6.79253,-9.03043,7.39975,6.79138,-9.10635,7.54096,6.78102
64.1619,0.979614,-2.67207,0.585907,0.0953205,-9.03967,1.06495,-0.198813,-8.28287,1.00444,-1.54289,-7.97006,1.21067,0.541811
8.80351,0.38733,-5.36759,16.6056,-6.78293,-6.14017,16.7185,-7.05745,-4.90542,15.2294,-7.45239,-4.72639,16.8198,-7.23101
5.79222,0.113578,2.82557,3.79434,6.34603,1.85637,3.5566,6.44249,4.09754,3.91175,6.45956,3.61447,4.23122,6.50602
17.192,0.108003,2.2485,0.178307,-3.03427,2.06549,0.325039,-1.36332,3.53082,0.273909,-1.65939,3.04867,0.30256,-0.963136
0.0944788,0.025679,1.58382,9.85485,7.02247,1.58558,9.98182,7.05795,1.5127,9.89444,7.0408,1.66172,9.98408,7.06942
2.87348,0.176937,5.84971,1.30924,3.89914,5.0187,1.26954,4.3127,5.50545,1.12325,3.37219,5.36739,1.19193,3.70356
109.546,0.462703,6.90008,9.48299,6.79187,6.16008,14.0784,6.67017,7.39502,13.9985,6.19972,5.09971,10.0195,6.99115
0.255544,0.093715,6.59896,2.74823,6.07306,6.60449,2.92213,6.16936,6.42337,2.95963,6.22419,6.35458,2.99574,6.27881
2.84425,0.288962,10.4147,8.15534,-0.729364,9.76762,9.59569,-1.44135,9.81473,9.3528,-1.6534,9.79071,9.3553,-1.71668
19.1492,0.533273,-10.3385,6.9719,-2.44166,-10.6595,8.22311,-2.43909,-9.90189,5.43201,-4.59231,-9.67729,5.66154,-4.81388
0.573055,0.0439281,6.10112,22.7736,1.58204,6.24179,22.7985,1.9636,5.6237,22.793,2.38401,6.09729,22.7543,1.76163
1.90384,0.0253713,-10.1297,15.0602,0.522281,-10.0056,14.8487,1.30622,-9.97734,14.9857,1.29467,-10.0921,14.492,1.2847
0.618816,0.0510104,-8.78586,7.3696,-6.01951,-9.03027,6.80368,-5.75201,-9.02649,6.85321,-5.76206,-9.09617,6.89772,-5.73641
0.150251,0.117277,8.12379,12.0178,6.44973,8.47221,12.1694,6.33353,8.32641,12.1682,6.35294,8.26045,12.2113,6.37833
6.87123,0.318105,-1.3796,10.8806,-7.05272,-0.40949,9.77188,-7.70091,-0.370008,11.7837,-7.49741,-1.71982,10.9832,-7.29698
5.01578,0.152175,9.94542,8.23759,-4.13909,10.5433,7.98519,-2.8584,9.57745,7.46371,-4.96332,10.2395,8.13269,-3.74287
1.26922,0.0659542,7.59324,10.5636,6.62231,8.14442,10.5661,6.58628,7.31859,10.5008,6.74602,7.74099,10.2298,6.68864
2.88018,0.145633,9.71338,12.1537,3.29768,9.91045,12.1668,3.68633,10.138,12.5206,3.63526,9.41126,11.4759,2.35373
2.22012,0.682151,10.6193,21.101,-1.64869,9.79838,20.0195,-0.710074,10.6219,20.1035,-1.89767,9.76745,20.0635,-0.55609
5.55039,0.224452,-6.31188,21.9689,4.59767,-7.31124,21.8071,4.50956,-4.88499,20.9913,5.48482,-5.02651,20.906,5.44751
0.614064,0.0215465,-8.6824,22.2429,-4.62922,-8.6645,22.1799,-4.80428,-9.08866,22.2901,-4.38011,-8.66481,22.3928,-4.40312
5.22509,0.0171098,-4.03965,10.0761,-7.67289,-4.05238,9.6598,-7.68878,-3.19993,10.2201,-7.78199,-3.07746,9.53306,-7.86063
1.53899,0.165778,5.52634,10.9687,-6.33402,5.68633,10.3115,-6.79939,5.23433,10.6657,-6.60224,5.47716,10.6298,-6.51051
26.1652,0.0615302,-9.72334,12.4477,5.08161,-9.42823,15.172,5.04843,-9.35948,14.53,5.69861,-9.55184,14.9589,4.65083
5.34302,2.04518,2.32377,12.6876,7.51721,0.149859,14.2037,7.02621,0.51784,14.5069,7.14638,-0.116502,14.1892,7.14086
52.6852,0.114346,2.15056,0.391888,-0.303023,2.21504,1.07447,4.04734,0.663456,1.03505,3.23131,0.308282,1.0537,3.19427
1.34356,0.0404786,3.82292,4.27626,6.51431,4.45046,4.00977,6.40023,4.8748,4.05525,6.39568,5.02015,4.09935,6.40711
8.4504,0.204329,4.6088,16.6021,6.56584,6.4683,16.1251,6.88573,4.33392,16.6211,6.77317,6.73127,16.6048,6.76439
387.064,0.591361,9.55207,1.63142,0.0332758,10.4775,6.75168,-1.09601,9.49589,5.50312,3.86386,9.9225,3.66346,-3.32238
6.91292,0.0424794,-10.6652,12.7667,-1.5551,-10.7417,10.3225,-1.64901,-10.7213,10.7375,-1.30936,-10.7224,12.5566,-1.8251
35.273,0.052597,0.325448,0.481424,-0.636827,0.16125,0.973153,2.31144,2.34539,0.348395,-0.995432,1.997,0.325012,-1.31639
4.30311,0.173872,-0.319981,22.191,-5.50925,-0.381441,22.7481,-4.87242,-0.442335,21.0526,-6.21264,-0.520042,21.059,-6.24332
177.098,0.317908,-5.01131,3.6888,-6.50895,-1.74298,6.77167,-7.74903,-1.77159,5.66419,-7.57164,-2.42353,7.78107,-7.81725
13.2696,0.636342,2.80391,17.2418,6.9829,2.63741,17.9744,6.76366,0.975408,18.5551,6.31029,0.50876,18.7172,6.51748
6.35469,0.73078,-7.17102,19.431,3.55925,-7.67302,18.2085,4.98221,-8.21898,20.6774,4.63391,-6.42754,19.5999,3.97252
5.81774,0.15743,7.25173,15.0895,-6.33652,8.10745,15.0482,-6.13337,7.35156,13.9073,-6.55916,7.19001,15.7844,-6.48113
27.7469,0.094791,10.7921,15.1538,-0.765666,10.6866,13.4007,-2.36875,10.7042,14.0769,-2.61378,10.6611,13.7549,-0.270792
9.5314,0.041135,9.76904,4.45606,1.45049,9.36364,3.45386,3.52501,9.30983,3.95969,4.07428,9.48868,3.59158,2.7353
0.434508,0.0865067,9.34654,13.5654,5.37217,9.38743,13.3734,5.35728,9.38649,13.3028,5.45642,9.47562,13.4146,5.14848
11.0082,0.0118664,-3.13251,5.51184,6.51836,-1.64941,5.58729,6.58102,-0.67685,4.94724,6.49614,-0.669117,5.35365,6.56593
3.02576,0.109693,-8.33922,5.77637,-5.8323,-8.06585,5.47856,-5.77942,-8.0899,4.79542,-5.63627,-7.78185,5.69771,-5.95422
2.39202,0.383951,8.52551,22.3031,-4.16374,7.32808,22.0665,-4.27943,7.75662,22.3177,-4.16264,8.65237,22.6209,-3.76232
0.798829,0.488336,-3.54076,22.175,5.09698,-3.34082,21.7355,5.40865,-3.41097,21.6831,5.43174,-3.13399,21.891,5.35404
52.1929,0.688116,-9.33955,6.19264,6.50942,-5.59262,6.47982,6.63012,-6.63948,7.28599,6.86072,-5.65916,5.56421,6.56947
4.09982,0.0430359,9.4303,12.509,5.6718,9.86994,11.9814,3.61973,9.8731,11.937,3.62056,9.67637,12.0216,4.71655
55.5624,0.207728,10.6873,14.4642,2.73376,10.5389,13.1378,0.338429,10.6797,14.2061,0.668456,10.1273,12.1609,2.39038
26.3834,0.0799693,-2.03635,22.6353,-1.65287,-4.20485,22.4989,-0.51307,-3.85991,22.4742,-1.12867,-3.0157,22.5909,-0.34693
16.274,0.532601,-8.91064,20.8794,-5.13598,-9.20172,20.5869,-6.16619,-9.21466,21.6945,-4.91705,-6.44408,22.4631,-5.35725
7.88234,0.613151,4.27456,9.75861,-6.46385,4.8752,8.44496,-7.20536,3.44788,10.3103,-7.28184,5.32355,10.5604,-6.60004
3.485,0.370991,9.25689,13.8559,-4.96545,9.81141,13.7276,-4.63835,9.33996,13.6911,-5.69331,9.74409,14.6628,-4.76059
23.3512,0.102805,-9.86932,13.9914,2.80853,-9.72022,16.5719,2.58517,-9.91459,15.8875,0.990155,-9.82806,15.9483,2.03168
3.43394,0.164141,-0.445927,19.8402,-6.92145,0.17703,19.8481,-7.07233,-0.684615,19.7952,-7.18787,-0.600748,20.7265,-6.43904
0.522039,0.0152989,-8.82171,22.3593,0.481821,-9.58527,22.104,0.626672,-9.10248,22.2565,0.458272,-9.64092,22.0661,0.566768
532.235,3.95617,-9.15846,18.9444,4.20493,-10.4219,20.1195,-3.32634,-10.1751,15.8402,-4.99731,-10.284,16.8978,-4.6431
2.64398,0.020043,-4.63848,20.0231,5.16157,-6.355,19.6805,4.03647,-6.15998,19.5553,4.25862,-6.43097,19.6459,3.99626
1.13288,0.146707,0.449053,20.9966,-6.0971,0.191501,20.7792,-6.57157,0.877934,21.2119,-6.18272,0.261782,20.8521,-6.4925
0.409634,0.258777,-6.11146,2.49607,6.02578,-6.17485,2.80266,6.17786,-6.09989,2.84434,6.1987,-6.02491,2.88718,6.22376
5.63986,0.144492,-9.41575,1.24559,-1.17703,-8.14511,0.987633,-2.05546,-8.53636,1.09351,-1.65239,-9.57306,1.23228,0.235565
0.850683,0.0572967,9.90317,7.9678,2.40044,9.92485,8.06185,2.92612,9.99099,8.02666,2.25308,9.88869,7.82785,2.79445
17.0965,0.0593794,-5.29056,19.3069,5.60043,-3.55784,19.1564,5.91736,-3.10048,18.6462,6.22597,-3.52048,18.4093,6.30638
0.235521,0.0389444,-7.55192,12.2498,7.10597,-7.72104,12.4585,6.96335,-7.79199,12.4558,6.95964,-7.56088,12.3999,7.02745
22.2677,1.08021,-9.7956,13.51,2.87203,-10.2636,14.8539,0.130884,-10.3211,14.4307,0.148782,-10.4063,13.7378,0.124522
3.84281,0.398937,-0.322774,17.703,-7.09037,0.839274,18.1449,-7.4871,-0.23651,17.0917,-7.46238,-0.905657,18.1387,-7.51875
50.2221,0.127362,-5.99621,8.79392,6.97144,-1.84774,8.8606,6.97121,-1.8549,7.82415,6.78273,-3.82358,9.46597,7.02539
2.38403,0.065101,9.41025,0.950126,-0.978503,8.35369,0.389635,-1.795,8.28508,0.357167,-1.52224,9.13337,0.853469,-1.39011
477.357,0.257023,-2.65334,4.18709,6.39201,1.64717,3.55587,6.45904,7.61011,5.64341,6.48218,5.50683,7.9696,6.77216
0.361173,0.105087,-10.6765,8.07979,-1.30691,-10.6504,7.44727,-1.57262,-10.6443,7.44787,-1.47573,-10.6212,7.59347,-1.3386
3.55835,0.105842,-8.02259,1.66723,2.1069,-7.3306,1.38475,1.10055,-8.65418,1.58407,2.38196,-7.39289,1.53914,1.85745
3.47016,0.174508,2.87702,3.62051,-6.74783,2.56744,2.96163,-6.65534,2.9699,2.87333,-6.53158,3.33292,3.00759,-6.53422
9.19493,0.0888502,-10.4525,12.542,0.225723,-10.6651,11.2206,-0.735968,-10.633,10.7335,-0.607655,-10.5888,10.7375,-0.330281
1.81701,0.10806,9.55367,7.91183,3.9235,9.67186,7.71,3.8694,9.53879,8.21429,4.40835,9.83499,8.45066,3.45193
0.332507,0.00477386,-0.530421,4.94577,6.50167,-0.316066,5.30661,6.55117,-0.241868,5.30651,6.55707,-0.243618,5.12432,6.53814
3.23718,1.55659,10.3734,19.5707,0.952029,9.88067,20.4065,2.97228,10.037,20.5242,3.14919,9.85021,20.2979,3.04691
196.585,0.549836,-2.5327,22.6077,-2.22454,-6.66175,22.4282,-0.154842,-9.34949,22.3597,-2.29153,-8.64182,22.2906,-0.990599
1.43069,0.152291,-2.3078,0.784923,1.30876,-3.20981,0.902356,1.05249,-2.86427,0.886371,1.41495,-3.01099,0.917543,1.32826
6.84198,0.534515,-1.07192,19.6975,5.59531,0.0913874,18.7148,6.55587,0.213152,21.2947,5.7061,0.340702,21.5868,5.61673
88.274,1.64255,-1.09776,7.23736,6.66523,-5.65591,7.159,6.73488,-5.65678,5.79185,6.59597,-5.58872,4.83157,6.52373
422.844,0.217747,-3.87519,22.5483,-2.80437,0.499751,22.7543,-0.870131,2.0226,22.9698,-2.46083,0.882557,23.0549,-3.80672
19.7265,0.294581,7.012,16.2733,5.52194,8.32811,17.665,5.76523,8.81442,16.255,5.57718,8.88977,17.489,5.67464
3.46006,0.759522,-3.62652,1.14426,-5.36724,-3.44138,1.84994,-5.98747,-2.39379,1.49879,-5.84198,-2.60124,1.56814,-5.87416
5.59138,0.560389,0.225679,15.6351,-6.95084,1.48891,15.8833,-7.4245,-0.247313,16.2043,-7.49778,-0.0074742,14.9646,-7.57656
3.79099,0.397193,-4.97504,15.5249,6.40974,-4.58797,16.9054,6.78251,-5.364,15.2947,6.74619,-4.44605,16.8528,6.82325
0.0205076,0.0304917,3.10103,22.6801,1.60545,2.95847,22.6913,1.60673,3.02951,22.6604,1.6431,3.1051,22.6727,1.64952
2.89243,0.172939,-3.10311,20.172,5.61533,-4.61505,20.0309,5.18572,-3.82748,20.2077,5.40202,-4.56684,20.0527,5.16937
15.8307,0.108514,-7.2699,20.4842,-6.45486,-5.53833,21.2617,-6.51924,-7.9242,21.4387,-6.19265,-9.36808,19.7672,-6.55875
182.767,0.120261,6.01542,23.008,-2.86951,4.76075,22.7563,0.262842,3.02931,22.7801,0.453445,1.2623,22.9336,-1.95448
4.52611,0.363016,10.3047,7.08981,0.165939,10.2953,6.64925,0.0461232,10.4559,7.65686,-0.849761,10.5057,7.84913,-1.02757
353.636,0.471471,-10.3843,7.3009,0.287329,-10.0663,9.66679,4.69189,-9.60648,14.9661,4.13556,-10.1398,12.818,1.62596
6.96544,0.127951,5.17706,14.3645,6.65431,3.59451,13.9811,6.8155,6.43708,14.5411,6.32168,3.23072,14.0742,6.83279
1.86672,0.0325423,-7.54027,8.99665,-6.82274,-7.0693,10.113,-7.07002,-7.44657,9.62136,-6.90139,-7.14349,10.1586,-7.05688
92.1567,0.174552,5.65805,14.9936,-6.63998,3.75658,17.2229,-7.05627,5.8609,17.9062,-6.7908,3.71533,18.7371,-7.2518
162.451,0.00859935,2.9088,22.5839,4.25503,6.02422,22.7684,0.220953,6.37177,22.7837,0.318629,7.10451,22.7847,3.27616
6.08086,0.196556,1.58886,20.7421,5.32282,2.55012,22.1141,5.10262,1.18254,20.5577,5.63372,2.18334,19.8643,5.57367
25.6253,0.470664,-4.37965,16.4605,-7.358,-1.89578,17.9694,-7.49467,-3.10703,17.102,-7.18747,-2.22002,16.1795,-7.35228
16.6751,0.0669725,3.91248,11.1518,7.19711,5.30564,10.5169,7.06233,6.07284,11.112,7.06631,3.83806,10.1979,7.0905
2.70825,0.00993166,2.03248,22.8015,-0.623047,0.708585,22.787,-0.252264,1.75911,22.8084,-0.762632,2.45735,22.8122,-0.00782294
55.6704,0.0966287,3.3926,20.7126,-6.32245,0.801897,20.5588,-6.70649,4.6467,19.8299,-6.97445,3.49286,22.7102,-5.04984
5.99993,0.12827,-2.19483,14.2992,-7.51121,-2.77808,16.0737,-7.23842,-1.83794,14.4468,-7.5945,-2.99541,16.0484,-7.25256
0.148614,0.000850196,2.94047,1.82714,5.86722,3.0247,2.07891,6.05622,3.08878,1.95197,5.94382,2.954,2.07631,6.06586
39.8354,0.0493645,7.21728,0.332895,-3.16603,4.19659,0.276375,-4.05627,5.24498,0.310683,-4.47851,3.93084,0.240378,-3.32232
2.622,1.1053,-7.58222,18.1577,4.99176,-7.89607,16.9413,6.04289,-7.98019,17.047,5.9643,-7.81889,16.8807,6.12902
13.0413,0.0202345,-2.25833,17.6547,6.86998,-2.83345,14.9032,7.42646,-2.97018,14.9585,7.38418,-4.07717,18.0219,6.41664
4.45487,0.0288994,-7.47394,7.70331,6.88379,-8.03601,8.74359,7.06849,-8.31203,8.61287,7.02338,-7.10847,8.15049,6.97807
9.85823,0.535184,0.303536,1.03821,3.00718,-1.94294,0.878364,1.81893,-1.87579,0.889978,1.7726,-1.79597,1.00541,2.56785
10.3764,0.693117,-2.50117,10.514,-6.96507,-1.62689,11.5742,-7.47441,-3.32868,10.8541,-7.65992,-1.67944,9.25907,-7.79908
51.5828,0.21293,1.46006,22.9754,-3.07193,3.63156,22.9818,-2.31615,3.56061,23.0938,-3.18132,3.01225,23.1037,-3.83998
0.0158053,0.0465432,-6.30917,1.60724,-5.17803,-6.42122,1.651,-5.16942,-6.42818,1.60753,-5.1458,-6.37628,1.68323,-5.21868
6.22684,0.355354,9.64474,16.5459,0.7041,9.64118,16.9371,0.21561,9.84276,17.1883,0.915787,10.6833,15.3434,0.635572
48.0996,0.351501,2.15535,9.66737,6.98852,-0.737419,8.09673,6.77316,-0.803732,8.81998,6.88881,-0.953291,7.23335,6.67338
0.830885,0.00175367,10.1943,20.9133,-4.1827,9.40869,20.8314,-4.39405,9.41152,20.9188,-4.35166,9.4773,20.8286,-4.38016
4.58384,0.365182,8.37608,14.6489,-5.53336,8.52816,15.27,-5.5808,9.20355,14.5231,-5.54209,8.03854,14.3244,-6.4002
11.7398,0.173171,9.0168,1.20758,-2.57133,9.3643,2.14819,-3.34343,9.78616,2.95417,-2.71937,8.43539,0.527013,-2.3222
0.215272,0.00996725,-5.50679,8.09645,-7.1921,-5.86226,8.03601,-7.08804,-5.92935,8.08588,-7.08611,-5.85583,8.13729,-7.11544
13.5122,0.0650726,0.250225,22.5416,4.43067,-1.85741,22.7689,3.45016,-1.98757,22.7485,3.53883,-1.92266,22.6498,4.03176
6.80049,0.422192,2.2518,19.5948,5.50616,4.74316,19.6676,5.85543,1.80476,19.031,6.25597,4.3199,19.5793,5.84703
0.932773,0.0635335,-7.03761,0.855433,-2.86029,-6.8307,0.749449,-2.96635,-7.38637,0.852824,-2.85787,-7.17283,0.83096,-2.49584
10.271,0.058773,9.44149,9.85444,3.12226,9.51542,10.1567,5.07592,9.23493,9.55339,1.17847,9.88872,8.58749,2.1988
1.3446,0.0485578,-9.57213,1.72844,2.07911,-9.9157,1.89427,2.06234,-8.57961,1.56786,2.15129,-9.01049,1.55049,2.0143
126.222,0.114167,-1.87324,22.7562,1.05439,1.05632,22.8062,-0.0582542,1.57484,22.7491,3.16784,2.54062,22.7481,1.292
1.04789,0.0198161,-10.1609,9.84395,-5.08759,-10.0284,9.14097,-5.18941,-10.0603,9.15125,-5.14683,-9.98923,9.95776,-5.37889
0.902618,0.0156397,8.5249,3.60431,-5.41807,8.60245,4.05273,-5.50912,8.8482,4.1448,-5.331,8.33733,3.73534,-5.61341
9.72933,1.76326,3.54676,1.22574,4.27903,4.92736,1.10839,2.63966,5.3572,1.1405,3.05294,5.49932,1.11261,3.23222
0.667281,0.0449198,-4.0609,22.5382,-0.221692,-3.42134,22.5993,-0.0646263,-3.35648,22.6165,0.0291765,-3.49075,22.571,-0.213808
3.33925,0.182369,9.70991,20.4072,3.58265,9.20588,20.8852,4.11792,9.17172,20.7201,4.21445,9.90194,19.9069,2.85671
13.3514,0.162809,10.2667,19.3764,0.776198,9.76148,20.0254,-0.635929,10.3879,18.1471,0.85999,9.93033,19.0873,-0.959282
48.0719,0.259757,2.19142,16.1453,-7.16583,3.01696,18.2596,-7.35114,2.80503,18.3117,-7.36666,0.764616,17.014,-7.52755
39.8519,0.0989916,4.64465,1.06714,2.49949,7.47611,0.438947,0.519575,8.04788,0.553031,1.12281,6.00744,0.544704,0.498889
0.169656,0.0356851,-9.88148,18.7142,-6.33008,-9.86579,19.1862,-6.30381,-9.7516,18.9851,-6.43256,-9.78684,19.0856,-6.38588
60.4953,0.532718,7.61125,8.38784,6.66495,3.27275,8.93322,6.90674,3.55858,9.24874,6.95106,4.40318,10.7445,7.12201
1.33897,0.312758,9.96142,19.0247,-0.98237,10.3649,18.4223,-1.53689,10.3854,18.3379,-1.64797,10.3028,18.5686,-1.26035
0.593108,0.205853,-0.266624,1.42285,-5.95612,-0.702649,1.40731,-5.85024,-0.772983,1.30101,-5.78228,-0.733679,1.45865,-5.91456
6.73646,0.127793,-3.14406,0.947622,1.24279,-5.52344,1.04419,0.913665,-5.44937,1.09718,1.23682,-5.03587,1.03026,0.856501
57.7462,1.08188,-1.05882,12.2049,-7.41754,-2.46706,12.872,-7.09321,-1.54306,15.2566,-7.47207,-3.21124,12.8155,-7.44845
38.758,0.0160136,-5.03046,22.5932,0.3528,-4.65192,22.8499,2.33892,-3.48329,22.637,0.272964,-4.15529,22.9019,2.68321
21.4292,0.406199,5.46485,0.771437,1.17386,3.14223,0.615039,1.08975,2.04484,0.741932,2.17585,2.93633,0.512517,0.946972
34.1554,1.87967,10.3671,14.3513,4.07073,10.0255,16.5759,4.88485,6.95715,15.3334,5.23126,9.18936,15.8822,5.19569
2.35825,0.141356,8.74728,9.80959,-5.33061,9.0425,10.1035,-4.87911,8.02804,9.19669,-5.68093,8.02547,9.01499,-5.59763


