
4.45629,0.0781854,7.79988,3.3153,2.69911,7.53091,4.56028,3.50192,7.5135,4.56013,3.54344,7.49095,3.92873,3.61777
0.241607,0.0586391,1.55678,1.349,4.59923,1.93228,1.40606,4.66782,1.85203,1.47125,4.70855,1.91792,1.44687,4.70256
0.166203,0.0487913,-4.48076,1.46321,-1.34358,-4.45254,1.3817,-1.60939,-4.52394,1.42582,-1.63287,-4.28992,1.40717,-1.28917
1.91956,0.167116,-8.56288,1.60681,-3.19431,-9.03189,1.99677,-3.14798,-8.89696,2.18773,-3.66371,-9.01521,2.21559,-3.45453
0.00583644,0.0054917,-5.04564,6.96973,5.94901,-5.10083,6.98963,5.92256,-5.10661,7.04206,5.92486,-5.03554,7.06782,5.95579
28.4465,0.595749,7.63736,16.4266,2.869,8.47774,14.6985,1.97631,8.5681,18.2358,2.63489,7.77388,14.8909,3.7217
10.367,0.136365,5.3584,15.3035,-5.02342,5.5853,16.1475,-4.60706,3.45925,15.7206,-5.45793,3.70408,15.153,-5.49718
0.0432845,0.0199211,-2.9319,4.03272,6.16453,-2.77547,4.08289,6.19336,-2.85424,4.11981,6.17565,-2.92956,4.11518,6.16741
2.85288,1.07899,-6.02537,1.92355,3.88901,-5.92909,1.7985,2.58179,-5.46013,1.81791,2.61084,-6.09487,1.65814,2.49604
20.3911,0.704626,-7.4556,11.3794,-4.48567,-7.89723,9.53658,-4.83683,-6.96239,9.60953,-5.0383,-5.97329,12.119,-5.62939
2.32724,0.0626734,7.29138,1.01227,-3.4687,6.46484,0.62946,-3.26358,7.46609,1.17085,-3.48403,6.37971,0.673013,-3.4801
95.1963,1.07575,5.79546,0.487775,1.26393,2.90962,0.509366,1.27996,3.0215,0.527171,3.33594,2.83019,0.535204,1.06176
4.50916,0.193999,-3.40272,17.4771,-4.7644,-2.74322,17.7077,-4.74362,-3.64567,17.7318,-4.80397,-3.12647,16.9035,-5.60924
35.3768,1.26318,-5.22369,7.6054,5.94825,-4.11161,6.12966,6.16798,-3.2491,6.33844,6.27993,0.190052,7.44194,6.39181
3.79418,0.253757,1.69597,9.63079,5.78093,2.88844,9.53211,5.92903,1.39656,9.55118,6.05026,2.02706,10.2198,6.0987
23.2381,0.213207,6.23386,0.326118,0.208663,3.70129,0.703626,-0.795265,3.65111,0.630476,0.504302,5.60692,0.533573,0.769021
5.18106,0.322144,6.73887,17.8715,-2.38332,6.78249,17.5694,-2.79306,7.69065,18.0565,-2.31529,6.33225,18.8318,-2.67169
0.152338,0.0126835,-0.646644,16.4623,5.74764,-0.912648,16.6469,5.68745,-0.995523,16.5497,5.69245,-0.920373,16.6031,5.69235
32.4306,0.00930696,-8.31796,16.8752,-4.00975,-8.34665,16.5692,-0.921451,-8.5697,17.1038,0.635466,-8.26276,16.1875,0.0136334
12.0713,2.46543,-3.09917,15.3633,5.74838,-5.54084,15.5699,4.68876,-6.07842,15.2319,5.17403,-5.79025,15.2145,4.7701
3.44198,0.323645,8.3533,14.908,-2.44261,8.15218,14.797,-3.42855,7.86276,14.83,-3.93415,7.94901,14.9905,-3.80179
0.0149022,0.045008,0.195117,9.11738,6.40406,0.175609,9.08594,6.46119,0.243598,9.15823,6.43702,0.236981,9.11928,6.4489
22.9766,0.400028,8.8007,16.3378,-1.01804,9.12012,17.0208,-1.29157,9.00161,14.6476,-1.37458,8.36099,14.9151,-2.39872
8.83094,0.0689347,2.0897,5.66781,6.29244,2.57988,4.61385,6.26407,2.49753,6.51716,6.27201,3.06799,4.74698,6.1597
6.89748,0.255069,8.39574,13.2147,-2.85939,8.36897,14.2806,-3.17853,7.43635,13.1953,-4.28357,7.57851,12.8833,-4.15441
0.0745854,0.0317632,-9.39431,1.94113,-2.41365,-9.41737,1.98161,-2.32866,-9.3835,1.85633,-2.26666,-9.41637,1.92602,-2.27224
15.0362,0.705615,-8.20763,10.8217,-0.216777,-8.22155,10.77,-4.06399,-8.10159,11.0071,-4.29384,-8.19647,11.1683,-3.55136
2.71275,0.192774,7.02896,14.6914,-4.15228,6.68517,14.7852,-4.5342,7.56383,15.0235,-4.12139,7.56343,13.6165,-4.07245
3.47031,0.35785,-7.18642,9.99241,3.10177,-7.56021,10.361,3.29116,-6.94873,9.85113,3.63991,-7.97866,9.33223,3.11949
1.67503,0.0285265,8.80679,9.52522,-2.8116,8.56567,9.27678,-3.14666,8.88293,10.5876,-3.32481,8.92872,9.73108,-2.58221
1.5594,0.0867655,9.28201,16.3293,-0.321803,9.02652,18.6845,-0.815921,9.01898,18.7508,-0.721153,9.10993,18.1097,-0.711638
22.7685,0.123757,-0.777408,16.9212,-5.01534,1.49316,17.3941,-4.81132,-0.812536,17.9413,-4.39101,0.184744,16.4565,-5.52723
1.02372,0.024583,-7.7051,4.32223,-5.36062,-7.5216,3.75058,-5.49235,-7.53818,3.63755,-5.47891,-7.80795,3.68256,-5.30798
7.95547,0.00138357,2.52906,0.7878,-0.736598,3.17621,0.647579,-0.0756078,3.44487,0.831729,-1.80569,2.80901,0.927069,-2.09367
2.38276,0.0691398,9.41304,12.6225,-0.831078,9.28454,13.1362,-0.903145,9.39346,11.5039,-0.857116,9.37445,11.5155,-0.90825
4.52607,0.226838,1.98298,11.7452,5.87608,1.52396,12.1321,6.35021,1.58282,10.8236,6.22782,2.72053,11.837,5.81256
0.201865,0.00514319,-2.96929,12.5017,-6.32639,-2.61695,12.4673,-6.34674,-2.61863,12.417,-6.34839,-2.75289,12.5411,-6.33476
0.34045,0.189835,8.99538,18.3126,1.71344,8.92813,17.9772,1.82341,8.99469,17.8207,1.70698,8.93897,17.9482,1.926
6.79233,0.224601,-0.634068,12.0219,-6.17721,-0.275547,13.1012,-5.84561,-1.83867,11.7179,-6.23304,0.0495387,13.1198,-5.95149
4.97222,0.693476,7.21019,11.0242,3.49802,8.98512,10.4579,1.79045,9.04562,10.6867,1.76321,9.20862,10.6045,1.47447
4.7253,0.252179,6.3123,12.6619,4.75633,6.29215,13.0072,5.18288,6.34828,11.1194,4.82951,7.28331,12.6003,4.16379
1.66349,0.054095,7.11158,3.69553,-4.83326,6.47429,4.04452,-5.18143,6.32541,3.74821,-5.1863,6.58313,3.55804,-5.06091
44.6916,0.416833,4.148,6.36034,5.91578,6.19335,3.18567,4.85769,5.96258,4.85529,5.10939,6.66341,5.22477,4.65834
0.125712,0.0214088,-7.96025,13.5869,4.12256,-7.92404,13.6517,4.20465,-7.88025,13.6475,4.38326,-7.87402,13.5756,4.38211
5.98657,0.324294,-2.3813,9.46186,5.51116,-0.605181,8.02631,6.42262,-1.97186,9.69419,5.64058,-3.14762,9.71812,5.95164
31.6161,1.00214,5.20138,7.68749,-5.38131,6.96609,7.47337,-4.63984,6.87496,5.62528,-5.23642,6.30074,9.60629,-5.08417
5.47008,0.314199,8.59766,15.4286,0.656448,8.96827,14.9083,1.02215,8.82631,15.9731,0.773198,9.05818,15.0286,-0.505301
4.0106,0.121829,6.90044,7.60875,-4.36581,8.23689,5.90526,-3.76656,7.65872,6.77612,-4.044,8.13165,5.93297,-3.88826
0.48907,0.185195,-7.07112,5.39874,-5.8009,-7.2271,5.80677,-5.66735,-7.45238,5.85102,-5.48852,-7.32488,5.82217,-5.59243
75.7676,0.700019,-7.9668,13.3021,4.16251,-8.33921,16.5617,2.15828,-8.02748,16.4603,3.60156,-8.50406,17.8815,2.74717
85.165,0.380018,7.81842,4.52068,2.2548,8.18884,3.56105,-0.865744,8.05429,2.32811,1.34669,8.36143,6.18068,0.269182
4.56873,0.464776,-2.57029,15.2922,-5.87153,-2.51912,16.8501,-5.63023,-2.40177,17.1261,-5.49302,-2.34346,16.9972,-5.55408
0.880132,0.21657,-7.98965,8.01021,4.16139,-8.17351,7.17783,4.01143,-8.18818,7.66991,3.78802,-8.17733,7.31921,3.92152
3.52395,0.154753,-7.40719,11.1434,3.637,-6.66251,10.1264,4.34034,-7.32234,11.676,4.25206,-7.6344,10.973,3.53136
4.7376,0.363757,8.14655,16.4965,1.4514,8.80839,15.8892,1.00225,8.35192,16.2575,1.88131,9.07561,18.5756,0.182938
0.159676,0.11191,-8.5236,17.8393,-3.85118,-8.35192,18.0571,-3.91955,-8.50809,17.7122,-3.95415,-8.49461,17.78,-3.96473
11.6378,0.178096,-7.2057,15.6884,-4.61877,-7.68461,15.4374,-4.54959,-8.09393,15.4328,-4.50519,-5.97061,16.3167,-5.77687
2.30869,0.0257449,5.92722,1.10077,-4.53952,6.43736,0.922963,-4.12595,6.37987,0.702495,-3.6914,6.03136,0.839312,-3.96531
102.069,0.446422,-7.65734,14.7267,-4.27164,-4.93802,12.9923,-6.07792,-5.16416,13.6505,-5.91876,-7.69863,13.0656,-4.90067
8.02641,0.172882,4.28924,3.42788,5.60487,6.15684,1.80243,4.4873,4.90204,2.48607,5.18636,6.14334,1.77554,4.47937
0.621565,0.0187113,9.55239,11.2401,0.778411,9.48376,11.5106,1.04501,9.56092,11.5171,0.693688,9.58867,11.4449,0.603205
1.92802,0.435626,5.49442,15.1995,-5.038,5.48944,14.2656,-5.32126,5.34689,14.3707,-5.29005,5.26793,14.352,-5.35022
0.178833,0.0135397,-2.76594,2.66324,5.72141,-2.48447,2.57053,5.70297,-2.5441,2.54406,5.64986,-2.7263,2.56447,5.62353
12.5484,0.392392,2.67188,17.3405,4.57174,2.69947,18.3909,4.80049,3.89342,17.5572,4.79228,3.57689,16.7166,4.96434
2.78256,0.303584,-3.97513,13.699,5.86919,-6.26828,13.1429,5.6705,-5.45432,12.8617,5.68028,-6.1985,13.1376,5.6783
8.87069,0.113803,5.85458,10.6248,5.31201,4.32237,12.2342,6.18699,5.32134,11.8088,5.79532,4.44519,10.9287,5.93816
1.05498,0.112639,3.17455,0.53547,3.56081,3.67687,0.586344,3.59347,3.6104,0.535999,3.40099,3.41831,0.472806,3.40248
10.652,0.028418,1.4657,14.6725,-5.3814,1.5527,14.188,-5.65801,3.61067,14.7979,-5.68139,3.61966,14.8795,-5.64378
0.0635043,0.023317,3.25901,18.3777,4.82661,3.25788,18.2016,4.88075,3.25486,18.0237,4.91133,3.18377,18.026,4.92807
1.93058,0.0517823,6.84632,7.67687,-4.39413,6.80206,8.30441,-4.92855,7.04545,8.11638,-4.43148,6.74371,7.9818,-4.83578
6.63564,0.13956,2.45664,8.28437,-5.60383,1.88336,8.53542,-6.18465,2.63453,7.6475,-6.00937,3.15847,6.95328,-6.06155
26.0894,0.385066,8.25782,12.1238,-2.38506,8.98475,12.8928,-2.00989,9.2164,11.6933,-1.8916,6.04648,11.8732,-5.69419
10.0068,0.580189,-3.28062,2.46442,5.34523,-3.4105,1.7652,4.1874,-1.81393,1.74057,4.63172,-2.33428,1.85397,4.55056
0.07476,0.0873362,1.83387,7.80118,6.25035,1.81609,7.67985,6.30505,1.88625,7.68031,6.29582,1.95964,7.72041,6.29938
0.20404,0.00538364,6.19193,2.14342,-5.02845,6.20345,2.25411,-5.04159,6.3468,2.25619,-4.97634,6.47818,2.15631,-4.90507
0.0393047,0.00187052,4.50902,14.898,5.65222,4.69315,14.9215,5.61381,4.55651,14.9298,5.63152,4.68909,14.8787,5.62994
0.211497,0.0149946,1.64404,18.0211,4.97887,1.50565,18.0361,5.01486,1.65838,18.1981,4.9509,1.52043,18.2604,4.96023
0.046963,0.0149334,3.58686,7.29437,6.12385,3.58128,7.19011,6.11625,3.70456,7.12211,6.07315,3.77764,7.11195,6.0547
22.9081,0.250672,-3.2244,17.4726,4.63793,-4.06454,17.4148,4.76529,-3.40595,16.5347,5.0804,0.0720072,17.0016,5.5809
11.2337,0.477064,-5.41809,10.7636,-5.29558,-5.73846,10.1737,-5.69178,-5.3793,12.386,-5.79285,-5.03923,12.5089,-6.00168
4.44236,0.420807,-6.50932,1.59766,-4.36508,-6.5175,1.52319,-1.80151,-6.10753,1.64519,-2.00239,-6.33867,1.605,-2.03286
0,0.00333687,-8.2909,15.2731,2.46178,-8.29929,15.2595,2.40658,-8.3009,15.3499,2.41957,-8.30577,15.3425,2.36803
31.4625,0.591201,0.801633,8.64882,5.39484,0.612142,7.53932,6.31679,4.88694,9.38324,5.62216,4.63615,8.42602,5.89265
0.746261,0.69023,-8.01414,2.54764,-4.95405,-7.07199,2.12001,-5.02138,-7.05039,2.0576,-5.00395,-7.17174,2.22733,-5.11318
45.8215,0.369617,3.09719,10.3235,-5.92682,-0.477897,11.256,-6.31685,3.62466,11.8172,-6.27043,-0.958044,9.88844,-6.34069
0.316521,0.0155472,0.130515,19.3616,3.29959,0.0153989,19.2888,3.52298,0.127681,19.2965,3.48509,-0.0483368,19.3954,3.29432
3.3878,0.200849,1.37665,15.6488,5.4789,2.07519,15.7988,5.44612,1.29142,16.4189,5.46088,2.55036,15.6903,5.34597
5.35017,0.0818223,7.5625,1.31986,-3.48657,7.75616,2.03546,-3.61054,7.94628,2.77756,-3.20967,8.07003,2.723,-2.28398
5.6351,0.124267,9.13029,13.5048,-0.844438,9.23479,13.5197,-0.157857,9.11931,14.3393,-1.11051,9.34488,13.0691,-1.31152
8.2755,0.243809,6.21856,17.7633,3.76986,8.00854,17.4418,3.22609,5.96575,16.5267,4.20324,5.97337,18.1006,4.13832
0.0899322,0.0164238,5.80976,0.474449,-1.49853,5.77771,0.491891,-1.32619,5.76295,0.435782,-1.42168,5.75651,0.454418,-1.30145
11.3485,0.323364,0.91737,15.7982,-5.15454,0.64647,16.6756,-5.34029,3.0025,15.8775,-5.58352,0.848446,15.2332,-5.55959
8.59432,0.112064,-4.84527,17.82,-5.35415,-6.73055,17.1134,-5.0511,-6.31595,16.686,-5.55012,-4.15761,17.8895,-5.41072
77.3188,0.0261165,-1.41033,1.41549,1.44588,-1.70807,1.34171,-3.76962,-1.07913,1.39091,-4.54723,-0.420585,1.57855,4.54479
20.8045,1.86779,5.92696,10.3012,4.98595,7.24566,9.96351,3.62655,7.15492,11.0922,3.53524,7.35593,11.722,3.64979
1.06257,0.0479044,-4.38116,3.02624,-5.95904,-4.9757,2.70119,-5.80988,-4.6294,3.61074,-6.16133,-4.83834,2.67409,-5.79053
4.82508,0.268793,3.02173,13.5881,6.00173,2.77767,12.3873,6.13332,2.76958,14.2791,5.74167,2.85261,12.2472,6.05802
15.0276,1.97334,9.21418,13.5933,-0.159951,8.17503,14.3309,1.69497,8.64608,14.2983,2.48213,8.62415,15.0577,1.5498
3.73719,0.446577,-0.0459908,18.3494,-3.52338,1.79969,18.7491,-3.70227,-0.569763,18.9269,-3.75408,-0.442744,18.1836,-4.14394
79.0232,0.324344,-8.06993,13.1989,-3.98404,-8.18661,12.5605,-0.0291631,-8.27901,15.3118,1.99378,-8.35217,16.3575,1.86359
42.62,2.66944,9.30803,11.052,-1.26914,8.13619,7.81589,-0.982928,8.02153,7.79453,-1.53642,8.68225,7.96652,0.15369
2.60467,0.130588,-4.23722,11.2812,-5.86264,-4.90402,11.1101,-5.89783,-3.83122,11.1521,-5.99506,-3.37623,11.7615,-6.20085
8.44018,0.512495,-4.10242,15.0583,-5.37384,-4.86373,15.322,-5.74844,-2.86166,15.9931,-5.89493,-3.40221,13.9626,-6.19511
12.5719,2.07928,5.12077,18.1438,-3.28956,5.68919,16.3084,-4.44098,4.96306,16.2012,-4.3646,4.65997,16.2935,-5.02226
0.0834062,0.02282,8.17337,4.51176,0.0902867,8.18668,4.64307,0.14467,8.15074,4.50387,0.225176,8.15592,4.57063,0.221674
7.00851,0.00315291,-5.2456,5.63813,-6.35914,-4.09723,5.84138,-6.2993,-4.62221,6.23006,-6.34475,-4.35311,5.20204,-6.28783
0.585687,0.0549336,-6.24847,8.31838,5.52144,-6.81473,8.61926,5.07818,-6.81058,8.70066,5.04256,-6.50034,8.5623,5.31163
0.0556424,0.0139718,8.47067,13.5073,3.74129,8.38573,13.4047,3.81916,8.4652,13.3754,3.73123,8.43399,13.3017,3.76887
0.10461,0.131313,-9.57725,1.80288,-0.426022,-9.49853,1.72128,-0.339452,-9.50093,1.59955,-0.376427,-9.56985,1.7327,-0.29693
0.00264025,0.00486966,7.78938,0.285584,0.36464,7.83366,0.322689,0.361081,7.82209,0.330839,0.301889,7.78275,0.303667,0.268391
0.284872,0.0127529,-8.99228,1.73225,1.73469,-8.64487,1.52064,1.81243,-8.58747,1.46649,1.78256,-8.6093,1.45827,1.71908
0.875813,0.00625671,0.151409,4.8123,6.39552,0.232316,5.0012,6.38166,0.429276,4.61744,6.43616,-0.138509,4.59165,6.41809
10.4118,1.51016,5.89682,0.486917,2.52848,6.98245,0.253086,1.49547,7.60207,0.576111,2.08908,6.21926,0.346358,0.583785
22.3728,0.366729,8.13929,3.27314,-2.20445,8.0699,0.878653,0.130995,8.14212,2.1701,0.976653,8.12842,1.30458,-0.0335575
3.48295,0.233009,-3.364,16.1668,5.0064,-1.3759,16.0473,5.71074,-3.48452,16.4947,5.08912,-3.72567,15.704,5.41808
7.07442,0.639714,-3.96852,18.3239,-3.77292,-4.45017,19.3156,-3.91888,-3.7401,17.7639,-4.84775,-1.85104,18.8593,-4.27752
10.3669,0.186338,-4.94771,16.1353,-5.7235,-6.40255,15.2709,-5.43986,-3.64767,17.3285,-5.64656,-5.75095,14.8036,-5.43615
1.58089,0.0800594,2.8364,9.41355,-5.38154,2.47733,9.75691,-6.08221,3.6586,10.0495,-5.59911,3.89809,10.2254,-5.69624
0.637335,0.0181883,-8.38665,8.92846,-3.39639,-8.36234,8.79785,-3.75099,-8.36718,8.93659,-3.74521,-8.4183,9.28462,-3.37312
1.20113,0.484039,7.25508,9.77465,3.49224,6.89313,9.54171,3.7929,7.3373,8.28951,4.28974,6.85918,9.6702,3.75935
0.979824,0.056301,7.73648,3.04724,-3.82962,7.71249,2.80839,-3.9895,7.79657,3.31359,-3.94803,7.824,2.79273,-3.62488
8.37636,0.0432075,-7.64321,5.27588,4.76873,-6.54703,4.17266,5.35026,-6.16735,4.37637,5.54456,-6.40648,5.17744,5.43747
0.939615,0.15485,-3.84197,2.18692,4.9911,-4.14478,2.76349,5.57053,-4.01382,2.83038,5.62836,-3.90438,2.79641,5.61249
0.816257,0.0315587,2.56006,1.00064,-2.55712,3.24687,0.898723,-2.59021,3.21778,0.916162,-2.41238,2.95654,0.942159,-2.40794
1.49792,0.0899381,8.07732,15.6137,2.16091,8.35697,16.1838,1.92715,8.10881,15.5388,2.27068,8.6122,15.0534,1.58712
43.514,0.698342,-4.80713,1.78296,-1.09613,-4.52156,1.87675,3.99153,-5.44052,2.00042,3.97049,-4.08819,1.75076,3.59535
19.3699,0.861078,2.3259,16.8803,4.86318,1.06756,16.7579,4.90768,0.524901,17.7208,5.21644,0.475759,16.802,5.48179
2.9341,0.240272,-4.19023,9.87169,-5.6141,-4.92625,9.9663,-5.95345,-3.37121,10.9093,-6.12638,-3.98931,9.68076,-5.79124
0.25612,0.186759,7.94121,2.33026,2.90251,7.98202,1.97624,2.76981,8.00412,1.98284,2.68298,7.96302,1.99107,2.90154
5.37053,0.0370022,4.65148,4.74345,5.68413,2.76826,4.43578,6.20689,3.55611,3.84561,5.89961,3.50931,4.15566,5.95796
2.97345,0.202602,3.93133,17.916,-2.98628,4.00986,17.2758,-4.3825,3.92644,17.2642,-4.45745,4.10088,17.3633,-4.17924
18.9145,0.226419,0.530318,12.5113,-5.84705,-0.190076,12.2152,-6.14118,0.707185,15.1238,-5.61204,2.04624,13.0104,-5.96393
5.56678,0.462669,3.91335,18.1975,-2.4185,6.34837,18.9277,-2.6502,4.01351,17.9802,-2.92116,3.44113,19.18,-2.74143
4.98592,0.237027,3.09084,12.9671,-5.80067,3.85781,12.9145,-6.05576,3.29121,14.3629,-5.8765,3.5461,14.0896,-5.91228
1.1621,0.155535,-8.79932,4.35548,3.34143,-8.68601,4.21262,3.33886,-8.72626,4.22586,3.63987,-8.5395,4.82095,3.93788
5.45875,0.233795,-6.42314,16.6423,2.49629,-7.77002,18.0429,3.39839,-6.77166,15.9277,3.81648,-6.23781,16.6494,2.67394
0.0194781,0.0454394,-4.62546,18.0919,-5.33252,-4.57856,18.0696,-5.32544,-4.59083,18.0325,-5.31585,-4.57409,18.0042,-5.34753
55.1229,0.483092,6.46517,16.8191,-2.98431,8.71905,16.8096,-2.4334,6.94021,15.6596,-4.43146,5.83491,16.3442,-4.44754
0.134105,0.124914,-4.44954,12.7185,5.92326,-4.44047,12.8708,5.93208,-4.37477,12.8746,5.94915,-4.51546,12.8738,5.92446
42.6399,0.428686,-5.284,1.6702,-4.06121,-6.05479,1.58637,-2.7739,-4.98441,1.83214,-1.16802,-4.03555,1.29221,-3.21261
8.50427,0.222051,-7.4378,14.1037,4.76123,-6.81553,15.4047,4.42165,-6.55499,15.4451,4.90619,-6.68374,15.8875,3.83981
0.203046,0.00509491,-5.49494,7.33612,-6.39737,-5.73489,7.12171,-6.34797,-5.73375,7.16746,-6.34545,-5.59359,7.12405,-6.38154
5.92611,0.0101673,-8.98188,3.43015,-2.14924,-8.68659,3.70451,-3.33656,-9.15825,2.65883,-3.03055,-8.81212,3.30629,-3.59312
10.9485,0.0309783,5.307,15.4832,3.65378,4.9718,15.2929,5.2034,7.58863,15.5514,3.73807,4.97197,15.4113,4.34798
75.3541,2.13232,1.4349,1.31884,-3.84633,1.26137,1.38642,4.58243,0.421216,1.35125,3.6595,1.69869,0.878092,3.13334
2.77683,0.0940434,-7.5485,17.0118,-4.77619,-6.55681,17.3004,-4.94704,-7.8795,17.265,-4.70056,-7.80715,16.6392,-4.99887
5.14861,0.385396,3.06446,11.66,5.39155,4.42446,11.6791,5.98537,3.18085,10.9515,5.72599,2.7812,11.9068,5.76738
2.4071,0.323598,-0.527121,17.4736,5.47831,-0.355197,18.0807,5.30307,-0.56097,18.0814,5.27712,0.0662855,18.1883,5.23298
0.162206,0.0231189,-5.53404,16.5712,-5.86554,-5.7554,16.4801,-5.83757,-5.69029,16.4369,-5.86683,-5.7494,16.572,-5.8214
18.0131,0.407418,-1.36297,8.35522,-6.36271,0.934526,8.96674,-6.33145,-0.0364575,9.68124,-6.12804,0.0222332,6.52064,-6.27354
0.0281853,0.0368526,4.74128,8.22454,5.87656,4.69265,8.24598,5.9236,4.72737,8.30763,5.89482,4.68844,8.27642,5.91541
1.62453,0.0814325,-6.29891,2.48747,-5.60258,-5.75817,2.02249,-5.33188,-5.33567,2.42517,-5.66227,-5.67271,2.20593,-5.48178
5.65589,0.00414968,-2.94928,14.3954,5.91079,-3.71965,14.3752,5.88774,-5.28777,14.028,5.81833,-5.02856,13.6708,5.78786
31.708,0.0874622,-2.20145,11.2347,5.46236,-0.157467,8.44987,6.44085,-1.00799,12.7047,6.14455,-1.32253,9.2791,5.78749
0.215825,0.0841372,2.5655,19.3064,3.48756,2.56337,19.1867,3.83071,2.63026,19.1889,3.82986,2.42926,19.1775,3.8779
569.196,0.71152,-5.3605,19.4801,-0.202059,8.22184,19.5845,0.302374,7.87764,19.535,-1.01164,5.90795,19.5129,3.2678
0.0346026,0.00729583,7.82241,0.468806,-1.9677,7.85087,0.458296,-1.83808,7.7839,0.415849,-1.91522,7.90563,0.531007,-1.86739
8.22914,0.0383965,7.51783,14.6125,4.19091,7.47309,13.6561,4.48623,6.88117,14.0839,4.65452,6.78617,13.542,4.88396
8.22545,0.0979672,3.5187,6.31028,6.08165,1.85409,6.42391,6.3355,2.37964,6.87827,6.30101,3.11915,5.53478,6.19349
3.74127,0.0794507,5.48413,7.96085,5.53319,5.65534,9.12261,4.61525,5.52829,8.50647,5.17952,5.7909,9.17122,4.50508
34.0857,0.323318,8.03276,6.74454,-0.943321,8.48347,5.6374,-2.39787,8.37329,6.30889,-0.00829449,8.41278,6.57368,-2.77957
6.11169,0.439329,2.00256,16.7206,-4.68554,1.74609,16.6287,-5.37319,2.02377,18.217,-4.01146,2.89158,16.8459,-5.03114
0.725186,0.427052,2.76698,8.77941,-5.63055,2.96327,9.29452,-5.47789,2.73863,9.1914,-5.83011,2.89452,9.28171,-5.43741
3.51094,0.219296,-6.83621,11.5963,4.40756,-6.44136,10.8675,5.14668,-6.74538,12.6134,5.33341,-7.17549,11.6078,4.30255
35.0594,0.624885,6.61191,12.4133,-4.71304,4.12532,14.0516,-5.72961,4.72491,12.448,-5.91571,5.26007,14.255,-5.35622
0.557288,0.447428,-2.68675,4.24439,-6.1814,-3.06204,3.98249,-6.20621,-3.00067,3.9235,-6.19311,-2.93043,3.85738,-6.18763
3.31721,0.000182787,-3.20457,6.07987,6.25576,-1.76243,5.64034,6.29358,-1.51908,6.03332,6.34722,-1.58084,6.09075,6.34952
0.225408,0.0101219,9.26445,16.5581,-0.0477538,9.25275,16.8908,-0.084714,9.2447,16.8918,-0.0389545,9.23197,16.8259,0.0424649
3.29411,0.22998,-6.17563,16.6711,2.72891,-4.98612,17.2412,4.02235,-4.23215,17.48,4.66464,-4.20376,17.3543,4.71148
6.89077,1.33047,6.89315,9.49457,3.81667,5.38888,9.69803,4.56518,5.21991,9.52473,4.57572,5.33139,9.56325,4.84825
184.193,4.37526,7.21123,0.15506,0.792527,3.85687,0.933237,-3.70767,4.96217,0.720853,-3.67034,3.18912,0.985902,-3.73711
0.0386687,0.0592486,-6.18502,17.9561,4.01658,-6.22869,18.1738,4.04378,-6.14286,18.1306,4.0497,-6.08629,18.1744,4.0903
4.08381,0.286,-5.76072,2.04064,4.09448,-5.36765,2.29892,5.06127,-5.93742,2.17983,4.74639,-4.93563,2.05492,4.8275
2.05168,0.709053,4.50315,16.7233,4.14445,4.97599,17.3822,4.43008,4.67067,17.7679,4.52834,4.60375,17.83,4.55988
2.9382,0.11481,-2.47281,13.9752,-6.00753,-2.4347,15.1351,-5.89282,-2.59826,15.1554,-5.89418,-2.66717,13.7708,-6.17168
14.4663,1.70871,1.00717,10.3056,6.33416,-1.14647,11.1773,5.94839,-0.456446,11.8614,6.1672,-1.51355,10.6699,5.9737
5.08473,0.508247,-0.00658496,6.11199,-6.27236,-0.835621,4.5464,-6.1649,-0.684974,4.63531,-6.1649,-0.262671,4.56366,-6.30201
14.8653,0.162959,-4.07808,4.69266,5.97854,-2.79763,4.99896,6.18772,-3.71028,6.01805,6.18711,-3.13783,4.03949,6.15259
12.2052,0.455525,-5.851,9.61927,4.87427,-3.18572,9.56591,5.95569,-3.53771,9.79324,5.99417,-7.03056,9.98108,3.64986
4.47557,0.158495,6.0932,9.49479,-5.18985,6.4796,11.3463,-5.50328,6.5723,10.2617,-5.109,6.73491,11.4997,-5.26379
0.0190614,0.138271,8.03211,3.42775,1.25836,8.05307,3.4403,1.07412,8.06617,3.49983,1.02974,8.02955,3.38608,1.11214
2.30505,0.0827668,7.50171,8.23327,-4.11012,8.53597,9.34749,-3.19918,8.49163,9.31962,-3.27842,8.34555,9.20363,-3.50457
2.03753,0.271231,-3.18999,9.69202,-5.87457,-2.75398,9.17385,-6.27164,-3.63189,9.71143,-6.0275,-3.02849,10.0983,-6.21668
15.0863,0.222918,-2.16539,17.8191,-4.37757,-3.25967,18.0744,-4.65061,-0.562063,18.243,-4.12746,-1.73906,16.0409,-5.70665
37.8778,0.464607,2.33525,2.61557,5.60766,3.74519,1.46826,4.68646,3.28624,0.811074,4.01965,4.98673,1.87902,4.89705
10.3169,0.0599146,8.86576,10.0626,1.75121,7.81936,9.80689,3.02783,9.43059,10.2074,0.444758,7.29067,9.7405,3.47498
0.726453,0.19945,-8.96095,18.1779,1.42373,-8.88931,18.889,1.86146,-8.93502,18.6638,1.81696,-9.00671,18.8035,1.64939
18.8156,0.379296,2.74943,17.3352,-4.54274,3.41599,18.539,-3.19751,2.01087,18.8035,-3.54528,3.48146,18.0393,-3.86357
9.9856,0.464268,-6.88693,9.04665,-4.70758,-7.20924,9.41326,-4.98649,-5.72553,9.38445,-5.64976,-7.31549,8.05492,-5.32001
1.32628,0.0220653,-5.19317,7.92149,-6.41692,-4.71532,7.69572,-6.48251,-4.68114,8.08935,-6.45148,-5.10078,7.36794,-6.45799
6.83701,0.253627,7.58001,7.49879,-3.65086,8.48239,6.11291,-2.90877,7.58302,7.67148,-4.0774,8.56097,8.50896,-2.60417
1.50009,0.134736,5.86623,17.7041,-3.17854,5.54385,18.2134,-3.31307,5.84411,17.5548,-3.45859,6.15603,17.7499,-3.12613
0.183525,0.0399462,5.43281,18.4563,4.26858,5.19666,18.3821,4.41696,5.47908,18.3902,4.3175,5.48237,18.5018,4.28135
19.4567,0.143855,-3.62515,1.26972,-0.338026,-2.60388,1.60708,3.78496,-3.11544,1.74086,4.0971,-3.2789,1.74266,3.77162
0.011098,0.000194548,-8.54037,1.48992,-2.91059,-8.6381,1.51832,-2.8906,-8.45435,1.45993,-2.88746,-8.55891,1.48589,-2.82516
3.87547,0.204592,4.99987,7.90697,-5.64012,4.43158,8.99218,-6.00277,5.19789,7.96755,-5.25088,4.62465,8.72068,-5.52413
35.1324,0.0820983,-1.95502,14.4676,-5.9877,-0.049229,14.5254,-5.79005,0.119453,15.6387,-5.6034,-0.801921,13.1989,-6.04289
1.24409,0.00276264,2.83227,6.40902,-6.13336,2.19094,6.24747,-6.19328,2.51786,6.67266,-6.19363,2.21428,6.61495,-6.22509
1.77903,0.239367,-3.42659,11.0742,-5.92705,-3.8499,11.0682,-6.03449,-2.76737,11.5393,-6.28672,-2.84708,11.494,-6.28221
3.29634,0.0209387,-1.97933,11.7794,-6.21918,-2.20361,10.9288,-6.31299,-1.90081,11.0283,-6.26898,-2.75037,11.7454,-6.2868
5.80416,0.372589,7.89449,7.85395,-2.08316,9.08286,10.5599,-2.23499,8.02517,7.80029,-1.58105,8.52535,7.26619,-2.63657
0.81063,0.232378,5.71588,1.70444,4.57071,5.15892,1.16634,4.3124,5.5237,1.25239,4.30765,5.34253,1.15749,4.30586
0.251145,0.04747,7.94595,6.51463,2.89693,7.89259,6.3962,3.20202,7.86791,6.45261,3.18809,7.93662,6.38821,2.98775
1.06235,0.271756,7.75182,18.0078,-2.33834,8.47911,18.1615,-2.28717,8.52423,18.0008,-2.37965,8.45864,18.0353,-2.33361
0.864999,0.0322912,3.91308,3.18434,-5.7943,3.26887,2.98975,-5.87537,3.32935,2.91272,-5.84953,3.63682,3.17532,-5.82171
0.36581,0.0126657,-8.82249,2.56189,3.19761,-8.62851,2.37147,3.28257,-8.53058,2.18571,3.2024,-8.498,2.2026,3.27159
101.134,0.291961,8.44247,7.29799,-0.159971,7.57295,7.19178,4.08385,8.07677,9.15964,3.1249,7.45263,6.08972,4.02945
1.71636,0.119347,1.80229,13.7785,-5.50381,2.90587,13.8154,-5.81412,2.87329,13.9343,-5.79894,1.6742,13.9302,-5.59091
0.598979,0.387033,8.35523,6.38755,0.0756484,8.26359,6.46707,0.529278,8.25559,6.40667,0.516353,8.27222,6.33009,0.525182
0.320241,0.102254,-7.56554,19.1177,2.78937,-7.30841,19.198,2.49524,-7.30785,19.1447,2.76633,-7.31277,19.1867,2.54032
0.303405,0.00533962,6.97881,5.70959,4.46151,6.75592,5.36704,4.58961,6.95109,5.42299,4.4475,6.84676,5.35408,4.51962
3.54864,0.0337422,4.61023,4.18532,5.63802,4.15478,4.15603,5.79795,4.03011,3.65505,5.73793,5.04396,3.38168,5.39675
29.3545,1.21418,-5.50344,10.1258,-5.64765,-2.52747,7.92403,-6.3732,-5.39457,8.59337,-5.58652,-5.99962,8.15794,-6.10969
48.938,0.351405,1.73355,5.58906,6.30261,-1.18179,4.75705,6.34281,-1.06187,6.61054,6.37572,-2.78108,5.20526,6.181
85.9397,0.742275,-8.14022,11.9615,-4.2174,-7.96512,10.7419,3.15817,-8.1706,12.5902,2.21941,-8.17495,13.6157,2.63905
8.66471,0.408075,3.97141,10.2926,-5.74522,5.90689,11.3264,-5.87198,5.11774,9.83397,-5.96706,6.04942,11.3019,-5.84884
87.2917,0.0327146,-0.629288,3.39591,-6.05419,-3.48875,6.34353,-6.28612,-3.54024,7.479,-6.39265,-1.86196,7.42135,-6.43487
6.44114,0.411891,4.35803,15.8254,3.80594,4.43448,16.6142,4.13331,4.8988,15.6476,3.80386,3.99916,15.0684,5.66727
0.0381415,0.00421937,-5.7259,4.52016,5.71283,-5.57411,4.56467,5.74627,-5.71807,4.62223,5.72419,-5.58233,4.51944,5.73832
41.5477,0.0329506,1.61032,5.29441,-6.2165,4.16389,3.59368,-5.74,4.51378,4.31694,-5.70943,2.10084,6.9992,-6.23551
3.97883,0.351632,2.66923,16.7914,4.79396,3.40168,15.6956,5.31793,2.69255,15.7544,5.27466,2.8364,15.6605,5.29331
1.05105,0.0334071,-6.67605,2.59568,4.91851,-7.63659,2.20495,4.08314,-7.03021,2.22495,4.4378,-7.7976,2.56256,4.22111
21.8017,0.472053,-3.27029,10.7189,5.90544,-6.31383,11.8799,5.27084,-5.54873,12.695,5.60125,-6.25945,11.59,5.28069
1.83915,0.149218,7.25008,12.3369,3.6355,7.47725,12.3855,3.51092,7.39534,12.6772,4.09861,7.25536,11.9863,3.71774
0.0635045,0.0243154,9.14459,12.9774,1.78729,9.17983,12.828,1.70027,9.16293,12.9773,1.699,9.1558,12.847,1.74223
186.853,0.656598,-1.36712,15.0848,5.85431,4.32693,14.6942,5.74332,0.00262197,12.0806,6.29849,2.83453,15.6175,5.30798
11.8666,0.762729,-4.73286,19.4745,1.14573,-4.87327,19.2919,2.86147,-3.48547,19.6393,2.35747,-4.24907,19.4445,2.62659
0.014967,0.00189237,-7.98912,1.43796,-1.41165,-8.13186,1.42123,-1.37665,-8.13042,1.421,-1.32786,-8.05562,1.4314,-1.42086
4.70789,0.22498,-7.8992,5.41,4.53779,-8.47515,5.31552,3.73047,-8.19744,6.19821,4.09053,-8.39985,6.11544,3.60782
14.769,0.322963,2.98077,10.2858,5.47485,2.1537,10.2923,6.05084,5.34254,9.49423,5.16721,3.23198,10.8919,5.708
1.09171,0.0212405,5.41015,12.9342,5.82726,6.12224,12.504,5.40929,6.17651,12.3028,5.39779,6.1732,12.2109,5.41231
0.0798099,0.0912382,-0.0225589,17.8505,-4.69397,0.0218821,17.7036,-4.70536,-0.0257368,17.6719,-4.74676,-0.0324251,17.7156,-4.70289
0.551698,0.106507,8.90815,14.8611,-1.39078,8.56962,15.2409,-1.46875,8.41045,15.2971,-1.63103,8.43091,15.3184,-1.5448
2.07128,0.0653787,1.28147,1.8636,-5.35989,0.603872,2.92824,-6.00392,0.610816,2.99691,-6.02874,0.810932,2.33524,-5.67565
1.87378,0.137681,7.48693,12.2997,3.47388,8.47484,12.145,2.90941,8.75356,12.198,2.65797,8.81242,12.2742,2.57833
0.0129593,0.0015667,-2.52604,2.32846,-5.68477,-2.67361,2.52275,-5.79306,-2.79368,2.47579,-5.75558,-2.66488,2.32351,-5.67018


