
0.598774,0.0669673,6.90404,8.73561,12.7916,6.80893,8.62933,12.8937,6.85363,9.05376,12.9022,7.1531,8.75284,12.7685
4.98079,0.0994326,0.59757,1.6814,4.72513,-0.993835,2.18129,4.6565,-0.620759,1.96982,5.47802,-0.515712,1.96208,5.35731
5.61806,0.308418,4.09404,9.79099,12.6485,3.70868,9.31925,13.0036,4.03038,10.6444,13.0158,5.06552,9.72512,12.7928
0.798124,0.0375478,4.06408,0.62883,8.0112,3.31137,0.571647,8.06466,3.36961,0.581712,8.1465,3.86197,0.628869,7.63488
10.316,0.444855,9.41957,5.66223,4.26272,9.72496,3.96327,6.02924,9.42742,5.65898,6.1577,9.3514,5.24713,5.53349
2.7579,0.239109,4.58332,6.92759,-10.0741,4.49473,5.16475,-9.64662,4.59672,6.00859,-10.2087,4.45133,5.22736,-9.99484
10.4864,0.437101,-2.11862,21.6707,-0.681141,-2.1768,22.1005,-0.61768,-0.962319,22.3013,-0.816324,-2.00995,22.001,1.04529
2.47427,0.941137,-5.56024,16.9919,-3.58403,-6.30675,17.1326,-2.77552,-6.29131,17.3518,-2.59405,-6.28962,17.2945,-2.63277
9.78232,0.428414,1.49942,11.6291,12.4627,1.65396,12.2482,12.76,1.15403,10.6982,13.1206,3.301,11.9329,12.7386
8.3873,0.178858,9.15648,6.31229,3.42748,8.39071,4.61923,2.09287,8.90799,4.05628,3.06364,8.52539,4.62601,2.36375
9.8278,0.363461,5.70615,3.53666,13.029,5.07981,1.58926,12.8938,4.58321,4.3411,13.0806,4.77621,3.1422,13.0085
7.16692,0.206178,-7.08401,17.8714,-1.19842,-6.42117,17.2043,-2.52927,-7.10492,18.6023,-1.25707,-7.37302,17.3874,-1.34434
4.61588,0.216951,5.96309,14.3505,11.1697,4.81243,15.5438,10.856,6.41384,14.2396,11.4107,4.88898,15.4605,10.9819
6.68901,0.185757,7.08713,19.1291,2.59751,7.28285,18.2085,2.1089,5.88343,19.1351,1.50556,6.25313,19.5436,1.93938
4.37974,0.036554,-5.77531,19.7225,5.80068,-4.08448,19.3173,7.04069,-4.08922,19.5566,6.72259,-6.54211,19.5761,5.58318
4.67994,0.132939,7.15362,5.56314,1.54328,7.77295,4.56558,1.74126,7.29391,3.97751,1.73674,7.88085,4.59738,1.74565
7.86204,0.251568,4.54183,7.64221,-6.8864,4.25778,5.08009,-8.8354,4.36634,5.31774,-8.12607,4.26479,5.02977,-8.71489
2.1811,0.116502,3.44386,11.5493,-10.4892,3.41564,12.3435,-9.97724,3.42787,12.2188,-9.88184,3.48531,12.2277,-9.49885
7.8659,0.529524,-0.49578,1.8346,11.4971,1.16886,1.69247,12.8825,0.969064,0.879855,12.3903,1.00657,1.54874,12.7336
14.0184,0.0416315,-4.85431,14.5441,-5.60452,-4.28558,13.8066,-6.93843,-3.12928,14.1454,-8.32094,-2.81419,14.7291,-8.38346
31.5528,1.31552,-0.355581,4.37382,-9.93744,-2.20016,3.44826,-6.1918,-2.88598,3.41853,-5.93485,-3.65258,3.26341,-6.40126
2.54709,0.129053,-8.35593,17.2126,7.75166,-9.64485,16.4675,6.52141,-8.75035,16.9403,6.96705,-9.36861,16.6294,6.55301
2.53638,0.107058,-8.11296,12.1428,7.85046,-9.38517,11.6626,6.11745,-9.28664,11.82,6.22636,-8.96174,11.6104,6.8378
0.521806,0.17496,5.63871,0.728784,9.48758,5.69318,0.8046,9.93258,5.9735,0.805502,9.90776,5.61548,0.792457,9.99092
2.41411,0.0963125,4.36854,4.83707,-6.11802,4.57202,4.89581,-5.55227,4.8629,5.2404,-5.96868,4.02845,4.32359,-6.41351
2.32472,0.0973064,-9.06627,9.44086,-4.98918,-8.9316,8.30533,-4.14542,-8.97688,8.99295,-4.57668,-9.14701,9.00067,-4.10999
0.481433,0.000708993,3.53453,3.86499,-7.48346,3.06537,3.77218,-7.41482,3.14767,3.79356,-7.55894,3.17693,3.79028,-7.33512
1.18546,0.00899717,-0.396587,11.4464,-11.6422,-0.778648,12.1669,-11.3832,-0.265807,11.9191,-11.4824,-0.726573,12.3409,-11.321
1.40241,0.00338948,-2.13068,22.8378,-2.74595,-2.57638,22.9607,-3.4085,-2.61582,23.015,-3.61023,-2.50516,23.127,-3.92158
10.4045,0.251194,10.7203,5.70455,11.2778,9.98901,6.54603,12.6325,10.7476,7.62848,12.1719,10.1849,5.72698,12.1962
8.73883,0.662113,-7.50215,5.05529,8.08904,-8.29896,6.31997,7.46383,-8.2576,6.57479,7.87006,-8.00393,6.77912,8.46885
10.2113,0.165521,-2.91577,12.7516,12.942,-4.18558,13.2162,12.459,-4.0381,13.6721,12.4912,-4.14048,11.4385,12.6396
3.06612,0.0679749,6.54477,17.0611,1.51761,6.81949,16.2753,1.3834,5.88676,17.0577,1.13266,6.81787,17.5663,1.68793
6.74814,0.502408,2.7019,18.7809,-3.72168,4.59653,15.5241,-3.53503,4.41181,16.2004,-3.38636,3.91296,16.5879,-4.14614
0.27275,0.00614301,-5.84113,2.33221,6.79239,-6.10385,2.43395,6.96359,-6.20061,2.50897,6.83875,-6.1019,2.47845,6.75069
3.51108,0.405262,0.974701,14.1177,12.7841,-0.104417,13.7602,12.364,0.858406,13.4297,12.7673,-0.342302,14.1029,12.4591
35.5075,0.204024,3.29168,19.8434,4.22572,0.291281,20.6667,3.78798,0.753652,21.1754,3.29717,2.92001,21.8189,2.64425
5.77394,0.0486444,4.80215,11.6858,-3.99978,4.53647,12.8817,-4.48717,4.49037,13.7463,-4.06631,4.98847,11.4367,-3.60271
21.6532,0.082681,5.83101,18.5596,6.60546,4.20295,19.6505,4.61669,4.14865,19.3227,4.98197,4.92746,19.7977,4.70144
1.60066,0.0831724,6.59626,14.2029,12.2462,6.22167,14.1314,12.4651,6.48589,14.1736,11.0864,6.59328,14.1663,11.1183
4.68852,0.122487,-10.0076,16.2816,5.72612,-10.6827,15.8812,3.93167,-10.7182,16.0345,3.81543,-10.7712,16.1944,3.65693
9.08342,0.399629,9.03312,11.3682,10.0016,9.274,10.0896,9.44056,9.64209,9.33124,10.3927,10.4049,7.84395,11.0336
1.09842,0.166,8.06463,15.6137,2.75469,8.00817,14.8935,2.60343,8.05811,14.7768,2.6555,7.96592,14.9259,2.51521
0.993628,0.211694,-4.28235,10.649,12.11,-4.85351,11.1003,11.89,-4.88601,10.9854,11.7838,-4.73926,11.1546,12.086
6.09644,0.130341,-4.19511,9.73768,-7.98187,-4.36628,10.798,-7.58644,-4.48518,8.00747,-8.70984,-3.63404,8.77859,-8.89404
2.94464,0.124967,5.5761,11.6014,-0.743406,6.14068,11.1407,-0.211138,5.80892,12.5456,0.0120444,6.43991,10.7171,-0.091564
1.86238,0.0762996,1.44152,3.64885,13.0017,1.13032,2.84669,13.1146,1.10565,3.25386,13.1163,1.51017,4.28471,13.0693
8.60598,0.408387,1.58819,3.57543,0.208754,2.37802,3.91306,-0.952398,2.59859,3.94152,-0.317571,2.0182,3.25608,0.780429
19.3239,1.74661,6.80954,6.07671,1.31973,7.5647,8.01938,1.25471,7.75019,8.06832,1.33129,6.85388,7.73897,0.358492
8.1768,1.48473,3.84736,19.2949,-0.76044,4.20372,17.1971,-0.720499,4.53192,16.861,-0.293194,4.28868,17.2272,-1.06341
5.44257,0.00276781,-10.9601,13.4142,-0.949352,-10.6152,12.4625,0.801489,-10.6479,12.6192,0.787354,-10.52,11.8441,0.460716
1.43332,0.0591246,2.17885,13.236,-12.0767,1.68798,12.5733,-12.2024,2.61504,13.4452,-11.9834,1.6612,12.7475,-12.1364
3.2191,0.0978452,1.35037,3.8141,-5.5738,2.19803,3.81099,-6.04571,1.97443,3.94621,-4.44684,1.93571,3.76107,-6.08276
5.25511,0.677597,7.2931,12.8961,1.47415,7.09731,14.8321,1.50473,7.64012,15.1397,2.10016,7.37231,15.0236,1.82704
10.3084,0.0986866,-0.253616,14.5145,-10.8055,1.09153,14.7174,-11.2677,1.48748,15.168,-10.5216,1.82335,15.3353,-10.3361
2.25681,0.619431,10.0281,9.52589,12.2946,9.44909,10.0624,11.154,9.37378,10.493,11.0322,9.54051,9.87219,10.8404
11.2307,0.159038,4.59382,16.1494,-0.381089,4.701,13.158,-0.941525,4.60348,13.9681,-1.40656,4.67528,13.6,-0.522407
19.4765,0.303926,8.36541,12.5287,2.91,8.92678,8.91388,3.41694,8.69175,9.54919,2.78743,8.68035,9.19134,2.18357
14.7082,0.269329,3.09401,4.19343,-0.410186,4.74611,4.38198,-1.11579,3.16218,3.77785,-1.8895,3.56679,3.8805,-2.1912
0.0144071,0.00383488,9.48833,10.8743,12.9117,9.74271,10.5795,12.7505,9.52754,10.8517,12.8896,9.69442,10.5597,12.7862
5.50302,0.012672,-0.295434,12.3174,-11.4324,-1.05573,13.1297,-10.9964,-1.06838,13.375,-10.9647,-0.448476,13.805,-11.1925
1.0551,0.128147,-9.65912,16.2297,6.67731,-8.98119,15.6357,7.27341,-9.13468,15.6338,7.08438,-8.72246,15.4989,7.58382
3.98572,0.862332,8.99696,11.914,9.1249,9.10503,12.9827,7.97762,9.4035,12.525,7.50975,9.06485,12.8732,7.99228
1.70154,0.109757,5.73786,12.8955,12.9587,5.72271,13.3469,12.999,5.59515,12.6627,13.1088,6.44805,12.9223,13.0542
7.8904,0.0762151,-5.22615,16.4961,9.12912,-3.69432,16.902,9.87767,-3.95199,16.4368,10.0766,-3.94285,17.1028,9.56749
8.78791,1.7112,5.15149,9.23291,-5.20581,4.25537,7.04873,-7.64691,4.20806,7.53163,-7.5088,4.20298,8.2444,-7.46459
9.72377,0.707753,-10.3676,11.8688,1.52142,-10.2034,10.7388,-0.468549,-10.5339,11.1161,-0.913828,-10.1749,9.93243,-0.888937
0.657525,0.0562579,-4.14968,19.8811,-5.25894,-3.75389,19.6564,-5.79009,-3.86151,19.9418,-5.61117,-3.77612,19.7404,-5.7525
11.4125,0.0269096,4.11395,18.9562,-0.0957128,4.92445,17.1598,0.438234,5.17186,15.1476,-0.00389163,5.2965,15.2783,0.234664
2.82724,0.147141,1.0086,16.6008,-7.86805,1.4857,16.1331,-8.06424,0.721068,17.312,-7.85163,0.703732,17.3331,-8.06131
1.52559,0.543575,8.80906,6.90139,2.62743,8.48258,6.8381,1.91904,8.53119,6.49449,2.05629,8.46717,7.14812,1.80573
4.29886,0.026399,-1.41462,3.59194,11.5896,-0.00742498,2.12878,12.1649,-0.821741,3.19172,12.1827,-0.0380941,2.09249,12.0556
2.87832,0.220717,9.26344,11.5751,11.0805,9.00913,12.6451,11.2781,8.76117,13.6146,10.9755,8.81403,13.276,11.1567
5.0216,0.280358,-5.44373,20.4916,-2.72035,-4.81534,22.1608,-3.83788,-5.89226,20.4692,-2.2247,-4.8328,22.1863,-3.73426
7.41069,0.0316031,-8.69323,6.68986,-1.59921,-8.91797,7.03002,-0.587117,-8.83857,7.29351,-2.76511,-9.48521,8.37539,-1.44658
93.9637,1.2827,3.57247,8.27913,-8.12148,3.54253,11.2162,-8.77272,3.18481,12.2637,-7.30185,3.76628,10.9949,-9.36553
3.88378,0.0778551,-2.49577,15.7925,11.9505,-2.3567,16.3956,11.1395,-3.51411,15.774,11.8863,-2.78471,15.6014,12.3478
1.89773,0.188339,7.00248,12.8109,12.749,6.78248,12.4752,13.0442,7.03093,13.4799,12.9129,7.42621,12.768,12.7955
10.7807,3.07586,-2.02677,10.9506,13.0373,-1.31533,14.0028,12.3011,-1.86024,14.2995,12.6596,-0.818067,14.0148,12.458
2.44416,0.113515,-8.05399,18.7299,5.82485,-6.69381,18.58,7.47241,-7.10133,18.5849,7.14094,-6.55526,18.6589,7.42252
3.15755,0.418073,-4.67674,3.04549,9.57211,-6.18468,3.33252,8.87428,-6.33696,3.38159,8.73967,-5.63851,2.81725,8.87515
5.08735,0.861499,5.13082,1.04966,7.47373,6.32714,1.19411,7.68819,6.58131,1.68941,6.96613,6.38653,0.945124,7.88129
0.743079,0.188025,0.933187,22.4375,-0.300664,0.916194,22.6298,0.510792,1.04593,22.5336,0.384082,1.16021,22.5155,0.40653
0.738275,0.697608,6.05736,7.5554,-0.435829,6.56496,6.85781,-0.0426302,6.57486,7.03136,-0.00322392,6.56788,6.76217,-0.0677154
22.5026,0.268316,1.33661,4.32513,-9.95623,2.63009,6.46142,-12.3146,1.38225,6.06529,-11.9071,0.631694,6.16343,-12.1291
3.3941,0.0844164,2.87622,17.2352,-4.90593,1.82488,18.8404,-4.98409,2.32424,18.3282,-4.78192,1.90463,18.8541,-4.85844
6.18175,0.00505908,-9.76443,8.30026,2.46286,-9.55602,7.74993,2.15732,-10.0852,9.56029,0.597965,-9.93317,9.2292,0.0698111
2.95533,0.0140408,7.37557,19.4846,4.49387,6.48866,19.9365,4.20625,6.85352,19.7187,4.73082,6.72793,19.8344,4.11855
1.46046,0.00980679,10.0022,9.0446,7.26336,9.65712,8.81174,6.38595,10.0258,8.53597,7.30899,9.64253,8.56768,6.35606
7.61803,0.0896378,-1.99827,3.22762,1.43615,-1.48372,2.69219,3.32935,-0.982948,3.17261,1.93262,-2.14538,2.78506,3.01955
4.18244,0.0976724,4.36717,17.113,-1.10486,4.74833,15.2587,-2.02881,4.63938,14.8415,-1.59239,4.44229,15.8759,-1.29354
4.50537,0.389246,-5.78012,2.45138,6.3261,-3.27114,2.06944,6.39908,-3.09472,2.10389,6.2144,-4.07942,2.00728,6.70337
5.19951,0.150856,-0.538793,3.6271,-1.52401,-1.74846,3.5103,-0.887688,-0.344491,3.22403,-0.176818,-1.22965,3.18926,0.658507
8.53653,0.0322547,3.97954,20.5089,2.64007,5.04416,20.6643,1.79323,3.53982,21.05,2.71842,3.8477,21.6424,2.15878
16.0281,0.078468,9.60177,6.01348,6.86422,9.70975,3.73985,6.80528,9.70326,3.04758,6.56335,9.77281,4.25317,7.83037
15.0481,0.00310117,-10.0914,9.29709,3.70701,-10.1864,11.6824,3.88613,-10.1916,9.97641,2.38546,-10.1696,11.5098,4.05081
7.50019,0.149177,-0.320432,6.38595,-11.7374,-1.27075,5.00961,-11.2853,0.236821,5.67209,-11.7939,-0.694562,4.8947,-11.3682
3.60571,0.248747,8.67488,11.6403,3.41078,9.39001,11.3037,5.05862,9.35442,11.4787,4.98536,9.3263,12.3782,4.85696
1.70174,0.169817,3.31348,21.6999,0.852398,2.88602,21.6451,0.141293,3.90811,21.537,0.975335,3.03199,21.5215,0.16495
4.12681,0.160548,1.54172,12.4665,12.7901,2.59262,12.9072,12.5966,1.84578,14.1838,12.2996,2.27603,12.9308,12.5742
0.56031,0.0308423,-7.00839,6.12242,-8.16625,-6.91038,5.3317,-8.23006,-7.06641,5.86251,-8.07598,-6.97505,5.29343,-8.17127
1.65294,0.141349,3.19464,14.814,-6.199,3.51342,14.2544,-5.90193,3.00646,14.146,-6.54652,3.74316,13.1625,-6.22294
8.58845,0.119934,2.89208,17.1495,-4.94236,3.46487,15.644,-5.07105,3.37672,15.2231,-5.60647,3.67915,14.4526,-5.48511
9.39365,0.261789,4.95778,9.43878,-2.63076,4.93115,10.344,-2.42913,5.05372,10.0559,-3.30007,5.51124,8.60573,-2.8127
38.334,0.67817,-3.43311,16.1,10.419,1.07599,16.3274,11.4503,1.32959,16.7193,10.4531,0.466589,16.4242,10.6004
7.18938,0.235051,7.57754,0.956866,8.8252,8.2369,0.638264,9.57213,7.27228,0.97091,7.83404,8.61525,1.19491,8.54493
3.19799,0.368239,-9.47229,8.91228,-2.65277,-9.69686,9.20728,-2.34397,-9.88479,9.94964,-2.62174,-9.79805,9.58051,-2.48278
3.7688,0.0876947,-8.56043,16.9059,6.7325,-10.0094,16.9118,4.52989,-8.54152,17.05,6.73316,-9.70754,16.7929,5.25608
1.1197,0.0496076,4.86422,15.1041,-2.70249,4.68876,16.0024,-2.68176,4.6465,16.325,-2.49288,4.6386,16.3086,-2.54855
8.21853,0.810867,-6.80799,7.16195,-7.8686,-5.50278,8.5237,-8.18837,-5.5527,8.67063,-8.21598,-5.4226,6.67061,-8.0989
11.3221,0.347417,6.07305,8.38764,13.0067,3.92208,7.47725,13.1039,3.67085,7.91705,12.9765,3.84079,8.39365,12.8052
2.69141,0.546299,-2.26502,12.2561,-10.3908,-3.02955,12.5146,-9.38987,-2.74004,12.9353,-9.75086,-3.16352,12.4397,-9.27805
7.09695,0.152522,4.16152,14.922,-4.05251,4.78831,14.5663,-2.45991,4.78908,13.5876,-3.10184,4.70099,13.6507,-3.26171
0.147913,0.000872335,-5.03296,2.94402,-6.33972,-4.57361,2.88063,-6.54195,-4.95141,2.93648,-6.47,-4.5171,2.86823,-6.46666
10.9415,0.234679,-10.3347,13.2889,4.28062,-10.3898,14.7641,4.89426,-10.986,14.4425,1.86034,-11.0343,15.0601,2.46651
1.91289,0.289048,5.38328,16.1817,0.604847,5.54168,17.4473,0.976483,5.74226,16.6884,0.978682,5.69917,16.8792,0.994602
1.31932,0.367842,-5.99231,15.9139,10.681,-4.79576,15.8596,11.0934,-5.07821,15.7476,11.109,-5.21424,15.6704,11.2063
15.1181,0.086844,4.97859,7.04797,-5.55658,5.36904,8.01671,-3.98054,5.5195,9.03064,-3.41022,5.68628,7.07022,-3.11718
0.452559,0.236208,-6.62759,10.5516,-7.82842,-6.86041,10.9156,-7.56701,-6.83197,10.7318,-7.61253,-6.8734,10.5599,-7.71889
2.46349,0.31332,3.06597,3.94594,13.078,1.86067,3.73019,13.0064,1.77116,3.81253,13.0178,1.74891,3.52634,13.0426
0.658703,0.030923,9.00984,11.4723,9.69614,8.99891,12.0331,9.36035,8.99978,11.8473,9.24388,9.02078,11.5686,9.41369
4.64923,0.260201,-4.62379,16.6075,-4.89788,-3.95944,17.0348,-5.38785,-3.77468,16.9927,-5.69057,-3.75181,16.5259,-5.81255
5.27094,0.0524251,5.40775,18.5335,1.2288,4.75769,19.9368,0.79719,5.4444,17.7107,0.982585,5.00725,20.0528,1.09783
8.85759,0.0268579,2.45742,3.93457,-4.16925,3.65998,3.95986,-6.31213,1.75365,3.83371,-3.93934,2.89935,3.76498,-6.50392
0.286642,0.0129613,-5.01632,3.79883,-9.2005,-5.15367,4.00184,-9.23835,-4.88542,4.08517,-9.37135,-4.99198,4.0886,-9.33209
5.63533,0.0552525,-0.637278,3.6523,-4.98432,0.803402,3.54899,-6.88256,0.698093,3.63887,-6.32462,0.00442699,3.5441,-6.33179
5.93659,0.0081049,-1.98412,1.51908,7.19087,-3.70857,1.15577,7.99579,-1.96581,0.422356,9.05431,-2.32576,0.734576,8.56462
0.0750683,0.00992738,-7.94601,5.41295,4.98893,-7.91464,5.36273,5.02489,-7.91045,5.49602,5.17784,-7.88927,5.42359,5.14336
0.55468,0.0472401,9.7429,5.08774,12.6047,10.1333,5.33909,12.2206,10.0596,5.44671,12.3038,9.9657,5.40513,12.3834
2.83938,0.0967029,-7.72726,16.8887,0.0679987,-7.77285,16.2282,0.0495499,-7.45386,16.1642,-1.34863,-7.47061,16.3394,-1.33267
9.28819,0.556884,-7.66813,18.6145,3.58283,-6.04174,20.5526,3.93646,-6.33947,20.2958,4.44834,-6.35351,20.2889,4.37555
0.272714,0.0460006,8.35941,8.94093,1.63199,8.53528,8.96694,1.92335,8.47458,8.83875,1.81313,8.54392,9.01813,1.93035
11.0524,0.210825,-9.09525,13.0519,6.4707,-8.22353,13.8026,7.75358,-9.67907,10.9284,5.61666,-10.0073,11.0686,4.61602
7.48466,1.59757,4.00916,16.6246,10.1523,1.36032,16.7009,10.4856,1.62629,16.5207,10.9324,2.07328,16.448,11.4208
3.34172,0.182369,-6.73565,20.0902,2.09825,-6.38573,20.416,3.07895,-6.33036,20.393,3.31485,-6.41191,20.2215,3.52942
5.03239,0.455886,7.55871,5.7169,13.0516,9.02854,5.77483,13.0689,9.53214,6.13028,12.9568,9.4031,6.2634,13.0173
1.77352,0.118521,10.2088,7.75869,12.4722,10.3134,8.17188,12.652,10.3811,7.60051,12.4084,9.99534,7.2183,12.7648
5.44446,0.578502,3.5171,12.2713,-11.9794,3.29195,12.7351,-10.88,3.22481,13.3562,-11.0159,3.24171,13.0822,-10.9905
3.46811,0.14357,5.71137,2.00016,5.89904,4.69316,2.10374,5.01084,4.31202,1.73423,5.3859,5.78699,2.20653,5.36063
9.11339,0.00470398,-6.94436,3.2338,5.03674,-7.2063,3.53324,2.89811,-7.43055,3.93314,2.01302,-7.57965,4.25327,1.80941
12.2605,0.336735,-5.07708,6.55615,-8.16304,-3.83581,4.44567,-9.46802,-4.82616,7.6033,-8.4144,-4.42666,4.09335,-9.30541
12.3697,1.00816,-2.72009,3.46011,-5.97083,-3.21298,3.49929,-3.44776,-3.07275,3.52495,-3.4797,-1.83967,3.43626,-4.33472
11.2455,0.121015,-10.0652,9.59151,-0.655785,-9.25259,7.43298,0.591816,-9.03757,7.03482,0.452453,-9.00081,7.31975,-1.20748
0.901873,0.00314947,5.12689,8.63865,-5.22434,5.15785,8.1104,-5.2696,4.99905,8.23686,-5.67689,5.03436,8.08078,-5.62038
0.0564666,0.0164045,5.53653,7.61184,-3.461,5.59631,7.63304,-3.26164,5.58586,7.74387,-3.32365,5.58393,7.55567,-3.31071
1.61822,0.0114936,-3.4923,9.44913,-8.92678,-2.51214,8.90218,-9.86365,-2.44222,9.11035,-9.9486,-2.71633,8.87114,-9.65512
27.6775,1.38431,3.76854,9.16595,-0.97997,5.1979,8.52038,-0.981076,4.95106,9.71459,-1.89343,5.42912,9.2505,-0.421535
1.72249,0.098884,-10.8202,12.9102,-1.89762,-10.7589,12.3845,-0.654927,-10.7452,12.2119,-0.747727,-10.8377,12.4326,-1.58602
9.58788,1.1696,4.50493,7.05245,-1.20798,5.415,7.34373,-2.1728,5.35646,5.64912,-1.8395,5.38868,5.58811,-1.81255
19.9634,0.654851,9.35052,10.1656,8.96475,9.83718,10.4166,8.02582,10.08,7.30206,8.63203,9.98515,7.87174,8.24007
28.0344,0.566107,5.26858,14.9459,10.5687,5.04215,16.6823,9.73114,6.35172,14.1259,10.5559,6.79362,14.2238,10.8004
4.52917,0.0862284,-3.71923,21.2301,-5.487,-4.16905,22.0633,-4.46622,-3.77814,22.6471,-3.78146,-3.98081,22.2441,-4.26645
7.79151,0.00185258,-5.17297,22.0854,-1.32792,-3.7388,22.4616,-1.11594,-2.97566,22.7413,-2.15275,-4.26419,22.3779,-1.95661
29.4485,0.00673693,9.01698,13.214,8.08498,8.71733,14.1164,7.88602,8.3845,14.8756,8.33329,7.9093,16.4027,7.63348
16.8839,0.198529,-2.05649,16.3349,-7.08482,-3.67461,16.561,-5.85594,-3.22331,18.5838,-6.45426,-2.27223,18.219,-7.00144
6.03497,0.31723,2.21138,9.23539,-12.8609,2.21136,7.8814,-12.8533,2.78127,7.44557,-12.6524,3.49847,7.5582,-12.5649
6.78269,0.0931327,4.55473,10.2233,-6.31578,4.70704,10.8015,-5.15547,4.73765,11.5235,-4.62466,4.56517,12.1801,-4.79141
2.07055,0.053977,3.75573,0.685935,11.7162,3.5401,0.65324,11.7377,4.13378,0.889866,12.5137,4.46584,0.783196,12.2937
7.04624,0.577961,-0.896312,3.17816,1.87084,0.807229,3.01723,1.47217,1.33126,3.32985,0.361755,0.850401,3.12186,0.941649
2.40866,0.0872241,1.12549,17.4363,9.65875,0.0801333,17.9074,9.0816,-0.411524,17.6366,9.44744,-0.344859,17.7187,9.33249
2.74602,0.602824,7.21563,3.39856,2.21106,7.66303,2.92868,4.26482,7.55775,2.94402,4.08391,7.1273,3.02742,3.43473
0.565175,0.0297813,4.78829,14.393,-2.44411,4.82596,13.9245,-2.29193,4.893,13.4227,-2.43189,4.84989,13.7404,-2.37994
3.49031,0.231315,5.23809,6.24111,-2.00243,5.62338,7.13343,-2.67156,5.50085,7.04114,-2.40251,5.65249,6.96179,-2.63424
4.55501,0.125333,4.91245,12.8492,13.0696,3.84315,11.5617,13.0162,4.43209,11.5292,13.1677,4.72608,11.2525,13.2611
1.63992,0.0767963,0.811559,7.91291,-12.5987,1.32867,6.78594,-12.6418,0.944103,6.79486,-12.4637,1.20391,6.62668,-12.5678
4.46683,0.185276,3.21827,0.709358,10.0971,2.82139,0.575524,11.1622,3.73472,0.59564,11.0307,3.23271,0.615609,11.619
0.675895,0.0352542,4.82397,12.8368,-1.59773,4.65684,13.3181,-1.33126,4.66412,13.3712,-1.45063,4.63878,13.4279,-1.35125
6.77746,0.275556,-4.00387,12.9289,-7.41671,-3.04486,13.5473,-8.75375,-4.52257,13.431,-6.99148,-3.58252,12.7874,-8.46101
1.0884,0.755898,9.87547,10.5442,7.21522,9.75281,10.1047,6.24039,9.85687,9.92387,6.70548,9.78497,10.0328,6.42118
0.144182,0.0719716,8.10668,14.1619,12.6179,7.42961,13.9275,12.7513,7.43493,14.063,12.6554,7.38261,13.9904,12.7109
0.931298,0.223753,-1.11731,22.3672,-3.51377,-1.38647,22.4788,-3.26413,-1.42533,22.565,-3.22664,-1.35169,22.496,-3.03407
0.655094,0.0687142,2.53845,3.98479,-3.75865,2.62235,3.91972,-3.49834,2.74607,3.95631,-3.71292,2.63915,3.94768,-4.00436
11.6482,0.151529,-1.37857,14.4574,-9.74183,-1.1523,14.9858,-10.0207,-2.31115,14.2763,-9.2356,-2.46959,14.4292,-9.08402
8.62152,0.155657,2.3392,0.53712,9.09044,0.387143,0.543774,8.4285,0.769935,0.431008,9.39875,1.37801,0.537549,7.967
5.93952,0.00867549,-3.87156,4.03122,10.0242,-3.92133,2.93814,9.89432,-2.68954,3.46762,10.6359,-3.21759,2.89434,10.2825
12.3934,0.11501,-6.14926,3.00171,-0.01751,-5.73539,2.89345,1.60116,-4.25691,3.44626,-1.30496,-4.13179,3.4336,-0.547221
10.4152,0.187094,9.8491,3.66558,7.84713,10.5461,3.23218,8.93854,9.97742,3.0776,7.34378,9.98236,4.53581,8.11109
5.39626,0.113253,-3.73697,3.49604,-7.91994,-4.51565,3.14975,-7.44666,-3.10393,3.50277,-7.55912,-4.16286,3.32681,-8.53001
3.46443,0.0999798,1.33637,2.43749,12.8651,1.61915,2.81993,13.065,2.51994,1.98562,13.0656,1.14716,2.10407,12.8899
6.30523,0.366854,4.8103,7.75798,-1.02547,5.95445,9.21592,-0.107195,6.55014,9.66586,0.0587003,5.19862,8.51964,-0.855414
2.07092,0.000515177,-6.11621,6.40618,10.2392,-5.46451,6.1352,10.5559,-5.11222,5.58258,10.6213,-5.26682,6.34015,10.7264
4.8246,0.292892,-9.49401,7.62314,1.90736,-8.83531,6.48493,1.3926,-8.78929,6.46587,0.861452,-8.78097,6.57667,0.353901
6.44586,0.18432,4.4219,17.144,-2.63689,3.33222,19.2586,-2.36166,3.58925,18.8856,-2.23526,4.63678,16.3653,-2.51913
2.25675,0.119824,3.73403,4.21049,-4.56622,3.94452,4.19976,-5.16748,3.49197,3.97081,-5.09333,3.51138,3.94717,-3.97137
14.3525,0.139656,0.778884,0.371462,10.5466,2.02193,0.401371,10.7996,0.120194,0.434268,9.23955,-1.29398,0.527956,8.6685
4.2269,0.111437,0.461762,3.69778,-8.1483,0.44861,3.87484,-8.87275,1.12441,4.08798,-9.53883,-0.869228,4.03084,-8.96946
2.79305,0.908507,-6.60835,14.4027,-2.69542,-7.26957,14.3051,-1.92538,-7.23271,14.6129,-1.64328,-7.24999,14.7842,-1.57364
0.113498,0.186299,5.73155,0.7708,8.14473,5.57967,0.763806,8.27379,5.53632,0.749734,8.19944,5.63806,0.74535,8.34692
20.8748,0.0119661,3.25947,19.2158,-2.62495,1.20928,22.0622,-0.936504,2.59743,22.0832,0.447996,3.16708,21.3933,0.104265
17.372,0.0598894,0.8245,18.495,7.52493,4.13297,17.2823,9.36515,2.89784,17.4779,9.15598,3.00513,18.3643,7.6497
2.0081,0.0425574,10.1684,3.6694,11.756,10.2565,3.43802,11.629,9.60128,2.81999,12.0981,10.1168,3.83341,11.9466
1.84254,0.107375,3.79636,4.03264,-2.18137,4.30671,4.36341,-2.50266,4.16245,4.36213,-2.71779,4.23762,4.39414,-2.76556
0.199485,0.00802593,-2.56903,23.1536,-5.26629,-2.91816,22.9686,-4.87668,-2.91645,22.9119,-5.01998,-2.66694,23.1317,-5.06292
2.41315,0.164527,-6.93213,3.57432,5.53535,-7.08512,3.60083,4.87096,-6.95082,3.2089,5.95962,-7.3606,4.04891,5.24976
5.71878,0.42016,6.41253,19.9631,2.79667,6.04424,20.0461,3.98752,5.61276,20.1994,3.38072,5.97719,20.0005,3.6531
3.50183,0.170143,-2.47288,3.89008,-9.0786,-3.62519,3.92671,-9.22115,-1.96865,4.42156,-10.4088,-3.2821,3.79302,-9.07296
3.84103,0.000640192,-3.01573,18.0762,8.7051,-4.14889,17.7047,9.15102,-4.22847,17.7668,9.07796,-3.0879,17.4473,9.44988
2.02358,0.0642329,-9.5926,14.1163,6.10785,-9.84049,15.7009,6.24455,-9.93671,14.0102,5.54957,-9.57994,15.2642,6.41214
1.90611,0.179459,-4.76416,2.7246,4.24788,-4.81972,2.75938,3.86471,-4.90941,2.4296,3.07289,-5.26146,2.57058,3.41341
10.5391,0.13314,9.18479,3.02801,4.86597,8.39495,2.65818,5.2782,7.88576,3.0358,4.71342,6.36885,2.47755,4.94002
3.93371,0.0711756,-4.74583,3.12356,-5.16008,-4.95455,2.96724,-5.63977,-3.73815,3.2795,-5.74159,-3.53362,3.30931,-6.14699
58.0904,0.225805,-3.2653,1.78598,10.0789,-1.40477,2.82979,11.3231,-0.479351,1.50989,11.5078,-0.629584,2.09374,11.5401
3.64338,0.500347,-8.2102,9.33981,9.21687,-7.91092,12.4437,9.20479,-8.01963,12.1965,8.90073,-8.36986,10.8808,8.8926
57.6125,0.490139,-1.14575,22.5221,-4.19591,1.89979,18.5935,-5.36057,1.56247,18.7008,-6.11,0.325352,19.525,-7.3522
0.389519,0.0761661,-6.69006,2.90139,7.0348,-6.9615,3.30466,7.24662,-6.97935,3.25488,6.92615,-6.93403,3.22926,7.00694
5.31798,0.0445171,-4.10129,10.4969,12.1832,-2.82084,9.37306,12.5677,-3.0241,9.048,12.3633,-2.73214,8.91008,12.4947
3.12293,0.109535,-7.57947,12.4304,9.54707,-7.43323,13.1649,9.81614,-7.35703,11.313,9.9312,-7.22164,11.2703,10.0587
3.90094,0.202278,5.37037,10.2963,12.5944,5.44469,8.76878,12.9774,6.11567,10.1848,12.7092,5.12872,10.4275,12.818
12.432,0.179009,-7.61121,13.112,8.55629,-8.09118,15.2074,8.4211,-7.67538,12.7002,8.43499,-7.7305,12.5923,8.52742
1.36362,0.0362153,0.263961,9.1735,13.2851,-0.845556,9.46518,13.2627,-0.755795,9.27236,13.246,-0.186061,9.45756,13.2697
4.47446,0.262399,3.04673,14.5711,12.021,4.90966,14.3464,12.4008,4.31203,14.5834,12.1496,4.43239,14.9127,12.1119
3.0669,0.0926882,4.0426,19.3385,4.97078,2.98821,19.75,4.44141,3.24081,19.681,4.48874,3.40561,19.8089,4.27842
4.9567,0.118706,-0.94265,20.4384,4.43078,-0.407053,19.4575,6.2128,2.14346,19.6295,5.61617,-0.223666,19.8328,5.57112
1.08005,0.494506,-2.74595,21.2749,2.60016,-3.13476,21.3724,2.00808,-3.14859,21.2472,2.16984,-3.23284,21.2832,2.24171
2.96059,0.140122,-5.18571,13.7051,11.9818,-5.46553,13.6899,12.0372,-4.311,13.1935,12.4278,-4.03215,13.7599,12.5095
0.512521,0.264411,-10.119,12.7391,-4.50806,-9.9843,12.4833,-4.86478,-9.8608,12.5068,-4.93742,-9.71745,12.5804,-5.02633
9.89077,0.498717,8.43804,1.31255,7.98013,10.0476,1.99445,9.54244,10.4344,2.28187,9.48329,10.1495,2.03625,8.97298
3.62713,1.31907,-7.38412,6.64515,9.03996,-6.63359,7.56422,10.1845,-6.16071,7.41344,10.5067,-7.37095,7.76058,9.7592
4.19285,0.0541474,9.07272,12.7742,10.0699,8.67786,14.0116,10.5039,8.76023,13.8713,9.41517,8.61816,14.262,10.3817
17.4398,0.312488,6.99843,8.58448,1.21465,7.32072,12.6327,1.47186,7.67449,11.5304,1.64029,7.66305,8.36983,1.317
0.431641,0.0194587,-10.2656,13.7009,4.64944,-10.2205,14.5895,5.25412,-10.2899,14.6432,5.09849,-10.2815,13.9323,4.68928
0.520825,0.000596933,-10.8048,13.0768,-1.80384,-10.632,13.2749,-2.82752,-10.6597,13.3203,-2.63839,-10.7324,13.0792,-2.25609
21.3818,0.108021,-5.28696,21.8524,-0.470502,-3.22952,22.3779,-0.602952,-5.64174,21.1537,2.09855,-4.02466,21.4892,1.95237
9.27927,0.0189939,-2.64919,20.6867,4.32479,-1.54112,20.2428,5.00862,-2.79312,19.6382,6.35687,-1.68748,19.6314,6.18069
3.28455,0.0404909,-10.3358,16.4447,2.70071,-10.1782,16.8059,3.65367,-10.8529,15.7409,2.42573,-10.1426,16.8827,4.0575
1.02804,0.0628759,-0.419891,17.1529,10.0991,-0.920015,17.3964,9.6569,-1.06013,16.9676,9.95013,-0.8593,17.1384,9.8816
26.1854,1.27474,-7.14477,13.5453,10.1221,-6.13193,12.9221,11.9217,-5.63868,13.9804,11.9252,-5.53041,15.2445,11.7665
65.5104,1.40526,1.94755,16.6196,-6.80783,3.01748,12.817,-7.44776,4.10206,11.6485,-6.42975,3.16322,12.311,-7.28366
2.53528,0.16624,5.98366,0.840225,10.2023,6.56967,1.00997,11.1435,6.54442,1.03104,11.6049,6.61088,1.02717,11.6119
3.18461,0.210243,-4.93989,16.505,-4.30507,-4.70598,16.7143,-4.68413,-5.17927,16.2755,-4.64496,-5.4856,17.0237,-3.64419
18.8156,0.117249,-0.835843,1.84045,6.14011,-3.61501,1.89827,6.89054,-1.72782,2.85566,3.7059,-1.8145,2.85553,3.74395
7.84517,0.0337954,5.03076,6.36894,-6.13524,5.02223,7.85442,-6.07174,4.72553,6.04011,-7.32344,5.18074,5.94194,-5.81125
3.63688,0.246757,-7.71147,17.6368,2.63204,-7.71787,18.3747,3.3352,-7.53536,18.7236,3.22221,-7.53991,18.7335,3.29738
0,0.00564285,-5.40162,18.2549,8.51229,-5.45663,18.3239,8.38946,-5.58169,18.3441,8.30968,-5.65279,18.3005,8.35493
20.4167,2.89211,3.1441,12.8893,-8.35246,2.08541,15.0618,-10.1572,2.22913,14.2493,-10.9458,2.44309,13.9493,-11.3763
3.7783,0.385287,-3.28999,3.38606,1.74442,-3.63121,3.40194,0.16592,-3.69831,3.35777,0.568553,-3.50646,3.42111,-0.241186
10.7167,0.495941,8.69237,2.72841,5.5559,8.68452,1.96203,7.06412,8.35332,1.99411,7.26105,7.95119,2.15133,6.80185
13.4356,0.549858,-6.58658,13.2364,-4.2441,-7.57684,14.1889,-1.89424,-7.78728,14.7839,-0.377447,-7.79453,14.9603,-0.0706717
2.08972,0.10068,8.59017,2.42945,12.5578,9.1753,2.69291,12.4582,8.22267,1.89562,12.6554,9.31801,2.60254,12.3319
5.65798,0.122975,9.24568,13.1663,4.9812,8.2534,14.7299,2.93397,8.34366,14.3726,3.11299,9.23271,13.5928,5.3807
43.333,0.46451,9.46817,6.12265,6.11199,9.24537,10.4334,4.98584,8.75525,10.7847,3.40421,9.38957,7.20693,4.49916
22.9362,0.639112,-2.28487,5.62954,11.7327,-1.913,6.39291,12.3858,-4.98608,8.68415,11.2504,-3.62965,8.32136,11.6572
2.40618,0.0184992,-9.49581,8.51384,-1.54579,-9.66698,8.78618,-1.27269,-9.51022,8.6982,-2.26082,-10.081,9.68452,-1.06912
6.87778,0.249118,7.19539,8.68005,12.7725,10.0174,8.99297,12.8033,9.35071,8.73589,12.9107,8.83887,8.18033,13.0976
1.67295,0.252378,-2.14667,19.6236,6.2782,-1.29321,19.2776,6.59285,-1.27714,19.3273,6.46932,-0.722384,19.4066,6.35088
3.64546,0.164995,5.9821,5.67714,12.7932,5.83954,5.92656,12.8935,5.79873,5.14801,13.0629,7.26343,5.85111,13.0494
4.22962,0.133886,-4.35857,3.30766,1.14386,-3.64194,3.37479,1.4082,-3.72836,3.45794,-0.485616,-4.19018,3.28439,0.0290067
4.21682,0.109705,-9.93345,13.7248,5.49527,-9.96718,12.2523,4.8453,-10.1514,11.9248,4.21081,-10.1149,11.9657,4.33395
3.64728,0.0309801,-1.48124,7.48048,-11.2025,-0.252776,7.82881,-11.9579,-0.75711,6.44369,-11.6127,-1.8718,7.53446,-11.0161
15.0666,0.437942,10.184,6.66656,9.69485,10.2339,4.17409,8.55415,10.417,4.29326,8.98754,9.94555,6.68467,8.03065
1.41277,0.0107445,-3.64965,20.9978,-5.69823,-3.2015,19.8868,-6.17715,-3.10168,19.8617,-6.25802,-2.89527,19.9886,-6.40693
1.12518,0.00350327,-4.62093,18.4386,8.16132,-4.5891,18.0413,8.81052,-4.36926,18.2403,8.48307,-4.80241,18.1994,8.55958
2.46373,0.206431,2.30385,21.3601,2.57235,2.42713,21.4002,2.77112,1.71885,21.7821,2.65477,2.06207,21.3445,2.83742
4.41085,0.414584,-1.15244,3.53136,-6.82167,-0.834412,3.61429,-5.3864,-1.07138,3.46729,-5.11146,-1.922,3.42368,-5.67952
1.2766,0.0954788,9.21243,11.8777,8.32096,9.31158,10.8756,8.60896,9.44094,10.8938,8.39633,9.39492,10.8452,8.4831
8.71952,0.318498,7.41688,1.77162,7.61819,6.8734,2.15012,6.18154,8.84953,1.50749,7.82603,6.71517,1.47084,7.30314
2.00986,0.0576689,-3.55918,5.97546,11.1482,-4.70113,5.48738,10.6083,-4.16104,5.49361,10.6747,-4.54345,5.40384,10.5685
1.23739,0.155491,-5.74142,8.78502,-8.25279,-6.20559,9.00258,-8.41584,-6.12327,9.62818,-8.21921,-6.25478,9.62047,-8.2396
18.5415,0.526107,-3.97388,3.31804,1.79148,-3.93606,2.44004,3.32165,-2.71405,3.03258,2.4676,-2.58653,2.85408,3.51175
2.80442,0.0135119,-8.85053,7.50959,-3.02736,-8.94242,7.47699,-2.75076,-9.40133,8.6812,-2.66145,-9.29095,8.5825,-2.83829
0.868404,0.323023,-8.62642,17.4914,2.90007,-8.70669,16.7928,2.04196,-8.64875,16.9006,2.28266,-8.56933,16.9449,2.31057
5.69751,0.282828,1.78738,15.3588,-8.51537,1.45913,16.1978,-8.23269,2.30656,15.1076,-7.50948,2.22158,15.3161,-9.25995
17.5766,0.152287,1.49416,8.28119,12.965,1.93992,6.27591,12.7258,1.60883,6.23635,12.7942,0.395281,5.18002,13.0484
0.531553,0.0898362,2.94072,0.672098,7.02768,2.48739,0.857084,6.39064,2.82602,0.80982,6.59734,2.66434,0.828071,6.54848
0.859275,0.0621563,-0.305202,3.87859,12.8837,0.161167,2.97425,12.9971,-0.125231,3.22509,12.8497,-0.258808,3.10512,12.7553
19.895,0.121222,-7.47755,14.7023,-0.621752,-8.04417,17.051,2.20211,-7.83654,17.5501,2.64876,-7.77723,17.5549,2.61887
5.50357,0.249563,3.96678,19.4954,-0.201382,3.97939,20.276,0.12605,3.33301,20.3743,-0.828694,3.3631,21.3565,0.303255
4.35495,0.0192523,-2.07837,3.6789,-3.05783,-3.43727,3.45847,-0.538104,-3.14057,3.48138,-0.742855,-3.40048,3.55858,-2.16294
0.659531,0.431521,8.51858,6.23187,2.05248,8.52407,5.66831,2.1479,8.66188,5.6918,2.46102,8.54562,5.73041,2.32559
1.73289,0.445861,0.588688,21.2318,-3.17061,-0.0250441,22.004,-2.50088,-0.548391,22.3314,-2.61022,-0.201906,22.1209,-2.57482
1.18414,0.160874,2.82422,11.8307,-12.7522,1.96217,12.0519,-12.4469,2.01293,11.8755,-12.4997,2.0434,12.0847,-12.4851
3.94269,0.0949154,1.20385,5.23723,12.8671,2.04555,5.44022,12.9985,1.76667,4.55878,13.0377,2.33373,4.79848,13.0556
1.66101,0.436405,-5.08437,1.733,8.33257,-4.515,1.54874,7.79153,-4.50464,1.57071,7.69649,-4.46918,1.76198,7.22347
6.54111,0.174309,-4.78309,11.1411,-6.78242,-4.52424,10.6456,-7.5703,-5.4828,12.1644,-5.81244,-5.60849,12.0749,-5.81619
2.37412,0.0464809,3.29921,11.0654,12.9381,3.1321,11.5688,12.7771,3.34234,10.0213,13.0429,3.2166,9.92914,13.0222
11.1895,0.236345,2.07057,0.614342,7.34579,1.14955,1.75459,4.42356,0.846785,1.31654,5.41752,1.85581,1.51722,4.84411
18.2918,0.350539,6.32368,10.3004,12.6797,9.75057,9.96624,12.8428,9.51291,10.6328,12.8861,6.55491,11.1139,13.0577
4.39412,0.11779,8.53441,12.9325,12.9226,9.1273,13.1048,12.7751,9.52166,11.9878,13.0234,7.55812,12.7854,12.8169
14.5719,0.232975,-3.06791,6.55452,-9.54101,-3.51952,8.63108,-9.00416,-3.75313,6.22669,-9.17384,-3.23958,4.93023,-9.99609
2.5984,0.37877,-2.38239,2.91729,3.49167,-2.44498,2.48002,4.54386,-2.35942,2.7219,4.28967,-2.02652,2.78199,4.28892
2.70016,0.0570634,-0.7268,3.04075,2.69093,-0.865048,3.04654,2.54812,0.21585,3.0051,1.91852,0.0201921,2.84654,2.64375
1.56876,0.079453,-2.09194,15.168,12.781,-0.931371,14.9599,12.9542,-1.0398,14.7874,12.9093,-0.0927295,15.5396,13.2187
4.5569,0.245462,8.68287,1.09044,11.4115,7.69781,1.18724,11.4905,6.88849,0.968944,11.1765,7.42661,1.29515,12.1676
1.83698,0.839006,4.95601,5.66611,13.0969,4.74738,4.78748,12.9479,4.9491,4.64549,13.0734,4.58908,4.78796,13.0148
4.37629,0.21964,6.11364,6.86895,12.7556,5.83297,6.41803,12.9411,6.1938,7.51899,13.0034,7.46978,6.93479,13.0732
6.86687,0.404377,-9.08746,11.5154,6.66512,-9.62251,9.49651,6.05243,-9.52914,9.54295,6.39381,-9.7889,9.61612,5.46377
1.84004,0.182958,-8.19512,15.6049,8.30481,-8.18084,16.2951,8.53956,-8.11237,15.3077,8.46245,-8.02536,16.5844,8.43544
16.8587,0.370935,-7.66558,12.5791,8.36309,-8.54716,10.0414,8.42796,-8.5835,10.1704,8.12886,-7.98044,12.5093,8.773
2.38037,0.251688,5.15167,20.2334,2.63286,5.69919,20.3329,2.59776,5.6023,20.2583,2.75486,3.31762,21.0228,3.2209
5.52544,0.16275,-6.6315,18.7626,-1.1606,-6.1418,20.239,-1.92399,-6.66181,18.7111,-1.60886,-6.872,19.229,-0.644588
1.80425,0.681303,2.12714,0.529545,12.1895,1.67264,0.655546,11.5228,1.7719,0.690506,11.3315,1.80314,0.630948,11.2002
3.2241,0.122362,2.04157,16.9916,-6.65788,0.68742,19.0623,-7.31771,1.71583,18.2157,-6.37064,1.82971,18.1819,-6.24164
0.837211,0.074933,10.0666,5.15976,8.37698,9.99509,5.79828,8.00206,9.99854,5.58943,8.36491,9.99787,5.85193,8.10218
5.48684,0.126659,-3.52775,2.56304,4.81984,-4.77361,2.73294,4.37728,-2.99762,2.30906,5.06741,-3.08643,2.24802,4.40633
0.488565,0.00656142,-9.55155,8.49655,6.21566,-9.62711,8.27924,5.71744,-9.57007,8.16334,5.76712,-9.60685,8.19352,5.68019
0.935902,0.0889481,-3.92135,18.6901,8.01389,-3.24912,18.5038,8.14645,-3.0293,18.6656,7.95117,-3.10391,18.5755,8.04887
13.0231,0.496827,-5.98702,2.81271,3.44863,-5.07222,2.73497,1.51934,-5.16597,2.7607,3.92271,-4.7862,2.47097,2.5723
12.7978,0.520781,-9.59507,7.93341,3.86052,-8.79013,7.10144,4.47351,-8.86786,7.02494,5.38486,-8.94487,7.04207,5.98636
0.0169823,0.00327613,-10.0327,8.80398,4.07783,-10.0141,8.78396,3.99883,-10.0459,8.93148,4.00721,-10.0205,8.85598,3.96284
6.33302,0.717876,-10.2858,12.474,3.94644,-10.5278,12.6044,1.96402,-10.3144,11.7953,1.87524,-10.2331,10.7053,2.49599
2.59396,0.112192,-4.89027,9.71576,11.3524,-3.8791,8.07953,11.4474,-3.78036,8.08519,11.5105,-4.29571,9.08713,11.6017
3.25317,0.116738,-6.22408,12.7653,-5.16672,-6.56913,13.1269,-4.60867,-5.52493,12.1733,-5.77374,-5.34078,13.9302,-5.85865
2.15854,0.211423,2.29216,2.62476,3.28481,1.69348,2.79656,2.90362,2.57161,2.73104,3.04607,1.38169,2.79157,2.77138
3.96596,0.569674,-5.09088,8.52642,-8.25078,-5.61128,10.358,-8.12589,-5.17548,9.87091,-8.19825,-5.44428,10.2024,-8.17372
1.5008,0.361104,-8.48231,5.98891,0.237957,-8.30585,5.71663,0.878412,-8.2524,5.63902,0.763388,-8.10454,5.29884,0.484653
1.23495,0.0877039,-4.70119,3.08262,-4.05356,-3.7018,3.18568,-4.31833,-3.67901,3.1623,-4.45728,-3.7568,3.16898,-4.39317
18.7065,0.836792,6.07816,10.1054,-0.501524,5.9386,14.6895,0.592998,5.19533,13.8072,-0.254533,5.39964,11.5181,-1.24586
0.405567,0.0549848,10.3976,2.29354,9.05673,10.5306,2.96214,8.76832,10.5334,2.89445,8.88189,10.5145,2.88224,8.74664
0.858782,0.190378,-7.1864,5.06852,-7.26485,-7.42154,5.5553,-7.11208,-7.41881,5.53578,-7.00755,-7.40824,5.43931,-6.82413
41.3766,0.361998,6.27867,4.90461,1.29272,4.26671,3.96039,0.326226,5.75824,4.13638,0.587381,5.44746,4.35382,1.04805
1.04428,0.111156,-4.17542,14.7318,-6.25613,-4.10846,15.1198,-6.59218,-4.22576,14.4754,-6.3571,-4.35597,14.6138,-6.17563
48.0026,0.30072,-6.30246,4.04024,-3.41808,-6.15127,3.64548,-6.17652,-5.00626,3.15914,-3.63299,-7.5966,4.2678,-1.98487
4.7301,0.189961,-2.16748,8.33241,-10.1442,-1.17757,8.64307,-11.2385,-2.49227,8.81651,-9.90994,-2.48038,7.57757,-10.4271
0.630664,0.0131767,8.5174,17.3394,5.48834,8.22902,17.9524,4.99099,8.37213,17.7237,4.97929,8.14564,18.028,5.16669
24.9051,0.503332,-2.79044,18.2949,8.40189,-1.42465,18.3812,7.57143,-0.374211,18.9928,6.83677,1.07207,18.2136,8.09669
1.71084,0.0397073,0.20292,16.4481,-9.62586,0.682178,15.8487,-10.0255,0.888439,15.8252,-10.0496,0.919131,16.0422,-9.93256
2.8499,0.129277,4.69434,17.4748,8.96898,4.5817,16.8511,9.71806,6.00571,17.0277,9.40452,4.6685,16.7662,9.78514
2.57113,0.0167969,-7.17248,3.62295,-1.26044,-7.36186,3.78751,-0.100122,-6.9115,3.34561,-0.839274,-7.62539,4.06559,-0.0285891
3.37276,0.138056,0.709893,3.83389,-3.84565,0.630012,3.75226,-5.2543,1.46424,3.71137,-3.7297,1.07154,3.77268,-5.45554
2.6944,0.152933,4.90155,10.4917,-3.39287,5.21925,10.1536,-3.68481,5.06913,10.047,-3.36058,4.99101,11.5115,-3.29015
12.81,0.0398076,3.71339,0.771799,9.52292,5.51243,0.800368,10.5741,5.08073,0.7916,9.92695,7.13507,0.722379,9.18706
1.43391,0.16871,-2.98837,13.5882,-8.82298,-2.65581,14.2322,-8.9563,-2.60546,13.947,-9.38229,-2.62681,13.9647,-9.28178
0.918194,0.0596725,6.72896,2.1963,5.83576,6.01055,2.16313,5.64003,5.97776,2.07094,5.88959,6.3504,2.08799,6.09009
0.632806,0.00719639,-10.2461,13.7605,-2.76831,-10.0224,13.635,-3.26799,-9.90581,13.7288,-3.29019,-10.0029,13.8539,-2.97836
1.41086,0.0720249,3.98403,18.0865,-0.355532,4.16299,17.4793,-0.291327,4.21432,17.5501,-0.187884,4.03953,18.2728,-0.371731
0.195443,0.377096,-2.55855,19.0492,-6.79503,-2.37363,19.3992,-6.83874,-2.24049,19.3415,-6.90924,-2.05147,19.2384,-7.06862
77.4861,0.447814,-8.39752,6.71405,7.23571,-7.65774,4.67309,3.69972,-7.80756,5.61449,3.77095,-7.76122,5.23982,2.57683
6.17723,0.139337,4.93329,10.7103,-2.33622,4.83458,12.75,-1.56326,4.81,12.0378,-1.68049,4.90617,12.9333,-2.50637
30.1818,0.690318,5.29295,3.03586,3.29174,3.11826,3.78912,0.0472365,2.82044,3.50628,0.707996,1.51867,3.05978,1.81297
17.7802,0.512232,0.77546,2.30715,3.44886,3.22574,1.28377,5.35256,3.50861,2.30983,4.22453,4.19283,1.60424,5.53481
5.51753,0.0685511,1.84777,14.4566,11.9529,1.2528,16.2564,11.7226,2.9453,14.3456,12.0918,3.11424,14.3812,12.0945
1.68687,0.361075,-2.08639,10.7152,-10.4836,-1.69128,11.4703,-10.9207,-2.12957,11.5468,-10.491,-1.86911,11.4343,-10.6922
1.16754,0.0405442,-5.50605,12.0998,12.1982,-4.60341,12.011,12.539,-4.37603,12.1957,12.6111,-4.59271,12.4966,12.5354
1.35427,0.0300913,-8.79135,13.7304,-4.44468,-8.455,13.9813,-3.41398,-8.72015,13.9636,-3.47431,-8.85321,13.7856,-4.12635
27.663,0.646408,4.12424,8.95428,-11.4369,3.4657,11.1918,-12.0014,3.05526,11.5357,-12.7148,3.41566,11.9152,-10.8391
13.3762,0.33519,5.04611,5.64511,-5.29894,4.13978,4.30109,-3.16083,4.34253,4.67161,-4.44475,4.48469,4.23321,-1.78461
5.32736,0.271932,-5.01631,14.6612,-4.49682,-5.06909,15.3949,-4.88202,-4.85631,14.9969,-5.47656,-5.6762,14.2059,-3.768
3.60258,0.163169,0.707759,4.96816,-10.3346,1.13055,4.71543,-10.4192,0.0680265,4.46688,-9.97872,0.878243,5.04581,-10.6592
1.75368,0.0699803,10.0034,7.27471,8.00602,9.93628,6.75969,8.01627,9.80199,6.79655,7.17663,9.82732,6.47086,7.32683
6.00831,0.190374,-4.27845,2.80057,9.46039,-3.70033,2.3697,9.74304,-3.66401,2.01901,9.86317,-4.81261,1.79057,9.12193
1.18839,0.0464254,-6.02111,3.55256,-6.27163,-5.75486,3.37229,-6.81957,-5.39021,3.10038,-6.68129,-5.53634,3.21512,-6.78649
0.212029,0.0621442,1.56528,3.70116,-8.69757,1.86402,3.74375,-8.77129,1.75669,3.72498,-8.65789,1.83534,3.66978,-8.51992
7.77977,0.145893,-1.24169,6.47453,12.506,0.416703,6.49858,13.077,0.307431,5.78711,13.0263,-1.87332,6.56084,12.4995
3.96389,0.121505,2.26448,0.542852,9.49792,3.56739,0.751611,9.62354,2.67473,0.614316,10.1466,2.45393,0.475296,11.0916
0.998515,0.00141947,10.1493,1.69105,10.986,9.37839,1.40571,11.5313,9.73659,1.72431,11.5293,9.59069,1.62122,11.5664
1.65323,0.0577425,-0.968152,19.8341,-7.34482,-1.20971,20.3183,-7.26393,-1.40204,19.0718,-7.36417,-1.57549,19.1941,-7.29161
12.5881,0.216199,-8.0123,6.16842,-5.36076,-7.00184,4.56236,-6.44081,-7.97472,5.47506,-4.22921,-7.26637,4.47763,-4.36171
8.97498,0.0845972,0.104793,20.5861,3.95892,-2.35623,21.4951,2.3068,-2.41433,21.2896,2.55559,-0.759334,21.0233,3.1424
7.45005,0.376729,-9.59911,14.4859,-0.588903,-9.88089,15.4822,0.485714,-10.1473,14.9334,0.0901686,-9.21354,14.1739,-2.66894
3.34614,0.0857224,-1.19965,3.50927,-4.36133,0.276238,3.77419,-4.89943,0.575421,3.83983,-3.91906,0.0295065,3.7715,-3.80598
0.686133,0.0125162,-10.0334,8.79393,2.52281,-10.0781,9.12084,1.99607,-10.0004,8.98102,1.94947,-9.89386,8.59674,2.37558
0.978425,0.00646585,-7.44512,11.7352,-6.82666,-7.10676,11.301,-7.22502,-7.30254,11.0106,-7.36634,-7.17901,11.0696,-7.36354
0.596515,0.567519,2.76312,3.9171,-8.95304,2.59163,3.73706,-8.24304,2.26563,3.75781,-8.71191,2.55115,3.73677,-8.30329
4.65096,0.255917,-6.49643,19.3438,6.21725,-5.40849,18.59,7.92972,-5.15106,18.6206,7.97067,-3.81006,19.0686,7.44998
0.827736,0.025513,8.04102,10.694,1.91576,8.31691,10.8726,2.45096,8.11405,10.8199,2.14918,8.31999,10.6214,2.26959
1.81246,0.0403677,1.25853,2.69422,2.89561,0.545907,2.6976,2.93644,0.224653,2.79467,2.72197,0.227529,2.75626,2.79933
1.63055,0.100469,5.31599,5.7747,-3.67111,5.35171,6.10482,-4.48432,5.31592,6.0178,-4.47884,5.62617,6.14604,-3.5272
3.83993,0.101751,-5.53478,5.71985,-8.46912,-6.55153,6.10472,-8.40161,-5.31101,6.1486,-8.29862,-5.20927,5.22784,-8.89074
14.6654,1.1828,7.82417,16.2147,7.7856,6.30761,18.2196,7.23569,5.91258,18.4317,7.00057,6.60999,17.4321,8.39427
0.05041,0.00419956,-5.72508,3.01645,-0.48462,-5.75771,3.01624,-0.533007,-5.56524,3.06688,-0.59968,-5.63093,3.06811,-0.6637
7.04761,0.213431,-2.85621,9.48275,-9.53127,-2.73463,11.8088,-9.92118,-3.31006,9.93399,-9.22853,-3.83571,10.0746,-8.47376
2.1989,0.238449,-1.62099,1.49765,7.0617,-0.854297,1.51235,6.58575,-0.705771,0.951386,7.2385,-0.826123,1.15261,7.09022
7.13297,0.268423,2.20884,6.16515,12.8378,3.79033,5.0956,13.1086,2.75658,4.7607,13.0447,3.55169,4.38648,13.0555
32.2574,0.971996,-4.97411,10.4165,11.3637,-7.04493,11.6328,10.2553,-7.16832,12.796,10.1846,-6.83745,13.3747,10.6952
11.3709,0.170531,7.48122,19.0958,3.34754,7.94058,18.2695,4.20216,7.95791,18.3611,5.20629,8.36253,16.7435,3.5681
3.62432,0.247244,-5.95365,13.613,-3.39884,-5.69996,13.9856,-3.97158,-6.36769,13.8313,-3.20619,-6.54648,14.3482,-2.78249
4.66511,1.47028,-0.255923,10.879,13.1642,-0.323168,13.5716,12.3845,-0.166452,13.4874,12.3464,-0.110104,13.5625,12.3619
0.666306,0.0340288,2.59499,3.0603,13.1975,2.80085,2.89175,13.1793,3.19454,2.3189,13.0066,2.91799,2.39773,13.0373
4.34204,0.118418,-2.1906,21.6037,-6.19324,-0.971283,20.9938,-6.88484,-0.223877,21.1588,-6.67515,-1.03857,21.1334,-6.68617
0.525197,0.0980241,3.99935,13.7933,-5.38801,3.78206,14.2248,-5.41987,3.72325,14.2252,-5.54381,3.73411,14.0433,-5.6025
3.85139,0.461434,4.27705,8.0193,-10.2953,4.62916,7.03856,-10.7702,4.08953,9.04309,-10.8116,4.09265,9.15072,-10.8212
12.1261,0.109339,-2.57862,5.47336,11.3056,-2.87469,3.87989,10.6531,-3.58797,4.49734,10.4394,-1.8207,4.47509,11.5388
3.61588,0.610039,-1.58138,16.6178,10.0543,-1.49865,17.6332,9.24579,-1.42399,17.6669,9.23661,-2.07267,17.2628,9.63036
3.93295,0.434092,3.29838,13.8702,12.1723,3.1025,12.3562,12.654,3.98085,13.9489,12.426,3.25395,12.4725,12.6118
2.3875,0.0194064,-9.68173,12.4557,-5.16076,-8.86836,11.4998,-6.36008,-8.53517,11.8055,-6.39101,-8.86503,11.6754,-6.24917
3.10485,0.161161,4.03489,16.8605,9.82575,1.34657,17.3323,9.78938,2.43984,17.4167,9.3223,3.76239,17.2073,9.49051
0.703096,0.0294315,3.44001,11.8574,-12.045,3.29963,11.8553,-12.349,3.29908,12.2954,-12.4222,3.25478,12.0165,-12.5004
8.2129,0.337903,-7.40931,8.96839,-8.15395,-8.04089,10.7095,-7.1218,-7.27263,10.425,-7.58917,-8.54481,10.2037,-6.93409
9.26784,0.0990831,-2.35363,3.58583,-3.71209,-1.07808,3.71932,-2.45934,-1.11104,3.60618,-3.80689,-0.649715,3.61234,-3.42521
2.8335,0.337969,4.78214,15.5756,10.8076,4.07559,16.4176,10.5816,4.08783,16.391,10.6473,4.1936,16.4396,10.3038
3.74687,0.256622,-3.5688,21.7369,-5.31536,-1.62604,22.028,-6.10723,-2.4851,21.8428,-5.91017,-1.83842,22.0045,-6.1084
5.41513,0.256793,8.99428,11.7121,13.1629,6.06342,12.1095,13.2184,6.7827,11.5023,13.1641,5.95096,11.8678,13.2419
0.00439927,0.00690641,-2.95974,4.6437,-10.1786,-2.91027,4.62232,-10.2019,-2.90575,4.67608,-10.2284,-3.0104,4.74451,-10.169
5.30618,0.359191,1.93784,9.29932,12.6055,3.56277,9.33219,13.0524,1.76093,8.94306,12.9291,2.06381,10.4445,13.063
3.80496,0.0551911,10.7705,5.91499,10.7469,10.4475,7.49467,10.9843,10.1308,8.00338,10.0569,10.1499,7.81608,9.89389
6.72831,0.21345,6.28804,4.77036,0.501078,6.17982,5.90478,-0.629127,6.24113,6.29691,-0.65662,6.36472,6.40613,-0.452304
3.4785,0.962865,-6.77456,17.3263,8.1209,-5.11728,16.6393,9.08369,-5.27313,16.9607,8.93644,-5.16798,16.7286,9.02363
3.46179,0.204178,0.257156,17.3213,-7.90579,0.890462,17.5312,-7.70627,-1.78816,16.407,-7.23041,-1.72506,16.4201,-7.26089
5.33193,0.431107,-7.4033,19.2418,0.231958,-7.03663,19.0656,-0.613937,-6.83236,19.9896,2.03729,-6.98553,19.9859,0.094021
1.39687,0.500421,8.19752,13.0145,2.52681,8.04905,14.4782,2.59219,8.19623,14.5044,2.84419,8.12206,14.4174,2.7539
6.19326,0.494522,4.19422,7.53123,-1.43594,5.33868,7.98887,-1.81104,4.68837,7.69977,-1.07019,4.45689,7.07554,-1.21723
0.976982,0.123374,-1.76674,4.44913,11.618,-1.39318,3.74123,11.7384,-1.44077,3.90453,11.823,-1.45391,3.75939,11.6678
1.87644,0.247413,-7.58346,4.62099,-3.50859,-8.30033,6.09864,-3.4503,-8.14901,5.81726,-3.63238,-7.9996,5.49059,-3.7769
12.5228,0.272567,4.1827,5.80019,-8.60254,3.74687,8.01,-8.58244,3.71005,7.78586,-8.32332,4.47969,7.40545,-9.81501
4.35411,0.003398,1.57594,18.853,6.89217,0.376545,18.8873,6.92628,1.18804,19.6701,5.72276,1.00584,18.6843,7.18337
8.33336,0.160226,-6.57748,16.7813,8.40247,-8.40357,17.5616,6.77312,-8.63503,17.257,6.5045,-5.5535,16.5083,9.01666
10.0105,0.344461,-8.13379,6.71118,4.16876,-8.57418,6.54597,2.85598,-9.24628,7.21388,1.97837,-9.10848,7.26829,3.9176
13.0551,0.149703,1.20167,3.4915,-1.72469,-1.11329,3.72241,-2.32161,-0.16744,3.71733,-2.24775,1.41976,3.39793,-0.18827
11.8541,0.0145742,-9.20455,8.25381,7.01373,-8.14195,7.17635,8.52575,-8.50038,7.9829,8.60746,-8.15251,7.47291,8.90253
4.90784,0.211884,-7.56393,4.40424,5.6979,-7.12885,3.5562,7.12945,-7.81146,5.25622,5.24611,-7.41537,4.07209,6.75876
3.97237,0.315331,-6.07659,8.60051,10.7942,-7.19193,7.95862,9.98642,-7.96772,8.22968,9.4211,-7.3706,8.13474,9.90414
20.6567,0.0293015,5.96454,3.58898,13.0295,8.50319,3.63287,12.9995,6.3916,4.4587,13.1518,8.31318,2.67484,12.831
3.5983,0.394014,-7.91878,7.76921,-7.05672,-6.98219,7.60051,-7.84638,-7.36443,8.03813,-7.77676,-7.05705,7.29383,-7.75252
2.96851,0.134557,9.20884,7.98896,4.83658,8.92938,8.02985,3.64667,8.96135,7.92142,3.66868,9.35222,7.35742,4.42545
22.0365,0.087132,0.655655,13.025,-11.6692,0.319063,9.11061,-12.2056,-0.0734207,10.4626,-11.8601,1.2585,9.47947,-12.5076
0.667304,0.0379844,-1.14208,14.2852,-10.3214,-1.00479,13.8871,-10.7719,-0.926755,13.9115,-10.8369,-0.850033,14.1091,-10.7422
1.09733,0.242562,4.57762,2.14143,4.86634,3.56131,2.25419,4.35186,4.95941,2.34513,4.47809,3.825,2.27402,4.39256


