
7.55899,0.278878,3.91031,30.5914,-4.90423,3.22174,30.9215,-5.03669,3.6691,29.4308,-5.57539,4.92624,31.0732,-5.11088
1.96031,0.0806609,-13.9766,23.0379,-2.7283,-13.9797,23.2975,-3.01031,-13.6776,22.738,-1.48226,-13.7537,22.996,-1.69011
25.2475,0.428586,-1.95674,30.7376,5.64599,-2.83247,29.7878,6.44133,0.35189,30.8025,6.19313,-0.78376,31.6387,5.80716
2.40263,0.250236,-10.7859,32.7437,2.79614,-10.2971,33.0649,3.16618,-11.2889,32.5857,2.94636,-10.9552,32.4402,3.17988
1.68352,0.519443,-12.4503,7.37554,-3.96871,-12.9649,7.39958,-3.36668,-12.9253,7.16386,-3.34278,-13.0544,6.9681,-3.29905
9.56381,0.264829,-1.79356,25.8524,-6.03609,-0.910565,26.141,-5.972,-0.415723,25.6575,-6.46181,-0.715683,25.172,-6.57967
1.10934,0.0712084,-0.509911,23.2244,6.48018,-0.922275,23.2579,6.5762,-1.13923,23.3563,6.58409,-1.26456,23.1966,6.60209
4.32038,0.426119,7.40878,25.7177,-5.38295,8.57134,25.8938,-5.28455,7.40323,25.1256,-5.91953,7.35269,26.3006,-5.82492
2.50644,0.15424,-11.0426,9.46668,4.88951,-11.5094,9.79044,5.01345,-10.1197,9.51923,5.54268,-10.9621,8.97446,4.87231
2.54777,0.0390548,6.85909,34.6081,0.730958,5.1376,34.833,-0.124787,5.07134,34.8665,-0.283106,5.21131,34.8765,-0.382821
12.8444,0.244161,2.63746,23.5979,-6.37828,3.87605,22.9594,-6.14902,3.22005,24.1251,-6.32696,2.3051,22.6408,-6.8994
1.42859,0.0600868,-5.48588,20.7498,-6.38135,-4.25771,20.7424,-6.79334,-4.30746,20.8834,-6.78693,-4.91709,20.8634,-6.61218
3.44646,0.114434,-5.57523,26.3361,5.83865,-4.60433,26.6093,5.85244,-5.2125,26.0679,5.72746,-6.37645,26.6618,6.36955
14.5426,0.0209649,10.4661,8.34121,4.35865,11.7332,8.45982,4.44052,10.7627,6.80045,4.53522,10.8532,9.2789,4.26916
45.8243,1.44421,11.1972,5.21853,3.22165,11.3753,2.42355,3.07122,12.8103,3.68257,2.50353,13.1018,5.27158,1.68557
2.12238,0.196226,1.52488,23.1754,-6.38823,1.21732,23.014,-6.57782,1.76024,23.8112,-6.6438,2.02027,23.1555,-6.56944
0.767486,0.037559,10.71,14.5985,-5.31324,9.88844,15.0493,-5.76429,9.93764,15.1514,-5.73341,9.9973,15.1622,-5.70158
8.77105,0.591686,5.44287,22.7028,5.53293,4.80461,23.3211,6.14943,5.47345,21.0655,6.34468,6.43777,23.1114,5.93618
6.93298,0.0086704,9.27098,0.805174,1.9097,8.1586,0.605411,1.28861,9.78253,0.737853,1.36563,8.55018,0.752818,1.86371
3.5755,0.0628569,13.5496,10.7313,1.5968,14.2039,10.9993,-0.0928594,14.2274,10.9204,-0.133601,13.4796,11.2041,1.83079
34.3206,0.37887,5.20692,26.2594,6.29325,8.35186,25.8224,5.79284,8.94176,25.2609,5.7163,8.93532,26.3354,5.50979
4.83587,0.360293,9.11297,18.8363,5.64726,10.4984,19.5919,5.59495,10.3584,19.353,5.52133,10.5616,19.8509,5.66648
3.30239,0.230101,8.6076,5.21296,4.10807,8.59624,6.42764,5.62466,8.71284,6.31384,5.37838,8.09456,4.79078,4.78995
2.2964,0.317632,-13.8523,22.7181,-3.8937,-13.0155,22.954,-4.44471,-12.8891,22.907,-4.55807,-13.4582,23.4761,-4.24842
30.6953,0.440318,-11.6971,17.7791,-4.22093,-9.7215,17.7994,-5.26428,-13.3914,17.7449,-4.19785,-12.2932,16.5757,-4.75646
1.77826,0.0318086,7.18748,11.3628,6.25995,7.37167,12.3164,6.46786,7.50705,12.1366,6.39968,7.64621,12.0932,6.36904
0.0379784,0.186392,9.05245,16.2661,-6.08762,9.21526,16.3316,-5.99825,9.21933,16.3013,-5.99273,9.23539,16.2643,-5.99627
21.4106,0.657759,10.6663,21.4513,5.21522,12.2055,19.2233,4.22017,13.3393,19.8789,3.37047,11.98,19.6536,4.21967
3.47875,0.0183482,-7.62251,3.5171,4.79842,-8.64228,3.49262,4.63001,-8.99045,3.28385,4.57446,-8.97567,3.14494,4.57358
9.03894,0.151619,-5.92264,34.9032,0.192978,-4.44977,34.9447,0.853594,-5.30155,34.8809,1.24733,-5.86792,34.8214,1.23573
5.89341,0.00215038,-14.4105,30.3586,1.99245,-14.5314,32.5383,0.958372,-14.5778,32.5793,0.745651,-14.6043,32.2496,0.70499
2.73427,0.147308,14.2782,15.2485,0.405446,13.964,15.107,1.40049,14.069,15.7291,1.17043,13.8057,15.3217,1.72518
24.8334,0.144219,10.07,29.9604,-4.71004,10.1521,28.6913,-4.82676,11.7956,28.7484,-3.98205,11.7877,29.3079,-3.9875
3.84626,0.229309,-3.87315,20.9644,5.7966,-3.59498,20.7622,5.91479,-4.89016,21.2893,6.36178,-2.99316,21.5004,6.24474
16.9174,0.108765,2.11556,8.22085,6.53242,1.98669,7.13444,6.83921,1.00839,7.98688,6.61446,0.517668,9.13935,6.36536
2.28671,0.0176715,13.8085,15.091,1.77666,12.8107,15.1889,3.20744,12.9127,15.3715,2.96982,13.2998,15.0967,2.51013
3.45745,0.35704,-11.9483,19.2265,-4.56861,-12.4612,18.9324,-4.80108,-11.0806,18.4097,-4.98316,-11.502,20.087,-5.13289
0.444205,0.0150246,12.3111,14.5249,-4.35615,12.2625,14.8895,-4.37471,12.3764,14.9587,-4.29991,12.1849,14.5918,-4.44535
0.465501,0.330557,11.6442,30.8998,4.5534,11.7219,31.3619,4.33878,11.6025,31.313,4.41673,11.5471,31.2875,4.45961
24.3114,0.159993,7.07799,0.434709,0.388171,6.66528,0.44603,-1.22194,5.5566,0.36281,-1.33815,5.94424,0.379616,-1.20324
7.90321,0.107256,13.5939,26.0141,3.29618,14.0578,26.7066,2.95951,12.2096,26.7305,4.04358,13.9855,25.7706,2.9214
1.10586,0.158679,4.01711,10.2891,5.94738,3.79224,10.7133,6.18382,3.73996,10.4404,6.16187,4.26693,10.1291,6.05767
4.10133,0.0309489,-6.78115,5.44325,5.59275,-5.46349,5.11349,5.74083,-5.4161,5.25777,5.76663,-7.54008,5.40235,5.52513
0.619976,0.0120387,-2.36518,3.07849,-5.33331,-2.48379,2.89213,-5.20991,-2.0113,3.01031,-5.26903,-1.85984,2.81773,-5.149
11.9899,0.284213,14.2472,29.4628,-1.68697,14.0102,26.9293,-1.91603,14.0209,26.8558,-1.86893,13.8165,28.6828,-2.68281
1.00656,0.0228321,-5.17248,0.332095,0.476427,-5.11818,0.299119,0.132643,-4.94079,0.225176,-0.227346,-4.94583,0.272838,0.0997659
10.297,1.88538,1.81568,11.8255,7.18327,1.82128,14.2034,6.86065,2.10396,14.2641,6.93788,2.25091,14.2732,6.95619
4.88737,0.0687902,-0.578365,18.1608,6.55657,1.14197,17.7249,6.4695,0.701339,18.2261,6.6899,0.575146,17.6933,6.44277
9.53596,0.558777,7.69151,21.554,-5.9358,7.31283,20.6807,-6.5429,7.76794,20.4871,-6.2597,9.77058,21.3668,-5.47041
1.02314,0.0672689,7.48014,6.44461,-5.90928,8.38186,6.82109,-5.93406,8.03772,6.4676,-5.87639,8.38727,6.77965,-5.91794
0.358374,0.0373526,9.56767,33.0946,-4.37945,9.65212,32.5196,-4.53451,9.72982,32.4749,-4.52427,9.59902,32.7082,-4.50352
2.28581,0.0259952,-8.13356,24.9093,-5.55113,-8.667,24.937,-5.37281,-9.77861,24.8884,-4.96988,-9.86464,24.7952,-4.96254
10.4068,0.112637,-0.496033,0.245142,-0.793006,-1.07466,0.537767,-2.30934,-0.604506,0.336473,-1.56131,1.13795,0.0965795,-0.654782
0.269068,0.00854588,-14.2933,13.0224,1.72558,-14.2678,13.0997,1.96637,-14.2725,13.1517,1.77418,-14.2617,13.1938,1.9397
12.7658,0.231098,-14.1894,11.2681,-0.913086,-13.9651,9.18297,-1.5794,-13.9185,9.20631,-1.71465,-14.2024,9.68623,-0.673835
4.10999,0.189667,8.38341,3.22223,4.70096,8.39886,2.41722,4.50608,8.38984,4.5902,4.50371,8.62053,4.42581,4.57993
3.59108,0.263934,-3.3245,12.8493,7.10779,-4.54548,14.3317,6.83336,-4.2675,14.3522,6.89844,-4.48252,14.4723,6.82529
1.3587,0.421324,7.96695,20.0193,6.61656,7.58195,21.0136,6.67451,7.50484,20.9714,6.69619,7.71473,21.0246,6.66314
0.485975,0.0634419,-5.9518,1.41626,3.48365,-6.03451,1.72264,3.73994,-5.86124,2.13959,4.10373,-5.93596,2.09643,4.04092
0.111423,0.0134447,-14.3836,11.3117,0.879464,-14.3883,11.1803,0.988861,-14.3916,11.2749,1.02079,-14.3897,11.1574,0.90091
9.36047,0.054873,5.30601,28.4616,6.1172,7.41979,28.3235,5.94833,4.52561,28.6675,6.29453,7.04295,28.9685,6.13824
0.688635,0.0193409,3.59695,9.3326,-6.87548,4.04923,9.86197,-6.90057,3.73639,9.32539,-6.86365,4.04916,9.81666,-6.89168
5.42406,0.0402724,10.0269,8.26399,-5.5091,11.3296,9.08956,-4.87565,11.1431,8.504,-4.96094,11.0516,9.2288,-5.02862
0.181223,0.11255,-2.83007,0.470247,1.28163,-2.63459,0.653033,1.45143,-2.61111,0.599657,1.47828,-2.92519,0.454062,1.36974
6.05364,0.321046,-12.2476,30.5992,2.93384,-13.038,31.215,2.68821,-11.4828,30.8429,3.79186,-12.7007,29.9021,3.14367
1.27266,0.254118,10.2011,23.9097,5.24092,9.77397,24.6512,5.27696,9.5977,24.7636,5.2772,9.55291,24.7365,5.30966
13.668,0.291379,14.3019,26.5572,-1.22178,13.0737,26.5743,-3.44314,13.0906,26.6258,-3.40968,13.1525,25.8915,-3.14828
2.75442,0.0900236,11.0482,17.2434,-4.62399,11.6494,16.4644,-4.65656,11.6598,16.6185,-4.54168,12.234,16.3773,-4.33879
2.42771,0.0219344,11.5986,11.9694,-4.79282,10.5339,11.914,-5.38226,10.6502,12.0796,-5.29424,11.4457,11.7069,-4.88893
0.951776,0.0771658,-7.02433,25.3357,6.42752,-7.23887,25.6105,6.49909,-6.8541,25.0332,6.50519,-6.6603,25.3207,6.54172
115.701,1.39659,-0.169581,17.8386,-6.93788,-3.00866,20.2681,-6.69204,-6.33557,17.6123,-6.35695,-7.71199,17.7623,-5.81691
0.039828,0.109825,-3.74036,0.356467,0.648527,-3.62646,0.412662,0.647711,-3.61224,0.503826,0.733996,-3.60966,0.481392,0.772996
5.72459,0.27628,-10.5347,19.5329,-4.88888,-9.4863,18.5282,-5.46511,-11.2672,19.0645,-4.85173,-9.82786,20.4363,-5.56313
2.43157,0.449155,-9.50979,23.4819,5.48355,-11.0242,23.1422,4.70056,-11.3383,23.345,4.37583,-11.0973,23.2623,4.61619
10.4384,0.459065,-13.1171,21.0028,3.08519,-11.9747,20.4499,4.68653,-13.8098,20.8112,3.06843,-13.1286,22.2297,3.77793
5.09576,0.0210779,0.236861,27.4595,-5.5425,1.09375,26.2802,-6.5778,1.39597,28.7433,-5.9628,0.540216,26.9524,-5.92205
24.511,1.07703,-10.084,21.8627,4.60292,-9.71169,19.4219,6.02164,-10.1014,18.814,5.50238,-10.0527,18.7979,5.54829
2.49103,0.259542,2.29621,18.4912,-6.2634,2.2414,18.8636,-6.41446,2.86216,18.5602,-6.48155,1.97606,18.0541,-6.70535
0.358809,0.0370524,3.60322,2.60163,5.57608,3.45577,2.87995,5.68583,3.52519,2.984,5.74442,3.59848,2.89311,5.69509
1.54834,0.0574988,10.3329,30.5517,4.92717,10.6489,31.533,4.69973,10.3173,30.8245,4.89612,10.6111,31.5744,4.68174
18.7382,0.461211,-9.62328,22.9972,-5.33961,-10.4454,24.0352,-4.74992,-12.8104,22.8596,-4.60907,-11.4301,24.1773,-4.6576
1.14038,0.466219,-10.0018,29.2544,-3.83052,-11.1081,29.1601,-3.31437,-11.1624,29.2621,-3.26831,-11.093,29.2094,-3.29395
1.14929,0.116828,-5.42872,0.392437,-2.00175,-5.61824,0.500819,-2.30144,-5.62008,0.170238,-0.879624,-5.52907,0.253443,-1.04297
1.16401,0.0800478,-0.153116,8.95798,6.23744,-0.136871,9.16057,6.39605,-0.284343,8.95066,6.30964,0.603623,8.86403,6.34923
3.23104,0.491021,13.8775,12.4733,0.519135,13.3161,12.0781,1.8584,13.2901,12.1021,2.01561,13.3571,11.9883,1.73648
0.548747,0.005769,7.11375,3.62876,-5.13123,6.80923,3.29801,-4.96077,6.96776,3.57987,-5.11673,7.17677,3.37867,-4.98945
4.19369,0.0455715,13.7096,25.0374,-1.39355,14.4216,24.7864,0.435722,14.5041,24.8148,0.690584,14.4434,24.2906,0.270629
5.69729,0.0354945,9.67839,28.4551,5.25324,11.8424,28.3757,4.30986,9.44556,28.8626,5.53761,9.51679,28.2098,5.28067
13.9022,0.142383,-6.97198,7.07,5.73052,-5.07793,7.75707,6.52071,-6.91781,5.82533,5.73379,-5.71769,7.0527,6.24283
50.1436,0.201369,7.74854,0.403044,-0.661482,7.94752,0.591095,1.2623,9.86949,0.615171,-0.894003,9.07696,0.598097,0.965142
15.4045,0.120645,9.40665,32.4928,4.47194,11.0299,32.316,4.10602,11.0504,32.0273,4.31035,9.80636,32.9972,4.09714
3.45058,0.266748,-3.48162,23.3527,6.43279,-1.27006,23.2404,6.58884,-1.20938,23.3406,6.57547,-1.56231,23.4152,6.58777
3.35173,0.0720281,7.67001,31.9711,-4.68721,7.78301,33.6579,-4.14094,7.63651,33.5983,-4.15477,7.54887,32.3967,-4.59834
71.057,0.372845,13.9546,17.5662,0.564099,14.0228,16.2757,-1.24625,13.9321,13.6579,-2.28632,12.3407,16.7353,3.16324
2.95807,0.135478,-11.5346,26.207,-4.63555,-10.8233,25.4868,-4.93412,-11.8364,26.0841,-4.70834,-11.3114,26.7058,-4.82123
9.60194,0.0626049,-2.36353,0.0389609,-0.470873,-3.40536,0.199537,-1.38449,-2.78352,0.278067,-1.80485,-3.02487,0.287472,-1.82282
51.355,0.0574955,0.806864,13.8474,-7.33888,-0.960808,15.0349,-7.32546,2.09366,15.6708,-7.32616,-0.420597,16.2052,-7.35585
0.502414,0.00974006,-14.4174,18.7071,2.17933,-14.4194,18.8564,1.77975,-14.4106,19.2606,1.78086,-14.4177,19.2863,1.57491
3.72044,0.140936,13.8299,13.8793,-0.745423,13.9446,13.9887,-1.48229,14.2322,14.197,0.203025,13.7786,13.5196,-1.18003
1.30997,0.561282,-8.64787,32.0553,-4.28938,-8.82097,31.5099,-4.36312,-8.67382,31.4995,-4.366,-8.46643,31.4965,-4.47131
14.2252,0.0557933,-5.59525,8.06013,-6.45794,-3.40847,8.60516,-6.71015,-4.79748,7.09942,-6.42894,-3.92941,9.27752,-6.6956
4.05455,0.0917579,5.19037,0.260043,-0.252477,5.65275,0.48462,1.26381,5.41883,0.566495,1.60964,5.58353,0.473097,1.20242
2.40941,0.0411681,1.90008,21.2654,6.425,2.00221,20.0197,6.88589,1.41851,21.6845,6.75038,1.92034,20.3359,6.834
5.78972,0.0463095,0.244429,21.0421,-7.21655,0.390813,19.0523,-6.85165,0.134871,20.405,-7.17534,0.414087,19.5573,-6.88529
1.00201,0.103463,-13.9376,16.4521,-1.20447,-14.0378,16.2447,-0.985606,-14.0433,16.748,-0.961225,-14.0458,16.806,-1.39026
2.46222,0.00207884,-14.3258,7.63242,0.69012,-14.3624,8.00224,0.976584,-14.329,8.36676,0.511276,-14.3675,8.96934,0.721177
5.84291,0.0801139,13.4088,7.34275,1.13107,14.127,6.77057,0.286024,14.0752,6.30078,0.4476,13.8271,8.11578,0.505024
3.27503,0.88697,-12.9511,31.2817,2.73647,-12.4463,32.1141,2.84642,-12.5574,32.2871,2.1354,-12.6431,32.3186,2.0393
19.9262,0.812727,-13.9089,15.6549,2.84732,-12.4523,13.6124,4.86037,-11.5307,12.9677,5.39304,-13.675,16.5458,3.60166
0.0157109,0.0464264,0.0691156,30.0462,-5.66891,0.208326,30.0386,-5.66858,0.145817,30.0734,-5.64923,0.0868911,30.0946,-5.66186
1.19686,0.0154086,-0.894287,9.82371,-6.90533,-1.26523,9.24258,-6.83824,-0.840631,9.36077,-6.84754,-1.27228,9.10472,-6.82571
10.1957,0.0696664,-5.55034,12.6232,-6.87019,-6.23681,14.4942,-6.84865,-6.93675,14.4779,-6.70173,-6.65953,14.3294,-6.7557
123.909,1.08157,-5.04015,1.00295,2.71457,-5.58639,0.169819,-0.742451,-2.8416,0.0505791,-0.353419,-6.47056,0.171288,-0.31967
25.5842,0.811533,-2.09513,0.109094,-0.202526,-4.08022,0.57616,1.54944,-3.6471,0.588818,1.66521,-3.4143,0.616614,1.75929
2.31605,0.0194947,5.03133,21.3798,-6.87214,4.39197,22.319,-6.38049,4.34867,22.1664,-6.47598,4.30195,22.3044,-6.40093
6.9018,0.0135373,7.07791,0.86197,2.42466,5.93353,0.539043,1.49634,7.77548,0.705425,1.82304,7.41165,1.00852,2.94448
0.0433733,0.0221772,5.10365,6.97935,6.4367,4.98295,7.02402,6.46931,5.18994,6.98423,6.45361,5.18805,7.02659,6.45609
2.31887,0.00746707,12.7157,7.42473,-3.86938,12.0144,6.99509,-4.42894,12.1276,6.60037,-4.34931,12.0711,6.58794,-4.39321
0.227937,0.00969117,14.3383,30.6399,-1.25818,14.343,30.8553,-1.15868,14.2861,30.5934,-1.44261,14.3097,30.9094,-1.2879
24.3372,0.224484,-13.8344,20.5475,0.992652,-13.9536,21.8919,1.85314,-14.3377,19.7467,1.22645,-13.5629,21.468,-0.0726538
3.89263,0.134655,13.1778,31.7501,2.94204,12.5417,30.9102,3.87693,12.3927,31.1691,3.85963,13.7797,31.1072,3.00774
2.51759,0.215856,5.19154,29.7532,-5.08666,4.8958,30.4664,-5.41721,5.13148,30.2668,-5.30398,5.05,29.2022,-5.50241
7.16247,0.279206,11.1337,24.4463,4.44897,10.6436,24.5338,5.16106,11.9733,23.6017,4.0159,12.696,25.8921,4.0185
106.4,0.0622845,6.19886,16.0143,6.16122,3.38302,17.9787,6.50228,3.41136,16.6315,6.87638,4.14221,18.0022,6.27141
5.48821,0.47678,10.853,18.2335,4.80737,12.4086,18.1432,3.25807,11.6321,17.9629,3.93935,12.1764,17.9815,3.67102
13.1868,0.289681,9.55468,9.92913,4.53529,8.75101,10.426,5.26967,9.55757,7.11288,5.49749,10.3427,9.82235,4.41792
6.34329,0.163703,10.5251,17.8804,-4.67514,11.5747,19.2168,-4.55895,10.0031,18.1273,-5.19199,11.5148,18.2993,-4.4132
2.23616,0.138782,-8.25729,8.65486,5.47325,-7.78231,9.4514,5.87523,-7.88008,8.43528,5.76587,-8.54212,8.65677,5.50553
6.69862,0.140017,-8.01015,29.3179,-4.76111,-9.9954,29.3044,-3.82992,-6.8335,29.2591,-5.00583,-6.43781,29.0105,-5.01617
32.959,0.0873235,0.193863,6.81576,-6.53516,0.20014,8.98938,-6.86952,2.38423,9.0245,-6.92941,2.54006,9.47783,-6.98476
5.14964,0.571633,13.7906,6.2089,1.23525,12.9233,7.55532,2.37915,12.9773,7.58729,2.00025,12.9585,7.79237,2.00861
3.21471,0.0251807,-6.60015,0.301257,-1.39245,-7.07601,0.371287,-1.99507,-6.79784,0.185693,-0.848534,-7.34528,0.338179,-1.80242
3.52601,0.205375,-5.85003,20.6263,-6.29345,-6.19854,19.9151,-6.75975,-6.11446,21.1979,-6.63718,-5.5486,20.7535,-6.35598
53.1631,0.0393815,12.0994,31.0466,-3.53549,11.6482,27.8131,-4.19024,9.81711,29.9114,-4.86017,13.0929,30.9293,-3.09502
10.4481,0.552097,-7.3189,25.0989,-5.1632,-6.15033,23.8063,-5.82202,-8.08369,24.8587,-5.57,-6.37969,26.9477,-6.05019
2.82615,0.090503,13.498,17.8358,1.59889,13.9205,18.0291,-0.00639577,13.955,17.9072,0.173253,13.1694,17.7877,2.12419
9.60142,0.656508,-4.81642,3.34763,5.37788,-5.88154,2.19219,4.14684,-4.56922,1.98261,4.44192,-5.48304,2.10962,4.2322
1.36041,0.291942,-12.56,23.13,3.95476,-13.1336,23.3392,3.65025,-13.1044,23.4268,3.65402,-12.9377,23.6612,3.77253
10.8034,0.23291,9.88276,21.2804,-5.1904,11.251,22.7809,-4.83118,11.1234,19.872,-4.83272,10.9488,19.567,-4.90914
2.36021,0.0529217,-9.39571,34.6616,1.50187,-9.57619,34.8073,0.484245,-8.94456,34.4339,2.45073,-9.2188,34.8479,0.362272
15.7933,0.426829,1.78803,33.2788,3.88119,2.0451,33.9297,3.77644,0.746776,33.2,4.72658,3.10019,32.5162,5.1726
9.91637,0.479405,7.8333,24.3234,-5.29789,9.76361,24.4395,-5.17802,7.81255,23.4453,-5.86541,7.65275,25.211,-5.80251
2.95428,0.50115,-3.9947,28.5574,6.18951,-5.63055,28.3759,6.06614,-5.57885,28.4677,6.02633,-5.79859,28.5978,6.03375
18.1797,0.489555,7.91664,18.4788,-5.47276,7.63413,20.5108,-6.33255,7.69597,17.904,-6.03121,10.1014,18.2875,-5.10186
32.9638,0.173568,9.23258,4.40626,-5.216,7.01138,3.14279,-4.86831,7.19581,4.6109,-5.50843,6.38947,3.77162,-5.27747
0.790244,0.132772,14.4613,20.921,-0.750586,14.473,21.4356,-0.811022,14.4603,21.2255,-0.595011,14.5005,21.2221,-0.439543
6.97224,0.0357326,-11.3763,32.5594,-3.47831,-12.3029,32.3548,-3.27803,-12.6885,33.1679,-2.79719,-11.3953,32.2309,-3.65157
12.8761,0.318103,13.6818,28.123,2.55274,14.4977,27.8695,0.988145,12.796,27.0344,3.64649,12.4629,27.8959,3.75437
6.92619,0.179112,-4.52535,25.8435,5.42774,-4.05305,24.8246,6.19326,-5.15309,26.1107,5.6901,-3.40833,23.8757,6.62306
8.13322,0.0209279,-3.03503,20.9614,-6.77087,-4.17622,20.7836,-6.80466,-2.91636,20.3128,-6.70263,-3.05447,22.3437,-6.83704
25.0208,0.536725,9.69564,27.4348,-4.50072,9.61402,29.8399,-4.90731,9.01345,26.4684,-5.47241,11.827,27.5575,-4.1484
4.13217,0.325817,-1.00786,17.3556,6.14527,0.0907157,17.5745,6.4067,-1.07773,16.359,6.77728,-1.19383,17.6931,6.38841
46.3784,1.62693,8.86857,17.9702,5.36468,8.54819,16.3305,5.79001,5.40606,18.0552,6.23077,7.06123,17.1094,5.6103
27.6521,0.59777,-8.39915,15.1615,5.47641,-6.48027,15.1913,6.17468,-8.53376,13.9952,6.38078,-8.31418,17.079,5.61471
7.35043,0.249296,-13.8778,17.521,0.809271,-14.0724,17.7922,0.523757,-14.0212,15.7857,0.785264,-14.4126,17.9249,1.67131
27.1466,0.562799,-4.83284,29.5311,-4.71875,-5.09413,28.261,-5.51677,-2.48064,29.6066,-5.3491,-6.69643,28.4726,-5.42899
3.32207,0.175951,7.68528,8.69076,5.05083,7.5822,8.15309,5.34305,7.5349,8.95224,5.13229,8.90518,9.02138,5.49333
280.208,0.94063,4.27227,13.0234,6.81797,2.84811,7.99337,6.65359,3.92835,8.77427,6.51284,1.93529,9.13348,6.5019
1.2541,0.251082,11.2321,17.3284,-4.48993,10.7051,17.6215,-4.66098,10.8647,17.8386,-4.53528,10.7183,17.572,-4.68582
0.0753165,0.0179238,9.88593,1.20637,3.29028,10.2497,1.1675,3.10019,10.8416,1.21219,2.90188,9.66921,1.1711,3.32714
8.0466,0.498671,13.3843,9.39148,-1.40297,13.7703,8.18717,-2.44839,13.9879,9.4943,-0.512961,13.7716,10.5727,-2.37189
0.0151478,0.00940018,10.8615,32.8988,-4.05038,11.0002,32.8708,-4.01243,10.9011,32.9087,-4.02546,10.8663,32.8571,-4.05431
8.29497,0.366593,-2.56165,27.7113,6.17843,-4.19051,26.4379,5.70876,-4.32073,26.0946,5.56609,-4.30476,26.0533,5.55826
9.23906,0.230435,-0.999004,24.9996,6.47736,1.88188,25.7949,6.58098,1.92655,25.9263,6.5071,2.05712,25.4623,6.86066
14.245,2.39471,2.91279,4.68071,5.85853,-0.118962,5.12842,6.32171,-0.535481,4.65739,6.065,-0.478279,4.76442,6.09031
18.5722,0.401429,-1.55574,14.9714,6.59869,1.36359,14.1055,7.12672,-1.07535,16.2182,6.84763,-2.1954,14.426,7.06941
12.1015,0.0640272,-14.4437,29.8962,1.87254,-14.5008,29.0904,1.36124,-14.5973,29.5638,0.709566,-14.5945,29.2756,0.528679
5.92165,1.27906,7.88761,15.4759,5.90786,6.75213,16.8768,5.69204,6.41998,16.9278,5.92814,7.0189,17.07,5.62176
0.853113,0.0928386,10.8618,15.2173,5.17412,10.5974,15.286,5.35265,11.2011,15.2959,4.62318,11.1162,15.3153,4.85254
4.02395,0.119991,-14.2013,20.4979,2.38958,-14.1868,20.7959,1.98263,-14.269,20.1406,1.51001,-14.3593,19.9887,1.83364
0.00552226,0.00937585,14.6211,27.5205,1.30659,14.6306,27.531,1.247,14.6239,27.5731,1.26233,14.6213,27.5764,1.34472
0.0964234,0.0134447,8.84156,11.743,-6.02472,8.9784,11.8049,-5.98213,8.88466,11.8832,-6.013,8.82422,11.8745,-6.03693
7.10539,1.19914,14.3062,23.2226,0.276642,14.2862,22.3604,1.342,14.4699,22.2223,0.981248,13.5541,22.7663,2.42666
2.94609,0.243738,-2.32623,6.42838,6.6144,-1.89497,5.30574,6.28758,-2.5954,5.8932,6.47959,-2.59921,5.93897,6.47793
9.43972,0.26936,-2.49465,25.016,6.50782,-0.928634,24.0656,6.88724,-1.2105,24.9406,6.48479,-1.69847,23.9739,6.77919
7.1275,0.383584,2.2515,18.9552,-6.42711,1.95505,20.955,-7.10439,2.82178,19.6699,-6.80701,2.09324,21.0908,-7.09715
1.15869,0.0339277,1.04319,24.0305,6.88528,1.93733,23.7143,6.55645,1.39321,23.7025,6.6241,1.9432,23.6701,6.52132
20.4473,0.878115,-3.13491,3.86688,5.93776,-7.63334,3.56261,4.79941,-8.56848,4.12717,4.88325,-9.01206,5.00711,5.05339
53.9534,3.68029,-9.31721,18.0445,5.41922,-3.27598,18.1974,6.44121,-3.96829,17.593,6.22325,-5.71916,16.321,6.39042
1.55993,0.198207,-12.2003,5.61132,3.63502,-12.7874,5.5207,3.47863,-13.3802,6.123,3.4857,-13.0933,5.4383,3.50258
35.9284,0.96219,-11.7463,29.1037,-3.01919,-12.9621,28.1475,-3.66616,-12.245,30.8819,-3.57047,-13.3375,29.9607,-3.19139
0.911953,0.0141739,-14.1266,22.004,-3.39891,-14.1117,21.8166,-3.02471,-14.1021,22.0366,-2.80204,-14.1066,21.9015,-2.85119
7.93395,0.0253264,8.54438,14.1024,-6.22244,7.49352,14.7364,-6.54699,7.78232,14.1273,-6.44492,7.73427,15.0472,-6.49967
0.810145,0.0685709,13.4636,23.5538,-2.20457,13.7399,23.6335,-1.68499,13.8226,23.4951,-1.66277,13.4172,23.5911,-2.44867
4.57391,0.0143311,2.35108,20.0846,6.87463,2.96484,19.1995,6.96104,1.98813,18.7796,6.96152,3.10289,19.2063,6.96428
4.4013,0.218984,-13.079,4.83999,3.36967,-12.6227,4.78551,3.75357,-13.1363,3.72282,3.28923,-13.1478,3.45088,3.21227
0.114223,0.00599505,-14.3562,15.7644,1.95089,-14.3776,15.9387,1.93743,-14.3722,15.9341,1.85866,-14.3685,15.8654,1.98337
1.98123,0.187988,-3.60631,20.627,5.95571,-2.35023,19.908,7.04981,-2.69581,19.5113,6.93752,-2.76582,19.5554,6.88795
3.90966,0.0280491,-9.69215,34.8419,-1.22664,-10.8212,34.8045,-1.47037,-10.7479,34.7137,-1.77801,-9.84551,34.6766,-1.89012
1.13403,0.0358887,9.77388,16.6646,-5.77369,10.4337,16.5483,-5.43274,10.3223,16.482,-5.50262,10.5967,16.679,-5.32842
32.2298,0.490756,1.54871,10.2831,6.65573,0.203514,11.3743,7.18259,-1.03499,10.2803,6.52096,-0.423456,9.51469,6.43754
0.0636549,0.00154096,13.0965,15.1215,-3.67622,13.209,15.1027,-3.56865,13.1195,14.9891,-3.67177,13.2183,15.0578,-3.56648
3.43934,0.0482046,-11.3327,31.448,3.67002,-11.2295,31.2506,3.89998,-10.82,31.8896,3.83586,-11.4133,32.174,3.3086
2.88875,0.087781,-8.3294,30.0155,-4.63866,-6.90676,30.6912,-4.90484,-9.11421,29.5408,-4.32318,-6.97597,30.6928,-4.89649
2.95823,0.00196332,10.9164,26.1413,-4.57648,12.2793,26.8252,-4.04042,12.1731,27.4217,-4.05367,12.4847,27.2345,-3.94658
2.16729,0.65987,6.54286,17.5436,6.03549,5.71095,17.4627,6.09473,5.41125,17.9179,6.17867,5.6354,17.635,6.0601
2.58912,0.314818,-2.36276,2.55537,5.35143,-1.78865,3.36846,5.8023,-0.784539,3.2829,5.85558,-2.49621,3.3217,5.752
0.352833,0.00222282,-14.2097,11.4964,-0.846099,-14.3203,11.3565,-0.364254,-14.3116,11.4657,-0.404637,-14.2712,11.574,-0.585189
2.99065,0.924326,-7.67194,22.8232,-5.94263,-9.42315,22.897,-5.45306,-9.50134,22.8545,-5.43688,-8.92084,23.2466,-5.78713
0.419922,0.148854,4.93155,4.71669,5.59662,5.22738,4.63692,5.60012,5.12778,4.67782,5.54034,5.21631,4.78588,5.62005
3.11873,0.0141417,3.21043,31.0584,-5.04653,3.0365,31.49,-5.18961,3.95358,31.5729,-5.2114,5.25314,31.5635,-5.19628
3.31366,0.1334,-8.92279,21.9572,-5.72287,-8.87793,22.6926,-5.6746,-8.72703,20.8385,-5.46829,-8.80682,20.8447,-5.46574
4.19544,0.128647,-8.78263,4.15679,4.85555,-10.0589,4.94261,4.56473,-10.1296,5.13037,4.60964,-9.99037,4.70458,4.49391
46.1988,0.119716,0.571874,0.0702806,-0.306441,1.07336,0.529095,2.00324,-0.957256,0.508094,1.78104,-1.64218,0.373168,1.2067
10.2528,0.238209,12.3289,10.5143,3.20004,13.4195,10.3922,1.68328,11.5501,10.2909,3.88658,13.0596,10.2486,2.2908
5.3203,0.276056,-10.9403,18.3536,4.2573,-11.4626,18.2654,4.30358,-10.6871,19.3313,5.01714,-10.5204,17.7019,4.55351
7.55021,0.0682463,-14.3396,20.0511,-2.34685,-14.3877,19.2595,-1.93819,-14.1603,18.8734,-3.09294,-14.2966,18.475,-2.52136
13.3558,0.323891,-12.8377,3.09694,3.19578,-9.69502,2.71843,4.41232,-10.2801,3.25611,4.29363,-9.94054,3.45621,4.41157
11.7903,0.414246,-11.6418,24.6803,-4.03272,-13.3573,24.4874,-4.01288,-13.6991,25.6916,-3.69738,-9.83905,24.8891,-4.94952
33.8878,0.743469,-6.73112,15.4869,6.10232,-3.5202,15.3588,6.87231,-3.95311,14.2373,6.9776,-3.26396,14.5465,6.95051
0.649875,0.147531,-10.3408,34.0689,2.55519,-10.0446,34.5391,1.8598,-10.0628,34.4766,2.0256,-10.2093,34.4374,2.04538
14.8648,1.90005,-10.9944,28.3167,4.88498,-12.6781,26.832,3.39827,-12.7211,26.938,3.37472,-13.0231,27.7174,3.31054
5.5345,0.468013,-12.4052,18.1149,3.33368,-13.5094,19.1715,3.89955,-11.6643,18.2618,4.27831,-12.821,17.7976,3.56036
4.27381,0.179916,8.85814,27.431,5.37241,9.95248,26.877,5.03305,9.68833,27.7235,5.11293,10.246,27.3602,4.84174
10.6361,0.443992,-9.88318,33.1206,-3.58581,-10.0556,30.3222,-4.16249,-9.92137,30.2247,-4.16154,-9.85211,29.9904,-4.16927
0.982906,0.100977,6.4218,25.0157,6.64729,6.31775,25.5476,6.49955,6.09649,25.7204,6.46096,6.16208,25.7675,6.41833
2.72488,0.230315,-11.1702,28.4807,-3.64112,-11.4746,27.7229,-4.53655,-11.6441,28.7349,-3.52616,-10.3049,28.9472,-3.92264
0.0477554,0.0146937,3.67344,21.5958,6.52583,3.79897,21.4636,6.53433,3.78609,21.5932,6.553,3.73965,21.6469,6.54481
13.1813,1.01381,-1.11535,6.73894,6.77193,-0.13916,7.07196,6.83139,-0.991387,9.00782,6.35822,-1.24773,9.39954,6.63149
5.85016,0.604674,-13.3503,15.3907,-1.34481,-13.7766,14.6091,-2.16434,-14.0512,14.5022,-0.123076,-14.0235,16.1415,-1.41404
0.159327,0.0528334,14.2921,29.752,2.52867,14.1053,29.5457,2.76848,14.0967,29.6622,2.81274,14.1362,29.5662,2.70451
1.12807,0.34855,4.9196,31.1219,-5.10207,6.76725,31.6208,-5.17254,6.72913,31.5547,-5.19764,6.53798,31.6439,-5.18074
1.67074,0.383208,13.1398,5.33905,1.66468,13.9815,5.45694,0.568388,14.0087,5.49473,0.505584,14.0145,5.65098,0.523754
7.08272,1.10167,11.4005,14.7847,4.53549,11.4752,12.665,4.90992,11.2729,12.7904,4.97389,11.1295,12.8232,5.08591
6.65362,0.24849,3.54302,7.43387,6.25638,3.75595,6.22767,6.54142,2.9306,7.76347,6.65044,4.34751,8.21662,6.25035
1.30706,0.290601,-7.82296,10.646,6.20395,-6.90835,10.5097,6.29153,-6.78381,10.7061,6.29912,-6.86844,10.7335,6.32138
6.69714,0.150817,-10.2485,25.9226,-4.96443,-8.18928,27.1692,-5.81057,-9.50987,26.9495,-5.4411,-9.63936,25.4348,-5.21807
0.762737,0.221256,-9.39431,26.3659,6.03051,-9.94617,26.6271,5.64009,-9.84271,26.7428,5.68123,-9.83409,26.7874,5.68712
1.9141,0.0407497,-2.19298,14.1723,-7.17523,-3.02376,14.441,-7.19529,-2.10861,14.4881,-7.23044,-2.34455,13.7651,-7.19589
8.79263,0.368753,1.46372,29.3308,-5.2325,1.74942,30.3309,-5.14758,1.11133,29.0287,-5.76876,2.7789,29.462,-5.81988
1.76289,0.374371,12.2524,17.6862,2.76855,13.051,17.8265,2.24418,12.4012,18.073,3.12533,12.3823,18.0929,3.2767
82.0171,2.05683,4.16376,22.6989,-6.16643,4.03536,26.1052,-6.44074,5.82061,26.1692,-6.56865,7.02968,25.5717,-6.08419
11.4217,0.427374,3.3515,24.1888,-6.3059,3.62604,25.3147,-6.46336,4.5197,24.1803,-6.51886,2.11171,25.5451,-6.71845
18.1158,0.0439321,1.68807,23.3573,6.16868,2.04724,21.4156,6.4744,2.76436,21.4189,6.62375,2.88737,23.16,6.40197
2.98783,0.149827,-7.77999,9.49571,5.88647,-7.43671,9.59192,6.02224,-7.19684,9.84452,6.27047,-7.10823,10.2284,6.3695
7.03905,0.281362,11.9004,24.4541,-4.04787,12.7242,25.3237,-3.78037,12.0442,25.4231,-4.22463,11.8398,25.2817,-4.36984
1.73177,0.477069,7.69455,15.0517,5.90815,9.01229,15.1541,5.78757,9.10158,15.0202,5.80668,9.09622,15.0646,5.78837
3.85834,0.187016,0.491139,8.45815,6.483,1.00795,6.80839,6.84573,0.801978,6.65759,6.8234,0.555471,7.37698,6.74464
9.74422,0.0242646,10.8783,28.7112,4.89419,9.86664,30.7763,5.14232,9.91878,30.1683,5.08835,10.9673,29.7808,5.00475
7.55897,0.494821,3.59597,23.0523,5.83533,3.52173,21.4879,6.51217,4.40605,23.1244,6.19656,2.86153,23.4774,6.41904
2.40784,0.227556,9.16404,15.1127,5.763,10.5818,15.2934,5.36172,10.2483,15.3339,5.50354,10.6045,15.1948,5.36546
0.262554,0.0018982,14.6555,26.8208,-0.201106,14.6692,26.7121,0.143973,14.6773,26.7803,0.245766,14.6738,26.8418,0.115208
10.2262,0.179183,7.62069,6.76158,5.75374,7.59081,5.60412,5.76766,7.73926,8.15837,5.32111,8.36571,7.54498,5.80783
3.14207,1.19778,4.74732,14.3468,6.42288,3.36351,14.4491,6.28391,3.60559,15.256,6.87361,3.31329,14.355,6.26457
18.5161,0.452736,-12.47,20.6308,-4.4401,-12.9852,21.1704,-4.8172,-9.30577,20.6856,-5.60646,-12.7741,19.6842,-4.79016
2.07853,0.112394,-5.49531,20.5538,6.21416,-4.46235,19.1374,6.84803,-4.85519,19.7001,6.64578,-4.67377,19.264,6.78145
24.0889,0.242927,8.96862,23.4216,-5.54753,6.24537,23.3199,-5.94303,11.2177,23.3047,-4.74967,6.06881,23.1732,-6.17373
4.46567,0.399187,0.0884893,27.4204,-5.54531,-1.26639,26.2467,-5.9664,-1.02848,26.3682,-5.81533,-1.27351,26.2021,-5.9733
2.14077,0.212201,-10.6511,6.25108,4.88323,-10.9837,7.56581,4.84075,-10.7127,6.77636,4.9979,-10.8864,7.00899,4.94909
11.3876,0.416693,-4.25454,5.00232,5.8303,-0.612279,4.94845,6.14883,-1.01879,4.59045,6.06771,-0.475921,4.80945,6.10942
5.1099,0.486085,-0.367318,23.0317,-6.13569,1.0828,23.0618,-6.60847,-0.65593,22.6828,-6.65312,-0.473137,24.1923,-6.53318
5.25671,0.416977,9.97758,18.9354,-5.04173,10.6248,18.7452,-4.89274,10.3451,20.5249,-5.27015,10.3846,20.5824,-5.221
0.907499,0.321461,6.83786,25.0288,6.58492,7.39741,24.7689,6.44232,7.47882,24.6361,6.46367,7.38276,24.9071,6.44888
2.6842,0.538004,5.99683,23.0845,5.87821,7.65468,22.9527,6.06345,7.57563,23.0364,6.02896,7.12541,23.2902,6.00364
6.63395,0.104555,13.857,23.305,-1.91953,14.1323,22.825,-1.10325,14.266,22.8207,-0.158776,14.2563,23.0749,-0.0249304
1.21651,0.0970221,11.2912,12.1791,5.10959,11.0947,12.8006,5.13479,11.0634,12.4308,5.22383,11.142,12.7812,5.07288
6.98163,0.292073,-0.258287,22.8434,6.17437,-0.435444,23.1811,6.43909,-0.218202,21.4914,6.51859,1.05399,23.2185,6.58276
13.93,1.22622,-11.7306,33.038,2.70023,-12.5918,33.8574,1.49616,-13.2,32.3577,1.86753,-12.4332,34.1923,1.23023
11.0178,0.397475,-2.65775,16.0196,6.57869,-2.93939,12.3632,7.14093,-2.99385,13.2326,7.07567,-2.87113,12.4151,7.15406
3.51484,0.0489682,-12.6976,29.7951,3.19568,-13.1083,28.5518,3.56174,-13.1604,28.5258,3.50487,-12.8768,29.0738,3.53182
0.652185,0.0136445,4.22147,0.297771,0.404071,3.87746,0.406058,1.11731,4.03583,0.237787,0.143763,3.92352,0.407207,1.1226
14.5529,0.25528,-3.74511,0.775958,2.21503,-2.29431,0.848529,2.54277,-2.08417,0.61926,1.89922,-2.06219,0.676877,2.11305
3.06934,0.23297,-10.7523,14.9457,-5.15693,-11.3368,14.9287,-5.1054,-10.6607,14.6712,-5.44327,-10.9441,15.9242,-5.42259
6.78574,1.07849,13.4897,23.9416,-2.1006,13.5234,25.4235,-1.91716,13.7014,25.19,-1.37555,13.6441,25.6538,-2.10585
7.31845,0.371122,3.81168,28.711,-5.44737,3.45556,27.8907,-6.31805,3.69299,29.2928,-5.57276,6.57246,28.5188,-5.76799
2.25935,0.0675477,-10.7894,27.602,-4.89202,-11.2445,26.7017,-4.83073,-11.1771,26.6991,-4.84562,-11.0505,26.4166,-4.86451
21.2983,0.349571,12.7579,2.26095,2.24785,8.1657,1.54579,3.87967,8.23933,2.21307,4.40272,9.18628,1.91916,3.79913
36.9525,3.03578,-0.959684,28.4895,6.32273,3.90695,28.5967,6.3115,1.94349,30.0954,6.1714,2.4106,29.7348,6.55093
47.4126,0.259475,-9.59403,32.6954,3.4702,-9.47856,31.0325,4.98522,-7.7838,33.3418,4.414,-8.96358,31.3705,5.22208
3.6683,0.074159,5.20178,9.17567,6.15704,4.4938,8.17794,6.26142,4.55929,8.40968,6.24787,4.19372,8.58533,6.3577
0.454298,0.100561,-1.00717,27.8949,-6.35171,-0.982333,28.1681,-6.27814,-0.914991,28.2124,-6.27996,-1.12312,28.2205,-6.28957
3.47825,0.0071498,-3.00057,21.7454,6.2632,-2.37546,22.7858,6.72025,-2.37456,22.8325,6.73442,-1.85634,22.8205,6.845
3.66947,0.110832,13.2708,30.1877,3.62943,14.1687,30.4458,2.75764,13.7854,30.8002,3.07421,14.092,30.66,2.78201
0.331974,0.0718222,6.04849,34.794,-1.25477,5.77749,34.822,-1.16175,5.64095,34.8111,-1.29724,5.70512,34.8097,-1.25205
13.1426,0.687831,-0.0886213,21.2535,6.30554,0.230546,18.8345,7.01659,1.30829,21.2658,6.77577,0.197891,19.5706,7.00188
28.3473,2.88286,-14.4008,19.0435,1.11834,-14.2838,18.4165,-2.09213,-13.9692,17.8192,-1.55952,-14.0329,16.9725,-1.02394
4.86476,0.015932,-9.62508,33.9806,-2.9054,-10.0072,33.7467,-3.19663,-9.50147,34.5842,-2.1607,-10.334,34.6091,-2.0445
2.44993,0.466987,12.038,21.6445,3.71981,11.3593,21.2203,4.71927,11.2353,21.7382,4.65741,11.3068,21.5221,4.61554
0.465266,0.32987,-14.6918,29.282,-0.510761,-14.6772,28.9462,-0.567086,-14.6873,28.8949,-0.432977,-14.6813,28.985,-0.676113
5.59346,0.767985,1.55346,24.191,-6.70119,-0.304221,24.7355,-6.51127,-0.671746,24.9862,-6.63953,-0.468046,24.2864,-6.54413
13.9002,0.774997,7.6108,31.8734,-4.69304,6.75377,28.3476,-5.79105,7.39831,28.2864,-5.40259,7.52225,28.3439,-5.33409
5.71598,0.377292,1.51778,32.5031,-4.71434,1.9211,31.2451,-5.15029,1.68121,30.4725,-5.16325,1.55577,30.8928,-5.14428
12.0654,0.148642,-2.48517,31.4158,5.81019,-0.996862,32.994,4.97667,-0.661825,32.7436,5.12294,-1.74377,32.8202,5.00898
9.24535,0.13021,11.3528,6.86835,-4.84123,12.1679,8.14257,-4.32226,11.6687,8.32248,-4.65241,10.96,8.00595,-5.05763
6.97831,0.109877,14.6536,30.2906,-0.000362019,14.5618,31.2648,1.6278,14.6443,31.3816,0.991216,14.6879,30.0369,0.582557
0.721952,0.000410625,-13.3616,25.3786,3.25165,-13.584,24.9503,2.92482,-13.6334,24.9217,2.86041,-13.5639,25.2231,2.98234
10.1102,0.136227,-4.24835,8.41102,6.59232,-5.65907,7.99454,6.39988,-6.5148,8.60051,5.97107,-3.04322,8.42868,6.63359
11.8231,0.349915,-2.49143,17.6445,6.07004,-3.0616,18.1017,6.37237,-2.58061,16.112,6.55912,-1.12978,17.9323,6.41354
1.37184,0.0638565,10.5304,7.03031,4.63788,10.5651,6.13891,4.51078,10.7098,6.28894,4.51853,10.6375,6.14116,4.49934
79.9789,0.0112208,6.9259,15.7775,-6.66994,6.1977,11.7018,-6.64809,7.91423,15.2158,-6.43749,7.50276,12.4325,-6.41307
21.8227,0.115718,-5.06168,20.0008,-6.80394,-3.55796,18.9182,-6.90776,-3.65393,18.4171,-6.80684,-4.50122,18.135,-6.65568
5.93229,0.88382,-2.85739,22.9738,-6.58328,-5.24973,22.8045,-6.2,-5.15508,22.9377,-6.20998,-4.39132,23.3195,-6.55925
1.86181,0.667259,-3.82647,10.8602,6.88842,-3.43202,11.6765,6.99105,-2.99772,11.5694,7.07397,-3.16697,11.6388,7.01374
1.57398,0.415115,-11.2992,19.3917,4.83438,-11.9955,20.1907,4.5272,-12.0054,20.0571,4.48197,-12.2514,20.0678,4.4416
0.261792,0.0185941,11.8105,1.23094,2.37687,11.3247,1.29616,2.69446,11.4697,1.15992,2.4384,11.4209,1.18951,2.50071
0.442396,0.00614755,-13.7865,7.40795,3.39911,-13.8964,7.07671,3.20223,-13.8242,6.95516,3.28812,-13.6442,7.07139,3.54734
9.26532,0.598456,0.102839,26.5435,6.12439,-1.41948,26.9151,5.94693,-1.59889,26.5889,5.98991,-2.28486,27.9075,6.22006
2.96551,0.467008,-9.77721,28.7937,-4.34747,-9.68984,28.243,-4.62649,-9.48199,28.2296,-4.74789,-8.66964,28.338,-5.35318
9.59451,0.175546,-1.84572,10.2845,6.46834,-4.04381,10.4234,6.7165,-1.2171,10.3706,6.64221,-2.30876,9.15382,6.50389
34.8571,0.672675,6.55774,10.3559,5.2221,5.70587,10.9645,6.25341,8.98762,9.91487,5.14559,6.26952,8.64179,5.82671
7.09559,0.883762,-10.5547,14.7806,5.21038,-11.1767,12.7378,5.49258,-11.5629,12.6851,5.42969,-10.9927,12.5807,5.66491
5.40357,0.326046,11.8736,18.6856,-3.62282,13.095,18.4815,-3.31408,11.4543,18.1505,-4.43358,12.1201,19.3046,-3.68713
2.22673,0.312576,-12.6241,17.6396,3.7177,-13.0502,16.996,3.87595,-12.9636,16.8595,4.05146,-13.0613,17.1023,3.8229
1.71209,0.0995126,13.6195,29.053,-2.89371,12.9825,29.8478,-3.37276,13.1657,29.793,-3.24128,13.0585,29.0967,-3.44433
1.56882,0.00838613,10.5277,7.33217,-5.2208,9.67282,6.7799,-5.53846,9.80673,6.71262,-5.47156,9.93239,6.73212,-5.41877
7.61362,0.079207,-10.2382,16.0151,5.03233,-10.593,14.8839,5.17919,-9.54842,15.3443,6.00124,-10.1856,14.5763,5.77393
8.33959,0.633853,-11.5296,22.7116,3.76149,-11.6163,24.3122,4.63158,-10.7102,22.1314,4.682,-12.9273,22.4575,3.87384
10.1924,1.12421,7.3212,14.5446,6.11942,6.52491,15.4867,5.8165,7.02573,15.94,5.9051,6.28113,15.6459,6.12597
8.68094,0.287528,-10.9231,26.3319,4.7724,-10.031,27.1987,5.40154,-10.1181,27.6963,5.34778,-9.78474,27.1601,5.66997
7.63997,0.34353,10.6521,9.84781,4.04345,11.5342,10.3394,3.88586,10.7765,9.31527,4.26348,10.9161,10.7392,4.49828
7.10511,0.286172,12.3681,11.9592,3.44646,13.4566,11.7746,1.66533,13.5534,11.2939,1.73801,13.4517,11.8839,1.60651
1.90832,0.965907,-12.1714,9.78721,4.65655,-12.3674,9.01493,3.97874,-11.8924,8.80501,4.11856,-12.0492,8.99358,4.00354
4.28859,1.19658,8.81193,5.12915,4.11986,10.5215,5.27595,3.73047,10.5956,5.22471,3.66178,10.8373,4.9959,3.5791
3.62043,0.210223,0.0330491,21.2369,-7.21698,0.222238,22.0069,-7.0911,-0.465837,22.0838,-6.98033,-0.570352,21.8617,-7.07932
2.04383,0.229861,0.811558,29.5169,6.01088,0.872919,29.2679,6.27178,1.0981,29.6366,6.13465,-0.0251931,30.207,6.46806
2.41314,0.323209,-8.06373,23.3486,5.8921,-9.64157,23.2743,5.46361,-9.50905,23.4351,5.47709,-9.51425,23.3836,5.47519
37.5625,0.659955,-5.00774,25.542,-5.5251,-2.07233,25.7329,-6.21709,-5.5403,27.9177,-5.76011,-5.99816,26.1036,-6.07633
0.295046,0.00245414,-4.42908,24.2927,-6.50851,-4.70842,24.1165,-6.51858,-4.4092,24.5162,-6.46877,-4.33795,24.56,-6.46707
9.49984,0.36534,13.5365,18.3459,-0.426319,14.1762,19.6643,-1.62384,13.8363,18.3063,0.0253274,14.0369,17.2273,-1.79951
14.5891,1.27988,-12.4339,24.4526,4.15716,-12.2677,26.6989,3.75154,-11.0244,26.7996,4.60923,-11.3195,26.6162,4.32424
103.738,2.00756,11.868,22.7881,3.33098,13.8848,21.2996,2.54087,14.2432,22.857,1.03492,14.2275,24.8861,2.40691
5.63454,0.00102,-10.8437,10.7435,5.33391,-12.7785,10.5121,4.45834,-13.2621,10.5515,4.22969,-12.7132,10.0151,4.5372
13.6801,0.360275,11.3681,30.0011,4.35013,13.132,29.9188,3.78153,11.5654,29.2216,4.56148,12.955,29.0445,3.77424
6.31791,0.373412,-7.42494,0.151185,-0.122957,-7.67887,0.64583,1.77769,-7.51122,0.3902,-1.97197,-7.46512,0.660468,1.80722
9.31183,0.344283,10.5819,26.23,-4.6944,9.2421,25.7831,-5.20423,8.56979,25.9394,-5.29629,11.5089,25.6058,-4.49401
48.9432,0.876191,2.9711,0.241405,-1.30512,6.20484,0.311952,-0.0942013,5.63699,0.35521,0.763568,5.72426,0.457618,1.17082
4.5323,0.0804252,12.5608,21.856,-4.08518,13.0388,22.0181,-3.63837,13.1972,21.0822,-3.45395,12.6062,21.096,-3.89707
16.6455,0.348463,-5.96245,29.3962,-4.58693,-5.03262,29.6334,-4.70777,-6.14407,31.6602,-4.35768,-6.09851,33.0382,-3.96371
22.6311,0.0680186,-14.2943,13.2653,0.244577,-14.3496,11.7136,0.0631324,-14.2451,11.8632,-0.708,-14.2276,12.4048,-0.810399
13.1855,0.328399,9.49447,31.0897,-4.4026,11.6642,30.9663,-3.77658,9.47856,29.9152,-4.95967,9.37541,31.9018,-4.69699
5.43972,0.0662957,-5.58521,22.9551,-6.05861,-7.61563,22.8188,-5.94963,-6.16811,23.6705,-5.87049,-5.23929,22.8489,-6.19336
1.85537,0.180263,14.1269,5.01232,-1.65401,13.7073,4.37,-2.83635,13.6979,4.41512,-2.8365,13.6294,4.62938,-2.91521
0.0398415,0.0168247,-14.5603,26.6537,-1.45519,-14.566,26.6049,-1.32928,-14.5687,26.7749,-1.42149,-14.5655,26.7183,-1.36893
13.4429,0.314325,0.401987,32.0631,5.19629,2.38213,31.928,5.76451,0.669797,30.32,6.31092,2.05856,32.4478,5.5139
8.92667,1.42314,-11.7964,16.6006,-4.88173,-11.4511,15.0693,-5.06771,-11.3818,15.0663,-5.09164,-12.489,15.0805,-4.62233
4.85737,0.318333,2.83036,14.2403,6.29807,2.56118,14.8766,6.84939,3.30712,14.4026,6.26718,2.73931,13.2417,7.01641
5.24729,0.404695,7.49092,27.3946,-5.45318,7.59015,28.309,-5.33592,6.68885,27.1446,-6.25122,6.75831,27.3112,-6.13151
1.25953,0.129724,-10.3564,5.82467,4.7697,-9.5153,5.62143,4.94302,-9.15651,5.62118,5.08722,-9.15183,5.66344,5.09412
175.129,0.121581,-5.47581,9.48402,-6.63537,-0.826857,8.11368,-6.71977,-1.67953,9.49465,-6.87056,-2.43718,6.25077,-6.43548
10.6546,0.357658,-4.63977,0.164552,-0.746315,-5.67458,0.259534,-0.0324777,-5.23498,0.613455,-2.51926,-5.3489,0.181079,-0.603434
1.20004,0.0532952,0.33681,0.201431,-1.22717,0.744481,0.0941048,-1.03943,0.0750517,0.147193,-1.18174,0.791385,0.147011,-1.30765
38.2437,1.72691,3.24056,21.0998,6.34432,6.80795,20.9403,6.74263,5.45783,19.6968,6.52474,3.53309,18.8503,6.87834
20.6771,0.250867,-3.00443,9.35913,6.67848,-1.70164,7.07573,6.74609,-2.28925,7.4563,6.69433,-1.42471,8.41104,6.55344
6.3513,0.0774455,-14.1908,17.038,-2.42515,-13.9889,18.3252,-3.39873,-13.8836,17.6085,-3.35842,-13.647,16.9313,-3.72084
1.46203,0.0954798,12.3824,31.8374,-3.42397,12.9779,31.6485,-2.91522,13.5027,31.6271,-2.49878,13.6046,31.7004,-2.37075
13.6566,0.0152582,1.27748,0.174968,-1.23311,1.8901,0.119925,-0.067407,0.744088,0.154578,0.288753,2.00432,0.144843,-0.845631
9.33865,1.93487,-3.54784,23.2959,6.42818,-7.98721,23.3546,5.90631,-6.55635,22.6469,6.47228,-8.21599,23.5257,5.85924
20.9192,0.174892,-14.0885,6.55265,-0.88255,-14.3066,5.6968,1.19856,-14.3127,5.6058,1.16847,-14.2057,4.92123,-0.121023
12.7021,0.751261,8.90466,3.20492,4.28424,11.1348,3.55206,3.38554,10.2516,2.451,3.92165,11.1414,3.50327,3.36815
6.05937,0.268567,-6.94424,8.41908,5.75456,-7.66343,8.71945,5.85212,-6.58686,7.78177,6.13619,-6.37541,9.27496,6.13344
5.21956,0.229986,1.6637,16.0197,6.7047,2.22206,14.8701,6.93688,1.74651,14.2417,6.86848,1.89708,14.2468,6.882
14.3864,0.246078,10.5117,6.45037,-5.2064,7.97361,6.32322,-5.86939,8.3044,6.54456,-5.85187,8.32264,5.59472,-5.68239
2.13674,0.227528,9.17867,25.0956,5.25693,9.57329,25.5678,5.28271,9.61834,24.7795,5.2671,9.02495,25.2647,5.60864
2.52194,0.257787,-2.27791,26.8234,5.90681,-2.47315,27.34,6.1389,-1.47386,26.6351,5.94669,-2.756,26.3387,6.46133
0.493715,0.344118,11.7219,12.8759,-4.72375,11.9719,13.3866,-4.58303,12.0836,12.4981,-4.4686,11.9777,13.3427,-4.57871
1.55582,0.0989145,3.13287,12.0585,6.98688,3.82894,11.3211,6.66757,3.75911,11.5109,6.74814,3.41485,11.4552,6.82209
23.8576,0.00745559,3.24786,0.600695,2.08896,2.63825,0.245149,0.753391,4.01475,0.415168,1.17052,3.1197,0.175187,0.352835
0.0188653,0.0470013,6.66049,27.828,-6.07005,6.57658,27.9085,-6.06033,6.55984,27.9571,-6.07934,6.63045,27.9159,-6.05422
9.01697,0.36661,-13.2371,21.5773,-0.909262,-13.8796,20.9084,-0.49789,-14.096,21.5703,-2.51474,-13.3013,22.1839,-0.703883
3.13938,0.400866,9.2608,28.4202,5.46505,8.09762,28.2445,5.70226,7.75193,28.3728,5.78667,7.59822,28.514,5.91063
25.0263,0.431329,10.0365,23.2295,5.22448,7.33549,23.3012,5.99441,11.9484,23.1521,3.64272,11.5793,22.7178,4.22562
8.2118,0.331269,11.9297,23.3615,-3.89314,11.8604,24.2146,-4.0598,11.3807,23.0481,-4.6917,12.8292,23.5703,-3.71778
3.05542,0.0459263,-1.26175,22.9442,-6.71807,-2.8077,22.877,-6.59097,-2.79134,22.9744,-6.59155,-0.955322,23.0691,-6.68783
12.4341,0.0697931,12.1597,32.627,2.78927,13.2865,32.0864,2.67844,12.5038,33.4738,2.16807,13.8012,32.7884,2.1669
2.2884,0.110642,-9.49612,3.23594,4.35444,-9.62077,2.7711,4.42617,-9.93888,3.40528,4.39371,-9.04931,3.23859,4.5477
0.128785,0.00800437,0.393738,34.0521,4.14286,0.257908,33.9267,4.2928,0.178601,34.0088,4.19846,0.186256,33.9263,4.29849
14.6806,0.00937293,-14.3922,10.8115,1.01218,-14.403,8.92322,1.14387,-14.2285,10.3758,-0.71286,-14.4242,9.06201,1.34987
4.03982,0.014514,-7.28843,28.4575,5.79851,-8.71627,28.3751,5.65247,-9.44534,28.1447,5.59112,-9.40531,28.6111,5.58059
10.8794,0.20676,-10.9334,30.5333,3.86721,-10.6385,30.0282,4.34354,-11.1118,28.6813,4.82005,-9.98961,30.8564,4.59235
24.4735,0.572055,1.77138,30.2192,6.10042,3.54569,32.8563,5.05492,4.47024,32.9012,5.08702,3.90592,32.1274,5.59694
2.63381,0.22387,2.10179,17.9057,6.38955,3.09567,18.1534,6.59604,3.32435,17.8936,6.54359,3.23514,18.1196,6.58286
1.9019,0.00547846,4.55009,30.4345,6.50181,5.76998,29.7055,6.40884,5.70138,29.7011,6.41286,5.82911,29.9384,6.41302
2.87557,0.533386,5.53037,29.6418,-5.08457,7.25662,29.6055,-5.22001,7.19034,29.5985,-5.23811,7.18077,29.689,-5.22157
7.82104,0.00752124,-14.3106,12.0175,2.10891,-14.4005,11.5037,0.953139,-14.317,12.8733,1.59664,-14.3559,12.762,1.09994
33.9621,0.246115,-13.8607,14.6576,1.48877,-14.0778,16.3444,-0.669378,-14.1362,13.9997,-0.0790269,-14.1292,13.5017,2.63861
1.6405,0.111201,-3.58122,30.8529,-4.94995,-4.68675,29.756,-4.80485,-3.20361,31.1603,-4.85355,-4.61095,29.7513,-4.81202
0.546222,0.0185893,1.92814,1.23163,-3.43063,2.07347,1.73231,-3.9325,1.56356,2.06439,-4.28348,2.00963,1.63822,-3.84518
4.42326,0.148898,-14.4138,29.9088,-1.97312,-14.5175,28.8472,-1.93528,-14.3648,29.449,-1.9638,-13.9633,29.9403,-2.79339
0.911639,0.196481,8.01715,13.7307,6.40342,7.47718,14.4222,6.20599,7.54533,14.427,6.20379,8.2708,14.1546,6.37777
1.89433,0.14757,12.6156,9.18371,2.66989,12.8448,9.51492,2.46355,12.7019,8.66223,2.59033,12.7113,9.27674,3.13816
0.70732,0.0202034,14.0109,30.2931,-2.06962,14.3282,29.6822,-1.49957,14.2624,29.6308,-1.67516,14.1697,30.0696,-1.79
2.92893,0.230146,13.0858,8.30517,1.43269,12.2789,8.31633,2.75498,12.4209,8.14864,2.57866,12.4014,8.19086,2.58299
4.67107,0.435231,-12.1416,3.28708,3.51243,-11.7899,4.43098,3.96759,-11.7321,4.46224,4.02195,-12.3377,4.61978,3.81651
32.7264,0.28217,1.65859,16.1051,6.67905,2.99875,16.6638,6.96389,1.12975,18.0547,6.51861,-0.488155,16.5559,6.69528
1.55093,0.0713009,12.4771,20.6552,3.64813,12.9295,20.8898,3.3735,12.2106,20.3157,3.95307,12.3484,20.8614,3.8491
0.944346,0.0552992,-6.8228,21.3094,6.13272,-7.12559,21.2754,6.3989,-7.47509,21.4108,6.61768,-7.48604,21.5482,6.61529
0.75461,0.31762,4.4685,28.5733,6.28715,3.97082,28.6422,6.30636,3.97867,28.5957,6.29689,3.92433,28.4999,6.33969
0.735513,0.0256941,-3.09794,26.798,-6.37104,-2.69109,26.504,-6.4484,-2.67742,26.8254,-6.42131,-3.04014,26.5177,-6.38152
3.77999,0.142137,13.1087,8.35106,1.37331,14.0077,8.66267,-0.55456,13.9843,8.92846,-0.569715,13.9439,8.81824,-0.475804
2.5838,0.0106789,14.6383,29.0955,1.45085,14.694,29.6051,0.599687,14.7096,28.969,0.378217,14.703,29.5808,0.440158
8.02743,0.0662343,9.94617,24.4254,-5.09624,11.3297,24.1527,-4.42325,11.061,25.0238,-4.6673,10.2204,25.1969,-5.12263
0.0360815,0.00415973,-14.1899,6.95781,-0.284053,-14.1877,6.89179,-0.309154,-14.2168,6.89016,-0.147845,-14.2206,6.93528,-0.134193
2.27016,0.00924752,11.6917,32.8448,3.25768,10.3417,32.8206,3.89312,10.477,33.0028,3.70655,10.6684,32.7965,3.75671
5.29321,0.663094,12.1674,19.4033,-3.67687,12.6073,21.0537,-3.88886,12.0345,20.1719,-4.41009,12.3966,20.9137,-4.04662
4.31648,0.137028,12.6247,13.4996,2.86086,12.5112,13.6714,3.29845,13.1763,13.396,2.3256,13.3263,14.8436,2.58016
7.60275,0.283894,13.5405,12.8443,-1.29637,13.9616,11.7358,-1.57044,14.035,10.9338,-1.63424,13.8842,13.615,-1.98801
2.40847,0.276428,-7.89184,17.5751,5.2475,-8.02281,17.9096,5.44403,-6.90379,17.4349,5.72977,-8.1809,17.1242,5.57434
8.53347,0.262851,-5.40544,10.8065,6.65707,-6.3439,9.95696,6.04127,-6.29271,11.8772,6.72771,-6.78192,10.6516,6.2732
33.6804,0.611352,12.5103,27.1125,3.81686,9.28232,26.1753,5.36514,9.58036,25.6341,5.29092,9.25665,26.5646,5.29672
0.451278,0.0339958,1.4934,27.1836,-6.47487,1.80243,27.6735,-6.44782,1.79071,27.3972,-6.47191,1.94061,27.6687,-6.4724
5.38882,0.44696,4.58865,14.4322,6.42074,6.70319,14.6299,6.39562,5.85562,13.7444,6.73864,6.29861,14.4818,6.50935
1.85968,0.332679,1.0474,23.5692,-6.6252,-0.277192,23.3945,-6.25986,-0.204448,23.4409,-6.27503,-0.271151,23.5421,-6.31901
9.65257,0.140388,-4.59355,9.77527,6.56343,-3.33572,9.02548,6.73511,-3.88768,10.1956,6.68032,-3.08766,9.54264,6.70873
15.8409,0.682414,13.8268,13.1181,-0.3597,13.9027,14.111,1.55017,13.7897,12.653,0.75858,13.1868,13.5047,2.29541
6.51282,0.0597568,-0.929217,29.7695,-5.60113,-2.41408,29.6066,-5.36349,0.911869,29.7771,-5.59877,0.698656,29.8322,-5.62931
1.7133,0.1057,-7.41604,24.0538,-5.75803,-7.18208,24.3169,-5.72068,-6.75907,23.4235,-5.99338,-7.71491,23.9289,-5.98492
72.1184,4.68801,6.73099,5.53894,-5.87027,3.59279,9.19427,-6.86257,2.03925,7.28241,-6.62313,2.92847,8.35043,-6.79468
48.8267,1.06856,-11.8597,17.4708,4.11767,-9.17426,15.9548,5.91565,-8.8896,17.4418,5.74921,-9.62093,17.3072,4.99449
1.98159,0.0140908,-13.7641,32.5984,1.65829,-13.0575,32.0039,2.18078,-13.9965,32.9177,1.37293,-14.0499,33.2749,0.975727
0.676692,0.0862796,-1.73652,33.1724,4.78775,-1.93137,33.171,4.89804,-1.50443,33.1887,4.85184,-1.82632,32.8576,4.99469
1.6826,0.107058,5.54866,19.1653,6.65543,5.48208,18.6449,6.59102,5.383,19.6521,6.539,5.55113,18.6982,6.57747
8.19309,0.226187,-8.6874,19.9577,-5.1661,-8.74521,18.9046,-5.30536,-7.52165,19.5586,-6.44137,-8.8081,20.7986,-5.45083
16.472,0.880301,-13.3269,22.3072,-0.742139,-14.0998,24.3762,-2.44028,-13.7851,24.3681,-0.993979,-14.0815,24.474,-2.01879
4.21095,0.294308,-3.95107,28.6103,6.197,-1.0154,28.3492,6.32594,-1.24542,28.4724,6.28265,-2.02067,28.6333,6.28535
12.432,2.97162,-2.59947,32.8325,-4.31794,-1.19571,30.1972,-5.58857,-3.156,29.913,-5.07274,-2.73451,29.9457,-5.08744
2.24112,0.200399,-12.7769,2.94355,3.19975,-13.6325,3.27569,2.79831,-13.4314,2.70534,2.83467,-13.6347,3.23034,2.78516
44.1254,0.803415,-13.6392,22.2827,0.809105,-13.4354,24.608,0.813774,-14.1188,25.8668,2.07952,-13.5388,24.6734,1.14117
7.63521,0.0513321,-6.39233,9.45311,6.09127,-4.47185,9.0562,6.70342,-4.4954,9.41369,6.59339,-6.26917,9.91703,6.03856
20.6006,0.179638,3.41915,18.4851,-6.42545,3.08293,22.5139,-6.89077,4.40629,18.5825,-6.68557,3.42021,19.5908,-6.44966
11.7379,0.383041,-12.4475,5.94099,3.67918,-10.1391,5.46235,4.71579,-10.5106,5.08657,4.48741,-11.0447,4.96013,4.14841
13.437,0.426053,0.441104,18.124,-6.52011,2.81604,17.9663,-6.69969,0.320502,19.0095,-6.86239,3.82172,18.1008,-6.56949
1.96398,0.0197098,-7.49223,5.49133,5.53215,-9.07742,5.59855,5.11219,-9.07244,5.68847,5.12784,-8.28807,5.48676,5.30172
6.2864,0.37704,7.92904,4.71582,5.03076,5.27156,4.87306,5.66357,5.3498,4.73371,5.59252,6.8256,5.63455,5.94858
1.73833,0.342441,-4.3237,4.95163,5.82296,-4.60773,5.80545,6.21709,-5.40456,5.1194,5.73757,-5.41263,5.16901,5.7422
0.0106575,0.03308,10.3121,22.3681,-5.3765,10.3202,22.3257,-5.37009,10.1947,22.3445,-5.44316,10.2423,22.3275,-5.40022
0.665772,0.0494614,13.2778,15.867,-3.48481,13.7593,16.3912,-2.77941,13.6463,16.4951,-2.94607,13.7313,16.2441,-2.80482
0.393422,0.0566208,14.542,32.3509,0.73646,14.473,32.5878,1.10229,14.4547,32.73,1.00696,14.4368,32.7387,1.09078
4.54487,0.133651,7.43065,18.0954,-6.14407,5.96964,17.8899,-6.49337,7.48848,17.3151,-6.43134,6.1652,18.0628,-6.43575
14.2818,1.39464,9.49266,17.8028,5.21177,10.9465,17.9306,4.74617,11.3,17.3745,4.81696,10.7496,18.51,4.95483
28.1472,0.124175,-12.1912,8.20236,3.79911,-8.76014,8.66086,5.5189,-14.0303,8.73568,3.06137,-7.80584,7.47404,6.00366
8.94115,0.233518,6.27416,8.50577,5.8537,6.8284,7.76931,6.04134,6.12778,6.26859,6.2123,6.24375,6.73394,6.17424
0.828453,0.0696004,13.718,13.0183,-2.60092,13.8977,13.1607,-2.27866,13.7174,12.9043,-2.83046,13.8107,12.6788,-2.60327
6.28945,0.586893,12.1947,8.22381,2.82677,12.0529,7.67144,3.63135,12.1582,8.87687,3.90834,12.216,7.26366,3.84191
27.4134,0.368816,-14.5248,27.7698,0.437153,-14.331,25.4328,-0.398605,-14.6129,27.113,-1.425,-14.3948,25.5928,-0.640587
16.8787,0.542699,3.61134,0.248683,0.609694,3.73961,0.16247,-0.933026,3.52896,0.194024,-1.01449,2.68386,0.12111,-0.708823
5.94281,1.27429,3.95442,18.0492,-6.5888,5.95571,17.9402,-6.47912,6.17034,18.1524,-6.4619,5.5238,17.2426,-6.83121
2.79586,0.274074,-12.9889,16.7292,4.02918,-13.5021,16.2996,3.7653,-13.202,15.8333,4.30984,-13.4481,16.2837,3.805
6.70405,0.187192,13.6794,7.7967,-1.30039,13.715,8.7657,-1.52375,13.881,7.99995,-0.863726,13.9122,6.82865,-2.29374
21.1513,0.10974,2.03794,26.2454,6.35398,5.50419,26.0471,6.32474,5.06496,26.3013,6.31009,0.257246,26.4095,6.20161
2.58783,1.18362,4.86046,4.71223,5.60196,3.19881,4.64537,5.84012,3.19297,4.69319,5.83804,3.25539,4.88558,5.89349
14.1716,0.470049,11.2629,15.2544,4.25051,11.9712,16.4419,4.15996,11.1381,15.9914,5.0993,12.27,14.9945,3.82364
8.49247,0.525904,-8.7101,17.9322,-4.97001,-8.6051,18.8986,-5.30207,-7.85138,17.8127,-5.68968,-9.70782,18.0309,-5.32834
4.36821,0.0551715,10.9514,9.44344,-5.06848,12.3129,10.443,-4.25576,12.3068,10.4891,-4.26525,12.206,10.2849,-4.31613
0.246248,0.0118465,-13.81,10.1724,-2.03268,-13.7234,10.2951,-2.23077,-13.7958,10.0772,-2.06737,-13.7005,10.243,-2.31977
3.59733,0.199671,-7.22615,28.5127,5.81984,-6.56603,27.8485,6.36303,-5.68726,28.329,6.09723,-5.79586,28.4993,6.01384
5.60889,0.493363,-7.83988,10.6399,6.20101,-10.6512,10.596,5.42121,-10.7194,10.6613,5.38882,-10.7074,10.7565,5.39413
0.507866,0.0202747,0.660298,0.514989,1.95943,0.728757,0.417906,1.63157,0.39019,0.41505,1.7988,0.529288,0.455331,1.82595
4.91467,0.0301013,12.1722,31.8994,-3.49254,11.9912,31.3476,-3.59983,11.4378,33.1953,-3.70957,12.0477,32.9753,-3.42336
13.6545,0.623171,-6.15421,21.0667,5.56286,-4.28953,22.8531,6.50869,-6.6816,21.2182,6.04386,-4.28492,22.6718,6.53513


