
21.8641,0.862044,-0.955609,9.58277,-5.57069,-2.36356,7.57754,-5.11961,-1.60899,7.71911,-4.17764,-0.700782,8.24404,-4.15495
3.83524,0.0827976,-12.8522,18.8428,12.5907,-12.3906,19.3793,12.2108,-12.2311,20.1956,12.0139,-12.5451,20.4545,12.1138
14.5301,0.0692431,18.278,37.705,3.86398,19.035,36.656,7.22542,18.9524,37.6805,6.84333,19.1044,37.9437,7.59994
2.32137,0.160932,-20.8779,6.54653,-0.760224,-20.7809,6.75599,-1.74504,-20.6663,6.67835,-1.65407,-21.3984,6.70751,-1.15433
1.32622,0.301553,-1.89791,10.2637,12.137,-1.95375,11.1228,12.7941,-1.17301,11.1523,12.6281,-1.26125,11.195,12.6638
3.29483,0.213683,-3.39111,41.4942,-4.26705,-2.36263,39.5811,-5.10383,-3.01874,41.9133,-4.38252,-2.1949,40.5482,-4.82445
27.8796,1.05903,-20.2219,38.3182,10.1067,-18.8793,35.0699,12.1424,-18.162,36.4844,12.1472,-20.6497,34.8159,11.633
10.7396,0.106775,1.4252,24.2129,13.4633,-2.36025,24.343,13.4982,-0.30776,25.7528,13.263,-1.09776,24.3989,13.4401
2.1548,0.146108,-15.248,5.51502,-4.06675,-16.6629,5.77614,-3.88422,-15.4199,5.84045,-4.68835,-16.0314,5.46596,-3.81296
0.00756041,0.0208875,-8.40541,43.398,12.7854,-8.6754,43.5073,12.5522,-8.41407,43.3246,12.9073,-8.55068,43.392,12.7881
5.48946,0.611435,21.0386,20.0709,2.85887,21.509,20.9744,2.78409,21.0631,21.9001,3.15974,21.7497,20.1457,2.78561
6.17432,0.296337,-20.1262,22.2209,11.3946,-20.5075,21.589,11.3613,-17.6247,22.3596,12.4604,-20.1851,23.383,12.1878
2.59339,0.0865276,15.7525,20.1048,-11.2779,14.6402,18.8654,-10.9954,15.1969,18.9917,-10.8458,16.1859,19.8471,-11.0233
2.64261,0.220581,-21.8977,7.78722,-1.83284,-21.4101,7.90734,-2.41906,-22.506,7.77248,-1.91914,-21.532,6.78479,-1.34819
8.7262,0.145825,-18.4914,26.3478,-6.14017,-18.6516,25.6783,-6.43852,-16.1113,27.6282,-6.18619,-16.7593,28.257,-5.97878
6.6571,0.074965,-20.4016,40.6713,2.23602,-21.7326,38.8952,1.54748,-21.2324,38.7884,0.336563,-20.9645,39.1284,0.39997
8.64691,0.579421,18.341,30.3301,-1.0163,19.4407,29.2654,-2.11378,18.7249,30.1133,-0.0839452,18.5331,32.3068,-0.721643
1.11656,0.327381,16.6412,29.0845,11.1976,16.198,27.9636,12.139,16.1439,28.129,12.1555,16.1786,28.4464,12.0788
2.69299,0.31674,18.7297,36.3125,2.20704,18.6502,35.4481,2.87013,18.6444,35.6303,3.39809,18.767,34.9817,2.99392
0.546492,0.0697458,-8.52618,20.0792,13.8645,-9.48705,20.3363,13.6285,-9.44836,20.4716,13.6209,-8.61527,20.4089,13.867
4.93935,0.247135,22.6054,23.4266,-5.08601,22.0662,22.4098,-6.63355,22.0636,22.4019,-6.42968,21.8724,21.7263,-5.64038
6.21231,0.260706,11.4242,41.2524,9.54051,12.8398,41.3391,10.1609,12.41,41.2665,9.2244,10.4755,41.5831,8.764
4.14357,0.664465,-17.572,13.3475,12.7957,-14.1702,13.5829,13.2865,-14.1785,15.7873,13.285,-14.6073,13.72,13.3088
14.5266,1.29952,18.0958,32.5453,0.606002,18.5282,30.3061,2.13315,18.7631,29.5677,1.373,18.743,29.5507,1.28362
3.65095,0.0469564,-20.1156,41.1561,0.59306,-20.2926,40.3162,-0.274928,-20.4071,40.2181,0.619017,-20.3206,40.6036,1.21805
1.27121,0.550077,-19.6993,30.3815,-5.23657,-20.0502,29.19,-5.7722,-19.9921,29.0499,-5.86688,-20.2998,31.2879,-5.27596
2.77856,0.126668,-12.5738,13.9417,12.0041,-12.3488,15.5254,11.2804,-12.6206,15.6219,11.3616,-12.3521,14.0178,12.0155
5.82383,2.36921,2.71608,32.2858,12.8139,3.53345,34.609,12.1518,2.78778,35.0022,12.1298,2.84803,34.7852,11.9002
8.84189,0.369726,-12.6281,13.8173,12.0521,-12.5804,10.5158,12.8745,-12.7991,10.4294,12.8884,-12.2209,10.1384,13.0425
5.14742,0.0456926,-15.2027,8.00865,-7.64312,-14.1987,9.23966,-9.06429,-14.2045,9.38692,-9.13361,-15.4377,8.54881,-7.8004
0.713313,0.00685391,1.34226,6.93202,10.4094,1.06819,7.61462,10.4853,1.27768,7.68771,10.3983,1.10092,7.75051,10.4668
2.33706,0.394547,-12.2067,35.8495,11.0816,-12.0308,36.6195,12.6624,-11.595,36.0501,11.6301,-12.4796,35.2229,11.15
13.2836,0.226117,-9.77469,3.9849,8.78611,-7.10685,3.50534,6.84001,-10.6965,2.10346,7.82834,-9.18138,3.65686,7.99452
8.82974,3.65375,6.04035,31.0707,13.502,2.44988,30.9859,12.3432,2.30104,30.8984,12.5824,2.43722,31.3071,12.4481
8.10937,0.105021,20.3576,18.4619,-5.76785,20.9047,18.3535,-5.19689,21.6162,19.3426,-5.16266,21.2416,19.8622,-6.05769
0.916003,0.113048,18.7928,16.0754,-2.14399,19.3985,16.1887,-2.05728,18.4247,15.6071,-1.82912,19.2182,16.1784,-2.21492
171.19,0.090131,17.5942,31.4181,-11.3386,9.93764,31.6001,-11.5192,14.1313,34.6613,-10.1578,9.65451,32.5934,-11.1519
1.8969,0.0342106,-17.718,36.3656,12.3008,-17.4021,37.7156,12.0293,-17.346,36.7392,12.3689,-17.0536,37.9257,12.1756
2.83294,0.170724,-13.9327,9.51616,-9.23297,-13.6997,9.96145,-9.74534,-13.4429,8.74372,-9.2779,-12.9623,8.34583,-9.29391
1.61744,0.288692,-18.3979,35.9386,-4.0912,-19.0024,36.4192,-4.00027,-18.5058,36.9425,-4.10612,-18.8031,36.6837,-4.05942
2.52611,0.00797358,-10.2901,2.04222,-1.60032,-8.72998,1.82437,-1.01978,-9.23382,2.02669,-1.8578,-10.1595,1.96713,-1.31303
7.69743,0.151594,-20.9545,28.7645,-5.40373,-22.8821,28.3727,-3.85294,-20.7666,28.3284,-5.62811,-22.5428,28.7757,-4.26828
5.90016,0.152129,15.5508,17.3354,10.8164,16.9512,18.0646,9.64053,16.6329,16.599,9.96505,16.8851,16.7806,9.71443
1.34644,0.451078,-12.9431,46.5635,-2.23537,-13.5368,46.1898,-3.05356,-13.3204,46.1339,-2.75178,-13.6476,46.1003,-2.94646
2.70834,0.0435246,11.4779,34.2811,13.596,12.1845,33.7859,13.6402,12.4105,33.2752,13.6828,11.0185,33.4152,13.7833
17.8602,0.0172794,12.7442,27.2598,13.4572,10.121,29.4092,13.671,10.1277,29.1104,13.6673,9.03177,27.9829,13.7424
4.30249,0.35497,-0.537776,42.0541,-0.878485,0.733568,42.8579,0.953239,-1.28327,43.0945,-1.03362,1.16886,42.5048,0.968119
0.756794,0.490491,-12.3131,29.376,10.8357,-11.6667,29.6307,10.9786,-11.722,29.7891,10.9259,-11.6739,29.9157,11.0263
1.09947,0.160671,-17.591,43.2143,-3.9127,-17.5659,43.6391,-3.44258,-17.7228,43.8507,-3.17896,-17.5839,44.1227,-3.13292
15.016,0.533303,1.41496,10.6292,9.99215,2.91344,10.8441,9.99158,0.708843,10.5178,10.85,2.27592,8.33737,9.83648
3.9792,0.76496,-16.0806,40.756,-3.8781,-14.3474,40.8557,-4.1791,-14.0883,40.6365,-4.4037,-14.364,41.4257,-4.07785
1.07683,0.242829,-15.3633,22.3653,13.1419,-13.9659,22.2358,13.2532,-14.0632,22.5475,13.1922,-13.8348,22.3355,13.2139
13.2727,0.42765,2.3104,35.402,-10.3363,0.613971,33.9,-11.1002,1.74453,34.2911,-11.7348,0.503083,34.92,-9.91
1.02343,0.0759714,-7.60329,27.3029,13.7914,-8.11716,27.1807,13.8172,-7.45145,26.5332,13.8289,-8.06944,27.0107,13.8098
0.654696,0.612624,-14.0743,14.7474,-10.3898,-13.7134,14.2977,-10.6966,-13.6042,14.4348,-10.6938,-13.5047,14.5674,-10.7144
0.292224,0.185186,-4.36555,18.9758,13.9785,-4.58184,19.1858,13.9906,-4.42055,19.4507,14.0575,-4.71404,19.0833,14.0055
4.23879,0.444573,-22.8437,30.3276,-0.700932,-22.7893,32.2798,-0.0783463,-22.7679,31.3308,-0.0956704,-22.813,32.4735,-0.0508817
0.386674,0.00991781,-6.13479,9.22862,-11.3869,-5.31644,8.982,-11.2787,-4.99926,9.02946,-11.3219,-4.95921,9.13096,-11.3813
5.0598,1.05606,17.3897,33.1232,-10.3883,17.9202,34.3223,-9.35244,17.8159,34.3049,-9.4143,17.0553,34.1541,-10.2639
2.17104,0.305666,-21.5289,8.35631,-3.25787,-21.3515,9.2268,-4.21574,-21.5529,9.4818,-4.34875,-21.2144,9.16693,-4.31335
8.66794,1.03157,-10.0941,42.9085,-3.66579,-11.2959,43.1026,-4.1857,-11.9053,42.471,-4.47326,-9.80303,44.6415,-3.52053
6.07503,0.360429,-19.6173,4.32254,6.16596,-18.5836,3.46915,5.61887,-20.6526,3.97245,7.8664,-19.6641,3.4254,7.81195
3.99346,0.169587,18.9409,34.2128,7.45961,19.1295,34.7609,8.02934,19.0334,34.7809,6.59184,19.1338,33.3101,7.32569
2.07019,0.187769,-3.45933,44.6092,4.10388,-2.10199,44.1459,4.23462,-1.67764,44.0169,4.08205,-1.80783,44.1495,4.52153
5.4311,0.729593,5.12684,11.2742,9.48224,2.01151,11.7123,11.3275,2.37234,11.9057,11.4099,2.87759,11.7647,10.676
3.02501,0.941685,-13.3651,3.5469,9.54822,-16.1561,3.51702,10.2617,-15.5921,3.25471,10.0621,-16.0681,3.34368,10.0289
4.67226,0.20802,22.3425,23.4918,-7.02215,21.7807,24.8559,-8.05919,22.6581,24.0227,-5.62987,21.7814,24.7862,-8.18716
1.62493,0.1032,4.30607,14.3622,-8.87279,5.12531,14.1267,-9.33481,4.10513,13.8965,-8.53936,4.32071,13.6681,-8.49596
16.9402,0.708043,19.8876,21.6068,3.83903,18.1632,22.4436,5.95684,21.0918,23.1783,2.80986,18.2043,23.7555,5.09927
10.8328,0.0713549,16.8137,39.5923,6.31972,17.6549,39.3157,5.34063,17.0571,38.8955,4.41927,14.7819,39.3797,5.92839
6.23647,0.311226,-8.28711,43.2681,-4.41555,-5.83956,42.0749,-4.62201,-8.43888,42.34,-4.40948,-5.51542,42.2748,-4.56527
29.4564,2.17714,-23.2461,17.6012,7.08575,-23.3439,21.2605,8.39366,-22.912,22.0679,6.1931,-23.0492,21.3782,7.52567
2.74512,0.353591,-12.5879,2.43966,0.741158,-13.1542,2.13622,1.13642,-12.8855,2.16238,1.08429,-12.2768,1.91798,0.45701
4.7526,0.296204,14.6282,15.2292,10.561,13.502,14.7706,11.2937,15.2035,15.2006,10.609,14.7432,15.7088,11.0997
1.21305,0.180731,-4.82459,9.97165,-11.9887,-5.2588,10.7747,-12.435,-4.57218,10.6836,-12.3421,-4.74957,10.6264,-12.2986
1.77787,0.675154,5.47526,11.531,-6.09907,4.09896,12.3348,-6.30103,4.27057,12.3295,-6.28197,4.32123,12.4823,-6.62138
8.79177,0.263444,-2.24632,10.954,-9.92247,-1.26508,12.3442,-9.54791,-1.98832,10.1478,-8.59969,-2.35523,10.4003,-10.6168
57.2155,1.39454,19.8423,17.4521,-6.43189,21.0761,20.7599,-8.24945,22.7384,20.9589,-4.54535,21.949,22.2809,-6.78687
1.35737,0.170205,-10.8014,32.5325,-5.02526,-11.1075,33.1181,-4.94887,-10.6036,32.1715,-5.40525,-11.1425,32.235,-5.05833
2.25737,0.0182735,-4.38857,23.661,13.6794,-4.95124,23.6988,13.7816,-4.00351,24.2604,13.4553,-4.81173,25.0708,13.3486
11.1969,0.874006,18.902,18.6519,-10.0044,19.9323,21.3358,-9.58211,19.753,20.615,-9.27112,19.6045,21.6573,-10.0651
11.2762,0.263694,-16.0454,2.34013,3.12463,-15.7584,2.23609,2.34636,-16.2836,3.63368,0.80135,-15.9244,3.79244,0.110308
15.0871,0.468874,13.6161,18.2848,-10.4437,12.8506,19.0001,-11.2052,14.2619,18.546,-10.9169,11.4635,17.8089,-11.0759
1.38703,0.141494,18.5534,32.4364,4.43038,18.7497,31.4693,4.89163,18.4647,32.0269,3.941,18.486,32.161,3.94924
2.19146,0.129809,11.9379,38.0847,3.43641,11.9535,38.2863,2.59815,12.3815,38.2808,2.29632,12.6507,38.2525,2.39645
2.87061,0.309038,18.1771,28.8237,0.999911,18.4485,28.5169,0.699431,18.5222,29.3372,1.01477,19.321,27.9644,1.12102
28.6328,0.152836,-19.6782,21.4966,11.5454,-17.8928,19.238,12.5759,-20.1828,20.7717,11.5262,-16.47,21.2047,13.1027
12.8733,0.516733,21.4521,23.0037,2.40098,20.2417,25.9277,1.87395,20.3829,26.1593,0.518037,20.7308,25.0422,0.101442
3.33543,0.275402,-5.47123,10.3396,13.2596,-5.31187,10.9443,13.7339,-4.81007,9.70193,13.3826,-6.3131,9.09831,13.1438
9.39809,0.109888,-12.1633,26.4897,-6.38646,-12.277,24.0422,-7.48741,-12.4369,24.7378,-7.15912,-11.7716,23.584,-7.80792
5.8541,0.0799758,7.33285,36.0137,-3.6323,9.96268,35.5452,-3.32447,8.41826,35.6055,-3.70514,9.17075,36.3521,-2.51582
12.9119,1.06923,-10.4052,1.71939,-0.55083,-13.1561,3.54784,-1.17138,-13.4653,3.11704,-0.18085,-14.0865,3.09512,0.0291455
50.2287,0.436251,-5.30358,22.6233,-11.9825,-9.43896,22.0426,-9.55284,-8.94398,22.7162,-9.69882,-8.12826,25.4183,-9.37688
17.7994,0.497263,-11.1523,45.7572,-0.579675,-9.08928,45.3192,-1.7249,-8.54185,45.2282,-1.31637,-13.0386,46.6083,-1.99067
8.81198,0.155779,2.0922,36.1036,-7.02213,2.96629,35.7935,-7.63494,2.71851,36.4061,-6.66384,3.75065,36.1145,-6.89818
2.76163,0.106823,10.0097,36.454,-1.7916,10.7193,36.2718,-2.32433,9.32775,36.4196,-2.25006,10.2298,36.7325,-1.39702
7.65456,0.0432812,-14.6009,6.45283,-5.35433,-13.0717,5.36281,-5.81267,-13.6532,4.5505,-4.48854,-13.9279,5.30517,-4.90432
3.27317,0.0412491,-17.6357,46.6811,-2.12042,-16.498,46.9738,-2.36114,-16.7384,46.8205,-2.85525,-17.4935,46.7796,-1.48542
2.79512,0.0915712,-3.08535,23.8451,13.5838,-2.48708,24.2338,13.5227,-3.40093,24.3514,13.3583,-3.85425,25.0451,13.1747
0.94831,0.1829,-20.6839,6.26513,-0.631383,-20.352,5.93295,-0.700837,-20.2112,5.54753,-0.123142,-20.165,5.62433,-0.296838
7.33589,0.289919,-23.5231,8.36226,8.14407,-22.3469,6.62071,6.98942,-22.5203,6.28956,7.40489,-21.7775,5.50529,6.8273
6.55096,0.0661308,14.6789,31.7792,13.1272,14.4361,32.6185,13.3535,12.5898,33.222,13.6751,13.2328,33.4667,13.7151
2.01215,0.0633247,-14.3189,37.3351,-4.30934,-14.9603,38.9653,-4.39195,-15.1491,38.9865,-4.39613,-15.2439,38.9982,-4.39832
1.22555,0.103106,12.2818,10.7253,3.45388,13.0562,10.696,3.44222,12.2244,10.5586,2.77233,13.2253,10.7318,3.67253
1.00249,0.0335055,-23.0667,7.6619,10.2941,-22.7693,7.98244,10.8458,-22.6748,7.6823,10.9277,-22.6708,7.54735,10.8961
6.46086,0.164802,-17.128,6.12878,-3.73175,-18.3816,6.76756,-4.55388,-19.2359,6.87907,-4.14286,-17.8201,5.89648,-3.11739
3.68657,0.159055,5.25327,26.5185,-12.1172,5.81349,27.7417,-12.2722,5.29257,25.6583,-12.0268,4.67896,26.6642,-12.8109
4.51013,0.526,0.1754,22.0307,-12.6733,0.621301,21.4867,-13.3255,-0.88133,21.7769,-12.9611,-0.858751,23.0465,-12.9583
3.64354,0.0578405,6.85885,42.201,8.41851,5.7685,42.4963,8.32212,4.95515,42.9042,7.93032,8.13643,42.2851,8.17251
6.207,0.594477,-16.7883,3.06432,9.39225,-18.0982,2.82029,8.49028,-17.9999,3.41268,9.00231,-18.7261,3.50119,9.13795
1.83329,0.115289,-9.56029,17.8184,13.3974,-8.99791,18.1222,13.6575,-9.59089,17.3854,13.4443,-9.44383,18.5633,13.6492
9.97026,0.361819,18.3178,38.8248,9.3021,17.0643,38.802,11.4666,16.6228,38.1493,12.2877,16.8148,39.6005,11.4436
4.23806,0.343636,-6.84592,35.7056,-4.56584,-6.75819,37.0498,-4.21941,-7.33642,36.9605,-4.14961,-7.84608,36.0079,-4.09521
4.78926,0.00154049,17.5944,36.1856,-1.539,17.0563,36.406,-2.87004,18.0419,36.4991,-2.92631,16.6093,36.2,-2.01729
5.2227,0.269862,-16.37,13.6184,-9.05398,-15.8837,14.8653,-9.45085,-14.0825,13.363,-10.6828,-14.3601,13.0967,-10.5675
2.06638,0.20719,-18.8468,25.7097,-6.45814,-19.4689,24.8173,-6.73156,-18.5707,24.1273,-6.66981,-18.8408,24.863,-6.5113
4.17157,0.0824295,1.33269,13.396,-7.84775,2.02238,12.8949,-6.7758,1.52321,13.6223,-8.11424,0.591638,12.2721,-7.23968
0.969135,0.569595,-19.0301,5.85568,-2.79322,-18.1977,6.05054,-3.21209,-18.262,5.89994,-2.8845,-18.2188,5.98666,-3.0402
3.91772,0.023404,13.9197,35.9525,-2.94906,15.4719,35.9131,-1.52564,15.3309,35.8821,-1.41022,14.769,35.9616,-2.48224
1.65221,0.160689,18.2321,33.9511,4.6604,18.6024,33.6776,3.82511,18.3522,33.9313,4.21708,18.3182,34.4994,4.37214
4.33104,1.08825,-18.3978,41.9902,-3.75902,-20.1417,41.8421,-2.23837,-20.4014,41.5732,-2.02677,-19.8857,42.0967,-2.53752
2.67719,0.0634376,-17.7621,24.5619,13.1374,-18.1874,25.6885,12.9198,-18.239,24.543,13.0538,-19.0091,25.754,12.6471
4.24331,0.0939629,-8.1768,19.7728,-11.0991,-8.05325,18.6486,-11.3139,-7.2022,17.8801,-11.7738,-7.05807,18.2836,-11.7203
8.27725,0.996159,11.365,17.2136,12.4512,9.656,19.5403,12.7022,9.63605,20.1531,12.8269,9.94058,20.1968,12.6593
1.77209,0.222138,7.73929,11.4654,-6.43104,7.58275,11.0771,-5.79191,7.29679,11.0916,-5.72334,6.58283,11.3443,-6.34403
7.34151,2.02387,-9.37842,45.3167,0.210674,-6.63472,44.9054,1.54913,-6.36231,44.8245,1.09189,-6.22195,44.8058,0.804986
4.38626,0.984888,23.3063,21.6795,-0.903471,21.2364,24.1681,-1.26925,21.4156,23.7456,-0.729824,21.2944,24.029,-1.15024
22.6005,0.750594,-18.9223,19.5135,-6.79059,-19.7164,17.9914,-7.7724,-17.0811,19.4066,-8.00893,-19.5895,21.3035,-7.00294
0.762711,0.138457,3.48647,11.8114,12.5317,4.26621,11.7001,12.4811,4.22859,11.5224,12.2525,2.68594,11.717,11.8797
15.2131,0.279046,-16.3634,19.8821,-7.99394,-15.9006,18.5018,-8.97079,-14.2236,19.1599,-8.9804,-17.6005,21.3944,-7.44102
24.9177,0.467803,-13.457,32.3632,-3.65033,-11.7674,33.8828,-4.31777,-14.8833,32.8421,-4.11811,-13.6701,30.852,-3.97247
14.7925,0.166557,-15.3563,32.8992,-4.15238,-17.2401,33.0856,-3.78045,-16.7852,33.7447,-3.71517,-16.3917,32.4523,-3.96074
1.43532,0.330841,-13.1424,37.6936,12.8759,-12.5694,39.5182,12.319,-12.6627,39.5406,12.274,-12.8659,39.1806,12.4341
1.91109,0.122622,7.25457,31.2568,13.3409,6.21081,31.3068,13.4423,6.16873,31.1714,13.4699,6.55441,31.4816,13.4103
1.71884,0.0163218,-14.8336,1.10985,8.8156,-14.9905,0.712442,7.68952,-15.0383,0.99003,8.2587,-14.7466,0.576351,7.67121
5.58397,0.156377,7.8443,18.8311,-10.4956,9.03102,17.8587,-10.769,8.89391,18.4428,-10.7542,7.9335,17.1172,-10.666
4.35085,0.00963317,-23.5052,16.0007,-2.34846,-23.0922,14.8368,-2.74489,-23.488,15.1499,-2.31833,-22.6981,15.7849,-3.22099
5.18348,0.0554591,2.86043,16.6101,-10.6671,4.45743,18.2521,-11.7464,4.14382,17.2456,-10.7894,3.37508,17.3464,-11.3054
1.81252,0.386347,2.82558,35.6767,11.8707,2.91585,35.0641,12.0642,3.32546,35.7876,11.9855,2.44998,35.9079,13.0111
0.560418,0.0888327,4.4543,42.0941,10.4677,5.16124,42.2297,10.3132,5.29147,41.9976,10.6468,4.86379,41.9656,10.5859
0,0.0105198,-4.22844,42.9576,13.0146,-4.29115,42.9272,13.0928,-4.23807,42.8219,13.1412,-4.31152,42.8698,13.1503
8.54531,0.178349,14.4897,35.1888,-8.8143,15.5623,35.6766,-7.33774,13.4757,35.3034,-7.85626,13.7517,35.1846,-9.56207
3.53942,0.142014,-6.08541,4.94809,-4.53678,-5.34761,5.04628,-4.7521,-6.5256,4.82836,-4.76945,-4.92126,4.49818,-3.62744
8.84655,0.0896082,-23.5311,8.40105,8.60158,-23.4081,9.56557,10.0128,-23.5022,12.2972,9.71327,-23.4205,12.2659,10.2051
11.8024,0.224089,-12.4713,31.3336,-4.6119,-10.562,31.2349,-5.58634,-10.6625,30.3603,-5.70443,-11.2901,30.1388,-5.50904
5.44284,0.433176,-0.16507,11.2477,-5.84946,0.692517,11.6257,-6.28336,-0.577318,11.0213,-6.83149,0.370435,10.7829,-5.52666
5.90327,0.185337,-3.90698,36.7254,-6.24265,-4.65178,35.7102,-6.10125,-3.39179,38.0594,-5.86357,-5.16075,36.4106,-5.81562
2.51022,0.129247,-20.159,13.4131,-8.18139,-20.483,12.0726,-8.03169,-20.3569,12.0453,-8.08818,-20.017,12.1572,-8.25984
2.94817,0.610941,11.5629,10.9901,-4.05356,10.4683,10.9465,-3.33602,10.2914,10.9249,-3.51182,10.4209,10.8317,-3.06267
0.850456,0.0474019,-8.83763,45.3169,0.970244,-8.28445,45.2317,1.46992,-8.00911,45.191,1.47701,-8.84246,45.3465,1.15216
1.26841,0.39846,-5.66484,32.1264,13.4843,-5.43436,31.2693,13.1111,-5.47665,31.1261,13.0766,-5.60315,32.9384,13.0964
3.6145,0.310515,13.3488,40.5415,12.6767,12.0709,40.454,12.6176,11.6836,40.8781,12.203,11.9828,41.2576,11.6654
0.676819,0.392482,6.71578,16.2376,13.2706,6.14473,16.5458,13.1861,6.14694,16.2445,13.2015,6.09373,16.7177,13.214
0.509533,0.17189,-5.97542,30.691,12.9814,-6.18307,30.8945,13.022,-6.33716,30.7995,13.0872,-6.24286,31.0881,13.1811
1.88345,0.614512,1.48024,8.63376,10.1732,0.337833,8.73082,10.4619,0.478642,8.25639,10.5651,0.583845,8.49434,10.3035
3.55378,0.00468207,12.1401,10.7457,3.63599,10.2796,10.3479,2.09245,9.99597,10.3909,2.56241,11.403,10.7207,3.95331
6.08029,0.0722412,-7.95176,1.42448,1.81987,-6.19862,2.12459,1.28566,-6.86143,2.09979,0.632217,-5.7465,2.46393,0.710171
7.18678,0.342195,-20.3314,42.1216,3.02823,-19.106,45.0082,5.72915,-19.5001,43.9799,5.10876,-19.2074,44.899,5.55055
5.04831,1.52554,18.1512,20.1279,7.34568,19.0588,19.9593,5.34997,19.4065,20.8984,4.92434,19.2714,20.4939,5.14112
13.7099,1.59781,-0.750916,4.64534,4.10079,-2.99184,4.55015,4.17277,-3.16253,4.09599,4.94824,-3.33133,3.85171,5.1039
1.39137,0.00112538,20.9616,18.4491,2.73811,20.7775,18.5195,2.87419,20.529,19.6821,3.21667,20.8812,19.844,2.99733
6.13111,0.507767,6.4825,19.5083,-10.6309,6.2713,18.601,-10.5831,5.46495,19.5066,-11.4905,8.27012,19.2679,-10.7592
33.2089,0.238021,-22.9751,26.9783,7.47598,-23.1806,22.5156,7.63795,-23.3052,23.6392,8.33606,-23.0245,22.781,6.61785
0.750116,0.431882,-18.7103,42.7668,7.38279,-19.2998,42.3839,6.97279,-19.4479,42.3403,7.04923,-18.9701,42.6266,6.89078
7.05161,0.0422081,-5.70429,44.0205,-1.728,-7.46805,44.6854,-1.82964,-8.69622,44.7237,-2.62582,-6.94485,44.21,-2.34536
16.7102,0.365557,6.14718,37.3851,-0.968956,6.49477,37.4612,-2.68824,4.26999,38.0926,-1.51847,6.0365,37.8801,-0.253096
3.53272,0.761184,6.69787,30.1586,-11.9848,7.89381,29.2998,-11.8616,8.45636,29.3811,-11.9334,7.52779,28.9338,-12.0069
4.06635,0.673729,4.08685,29.2711,13.2191,3.63391,30.2778,13.0662,5.06925,30.0573,13.6135,3.19554,30.3911,12.9557
3.6655,0.492647,19.9424,19.1889,3.81592,20.5423,18.0804,2.62755,20.5352,18.7737,3.10374,20.4741,17.8371,2.82349
6.00966,0.690711,14.9402,12.0224,5.18625,15.1687,11.7205,1.26747,16.2288,12.6238,4.51507,15.226,11.6416,2.39466
8.5371,0.44067,18.5291,33.8949,-2.1551,18.5889,33.8849,-0.830264,19.3796,34.7129,-3.27125,18.5623,32.5734,-1.01569
6.3181,0.372241,1.68335,6.76524,1.74404,-0.060758,6.05641,2.27921,-0.139224,5.94696,1.09253,0.236562,6.17855,0.59329
6.01475,0.265167,-17.0722,39.0395,-4.0897,-16.4183,40.9218,-3.85923,-15.9144,41.8749,-3.96381,-16.0928,39.4966,-4.16677
1.25661,0.71472,15.2031,40.8939,11.1433,14.0796,41.0219,11.6118,13.9428,41.0616,11.2172,14.078,40.9858,11.4309
12.7106,0.431306,1.2989,29.6611,-12.1952,2.73242,30.3866,-12.7623,2.45025,27.6553,-13.529,0.514699,28.3951,-12.8632
3.78471,0.240397,3.99903,8.05656,6.32347,4.1289,7.5354,5.38836,4.63188,8.58626,6.18234,3.46638,6.63667,6.03983
1.27706,0.190337,-20.0435,8.62871,-5.28032,-20.1316,9.64095,-5.81422,-20.2682,9.36421,-5.37336,-20.1428,9.62691,-5.77985
18.7535,0.68013,1.96856,35.8456,-7.65818,-1.54226,37.6908,-6.25072,-0.139057,36.2204,-7.0149,-0.576634,35.4877,-7.66554
20.3574,0.170656,-14.2024,38.7333,-4.34251,-10.8939,37.3493,-4.03062,-10.5179,36.5784,-3.79197,-11.3872,36.4093,-3.76184
0.522504,0.171449,-12.8548,9.25111,12.8349,-12.8411,8.37508,12.8996,-12.6973,8.48042,12.8071,-12.7556,8.33796,12.8284
0.368662,0.0116162,0.472485,10.6437,11.2232,0.375311,10.8265,11.7852,0.496824,10.9054,11.7843,0.767231,10.7914,11.079
5.75865,0.064893,1.16392,30.2466,12.7129,2.05587,28.8755,13.342,2.42128,30.3185,12.9231,1.75248,28.8133,13.29
0.822361,0.0554081,-20.7591,42.6456,4.73199,-20.4175,42.9027,5.30996,-21.2245,42.3406,4.89549,-20.816,42.7127,4.41105
20.6917,0.186681,-4.79302,13.0672,-11.8566,-4.1659,14.8547,-11.8904,-6.17424,17.7932,-12.167,-5.70158,17.7443,-12.1751
5.28013,0.297859,-0.862333,41.3704,-3.16562,-0.230417,40.1955,-4.88838,-0.748119,40.8513,-4.42159,-1.17173,40.8124,-4.88607
0.713854,0.267782,-4.77929,35.0233,12.9709,-5.18427,35.6259,13.2089,-5.12587,35.4125,13.079,-5.21786,35.181,13.1544
16.0874,0.439572,-23.4668,17.35,8.56594,-23.2746,14.2501,7.40505,-23.5534,13.6961,8.5582,-23.2597,15.0776,7.06462
10.2863,0.246421,13.6314,38.1516,5.02853,14.483,38.2402,2.75526,13.0673,38.1872,4.93676,15.1839,38.8838,4.46915
3.80865,0.375183,-20.1981,36.4947,-3.16633,-19.0488,36.3013,-4.04032,-20.5738,37.1061,-3.13831,-20.79,36.233,-3.63034
0.690873,0.282953,22.362,22.3979,2.16533,21.9538,22.9075,1.8704,21.7799,23.1421,1.93137,21.6708,23.0446,2.11467
3.04279,0.243227,-3.06488,13.6493,13.611,-1.66089,13.2055,13.4563,-2.44782,13.1671,13.6616,-1.4798,12.8314,13.3786
2.76855,0.105032,15.1953,13.6574,-3.89013,14.7558,13.3048,-3.41782,15.7767,13.8072,-3.95887,15.3405,13.7087,-5.05844
2.53085,0.175069,21.6534,23.4031,0.253082,20.9029,24.6365,-0.327238,21.377,23.7179,-0.51395,21.3742,23.7044,-0.417524
28.024,0.0955166,-1.54741,17.7417,13.4006,1.16541,18.8576,13.5531,0.581784,19.4925,13.6811,1.37185,17.5682,13.2867
1.52245,0.649503,-2.69266,4.71373,2.60259,-2.99386,4.36415,3.43902,-3.50209,4.37442,2.17714,-3.40145,4.47162,2.48231
1.68084,0.212811,-6.20775,17.475,13.0526,-5.80072,16.9055,13.0045,-6.25728,18.0016,13.4885,-6.5891,17.4798,13.3435
6.3729,0.242022,4.16609,7.63371,2.17754,5.37373,8.09813,2.94648,6.48045,8.72131,2.51664,5.44818,7.99179,3.2889
4.60619,0.408287,8.72973,12.2876,5.73732,8.48364,12.1667,6.67759,9.56445,11.8475,5.06916,9.28537,12.3306,6.18203
1.53658,0.159971,-15.081,42.4381,10.7136,-15.0632,42.1608,10.9921,-15.3933,42.6551,10.6121,-14.7422,42.972,11.1553
5.9927,0.264757,2.01736,43.216,8.84464,4.9142,42.5741,9.79654,2.31856,43.5221,8.05387,1.66076,43.8641,6.88702
5.66106,0.694933,-9.4927,21.2298,-9.80654,-7.87459,21.2585,-10.8945,-8.06769,20.4455,-10.9477,-8.09304,20.8416,-10.7474
4.56119,0.162709,-20.5296,28.8379,11.3441,-20.5461,29.7433,11.5355,-21.1484,27.4118,11.443,-20.0774,28.4241,11.5069
2.09902,0.141037,0.0514815,34.3551,-9.95676,-0.814846,34.1072,-9.98472,-0.364722,33.7462,-10.3825,0.31464,34.7159,-9.99079
3.98508,0.142597,-17.063,3.13847,4.54837,-17.8141,2.67645,5.49838,-16.6399,2.70475,4.25483,-17.4024,3.43164,4.39711
5.08828,0.453233,-17.3056,13.529,-8.55336,-16.671,13.5015,-9.06558,-17.7906,13.1835,-9.06888,-17.9305,14.4787,-8.76058
14.1721,0.340132,11.7198,31.5595,13.5702,15.8806,30.9367,12.7828,16.2346,30.8193,12.6763,16.0319,31.7812,12.8672
2.74114,0.371044,0.621262,10.9662,11.8776,1.58846,11.5918,10.9761,1.87251,11.6686,10.9505,1.86084,11.6729,11.2486
8.59919,0.24804,-11.4656,43.9134,-4.03552,-12.9241,45.0973,-4.24024,-13.113,44.6806,-4.09158,-11.0531,43.3235,-4.25103
11.4599,0.136193,-7.18306,16.7814,13.2645,-10.5987,17.5306,13.3125,-10.1507,16.7581,13.0998,-7.16707,17.8844,13.779
29.9647,0.578114,-18.4558,13.5554,12.3632,-18.4602,10.3855,12.8378,-18.0279,8.61249,12.8127,-17.0996,11.7603,12.9897
22.3634,0.0118538,9.73902,23.7861,-10.9451,13.5183,23.6216,-11.0386,13.8675,24.5799,-11.1143,10.8877,22.914,-10.9095
1.43167,0.0926216,-10.7473,24.0278,13.0828,-9.81515,25.2903,13.5337,-10.3245,24.8247,13.298,-9.77096,25.122,13.4944
0.668294,0.0836858,19.5204,18.5164,-8.48079,19.4723,19.6759,-9.15382,19.5973,19.5896,-8.95456,19.5169,19.8112,-9.14969
5.19379,0.318596,4.78889,14.8959,13.2235,3.16078,16.0161,12.3711,3.12153,15.5782,12.4566,4.3272,14.0437,13.542
1.16348,0.00983788,18.9297,15.8556,-0.121724,19.2048,15.9455,-0.345405,20.434,16.1424,-0.237155,19.5952,15.8637,0.326446
4.13645,0.0871193,18.2177,35.6237,0.18533,17.2933,35.6905,-0.409226,16.1646,35.7568,-0.716275,16.1754,35.8223,-0.419796
23.9943,0.106834,-18.1013,21.7282,-7.28492,-15.974,24.7288,-7.1493,-14.8746,24.2069,-7.48257,-15.518,21.6253,-7.92962
4.88213,0.21032,4.00962,34.6375,12.4169,4.03095,33.5114,12.9051,5.99911,34.4747,13.6226,6.12216,34.5913,13.6554
3.90406,0.0163104,-15.1566,26.8272,12.8807,-16.7168,26.3876,12.7352,-15.4914,26.3436,12.9286,-16.7277,26.6889,12.6825
1.94177,0.153835,-21.4919,17.6161,-6.63865,-20.1846,17.075,-6.54704,-20.3769,17.0765,-6.33549,-20.9472,17.5576,-6.72209
0.38094,0.0116342,-1.89603,23.0761,13.8845,-1.94806,23.5264,13.7521,-1.77388,23.4711,13.7672,-2.03149,23.2549,13.8411
9.52124,0.35142,-5.91175,29.4202,-8.60914,-4.19273,28.7558,-10.7044,-3.00898,28.1391,-11.7125,-4.88486,28.74,-9.95797
10.4305,0.349612,-8.98553,1.59403,4.41435,-7.46877,3.27722,6.55494,-8.38666,2.41663,5.60769,-5.45367,3.83123,7.9305
0.82592,0.0239673,8.25929,34.9927,-9.5037,7.29369,35.2611,-9.27571,7.8439,35.1656,-9.25167,8.39012,34.8228,-10.1151
9.16221,0.275153,14.6147,24.884,12.1054,16.0635,24.8736,11.9345,15.4557,23.8582,11.8466,14.0194,25.6089,12.7992
11.3733,1.02045,3.37742,35.6656,11.9816,6.99869,36.214,13.474,8.1839,35.7082,13.5178,6.57626,35.737,13.3576
12.2631,0.357593,1.47157,16.9076,-11.246,2.83093,17.2333,-11.6645,0.688075,19.177,-12.7373,0.936033,19.8751,-13.0308
0.414272,0.292012,3.0902,10.7843,9.92392,3.56677,10.7387,9.71487,3.76106,10.4055,9.76495,3.53531,10.6141,9.71483
14.7818,1.96836,-13.144,3.62358,9.50655,-10.8216,3.28024,8.996,-12.4481,1.01512,8.60118,-11.2912,2.64314,8.87339
2.58696,0.0773206,-20.7663,39.7938,-2.39323,-20.3296,38.767,-3.27164,-20.3617,39.8951,-3.22174,-20.2632,40.1612,-3.48205
0.0245097,0.0178779,6.10467,23.087,-11.9361,6.34775,22.3931,-12.1404,6.23666,22.3332,-12.3184,6.07357,22.8071,-12.1543
5.45517,0.0517724,19.9117,28.4232,-2.85728,19.3028,28.5726,-1.85346,19.5326,27.4048,-1.21609,19.2876,27.7569,-1.03965
3.45076,0.228755,-8.25231,23.4784,13.4536,-6.73017,23.5035,13.7851,-5.3915,23.8381,13.8192,-5.26129,23.9442,13.81
0.886227,0.798275,14.0881,12.4328,-3.07027,13.823,11.7526,-2.54209,13.9398,12.0154,-2.3659,13.8681,11.8911,-2.44733
10.2472,0.0692454,5.67352,12.6434,12.4214,7.76792,11.5576,10.9961,7.50069,11.6069,9.96208,6.11749,12.2763,10.939
5.24425,0.459211,-19.7703,5.1096,2.70622,-19.4216,4.81839,1.87848,-20.9777,4.73382,2.32278,-20.0193,4.45988,3.53273
2.75487,0.169468,5.54829,9.58919,-0.741257,6.57014,9.59513,0.0389893,6.22721,9.85503,-0.504939,5.0775,9.79387,-1.65065
2.18683,0.0943588,5.01732,9.76038,6.1451,4.8858,9.10576,6.23171,5.4439,10.1601,5.9741,6.36742,10.1735,5.09047
7.14357,0.231341,-17.3309,22.4326,12.6299,-15.7095,22.1493,13.1481,-17.7009,21.7817,12.4383,-15.4121,22.5154,13.1451
24.7369,1.16039,20.3767,17.4655,-5.45611,18.159,15.6232,-3.40849,18.4273,15.6071,-2.70154,17.5036,14.9857,-3.77278
74.8171,0.440739,-23.222,26.584,8.75887,-22.3102,31.9668,4.45475,-22.7727,32.007,8.3684,-22.7491,31.5825,8.1954
2.43309,0.0785968,-20.3895,39.4661,9.41781,-21.6745,38.2648,9.21195,-21.1436,39.9743,8.34915,-20.9647,39.2838,8.99844
18.1357,0.194904,6.90987,16.9717,-10.3426,7.25959,14.2082,-9.18143,8.97459,15.6964,-10.1278,9.49751,14.7292,-9.68704
4.78974,0.251003,-16.8828,14.0682,12.9812,-18.9989,14.5885,12.2667,-18.3562,13.8376,12.3991,-18.9466,14.7307,12.3373
4.04428,0.156224,-21.8589,37.5474,-0.0473043,-22.2173,37.3248,0.0337886,-22.3206,37.0257,-1.27194,-21.1216,38.8711,0.144744
197.762,0.552253,-22.7202,27.0886,6.21175,-23.2917,21.2934,-1.14962,-23.2178,20.7076,-0.464496,-22.8731,19.5442,4.63501
5.62944,0.218113,17.0399,13.439,1.48934,16.2157,12.5471,0.892472,16.4256,12.8405,1.82536,16.0404,12.1662,2.77871
27.4883,0.0685942,-10.8467,45.9964,-1.63009,-12.2585,45.6148,-3.8839,-10.2021,45.2064,-4.07483,-10.912,45.1582,-4.62318
6.02863,0.127858,3.922,7.48699,2.28116,3.01889,6.82283,2.6559,1.97744,6.84309,1.99468,1.6969,6.50158,2.43824
2.30749,0.777236,6.01131,20.0529,13.6243,5.04713,20.3332,13.5214,4.86372,20.6955,13.6549,5.14105,20.0044,13.5053
11.5838,1.00276,8.1058,11.1389,-0.196476,10.4221,10.7748,-0.813939,5.85006,10.3842,-1.26354,6.77204,11.0258,-1.6219
5.38701,0.396845,15.1908,22.7052,12.4613,13.1897,22.1866,12.8979,12.5794,21.8166,13.135,13.0944,22.5272,12.9939
4.59383,0.157778,-22.3352,9.82435,-3.94848,-22.1926,8.59818,-3.0618,-20.8359,10.1806,-5.68912,-20.9603,10.2629,-5.67959
3.93143,0.0818912,-19.465,12.9976,12.1493,-18.686,14.3624,12.3024,-19.2058,14.1961,12.0858,-18.8716,13.0965,12.3136
0.795709,0.00445304,10.2281,34.9232,-9.60162,10.6272,34.6635,-9.91298,11.0545,34.6964,-9.83433,11.0531,34.6381,-9.91324
3.74024,0.0825966,-4.74824,12.6422,-11.8926,-5.24799,12.3137,-12.2054,-4.74532,11.4299,-12.5151,-3.94502,12.2802,-12.0179
7.27616,1.10805,14.8461,39.7218,6.50689,11.7428,39.3592,6.19982,13.9601,38.7981,5.48586,12.9908,39.0442,5.99888
7.92005,0.0517494,15.1792,35.6006,-7.30649,15.764,35.9631,-5.2175,16.8901,36.0069,-5.8337,16.745,35.8262,-7.2209
0.824197,0.0145065,-15.6739,4.39201,11.5053,-16.4775,3.81306,10.7247,-16.1621,3.65083,10.5222,-16.4394,3.92223,10.8717
0.237988,0.155194,2.22752,42.2242,10.1004,2.42441,42.6489,9.827,2.24494,42.7378,9.69163,2.13964,42.7763,9.62995
23.8815,0.0485315,2.98598,40.7259,1.73519,2.91103,42.3972,3.24535,1.16054,43.0749,2.16575,3.71863,41.0255,2.68552
4.03933,0.765062,0.452009,14.8481,11.8166,-1.06293,15.4915,13.1996,1.32464,15.9795,12.4193,-1.10289,15.3563,13.2025
8.82609,0.176797,-19.563,11.5559,-7.90439,-16.4987,10.5115,-8.74632,-16.854,9.97013,-7.98109,-16.2856,10.2934,-8.68425
2.59323,0.19249,-11.1452,2.07281,7.97852,-11.2699,1.54577,7.68569,-12.0947,0.948968,8.1743,-12.0013,0.852389,7.73255
7.47657,0.255578,-18.3977,4.77383,1.20406,-17.4935,3.94398,1.09276,-17.3107,4.08379,0.0454809,-18.788,4.52643,1.9533
3.69337,0.172823,18.8377,26.9108,4.2021,18.7207,29.0854,3.53044,18.8544,28.3523,3.53962,18.6826,29.1059,3.74786
15.003,0.179643,-18.7083,32.1525,12.6799,-21.0833,30.1918,11.4369,-21.0206,31.6547,11.4273,-20.1148,30.2596,11.8824
4.42923,0.238872,-20.6376,37.8465,-1.71075,-22.11,36.5503,-2.75519,-20.4816,37.805,-2.03304,-21.2653,38.4512,-1.56314
9.94472,0.0852315,-7.87499,31.9973,-6.72505,-8.6418,33.7549,-6.35333,-6.54917,32.8737,-7.55583,-9.52846,32.7976,-5.87075
3.08932,1.3176,-20.6581,27.8083,-5.4207,-20.683,26.2539,-5.34663,-20.6707,26.0879,-5.58801,-21.096,26.1638,-5.43879
12.5069,0.274001,0.348262,8.69684,-3.16822,-0.360553,8.98128,-4.79054,0.327567,9.82152,-5.04938,1.09949,9.58142,-3.93053
8.41435,1.1547,2.33539,12.03,12.805,1.48167,14.8777,12.3104,1.62983,14.3774,12.1567,0.703365,14.7619,11.9087
0.0538381,0.00905269,16.1352,39.9907,11.8017,15.6453,39.5545,12.4775,15.9,39.5973,12.2227,15.7975,39.4936,12.3674
2.31388,0.0498732,18.547,33.2751,-9.64273,19.8829,32.4259,-9.57284,19.9191,32.6684,-9.26412,18.3463,33.0756,-9.93653
3.49324,0.309289,-21.2418,4.7729,6.40332,-23.1778,8.33271,6.03551,-22.0085,6.38778,6.80452,-22.1609,6.70306,6.45378
11.1356,0.240212,-17.5572,32.8317,-3.78663,-18.8019,32.0699,-4.60387,-17.9124,34.168,-3.82507,-18.3749,34.4867,-3.88631
25.31,0.141485,-16.0077,15.7414,13.0952,-19.101,15.5149,12.2116,-14.3542,18.0828,13.3554,-14.1602,17.145,13.3969
5.17927,0.155725,-11.5946,17.4929,-9.63338,-13.3606,17.9486,-9.25923,-11.3871,18.1864,-9.78557,-11.17,16.9061,-9.97148
4.0087,0.142872,8.89831,28.0538,-11.9947,9.11561,26.7508,-11.8316,7.86315,27.3228,-11.7219,8.18361,26.7034,-11.7349
3.52844,0.240181,-14.2048,21.1237,13.2991,-14.9182,21.9449,13.2988,-16.3746,20.8855,13.1187,-16.4229,21.0413,13.0901
1.58574,0.0443135,18.1987,25.0032,7.28908,18.2631,25.8733,7.05463,18.2198,25.7309,7.75204,18.2456,26.2988,7.39014
10.2599,0.923401,2.15365,40.5194,0.172136,3.80534,39.1817,-0.689281,0.182959,41.1876,-0.951396,-0.284732,41.714,-0.95704
5.74153,0.583461,-21.0896,26.2827,10.9611,-19.3831,26.6451,11.9303,-21.5413,25.4832,11.5907,-21.2728,26.9982,11.4061
11.6239,1.88893,0.961537,42.3789,9.65841,-0.0813195,38.3643,13.4272,0.441067,38.2112,13.4651,-0.269992,38.6912,13.3006
11.8862,0.158386,-1.13576,43.6017,4.12473,-1.40885,43.7166,2.73628,-0.20489,43.6028,2.30857,-0.938463,43.8127,5.55221
14.1611,0.226449,-1.2871,4.09092,7.7839,0.370537,4.71217,5.68261,2.23958,5.45803,6.59378,0.952855,4.87234,5.2197
5.26562,0.262209,-2.73158,9.26914,11.7209,-2.03763,9.27419,11.1769,-2.61969,7.59551,12.6745,-3.21729,9.43434,12.8469
17.6851,1.67142,11.5418,18.3152,-11.2083,12.9459,22.2677,-11.2446,12.5815,21.8813,-11.0568,11.3275,22.0264,-11.105
3.57097,0.230656,-4.2648,6.52969,-6.85658,-5.05808,6.16059,-8.25559,-3.47909,7.12738,-7.03325,-5.30704,6.0813,-8.04366
2.20858,0.0292164,-1.34363,14.9749,-10.8762,-2.46726,14.6304,-11.3362,-2.64647,14.1462,-11.1335,-1.75246,14.5847,-10.9014
1.59616,0.340277,-12.4694,17.2635,12.7436,-12.4979,18.4422,12.5772,-12.1356,18.0801,12.8342,-12.4624,18.8455,12.4001
1.23687,0.0405718,-10.2091,33.2122,13.4529,-9.63734,32.9068,13.5624,-10.2248,33.8021,13.4773,-9.46746,33.153,13.5744
5.66783,0.0606074,-11.8301,29.5969,-5.18398,-10.6934,29.936,-5.68199,-9.28873,29.2815,-6.58597,-9.4944,29.7338,-6.32884
3.31074,0.431229,4.77647,37.7105,-3.76449,3.40167,38.285,-3.1556,3.97991,38.499,-2.56052,3.82776,38.3074,-2.87988
0.262488,0.181571,-20.0759,45.8315,2.44836,-20.3427,45.1934,1.90762,-20.3587,45.006,2.12329,-20.3591,45.0495,1.89526
1.46503,0.262769,3.75637,11.0814,-5.17663,2.95112,10.8624,-5.29018,2.82631,10.5507,-4.96243,2.90004,10.9276,-5.46041
45.7782,0.624378,3.27386,38.5143,-2.8367,1.35838,38.2302,-6.08431,-0.336327,39.9241,-5.38211,1.97681,37.7033,-6.22126
1.07359,0.433235,17.947,21.7703,7.05467,18.0597,21.2393,7.29745,18.0333,21.2023,7.03939,18.2703,21.0302,6.89353
0.758997,0.0245672,-16.2077,2.37063,3.63658,-16.3535,2.63617,3.47366,-15.9359,2.05352,3.35437,-16.0806,2.36069,3.19829
0.297691,0.266055,13.1452,12.7393,-6.25675,13.1498,12.7287,-5.97134,13.007,12.6804,-5.95633,12.8962,12.5956,-5.96233
4.19894,1.51512,-1.39642,23.0925,-12.8401,-2.26906,25.4102,-12.2909,-2.49255,24.9976,-12.2576,-2.70911,25.0531,-12.3805
1.53018,0.419583,-20.419,9.3802,-5.23308,-20.7958,8.84491,-4.40879,-20.5861,8.69797,-4.48969,-20.4851,8.39242,-4.47297
2.20317,0.190258,4.11997,8.10019,7.20842,4.2679,7.90464,7.53571,4.14735,7.80702,6.78622,4.952,9.3373,7.28594
1.94856,1.02543,-18.7875,43.8282,-3.28074,-20.0197,43.9246,-2.54291,-20.0041,43.3634,-2.64955,-19.9345,43.7862,-2.54468
4.34068,0.100372,-21.2982,5.40922,10.8043,-19.0116,3.91008,9.80716,-19.6094,4.20046,9.89517,-18.488,3.74251,9.94092
33.19,0.1421,-2.27102,9.62765,-8.52901,-2.4009,10.2639,-10.6082,-3.70284,6.94478,-7.33724,-3.9723,6.86516,-8.85589
6.13172,0.475542,13.3631,14.12,-8.03561,14.1311,15.7235,-10.2387,13.7927,14.9633,-9.53117,15.4609,14.538,-8.41417
3.00718,0.16806,-16.1761,3.93287,0.0445376,-15.2907,3.48289,-0.099749,-15.5774,4.25511,-0.659098,-15.2812,3.89539,-0.453442
24.9135,0.214613,3.0713,26.4732,-13.6674,1.0815,25.9427,-13.107,-0.738176,24.437,-12.9619,-0.3268,26.2101,-12.7642
0.267727,0.12755,10.8629,41.3934,11.9337,11.4111,41.1206,11.9986,11.5319,40.9478,12.1677,11.3997,41.0112,12.2422
4.51293,0.00615932,6.51048,9.18719,0.704148,6.65806,8.97741,1.39295,5.86992,9.11726,-0.0610656,7.6162,9.81835,0.767203
8.26435,0.0499005,-12.6318,26.8866,12.3427,-13.9357,22.6529,13.1734,-13.7022,23.7306,12.9604,-12.2885,24.6366,12.9638
1.88746,0.717726,-13.9785,32.6674,12.9101,-15.1925,32.7421,13.0182,-14.9391,32.9869,13.037,-15.3355,32.6536,13.0758
1.01612,0.00311777,-21.5059,6.02055,-0.240616,-22.5888,6.49057,0.0954929,-22.4047,6.44581,-0.106606,-21.6672,6.0299,0.042905
0.802799,0.294684,-6.94562,14.0192,13.1041,-7.56595,14.2738,13.5156,-6.49798,14.4732,12.1387,-6.09877,14.7537,11.6877
2.84122,0.0457164,-1.84902,21.1571,-12.7875,-1.11599,22.3577,-12.9712,-2.17363,22.0652,-12.9028,-1.0335,22.2143,-12.9615
1.11873,0.00737772,1.44466,25.5511,13.4168,1.83846,25.285,13.4602,2.01842,24.9221,13.4769,1.62985,24.888,13.4416
5.55332,0.279682,-18.4199,10.3186,-7.55994,-20.2329,9.92801,-5.95879,-19.9069,9.61346,-6.11705,-19.8385,9.61091,-6.18417
13.9205,0.0834501,-11.2718,25.5251,13.1304,-9.77199,28.8896,12.973,-11.1369,27.7641,12.4298,-10.0487,27.4029,13.3734
1.01362,0.139524,1.94759,24.3514,13.3172,2.24541,24.4191,13.4487,2.24379,24.7132,13.4472,1.5138,24.1887,13.4689
16.8333,0.560608,12.7819,38.1059,4.68006,11.0123,38.9975,5.85916,12.7015,39.0038,5.92574,10.339,38.586,4.23412
2.96744,1.8145,-14.9803,18.8418,13.116,-13.1051,18.6639,12.7847,-13.2222,18.2664,12.9685,-13.19,18.4009,12.8816
12.5812,0.589668,17.2881,19.5741,8.56462,18.1384,19.7645,7.22729,17.7198,21.0792,9.4105,18.0341,21.0179,7.74081
12.7667,1.89267,18.3269,34.6396,4.28106,18.363,37.0997,3.39279,17.9293,36.755,3.8084,17.7731,36.5111,4.42733
3.83119,0.427296,-4.28167,20.8599,-12.5308,-2.24405,19.0613,-12.5307,-2.77772,19.259,-12.4449,-3.25184,19.1758,-12.3949
0.255261,0.00216805,2.24948,18.954,13.4906,2.42486,18.8946,13.4685,2.39174,18.4587,13.4083,2.52178,18.5665,13.4123
1.10613,0.0528021,-9.42303,32.9932,13.5722,-8.63011,32.4604,13.665,-8.58931,32.5952,13.658,-8.81591,33.1051,13.6269
0.613776,0.00532354,-10.7828,31.5943,13.3561,-10.2264,31.9037,13.5581,-10.396,31.6387,13.4615,-10.3556,32.097,13.5617
1.05598,0.0949581,19.1073,32.2609,-10.4145,19.6443,31.2267,-10.6882,19.6198,31.021,-10.8283,19.493,31.0801,-10.9032
0.736475,0.249639,-7.42967,12.7263,-12.2757,-7.27428,11.866,-12.4601,-7.82929,11.9393,-12.4428,-7.60067,12.0443,-12.375
4.81888,0.567842,-9.38944,43.8783,-3.40789,-9.84489,45.429,-2.51663,-9.29816,44.9148,-2.61528,-9.57582,44.8466,-2.63251
45.2084,0.584278,-22.1678,8.99597,2.27429,-21.9188,6.1348,1.11721,-21.6536,5.29064,1.44882,-23.1494,10.3304,4.6611
4.28827,0.382207,-13.0513,37.6699,12.8684,-13.4943,35.5928,12.8718,-12.586,36.6496,12.8645,-14.3519,36.2147,13.3075
11.9318,0.362076,8.9616,31.1459,12.8963,9.14659,30.2751,13.494,7.29761,31.3992,13.3086,10.5646,31.4288,13.0951
0.964675,0.286058,-16.2039,41.7623,-3.93279,-16.5366,42.8058,-4.13091,-15.9231,42.864,-3.97858,-15.9618,43.2921,-3.91504
13.1469,0.128196,10.1394,10.8285,-0.4335,11.2057,10.5504,1.52332,11.9242,10.4998,2.23839,11.901,10.6026,0.996356
43.5544,0.148025,3.97119,11.6109,-5.76857,9.39791,10.9143,-2.0828,6.534,11.1337,-4.91293,8.42662,11.1369,-1.13983
1.91299,0.206746,-4.54166,34.7367,-6.00406,-4.48796,35.2854,-6.56411,-4.81593,34.5117,-6.25914,-4.78176,34.7299,-5.88296
5.19954,0.15284,-18.553,7.50593,-5.21151,-16.9369,8.20019,-7.01646,-17.6119,6.83697,-5.2199,-18.0482,8.43095,-6.69115
0.0400395,0.00217246,-22.3836,29.5295,3.44008,-22.3804,29.5071,3.54092,-22.3814,29.3022,3.63461,-22.3829,29.1707,3.63966
2.45066,1.56866,-5.43948,40.8722,-4.20021,-4.43648,42.8078,-3.94067,-4.23044,42.7443,-3.90942,-4.77232,43.046,-3.83058
4.65378,0.0134158,-6.41943,4.97705,-5.29882,-6.47565,5.02917,-5.98197,-6.5383,4.85368,-4.85792,-8.59079,4.09015,-5.64291
2.96225,0.00524726,9.21684,25.9653,13.2652,10.2919,26.3776,13.3364,10.5602,25.9855,13.2987,8.88782,25.1537,13.158
3.91224,0.0333065,17.6953,34.5776,-9.25807,17.7474,35.1864,-7.29516,17.5386,35.2169,-7.61695,17.2391,35.1034,-8.59267
10.1978,0.422383,-10.4962,9.0224,12.0076,-9.18242,8.6611,12.3573,-8.97779,7.35519,11.947,-11.1321,7.87753,12.078
7.97983,1.27281,-16.762,45.245,6.18522,-18.0504,44.5974,6.659,-18.4225,44.681,6.40712,-16.2737,44.6577,8.00456
9.83356,0.72621,15.3965,18.9461,11.3717,13.7451,19.3782,11.9977,13.9791,19.1401,11.8103,14.7774,17.5172,11.4641
4.15468,0.518201,-12.7814,9.53394,12.8566,-10.9832,9.0091,12.0653,-12.8448,10.3119,12.9284,-11.5548,9.01254,11.8625
1.52892,0.126933,-6.82379,2.24057,3.10278,-7.66194,1.94755,3.56835,-7.62965,1.89687,3.34721,-7.5802,2.06695,3.89727
6.49513,0.185765,17.9322,22.9168,6.34475,18.242,23.8697,5.64558,17.4651,23.1624,7.61207,17.4767,23.3031,7.51475
1.54322,0.331612,-9.76088,1.42242,2.04837,-10.4242,1.00692,1.50623,-9.10501,1.16232,2.24874,-9.81563,1.09099,2.39358
0.518138,0.0357047,-15.1578,15.0721,13.2946,-14.7182,14.9514,13.3119,-14.8019,14.6764,13.3537,-14.8896,14.7005,13.343
20.4839,0.182741,-6.50839,21.3581,13.7251,-4.94596,19.6023,14.0697,-2.31261,20.426,14.0541,-2.27218,20.5606,14.0446
6.38193,0.117793,-23.1517,12.2122,10.9358,-22.3774,14.1302,11.8968,-22.4544,13.45,11.813,-22.7324,14.4864,11.5447
1.84536,0.0818901,-13.4947,31.1416,12.5879,-13.0615,32.4491,12.3094,-13.4899,30.4118,12.6037,-13.3735,32.4049,12.3291
2.61629,0.269215,-9.89364,29.7243,12.3209,-9.1767,29.5939,13.0128,-8.62229,30.1563,12.9164,-9.18053,29.8649,12.857
6.73907,0.133719,-5.76874,40.342,-4.14513,-3.66271,40.2639,-4.49767,-2.92624,39.9196,-4.83414,-6.43565,39.6093,-4.92421
1.06579,0.111373,11.3924,16.3216,12.3798,11.8621,16.6253,12.4103,11.3899,16.0256,12.5113,11.4103,17.0548,12.4441
2.52898,0.0677351,5.22303,36.0397,-5.81675,3.29749,36.5649,-6.35104,3.1565,36.5379,-6.44015,3.8584,36.5582,-6.07242
5.02058,0.186014,16.8549,13.9466,0.123412,15.6716,12.7157,-0.296803,15.8216,13.2496,-0.835252,16.2201,13.6392,-0.801073
0.933206,0.0458609,-20.8438,19.234,11.6519,-20.8235,20.2267,11.5313,-21.0334,20.1518,11.6228,-20.7114,19.6134,11.5236
4.3755,0.0183808,1.43951,5.15516,4.81584,1.08216,4.92911,5.21351,3.33097,6.3527,5.56737,3.45614,6.42145,5.36948
47.2075,1.28013,-9.73991,26.8555,-7.36397,-7.38755,29.1577,-7.63136,-7.86832,29.7311,-7.15073,-6.78739,28.7859,-8.20825
1.33563,0.140291,-7.60806,2.30361,5.0332,-6.75219,2.35296,3.99548,-6.59852,2.37962,3.97173,-7.1009,2.34873,4.25506
24.9258,1.04384,-1.70524,29.9274,12.6501,-1.10079,26.5388,12.9155,-0.393771,25.7743,13.2535,-2.39651,26.0653,13.0517
7.47818,1.19919,8.93449,13.713,-8.91623,11.5791,13.7644,-9.05688,11.8952,15.4764,-10.1773,11.6669,14.759,-9.76457
7.18561,0.0878242,-1.43666,7.59563,-3.90214,-0.341848,8.23026,-3.55688,-1.84041,6.21141,-2.86422,-1.91826,6.33598,-3.10793
13.356,0.233734,20.3463,19.3332,-6.86931,19.2711,17.5699,-8.0824,19.4499,17.5328,-7.56692,21.0378,20.4837,-7.29715
2.65006,0.0123254,20.5242,26.1302,-9.77106,20.7296,25.6849,-9.68907,19.3306,24.846,-10.2716,19.3631,25.1306,-10.2627
2.70299,0.0186501,18.2651,33.5015,10.1793,18.4369,32.0245,9.52731,18.5939,33.8404,9.58186,18.6485,32.2613,9.17231
4.03937,0.235853,-14.9737,7.41469,-6.25019,-14.497,7.06264,-6.50093,-15.1098,7.05935,-5.98948,-15.6754,7.96158,-7.32758
33.8357,1.74454,9.18866,11.7136,7.74779,7.69252,11.4072,9.6387,4.67792,10.4228,9.14051,10.3404,11.4507,9.58831
4.80189,0.155236,-8.14889,30.1062,12.7223,-6.93724,30.7224,13.2571,-6.62165,30.1536,13.1114,-7.87961,30.3731,12.7607
2.20091,0.158668,-12.5538,38.954,12.6113,-12.2564,38.7526,12.8352,-10.8576,38.7028,13.4805,-10.9463,38.7217,13.4488
6.20932,0.0929405,-14.3997,12.1638,13.1887,-17.0173,12.019,12.9452,-17.2857,12.4054,12.9174,-16.1963,12.5285,12.9779
17.2299,0.0266932,-12.0528,22.3615,-8.06219,-9.61593,21.9156,-9.45349,-8.6717,24.8515,-9.21268,-10.4878,20.7467,-9.28298
3.66582,0.162968,-16.2283,32.169,12.9412,-17.3639,32.5254,12.9873,-15.9491,31.2361,13.2416,-15.4152,32.6809,13.0939
6.27422,0.0701599,11.7978,14.3317,11.8184,10.6053,14.3364,12.3746,13.1065,14.7985,11.6526,11.9183,13.3315,11.2925
3.2912,0.223051,-19.5064,30.3618,-5.20759,-18.631,31.0817,-5.04202,-18.8228,31.7254,-4.9033,-18.4518,31.063,-5.08106
1.86848,0.00399269,-10.0398,30.448,-5.90944,-10.0013,31.7147,-5.84761,-9.92964,31.5699,-5.89101,-10.4843,31.1826,-5.64572
46.9864,0.565069,-14.1231,5.31618,-2.17512,-16.3662,4.97676,-1.77985,-17.1015,4.25565,-0.454632,-14.4283,3.38659,-0.319913
1.42448,0.200842,-2.6377,15.9521,13.0729,-1.96601,16.9671,13.3457,-1.58256,17.2956,13.3635,-1.40913,17.2381,13.3529
6.55234,0.00806984,-17.1582,36.3512,12.4686,-16.2734,36.4175,12.6418,-15.8493,34.7225,13.0922,-17.7808,35.5266,12.5284
9.69242,0.320354,17.6818,30.4545,7.99612,17.2905,29.5286,9.14107,18.6278,30.9711,6.73934,17.5855,30.3188,9.59538
3.6689,1.36931,14.4218,14.3065,-7.89028,14.4507,14.3462,-6.43829,14.6347,14.2658,-6.396,13.6511,14.1851,-6.43077
13.1318,0.0314292,-0.910791,28.7685,-11.9279,-3.34329,31.741,-10.3662,-2.29467,31.2392,-10.7651,-1.69116,28.0054,-12.0866
1.75258,1.14228,-1.65649,19.7102,-12.687,-1.58856,20.854,-12.7977,-1.21893,20.8146,-12.8408,-1.77602,20.8745,-12.8017
2.07446,0.207112,6.52986,13.0525,-7.84629,6.37854,13.0987,-8.13641,5.69349,12.8615,-7.50816,7.52496,12.4738,-8.0962
13.0313,0.315365,-14.8863,3.33705,-0.0951155,-13.133,1.25022,3.23798,-13.768,2.33116,1.16666,-13.033,1.41182,2.93283
8.22004,0.199573,-1.18716,26.568,-12.2008,-1.66553,28.1499,-12.0474,-0.389163,26.3504,-12.7007,-1.52837,25.6161,-12.4273
5.31169,0.408864,-1.77812,5.57753,2.27829,-2.56391,4.73919,2.68148,-0.235375,5.85288,1.5766,-0.216618,5.96883,2.47244
1.15965,0.124318,-21.5227,32.81,11.1942,-22.07,33.5317,10.9879,-22.0228,33.6891,11.0399,-21.7724,33.6051,11.1233
5.12361,0.0986559,-21.3899,32.3412,11.2806,-20.3555,33.2678,11.7774,-20.1339,33.0694,11.8653,-20.7641,34.4149,11.607
2.55037,0.13352,14.2252,11.8165,6.32603,12.6684,11.3229,6.8931,11.8243,11.2997,6.86733,11.8468,11.2633,6.94334
10.5502,0.360274,-20.8204,7.46008,-2.29732,-20.0501,6.69852,-3.42356,-21.7078,8.26886,-2.9189,-19.9671,6.16078,-2.71636
0.549886,0.0163228,23.4067,21.2342,-0.790951,23.7021,20.613,-1.32539,23.6238,20.6259,-1.10072,23.7093,20.7535,-1.4106
4.57152,0.176561,-19.2802,37.9931,-3.79413,-17.6402,37.119,-4.15261,-17.6388,37.8204,-3.97949,-17.5702,37.7182,-4.01845
1.50406,0.106597,-7.91027,39.1601,-4.22132,-7.67649,38.7023,-4.27397,-8.27865,39.9299,-4.41828,-8.43077,39.367,-4.4104
22.6104,0.0659981,4.62931,28.3056,-12.521,2.68174,31.6596,-12.6819,2.60028,29.0263,-13.1086,5.89336,28.424,-12.1817
0,0.0205944,-12.8194,0.103615,7.56567,-12.7926,0.180818,7.78766,-12.776,0.209226,7.8996,-12.8617,0.118812,7.68226
2.13509,0.177125,-17.0681,23.9624,-6.71542,-17.5526,24.7326,-6.64159,-17.3522,23.5808,-6.91112,-16.4945,23.9244,-7.03584
2.09185,0.189144,-15.5863,1.64878,8.90259,-16.4529,2.76034,9.3179,-16.3609,2.75333,9.3602,-15.9429,2.57622,9.47206
17.1963,0.173512,0.597176,8.58341,-2.664,3.86328,9.79361,-2.85948,0.453552,8.05521,-2.01742,4.23262,9.54152,-1.892
1.3378,0.223901,17.5131,14.9775,-3.48494,16.8413,14.4753,-3.68731,17.1064,14.8201,-3.53099,16.5954,14.1121,-4.80343
9.36113,0.105393,-17.3165,3.67,3.02164,-17.3251,3.79966,1.24559,-16.5429,2.68417,4.09541,-16.3,2.52882,3.69366
8.8422,0.0648848,-2.11161,43.5738,-0.492075,-1.54259,43.5637,-0.211246,-2.09152,43.86,1.14482,-3.88617,44.0862,0.138096
13.1869,0.112456,-5.15811,43.9345,-0.949884,-4.0232,44.0651,-0.333595,-3.21099,43.7221,-1.67917,-4.47528,43.7325,-2.22591
4.61701,0.553882,-18.6942,34.5218,-3.91946,-20.1017,33.3511,-4.90353,-18.1269,35.7612,-4.10512,-19.7874,33.8703,-4.59592
24.0023,1.73209,-8.66864,36.1218,13.4295,-3.5001,34.1967,12.9697,-4.38611,36.7277,13.4069,-3.56787,35.2502,13.0158
49.9269,0.492502,-4.33722,31.0571,12.9406,-0.0196991,34.0212,13.0076,2.18486,34.3937,13.0989,1.80532,35.7156,13.3238
3.80583,0.11891,-6.07419,15.7966,11.9014,-5.84154,15.2342,11.5448,-5.47421,16.3283,12.7201,-6.31262,16.7846,13.029
0.778489,0.0108328,-8.66798,3.96197,-5.46804,-9.30293,3.8805,-5.56484,-9.25494,4.0609,-5.81598,-9.10794,4.10728,-5.83002
55.731,0.435259,-13.6398,30.171,-4.30528,-13.9053,24.9222,-7.33182,-11.8083,26.859,-6.25894,-12.7941,26.3704,-6.47485
3.08561,0.202971,0.373965,42.0007,10.1096,0.32175,43.6869,8.4542,0.454849,41.3129,11.2326,0.236253,43.4143,8.84153
13.6572,0.370665,17.8312,32.4602,2.03245,18.3882,30.7473,2.25319,18.027,32.8588,1.15021,18.4649,31.0201,2.84591
4.23019,0.56156,-11.9864,18.8708,12.557,-11.18,18.1364,13.2084,-11.307,17.7166,13.1489,-10.7581,18.6068,13.3247
1.30111,0.0676406,-1.61609,8.12872,11.4147,-1.07382,7.38228,11.426,-1.7449,7.51174,11.9552,-1.38886,7.6389,11.507
2.2678,0.333284,0.421619,27.8572,13.0604,-0.402615,27.939,12.911,-0.0886101,27.6982,12.921,0.54422,26.6654,13.2024
2.99729,0.0270899,11.291,26.5055,13.3253,12.6483,26.2267,13.1714,11.5298,25.6733,13.1444,12.5978,26.3927,13.2133
5.62961,0.236738,-23.2905,23.1138,10.0237,-23.108,24.4411,10.4986,-23.3352,23.7816,8.72039,-23.3177,22.8629,8.2522
2.31775,0.0528125,-20.4109,9.5628,12.3054,-21.0835,10.1978,12.2892,-20.1103,9.94405,12.5255,-20.4876,8.97351,12.2222
1.09298,0.0528303,-5.47982,26.7635,-10.5763,-6.01215,26.9786,-10.0304,-5.8345,27.3306,-10.0048,-5.87103,27.2933,-9.99063
9.18717,0.0968787,9.0015,40.381,6.39464,10.8764,39.019,5.85258,8.02427,40.6513,5.98292,10.7662,39.5491,6.35121
2.64589,0.390192,19.2152,27.0821,0.2639,20.0107,26.692,0.187397,19.0417,27.9316,0.117702,20.0357,26.7094,1.04991
1.65288,1.24905,17.2294,30.8341,11.6125,17.2626,30.5228,10.3173,17.631,31.0803,10.3506,17.3485,30.7314,10.3085
6.16111,1.05805,15.4136,21.3755,11.9136,16.8508,20.7693,10.6551,16.7247,20.6636,10.6845,16.428,19.7332,10.8105
4.69628,0.0484888,8.0759,13.8529,-8.92551,6.55375,13.0927,-8.21511,8.50889,13.791,-8.92609,7.82351,12.7664,-8.30806
50.1778,0.0190256,3.00583,8.80361,-1.33225,-0.117225,7.90835,-2.62101,-1.57676,5.3439,-0.747297,3.32466,7.63427,0.209668
3.02223,0.128374,12.4168,12.1571,9.34067,12.0313,12.1985,9.90764,13.6388,12.114,8.69473,11.9243,11.4122,8.81934
62.7726,0.546966,14.4088,14.068,-5.85466,10.3276,11.8804,-7.49274,12.0625,13.8014,-8.83482,12.1805,11.8927,-5.73225
2.66023,0.266175,3.48259,15.0112,-9.35108,4.80825,15.2768,-9.99761,4.10005,14.6199,-9.20097,4.91382,15.53,-10.1968
4.15119,0.216151,1.3451,39.5785,-3.18739,2.51393,39.3264,-2.46023,0.450244,40.2843,-3.81211,1.92054,38.9959,-3.84976
8.42591,0.0230431,8.54928,37.6628,-0.0396392,8.44631,38.1662,0.572302,10.6348,37.2883,0.0471497,11.0671,37.4367,0.379891
2.45656,0.0845473,11.0368,10.632,4.05581,9.65814,11.7882,4.9556,11.0363,11.0081,4.76816,9.75311,12.0121,5.34981
14.5799,1.25768,-1.57373,10.9686,-8.55501,-1.23979,10.1318,-6.20174,-0.804184,10.8318,-6.80007,-1.33063,9.86393,-6.20415
3.93298,0.531886,5.0491,33.1377,-11.9201,3.70751,34.0472,-11.643,4.52237,33.6744,-11.4182,4.65898,34.7223,-11.1319
5.21968,0.288207,23.1026,21.1657,-3.7814,22.5776,22.1501,-2.94622,22.5527,22.7179,-1.44477,22.4393,22.8011,-2.31172
15.6908,0.35444,15.4016,13.3558,-1.49949,14.3728,11.9106,-0.558892,15.9067,12.1199,1.33058,14.9297,11.5768,1.17265
1.23277,0.0405414,-5.26647,4.85735,-4.41823,-5.13168,5.21075,-5.16557,-4.72699,5.0568,-4.87154,-4.96545,5.23194,-5.24276
2.98567,0.448464,19.7012,15.9548,2.07415,20.4677,17.5504,2.66689,20.4168,17.3662,2.45612,20.2933,16.8489,2.04829
0.280685,0.0091389,-7.19451,43.0945,13.1947,-6.67129,43.1095,13.189,-7.05995,43.0076,13.2885,-6.7266,43.1763,13.1085
3.95595,0.11298,-15.527,14.9809,-9.55211,-13.9928,16.1732,-9.21506,-15.5742,15.6616,-9.25416,-13.7562,15.9203,-9.41449
37.4543,1.70483,-22.8942,24.4695,-4.8061,-20.8805,25.4057,-5.67612,-20.0575,24.0391,-5.65735,-21.649,21.9533,-6.74892
6.97229,0.405734,0.47196,20.2136,-13.1003,-1.98732,18.3081,-12.4126,-1.91908,18.0285,-12.4134,-1.04074,18.4967,-12.5089
7.7583,0.0421724,-4.93108,26.8624,13.2083,-4.80138,28.5685,13.0713,-4.9723,28.3311,13.1316,-6.85134,28.8067,13.5218
1.9459,0.1234,2.88251,38.8362,-1.88849,3.1804,38.6589,-1.74235,2.58715,39.3802,-2.28651,2.69897,39.1562,-2.35067
13.9695,0.571119,-14.2091,46.4662,1.46063,-12.7541,45.6469,3.5446,-11.8931,45.7807,2.98567,-12.3563,45.5154,4.54059
6.55906,0.258445,-12.9486,22.8315,-7.44508,-13.6185,23.373,-7.44243,-13.0833,24.5491,-7.33864,-12.2756,22.5163,-7.94549
1.442,0.330737,-13.2209,16.5302,-9.3547,-13.9492,16.3134,-9.13889,-13.4628,16.1257,-9.36076,-13.7818,16.433,-8.9662
9.16153,0.113778,-2.90277,19.7309,14.0715,-4.95296,16.1547,12.6725,-3.75448,17.0447,13.152,-4.77899,16.1002,12.6795
1.84197,0.180504,4.19634,28.3611,13.3228,3.86566,27.9107,13.5416,4.79807,28.2394,13.7042,4.23167,28.8149,13.4096
0.528349,0.141555,18.3013,33.3778,5.08597,18.4755,33.3058,5.19774,18.3567,33.6183,4.6744,18.3206,33.7739,4.8087
3.11974,0.150924,-8.7434,6.41043,11.1623,-8.01441,7.04138,11.9134,-7.73831,6.29306,11.4607,-9.34267,5.96502,10.9304
8.37625,0.0713547,9.19129,38.8811,3.41858,10.1491,38.6594,3.85903,10.0247,38.8126,1.67186,7.84744,39.3111,3.90696
2.66451,0.219123,-0.735851,30.943,12.652,0.358938,30.8341,13.104,0.406528,30.6676,13.0886,-1.15173,30.5054,12.7189
1.40615,0.0423224,-11.2477,20.9143,-8.91714,-11.4663,19.9643,-9.49816,-11.7196,19.9102,-9.51372,-11.3807,20.02,-9.47138
1.29431,0.0520657,18.6474,31.6738,8.35471,18.7866,31.9516,8.50851,18.4451,31.1523,8.77259,18.6932,31.4016,7.7164
3.45031,1.43945,5.33782,19.4371,-11.5412,4.22782,19.8162,-12.8249,3.94505,19.4769,-12.8629,4.3417,19.8991,-12.8202
1.90338,0.435587,18.2654,28.7578,7.0807,18.9627,28.7632,5.87217,18.9675,29.3186,5.3198,18.7988,29.499,5.97679
3.26222,0.145268,10.4345,10.8499,-2.0681,10.9321,10.5137,-1.42608,9.41953,10.977,-1.75628,10.1174,10.847,-2.99338
3.78359,0.0836114,-19.5426,11.2012,-7.5263,-20.2891,11.2253,-7.22532,-21.1523,10.9291,-6.35648,-20.5066,10.6648,-6.4614
1.77962,0.289258,18.6208,27.3783,5.48584,18.7225,27.2195,4.65975,18.643,27.0982,4.77317,18.7215,26.6241,4.51253
4.68569,0.19751,14.6654,22.8886,-10.5842,15.2884,23.2266,-10.5062,14.0428,21.7991,-11.1789,14.1971,23.4964,-10.9175
0.82371,0.363892,-20.5124,24.8087,-6.01471,-20.5947,25.5142,-5.77996,-20.6484,25.4361,-5.72275,-20.7136,25.5357,-5.72128
2.44076,0.0528348,14.023,28.3236,13.293,12.4109,28.4029,13.5474,12.546,28.2112,13.5122,13.3204,28.5517,13.3833
2.7351,0.293683,-20.3597,6.42705,11.409,-18.3616,5.15214,11.4594,-19.1298,6.06976,11.5271,-18.2198,5.27138,11.602
10.4647,0.0811866,-8.4267,16.597,-11.6433,-9.28305,14.1445,-11.5201,-8.43481,14.0441,-11.5243,-9.92815,15.4988,-11.5358
6.85271,0.539896,18.2862,31.3684,-1.20255,19.4474,31.8002,-2.88262,19.304,31.861,-2.76699,18.9095,32.6712,-2.47825
8.52808,1.10511,19.3464,15.9933,-0.453683,19.9467,16.3712,-2.01527,20.8542,16.4977,-2.06008,20.5349,16.4849,-1.99864
4.62422,0.000653284,-15.225,33.954,13.1659,-14.5392,34.6357,13.1408,-13.9716,34.5988,13.0454,-13.8703,33.9597,12.9504
4.07163,0.0343271,-7.13549,15.324,-11.7335,-7.67784,15.5244,-11.6881,-6.53892,14.826,-11.829,-6.69276,16.8489,-12.0056
2.09507,0.29498,21.5362,25.0927,-8.58684,21.023,25.9131,-9.10479,21.0187,25.9179,-9.29494,20.9086,26.3654,-9.32018
0.018772,0.0272339,-10.2963,44.9309,-4.75705,-10.4715,44.9884,-4.77319,-10.4151,44.9333,-4.78181,-10.4102,44.8145,-4.86169
11.5464,2.97337,-18.1602,28.5582,12.4014,-14.7857,27.7649,13.0256,-14.3803,29.1068,12.9249,-14.6174,27.9913,12.9028
0.659967,0.0856835,10.163,11.8519,6.02513,11.0218,11.3282,5.86597,10.8808,11.3662,5.75955,10.8992,11.4105,5.97641
1.53598,0.113299,-4.97769,39.8563,13.4841,-4.65695,40.9344,13.5255,-4.75314,39.3666,13.6557,-4.26156,40.6739,13.5746
1.56196,0.0791084,-17.8845,27.8962,12.5179,-16.2875,28.1869,12.742,-16.3207,28.0566,12.7953,-16.7532,28.169,12.618
1.27856,0.458035,-13.0228,34.0923,11.449,-12.8525,34.8753,11.1337,-12.5747,35.2509,11.1489,-12.6988,35.1557,11.1691
7.80935,0.0775593,-18.1206,27.9383,12.3197,-19.5727,27.2724,11.7294,-20.2085,28.3123,11.4611,-19.0438,28.4443,11.8822
5.43505,0.151377,5.47956,9.21379,-0.53472,3.74001,8.2543,-0.569906,3.66891,9.08752,-1.57726,4.36715,9.50105,-1.69471
4.44962,0.154789,-17.2209,19.627,12.8686,-15.6612,20.0791,13.1498,-14.6155,20.0634,13.1965,-14.57,19.8952,13.1789
1.95333,0.135752,-14.3309,42.1697,11.6077,-14.8468,42.2645,11.165,-13.4858,41.8024,11.8918,-13.543,41.9609,11.8781
1.995,0.415007,-12.9242,34.0709,11.4536,-13.4148,32.5555,12.302,-13.246,32.7804,12.0915,-13.0291,32.5926,12.2656
4.44372,0.0722098,-9.82843,41.1385,13.1571,-10.9049,40.931,12.4683,-12.3613,41.1079,11.4193,-11.9714,41.4362,11.4989
1.99685,0.618828,-5.16986,5.37006,-5.65392,-4.50195,6.11904,-6.14811,-4.49769,6.13036,-6.44234,-4.33867,6.14568,-6.17932
26.9137,0.883464,-4.96233,34.8034,-5.62531,-6.33954,35.7302,-4.75388,-7.17082,34.7079,-5.73191,-4.78183,35.8076,-5.9933
36.4492,1.05449,19.9865,24.7375,-1.37543,20.2203,26.0571,-0.612495,21.6985,25.2489,-4.24466,19.7663,27.4321,-2.2469
2.61158,0.832481,6.49804,35.7181,-4.41853,7.31235,35.8151,-3.85681,7.99899,35.556,-4.26277,7.59006,35.6898,-3.99894
6.40779,0.18965,-3.03094,25.2239,13.0383,-3.53976,26.6864,12.9175,-2.64684,25.8549,13.0674,-4.4746,25.5412,13.23
3.91631,0.452582,-19.8465,29.5487,11.7308,-17.5254,29.7039,12.4477,-17.9662,29.504,12.383,-17.4839,29.8402,12.4644
2.89781,0.0126845,5.7182,40.3933,2.14768,6.07325,39.9651,1.58035,6.17175,40.6478,3.4358,6.01755,40.6632,3.26814
1.43281,0.0063983,0.359839,42.9678,11.0521,-0.971732,42.9347,11.9261,0.185948,42.6058,11.9572,-0.00520548,42.7975,11.6535
5.69581,0.304032,-17.3342,26.4974,12.2242,-18.5188,27.0061,12.122,-16.8049,26.7096,12.6493,-19.1608,26.4514,12.0525
2.75945,0.115562,-15.9186,42.799,10.4296,-17.08,43.015,9.36833,-15.9386,43.5919,9.68064,-16.2355,43.2551,9.73493
1.47481,0.159579,-4.28706,4.01875,2.22635,-3.74342,4.2237,1.90225,-4.45544,3.67012,2.37144,-3.79399,4.29436,2.30267
4.8438,0.418457,-13.1819,16.2419,-9.42482,-12.193,15.1111,-10.6185,-11.87,16.2716,-9.9909,-12.253,15.581,-10.1807
11.2216,0.603241,17.7862,24.8274,4.70105,18.6567,25.6534,4.36006,18.2002,23.9531,4.77664,18.3358,25.7085,6.43255
14.0797,0.905139,9.96352,10.6012,0.723178,9.26835,10.8573,3.81126,8.25294,10.0946,2.65951,7.75199,9.85627,0.847484
4.91166,0.307026,-8.62547,17.6837,-11.0065,-7.36961,17.895,-11.6988,-9.56761,17.2579,-11.1582,-9.05035,18.3135,-11.0097
1.05748,0.3194,16.1641,35.7486,-0.798473,15.3177,35.8172,-0.996621,15.316,35.844,-1.10465,15.0389,35.901,-0.825702
2.45307,0.278497,6.15057,24.5046,-11.3793,5.26297,24.9937,-12.2796,4.85729,24.8102,-12.9939,5.42097,25.6183,-11.9323
2.17363,0.526765,13.4938,20.3783,-11.4343,12.602,20.8749,-11.0226,13.3545,21.525,-11.2781,13.1689,21.2587,-11.1774
4.49496,0.451777,-20.0578,32.0403,-4.82451,-20.8574,32.798,-3.65923,-21.0609,32.2252,-3.46863,-19.338,32.1275,-4.82052
1.69458,0.0585471,3.56217,27.3596,-13.2403,4.10909,26.8885,-13.2418,3.53346,27.9382,-13.1926,3.28507,27.1227,-13.4299
1.47699,0.195742,-19.6292,42.3301,6.8981,-20.5594,41.9429,6.90015,-20.4832,42.2294,6.48827,-20.2748,42.3005,6.43157
5.59478,0.148609,11.2148,35.3209,-3.65887,13.3238,35.2643,-4.55292,12.2264,35.6285,-3.1994,10.1085,35.5724,-3.2384
6.44259,0.0471022,-18.55,22.7276,-6.82616,-20.5016,23.3782,-6.21304,-20.2698,24.0687,-6.18542,-17.5539,23.4789,-6.93173
1.08541,0.629148,3.88129,12.1859,-6.17145,3.2118,12.6812,-6.35066,2.9643,12.5252,-6.26889,3.08287,12.6217,-6.35997
1.6921,0.426265,-5.81372,14.8308,11.2787,-6.02131,15.3024,11.6106,-5.83983,14.6311,11.7462,-4.96856,15.3306,12.0008
22.3013,0.755734,-20.0192,16.6499,-6.12665,-17.2903,16.3814,-8.40898,-18.1167,16.734,-8.03725,-20.2215,15.3889,-6.63181
2.98409,0.185067,-16.8511,30.4799,-5.34127,-15.965,30.3675,-5.20548,-16.205,29.7163,-5.49963,-16.697,29.6302,-5.53002
1.02498,0.146487,22.1161,23.4882,-2.58407,22.5182,22.5092,-3.23237,22.3073,22.879,-2.87251,22.3162,22.8809,-2.68506
3.37589,0.273059,-3.71281,30.4428,-9.75249,-4.14635,30.3049,-9.70193,-4.39148,31.121,-9.40712,-3.35073,30.6222,-10.5158
5.17153,0.424275,-12.4232,29.2498,10.8163,-13.1041,27.7976,11.7185,-12.1152,26.7359,12.5065,-12.6232,27.79,11.6286
18.094,0.985921,-19.3898,18.3095,11.5897,-15.3319,18.9393,13.1192,-16.3785,18.935,12.9445,-19.8433,19.3767,11.7137
0.288368,0.00894075,17.1178,29.1302,9.65551,17.1756,29.1175,9.33504,17.1118,28.6984,9.62778,17.1728,28.9874,9.34438
6.09817,0.2266,-7.62315,5.23043,10.5205,-9.10205,4.68326,9.91228,-5.84973,4.41231,10.5715,-9.00778,4.31644,9.59692
7.46263,0.183817,13.9192,40.5929,8.74749,13.9013,40.3455,7.76464,15.3281,40.6585,9.37814,11.4346,41.2694,8.07538
0.475914,0.217876,-22.426,31.1284,-3.77947,-22.7188,30.4649,-3.66273,-22.804,30.6074,-3.41616,-22.7802,30.4655,-3.49313
0.958584,0.127487,18.6744,33.796,9.43789,18.7304,34.6917,9.10992,18.9788,34.4102,8.69482,18.7907,34.5405,9.00804
12.6243,1.42046,-7.97769,35.9722,-4.04007,-10.3123,37.1369,-3.92542,-10.0159,37.8222,-4.12521,-10.3066,36.9991,-3.85674
0.949218,0.00684077,-15.8748,29.8239,12.8893,-14.8224,29.5514,13.0678,-15.9185,29.711,12.8953,-14.7839,29.6863,13.0668
2.57619,0.138667,-10.3178,14.8761,12.9605,-10.9876,13.8673,12.7011,-11.0414,13.4502,12.8859,-10.3495,13.8951,13.2786
22.3975,0.0850627,13.518,36.1256,-0.681953,16.0955,36.9376,1.12901,17.4082,37.7895,2.56322,16.46,35.9554,-0.09897
6.37333,0.458867,18.0329,36.1495,9.58555,18.2439,34.8,10.2996,18.6538,37.3223,9.26736,18.69,35.0597,8.92911
8.03567,0.315804,2.62977,15.1669,-9.303,3.70149,16.6271,-10.4997,2.07056,15.7729,-9.94475,2.13974,16.1579,-10.5321
1.94937,0.0137154,11.2485,36.4263,13.7281,12.3903,36.0506,13.4753,12.4387,35.8847,13.4693,12.1275,35.8271,13.5477
12.2618,0.0450529,13.9617,33.9728,13.6145,15.8625,36.1288,13.153,14.3229,37.0685,13.3751,15.0483,34.0685,13.4503
2.22521,0.0978378,11.6819,33.5189,-10.91,11.1975,34.6967,-9.83627,11.5327,34.9397,-9.66473,11.4994,34.9638,-9.63577
15.2822,0.117908,9.27783,18.3642,12.962,6.2629,20.2698,13.6806,6.83679,18.5709,13.1993,5.36437,18.1296,13.28
47.6649,0.200894,-10.623,5.05614,-6.38437,-7.87007,7.46128,-9.83547,-6.8558,7.75837,-10.3889,-7.41907,4.7669,-7.15459
1.89442,0.127509,-20.4213,21.5619,11.3507,-20.7772,20.3617,11.5258,-20.4689,20.4345,11.5397,-20.687,20.0368,11.5495
4.21678,1.89541,-18.9328,34.226,12.2217,-16.6607,33.9377,13.0061,-16.8269,33.6875,12.9297,-17.2554,33.2085,12.8797
3.90372,0.182765,16.8662,24.8306,11.1692,16.6908,24.3194,11.4223,17.7213,25.4213,10.969,17.2234,26.0672,11.3103
3.48659,0.102662,12.2626,10.7661,-0.850496,13.18,10.9417,-1.85053,12.5471,10.8874,-1.35129,13.4694,11.0019,-0.538234
1.41132,0.0549465,-4.29356,3.57994,0.553214,-4.2912,3.59183,-0.220435,-3.69334,3.93623,1.0188,-4.62597,3.301,0.0292693
3.64985,0.093628,-2.76928,15.834,13.0085,-4.15232,15.6274,12.6867,-4.28085,15.2142,12.7942,-3.48697,15.0178,13.0237
5.03489,0.49411,4.3672,39.3276,0.696248,3.6909,40.4966,1.22567,2.76722,40.5429,0.41311,2.65767,40.6431,0.514141
1.09796,0.00474197,1.39384,23.8152,13.6198,1.78887,23.555,13.6806,2.06942,22.8999,13.8135,1.98794,22.6348,13.8651
3.93155,0.97873,16.5967,14.0853,-1.43015,15.392,13.6304,-2.49035,15.9279,13.328,-0.923419,15.5369,13.6612,-1.9252
3.13946,0.188195,14.1824,12.9366,-3.41454,14.8401,13.1963,-2.59602,14.5208,13.166,-4.65668,14.0653,12.5779,-3.53347
3.89172,0.265138,-13.0428,27.3747,11.9182,-13.2415,26.4676,12.4705,-13.714,26.4963,12.6993,-14.1764,27.8239,12.7016
4.69545,0.347471,-19.0101,5.09971,-0.908487,-17.9828,5.05767,-1.85989,-18.0687,5.64342,-2.65104,-18.5791,4.68368,-0.113527
4.89448,0.975657,3.86066,20.5666,13.7278,4.75507,21.3377,13.8008,3.17079,22.1543,13.911,3.43697,22.0473,13.8515
5.47013,1.24491,18.7176,30.9534,6.31245,18.7448,33.2556,6.47585,18.5638,33.0034,6.22639,18.5155,33.0138,5.36929
7.53999,0.0553436,-18.7173,28.0343,-5.73106,-16.7867,29.2261,-5.70249,-18.9141,29.8657,-5.33963,-18.5823,30.2579,-5.28104
13.2881,0.233955,-22.5719,11.5593,-5.26305,-21.0451,10.7935,-6.19279,-22.4989,10.1391,-4.14568,-20.798,10.2821,-5.84216
4.1231,0.541747,-8.85738,42.6737,-4.27823,-9.58257,43.2472,-3.47732,-9.42424,43.0903,-3.45578,-9.08705,43.5044,-4.01257
0.34188,0.12439,4.35229,16.6165,12.9923,4.92153,16.3206,13.1692,4.97874,16.167,13.1917,4.96625,16.4649,13.2079
4.71157,0.0381945,20.7094,26.3986,-3.64352,21.4117,27.2921,-4.83046,21.5798,26.5354,-4.80259,20.967,25.6815,-3.68471
6.01338,0.312108,19.4477,34.8426,-4.73751,18.9849,33.7891,-2.81811,19.2887,33.1567,-3.25151,19.1676,33.1807,-3.01596
7.11202,0.0347414,-7.89038,19.0064,13.9345,-5.78173,19.9971,13.9544,-8.24687,21.3068,13.7796,-5.89819,19.5852,13.9675
3.26335,0.112256,13.0078,35.8511,13.3438,12.5254,35.8538,13.4544,14.0009,35.9935,13.4312,11.896,34.7653,13.7541
4.34982,0.290366,-6.19739,38.2226,-4.27561,-7.55157,38.8248,-4.22011,-6.58248,39.3883,-4.84389,-7.15456,38.6315,-4.10869
21.0141,0.51042,-6.50739,2.29099,2.76756,-4.97928,3.50565,3.7762,-3.2667,4.25894,4.05031,-3.92563,3.98819,3.02694
6.67432,0.350732,4.41456,17.8282,-10.6023,4.35368,17.1588,-10.7062,5.66548,16.3652,-10.3,5.14406,18.5993,-11.2649
9.06401,0.0979705,-13.1217,3.65928,-3.8504,-14.2166,4.29456,-2.99946,-15.1171,5.48249,-4.18161,-13.4466,3.58661,-3.03659
3.41716,1.12744,-19.3625,37.717,-3.76891,-20.1598,37.9985,-2.40213,-20.4038,37.6808,-2.18576,-20.3874,38.3574,-2.51027
3.75864,0.0649033,-8.48881,8.80167,12.7323,-9.21643,8.21431,12.2781,-6.40216,9.12196,13.1469,-6.44402,9.29468,13.2172
2.60914,0.0350753,-14.8546,31.0646,13.2955,-15.5225,31.6981,13.1969,-14.5176,31.5563,13.303,-15.0481,32.0044,13.2519
1.27137,0.0786292,-17.7368,43.2953,8.53381,-17.2817,42.9288,9.23882,-17.1979,42.927,9.3456,-17.163,43.5072,8.95941
25.1052,0.815572,-18.2354,4.80503,3.67549,-18.7989,4.46423,2.71844,-18.3586,3.29858,5.39641,-19.8706,4.44935,6.17786
9.39531,0.283162,-11.735,23.0035,10.9888,-8.42772,23.5214,13.3882,-9.08293,23.5353,13.1467,-9.46293,23.118,12.4865
9.65277,0.204356,2.88098,15.0186,-9.22677,1.90285,13.8059,-8.14453,3.645,14.2419,-8.69766,1.67742,14.1288,-8.49525
1.28536,0.368825,-12.5556,3.56972,-1.57269,-12.9796,3.62779,-1.90166,-12.5707,3.44164,-2.09991,-12.6487,3.69285,-1.92088
1.17995,0.0141007,-15.5405,43.6338,9.80327,-14.5165,44.0698,9.83776,-14.899,43.8233,9.99874,-14.5146,44.1313,9.72045
6.99744,0.437258,-2.99041,26.4718,-12.1346,-5.28149,26.4893,-10.8037,-4.85966,27.1489,-10.8728,-5.30816,26.354,-10.8398
9.80656,0.751506,6.55407,10.9578,5.139,6.98336,9.88004,4.35845,7.92371,11.2576,5.72094,7.09006,10.9632,6.3751
5.33394,1.02874,11.6807,20.1866,12.1746,10.1439,20.2655,12.5498,10.3881,21.1051,12.9414,10.4418,20.9195,12.6813
2.18331,0.971679,9.46003,16.511,-10.2726,8.4455,16.7634,-10.3052,8.36812,16.6079,-10.2429,8.5497,17.0315,-10.5301
5.66982,0.0170618,0.621798,14.1687,-9.62799,-1.04492,13.6085,-10.2187,0.667731,15.325,-10.4977,-1.14105,13.748,-10.3812
0.783082,0.109466,18.8907,35.1086,8.72497,19.0909,34.629,8.1352,19.025,34.7789,8.4568,19.1401,34.9032,8.13302
4.18263,0.232405,-8.56197,39.6674,-4.35876,-9.53575,41.8754,-4.07039,-9.18083,42.406,-3.99981,-9.56703,41.4718,-4.10075
26.8843,0.0340194,-5.49716,33.215,-7.99263,-5.63725,30.8549,-8.38951,-7.61042,29.8585,-7.28364,-6.39713,29.24,-8.24176
3.13752,1.13156,10.4166,24.8147,13.0624,12.2003,25.0244,13.0914,12.2753,25.5793,13.036,12.1972,25.3126,13.0242
1.22909,0.0335768,18.7202,30.0961,4.29685,18.8613,30.3483,4.95006,18.7117,30.8132,4.44837,18.8802,30.3454,5.04154
15.2155,1.17284,10.4652,36.7658,-0.93669,13.0064,36.9413,0.314661,12.2745,36.4669,-1.83308,13.2555,36.4315,-0.300904
20.3503,0.0989136,-15.5207,46.0814,2.57449,-13.5648,45.929,2.98758,-14.6177,45.4841,5.76478,-12.643,45.4656,4.95693
0.730015,0.794415,-2.47382,44.5816,5.06553,-2.22415,44.3689,5.90227,-2.50025,44.4889,5.86847,-2.3499,44.3887,5.88909
1.05568,0.11712,-14.1223,44.1954,9.78865,-14.1074,43.916,10.2861,-13.9682,43.8806,10.5767,-14.117,43.8128,10.6063
2.06041,0.201718,-14.0225,26.4551,12.8095,-15.0629,26.4973,12.9023,-14.9831,26.7699,12.8748,-14.5896,26.8116,12.9096
1.37175,0.470091,-8.4352,18.1161,13.8342,-7.34965,18.244,13.8484,-7.39631,18.4089,13.8611,-7.58203,18.767,13.9272
5.25308,0.407056,-2.35999,11.2699,-10.7472,-3.05394,15.2743,-11.828,-3.44092,13.9577,-11.4815,-3.37335,13.2149,-11.3467
0.814033,0.0210207,-10.2447,38.526,13.6098,-9.46374,38.5912,13.6393,-9.89861,38.7202,13.5937,-9.63348,38.3471,13.6524
4.48402,0.0482876,5.11273,30.6494,-12.246,6.32455,30.4901,-12.014,6.02641,29.8225,-12.1726,4.90543,32.3465,-12.1338
4.79977,1.50403,-3.606,6.5524,-6.01024,-2.41193,8.5148,-6.84264,-2.65144,8.09389,-6.0618,-2.65208,8.36487,-6.45917
3.71784,0.439426,-12.1582,7.17873,11.4115,-12.062,6.61048,11.6116,-12.6624,8.30571,12.7826,-11.6136,8.20056,12.2068
5.08534,0.146104,5.59564,24.4159,13.3181,8.3375,24.8881,13.1905,7.8173,24.4492,13.1845,8.28692,24.7499,13.1893
28.2701,1.20995,6.72724,35.4859,-4.794,7.01138,35.2981,-9.18349,5.3297,35.4722,-7.56433,4.3761,35.8083,-7.47318
14.765,0.0480502,-2.10832,40.5388,-4.85448,-1.69394,38.5086,-5.8412,-0.58275,39.1542,-5.86585,-1.2769,37.9788,-6.16467
5.4324,0.161536,-20.1863,40.746,-0.292397,-20.8355,39.7055,-1.52218,-20.3483,41.3035,-0.975948,-20.6869,39.686,-0.700359
3.41739,0.120978,-12.7674,30.9101,12.4674,-12.0976,30.1906,11.785,-12.5988,29.7421,11.7666,-12.9695,29.8776,12.0598
6.08653,0.0898048,1.17313,40.4787,-1.43396,2.53211,39.8181,-1.72086,0.662685,40.864,-1.18472,0.939788,40.7559,-2.58369
1.07287,0.103744,-15.781,27.8703,-6.10571,-14.7774,28.0838,-5.94279,-14.9608,28.4646,-5.75767,-14.8673,28.4476,-5.75207
79.2469,0.323084,-17.2598,46.4658,-0.0375514,-18.177,46.1651,3.07621,-13.6064,46.5892,-0.24019,-11.1798,45.8583,2.27423
1.22027,0.0137547,-14.5965,46.1462,-3.34548,-15.1753,45.9025,-3.92645,-15.1711,45.7694,-4.08634,-14.3216,46.0202,-3.39657
2.67047,0.184575,8.98077,18.4307,-10.7799,10.2704,17.7436,-11.1034,10.6547,17.1134,-10.9328,10.7339,17.2506,-11.0253
6.65448,0.314496,18.5664,28.2433,-0.585631,18.4682,28.4901,0.650203,18.5464,29.7214,-0.747739,19.1874,28.2357,-1.51959
0.991367,0.269724,-4.32835,15.3802,12.6299,-4.6656,15.1613,12.5237,-4.93623,15.1795,12.0649,-4.93433,15.4855,12.166
7.55306,0.172438,17.4489,28.343,8.20795,18.1573,26.6195,7.54216,17.3947,28.1992,8.80972,17.7727,29.1365,7.65983
3.28351,0.327315,-12.1268,23.2866,10.8752,-12.7169,24.1486,12.7438,-11.741,23.3228,11.0965,-12.2113,22.6966,10.9385
2.515,0.0548672,-5.93618,3.12427,5.60857,-5.94574,2.90173,4.87343,-5.56446,3.30938,6.17752,-6.78713,2.79812,5.63939
4.65875,0.41996,-5.6542,29.7788,12.422,-5.01157,30.6524,12.6115,-6.37873,29.0477,13.1033,-4.74279,29.6762,12.6548
1.92938,0.394586,8.15105,23.0848,13.6405,7.52542,21.9549,13.7034,7.61837,21.6397,13.7673,7.03969,22.2563,13.7489
6.34008,0.0352684,-22.4581,35.3369,8.66613,-22.8267,32.8453,9.09357,-22.8043,33.1311,9.19629,-22.7299,33.265,8.63144
1.13106,0.0842398,-13.539,10.7515,-10.2482,-13.0237,10.527,-10.4134,-14.2398,10.1241,-9.66446,-14.1793,10.2834,-9.79271
0.721362,0.00634322,-4.33477,38.2154,13.722,-4.77377,38.6474,13.6841,-4.38559,38.6808,13.6773,-4.81776,38.5118,13.6958
3.28073,1.14545,-15.2609,7.67447,13.1744,-16.5389,8.13418,12.6319,-16.8825,7.63631,12.6302,-16.5858,8.32187,12.7206
19.1988,1.99099,17.8844,21.7654,8.13908,18.0805,24.1307,7.08655,17.4775,23.8722,7.85845,18.2779,24.5625,8.60849
3.36563,0.591253,-14.3298,18.3287,-9.09905,-12.4032,18.8526,-9.5397,-13.062,18.2006,-9.29449,-12.7619,18.5938,-9.37293
2.70641,0.155929,-4.88042,26.3954,13.1271,-5.08173,25.4625,13.4442,-3.97111,26.5331,12.9628,-3.92233,26.3683,12.96
21.2545,0.297489,-14.926,6.38486,-5.20648,-13.035,6.99997,-7.41494,-13.1451,7.10302,-7.48503,-14.1402,7.6351,-7.43791
6.42324,0.0521908,-12.5403,16.1472,11.0857,-11.1868,16.0074,11.8425,-10.8963,16.1265,12.3206,-12.7181,17.0413,12.547
5.45105,1.98152,1.38751,43.8227,6.40367,-1.46085,43.944,5.74175,-1.54912,44.0555,5.73575,-1.40947,44.0412,6.19597
0.704099,0.597421,-11.7911,0.687643,3.63525,-11.8828,0.591218,4.23942,-12.1725,0.634691,4.11931,-11.6059,0.520143,4.34881
45.8589,0.122692,-20.0375,41.8401,0.896795,-20.3149,43.8937,-1.76936,-20.2248,42.4099,-1.22613,-20.2632,43.8313,1.33967
1.33345,0.0419711,1.59489,32.5855,-12.0811,1.33846,32.1091,-12.1421,0.578472,32.6699,-11.6529,0.600972,32.8003,-11.6279
3.33794,0.548705,2.68371,7.34078,0.251496,2.65627,7.35575,1.03535,2.4127,7.18778,1.13316,3.32205,7.38926,1.20836
0.659705,0.359594,6.46771,26.1096,13.7421,6.81511,25.9799,13.621,6.69942,25.5878,13.5805,6.85738,26.1408,13.7018
7.82203,1.04746,-22.1148,6.58815,3.11678,-21.7519,5.79273,5.65402,-21.3635,4.61749,5.25402,-21.6316,5.6476,5.40895
4.27359,0.021654,20.6461,29.8486,-4.24321,20.0357,28.5645,-3.01742,20.225,29.5184,-3.44185,21.2958,28.7392,-5.51558
5.17934,0.230402,-15.9257,1.42872,5.46379,-14.5798,1.41539,4.55885,-15.2686,1.56027,5.00042,-14.9238,1.68342,4.11738
16.4522,0.145321,0.624608,35.9379,13.426,-3.23445,35.7459,13.1045,-3.20007,36.1851,13.1437,-1.01142,37.1815,13.4804
11.6033,0.177708,5.42776,24.4836,13.3404,2.55401,24.4747,13.484,2.52984,25.3666,13.517,3.73005,24.228,13.3435
17.5091,0.688302,-19.5149,43.6797,5.1874,-20.3955,42.8686,5.42187,-18.5416,43.0364,7.24584,-19.3175,42.6398,6.53661
0.898773,0.0889261,-4.3795,10.1967,13.5775,-4.72095,9.99253,13.4724,-3.71975,10.1359,13.5092,-3.75918,10.0014,13.5048
3.72889,1.71258,-11.445,35.8487,11.6168,-9.05773,36.0932,13.4024,-9.22727,35.8402,13.3654,-8.88327,36.0335,13.3957
3.18576,0.102056,-4.86979,3.75971,8.37592,-7.25715,3.86427,8.40081,-5.61076,3.84267,7.91451,-6.50336,3.87636,8.69545
2.95338,0.239004,10.599,16.3421,-10.225,11.1587,16.4567,-10.6545,10.8837,15.6029,-10.3491,9.61127,16.5466,-10.2849
4.66528,0.302849,-4.00628,14.8695,12.9458,-3.68404,14.0838,13.2595,-3.66721,13.2708,13.8363,-2.47645,14.3674,13.6816
5.34475,0.364686,-13.6606,1.59196,4.04007,-14.0689,1.9185,2.85521,-14.6868,1.51293,4.48387,-13.171,1.16615,3.38973
8.75865,0.434874,17.2756,19.3144,-10.7898,14.8631,18.4677,-10.8445,16.4542,19.2535,-10.587,16.5609,20.0366,-11.0393
5.79767,0.207409,9.94058,12.0143,10.8656,9.10362,11.4602,9.54039,8.83369,11.8437,11.4287,11.0255,11.6897,9.98159
1.50276,0.433201,-9.78222,16.0426,12.9743,-10.8191,15.6708,12.339,-10.6572,15.9382,12.4728,-10.8675,15.5327,12.3256
0.87139,0.0866598,3.17435,9.08514,9.66064,3.27171,10.4159,9.81243,3.18703,10.4455,9.82973,3.01831,10.1972,9.84541
6.61774,0.165063,14.1692,35.195,-5.8033,13.4756,35.3217,-7.67261,14.3502,35.3518,-4.85171,14.893,35.5099,-6.02088
2.74998,0.0428229,-20.9868,29.2581,-5.3868,-21.0563,31.0927,-5.199,-20.7946,31.0702,-5.29779,-21.4326,29.2981,-5.26416
2.04853,0.42758,-21.8276,34.8381,-3.00654,-21.8101,36.2451,-3.14141,-22.2542,35.9987,-2.82983,-21.8664,36.2444,-3.09175
1.92784,0.170373,-12.6251,39.6717,12.2059,-11.9816,40.4816,12.0737,-11.8972,40.464,12.1454,-12.7189,40.2277,11.8548
0.934315,0.102069,20.5381,24.6436,2.76607,20.0848,24.4526,3.33438,19.8913,24.8115,3.44074,19.9357,24.9418,3.37882
18.2122,1.01247,19.8836,19.6367,3.65774,19.932,21.1294,3.74094,19.4239,21.1015,4.10245,18.6555,19.3203,6.33021
1.51235,0.246982,6.11737,12.2842,10.3844,5.73685,11.5639,9.79605,6.64988,12.0101,10.1638,5.74039,12.0545,10.6698
2.57773,0.16206,2.90718,25.9934,13.5369,2.458,26.7236,13.4957,3.44029,27.1659,13.6464,1.84108,26.9004,13.4955
4.18782,0.345623,-17.9278,42.9413,8.68066,-18.2465,43.4012,7.31372,-18.6884,42.7393,7.68495,-18.1757,42.7986,8.04329
18.1759,0.247039,-2.52611,32.7749,-10.1943,-0.847156,33.9706,-10.0515,-0.0197059,32.199,-11.5729,-0.885294,32.1428,-11.142
5.5568,0.0572743,10.3679,24.7202,-11.2273,9.11661,23.7003,-10.9425,8.15369,24.3863,-11.1579,10.6333,25.42,-11.5188
4.44885,0.182452,0.630219,16.1147,-10.6408,1.71193,16.0261,-10.5694,-1.28315,14.9002,-10.8219,1.10016,16.4158,-10.844
4.23195,1.51272,21.7586,18.1745,-4.32648,21.6725,17.0276,-2.84612,21.8404,17.0502,-2.77504,21.146,16.8388,-3.08208
0.723047,0.0121132,17.879,29.0657,7.47289,17.7859,29.2738,7.66641,17.8194,29.8633,7.60784,17.7235,29.873,7.83166
2.68034,0.118768,-1.22836,15.2468,13.2586,-2.75879,15.5387,13.017,-2.75284,15.2491,13.127,-2.97152,15.1777,13.1167
2.53169,0.0998291,-12.2691,20.3413,11.9733,-12.2505,22.5754,11.0113,-12.3528,21.3594,11.5967,-12.1087,22.4072,11.0897
0.649076,0.178435,-10.9711,43.7368,11.2675,-12.0825,42.6906,11.8549,-11.4405,43.2164,11.7329,-11.3002,42.7876,12.1861
4.9867,0.145981,-19.2371,4.91845,1.05444,-19.5683,4.86655,1.57422,-19.5775,5.23028,-0.540251,-20.0741,5.46242,-0.0436402
2.96497,0.0176207,-20.2396,43.3416,1.80785,-20.1248,41.5737,1.83824,-20.1435,41.4343,1.65059,-20.1514,44.0532,2.58693
1.19663,0.315913,2.27691,10.809,-5.54865,1.98268,10.4505,-5.0172,1.53505,10.6742,-5.55657,1.86045,10.5022,-5.1164
2.98751,0.0136681,13.6204,35.3766,-4.20895,14.4925,35.4262,-4.74837,13.4653,35.2159,-5.11722,13.8845,35.1945,-5.60609
4.1437,0.306161,6.93223,41.0674,6.18745,7.55014,41.9518,7.33281,6.53845,41.322,5.72624,7.78991,41.1319,6.25498
6.15426,0.226181,4.73826,42.3909,5.90304,3.83024,42.6017,4.36684,4.0314,42.8612,5.28693,6.28588,41.8374,6.23094
3.38154,0.0634607,18.7741,34.8364,2.48964,18.7328,34.9927,1.74061,18.4384,33.4735,2.6972,18.3814,33.1948,2.5959
21.9617,0.625103,7.48162,34.7055,-10.5258,8.3352,31.6307,-11.406,8.19397,31.7921,-11.3523,6.77616,32.107,-11.6377
3.40203,0.0655366,18.9476,35.6491,6.97325,18.6312,36.0042,6.25149,18.2516,35.808,5.18125,18.1834,35.9627,5.11729
4.39704,0.28371,-16.2339,36.255,12.6865,-16.1212,36.9709,12.7849,-14.3845,35.4819,13.2941,-14.5158,35.3762,13.3174
11.4364,0.175228,6.24176,8.81583,3.65643,5.83342,8.88999,4.73861,4.67665,8.08596,5.31918,4.21301,7.53844,5.2452
14.5891,1.0084,19.0662,16.458,-7.52344,18.7777,18.2546,-10.0835,18.7307,18.1201,-10.1775,19.0905,18.7582,-9.47795
3.45632,0.402041,-18.3786,38.7642,-4.25834,-18.4668,40.2134,-4.37768,-17.8247,41.2433,-4.11682,-17.504,40.7995,-4.1842
0.410434,0.0723474,3.24403,11.5451,10.4538,2.24822,11.1926,10.4954,2.51218,11.7415,10.7457,2.27064,11.4642,10.6349
6.8186,0.193413,5.83854,39.8151,12.4731,7.0139,41.9935,10.5323,6.60538,42.2568,10.2521,6.23715,42.2966,10.1672
0.209212,0.0619605,-23.1403,8.52953,-2.67508,-22.8299,7.67614,-1.86448,-22.9505,8.35583,-2.61485,-23.0519,7.69837,-1.83921
0.742712,0.0757749,1.26513,20.1682,13.6356,0.90422,20.8783,13.7465,0.891872,21.1984,13.8717,1.34001,20.4375,13.6783
6.23738,0.00979829,14.3667,30.4162,13.2092,15.7139,29.0739,12.7972,14.9487,28.1587,13.0149,14.337,28.37,13.1949
1.71815,0.0827093,-14.5274,20.0308,13.1833,-13.8301,20.113,13.0813,-13.4387,19.8209,13.0126,-13.5658,19.7134,12.9999
4.95444,0.647375,-0.421237,9.41206,10.4916,0.122881,10.0811,10.9306,-0.091365,11.5649,12.6849,0.32987,9.02221,10.4474
3.76714,0.0234584,-17.1852,6.35721,-4.83235,-16.9186,7.44725,-6.38516,-16.7044,6.42533,-5.23354,-16.7698,7.44521,-6.46815
4.05579,0.358066,-11.4983,29.8716,11.0021,-9.84819,29.8453,12.2888,-10.4482,29.6731,11.866,-9.78811,30.0167,12.4386
0.903487,0.859401,5.58439,33.7882,-11.6208,4.76312,33.9973,-11.2117,4.7782,34.136,-11.2323,4.6264,33.8671,-11.292
5.89112,0.252892,-14.1171,9.27767,13.291,-15.5642,11.4801,13.2667,-15.9595,11.7504,13.2153,-13.5119,9.37872,13.2742
5.50613,0.210177,8.31256,35.8214,13.4968,11.0361,36.0508,13.7815,10.115,36.4747,13.7507,10.1249,36.1797,13.7543
5.30693,0.0788179,-0.851575,12.8344,-9.04491,-0.887948,13.2913,-9.80664,0.280105,13.4475,-8.98804,0.330262,13.8588,-9.47062
1.20867,0.394984,5.05391,18.066,13.2678,3.93415,18.0435,12.7475,3.89489,17.9082,12.6794,3.94283,17.7443,12.688
7.41406,0.0230556,17.1502,29.9902,9.92045,17.4843,29.1967,8.56296,16.7755,29.9187,11.1125,16.6337,29.3583,11.5087
4.22771,0.024646,10.3315,24.8494,13.0673,8.50482,24.8386,13.1839,8.68795,24.4983,13.2874,10.1315,24.4956,13.2195
4.6536,0.151231,16.7174,22.6072,10.8426,17.3498,22.0237,10.146,17.5002,21.2642,9.99443,17.8962,22.3337,9.74857
18.5768,1.30133,-16.2746,45.4345,-3.67956,-15.7605,43.4084,-3.9155,-18.7332,44.8081,-2.96282,-18.3291,44.4823,-2.9008
11.6113,1.29491,-20.4926,14.4698,-7.14953,-22.1174,15.4455,-4.35661,-22.3729,15.1258,-3.88373,-22.2116,15.1569,-4.54138
3.49836,0.785704,-18.6244,45.2207,-2.98185,-20.3765,44.943,-1.54254,-20.3881,44.7897,-1.44535,-20.1097,44.7867,-1.89669
0.351813,0.0855047,-13.4143,17.0528,13.288,-13.7197,17.0115,13.3668,-13.7254,17.3102,13.3804,-13.7678,17.1782,13.3736
2.9612,0.290108,-12.4134,41.5382,11.2987,-12.8172,42.464,11.7889,-12.0711,41.7512,11.4707,-12.7742,40.3714,11.7584
22.0997,0.17503,2.89946,43.5427,7.06395,1.2497,43.8292,4.47351,5.92203,42.6761,7.01715,5.77691,42.6993,7.29981
1.54864,0.225555,13.3304,25.495,12.5705,12.4627,25.2337,13.0139,13.3611,25.9391,12.7026,13.8116,25.2269,12.7787
1.19886,0.197618,17.9313,34.0229,0.173787,18.1579,33.9913,-0.258916,18.3476,34.2425,-0.52566,18.205,33.6657,-0.144872
0.361773,0.0798931,-11.4737,18.3301,-9.76289,-11.3667,19.0405,-9.86624,-11.4194,19.0389,-9.82415,-11.5622,19.3343,-9.76128
12.2636,0.226834,17.4737,22.5433,-10.456,20.0241,24.049,-9.84888,19.852,22.2162,-9.86182,20.2516,23.1658,-9.80781
8.31364,0.0371191,21.5996,21.6409,-8.06455,21.7952,23.3247,-8.58581,20.9318,22.6581,-9.31519,21.1517,23.6081,-9.5101
2.28409,0.0969501,8.09936,10.8024,4.29001,8.82765,11.4501,4.98702,8.4895,10.7264,3.96443,8.13354,11.2147,5.27311
4.07136,0.300652,7.77514,11.5455,-6.59763,8.90795,12.1759,-7.72116,10.0191,12.196,-7.88623,9.59143,12.2807,-7.90593
2.7852,0.0885192,-11.2393,16.49,-10.0711,-10.438,16.6866,-10.6445,-11.4287,15.7171,-10.7446,-11.1916,16.7709,-9.99551
16.6988,1.26604,4.97012,13.3281,-7.44504,2.64038,13.2443,-6.89626,1.07991,11.7941,-6.30957,2.28213,13.5234,-7.51124
1267.09,0.970537,-23.5527,8.99327,-1.28322,-22.8665,19.405,4.44797,-23.0786,20.6794,0.672144,-23.2011,14.3826,6.73394
1.86304,0.175983,18.4233,31.8874,3.85006,18.4682,31.012,3.47523,18.4488,31.1669,3.39415,18.4001,32.3205,3.11179
4.43066,0.140601,-4.29612,12.1578,14.0093,-6.32696,13.8716,13.3582,-5.76952,13.8458,13.3613,-6.29906,14.0022,13.2935
2.50618,0.0318069,-1.13403,44.1133,7.71986,-1.26888,44.076,6.76483,-1.96004,44.2289,6.62762,-1.54589,44.0907,6.27751
1.26196,0.276084,-9.33932,44.9181,6.6366,-10.4624,45.0054,6.6147,-10.7246,45.0822,6.50852,-10.187,44.9484,6.92559
0.868327,0.261991,-10.2569,15.6594,-11.394,-10.1259,16.241,-11.1127,-10.2895,16.5922,-10.7919,-10.3532,16.6838,-10.716
4.72915,0.000196202,-0.676784,41.3346,-2.91044,0.659484,40.8581,-1.66968,0.0634747,41.2692,-1.23106,0.513039,40.9378,-1.66827
0,0.0298786,-17.2573,45.7954,-3.54232,-17.344,45.6257,-3.53242,-17.5477,45.6267,-3.53762,-17.5013,45.7942,-3.51876
2.03822,0.136828,-9.9871,38.8325,-4.34431,-9.36514,38.6193,-4.42925,-10.1159,38.126,-4.21551,-10.037,39.2929,-4.66605
10.8675,0.277621,3.8972,39.3459,12.1721,2.81643,38.9913,12.597,3.65436,40.6508,11.4279,5.6698,39.3393,12.9061
2.41738,0.40195,19.1395,24.9557,3.95014,19.314,26.213,3.79877,19.1422,26.5654,3.85529,19.0612,26.6107,3.94131
31.8327,0.306903,-4.16421,3.9411,9.79416,-1.73031,3.99339,6.58142,-2.55794,3.95979,5.47253,-2.48992,4.2497,10.8142
3.27787,0.022867,13.1933,35.5178,-3.38146,12.2689,36.3225,-2.2643,13.7788,35.8288,-3.22334,12.5106,35.7551,-2.96688
6.27373,0.0917745,17.5691,19.1128,8.05064,17.0951,16.7409,9.40341,16.9865,18.059,9.34158,17.7345,17.5885,7.81347
14.1713,0.839467,-14.3659,16.3698,-9.26613,-17.1212,16.3406,-8.52969,-17.1411,16.2062,-8.54176,-15.742,18.3528,-9.03523
0.569087,0.229211,21.5108,25.2656,-8.54574,21.7589,24.833,-8.14654,21.7638,24.9013,-8.08232,21.753,24.8169,-8.23731
15.5871,1.24758,4.76426,38.7461,0.620609,8.17296,38.2705,0.62897,3.66296,38.8629,-1.16451,5.33452,37.8618,-0.531496
4.16162,0.151191,17.105,39.9585,9.39316,16.2356,40.49,10.9308,18.0402,39.0995,8.67885,18.1786,39.0352,8.95536
2.54697,0.280111,16.4104,22.7411,11.2321,15.8628,24.1703,11.7509,15.6051,23.9666,11.735,16.2041,24.36,11.7343
2.86897,0.0255411,-16.8011,38.4155,12.1856,-15.8187,39.2108,12.5576,-16.9444,38.8911,11.9937,-16.042,39.407,12.3701
14.3924,0.0315826,7.41203,25.2011,-11.2768,6.89639,27.1674,-11.9937,7.71875,23.5551,-10.733,10.1561,25.9051,-11.6825
4.74453,1.60413,-12.7938,34.0076,-3.90563,-11.3923,35.9895,-3.98468,-12.1697,35.9286,-4.01311,-11.4862,35.9942,-3.971
1.41832,0.129332,21.8611,19.4932,-4.76817,21.5121,18.9219,-4.86091,21.618,18.9121,-4.70188,21.5941,18.3409,-4.55019
0.951172,0.0945345,3.18954,19.5524,13.4327,3.72067,19.3975,13.4621,3.22205,20.0108,13.6417,2.94041,19.3456,13.4931
3.7224,0.204783,18.6375,29.2415,3.32392,19.04,29.1666,2.44299,18.5529,29.8504,3.45635,18.5991,30.1783,2.13952
1.27664,0.217367,3.78976,38.1365,-1.34865,3.21987,38.6104,-1.60165,4.10395,38.2464,-1.60046,3.2242,38.6114,-1.77131
1.12007,0.19989,-19.2164,4.87113,3.68702,-19.7045,4.54661,3.79812,-19.0345,4.65029,3.92322,-19.1447,4.72629,3.44757
2.13531,0.315687,12.6864,15.9611,-10.2748,13.0747,17.3515,-10.3531,12.5418,16.9873,-10.4133,13.3336,17.1743,-10.3863
9.14273,0.46159,-6.35363,36.2734,-4.23772,-5.83545,37.5702,-5.4122,-6.83448,35.8417,-4.4487,-6.74984,38.0334,-4.20834
20.6908,0.387242,10.9575,21.3689,-11.1749,8.72939,22.9864,-10.7101,7.51623,22.4647,-11.0149,9.65653,20.6736,-11.1321
2.25952,0.429165,7.4039,11.1123,-0.567887,8.23221,11.0354,0.0799454,8.20847,10.982,0.155601,7.91803,10.647,0.28611
10.6232,0.345348,-8.90136,1.57565,-0.0870396,-6.88345,2.12296,0.448793,-6.63514,2.78092,-1.74117,-7.45976,2.3127,-0.564543
1.87383,0.0767403,19.3947,35.0165,-4.96621,18.651,35.237,-5.7066,18.5175,35.2349,-6.08924,18.5318,35.2043,-6.18015
5.05792,0.0551145,7.01827,16.2928,13.2483,8.53629,16.5565,13.1988,8.73938,17.2407,13.1956,7.90099,17.6337,13.1892
5.39987,0.419406,13.4019,19.5168,12.1575,11.8806,19.521,12.0476,11.6177,19.5953,12.0907,11.5849,18.8844,12.2252
12.9408,0.125734,-2.67937,17.9737,-12.3634,-3.83581,15.5291,-11.9582,-4.37082,16.153,-12.0491,-3.25958,19.0363,-12.3835
0.342801,0.162853,-6.7683,17.8427,-11.9159,-6.63475,17.4058,-11.9779,-6.46367,17.3857,-12.0586,-6.74622,17.2758,-11.9899
38.4604,2.46122,-12.1818,42.632,-4.53946,-15.394,44.067,-3.84434,-15.5539,44.7953,-3.97674,-15.5585,41.3979,-3.89497
1.88932,0.148778,-20.1075,41.999,2.7058,-20.451,40.9576,2.44438,-20.1452,42.4253,2.68015,-20.2494,41.03,2.29789
5.11894,0.385552,6.32072,23.885,-11.0387,5.64307,23.9508,-12.0928,8.0104,22.6728,-10.809,6.39979,24.4619,-11.2163
2.40791,0.11995,-21.678,5.94808,3.44538,-21.5018,4.94235,4.01415,-21.7067,5.37977,3.05265,-21.8864,6.25895,3.35027
1.36577,0.585327,-22.6882,8.09665,11.0183,-22.6701,9.17828,11.2239,-22.635,9.02743,11.2804,-22.8325,9.64183,11.0975
1.65723,0.21231,18.5392,29.9991,3.47206,18.5131,31.1506,3.75947,18.7198,29.9572,4.18617,18.4763,31.3072,3.68735
1.24516,1.06654,18.3,24.8297,8.52561,18.1614,26.024,8.27152,18.1667,26.0262,8.36899,18.2181,26.0138,8.55338
2.16462,1.39563,-2.09129,43.8661,1.33922,0.118733,43.5624,1.97964,0.264289,43.5795,1.87379,-0.0247472,43.5646,2.0719
5.25559,0.187344,-3.34486,34.7237,12.9065,-1.70039,35.1578,13.2619,-2.02327,34.0764,13.2628,-2.16162,34.5465,13.16
1.76889,0.0288991,19.0345,37.0834,8.42817,19.1035,36.6507,7.73932,19.047,36.804,7.43522,19.0777,36.6502,7.40592
2.58279,0.0368272,9.2494,20.0142,-11.3161,9.28106,21.555,-11.0396,9.50899,20.9517,-11.0583,9.00407,21.8792,-11.0773
2.2734,0.136858,3.99831,41.1594,3.40432,3.85095,41.0394,2.77356,3.59345,41.3752,3.24612,4.8488,41.2181,3.75851
9.45177,0.218105,-19.8684,33.0005,11.9643,-19.7297,34.7116,11.8318,-17.8772,32.6658,12.8626,-17.8547,33.3808,12.6993
935.006,0.650754,-22.6773,25.14,3.57031,-21.4757,41.4907,6.3357,-21.5816,40.7129,3.96655,-23.2185,26.5284,-1.77886
1.78727,0.00578158,-2.16548,6.44168,-3.70634,-2.91279,5.54705,-3.33039,-2.8149,5.75793,-3.63738,-2.287,6.38137,-3.896
3.34953,0.0734944,19.2533,27.7256,-11.0563,18.6958,27.2839,-11.2349,19.4276,26.1708,-10.4918,19.8757,28.0667,-10.9815
2.76142,0.126662,19.5979,26.4685,-1.14017,19.8031,26.8574,-0.608752,20.3592,26.2064,0.115873,19.7863,25.8615,-1.63708
2.41799,0.0774867,-10.8872,20.0365,12.7428,-11.406,20.1519,12.4359,-10.3592,20.2336,13.1437,-11.2085,19.2762,12.8819
1.73485,0.308779,-12.0179,14.9556,-10.6634,-11.9438,13.8088,-10.6917,-11.8514,13.7986,-10.7004,-11.2941,14.3205,-10.9064
2.29121,0.215781,18.3153,34.6584,-0.37758,19.0671,34.8093,-1.97705,18.936,34.501,-1.58405,19.0629,35.0807,-1.95764
6.65493,0.117427,16.6804,14.4856,-6.55349,19.0712,15.6968,-5.50821,18.9404,15.6277,-5.40529,18.1466,15.3036,-6.31256
5.44362,0.254741,1.24621,14.4991,-8.99092,1.7804,15.2051,-9.75764,0.304557,13.192,-8.72812,0.933702,13.2487,-8.31528
5.4724,0.451528,-22.3082,18.4834,11.6625,-21.1077,18.1052,11.6774,-19.7844,18.2711,11.544,-20.0694,18.3334,11.2956
26.5434,0.682734,4.99649,41.2644,4.06224,6.73748,40.2761,5.09223,10.4315,38.6384,4.7331,7.95233,39.3316,4.15065
3.46428,0.159248,18.0997,35.0063,-6.87263,18.8028,35.2199,-6.18638,18.9517,35.2678,-7.36234,17.8265,35.1502,-7.30552
1.30838,0.93477,-13.3465,12.093,12.9217,-14.2319,12.404,13.2111,-14.309,12.1334,13.1885,-14.2725,12.2606,13.1719
13.4949,0.0356709,-20.257,8.08894,11.7051,-20.3686,6.72665,11.4364,-17.9512,6.2284,12.0318,-18.3228,7.56215,12.1934
9.76417,0.237439,-11.5876,13.6357,-10.7336,-12.3394,13.276,-10.5561,-11.6737,12.1026,-10.8582,-13.7522,12.0644,-10.8117
6.73695,0.0768329,-23.06,14.6938,-2.83318,-23.5978,13.4844,-2.88661,-22.5355,15.7699,-3.44815,-22.1216,16.0116,-4.4664
0.954299,0.329356,-7.27666,37.932,13.6489,-7.51549,38.7135,13.5285,-7.648,38.9134,13.577,-7.20992,38.7818,13.5976
1.70441,0.233082,-16.529,38.8458,-4.13059,-16.7594,38.2923,-4.10892,-16.7403,37.8881,-4.25174,-17.8796,38.571,-4.149
25.806,0.622144,-21.0609,33.1108,-3.25956,-22.776,33.6711,-2.04023,-22.7717,32.0102,-2.58033,-22.0267,34.4577,-2.66978
3.47241,0.0978351,-6.26204,5.45255,-6.77984,-6.4139,5.17838,-6.33928,-5.5189,5.3482,-5.94477,-5.80435,5.80359,-7.92513
2.07104,0.0616093,-23.4886,26.7596,-2.66517,-23.1468,26.999,-3.5167,-23.0609,26.5888,-4.34403,-23.0263,26.7192,-4.33409
13.0502,0.00299651,-22.9018,18.8812,2.62079,-22.8509,20.5598,3.73359,-22.8397,20.9437,2.28903,-22.8279,21.3557,2.36906
11.8826,0.29078,-20.8922,13.2814,11.4984,-19.5518,13.9873,11.9799,-20.5725,15.0329,11.757,-19.9689,14.8565,11.9991
10.8367,0.430815,7.75469,31.4356,-11.5209,9.28232,30.4068,-11.7355,9.12557,29.4478,-11.9698,9.59149,29.5523,-12.0565
2.69001,0.33284,17.6515,33.797,0.738661,17.8607,34.0393,0.306917,18.4984,35.3465,0.580886,17.9991,32.9944,1.04366
10.745,0.401022,-6.77093,44.9593,1.72899,-2.77674,44.2212,2.77315,-4.83954,44.7764,3.00936,-2.15991,44.0268,3.23889
10.8464,0.224337,-0.588292,7.06078,11.2916,-0.685273,9.50854,10.553,-1.94313,9.51586,11.1654,0.75206,7.58894,10.6761
4.02464,0.321996,3.08051,16.0326,12.3335,1.57273,16.1815,12.3553,2.23847,16.3928,12.041,2.38276,15.0958,12.6486
1.38672,0.315691,-4.49835,22.9898,13.9042,-5.58616,22.874,13.8784,-5.53858,22.7158,13.9242,-5.42354,23.4119,13.8382
14.8803,0.450005,5.9906,10.5816,6.69675,5.80803,10.0868,5.61828,5.24639,9.41892,7.83697,8.27235,11.4656,6.7534
11.7502,0.101136,8.52228,34.0348,13.8774,5.18066,32.6449,13.3962,7.23357,33.8093,13.614,4.78703,32.6047,13.3455
1.75788,0.0599373,-19.5377,27.4292,-5.74848,-19.0903,26.8229,-5.99256,-19.4795,28.1247,-5.77849,-18.8687,26.7872,-6.06304
3.91108,0.121988,-2.15385,8.41218,-6.0249,-1.94626,9.84662,-6.96363,-2.16196,9.16292,-6.84371,-1.62913,9.92826,-6.47047
4.35326,0.0462003,17.3534,21.8538,-10.6195,15.8611,21.7542,-10.7579,16.2766,20.6095,-11.234,15.8053,21.0875,-11.064
0.945154,0.100504,-23.2817,6.92159,8.36799,-23.3921,7.51298,8.0229,-23.2098,6.21167,8.42443,-23.5695,7.67607,8.24527
20.3778,0.836818,19.3498,26.9494,3.25,19.3886,27.8368,1.13519,20.1543,26.231,1.80838,19.2179,28.8401,1.89087
2.09437,0.0112622,-10.6282,22.6423,11.8603,-11.4235,21.0041,12.1107,-10.904,21.1714,12.3897,-10.4588,22.3421,12.1362
1.4277,0.209353,19.5027,16.0251,2.86039,18.5088,14.7842,2.32957,18.8477,15.2279,2.1346,18.865,15.1942,1.92924
3.55131,0.177832,21.455,24.3923,-2.42726,22.0875,23.4542,-2.27694,21.9604,23.5247,-1.77983,22.0024,23.9581,-3.14651
1.62469,0.199023,-13.8621,15.502,12.9545,-13.2112,15.4139,12.6631,-13.2657,15.8802,12.6305,-13.3515,15.6027,12.6675
5.6221,0.0180854,2.40262,37.7722,13.6039,0.919927,38.1728,13.2236,0.562066,38.8041,12.6929,0.55607,39.0718,12.4702
4.15622,0.427425,17.3205,36.8979,1.4569,18.3075,36.6803,2.13561,18.779,35.9667,1.50924,18.7938,35.9792,1.60009
9.57847,0.261685,17.3717,27.9264,8.98698,17.5195,27.3176,10.5549,18.1253,26.318,8.30809,17.0833,27.9745,10.8577
1.89252,0.0583166,9.70847,41.0319,12.2863,8.7495,41.3566,11.7084,8.73507,41.2269,11.8655,10.4726,41.8041,11.3219
5.93871,0.0876355,12.2333,21.925,13.1606,10.3462,22.4098,13.6115,12.4711,22.7556,13.2874,10.7155,21.6621,13.2931
5.50228,0.355474,-21.0852,12.0237,11.5848,-21.0706,12.7739,11.7225,-19.4719,12.348,12.1825,-21.5443,10.9287,12.2329
1.24965,0.432995,-22.9218,28.2417,-3.76512,-23.2672,27.7159,-3.00112,-23.3265,27.7195,-2.9296,-23.1483,27.5618,-3.24719
3.19125,0.235099,17.6711,14.7136,0.967027,18.4377,15.0835,0.622802,16.8774,13.9205,0.208508,18.0635,14.6511,1.34741
2.56263,0.0754505,16.6272,29.8366,-11.5158,15.8127,29.7975,-11.6432,17.0016,29.0916,-11.6662,16.5806,30.4159,-11.5204
16.8083,0.386369,-12.6919,7.0931,-7.63497,-9.59259,7.31798,-9.21967,-9.06058,5.96485,-8.03092,-10.003,7.4359,-9.22775
1.84675,0.270438,-13.1475,9.63929,-9.99425,-12.3608,10.3919,-11.1267,-12.8676,10.5127,-10.5234,-12.6806,10.7291,-10.9392
7.08679,0.0252865,9.59049,11.9746,6.99461,11.2917,11.2022,7.54949,9.56424,12.2818,5.99731,11.4545,11.214,7.27509
12.5856,0.107146,15.6063,24.4972,-10.7712,18.1774,23.7402,-10.4024,15.0614,25.4505,-11.267,15.1014,23.2455,-10.4862
1.04982,0.11987,-0.370941,11.4535,-8.16152,0.347253,12.362,-8.53356,0.413355,12.2588,-7.98481,-0.0685805,11.7545,-8.42801
4.21617,1.16389,-4.53252,28.1559,-10.6385,-5.99406,28.5759,-9.09961,-6.30583,27.7935,-9.32233,-6.1014,28.1622,-9.22397
8.31887,0.521128,20.5675,31.3403,-9.20899,20.8065,26.5468,-9.56284,20.804,28.3887,-9.72039,20.8681,26.399,-9.41142
1.63188,0.075772,16.068,14.4854,-6.40921,15.2396,14.3364,-6.49739,16.3501,14.4269,-6.49682,15.2744,14.3092,-6.993
7.37546,0.49585,-4.5374,30.3328,12.5824,-3.14617,30.2438,12.8687,-3.46682,27.2587,12.914,-3.4412,27.9877,12.9111
31.9612,1.60641,-11.345,8.25399,-9.81332,-6.12204,10.7981,-12.3435,-5.16096,7.85277,-10.4554,-5.52472,8.47616,-10.881
2.72498,0.449305,11.8371,11.6688,-5.63028,10.5616,11.0419,-4.30532,9.98523,10.8953,-4.42756,10.3792,11.0556,-4.45883
18.7505,0.0598596,-9.49215,28.4672,-6.72399,-11.5342,26.117,-6.71233,-11.4501,26.9523,-6.28966,-11.2919,25.6183,-7.17235
2.29461,0.188196,-1.99702,11.0708,-9.01968,-1.19292,11.8855,-9.01078,-1.11701,12.1587,-9.03781,-0.793524,12.6801,-8.99421
1.14546,0.083013,9.0762,20.0529,-11.3132,8.4558,19.8185,-11.0723,8.22881,19.5673,-10.9557,8.53144,19.6266,-11.0095
2.97944,0.247561,-20.3347,15.4967,11.597,-20.5809,15.2951,11.7613,-20.4743,16.6759,12.1982,-19.107,15.8044,12.1286
2.32512,1.16178,-4.91559,34.4187,-6.63719,-3.73183,34.776,-7.06569,-3.77827,34.3356,-7.14659,-3.78588,34.3547,-7.35566
6.28473,0.0614146,-18.8936,22.0596,-6.77988,-20.5273,20.5755,-7.05184,-19.0712,22.9283,-6.70874,-20.6431,21.2924,-7.03948
0,0.00542061,-22.8817,22.343,5.31959,-22.9001,22.3428,5.41101,-22.8438,22.4847,5.26847,-22.8551,22.4766,5.33504
0.665964,0.0078327,2.17245,7.29045,9.58907,2.6816,6.27078,8.40584,2.78368,6.30486,8.31984,2.35745,7.18866,9.31884
3.76672,0.0317721,12.8233,16.6095,12.3319,12.2603,17.9668,12.3304,12.1357,17.8489,12.292,12.715,17.235,12.3447
3.29926,0.504743,17.921,27.1384,6.16,18.2295,28.1783,7.0584,18.4982,27.2819,5.70144,18.5395,26.2394,5.81632
10.8282,0.15928,-9.94698,12.7562,-11.0423,-8.61488,13.3709,-11.6196,-9.90453,14.3464,-11.4185,-10.8753,12.8637,-10.9882
2.594,0.118451,9.43205,14.2689,12.5655,8.98869,14.4526,12.8676,9.92516,15.3439,12.7515,10.007,13.9345,12.445
4.78756,0.26886,-15.8688,9.78742,-7.92202,-15.0121,9.67212,-8.82739,-15.524,8.56063,-7.77174,-16.4745,9.82901,-7.88811
2.55903,0.0234236,-18.0695,16.1274,12.4809,-17.6382,16.3304,12.8011,-19.0073,17.4367,12.393,-18.3725,16.0542,12.3234
8.06942,0.502927,-6.92677,13.7535,-11.8468,-8.93836,12.3148,-12.0792,-8.43132,12.7884,-11.7884,-5.67048,12.6337,-12.1109
1.69772,0.0951344,-4.37326,23.0955,13.8767,-3.35836,22.3523,13.9525,-3.85098,22.926,13.8245,-3.39714,22.2229,13.9785
2.78835,0.0170699,-1.19711,19.3183,13.8348,-1.88666,20.8837,14.0267,-1.17617,20.3727,13.913,-1.91322,20.1376,13.9603
8.0732,0.0146202,10.067,41.801,8.88744,7.55825,41.9998,7.40502,8.95132,41.9187,8.28467,8.36862,41.5729,6.86546
8.21894,0.144134,2.49295,16.9099,12.0188,3.83495,18.3727,12.8041,4.49974,19.4356,13.4742,1.28565,16.1504,12.4925
2.11969,0.102507,5.03096,10.5743,-2.97067,4.82275,10.4024,-3.07072,5.97518,10.9641,-3.32893,5.60368,10.4997,-2.32469
4.33817,0.776642,-0.122025,29.8249,-12.1965,-1.90613,29.9443,-11.1345,-1.89283,30.0866,-11.1253,-2.21282,30.5287,-11.0433
3.47352,0.0851282,1.46403,30.4822,-12.2113,0.965098,31.3982,-12.2369,0.222799,30.4892,-12.2062,0.168147,29.9412,-12.2163
16.2781,0.532741,-23.3218,11.8669,7.33968,-23.6428,10.3457,8.23606,-23.6349,10.5902,9.01866,-23.5431,9.07728,7.2414
31.3894,0.115476,-3.29196,5.12401,-2.79842,-6.9377,2.73256,-2.08379,-6.78105,3.25036,-3.0341,-4.62318,3.83881,-1.8331
2.52845,0.252002,-16.7558,8.04997,12.6168,-17.628,7.68665,12.4946,-18.2823,7.55838,12.2173,-16.806,8.56902,12.9401
15.7055,0.558445,-0.783629,35.3616,-7.76288,-4.9556,33.4826,-8.08627,-3.62301,35.0346,-7.08315,-2.72964,35.0094,-7.17213
3.18011,1.40434,-15.9655,29.8645,12.8849,-17.4403,29.6762,12.4633,-17.4003,29.8204,12.4715,-17.4816,29.5412,12.4898
5.61937,0.297733,15.3515,12.6317,7.52136,13.6322,12.6219,9.4297,14.2121,13.2563,9.58382,14.5143,13.0588,8.78811
15.596,0.620816,4.64102,10.6704,-4.02643,0.898729,9.36111,-3.56847,1.69948,9.6775,-3.34904,1.62718,10.0716,-4.48161
0.26945,0.0996638,-5.75468,28.3018,13.3261,-5.46623,29.181,12.7599,-5.38152,29.1573,12.7905,-5.50491,28.7772,13.0919
5.67106,0.305419,-5.47125,33.0311,12.9955,-3.78995,33.5603,13.1117,-5.01293,33.902,12.8327,-4.69574,33.366,12.8839
0.202538,0.0552354,18.7345,35.7522,-1.58551,18.8581,35.4157,-1.57384,18.7465,35.3771,-1.34575,18.7845,35.4077,-1.44124
3.55166,0.200061,-13.5538,45.5404,-4.02826,-13.657,44.3288,-4.20007,-13.6679,45.957,-3.21108,-13.7708,45.9947,-3.02773
1.71391,0.0337599,10.7882,31.1758,13.0086,11.1255,31.1385,13.3868,11.3717,31.6658,13.5475,11.3085,30.5202,13.6535
6.20424,0.084652,7.96788,14.9639,13.2189,4.95679,15.1319,13.1685,5.78762,15.3112,13.111,7.5892,14.3418,13.2725
7.05005,0.109641,17.2265,39.397,8.11634,18.6504,38.3425,8.79308,16.1086,39.7189,6.96216,16.253,40.1205,8.30324


