
0.0247632,0.0168729,-15.5085,8.45892,2.26547,-15.886,8.4699,2.06506,-15.7496,8.5465,2.17051,-15.6016,8.57121,2.26632
7.44131,0.0851597,3.73661,9.01983,4.31118,3.39608,8.30453,4.7908,4.46222,9.63998,4.39783,4.80498,9.09446,5.05501
17.3896,0.0658771,6.27098,0.517771,3.45927,8.67492,0.15402,2.69236,10.4354,0.318922,2.93838,10.3544,0.317953,2.9412
20.2571,0.429591,3.89155,9.97097,3.78756,3.96448,12.7055,2.22607,5.14411,10.8469,3.78321,3.267,12.163,2.57408
2.0795,0.150091,2.71791,10.0422,3.86989,3.75426,9.87213,3.88002,3.53483,9.61807,4.075,3.72917,9.75425,3.97529
27.4344,0.500093,7.07287,1.67578,5.08074,8.69317,2.64622,5.25979,8.13353,4.13658,5.03097,6.54325,0.836292,4.29081
16.2588,0.0990716,-13.1599,12.005,-2.33869,-11.9333,12.6724,-0.986315,-12.4758,12.1397,-2.01575,-11.1758,12.1348,-2.46958
0.0364236,0.0336686,-1.1707,13.5102,1.15623,-1.12838,13.3537,1.36868,-1.10181,13.4268,1.2722,-1.18982,13.3917,1.3547
26.2878,0.672621,3.33328,5.62674,-3.84365,-1.40092,6.46401,-3.18405,0.597797,5.80551,-3.63553,-0.872282,6.80207,-3.59712
0.0310171,0.00373644,18.0651,9.19093,2.27432,18.1434,9.24601,2.20649,18.1819,9.14483,2.2114,18.0851,9.26964,2.24007
1.19032,0.0520374,8.19453,2.03342,-1.07428,8.92438,1.64581,-1.42637,8.60378,1.7958,-1.19514,8.9308,1.67236,-1.47082
8.57797,0.0371611,8.53631,13.2967,1.00042,9.57752,13.3572,0.723175,9.05252,12.7874,1.78969,8.91987,12.7954,1.78735
9.84106,1.56456,1.46516,13.2408,-1.06053,1.96875,12.2456,-3.16206,1.01532,12.1392,-3.16138,1.77102,12.1585,-2.92698
5.48433,0.0903506,-7.89076,11.6561,3.63387,-6.82463,12.2274,3.10922,-6.65871,11.8523,3.37993,-7.29441,12.3743,3.00344
2.0081,0.249256,11.3567,8.12207,3.96346,11.0097,8.51295,4.24314,11.5318,7.46296,4.4571,12.1993,8.31496,3.80273
4.36409,0.37988,5.83672,4.96303,5.01842,5.31473,5.23651,5.51975,5.84256,3.82782,5.01115,6.55068,5.05542,5.45844
2.4264,0.0375984,11.8717,4.17346,-5.37566,10.4817,3.90694,-5.31827,10.7498,3.806,-5.32578,11.6556,3.79136,-5.37438
12.6674,0.219591,16.0299,3.88636,2.76271,18.1257,3.98628,1.99275,15.0971,3.12246,3.18163,17.3979,4.70997,2.67332
3.85069,0.100744,7.68041,1.34041,0.444585,6.44026,1.62421,0.694308,8.07343,1.41395,-0.0159977,7.87685,1.10466,0.424795
61.6649,0.549347,11.8609,9.93732,-3.10142,15.168,9.02194,-2.52746,7.53549,9.83628,-3.65326,8.94382,9.50801,-3.90554
14.2026,1.26518,-16.3516,8.99024,1.93395,-15.4682,9.93159,2.29185,-13.7873,8.9709,3.18895,-13.0293,8.60185,3.34301
83.1969,0.134592,19.529,2.60117,-0.68689,17.0934,2.6844,-2.66206,14.958,0.548081,1.41811,16.2161,2.41968,-2.69966
1.64963,0.0568531,-8.07839,6.39663,4.19471,-8.48467,6.51803,4.23065,-7.54188,6.0314,4.31936,-7.47282,6.04227,4.17392
54.3315,2.85919,8.00776,2.10165,-0.920692,2.20137,3.61667,-0.500374,0.107957,3.53947,-1.63677,3.81174,3.20108,0.293661
1.72371,0.154182,12.3467,2.91003,3.97749,12.3028,1.87573,3.93361,12.1754,2.06189,4.04159,12.2307,1.89948,3.97559
1.49586,0.229182,12.9777,5.53872,-4.36517,13.8139,5.73995,-4.11657,14.0003,5.6147,-4.15408,13.9061,5.8209,-4.10121
2.58531,0.173892,-11.6702,7.62593,-5.06227,-11.6634,7.43756,-4.891,-12.7234,7.46068,-3.87082,-12.8092,7.54438,-3.75713
14.5669,0.41605,14.6781,5.66823,2.97126,15.7521,5.9843,3.22931,14.6842,4.03811,3.24178,14.0273,6.07584,3.55327
11.808,0.207254,-4.07598,3.86139,-0.584405,-5.91361,4.39565,-1.26359,-5.83214,4.73064,-1.71213,-7.36613,4.43896,-1.55831
34.0822,1.78439,-5.64742,4.7225,1.37368,-9.34229,5.77188,-0.114647,-9.33609,6.13161,1.3876,-8.65591,5.96936,0.368154
54.3031,2.13989,8.71292,7.5486,-4.32337,13.794,7.78609,-3.46887,12.6888,7.17348,-4.29339,12.2093,6.92165,-4.41437
16.727,0.0593171,11.7039,11.1785,-2.50104,12.031,12.7047,-1.74453,13.8513,11.0877,-2.15834,13.0287,10.3017,-2.61071
15.5467,0.0780811,0.234291,11.1846,3.16093,1.43266,11.0523,3.55571,1.86908,11.6444,3.2206,1.05822,12.5389,2.46038
11.6754,0.175135,-5.01973,12.4639,-1.55585,-2.59769,12.7105,-2.00863,-4.60387,13.8919,0.204055,-3.81797,12.4728,-1.77202
29.0506,0.0990538,-4.60451,9.96732,-5.16898,-4.57397,8.73266,-5.54714,-6.62492,10.909,-5.18165,-4.64245,11.4903,-4.45801
0.48989,0.280413,-5.86329,12.9234,-2.35449,-5.39343,12.6493,-2.01891,-5.46031,12.6406,-2.08332,-5.64679,12.8149,-2.53061
3.39277,0.418093,-3.95078,3.78652,-0.415915,-2.22978,3.46917,-0.450499,-2.248,3.18357,-0.152522,-2.34628,3.1484,-0.0603333
6.17998,0.188622,-9.64948,13.2709,0.674987,-9.18663,13.2102,1.6512,-9.12655,13.3217,0.986272,-8.56483,12.9829,2.33227
0.979565,0.219925,1.28522,13.4374,1.17823,1.43907,13.6267,0.77415,0.975235,13.6627,0.673128,1.13662,13.6488,0.677679
43.3417,0.191599,12.7408,12.5307,1.67671,12.7477,13.2228,-0.12458,10.5872,13.4718,-0.0967652,12.3005,13.2244,0.0638326
0.116228,0.0106477,-5.30552,3.42747,0.727162,-5.22354,3.75707,0.958913,-5.14537,3.54841,0.873247,-5.13642,3.73562,0.982235
6.11931,0.176467,9.45667,10.4116,3.67096,11.5932,10.1,3.65594,11.0205,9.95809,3.75967,8.90606,10.9347,3.80414
7.53969,0.269717,1.06874,8.47125,4.81388,2.20249,8.17608,5.18998,1.71885,9.51417,4.02323,0.600146,8.41233,5.37128
6.10283,0.124161,-3.24959,8.45876,4.42148,-2.31923,8.20346,4.85276,-4.08616,8.13251,5.67971,-1.20765,7.54232,5.74338
0.353667,0.0121019,18.7089,4.85163,-1.98122,18.6413,5.18071,-1.96386,18.5133,5.02393,-2.11006,18.4861,5.277,-2.06424
45.3943,0.846852,-14.0783,10.0411,-5.13017,-17.1967,10.8253,-3.89422,-18.7777,9.86251,-3.44583,-17.2871,8.90386,-4.87275
11.2123,0.128682,1.75324,9.67162,3.83662,2.56857,10.0326,3.83983,2.28856,11.6869,3.15957,1.64441,10.7199,3.54557
5.97309,0.0563586,-11.1819,8.27282,-5.51537,-8.48153,8.88925,-6.04831,-8.469,8.94596,-6.04971,-11.6022,8.61848,-5.49192
5.46245,0.854564,12.3677,3.00115,3.97868,12.2521,4.20093,3.90033,12.8749,3.86684,4.04082,12.1259,4.34016,3.98288
9.29035,0.19037,6.62799,13.2623,1.14442,6.17037,13.6475,0.0368641,8.41712,12.7782,1.85566,6.6705,13.6696,0.0712754
2.9199,0.183308,-4.94871,4.69236,-1.64965,-3.76122,5.38561,-2.21695,-2.74674,4.86547,-2.18472,-3.78104,5.33026,-2.17587
0.0972552,0.00210164,8.85546,12.2651,2.64178,8.93992,12.3592,2.48297,8.87008,12.3676,2.4849,9.00409,12.3003,2.55993
12.4094,0.276466,-12.8192,12.9829,2.39012,-11.9717,11.8645,3.39441,-11.1349,11.7671,3.59036,-10.3505,11.7579,3.67402
19.0811,0.118773,16.4202,8.4265,-2.44563,13.8519,7.72329,-3.47502,14.7717,8.55413,-2.85878,14.5758,7.03343,-3.67738
21.9994,0.409503,0.507214,2.57564,0.740439,-2.92377,3.09875,0.659666,-4.47485,3.24796,-0.0683294,1.86103,2.9494,0.75204
0.0899792,0.0698909,0.0653674,4.9453,5.54043,0.0913323,5.0136,5.53103,0.225452,4.98859,5.56676,0.135573,4.99495,5.52208
0.0134783,0.0169768,10.8942,0.127225,-0.116429,10.9642,0.123989,-0.108862,10.8052,0.0919779,-0.107726,10.7896,0.088875,-0.146068
4.67021,0.15503,2.38896,4.05711,-1.71737,1.42993,4.31161,-2.84058,1.7894,3.77118,-1.43209,0.988366,3.6954,-2.13092
24.566,0.260823,17.1622,4.87986,-2.53737,17.134,3.77364,-3.03617,16.7597,6.87241,-2.67595,14.1435,5.58374,-4.15319
5.83208,0.0845578,14.9009,0.548947,1.51244,12.9521,0.500252,2.16925,11.2906,0.0659678,1.7142,12.2606,0.265408,1.86374
0.107369,0.00401509,9.6373,9.14384,-4.10944,9.72701,9.25235,-4.05484,9.79845,9.20223,-4.08248,9.6561,9.22162,-4.06722
1.63674,0.186591,15.4106,1.64714,2.3941,15.8974,1.87913,2.72451,15.0356,1.53308,2.67798,15.7234,1.57441,2.48558
3.26041,0.590548,-7.4192,6.09879,-3.37663,-9.46598,5.9749,-3.76982,-9.39521,5.93999,-3.73443,-8.51013,6.03826,-4.09767
23.2209,0.07977,9.95457,9.97084,3.71912,10.9751,9.08276,4.07495,10.3598,7.74531,4.81461,9.99111,7.70692,4.89104
20.4872,0.469934,6.60128,9.2666,4.19404,4.87482,11.9198,2.98279,5.75429,11.1244,3.54737,6.67506,11.7222,3.28366
0.570704,0.0350482,-0.50734,4.65338,-3.23395,-0.139824,4.49977,-3.16018,-0.162424,4.28497,-3.02752,-0.129413,4.35953,-3.07224
16.2025,0.140437,-2.48835,11.9449,-3.40246,-9.30912,12.2507,-2.58526,-7.896,12.2838,-2.72562,-9.19279,12.1932,-2.63679
38.5432,0.0683732,8.61539,6.6357,-4.46665,9.91987,6.21535,-4.89737,3.77043,7.12349,-4.07385,2.48389,6.82494,-4.26757
0,0.00652624,-13.8543,8.23818,2.99078,-13.7638,8.23608,3.02339,-13.6212,8.2077,3.05545,-13.6714,8.25302,3.05559
1.21628,0.123811,-16.2711,12.4114,1.87224,-15.5283,13.0352,1.81743,-15.7824,12.7914,1.52319,-15.8018,12.7153,1.28209
2.01082,0.193219,-1.09071,11.6874,-3.13176,0.142595,11.6865,-3.51619,0.180285,11.8225,-3.39521,0.382944,11.7998,-3.43589
10.8972,0.263446,-15.8492,8.00803,-1.38345,-16.2726,7.33457,-2.52149,-17.2624,7.18021,-2.48636,-15.359,7.75763,-1.57338
9.1117,0.0479695,-4.15083,4.39152,3.10122,-5.77436,4.89888,3.14872,-5.70149,4.69096,2.52546,-4.87301,4.37468,2.22359
1.82515,0.278213,1.27667,2.03709,2.58221,1.85991,1.68054,2.9789,2.48212,1.54973,2.88728,2.34756,1.58198,2.94455
0.936754,0.225375,17.533,10.9526,0.676046,17.1773,11.2263,-0.151473,17.2619,11.1886,0.513795,17.2545,11.1712,0.824261
8.85062,0.0260182,16.788,2.84859,-2.49272,15.7182,2.33232,-3.89598,15.1971,2.33101,-4.75938,16.8558,3.4664,-2.94512
3.29387,0.103668,-6.27209,13.3112,1.78918,-6.6556,13.0297,2.2433,-7.32528,13.5631,1.05266,-7.69363,13.2696,1.80307
32.2133,0.0441816,12.6356,0.0224158,1.17229,10.0172,0.118644,1.28046,9.79359,0.176059,0.375489,10.478,0.137721,0.379469
2.10182,0.0287897,-16.2716,8.32586,-0.918595,-17.1414,8.03245,-1.21316,-16.8467,8.21025,-0.667365,-17.0692,8.03714,-1.27511
0.0181801,0.0108996,4.88587,3.98586,-2.19893,5.01155,4.00393,-2.26425,4.93553,3.9375,-2.20634,4.95587,4.05863,-2.24163
13.1573,0.118122,-14.411,8.06859,-5.09314,-14.7203,7.53965,-4.06912,-15.6688,7.5095,-4.24595,-14.4901,7.40278,-3.62922
12.8949,0.698633,1.24356,4.05888,4.52116,2.69873,3.9762,5.53019,1.59085,1.96667,4.36632,0.644568,4.39041,5.35653
0.0164339,0.00259428,14.9874,2.68719,-5.14026,14.9864,2.63058,-5.1362,15.0761,2.61048,-5.08104,15.0836,2.52589,-5.07399
4.05592,0.0352497,-12.5497,8.18148,0.741271,-13.1723,8.10373,1.18494,-13.9093,8.03358,1.03396,-13.591,8.03958,0.278941
2.95607,0.734155,8.20538,13.6979,-1.14281,7.44251,12.8632,-1.89973,7.22255,12.915,-1.91018,7.33307,12.8134,-2.14802
32.8461,0.0193119,-11.2193,10.5437,-4.98057,-9.01479,11.0253,-5.09652,-9.4731,9.6096,-5.89067,-8.47712,10.3074,-5.63573
0.180276,0.254794,19.352,3.4017,1.69234,19.1466,2.80765,1.7464,19.2365,2.91875,1.69488,19.3257,3.03397,1.63413
3.93186,0.322706,-9.65584,10.0329,4.15388,-9.26346,9.41588,4.73749,-10.2183,10.1539,4.44029,-8.68608,11.0577,4.13852
3.70382,0.271746,-10.1276,7.65657,-5.28896,-10.5103,7.40038,-3.86195,-10.4798,7.46688,-4.73369,-10.3988,7.39656,-4.37471
2.6358,0.0899897,-9.8165,13.0963,0.0590859,-9.67616,13.2683,0.450413,-10.3801,13.0076,-0.525112,-10.446,13.0282,-0.297176
2.97003,0.169416,-3.89003,4.75349,1.82625,-2.73037,4.04101,1.88677,-4.35991,4.78754,1.72665,-2.53268,3.78418,2.13002
109.576,1.9122,10.7044,3.09717,-4.03558,1.94884,3.74833,-1.25841,4.15377,4.18432,-1.80873,4.61992,3.66166,-1.4545
4.86653,0.354752,-2.9327,9.09974,4.53776,-3.29585,8.92127,4.64577,-3.0879,8.46661,4.41551,-1.90174,8.48363,5.34793
1.58844,1.18231,5.33596,6.12368,4.98087,7.01466,6.1539,4.85864,6.88326,6.28302,4.8579,6.94347,6.21467,4.83704
0.256395,0.148239,10.477,12.9717,1.33308,10.6202,13.0475,1.12519,10.6875,13.0271,1.12511,10.7863,13.0736,1.09472
6.85491,0.0318964,-8.22077,12.9621,2.28725,-7.24333,12.8454,2.42836,-6.52621,12.2841,3.04669,-6.37795,12.3547,2.98561
7.90209,0.448072,14.1936,8.71828,3.46507,11.9921,10.5424,3.43398,13.0695,9.64144,3.2221,11.9413,10.2199,3.4751
1.30599,0.27535,16.2512,3.03677,2.90548,16.5894,2.36062,2.66038,16.6982,2.47269,2.64532,16.8386,2.43695,2.63968
2.48433,0.433419,8.38345,12.8472,-2.34009,7.57015,12.1453,-2.93732,7.84511,12.0645,-2.90329,7.86411,11.9064,-3.10395
4.69075,0.8554,3.05613,8.64686,4.52175,2.34238,9.72442,3.98032,2.11703,9.42268,4.16921,1.63619,8.73683,4.63165
15.2291,0.177431,-2.96336,10.8872,3.82315,-4.78828,11.5838,3.385,-4.78733,11.0525,3.66763,-6.58231,11.8912,3.35304
22.0665,0.0149056,18.868,8.21633,0.125463,18.5319,7.92397,1.09846,19.9165,5.17106,-0.135088,18.9838,8.47664,-0.265068
0,0.0619483,-6.65421,13.674,-0.28885,-6.57536,13.6824,-0.298739,-6.62973,13.6359,-0.378779,-6.63143,13.6656,-0.364531
2.44973,1.25441,19.367,6.66946,0.554985,19.9631,4.9011,0.115976,19.9567,4.78738,-0.0584658,19.983,5.02127,0.265984
7.25584,0.128826,-1.80527,3.87108,2.6472,-2.30832,4.31882,4.0556,-1.36744,3.66227,2.60961,-2.86058,3.80292,2.4687
48.6964,1.86781,0.853314,2.41223,4.25496,-1.14637,3.70752,3.00949,-0.954858,3.63104,2.95069,0.16008,2.35872,2.16663
2.55073,0.169295,10.0504,5.0717,4.63255,11.4963,5.07752,4.62441,11.467,5.27387,4.62508,11.0517,5.33682,4.67543
11.7288,1.66008,-9.17071,7.15273,-4.8816,-10.9198,7.24533,-2.74416,-10.3386,6.64695,-3.24764,-10.8524,7.2114,-2.75225
133.479,0.374391,-13.0073,7.67814,-0.795671,-12.8189,7.57585,-4.76873,-11.814,7.35408,-0.5268,-16.2827,7.33788,-4.22309
4.0143,0.0240382,-13.9939,9.19198,-5.63462,-13.6167,10.595,-4.87595,-13.448,10.3553,-4.99284,-13.3607,10.7861,-4.75361
0.562533,0.0281019,-5.36374,7.06574,5.87987,-5.83055,7.7093,5.44767,-5.70873,7.36748,5.66963,-5.90924,7.68321,5.4471
7.7946,0.0985968,-0.589962,5.72609,5.13494,1.67406,5.53876,5.32017,1.37821,5.83852,5.17313,1.66521,5.49673,5.3412
2.43672,0.00548658,10.654,1.50997,4.51757,11.7949,0.930928,3.59012,11.4264,1.25273,3.96733,11.4916,1.53157,4.09968
1.0866,0.136457,18.2382,8.74432,-1.03906,18.1714,9.4398,-1.05915,18.2262,9.48319,-0.99042,18.2676,9.63854,-0.895893
4.01906,0.501319,-8.55464,12.6755,-0.144158,-8.06752,13.086,-0.740905,-9.55275,13.1535,0.00846451,-7.46437,13.516,0.857619
1.396,0.0515165,7.65108,7.93695,-4.30219,7.23774,8.08151,-4.38719,8.14681,7.61244,-4.39964,8.09889,7.71006,-4.36455
0.322266,0.397998,19.692,6.05762,-0.613433,19.4386,6.17358,-0.945486,19.4527,6.21671,-0.94354,19.4456,6.0802,-0.959768
7.04519,0.0649473,-6.90214,7.30936,5.73853,-5.89296,6.05646,5.2548,-6.20766,5.92917,5.06519,-6.91723,6.84991,5.37368
2.00511,0.106896,-2.94074,13.0719,-0.180233,-2.75805,13.3474,0.0209304,-2.06042,13.7963,0.360972,-2.13169,13.7786,0.418179
8.53581,0.120615,-14.4609,10.2825,2.79276,-12.2116,9.55785,3.68029,-12.2332,9.47011,3.69139,-13.0463,10.5391,3.25968
3.236,0.0182349,8.11341,13.3062,0.933769,8.07705,13.556,0.339539,9.04589,13.4575,0.543296,8.41344,13.4621,0.564874
47.0833,0.7762,6.1423,9.15522,4.27741,6.00862,7.42789,5.63089,9.39199,8.95884,4.522,6.89159,7.23603,5.51425
0.996494,0.0448655,-12.6886,8.14641,-5.56068,-12.826,8.58264,-5.68093,-13.4432,8.1745,-5.42307,-13.5019,8.27955,-5.46047
18.3827,0.208189,-0.820906,7.32754,5.5044,-0.769381,9.40982,4.18328,0.20456,7.24118,5.90453,-0.95405,6.33687,5.67371
0.780311,0.016359,9.35982,0.0902299,2.0971,9.82402,0.103055,1.84195,9.82185,0.102921,1.79631,10.0326,0.103457,2.34612
4.90819,0.19967,8.80202,6.42459,4.61464,11.6084,6.58706,3.92724,11.6021,6.49499,3.95058,10.2817,6.54181,4.34603
7.37517,0.0676446,-8.92116,6.6598,3.80377,-8.15313,6.30279,3.86592,-10.4804,7.02144,2.82115,-10.603,7.00103,2.41236
3.41671,0.130577,11.9551,5.83137,-4.3781,11.3644,5.89451,-4.61923,12.9112,5.85088,-4.32139,12.9159,5.55332,-4.36681
3.45804,0.0121566,1.88769,2.28687,1.88249,0.511226,2.37282,1.87418,0.872151,2.17904,2.4828,1.64147,2.22932,2.17047
0.235213,0.196077,13.7582,8.19435,3.74154,13.9827,8.22483,3.65782,14.0027,7.98596,3.68887,13.977,8.17519,3.65727
3.52487,0.275083,-1.36336,8.01361,-4.06118,-1.26313,7.51803,-3.82731,-2.20918,8.0161,-4.44253,-1.29106,8.13083,-4.74812
3.20019,0.341301,-0.070874,13.1128,-0.622341,0.715512,13.1997,-0.700434,-0.474842,13.794,-0.147797,-0.475046,13.3448,-1.43505
30.7296,1.24257,4.60268,10.8323,-3.49688,8.4725,10.5954,-3.38665,9.13917,11.0711,-3.17109,7.43033,9.68109,-3.71309
3.48054,0.154043,5.89682,2.68745,0.308808,5.22217,2.89769,0.181817,7.03608,2.21526,-0.167242,5.53628,2.52604,0.55518
1.42325,0.883453,-8.29735,8.14659,4.83291,-9.08174,8.98013,4.51042,-9.16873,8.8948,4.39473,-9.07629,8.93254,4.44374
1.42389,0.230713,17.9768,7.48963,1.63095,18.9741,7.67494,0.364499,18.9337,7.65698,0.437403,18.8888,7.78639,0.473648
13.7025,0.472853,-2.64039,12.2172,-2.33873,-1.18533,13.5581,-1.32163,-0.760013,13.146,-2.17187,-3.37858,12.5478,-2.52295
2.58417,0.00373465,13.108,0.895864,-3.76424,14.4067,1.36677,-3.42672,14.4075,1.35582,-3.3813,14.2912,1.36249,-3.6066
3.08474,0.0499697,17.0256,6.97577,-2.49448,17.4412,7.90019,-2.02486,17.7053,7.58644,-1.8225,17.6238,7.61936,-1.8888
10.6444,0.0506,18.8748,1.88794,0.965,19.0269,1.94034,0.395453,18.0318,1.66166,0.516222,16.2155,1.23841,1.83005
3.53387,0.336333,-1.89071,11.5613,-3.08862,-2.23413,11.6431,-4.05784,-2.26869,12.1867,-2.79127,-1.04422,11.6167,-3.22127
2.58814,0.0903245,-5.93309,7.45007,-4.99679,-6.78356,6.85199,-5.05748,-6.87981,7.14834,-5.37595,-5.68963,7.53748,-5.0728
8.09259,0.0117212,11.2271,0.183988,-0.166702,14.9413,0.426311,0.390252,13.9823,0.223555,0.469642,12.0791,0.323719,-0.152702
19.8264,0.150811,-2.50383,9.34709,-4.82604,-1.93702,8.53727,-4.85319,-0.97111,11.0065,-4.50796,-3.58566,9.8468,-5.26326
4.92102,0.209224,-7.7983,7.25034,4.72569,-7.32301,6.66032,5.24013,-7.71396,6.43471,4.8155,-8.38554,8.06455,4.76496
5.36036,0.00987405,-8.66201,7.30447,-5.17429,-8.073,8.2374,-5.82881,-7.32048,7.67985,-5.73098,-8.11523,8.00423,-5.69532
45.7851,0.556899,-1.4543,4.10135,4.26396,-6.01509,5.50417,4.22781,-5.00305,5.51268,4.89019,0.296865,3.0917,5.02853
0.167815,0.0192586,1.06242,6.47999,-4.21402,1.29193,6.46664,-4.21505,1.31415,6.53298,-4.26603,1.27552,6.57937,-4.29354
4.04018,1.24736,18.1275,4.0827,2.00315,19.6665,4.29581,1.31448,19.7502,4.0937,1.19073,19.5779,4.43904,1.48668
4.01062,0.135056,7.17236,4.73706,-4.89166,7.82069,3.8168,-3.98541,7.93434,4.75672,-5.15891,8.02904,3.89308,-4.08774
0.609073,0.206541,-17.8912,9.18231,-4.06013,-17.7853,9.20229,-4.41601,-17.7921,9.24598,-4.36828,-18.0905,9.39463,-4.04882
8.03854,0.511802,-8.23263,12.4155,-1.66554,-7.05344,13.637,-0.193032,-7.79802,12.5487,-2.56188,-9.28604,13.0098,-1.66791
3.42688,1.88785,-2.4851,5.00323,-2.41693,-1.26237,6.26414,-3.14142,-1.30094,6.3179,-3.13261,-1.19757,6.15326,-3.1868
3.21804,0.17618,16.4317,6.05199,2.76362,15.9552,6.21111,3.18271,16.822,6.14353,2.77754,16.5798,4.60236,2.86553
15.2348,0.855794,-1.25824,3.3273,1.37099,-5.2059,4.68324,1.43592,-4.79817,4.89749,1.47864,-1.51614,3.26776,2.20818
1.79002,0.144517,-12.294,7.75696,3.03433,-12.7794,7.85122,2.29124,-12.1821,7.56713,2.69028,-12.7233,7.82919,2.23821
0.244539,0.0428815,16.6218,0.954111,0.990903,16.8742,1.0759,0.710382,16.6122,0.997893,0.810734,16.7864,1.06507,0.714405
68.0088,2.87129,6.98805,3.25888,5.09661,4.48481,5.12388,5.62448,3.73094,2.2783,4.88359,4.16569,3.75485,4.70687
0.0984066,0.0890471,-8.01239,13.016,2.16117,-8.00429,13.0776,2.05842,-7.97127,13.0079,2.08074,-7.85605,13.0709,2.10501
0.2242,0.157682,-19.2681,10.7156,0.171233,-19.0876,10.8374,0.0374095,-19.1865,10.8233,-0.0199995,-19.0586,10.9061,0.281202
0,0.0549486,-4.67791,8.35197,-5.45063,-4.47293,8.40564,-5.50348,-4.54375,8.45524,-5.53025,-4.61359,8.47996,-5.54787
7.28228,0.148485,0.700188,2.56195,1.00863,-0.963319,2.82455,1.26401,-0.631608,2.61304,1.68267,0.846682,2.45185,1.63058
7.78009,0.479653,-0.902059,5.2468,4.72329,-0.455572,5.099,5.36968,-1.77146,5.59869,5.07001,-1.70832,4.73428,5.58263
2.59059,0.0845515,6.17658,0.504289,3.3697,5.0814,0.869434,3.92792,4.85535,0.8789,3.92964,5.24185,0.780696,3.72863
47.5465,0.369734,-2.43402,9.85424,3.87316,1.01165,10.1769,4.1517,0.855523,10.6584,3.82698,-2.33495,9.24403,4.72834
9.60306,0.143361,10.2497,13.5625,-1.24183,8.86253,13.1994,-1.65565,9.28562,12.7089,-2.19074,8.67913,13.0763,-1.83149
8.3207,0.152733,-11.1409,12.7261,-0.871662,-9.28952,13.2355,-0.981139,-12.359,12.6463,-0.712485,-10.4625,12.9964,-0.38568
0.903255,0.353928,-7.65607,5.88884,-3.02898,-8.36989,5.81246,-2.97308,-8.24333,5.91608,-3.01943,-8.33189,5.90632,-3.19692
5.65034,0.323886,3.27608,3.51649,4.86095,3.00883,4.424,5.61591,3.06696,2.81627,5.2567,3.94946,3.68084,4.83775
104.075,0.753087,-3.34575,7.32175,-2.68081,-7.55049,6.4429,-4.90034,-7.85648,6.20759,-4.39437,-6.8817,5.69706,-2.35449
0.653361,0.413685,-11.3531,9.82426,3.80048,-11.3269,9.38526,3.77196,-11.0815,9.48456,3.92882,-11.1653,9.44015,3.83331
66.3407,1.3976,-14.2923,12.0398,-0.534905,-16.9077,11.5157,-1.16475,-16.653,12.4343,0.780767,-16.6112,11.6415,-1.50142
4.12553,0.139701,15.3697,7.04021,2.83939,13.5583,6.46654,3.38503,14.3058,6.77956,3.22428,13.3865,6.70525,3.44224
11.5168,0.0253909,-14.097,12.2354,-0.424223,-11.6143,13.3971,0.389268,-12.0434,13.0039,-0.0923398,-12.2942,13.4873,0.925184
45.1858,0.158193,-18.564,10.7695,-0.84198,-17.5832,11.2966,-3.04857,-17.0488,12.3212,0.532988,-18.1221,11.6495,1.1836
11.0729,0.342179,2.72264,2.33459,4.63277,1.78664,1.87077,4.38566,2.59733,2.24393,5.06131,2.88938,1.27974,3.83126
2.38068,0.186425,-3.20015,12.9395,-0.301916,-2.95176,13.0473,-0.216249,-4.39737,13.5422,-0.519285,-2.78501,13.1609,-1.60067
6.60754,0.212811,5.38312,2.26394,1.08596,3.8088,2.20696,1.51662,5.49849,2.40714,0.724749,6.38236,1.64558,0.697386
57.2752,0.369973,-17.6246,10.7795,-1.78418,-13.3828,12.3829,-0.854056,-17.7791,11.5558,-0.292915,-13.4318,11.9972,-2.1915
0,0.0337001,11.1983,13.4731,-1.32738,11.2305,13.5093,-1.24209,11.2041,13.482,-1.2733,11.2038,13.518,-1.24431
7.51528,0.0952462,-11.0337,12.1396,-2.4617,-10.9837,12.9549,-1.52142,-10.2299,12.2155,-2.43658,-9.35829,12.2602,-2.59502
6.18072,0.525123,15.4064,7.07309,2.82779,17.8172,7.2615,1.74439,18.0699,7.37139,1.59333,16.8906,7.86724,2.6914
10.0661,0.182806,-2.98326,3.80473,-0.885984,-3.51214,4.52729,-1.65687,0.646834,3.65093,-0.410989,-3.77284,4.35652,-1.38391
15.6037,0.000620264,-6.14674,5.54407,4.28635,-6.81234,5.32374,3.15227,-8.09373,6.27095,3.8154,-8.06553,5.83969,2.94805
29.1092,0.0813413,8.59055,5.82614,4.67547,7.79953,4.17027,4.9686,9.87629,4.64656,4.66267,9.87276,4.92507,4.614
0.114238,0.0408412,9.70028,5.16936,-5.4062,9.51407,5.35238,-5.37239,9.48575,5.21538,-5.40491,9.54299,5.1582,-5.40237
1.39943,0.0295906,8.72301,6.35206,4.60084,6.96119,6.308,4.8582,7.01732,6.19707,4.83382,7.98838,6.36861,4.73108
4.95431,0.0213209,12.2878,8.43183,3.77076,12.5256,8.41367,3.71598,12.9513,7.27748,3.8361,13.3161,8.99416,3.50247
4.9724,0.281717,2.37785,12.9088,2.04691,1.6034,13.5862,0.865203,2.01519,13.5574,0.873647,2.39764,13.6457,0.475038
18.6122,0.204233,9.80205,4.09976,4.66846,9.8935,2.21826,4.97879,11.0073,3.75884,4.84641,8.23337,3.91722,4.94436
2.39159,0.280932,0.804721,13.2239,-0.693911,3.1772,13.5906,-0.944317,3.10265,13.5872,-0.899185,2.68472,13.5715,-0.816404
5.34316,0.10409,-18.1952,8.61746,-1.3795,-17.4497,8.09687,-0.78468,-18.1857,8.03917,-1.85227,-17.5734,8.29614,-0.710566
0.0898948,0.00113019,5.77801,6.35589,-4.55944,5.75407,6.23227,-4.60827,5.84061,6.33735,-4.56057,5.81498,6.1306,-4.63864
4.73371,0.338091,-12.6731,10.5453,-4.51746,-12.9895,11.1389,-4.48904,-13.1198,10.281,-5.09751,-11.1481,10.8528,-4.8041
7.16035,0.341896,-11.6294,10.5622,-4.85427,-11.5206,9.02314,-5.47706,-10.969,9.47614,-5.63511,-11.617,8.57452,-5.49954
11.1915,0.0172999,15.9211,3.01606,-3.94749,15.01,3.94673,-4.72502,16.3199,3.78901,-3.38965,16.3626,4.71136,-3.14662
2.45615,0.214545,-18.6407,10.4599,1.22607,-19.2869,10.625,0.305866,-17.7545,10.2333,1.78595,-17.7483,10.2769,1.78888
3.63143,0.0197396,14.2744,0.929225,-1.70168,13.2015,0.590093,-1.35005,13.0947,0.496598,-1.02615,13.7304,0.681387,-1.09193
0.00981933,0.0541815,7.62083,4.9137,-5.18511,7.27879,4.95586,-5.14519,7.21091,4.95713,-5.12302,7.35181,4.95741,-5.15894
5.52478,0.0168767,3.44933,7.45626,5.49182,3.19707,6.83699,5.74428,4.03672,8.15336,5.4603,3.09598,8.54374,4.57746
0.508953,0.16483,5.84453,7.82732,-4.42816,6.27788,8.22833,-4.36809,5.91887,8.19016,-4.34846,6.05394,8.154,-4.34362
6.20556,0.213173,11.8838,13.1449,-1.15615,11.6172,13.0788,-1.4983,13.7213,11.8657,-1.88202,13.9171,12.0555,-1.7293
18.117,0.052944,9.15116,12.0748,-2.59962,10.989,11.27,-2.75346,11.0113,12.0097,-2.37424,9.0958,11.2058,-3.11018
1.95688,0.258304,-8.95373,6.56102,-4.63439,-7.983,6.96496,-5.25379,-8.08218,7.25011,-5.32012,-8.20373,6.62077,-5.09749
2.49116,0.00255636,5.74583,1.41995,1.72539,4.30203,1.43023,2.18221,4.6285,1.42116,2.20299,5.87895,1.44403,1.30688
16.5657,0.0440531,9.68845,0.233467,0.662164,7.08348,1.00855,1.48005,6.78038,0.942006,1.95022,8.23368,0.820185,0.792015
4.31839,0.393079,-6.4139,8.524,4.99464,-5.90518,7.72115,5.42617,-5.5402,9.34379,5.04432,-6.95371,8.70953,5.50365
4.99474,0.0559475,19.6624,3.39627,0.537243,19.9188,4.12529,0.26871,19.8384,3.10676,-0.162434,19.7151,3.97752,0.995716
27.8458,0.586342,-10.6167,7.89376,1.251,-9.23019,5.90666,1.91288,-10.9424,7.48698,2.10913,-9.55789,5.92604,-0.686894
20.2045,0.537735,-5.34352,9.77103,4.11147,-6.13784,10.1213,4.72562,-4.65121,11.02,3.70212,-4.0784,8.39896,5.50135
2.23681,0.630401,17.3219,5.25289,2.72658,17.1982,6.4592,2.65987,17.2976,6.57841,2.68698,16.9064,6.49969,2.78648
2.05434,0.0643978,5.93144,1.28,1.89225,5.3513,1.20177,2.14433,6.5381,0.968291,1.96537,6.94781,0.986845,1.75799
8.00478,0.517063,14.775,8.69435,3.29636,13.3241,11.5215,2.72238,12.8885,11.3297,2.86356,13.3999,11.5662,2.69617
2.40495,0.260609,5.26085,6.0955,4.99158,3.20758,5.92416,5.14652,3.56241,5.889,5.15887,3.13676,5.94918,5.14577
3.65048,0.00326959,-5.64757,12.0502,3.17498,-4.49366,12.7187,2.54693,-5.4605,12.4113,2.90657,-5.33212,11.7375,3.33931
4.01116,0.0422441,3.6518,7.22516,-4.03381,4.06018,8.09205,-4.29764,2.43714,7.26985,-4.18034,3.95445,7.81318,-4.22506
174.006,0.919067,-1.29232,8.89358,-4.60751,5.11962,8.07977,-4.39985,4.55991,11.3087,-3.48111,5.91704,9.55551,-3.74017
3.75712,0.173831,0.298819,12.4457,-2.47541,-0.045713,12.4192,-2.94926,0.685154,12.4687,-2.8639,0.153418,13.1488,-1.32192
4.71882,0.218745,-11.1361,7.86492,0.721342,-11.7804,7.86324,0.533918,-12.5841,8.13836,0.601524,-12.6177,8.12673,1.20127
2.59642,0.0581244,4.37904,13.1984,1.40816,3.87191,13.0506,1.78071,3.993,12.97,1.94791,4.46831,13.3909,1.16796
4.19464,0.991748,2.50379,1.63845,2.71057,4.21916,1.39897,2.22475,4.32435,1.48853,2.08866,3.99886,1.05146,2.52645
1.14953,0.0935254,-4.29918,9.96462,4.49151,-4.61548,9.58248,4.53734,-4.55245,9.51569,4.63513,-3.59484,9.94729,4.75974
2.78127,0.00736076,13.3726,6.61113,3.41959,12.7156,6.57095,3.70226,12.6682,6.77106,3.70736,13.3884,5.52659,3.48948
5.3427,0.0681656,2.03136,2.3096,1.7427,3.77327,2.42107,1.2324,3.78762,2.28716,1.45153,1.83868,2.71963,0.956785
4.35971,0.0705261,14.857,6.19381,-3.63437,15.6091,5.7372,-3.31178,14.2454,6.50686,-4.03017,13.6549,6.1148,-4.24324
27.2948,0.402998,15.5114,1.1174,2.24969,12.0555,0.527214,2.63361,11.3364,0.22958,2.18804,12.0457,0.963332,3.48603
5.39361,0.19093,13.6085,0.443275,-0.367883,16.3035,1.32615,-0.759995,15.9841,1.11771,-0.534103,15.6431,0.840778,-0.167645
10.6796,0.0919581,14.3242,4.22571,-4.93487,11.9537,5.28571,-4.91623,13.271,5.27553,-4.48762,11.9328,5.21993,-4.98103
14.1501,0.255996,-10.6106,7.62563,3.93482,-11.6615,8.88828,3.59514,-12.0537,7.87172,3.23431,-12.2051,8.14615,3.24609
52.3423,0.0158156,-13.7221,7.97785,1.61644,-16.0357,8.3165,-0.798466,-14.9589,8.12635,-0.736035,-15.8535,8.34783,1.90254
0.718424,0.0103565,3.64723,6.13557,-4.43124,2.43576,6.43366,-4.31724,2.41806,6.29213,-4.20056,3.45261,5.95693,-4.24601
26.3254,0.653465,-11.3252,12.5282,2.69114,-8.07451,11.8428,3.46573,-9.19284,11.2803,4.08234,-8.09106,12.2514,3.16186
17.2054,0.111971,8.29389,1.01331,0.263461,11.7117,0.584965,-2.83539,10.0006,0.821651,-1.46968,12.8874,0.735529,-2.10235
8.22458,0.0698929,-11.0838,7.46559,2.43871,-12.603,7.85468,1.77282,-11.0569,7.07213,3.08767,-13.1967,7.8938,1.80988
6.67143,0.173303,19.2034,5.60923,1.52664,17.4906,5.05953,2.6522,19.7771,5.70188,0.817668,17.7021,5.326,2.53029
1.78224,0.213887,3.37576,5.78373,-3.97477,3.97862,5.95952,-4.27735,4.03724,5.73758,-4.06908,4.28618,5.52132,-4.01447
49.3961,0.549379,14.4706,3.19028,3.1971,14.3702,1.66831,3.33225,12.9683,5.05452,3.30426,12.1215,6.05134,4.10418
23.3097,0.247065,-7.60494,5.43481,-2.22229,-9.35126,5.76866,-0.164001,-8.09157,4.61377,-0.752689,-8.5102,4.80981,-0.432065
1.08081,0.146738,-9.03123,6.05264,-2.23726,-9.30887,6.00043,-2.39609,-9.63408,6.1612,-1.85907,-8.76295,5.78145,-2.26925
1.26592,0.0480412,2.81642,3.36467,0.548228,3.64053,2.92813,0.690635,3.66544,2.97524,0.648232,3.2181,3.24252,0.512681
2.77948,0.124465,-5.95853,3.95386,-0.381767,-6.63058,4.00745,-0.247227,-5.62247,3.70788,-0.467442,-6.12764,3.69487,-0.075653
6.24597,0.256442,-2.66784,7.45092,-2.69359,-1.23522,7.3928,-3.70991,-3.52754,7.33658,-2.95674,-3.16259,7.16308,-2.51484
6.69198,0.37219,-16.6022,8.37364,0.250387,-17.7378,9.11459,1.02721,-16.876,8.48233,0.964522,-15.6494,8.31619,0.147829
0.53296,0.0221109,13.8425,0.340945,0.0724988,14.8343,0.578222,0.109589,14.4068,0.509972,0.00937083,14.8925,0.611596,0.0382481
65.9409,0.127274,4.39827,13.6046,-0.325476,3.32584,12.9461,1.90378,3.12118,13.6054,-0.0814008,6.08458,13.312,1.1466
20.9486,0.378281,5.91297,5.23882,-4.26736,4.28325,4.37645,-2.30995,3.74551,4.43831,-2.41218,5.49963,5.88919,-4.57039
1.31432,0.119257,-17.2336,11.9029,1.30915,-16.8286,12.0892,1.57591,-17.5894,11.9855,1.12481,-16.9034,11.9785,1.72135
2.02514,0.0372438,12.6992,1.72467,-5.00649,12.841,2.31373,-5.34636,13.0723,2.5081,-5.47067,13.2597,2.31943,-5.40774
1.92501,0.207933,3.133,5.90317,5.1465,1.57654,5.69407,5.21663,1.4369,5.72741,5.1899,1.44739,5.81893,5.16738
0.031111,0.0711524,-17.0771,11.0094,-1.42048,-17.0786,11.0489,-1.30843,-17.0732,11.0096,-1.32121,-17.0059,11.0688,-1.38009
17.1817,0.436512,-16.3915,10.4933,1.74681,-14.5524,10.2102,2.74153,-18.1863,11.3537,1.5526,-17.5865,10.6255,1.87409
3.49829,0.384566,-9.2129,8.99125,4.35104,-11.009,9.26685,3.80803,-11.1802,9.10625,3.71693,-11.203,9.01881,3.70564
14.0597,0.0257729,-18.1976,8.76073,-3.58249,-17.5974,7.26209,-3.0946,-17.3634,7.16045,-3.25751,-16.557,7.64359,-4.45684
13.4427,2.14056,-7.66088,11.525,-4.45589,-7.99977,8.41296,-5.87374,-7.7345,8.57709,-5.61759,-7.40615,8.64496,-5.58898
19.7583,0.153989,-10.9005,7.18214,-1.60783,-11.0034,7.23876,-2.69498,-9.18622,5.92931,-1.72168,-10.5246,7.45794,0.197352
7.5567,0.177007,1.59609,8.29745,-4.41624,3.0067,7.73313,-4.28354,3.27445,8.05099,-4.28222,0.169656,8.03194,-4.80007
3.33693,0.244547,6.50308,12.0712,-2.76907,7.24911,12.738,-2.26336,6.12127,12.0889,-3.20321,6.82821,11.7477,-3.34759
5.37005,0.031856,-3.32237,5.71462,5.17566,-4.64019,5.62326,5.05941,-5.294,5.8531,5.21868,-1.79628,5.7558,5.17929
6.05997,0.252692,18.821,5.75774,-1.64142,17.3909,6.87627,-2.27702,18.1171,6.70054,-1.69892,17.7946,6.6171,-1.99059
1.83358,0.00133823,-6.45438,8.05136,-5.40633,-6.22821,7.71918,-5.33075,-6.22909,9.43217,-5.73728,-6.45023,9.43045,-5.73234
39.5135,0.600187,11.2155,2.67122,-3.86779,12.3842,0.968081,-4.17562,8.24989,2.28639,-1.70002,11.7094,0.654303,-3.1976
3.04224,0.0467481,10.6044,6.00942,-4.72422,11.4024,5.68031,-4.7386,9.5181,6.03337,-5.07436,11.3295,5.94057,-4.6125
2.43631,0.141086,-12.1203,10.4741,3.52093,-12.9715,10.52,3.25488,-11.4135,9.87784,3.77874,-11.76,10.5959,3.95686
0.53198,0.30562,-18.4498,9.33583,-0.246409,-18.3406,9.15378,-0.585438,-18.2538,8.98633,-0.611056,-18.445,9.2423,-0.576666
1.54495,0.0586198,11.6763,6.51966,3.9129,12.2953,6.73512,3.80685,12.6599,6.725,3.69277,12.6469,6.6329,3.68653
3.3309,0.729943,2.32247,7.35296,-4.19176,1.00689,6.9766,-4.41032,0.335169,6.63501,-4.05812,-0.135677,6.62393,-3.88675
22.9556,0.340005,-2.66025,7.62438,-3.46779,-1.95831,8.18677,-4.7916,-3.54213,8.32867,-5.22638,-5.10459,8.44265,-5.51405
5.65785,0.0847677,13.2125,1.05574,3.20581,11.7443,1.70553,4.08385,13.3493,2.31273,3.88407,12.1812,1.3654,3.69315
16.0268,0.177605,1.87973,3.67086,0.148489,5.08361,3.20316,-0.285385,3.10219,3.35352,0.346813,0.665777,3.65669,-0.403796
1.2491,0.0612657,-12.6573,7.91177,0.0844644,-12.6279,7.95433,0.266493,-12.5888,7.62888,-0.18336,-13.2342,7.85257,-0.118022


