
5.96669,0.356134,12.5437,28.4562,-0.107079,12.2626,28.7679,0.588301,13.6435,29.075,0.0636984,11.5435,28.5847,-0.678432
0.455048,0.37967,20.4816,10.9422,1.7125,20.1337,10.6472,1.62477,20.1576,10.4853,1.54473,20.0792,10.78,1.55951
2.62362,0.0954315,-16.2659,22.4791,-0.390859,-15.7263,22.7222,-1.59962,-15.6159,22.8517,-0.19329,-15.3517,23.0149,-1.2087
7.71114,0.657604,7.43446,11.7304,8.41838,9.36164,11.1508,8.44455,9.4019,11.9723,8.61556,8.7613,10.4274,8.4534
4.97769,0.864615,-14.671,22.3159,-3.14808,-16.2486,22.4667,-2.41174,-17.5951,22.0175,-2.33082,-14.0663,22.8571,-2.3851
9.18272,1.4507,-7.20959,25.5006,-0.274333,-7.13205,23.9454,-2.49285,-6.60404,24.1472,-2.27912,-7.68691,23.7454,-2.71257
0.0507789,0.0359077,-20.4576,6.59695,-0.884114,-20.3479,6.74758,-1.03175,-20.3078,6.42739,-0.76243,-20.3867,6.17149,-0.483597
1.65312,0.218863,1.20959,26.6617,1.61355,1.35998,26.5177,0.798026,1.49076,26.5796,0.797378,1.69555,27.2369,1.72558
6.03647,0.105071,-4.45542,25.7589,1.71195,-4.73972,25.7979,2.26667,-3.9188,25.997,0.408957,-2.86874,26.569,0.852453
5.21821,0.135644,4.17296,14.471,8.13974,6.2156,14.2492,8.45798,3.69945,13.151,8.55025,3.41108,13.8837,8.36514
2.72916,0.205429,8.87084,18.5596,8.51124,10.2878,18.3978,8.26596,8.44491,17.7495,8.702,7.94228,17.3974,8.78681
2.79154,0.148722,21.7606,18.1868,2.24791,21.2794,18.3993,3.45297,21.6022,16.7891,1.71222,21.3278,18.5505,3.34493
0.728089,0.100223,0.884939,24.131,-5.85149,1.41149,24.3588,-5.89967,0.34032,23.5497,-6.36022,0.23295,23.6868,-6.22368
3.72542,0.246957,19.1568,14.1498,4.89061,20.7078,12.7342,4.35353,20.3292,12.6653,4.57411,19.5569,13.2525,4.98911
6.93767,1.09629,1.26437,21.3749,-7.28868,1.83815,24.2874,-6.33756,1.29355,23.919,-6.37535,0.906976,23.6148,-6.44701
6.52185,0.291885,15.3617,13.4677,6.93711,17.1711,13.3848,6.44823,15.8348,14.1786,6.93137,14.4297,12.7099,7.80856
26.5924,0.260289,-15.9734,17.9978,-3.47882,-16.4804,20.3453,-3.89351,-18.8307,18.7099,-4.4895,-18.0844,16.5226,-4.28291
3.66343,0.303531,-2.09406,3.2153,7.79342,-1.17802,4.23334,8.20096,-2.03951,4.12761,8.05701,-2.14858,4.76961,7.99958
8.07645,0.231325,-0.36776,7.04997,7.75168,0.294,5.7359,8.01222,1.52579,6.41574,8.46727,-0.975848,7.4288,7.86685
0.397112,0.0190603,5.21321,12.6038,8.78334,5.10778,13.328,8.76431,5.23608,13.4444,8.75861,5.04694,12.7671,8.76988
9.88956,0.258515,11.5646,29.0607,2.87495,13.8908,28.6437,4.01098,14.7154,28.756,3.42847,14.2646,28.9438,2.27831
8.87998,0.25876,-3.83676,9.09843,-6.6298,-3.24809,9.54308,-7.56073,-4.38011,9.92232,-7.62492,-3.25058,8.40165,-6.48769
16.0093,1.20163,-0.0632866,11.4817,8.43528,-4.34,11.4764,8.43638,-5.07776,10.7216,8.41306,-2.81528,12.1008,8.73269
4.18639,0.302412,17.7241,4.07905,6.6473,16.3668,3.84024,4.87617,17.7571,3.96084,5.55595,17.0435,3.85189,5.48122
14.4951,0.0606417,11.1862,14.6544,-7.92204,13.1556,17.4138,-7.67528,13.8433,18.868,-7.60933,13.1629,18.6468,-7.77951
1.45379,0.216157,-6.86979,23.8335,8.14219,-7.47166,23.2845,8.39743,-6.12917,23.7448,8.23568,-7.3961,23.744,8.43562
0.665038,0.386379,18.6411,19.3288,-2.12715,19.015,20.1686,-2.05989,18.8804,20.4721,-2.41076,18.7898,20.1547,-2.18938
7.56311,0.400761,-14.3058,18.9812,6.08967,-13.0973,18.756,7.34844,-15.3172,18.1933,6.32976,-13.5351,17.2651,7.70933
53.0404,0.332941,-6.81391,9.41657,-6.92165,-9.87287,11.92,-6.44002,-9.73706,11.9355,-6.46585,-11.5551,8.91565,-5.68449
0.941667,0.091146,-12.9783,20.4825,6.90013,-13.2827,20.6943,7.05802,-12.2078,20.6259,7.45295,-12.8082,20.3111,6.95993
4.68834,0.950421,10.5225,20.1608,7.6274,10.6471,21.0073,8.54953,13.1967,19.9021,7.16767,12.531,19.8746,7.57375
1.19477,0.0437874,20.7487,23.3098,4.15069,21.1646,23.7266,3.324,21.2115,24.166,3.17568,21.1305,24.1569,3.30858
1.84277,0.225852,-8.9164,23.2172,8.18157,-8.78199,23.5632,8.4507,-7.98726,23.021,8.44972,-9.41914,22.9438,8.35046
0.193772,0.025151,-18.5152,20.3783,-4.24784,-18.4298,20.0458,-4.35302,-18.567,20.0244,-4.33887,-18.4025,20.4414,-4.27608
38.5996,1.24006,16.6983,4.06458,2.31671,17.7609,7.10967,0.0557168,14.327,3.56591,1.67867,17.2144,6.61186,-0.240472
7.03936,0.0482547,-3.58848,27.5433,6.17623,-2.94943,27.9927,6.92724,-1.11052,27.9474,6.36299,-1.33708,27.5922,5.60389
0.650587,0.148075,-2.03828,20.2808,8.4253,-2.88942,20.0032,8.21336,-2.61505,20.2118,8.38223,-2.73652,19.8522,8.20191
0.970762,0.124347,7.26144,1.64609,0.180555,6.68561,1.66474,0.170625,6.685,1.55913,0.24594,7.80399,1.27634,0.136622
1.42154,0.27401,16.156,25.2935,-6.42499,15.7971,24.6125,-6.86302,16.6445,25.0254,-5.91341,16.5991,24.749,-6.18915
19.3356,0.470706,-20.5417,8.49629,3.12408,-20.0589,10.4557,4.55514,-20.9196,7.76782,4.92256,-20.148,10.8822,3.44382
12.5443,0.998495,0.522566,7.64597,-7.01004,3.07423,8.84295,-7.57206,2.8306,8.4145,-7.41561,3.2902,8.05855,-7.767
3.41901,0.167937,5.9575,27.9285,3.44388,5.51396,28.027,3.78056,4.69388,27.8878,3.21223,4.73181,27.6451,2.80643
25.066,0.549447,14.5856,27.7468,-4.14517,11.0652,26.7662,-3.6137,15.8281,28.8529,-5.12104,16.2052,29.1337,-3.74989
1.57933,0.13422,2.90662,28.4193,7.18424,2.52201,28.1645,6.58044,1.97929,28.0358,6.39167,2.25251,28.1164,6.77054
4.42862,0.302951,13.2273,6.04554,7.38023,15.6447,4.45823,7.96907,14.3463,5.51247,7.76726,14.4185,5.90048,7.65803
8.67056,0.875972,19.1836,27.3592,-2.1301,19.8464,26.2448,-0.331727,19.9307,26.1011,-0.352915,18.9629,25.3949,-2.73258
1.45447,0.0229177,-4.25746,27.249,5.56949,-2.70586,27.3111,5.43147,-2.56068,27.2693,5.26354,-3.26381,27.2523,5.32716
0.00109491,0.059053,2.18238,1.51161,5.6689,2.03178,1.58291,5.88282,2.17347,1.58149,5.88591,1.89073,1.58449,5.88306
0,0.0503326,18.6544,22.4165,5.80857,18.567,22.3978,5.75241,18.6625,22.3395,5.8284,18.5489,22.3558,5.81073
8.1497,1.29672,10.1693,12.3335,-8.03285,10.7572,14.578,-8.19518,11.4814,14.573,-7.82264,11.0452,14.6586,-8.00529
1.12231,0.00179466,20.0374,12.4726,1.28893,20.1683,13.4775,0.848865,20.3877,12.9057,1.44074,20.4332,13.1812,1.33032
10.7938,0.0155248,-4.97776,23.5522,-3.06841,-4.74329,25.3847,-0.678749,-4.29208,25.6273,-0.748263,-5.11978,24.85,-1.08724
2.34657,0.358012,-13.6884,12.5908,7.91436,-13.2735,11.7137,7.92048,-14.9186,13.339,7.10671,-14.9247,13.4299,7.06943
7.23494,0.216043,14.1689,6.43681,7.35438,13.7395,6.45627,7.61884,15.9199,7.37867,7.80414,17.5269,6.87685,7.52177
1.28128,0.183576,12.1126,6.2082,7.78106,11.0769,5.45009,8.76695,11.1058,5.26841,8.82471,11.3618,5.2982,8.69567
3.266,0.329237,16.0073,23.3176,6.24241,15.1205,22.4627,7.27273,15.411,22.3299,7.12565,16.9583,23.468,6.05291
15.4287,0.0400513,18.6157,20.4795,5.67605,19.5681,18.6034,5.32869,20.6746,21.3057,4.73274,16.4893,20.2859,6.72115
5.56936,0.865866,19.5028,17.236,-0.187241,18.4076,17.7554,-1.56904,18.5017,18.19,-1.50152,19.4663,18.8119,-1.04856
5.50678,0.168874,-15.0624,10.2154,-4.43486,-15.2677,12.1955,-4.08863,-14.9285,11.5043,-4.23058,-14.9177,12.8936,-4.15985
18.8568,0.520137,-8.15381,6.67706,7.64075,-7.27297,4.56698,7.72971,-10.1029,8.02514,8.3707,-6.73044,7.35137,8.4321
1.12909,0.528116,-0.405981,27.9745,6.38743,-0.658093,27.5786,5.73369,-0.480081,27.5564,5.78165,-0.210793,27.5975,5.46202
6.02616,0.221974,-0.865143,9.3008,-7.08313,-1.98736,9.38935,-6.98674,-1.12843,10.1992,-7.84064,-0.260397,8.61992,-7.15308
10.8182,0.0787745,-18.5541,2.06431,6.3342,-18.5314,0.975644,5.37159,-19.7846,1.66238,4.22112,-20.7505,5.10378,5.60136
6.9465,0.158886,-14.8257,23.3092,-0.498783,-14.4063,23.2433,0.889435,-13.9536,24.1871,0.0354797,-13.2105,24.0752,1.68337
4.47505,0.16905,-17.0821,4.45934,-2.16071,-16.4195,4.40523,-2.61573,-16.5759,4.60842,-2.66335,-17.9191,4.86458,-2.24095
1.37115,0.096802,6.28281,22.8535,-8.13833,5.57253,21.8987,-8.33372,5.44329,21.798,-8.32032,6.64851,23.3265,-7.79886
3.57973,1.38111,-13.9682,5.19856,8.34908,-11.2367,6.10265,8.47905,-10.9389,6.04848,8.50864,-11.8263,6.2118,8.48486
16.5946,1.39322,-0.135535,13.9611,8.45288,-0.629476,15.9539,8.0841,1.81866,14.6411,8.90656,-1.67735,16.0388,8.72821
0.524413,0.125337,-11.1246,27.2646,7.48621,-11.3931,26.3996,7.67227,-11.1717,26.9749,7.79505,-11.3717,26.2613,7.77293
5.72585,0.133324,14.5629,5.35734,-1.66325,16.0639,5.32688,0.0392676,16.1025,5.5943,-0.848028,14.8284,5.32912,-0.884074
9.43275,0.64711,16.1429,24.612,6.53213,18.0634,25.2099,6.7701,16.3986,25.4048,7.31286,15.1424,23.2968,7.24412
2.3863,0.0294005,-18.1254,8.57954,6.78684,-18.9369,9.45579,6.2484,-19.4027,8.85924,6.26552,-19.1731,9.4658,6.16957
1.56824,0.515061,18.3805,17.8998,-1.65169,18.7553,19.1826,-1.7818,18.9166,19.3462,-1.83373,18.738,19.0421,-1.67984
3.50086,0.0791753,1.17342,25.0169,-3.72308,0.407181,24.434,-4.91868,0.835951,24.4043,-5.27059,0.404203,24.4597,-4.832
1.69654,0.0973088,14.2144,3.84664,1.09063,13.6427,3.38959,1.68098,14.663,4.03772,0.484905,13.9227,3.51921,1.63686
3.13924,0.420769,-6.00032,23.8497,8.27773,-6.16356,23.0788,8.43348,-3.75469,23.4566,8.64706,-4.34696,23.6554,8.70384
19.2974,0.130889,15.0016,24.7882,7.87795,12.0845,23.8759,8.56914,13.9886,22.9842,7.95383,12.423,22.3651,8.39171
4.40766,0.019483,-4.73826,25.7655,0.738838,-2.32419,26.7344,0.430974,-3.25827,26.345,0.519145,-3.89518,25.8827,-0.412922
4.89769,1.16856,-5.58482,2.19683,-1.33228,-5.27106,3.89736,-2.54605,-6.08739,2.98229,-2.70575,-5.56771,3.73554,-2.61275
0.93619,0.00109538,-15.6473,18.522,6.23117,-16.4799,18.7039,5.4096,-16.1015,19.1482,5.69026,-16.29,19.1365,5.51384
0.461382,0.0742078,-17.9075,5.34479,7.06349,-17.5802,5.29604,7.20344,-18.2253,5.05497,7.51983,-17.5409,5.19126,7.31655
0.305408,0.0365362,19.9687,30.0941,-0.553331,19.7961,30.2915,-0.392364,19.7326,30.3297,-0.779834,19.8238,30.2509,-0.855079
1.42994,0.0902575,-13.0925,1.44263,-1.82461,-12.6737,1.7001,-2.10294,-11.8367,1.61101,-2.02603,-11.6908,1.23105,-1.76249
0.826217,0.0616454,3.7194,25.0819,-6.31722,3.93918,25.3815,-6.02182,3.15664,24.9665,-6.3069,3.80229,25.3819,-5.92966
2.96211,0.153875,10.7483,28.8681,2.02542,10.7241,29.0226,2.7487,10.0311,28.9297,2.25624,11.2841,29.0915,1.30519
16.5148,0.0284666,9.06938,8.06531,-7.25816,10.7989,6.41607,-6.40017,12.4564,7.45717,-6.62155,8.09413,9.18269,-7.76649
5.57826,0.0410059,-14.8104,21.928,-3.42089,-15.2738,19.5846,-3.61244,-14.9946,19.5238,-3.66182,-15.1441,20.9755,-3.50078
0.17649,0.162221,13.517,27.4264,-3.0416,13.0985,27.3699,-3.23213,13.2168,27.4808,-3.06782,13.1039,27.3411,-3.31295
2.87998,0.0104813,6.88088,0.714234,3.62568,6.92007,0.547284,2.90526,8.04056,0.363182,2.62162,7.43658,0.385129,2.40778
13.0592,0.388747,18.1052,28.779,1.7637,19.6363,29.5084,2.85476,17.0877,28.9624,1.17073,19.698,29.8974,0.805753
8.36601,0.212625,3.20406,1.83942,-0.0571997,5.73867,1.83923,-0.175182,1.95174,1.94683,-0.440176,2.634,0.497439,0.497191
3.74316,0.152042,-8.87229,18.8721,8.01295,-7.85988,18.8149,8.09192,-9.26353,19.5566,8.02596,-8.89192,18.291,8.32654
7.43792,0.0436383,-2.63903,12.6054,-8.35111,-1.97462,11.6583,-8.43812,-2.35116,14.0143,-8.78292,-1.59723,10.6697,-8.3698
1.37932,0.115671,-18.3802,5.53171,-0.230181,-18.3704,5.11255,0.0596445,-18.7758,6.09215,-0.65717,-18.5818,5.97356,-0.783625
3.40931,0.287248,-6.23564,14.9866,8.65029,-7.90742,15.6084,8.55732,-8.3152,15.47,8.47274,-7.66152,14.9891,8.63221
0.45839,0.0440786,-18.269,2.73158,0.717875,-17.8593,3.03512,0.298614,-17.9412,2.75071,0.359717,-17.8684,2.90093,0.300406
17.5664,0.299492,14.8828,24.6788,-7.64574,15.8047,23.3787,-6.73691,15.321,22.3049,-7.2486,15.7151,22.6735,-6.89904
3.34238,1.1474,-16.7647,6.9259,6.61924,-16.5501,5.80123,7.05427,-15.4466,7.15743,8.0439,-16.4162,5.90602,7.10002
1.70349,0.163862,18.2818,20.5859,-3.36223,18.5904,20.0392,-2.49736,18.205,19.5996,-3.04429,18.5341,19.8861,-2.48754
0.650239,1.04963,18.4259,22.0902,6.00728,17.586,21.2989,6.35391,17.7307,21.232,6.28239,17.8863,21.1632,6.21434
15.3367,1.44674,3.99194,3.84397,-3.58108,6.23461,4.05922,-3.83434,6.67521,4.03216,-4.70837,6.75028,3.00507,-2.16148
0.883719,0.0583742,-3.25116,21.589,-6.21212,-2.02685,22.0678,-6.24354,-2.42629,21.7819,-6.30711,-2.05147,22.2525,-6.16473
5.38921,0.163139,18.8304,20.7532,-2.57935,18.7879,21.4596,-2.56632,19.6803,21.6189,-1.12304,19.4527,22.0331,-1.24155
41.7637,0.584337,10.9254,28.6664,4.72256,14.8181,27.944,7.73488,8.34117,28.9261,6.043,9.30549,28.0873,8.11834
0.973271,0.0918556,21.128,16.6099,1.18252,21.373,16.628,1.40223,21.35,17.6097,1.21022,21.4699,17.6194,1.26686
9.02697,0.238852,10.6427,0.086118,3.87787,8.8739,0.197225,2.30779,9.28406,0.176038,2.09726,9.14627,0.240884,2.81804
12.6534,0.243549,17.0957,14.814,-6.53882,15.0453,15.655,-7.19453,14.8891,14.244,-7.17785,11.9214,14.3149,-7.73109
3.14933,0.14192,-16.3163,2.82274,7.53792,-16.7745,4.63925,7.27522,-16.6086,4.65067,7.29857,-16.7054,2.32452,7.35365
2.8839,0.159255,2.65897,2.94175,-1.22933,3.63528,2.39459,-0.908911,2.53268,3.23571,-1.70204,1.54946,2.58073,-1.19326
6.61178,0.495415,8.44016,26.3304,-2.92827,10.4889,27.9017,-2.24158,9.62427,26.1244,-2.98445,10.5053,27.6292,-2.28787
7.29911,0.124467,-15.4215,3.87665,-3.27154,-16.4209,4.31968,-2.59127,-14.4878,4.04976,-3.51244,-16.1549,4.42575,-2.68732
3.99423,0.301958,-18.5015,20.7859,-3.31251,-18.5001,19.7861,-1.59015,-18.549,20.6807,-3.96055,-18.3422,19.3827,-0.749106
3.54176,0.215316,-11.9782,23.045,7.53249,-12.335,22.722,7.67025,-10.652,22.6803,8.40122,-11.1141,21.7871,8.35201
4.56611,0.675407,-0.754041,26.3803,-0.8678,-0.016199,25.4034,-2.75876,-0.147699,25.328,-2.93289,0.11192,25.4993,-2.49515
7.20225,1.95839,19.5011,4.86656,2.49766,17.0628,3.75624,4.07281,17.0763,3.89583,3.73414,16.9479,3.72811,3.37277
3.97348,0.877305,18.6431,15.1003,-1.63761,18.9757,15.9539,-0.785996,19.426,15.9538,-0.268788,18.259,16.2171,-2.18684
1.57112,0.142853,-0.0938147,13.7738,8.49338,0.483683,12.9091,8.69778,0.207374,12.7829,8.6472,0.518544,12.6357,8.69232
3.96046,0.505592,4.85154,15.735,8.30385,4.54102,15.206,8.64339,3.92292,15.752,8.86597,6.95335,15.2503,8.629
1.32442,0.059132,1.82458,28.1918,4.30811,0.881678,27.8121,4.38717,1.01847,27.8711,4.18097,2.37235,28.2924,4.58387
0.584865,0.119014,-0.750619,12.6459,8.78885,-1.64179,12.8896,8.86419,-1.50213,12.9113,8.83937,-1.0611,12.8782,8.81972
4.51935,0.390133,0.736359,3.57574,8.03262,0.0113596,5.61415,7.94736,0.0989691,5.05953,8.05408,0.30845,5.64489,8.01582
2.49239,0.179852,-7.34383,20.2151,-5.65759,-7.76391,20.2086,-5.73214,-6.70179,20.7296,-5.60208,-6.5509,20.7627,-5.6911
5.76548,0.456357,-9.85442,24.3335,7.73756,-7.95001,23.8578,8.57167,-10.0632,23.3993,8.36304,-10.1348,24.6341,8.10791
2.0369,0.31137,-13.1089,22.2328,6.93106,-13.7909,22.4404,6.14814,-13.8466,22.8256,5.70608,-13.7333,22.8024,5.74504
2.4389,0.445107,8.5619,25.2361,-8.25891,7.00935,23.6861,-7.61347,6.63587,23.3648,-7.62984,7.69332,24.4525,-7.69301
0.871398,0.195416,15.4638,3.13285,6.938,14.7655,2.60182,6.41484,14.9375,2.74069,6.38859,14.9268,2.63671,6.13567
44.7231,0.329597,17.8513,9.02491,-2.42695,18.7954,11.5891,-1.00493,17.6044,11.2778,-3.80008,18.6601,13.0168,-2.41263
25.818,1.08069,-18.7899,16.6753,-3.94247,-19.2245,12.4113,-4.39443,-19.2685,14.1353,-3.60738,-20.1912,13.8794,-3.33486
2.61726,0.109661,-18.6973,19.3707,-1.31431,-18.0542,18.9579,0.128719,-18.619,18.6903,-0.337332,-19.0477,18.7371,-0.936182
0.476331,0.0178641,0.949616,1.30351,4.86097,1.34812,1.54737,5.74851,1.6342,1.47817,5.53475,1.62986,1.54616,5.75905
1.06867,1.07192,20.9254,19.2111,3.87852,21.5968,19.1528,2.48961,21.5863,19.2967,2.64981,21.6677,18.8767,2.25306
0.370978,0.233973,8.89426,0.286472,1.36254,8.60237,0.219676,1.62271,8.61569,0.297147,1.46924,8.48289,0.244612,1.24076
1.61766,0.0158562,4.74732,0.997841,4.16728,4.57061,1.41346,5.59182,5.28633,1.23794,5.16113,5.30699,1.05515,4.49024
3.06229,0.105664,16.5024,3.9144,4.80622,16.9282,3.75933,4.27223,15.6933,3.1195,3.29725,15.5435,3.1053,3.39008
3.01845,0.31447,16.826,23.2291,-6.45655,17.2436,23.2313,-5.53217,17.2554,23.791,-5.3421,17.2277,22.9551,-5.71747
1.84697,0.257628,20.5166,26.1183,1.09057,20.0591,26.9469,0.463816,20.2116,27.2195,0.896161,20.1602,27.3771,0.728913
5.6895,0.593262,0.690665,10.0755,-7.64162,0.609379,8.22191,-7.04145,0.46103,8.30098,-7.05644,-0.306484,9.18219,-7.47163
6.48054,0.0183994,-1.90464,24.8058,-3.71407,-1.26858,25.711,-2.27274,-0.260902,25.2979,-2.91553,-1.23048,25.3424,-2.84595
2.76433,0.0219011,-7.13011,4.5776,7.77086,-7.79876,3.37898,7.82398,-7.03805,4.03228,7.80873,-6.36731,3.38523,7.83016
54.5815,0.19789,-5.40294,15.0293,-7.80006,-0.556556,14.2981,-8.34804,-0.675987,15.49,-8.30266,1.2019,16.2513,-8.40539
5.60782,0.31195,-9.80807,20.0719,7.73109,-7.32187,19.1494,8.20161,-10.7847,19.3395,8.14537,-9.97901,20.4705,7.98672
25.5165,0.252511,0.183584,19.4845,-7.81029,-2.77816,16.8721,-7.80695,-2.58611,16.3799,-8.08288,0.118981,21.5356,-7.27886
0.159861,0.023552,7.06475,3.45391,-2.97639,7.0644,3.45749,-3.05836,7.60188,3.70838,-2.9532,7.60148,3.67222,-2.86145
1.83524,0.131883,11.0456,3.22986,-1.08485,12.16,3.35194,-0.617341,10.0759,3.25977,-1.10572,12.3047,3.4778,-0.953079
2.18186,0.123258,11.8367,2.19225,1.48009,11.0022,2.06348,0.820974,10.8591,1.60108,1.12956,11.1233,1.50101,1.40395
2.84033,0.0555216,6.29277,8.94518,-7.96149,8.1367,10.0821,-8.02947,6.19788,9.24752,-8.18455,7.89717,9.76459,-7.95313
1.94344,0.319429,14.5876,28.341,-0.114796,14.214,27.9885,-0.621621,14.1623,27.8659,-1.21328,13.9919,27.927,-1.15597
6.8714,0.106451,-1.93756,3.483,-2.13789,-0.391714,3.42352,-2.29746,-1.49728,4.04908,-2.77083,-0.65554,3.96318,-2.88515
11.0327,0.252222,-12.4357,25.226,5.93114,-10.3605,27.6988,6.15764,-10.3552,27.666,6.07275,-10.9241,27.5514,7.04829
9.90151,0.594051,18.2237,19.7932,-5.75659,17.4549,18.4935,-6.56333,16.5849,18.6958,-7.22388,17.7203,19.5093,-6.74415
2.33841,0.541591,-10.4592,19.207,-5.77293,-8.55259,19.8924,-5.90064,-9.19111,19.2992,-6.15368,-9.08507,19.4736,-5.92953
1.57287,1.52197,9.28883,19.549,8.46693,7.70305,19.7927,8.51038,7.70824,19.7134,8.46976,7.71792,19.6186,8.44335
6.6487,0.347479,19.66,23.0121,-0.943025,19.4894,22.1696,-1.15688,19.423,23.4523,-2.00991,20.95,23.7885,-0.602793
1.63362,0.35582,0.437148,27.9278,6.84172,0.323507,27.7006,7.97821,1.03506,27.681,8.21361,0.474232,27.6597,8.09566
9.39134,0.397915,-15.1671,22.8434,-1.70903,-14.1338,23.4431,-1.08952,-13.1183,23.1101,-2.23857,-12.2599,23.2429,-1.79559
150.925,0.936435,-16.6194,0.903476,2.96909,-12.5425,1.19167,-1.40936,-7.8456,0.980081,4.40887,-6.06957,0.649326,1.59027
2.23296,0.173963,19.055,11.4391,-0.032237,19.3735,12.0182,0.249517,19.2244,10.0572,0.106691,19.037,10.8908,-0.509485
5.4876,0.202783,-8.58274,25.9386,5.12418,-9.19298,25.9932,4.87472,-10.1769,26.4139,2.84026,-9.13127,25.9422,3.53894
1.7213,0.210902,16.6732,28.9829,6.28643,15.9723,28.8825,5.78046,15.8342,28.8467,6.45486,16.1157,28.8448,6.08097
0.814453,0.160394,-6.40311,19.5115,-6.89302,-5.36195,20.3083,-7.05918,-5.37401,20.4705,-6.95646,-5.51286,20.4503,-6.90916
1.88463,0.0899388,19.3839,23.9961,-1.99077,19.4218,24.5639,-2.118,19.1613,23.8749,-2.70657,19.4305,23.5909,-2.11196
16.9338,0.564888,-11.1634,3.97888,-2.77138,-7.62795,3.98004,-3.75792,-10.0134,1.40408,-2.04386,-11.3422,2.04523,-2.29045
35.2508,1.56043,18.7767,24.2692,-3.05604,17.9871,21.039,-5.67703,17.2281,23.0946,-5.62054,18.2336,20.8834,-4.11843
1.55557,0.150121,-16.0437,17.2707,-3.64072,-15.9303,16.1263,-3.93877,-16.0629,16.0238,-3.99158,-16.2473,16.444,-3.83389
10.1501,0.747574,17.7318,15.2329,6.21202,14.2203,13.4023,7.97695,12.0424,15.3719,8.60505,14.1943,14.6063,7.9903
1.54507,0.116386,-21.6575,4.82853,3.19234,-21.8789,5.39303,3.22295,-21.8011,4.82911,2.65539,-21.7192,4.53989,3.26502
0.82856,0.534446,-8.03355,23.265,-3.60757,-8.32819,23.3638,-3.08014,-8.45987,23.3559,-3.07926,-8.18968,23.3969,-3.08353
0.868087,0.176535,18.2461,29.1963,5.01231,18.2003,28.6503,5.83089,18.6893,28.7694,5.34763,18.3861,28.8495,5.29642
3.15159,0.445028,-5.38634,8.00591,8.43924,-6.17519,10.0543,8.04599,-5.85922,9.99504,8.12861,-6.14302,9.86989,8.11698
1.40144,0.110598,20.7244,20.4453,4.06207,21.4151,20.059,3.28185,21.384,20.2348,3.3065,20.4701,20.4613,4.63629
7.95416,0.561716,-9.18555,23.2201,-1.98588,-7.23185,23.5868,-3.1915,-7.92525,24.6736,-1.73627,-10.0182,23.2778,-2.4645
39.0431,0.300819,-9.59185,17.6332,-7.02418,-7.27158,18.2911,-7.30035,-6.76349,14.5507,-7.46326,-5.82246,15.0673,-7.69898
1.46049,0.00430061,2.62684,20.8428,8.92707,4.0023,21.2926,9.02591,3.81994,21.5505,8.98073,3.84333,21.3662,9.00208
1.03032,0.631076,-18.9483,17.3782,1.10668,-19.588,16.3689,1.34213,-19.522,16.228,1.64895,-19.5449,16.2303,1.55188
3.06878,0.21029,17.9305,17.7449,-2.37131,18.0911,18.4689,-2.90854,17.9292,16.3376,-2.57068,18.3238,17.7499,-1.72579
12.4245,0.0625696,8.88081,0.13538,1.89016,6.93549,0.244653,1.58926,4.79928,0.693166,2.6762,4.92001,0.75545,3.09579
1.05812,0.176439,17.3983,11.7589,6.34657,18.3043,11.9865,6.09286,16.4216,11.5331,6.24064,16.2617,11.6174,6.28815
6.46444,0.0850204,21.2051,24.0388,2.21102,20.9445,25.8537,1.62712,21.468,23.2287,1.26047,21.0211,25.4243,2.08128
1.30568,0.322254,10.223,9.23781,8.52882,11.2443,10.2625,7.7441,11.5562,10.0361,7.65805,11.39,10.1933,7.68479
0.210674,0.00325749,5.73366,27.5139,0.765674,6.28814,27.6189,0.96344,6.01528,27.5457,0.974858,6.28708,27.6001,1.06513
2.58648,0.22538,-17.4624,6.65211,6.52622,-17.3369,6.08575,6.81644,-17.2347,7.1309,6.57558,-17.8205,7.40272,6.85848
1.9157,0.243646,7.24826,4.04458,-4.69014,9.04902,4.35536,-4.52405,7.91903,4.08053,-3.97632,7.91993,4.11303,-4.06327
2.04562,0.700938,-6.82083,25.5499,-0.070397,-6.3972,25.5692,0.903035,-5.82749,25.5667,0.846584,-6.54577,25.631,0.979004
6.71611,0.367028,17.1466,23.1196,6.0429,15.778,20.4543,6.91261,16.2797,21.7363,6.7494,18.357,22.5542,5.92477
12.1392,0.208471,-4.18554,27.6525,8.14657,-5.43956,26.5986,6.30778,-6.10666,26.3395,6.6532,-5.48027,26.8311,8.16857
6.0168,0.381453,-13.2983,7.94278,-4.8506,-14.3254,7.03881,-5.07551,-14.7498,7.1259,-5.28614,-14.1338,9.22617,-4.68323
2.8059,0.25977,0.662946,26.5545,0.651081,-1.32173,27.5826,1.54951,-1.02663,27.5443,1.57935,-0.556651,27.1128,0.783749
0.967868,0.0472039,4.04734,18.8202,8.8403,2.69966,19.0344,8.55759,2.27029,19.0884,8.45603,2.29853,18.8991,8.52197
0.237335,0.107661,15.8373,28.8056,-1.74086,16.2155,29.0644,-1.70739,16.3568,29.15,-1.81597,16.3528,29.1828,-1.93958
0.0962849,0.00357719,-21.8431,3.85318,2.12458,-21.8163,4.4175,2.0466,-21.8058,4.29041,1.9491,-21.8023,4.42329,1.95526
2.68197,0.162876,1.25498,22.3429,8.7524,1.85983,22.3159,8.88772,-0.0773862,21.8774,8.95501,0.301216,21.1886,8.90953
0.961788,0.0316063,-18.7376,13.0268,-4.41549,-19.8528,12.8529,-4.08968,-19.4652,13.4382,-3.96757,-19.332,13.4537,-4.00447
1.68069,0.253419,-6.72963,4.97423,8.01918,-5.39754,3.76486,8.11421,-5.88227,4.34409,8.1989,-5.90119,4.52372,8.23091
6.61901,0.296439,-4.30875,5.08664,-3.64736,-4.64713,5.23588,-5.34888,-4.49961,5.42604,-5.86497,-4.98135,4.76645,-3.38568
1.54136,0.091585,-8.33103,15.561,8.45934,-9.65588,15.6002,8.21909,-10.292,15.8976,8.06513,-10.2817,15.7971,8.06532
1.75853,0.059236,13.4059,28.112,-6.14986,11.5504,27.4286,-6.1087,12.4813,27.6957,-5.86595,11.5555,27.3395,-5.89044
3.08662,0.42191,17.484,30.0124,-0.901798,17.2187,29.0424,1.04137,17.0777,29.01,1.05334,17.5698,29.482,0.533316
2.52152,0.103136,1.3149,19.7772,8.64399,1.99944,21.1387,8.79497,2.12612,21.2444,8.81052,2.46342,21.0094,8.87656
4.3619,0.227512,11.123,17.9616,-8.1452,10.8435,17.9028,-8.50349,11.8932,17.5207,-8.12489,11.4738,18.6289,-8.20074
4.01782,0.0169887,20.6685,11.3909,2.1372,21.1468,12.7892,3.03951,21.0009,12.5148,2.60424,20.9868,12.0782,3.07155
2.91867,0.181729,2.41249,20.0931,8.7002,2.0696,19.6772,8.73267,4.16743,19.9433,8.83302,4.3307,19.7969,8.77518
4.49444,0.175589,19.2524,11.8091,5.28901,20.243,12.3646,4.71742,18.3165,11.9008,6.05644,20.0767,11.0031,5.23581
12.4129,0.0172521,-15.7366,14.3027,-4.16089,-14.819,15.9052,-3.98804,-16.0453,15.8459,-4.0505,-14.8366,16.5088,-3.94674
3.94676,0.367573,-3.69855,19.4707,7.92403,-6.3344,19.4362,8.4979,-5.33866,19.5541,8.59128,-2.87983,19.9202,8.17737
0.486313,0.0739368,-8.98584,18.368,-7.09001,-9.53283,18.4572,-6.84842,-9.26475,18.6653,-6.80327,-9.40415,18.6422,-6.75422
1.04126,0.0378044,20.2888,24.1864,-1.33621,20.1354,24.8962,-1.7637,19.7601,24.7127,-1.95859,19.9558,24.7186,-1.81129
7.60119,0.0240535,-8.04371,4.69829,-4.18321,-8.41564,4.17787,-3.55848,-9.01378,4.99673,-4.486,-10.9961,4.24863,-3.64223
1.79152,0.170863,-3.31556,22.9976,8.27794,-2.96531,22.6614,8.37816,-2.51883,23.5613,8.32715,-3.85614,23.0862,8.55117
4.96613,0.209013,-1.58169,21.8079,-6.57287,-2.78022,19.7836,-7.40704,-1.76329,20.7486,-7.04192,-2.38248,19.8956,-7.32037
14.9963,0.125703,-2.72819,24.6714,-3.52087,-3.83838,25.5295,-1.25657,-2.76456,25.8448,-1.11638,-1.38627,24.0641,-4.89404
2.83346,0.112394,7.29675,26.6813,8.61586,7.73616,26.6251,8.65751,8.46042,25.7638,8.98349,6.06131,26.7327,9.08754
15.483,0.303569,-17.6493,11.3189,6.05267,-15.8857,12.4396,7.43017,-15.6338,11.8117,7.59879,-16.5562,10.2949,6.55479
0.0708706,0.283266,-11.2768,27.2879,4.50532,-11.0146,27.495,4.81443,-11.1502,27.3382,4.79499,-11.0152,27.2318,4.77072
4.95569,0.146234,-0.866906,23.4984,-5.73406,-0.470133,24.6487,-4.07088,-0.609216,24.8197,-3.77556,-0.188005,24.6714,-4.16267
0.298245,0.384108,-11.691,26.2163,1.57302,-11.9352,25.8419,1.97666,-11.8102,26.0833,1.9983,-12.0837,25.9181,1.85925
5.32235,0.0204819,-10.488,25.6425,1.53009,-8.8407,25.9745,0.941268,-10.9344,25.7484,0.720359,-9.24046,25.7301,2.05171
6.44849,0.126882,21.5645,15.4908,2.98467,21.6771,16.2139,2.17852,21.169,12.7907,3.31948,21.4009,13.5267,2.56457
8.49938,0.164279,15.8049,5.2267,7.83152,17.6872,5.78142,7.58384,15.5195,6.13154,7.6605,17.3154,6.37634,7.58659
4.38938,0.266867,1.18558,27.6577,5.90414,1.84471,28.015,6.39675,-0.0922817,27.7232,5.81789,2.52652,28.16,5.61352
2.26061,0.0941705,-8.86231,26.1407,8.58333,-9.56555,27.2625,8.02711,-9.75009,26.9051,8.14361,-9.66803,27.2977,8.00712
2.87034,0.641028,11.6982,10.0517,7.66258,12.5958,7.25186,8.35357,12.4077,7.68033,8.45759,12.5873,9.79683,7.69881
1.32899,0.231643,18.5671,21.7327,-2.87387,18.3142,20.7438,-3.37164,18.7852,20.9026,-2.75777,18.3504,21.0203,-3.39264
5.62538,0.323165,-19.5706,2.78625,1.93292,-18.7312,1.27438,3.34508,-19.024,1.47642,3.40771,-18.8957,1.71827,3.01902
2.52784,0.212329,15.0943,11.3228,6.74034,15.473,11.5646,6.71904,14.6829,11.4986,7.1889,15.2146,10.6559,7.06444
2.84048,0.187454,8.52569,2.99271,-0.765327,10.3434,3.09222,-0.858486,7.8147,2.70028,-0.883049,8.53956,3.15947,-1.08124
2.9803,0.140091,-18.5961,10.8267,5.92846,-18.3073,10.9414,6.08187,-19.4361,12.7142,4.93863,-19.6941,12.1454,4.5294
0.150547,0.0142131,3.01607,27.9365,8.80896,2.64916,28.1568,8.63372,2.93667,28.1744,8.66353,2.69467,28.0161,8.72954
1.47479,0.1287,19.122,12.4386,-0.352129,19.4231,12.8752,-0.061795,19.2004,12.8786,-0.660012,19.0585,11.597,-0.611549
9.50979,0.172119,-4.11185,24.5312,-2.50847,-2.46452,23.5742,-4.82071,-3.08734,22.8774,-4.90352,-3.98505,23.2795,-3.88137
0.893534,0.173066,21.1129,7.15038,4.12717,21.121,7.15629,3.24259,21.098,7.02741,3.4669,21.0792,7.45321,3.16744
21.5915,0.164523,-14.6645,13.5547,7.14706,-17.3266,17.2599,5.05947,-17.5565,16.9739,4.95182,-16.562,17.1678,5.57187
0.410353,0.0476459,-7.55195,14.3449,8.7591,-8.25476,14.1737,8.6709,-8.55251,14.2344,8.59942,-8.71886,14.3096,8.54203
7.56152,0.281054,5.32877,24.145,-6.41154,4.00299,23.3451,-6.86188,6.34123,23.8972,-6.61735,5.48137,25.4043,-6.60545
4.7303,0.376567,-5.30214,2.11239,-0.964003,-3.89755,2.36728,-1.32082,-3.50216,0.956842,0.0150693,-2.93385,1.68969,-0.472336
1.89191,0.283061,13.2811,18.1666,7.06969,13.9177,17.8884,7.11822,13.667,18.7522,7.32299,12.2315,18.15,7.7212
2.71101,0.174201,-14.3693,22.9222,1.69153,-13.3584,23.7935,1.81843,-14.3979,23.1655,1.12454,-14.6585,22.896,2.1616
1.14235,0.349116,16.279,11.5176,6.24644,15.5902,11.5925,6.67715,16.5449,10.8911,6.53363,16.4065,10.864,6.54709
10.8925,0.156359,4.49134,17.0254,-8.27812,4.75663,15.7717,-8.40292,4.27184,17.87,-8.45542,1.35292,17.6638,-8.41917
2.55337,0.630126,19.4874,10.7509,0.890448,19.562,12.6029,0.571357,19.9552,12.4651,1.21363,19.5991,12.4482,0.754433
1.29768,0.0786015,-6.91872,5.22351,-4.73809,-5.4985,5.24615,-5.17757,-5.9173,5.13781,-4.93451,-5.35895,5.17869,-5.09949
2.76166,0.180021,1.97751,26.2541,-1.503,0.919093,25.7836,-2.25893,0.909985,25.8419,-2.08606,1.30307,26.0025,-1.63837
7.41032,0.226955,-7.54555,25.7018,2.34533,-6.162,25.8754,2.555,-5.69979,25.6023,1.13024,-8.26636,25.8681,1.68186
0.964782,1.09938,16.8811,7.82874,-4.01428,17.1404,7.65443,-2.8958,17.2746,7.79379,-2.83837,16.9597,7.41477,-2.99721
3.55782,0.203958,2.40388,21.3639,-7.17871,2.75131,21.8701,-7.14315,1.63033,21.7594,-7.15983,2.36482,20.5501,-7.86678
0.899914,0.238274,2.20998,7.67633,-7.31795,1.38734,7.50431,-7.28669,1.37881,7.59289,-7.26766,1.5365,7.34587,-7.37298
3.29087,0.201328,-10.2163,14.4221,8.10233,-10.9955,14.0297,8.21478,-8.76103,14.4929,8.47154,-8.53334,14.9762,8.49895
1.098,0.165209,15.498,3.5468,5.12466,15.0909,3.1749,4.8784,15.9376,3.68846,4.81457,15.9211,3.52365,5.4174
0.418878,0.0303077,5.36617,27.1318,-0.747275,5.908,27.3616,-0.604265,5.76494,27.3287,-0.504476,5.77993,27.2633,-0.77295
0.976638,0.0757415,-1.06914,20.7619,-7.24222,-1.24732,19.7705,-7.50915,-1.11784,19.7797,-7.53442,-1.38797,19.8432,-7.4492
2.12071,0.0976968,21.2777,21.9275,2.68295,21.7255,21.9734,1.94073,21.2217,22.7532,3.56245,21.5753,21.6812,2.10543
3.15387,1.38816,5.73028,26.6104,-3.24881,3.77329,25.6028,-3.97973,3.87957,25.7335,-3.63369,3.76846,25.848,-3.55554
2.03844,0.416269,-4.31785,20.9175,-6.60776,-5.7334,20.8969,-5.79767,-5.74479,20.9824,-5.63221,-5.99488,20.7259,-6.14089
8.60604,0.194581,-1.37723,10.4913,8.15615,0.557807,10.1742,8.42775,-2.51618,9.67114,8.4021,0.362721,8.65391,8.56692
3.12049,0.236511,-15.1261,17.8911,-3.501,-15.6769,17.7555,-3.53004,-14.7616,17.4553,-3.95846,-14.9783,19.4359,-3.68976
2.32391,0.213936,17.8916,15.233,-3.41719,17.8907,16.201,-2.64558,17.8864,15.9218,-2.63889,17.9259,16.4944,-2.75398
2.47547,0.351256,14.2196,9.89871,6.98889,14.8587,10.4142,7.31114,14.0738,9.75069,7.34713,15.1237,9.51975,7.26783
0.508427,0.201405,1.95361,24.4963,-6.11246,2.62133,24.7284,-6.1606,2.76811,24.6569,-6.60465,2.48525,24.6053,-6.20081
2.60143,0.09814,2.57703,27.9112,2.6071,1.81138,27.7165,2.36224,1.02032,27.8831,3.01829,1.01006,27.9238,3.09904
0.101259,0.0230383,-21.4111,3.19422,1.74313,-21.5257,3.32096,1.73233,-21.2458,3.20033,1.6661,-21.1712,3.47442,1.59515
9.43367,0.315692,5.84608,24.6456,8.40048,5.23976,25.1876,8.66919,8.92625,25.5401,9.05744,6.65032,23.328,8.76753
2.28028,1.14608,-6.22668,7.64567,-6.09079,-3.84064,7.69367,-6.03582,-3.4094,7.85922,-6.20611,-4.10322,7.56477,-5.96525
0.105195,0.0606473,-8.02652,2.89571,7.71768,-7.74566,3.10867,7.82058,-7.64737,3.30948,7.83908,-7.78753,3.28936,7.82091
2.03526,0.33229,15.8915,29.3849,0.383932,15.0139,28.8551,0.0485496,14.7308,28.3352,-0.215945,15.5064,29.0943,-0.109949
0.187611,0.0263912,-20.3952,8.74984,5.53281,-20.4217,9.31051,5.35625,-20.3232,9.30986,5.48385,-20.2176,9.31506,5.61885
1.89877,0.49031,-10.7123,19.1644,-5.72737,-12.088,18.7338,-5.89067,-11.6928,18.8769,-5.6264,-11.7334,19.2689,-5.27013
5.7283,0.210326,10.4318,26.3189,-2.81997,11.6792,27.4623,-2.55269,9.75924,26.0774,-3.06391,10.427,26.3259,-4.07429
5.44826,0.135881,-7.69725,20.6796,8.11701,-7.03662,21.6344,8.73312,-5.63497,20.9533,8.98442,-7.30404,19.9839,8.19604
4.7384,0.255863,-3.21434,9.49478,8.27872,-3.90974,8.55994,8.45558,-2.34157,8.58042,8.48165,-3.74218,8.39712,8.44622
2.93472,0.384293,-2.03262,23.7424,8.02864,-2.7398,24.0052,8.29021,-1.10908,24.5751,8.38785,-0.795036,22.8035,8.73477
1.39694,0.235581,7.81186,27.4234,9.08413,6.96288,28.5509,8.78247,7.1744,28.4243,8.84862,7.11598,28.1941,8.95773
2.02657,0.0566103,-6.56142,5.82902,8.14246,-6.32647,5.39371,8.24252,-7.12844,5.68363,7.91225,-6.51399,6.83621,8.40104
3.75857,0.0381892,15.725,17.0147,7.04756,15.2039,16.7447,7.22807,14.0382,17.8788,7.1015,14.5803,18.0722,6.97728
3.58831,0.145156,-2.43908,26.5256,0.115772,-2.76864,25.8799,-1.03381,-3.21555,26.1036,-0.36054,-2.49068,25.9808,-1.0533
1.2922,0.344475,-9.43916,24.3303,-1.70973,-10.8519,24.3388,-1.44866,-10.7302,24.5217,-1.36106,-10.5988,24.6193,-1.30875
1.87189,0.37249,-14.834,16.5997,-3.92938,-14.9316,17.3369,-3.90468,-14.7046,17.3164,-4.03268,-15.4793,17.1567,-3.73633
1.83302,0.0072365,5.73609,27.501,2.42627,5.31511,27.4567,2.41488,4.89159,27.4914,2.10068,6.2742,27.6901,1.8108
2.83021,0.530499,18.2871,15.4076,5.01011,18.899,14.2089,5.00361,18.0201,15.5879,5.78774,19.0392,14.1438,4.92004
1.77846,0.0175102,15.2884,15.9598,-7.17013,15.4899,16.636,-7.22886,15.9855,17.2424,-7.21717,16.4061,17.367,-7.13291
89.0364,0.521124,14.9918,28.7941,2.27722,19.5868,29.4591,3.29387,14.8609,28.7381,5.38457,18.491,29.3929,4.38844
1.21158,0.0970807,-18.0025,4.28204,0.263512,-18.4256,5.11372,0.140183,-17.8767,4.00675,0.119605,-18.5127,4.97736,0.302351
1.67137,0.101468,-1.18449,15.3087,8.40022,-2.43605,15.1386,8.51099,-2.45606,15.2263,8.43666,-0.884061,15.1567,8.37379
1.76367,0.49775,15.3163,28.53,-5.61515,13.0781,27.4559,-4.79614,14.1691,27.716,-4.83277,13.4978,27.5258,-4.79854
2.27222,0.207197,4.38039,13.9815,-8.49161,4.4961,15.6419,-8.34512,5.27934,14.7706,-8.77001,4.25611,15.3309,-8.3538
1.75602,0.0585121,-3.27062,7.99323,-6.25083,-2.26599,8.65547,-6.67445,-2.4109,8.70543,-6.66694,-2.31854,7.91375,-6.43844
4.52386,0.259959,18.3138,7.99724,0.304885,18.6643,8.4996,-0.279826,19.5635,8.18032,0.692956,17.9643,7.41851,0.155562
1.98236,0.0793647,12.98,28.092,-6.93253,12.3851,28.2977,-7.22393,14.1598,28.0548,-7.11703,13.4143,28.0814,-6.71536
9.42034,0.25439,3.35239,26.5193,-1.0298,3.56385,26.0322,-3.16833,3.70186,26.0746,-3.27666,1.99545,25.1926,-4.51244
4.6938,0.0381367,0.509482,13.6533,8.67168,3.15604,13.077,8.71342,2.97346,13.4162,8.75804,1.65438,13.7056,8.75679
24.2796,1.35736,-10.3029,23.3221,-2.29396,-13.5492,24.3777,-0.40399,-13.0699,22.6987,-3.00612,-13.053,25.1022,0.0483709
2.56993,0.690488,-10.6672,24.9224,-0.924834,-11.0524,25.7163,0.620163,-11.1871,25.7124,0.620804,-9.07399,25.7112,-0.239893
0.168109,0.0232865,4.71834,4.02903,-4.27912,4.13791,3.94779,-3.93819,4.28011,3.94032,-3.94006,4.00853,3.99026,-4.02328
6.44539,0.847959,8.04416,26.3512,-6.3085,6.46518,23.545,-6.92352,6.48177,23.403,-7.25487,6.63113,23.7025,-6.8872
3.77396,0.543585,5.32565,20.0922,8.06153,4.30095,18.9536,8.79958,6.8161,19.8013,8.24343,5.17952,20.466,8.68012
5.19689,0.171869,-11.8399,3.91191,-3.10345,-14.0625,2.27415,-2.62133,-14.7563,2.66787,-2.96723,-14.3491,3.33095,-3.19466
1.14072,1.01802,-14.2844,11.0959,8.19897,-15.4056,11.2741,7.66379,-15.3922,11.184,7.65471,-15.3626,11.0031,7.66302
1.25891,0.288562,11.2249,28.6729,-0.450252,9.81299,28.5497,-0.513566,10.0924,28.5294,-0.693542,9.67124,28.6026,-0.349732
1.35606,0.0931012,21.7578,19.7319,1.85112,21.6795,20.0213,0.71406,21.7396,20.1682,0.698604,21.7619,20.0251,1.65069
4.88174,0.235054,1.98879,3.28906,-1.88783,0.572239,2.66158,-1.18933,0.320526,3.23937,-1.95433,0.0187715,3.1045,-1.71756
2.6364,0.278996,-7.59708,18.6771,-6.95994,-7.69711,19.7063,-6.53279,-7.80868,19.539,-6.64561,-6.53447,19.4107,-6.874
0.094586,0.00383571,20.913,14.1736,4.08892,21.2846,14.2028,3.75316,20.9311,13.9907,4.08628,21.2935,14.341,3.7313
4.67488,0.365764,14.2107,20.7721,-7.63599,13.832,18.9621,-7.61586,14.2183,19.3621,-7.55729,14.8906,19.4675,-7.57906
23.9532,0.897552,6.57453,28.4779,4.84123,7.97804,28.5989,2.35584,6.43928,27.5919,1.18698,7.45628,28.336,1.06562
8.62611,0.246975,0.838557,11.7239,8.0165,2.9167,10.9239,7.7066,1.48099,9.65159,8.42989,0.433316,12.0092,8.37049
4.30172,0.0140227,-13.5274,23.0162,5.76679,-12.4923,24.1002,5.00825,-12.3476,24.555,3.94001,-11.9545,24.7647,4.2655
1.26482,0.0945155,-16.6534,1.61175,7.0321,-17.5582,0.702395,5.91882,-16.63,1.18189,6.71152,-17.4111,0.645864,5.89955
6.47553,0.0127236,7.8182,13.0686,8.48581,6.35944,14.1788,8.39689,7.05974,14.3534,8.35098,7.10748,12.139,8.60726
4.87553,0.213802,-5.71751,25.5509,3.26253,-4.47612,25.9281,2.42928,-6.14852,25.6896,3.68341,-7.03001,25.9279,3.75516
1.20952,0.179755,-21.3424,4.86604,0.975546,-21.6624,4.98858,1.63469,-21.8805,4.69868,2.32651,-21.7502,4.84216,1.88937
1.65561,0.0265245,19.2454,23.5056,4.94453,20.42,23.0381,4.66137,20.3448,22.6571,4.71068,20.4779,22.6735,4.67612
2.26378,0.183967,-9.37679,21.3038,8.00773,-9.38091,21.552,8.27256,-9.54667,20.4525,7.93588,-8.28487,20.7838,8.14065
2.34785,0.0908144,-15.9684,12.2508,-4.28757,-16.534,10.8801,-4.80569,-16.6657,10.7876,-4.87736,-16.3686,10.6235,-4.83439
3.18158,0.30772,3.87867,28.5339,8.41994,4.13467,27.0637,8.85626,5.10878,26.5126,9.12594,4.65907,26.5626,9.00878
3.94085,0.0845513,-5.44137,4.30484,-2.80663,-6.07072,4.86184,-4.46289,-5.52994,4.90454,-3.73665,-5.68072,4.8324,-3.8757
3.24677,1.75292,18.2495,14.2247,5.81581,15.9148,14.4689,6.83905,15.9036,14.6492,6.95209,15.814,14.2634,6.97307
9.34249,0.121835,20.6115,20.3984,-0.180345,20.0121,21.2257,-1.14282,21.6526,21.576,0.42929,20.117,19.257,-0.598144
2.88525,0.175891,-2.8356,7.37568,7.74324,-2.43756,7.57778,7.82851,-3.56573,8.06607,8.35773,-2.7264,6.56202,7.7193
4.00955,0.00858773,-0.176759,27.3963,1.96853,1.06681,26.6395,1.60996,1.19065,26.7111,1.69723,0.285284,27.4136,2.09447
1.00866,0.0893669,7.46702,26.3677,-4.53005,7.02035,26.4653,-4.58312,8.01355,26.4544,-4.43454,8.15399,26.4953,-4.14353
1.41229,0.260975,-10.5168,20.5711,8.22497,-12.0551,20.6214,7.56267,-11.5501,20.3932,7.8611,-11.7312,20.5576,7.76219
2.98182,0.205879,14.1875,21.0442,-7.63207,15.492,22.0424,-7.2422,15.1858,22.2089,-7.29687,15.4806,22.1312,-7.22601
2.09436,0.192986,-5.28665,25.0102,-0.907911,-5.40748,25.556,0.192507,-5.27584,25.6035,0.182892,-5.55229,25.5616,0.277579
5.95995,0.369166,-0.986229,27.0578,4.64104,0.48416,27.6912,5.08631,-0.211077,27.5654,5.38285,0.758905,27.7443,4.49824
5.3624,0.15637,9.96637,3.81654,-1.96859,9.08537,3.24158,-1.03619,8.12497,3.12267,-1.30361,10.9486,3.85823,-2.02449
10.7264,1.17094,-16.8155,3.51549,-2.0322,-18.5663,3.28596,0.922064,-17.9853,3.30442,0.454739,-18.3505,3.99123,0.619517
2.80102,0.046998,-14.1408,9.31849,-4.65888,-14.8189,10.4213,-4.39563,-14.8424,10.6948,-4.37075,-14.6995,10.7168,-4.39726
4.63302,0.00737672,18.591,18.7176,5.6987,16.9325,18.0515,6.50896,15.6633,18.3132,6.89494,15.7807,18.4298,6.81766
2.38234,0.064854,20.6327,25.9263,4.34926,21.0484,24.9926,3.42766,20.8017,25.0974,3.99442,21.0664,24.5564,3.50153
9.47151,0.415391,9.49094,2.30944,-0.304839,3.91822,2.2269,-0.775116,7.10846,1.85742,-0.0463972,5.72911,1.95419,-0.332157
4.49148,0.135363,-2.20341,17.589,8.46798,-0.639561,16.7351,8.72073,-1.24759,18.7167,8.42845,-1.60622,16.6056,8.74762
0.746248,0.0710847,-2.14231,22.194,8.66366,-2.80718,22.5911,8.41948,-1.63071,21.6889,8.77095,-1.77525,21.6709,8.75989
1.85326,0.122238,-2.39962,17.8337,8.4278,-2.78801,18.4368,8.28961,-3.78743,19.1768,7.96078,-3.65487,19.1882,7.95408
1.49352,0.051445,4.28969,21.0141,-8.23229,5.31386,21.7871,-8.13175,4.81219,21.2501,-8.26362,5.03466,21.7113,-8.04095
6.67764,0.0568728,17.1946,26.453,-5.42321,17.7373,29.1486,-4.38521,17.9457,29.13,-4.10722,18.2656,27.3353,-3.94459
3.57892,0.275197,18.9753,24.6876,-2.82965,18.6237,26.5092,-3.78136,19.3408,25.2608,-2.08514,19.2539,25.9468,-1.85948
3.06328,0.164436,2.40614,25.2752,8.7809,1.88329,24.9193,8.83632,2.30615,26.1473,9.08724,3.44709,25.1049,9.02204
1.21742,0.133254,9.83662,3.99515,-2.68533,10.0071,4.36279,-3.4313,10.5355,4.06722,-2.64552,9.86359,4.31736,-3.4447
1.15847,0.147398,15.4836,6.38206,-4.28892,16.1895,7.19769,-4.45836,16.3184,6.96772,-3.75868,16.1866,6.92277,-3.8772
10.9488,0.220883,12.9257,3.45672,1.49417,13.5515,4.69664,-0.371693,13.8239,4.7696,-0.247613,12.9089,2.4675,2.58617
0.0250424,0.0358018,21.4308,15.1142,3.5167,21.3586,15.5822,3.50235,21.4634,15.6071,3.37329,21.3608,15.4844,3.53195
1.99596,0.406465,5.96901,18.6743,8.15942,4.66975,17.5963,8.96384,4.9954,18.0378,8.66903,5.91176,19.2909,8.44158
3.65395,0.389288,6.71047,8.94716,8.54113,6.65979,7.28114,8.47918,6.99494,8.04811,8.6702,6.49943,7.43895,8.53634
3.62445,0.396354,16.0277,6.103,-2.5115,17.0456,6.82476,-1.18562,16.665,6.15452,-0.919028,17.1502,6.97652,-1.22143
0.640527,0.846168,3.87495,21.8846,-7.10644,3.0274,21.8872,-7.21921,3.0035,22.0817,-7.14897,3.01358,21.993,-7.16049
9.17276,2.57965,7.14112,3.9372,8.42349,6.35888,6.93813,7.80059,6.02775,7.07442,7.82241,5.79247,7.34048,8.51289
9.52969,0.0628208,-16.8596,8.48407,-5.17788,-17.2963,11.4787,-4.9072,-15.8779,8.48123,-5.13641,-16.7498,7.31612,-5.37849
8.36359,0.26617,-15.3958,20.1681,5.69411,-14.8707,21.743,4.84686,-14.7415,20.6178,6.85294,-14.4689,22.0252,6.35031
1.97216,0.112137,20.723,7.46222,1.54525,21.0604,7.44921,3.0779,21.0275,7.16458,2.89435,21.0572,7.31103,3.07624
11.2268,0.433366,9.16857,4.35802,-4.04624,7.44289,3.34868,-2.30779,6.79127,3.64937,-3.58059,8.03922,3.86045,-2.87926
0,0.0013546,-19.0538,12.3953,5.38083,-19.0784,12.4937,5.35863,-19.0218,12.3009,5.41104,-19.2216,12.389,5.26865
15.2488,0.320757,12.4142,11.4817,7.13842,14.6743,11.6099,7.20303,11.743,11.5487,7.52419,13.9561,7.54011,8.19991
3.12114,0.11285,9.85091,26.373,-8.19069,8.55414,25.3139,-8.16838,9.39149,26.6766,-7.89319,8.6957,25.3374,-8.2388
4.2806,0.163589,-18.6502,6.51164,-1.08846,-18.8157,7.64688,-2.68631,-18.5537,5.96398,-0.889984,-19.1612,7.51074,-1.97606
2.09739,0.1217,-9.59797,6.14931,-4.83916,-8.6372,6.41882,-5.23508,-10.1004,5.44385,-4.80632,-10.0417,6.30001,-4.84952
7.10886,0.0805377,7.96571,0.791401,4.47579,9.40675,0.328716,3.65401,8.43451,0.405661,3.06628,8.77958,0.870969,5.19692
0.934526,0.0906513,-17.2972,20.1243,-4.16884,-18.0285,21.1662,-3.99528,-17.6584,21.0079,-4.09243,-17.3548,20.6718,-4.1396
2.05968,0.186564,-19.5317,18.9143,-3.55645,-19.5804,19.347,-3.26801,-19.7564,18.7728,-3.93634,-20.1409,18.197,-2.62957
11.2853,0.0378394,-0.140252,2.38255,-0.931905,-3.73881,3.81851,-2.44366,-0.412265,2.79136,-1.36092,-3.75551,3.19632,-1.88949
5.14323,0.469649,-3.16057,26.6083,1.59375,-3.60454,26.6774,3.37576,-4.3548,26.0125,2.50529,-3.46667,26.8151,3.35662
5.25403,0.133634,-11.656,25.1423,4.56631,-12.3505,24.6067,5.18479,-10.9907,26.9846,5.26226,-11.8953,25.8166,5.48062
3.12561,0.367912,13.9612,5.5118,-4.65024,12.5714,5.59223,-4.84088,12.2729,5.46003,-4.72414,12.6732,5.25502,-3.90222
0.87617,0.339241,-5.37053,14.6933,-8.0214,-4.90325,14.2882,-8.10183,-4.64451,14.4942,-8.05114,-4.77543,14.4701,-8.0111
0.689999,0.139315,-20.4266,9.89008,4.67359,-20.8847,8.87912,4.17808,-20.9041,8.8784,4.06971,-20.723,9.31104,4.54662
2.34313,0.0537693,2.69558,28.0723,3.04431,4.1591,27.6912,2.47376,3.69916,27.9401,2.94619,3.87249,27.6922,2.46313
1.23145,0.195207,15.461,15.8836,6.93081,16.0361,15.6831,6.83867,15.2592,16.3837,7.21175,15.3816,16.4089,7.13307
1.78763,0.143552,-17.9924,18.2776,0.626181,-18.1439,18.8174,0.0998108,-19.1063,17.653,0.186992,-17.7051,18.4175,1.12372
1.41429,0.256434,18.4343,13.9983,-2.92001,18.6236,13.7159,-2.3032,18.7221,13.2995,-2.23964,18.5699,13.9915,-2.38865
0.992598,0.220815,-1.99021,9.35445,-6.89492,-2.40874,9.02282,-6.74548,-2.97867,9.18965,-7.37212,-2.38618,9.3453,-6.92374
4.04356,0.350161,7.96198,10.1794,-8.11421,10.1782,12.2398,-8.02442,10.0546,12.2306,-8.07177,9.94854,12.5062,-8.16872
0.0230076,0.00109788,5.98517,28.6322,9.07789,6.24926,28.6543,9.00965,6.08413,28.777,8.92938,5.66499,28.8241,8.96179
1.02972,0.150942,9.32253,26.1527,-6.78612,9.98557,26.4805,-6.35892,8.60472,26.3208,-6.67937,9.7359,26.2624,-6.98036
3.64903,1.14804,1.16698,25.0491,-3.63994,1.89057,25.8935,-2.4365,0.582794,25.5744,-2.59702,1.07324,25.6701,-2.50301
1.38282,0.204759,2.27681,5.89705,8.17982,3.09407,5.50652,8.56621,1.62652,5.6903,8.39869,2.56616,6.09774,8.36022
6.04139,0.285854,-18.5443,15.5615,2.88005,-17.2959,17.6954,4.78341,-17.537,17.414,4.10125,-17.5769,17.9822,3.52617
4.14943,0.305606,4.60644,21.7252,-7.09785,5.70415,23.1574,-6.92544,4.7449,21.7793,-7.68596,4.03227,21.7866,-7.07127
4.56235,0.0535199,18.9078,13.7161,-1.33454,18.4192,14.9586,-2.33565,18.7138,12.5938,-1.94314,18.1673,15.0957,-2.83277
5.38581,0.291202,-12.8115,4.40355,-3.82962,-15.2187,4.84879,-3.63302,-15.7672,4.65274,-3.23145,-15.7961,4.6156,-3.16669
0.310009,0.0327039,-20.0521,12.7717,-3.90518,-19.9605,12.3493,-3.96912,-20.067,12.2088,-3.82441,-20.0038,12.2072,-3.89319
13.498,0.538386,-1.64244,26.7666,3.85837,0.362889,27.562,4.1545,-2.95947,27.1203,4.71829,-0.0497977,27.5502,2.30055
6.50561,1.91085,17.0714,8.86899,-4.58405,17.5744,11.8797,-5.23853,17.4719,11.5626,-4.23812,17.5009,11.4355,-4.05109
9.37173,0.000583969,-10.3428,22.2292,-3.66462,-11.6612,22.6738,-3.20983,-12.4061,20.5107,-4.69973,-10.5176,21.1317,-4.44194
6.73154,0.088553,20.9751,26.9745,1.89889,21.112,25.8435,2.62506,20.4816,27.0406,4.39355,20.6319,26.9152,3.84204
1.25422,0.308916,-20.1191,11.5162,-2.90249,-20.1165,11.2317,-3.37685,-20.2924,12.4727,-3.01927,-20.2297,12.337,-3.09961
0,0.0326775,-18.2474,21.6463,-2.60711,-18.2497,21.6355,-2.41759,-18.2389,21.6531,-2.5048,-18.1785,21.6586,-2.73737
2.14323,0.0228279,-0.656811,11.1811,-8.25058,-0.988447,10.4115,-7.96584,-0.694307,10.0075,-7.81816,-0.438731,10.3206,-7.92135
1.71173,1.04728,-9.69054,5.7959,7.99286,-10.2925,7.01557,8.02748,-10.5761,7.12953,8.23684,-9.99799,7.04605,8.05419
2.36739,0.126228,0.0412061,15.287,-8.32904,-0.735136,14.659,-8.36505,-0.632779,14.9438,-8.31874,0.420231,14.3832,-8.26901
1.04489,0.00244455,9.23972,27.1732,8.82221,9.48098,28.0057,8.22608,9.52676,27.8044,8.46075,8.88071,26.7447,8.91653
7.50764,0.672783,-11.5936,10.502,7.44484,-10.9848,8.92794,8.27216,-10.8275,10.3935,7.76335,-12.2247,12.5733,8.2126
2.05192,0.821996,-17.7719,17.9746,3.05138,-17.0252,18.8348,3.15211,-16.3448,19.8422,4.71669,-16.6476,19.5575,4.20332
2.21926,0.162772,18.6977,24.8343,-3.50588,17.8179,24.374,-4.36996,17.5238,24.3638,-4.75958,17.9817,24.2348,-4.14286
0.753201,0.169004,7.05321,15.4533,8.64873,7.7535,15.1256,8.13775,7.60565,15.1827,8.20538,7.86386,15.3228,8.11579
3.87668,0.0357861,19.3389,28.032,5.20785,19.2053,26.7892,6.20911,20.2013,27.6337,4.76047,18.8857,27.7157,5.87514
0.149468,0.275915,-2.42648,14.7055,-8.47232,-2.69658,14.4984,-8.5691,-2.68578,14.416,-8.61948,-2.70048,14.5867,-8.54078
6.43994,0.485467,-13.0392,6.74912,-4.83341,-11.1446,6.07138,-4.70343,-11.2093,5.33699,-4.81934,-10.3052,6.16925,-4.79835
1.63886,0.132888,20.2151,10.3679,1.5234,20.2989,8.98224,0.910732,20.2029,8.99054,0.846456,20.7587,9.4326,1.52133
0.89717,0.0259136,-4.52023,3.34883,7.86761,-4.63855,3.05421,7.74525,-3.97786,3.86248,8.13812,-5.22748,3.52087,8.04111
3.54134,0.205548,-15.0491,21.3763,3.62074,-14.5901,22.1794,3.48257,-15.0625,21.4847,4.26104,-16.2296,20.7555,2.60314
2.0204,0.0643242,-3.79148,21.3541,-6.21644,-3.42786,20.556,-7.11114,-3.70792,20.4863,-7.11022,-3.06574,21.1296,-6.67413
6.3531,0.00919165,19.823,10.6334,1.25923,18.5135,9.46603,-1.29377,19.2806,9.35376,-0.101243,18.7315,9.89454,-0.785678
0.456092,0.176412,-6.93119,25.4172,8.28623,-7.58355,25.1908,8.59526,-7.54583,25.0118,8.60894,-7.64476,24.7949,8.73182
3.4911,0.170122,-16.1314,20.9958,2.07295,-16.8366,20.1241,1.20257,-17.7378,19.2473,0.44417,-16.678,19.9756,2.23067
2.20588,0.0288872,12.2842,28.8262,0.667742,12.271,29.0809,1.37022,12.7943,29.3586,1.68245,12.659,29.3459,1.78457
1.49904,0.976459,21.4735,22.9573,0.975212,21.2398,24.4793,0.956048,21.2517,23.9108,1.4299,21.2179,24.3401,1.06074
6.43596,1.7364,12.7798,3.12758,1.85867,12.0334,0.936462,3.93903,12.5854,0.981022,4.36491,11.8877,0.726983,3.86563
6.31161,0.0182586,4.12316,27.9418,3.06754,5.49273,28.1608,4.21745,4.62652,28.3116,4.70127,4.32702,28.4235,5.1294
5.95167,0.0336108,-10.4372,15.8803,8.03737,-12.8228,16.3256,7.84176,-9.83176,17.033,8.43369,-12.7871,16.0605,7.76431
18.2265,0.0561273,-17.9778,14.0945,-4.77235,-16.4275,12.5028,-4.39217,-15.5347,13.5799,-4.15644,-15.4262,12.4617,-4.11732
24.8838,0.42194,-5.72729,13.9816,8.22975,-0.736013,14.239,8.58739,-0.520691,13.8026,8.59369,-6.44195,12.5538,8.68924
3.38237,0.0628418,-21.3179,4.82171,4.2152,-20.9497,4.41313,4.63765,-20.398,2.62227,4.29634,-20.21,2.46897,4.48611
0.812702,0.162286,-8.56457,5.65505,-5.1332,-8.35085,6.33767,-5.23776,-8.47785,6.23052,-5.17103,-8.05832,6.40084,-5.33008
4.15853,0.06112,-8.26818,25.7598,2.77458,-8.57891,25.926,3.95506,-9.66586,25.7669,2.1225,-9.10284,25.7516,1.96439
9.18228,0.587506,13.3401,5.03613,-2.41152,10.8211,4.1605,-2.59942,11.4196,5.28745,-4.0215,11.273,5.2192,-3.95181
0.451315,0.203816,-0.1825,26.5564,-0.25613,-0.906214,26.79,-0.19215,-0.910402,26.6539,-0.427544,-0.728176,26.6024,-0.315625
0.744425,0.23462,5.47184,6.7525,8.54867,4.12738,6.37437,8.71951,4.13744,6.2813,8.70896,4.51738,6.59766,8.75154
11.8643,0.432385,-6.22954,11.1828,7.75022,-8.2512,12.0392,8.52152,-8.3276,11.2366,8.17256,-4.34548,11.5558,8.44702
2.25749,0.441531,12.5639,6.51828,7.16045,13.3177,6.66456,7.74757,12.0909,6.30654,7.8877,13.1911,6.30049,7.32287
1.92994,0.0181708,15.1685,3.60243,2.29726,15.7192,3.81101,2.19373,15.2833,3.08975,3.19196,15.1385,3.10555,3.08929
5.40178,0.00335635,2.55064,3.62125,-2.24094,4.48423,2.37508,-1.19106,4.09136,3.29589,-2.22365,4.08903,2.92659,-1.77048
6.99961,0.105321,15.5873,28.0149,-6.19072,15.2192,27.6225,-6.71088,15.7427,26.4344,-6.66773,16.6791,25.8694,-5.73397
4.59758,0.0943079,11.0832,26.6441,-4.7221,11.8573,27.0964,-4.81999,10.5496,26.3967,-4.29439,12.4312,27.1119,-4.13783
2.72135,0.384371,19.7806,29.1905,-1.17352,19.6282,27.9148,-0.639295,19.7173,27.6537,-0.957639,19.6465,27.7784,-0.748095
3.39158,0.146994,16.71,9.20018,7.06416,18.8998,8.49313,6.78239,18.0737,8.55371,7.02701,17.3814,7.86339,7.50719
2.83204,0.00868894,17.226,7.11073,-1.24822,18.5172,9.03389,-1.10108,18.6351,8.92646,-0.874009,18.3236,8.88861,-1.22956
10.9431,0.7067,12.791,27.4223,-1.91495,14.8688,27.7701,-1.92396,14.9914,27.8662,-1.84883,11.9662,27.3492,-2.98798
3.24411,0.373143,-6.49682,4.29025,-3.98688,-7.35062,4.81097,-4.24443,-7.33337,5.22611,-4.6446,-7.89351,5.10215,-4.71031
2.12754,1.23433,9.62843,28.8323,4.8838,10.4847,28.7783,3.50047,10.6204,28.7771,3.51814,10.1629,28.9938,3.30568
3.257,0.249403,3.5586,10.3895,-7.91528,3.86511,12.0353,-8.3073,4.25592,12.4783,-8.48216,4.04639,11.6957,-8.39689
2.77073,0.312997,7.24534,7.00341,8.36345,9.58595,7.91913,8.82968,9.57039,8.01199,8.81172,7.89904,7.70993,8.64703
5.43905,0.917498,-4.52277,9.00658,-6.79609,-5.21379,9.60901,-7.47994,-6.73846,8.59497,-6.43988,-6.49576,8.86553,-6.61195
4.57044,0.164374,0.850478,26.2233,-0.000402571,0.165147,26.0867,-1.62632,1.24986,26.4014,-0.135589,0.808744,26.4627,0.496393
3.13049,0.342323,10.7986,18.3343,7.75661,10.4001,18.4221,8.21562,9.93138,17.1241,8.57574,12.2182,18.2424,7.72954
3.80397,0.568812,5.50784,22.9568,8.25297,3.91793,21.7519,8.93124,6.84313,22.8013,8.52231,4.47185,21.837,8.82882
3.60694,0.267414,3.90624,25.6246,-4.07786,3.78124,25.4581,-5.56273,3.39625,25.2656,-5.71544,2.45564,24.9671,-5.47367
5.20527,0.201958,10.1466,26.3385,-6.88337,10.7809,26.6817,-6.37669,11.2759,27.2351,-6.04639,11.4634,27.8734,-7.32063
1.23039,0.173228,2.54592,6.26911,8.49739,3.40874,6.4649,8.77144,3.98028,6.43935,8.7738,3.9991,6.2628,8.70945
1.57134,0.00962341,20.4166,29.6767,0.365897,19.8075,29.8943,0.750379,19.9634,29.9273,0.252419,19.7077,29.9857,0.545755
37.7697,0.619983,-10.3584,1.0699,-0.0287941,-5.45578,1.12114,-0.168629,-5.62371,0.846754,0.601994,-6.53938,1.78833,-1.51203
11.0155,0.0749054,4.57041,26.8056,-1.35375,3.9044,26.5274,-1.77617,5.18664,27.4262,1.26783,4.2249,27.2758,1.26261
23.6966,0.153211,19.6893,29.0636,-1.53168,17.84,27.7422,-4.57973,18.3297,27.196,-3.87353,18.6083,29.589,-3.38553
1.63761,0.287746,20.3127,16.2919,0.592583,20.7894,15.6167,1.01522,20.9054,15.6219,1.07278,20.669,15.1843,0.870187
3.30837,0.139936,21.4207,21.3743,2.63751,21.808,20.1523,2.11645,21.4703,20.2549,2.92333,21.8944,20.7262,1.88804
1.19437,0.456186,15.6255,22.1409,-7.19594,17.1457,22.272,-6.54919,17.2291,22.1286,-6.4955,16.7783,21.9276,-6.87633
4.12682,0.140095,-12.8305,15.2337,7.62931,-11.9837,15.5921,7.96042,-13.19,15.8157,7.77342,-12.5561,14.5177,7.74162
0.764729,0.206075,1.6244,20.4014,-7.92408,0.956049,20.1419,-7.88685,1.10503,20.0618,-7.88288,1.01875,19.5231,-8.03709
1.29491,0.478644,10.4019,20.0434,7.64735,9.57522,19.4064,8.29773,9.59827,19.3224,8.34939,9.42279,19.4739,8.40203
8.27924,0.473528,4.84198,28.7285,6.40935,6.00398,28.5125,4.99337,4.67053,28.8811,8.37637,6.01642,28.4284,4.82457
8.30113,0.534774,19.8437,29.1119,4.0194,20.9252,28.074,2.70571,20.8,28.7963,1.28032,21.0515,27.9514,1.87664
5.21583,0.582266,-3.66581,15.9787,7.62813,-2.6112,15.3031,8.35568,-2.41937,16.3088,8.79686,-4.80028,16.1543,7.98467
7.33554,0.441814,-11.6923,25.3033,3.2378,-12.7397,24.3354,4.0076,-13.2114,23.9289,1.86819,-11.414,26.5591,3.41309
0.273028,0.00362979,-0.616458,4.21616,8.16497,-0.701111,3.84587,8.09131,-0.544373,3.59137,8.02338,-0.401099,3.6103,8.01411
1.27266,0.181327,8.99416,3.95441,-2.72523,8.83161,3.73694,-1.83087,8.57065,3.73462,-1.94221,8.97845,3.94428,-2.24477
3.08699,0.327369,-17.1783,6.00884,6.82352,-16.6354,4.75402,7.24364,-16.928,4.70749,7.28453,-16.7061,5.03958,7.05679
14.8086,0.580241,19.494,12.5936,0.402092,19.6777,17.8028,-0.158934,19.1314,15.1227,-0.834929,19.7273,18.3795,-0.463117
6.68901,0.35734,5.88263,26.511,-3.30832,8.17318,26.3103,-3.30611,8.30112,26.3498,-3.0283,7.00165,26.6796,-3.02864
0.0419453,0.000686006,-21.5685,7.20847,4.35667,-21.7169,6.76302,4.30587,-21.745,6.89954,4.18577,-21.6799,7.05019,4.22984
8.04094,0.333354,17.4953,7.05613,7.48501,19.3005,6.88301,7.0071,19.9032,8.12082,6.24969,19.8446,8.39876,6.17999
0.661504,0.201,6.55211,13.1969,-9.158,7.66909,13.2688,-8.96789,7.80622,13.3801,-8.97236,7.82414,13.1018,-8.96404
2.22417,0.138831,18.4147,18.6678,-4.8425,18.6075,17.4186,-5.00827,18.5152,17.8378,-5.06427,18.4771,17.5411,-4.47765
6.61526,0.430664,-4.50966,27.0992,5.11606,-5.83227,26.3911,6.35916,-6.35515,26.0733,5.85967,-6.36064,26.0916,5.94954
1.14657,0.229761,16.7779,7.9917,-4.44477,16.9906,8.58687,-4.8453,16.1991,7.21377,-4.54434,16.8171,8.1534,-4.88468
18.7635,0.402832,18.4873,23.9424,5.15657,16.3923,23.7313,6.3504,20.0688,21.924,5.17865,20.4309,25.0769,4.80239
3.35333,1.59668,21.2594,16.2204,3.44138,18.8035,15.6544,5.05204,18.6794,15.399,4.8586,18.8386,15.3175,4.79421
1.27797,0.0129955,-13.6624,20.366,-4.56736,-13.6996,20.7196,-4.47352,-13.2176,20.1508,-4.71057,-13.3154,20.9474,-4.46626
1.11447,0.473942,13.2257,12.5376,-7.44394,13.8818,13.1331,-7.29129,14.0712,12.6772,-7.23882,13.9115,12.8452,-7.22927
2.0191,0.395674,19.1837,19.9108,-1.83021,19.6646,20.7951,-1.70223,19.7698,19.666,-0.980748,19.7405,19.3749,-1.04399
2.04577,0.408314,-11.9098,6.7719,-4.85213,-12.9934,7.6874,-4.87177,-13.0986,7.29832,-4.78456,-13.5132,7.26404,-4.85129
0.761567,0.0677625,18.1842,19.3227,-3.32139,18.1092,18.7456,-2.81865,18.1148,18.6002,-3.01524,18.1714,19.1799,-2.8415
1.42672,0.548654,-18.3412,1.06411,4.63899,-18.026,0.684979,5.27861,-17.5316,0.516444,5.34054,-17.2611,0.367452,5.30028
22.3091,0.712348,7.63867,27.9927,-0.054817,7.97559,27.6371,-1.74977,9.17808,28.0483,-2.01767,10.3982,28.3572,-1.67114
0.341911,0.344937,-1.11898,24.6477,8.40921,-0.111166,25.111,8.90845,-0.417199,25.0855,8.76635,-0.567018,25.0642,8.71567
3.15443,0.348574,5.93567,11.4256,8.56907,4.72793,11.8225,8.5218,4.91741,11.3152,8.29282,3.89641,12.8093,8.65578
1.10521,0.0710925,-2.45634,25.1305,8.47683,-1.37097,25.9635,8.95902,-1.38044,26.054,8.9915,-1.23229,25.9775,8.99522
6.25074,0.164199,6.73958,10.451,8.2711,6.51084,13.4358,8.68184,7.15397,11.6913,8.39216,6.2796,13.1153,8.73136
3.56055,1.00617,-16.9611,15.0698,5.46166,-18.4431,13.4638,5.72613,-18.1115,15.4184,4.96153,-18.0953,15.5572,4.88394
9.88292,0.233564,-20.5773,8.21965,2.81122,-21.7001,5.82175,2.03212,-21.3057,6.24902,1.6059,-20.817,6.555,0.82351
2.50249,0.238533,4.40344,13.8019,-8.50175,4.33359,13.036,-8.44021,3.803,12.6949,-8.3837,4.64384,12.7247,-8.61704
4.70946,0.125587,-15.7097,4.56098,7.68386,-14.819,2.45258,7.69068,-16.1143,5.1745,7.44866,-14.5789,2.94454,7.83583
14.1877,0.585452,13.4387,2.54971,2.73714,14.5238,2.68386,5.06555,13.5629,1.66017,4.95035,14.6975,2.96998,3.71078
2.32347,0.306753,-6.51685,2.85285,-2.76989,-7.75241,3.01118,-2.98817,-8.05085,3.36346,-3.30716,-7.91599,2.6737,-2.86545
31.5339,0.0896759,-18.9177,7.77472,-2.52256,-18.5672,11.7228,-4.72637,-19.784,10.2674,-3.08624,-19.8044,12.0755,-4.02027
0.62706,0.274624,17.2859,13.4791,6.39539,18.5546,13.3178,6.05042,18.5398,13.4129,6.01449,18.3878,13.4773,6.076
0.948323,0.219576,-17.6841,7.52919,6.80695,-18.6117,7.96479,6.84365,-18.3686,8.27166,6.79591,-18.5272,8.24937,6.78588
74.9909,0.828622,-3.56755,4.8611,-3.80277,1.59256,4.00782,-3.00314,1.59286,3.9119,-2.83886,2.51133,5.71886,-6.3543
1.91845,0.00435062,21.4868,22.4901,2.519,21.6316,22.9509,1.59648,21.6584,22.8131,1.58471,21.4349,23.3562,2.12452
2.74659,0.27293,10.5593,5.13639,-3.89377,11.7267,5.2327,-4.90369,11.7065,5.2508,-4.60707,9.59809,4.44266,-3.8931
17.9246,1.1117,4.08809,21.0598,-8.17727,3.98315,17.9234,-8.39668,-0.150132,18.5264,-8.34479,0.94559,18.8783,-8.12388
4.8096,0.26381,4.39149,24.997,8.57479,5.09781,25.173,8.67122,3.82868,25.3482,8.94493,4.95528,23.3743,8.8525
3.79895,0.151105,-12.9587,11.1448,7.53504,-13.6792,11.5746,7.92286,-12.779,9.45742,8.08283,-12.66,9.57069,7.99693
45.2192,0.323356,-0.661941,8.26483,-6.95256,-5.62006,5.8021,-5.90553,-0.735753,6.18004,-6.82306,0.00923503,7.25306,-7.18331
5.92808,0.361816,11.9362,14.1491,8.67857,9.33161,14.4602,8.59881,9.34785,13.3489,8.65196,10.9228,12.1803,8.52826
3.47524,0.0161095,1.60439,27.6038,8.64356,2.08919,28.206,7.50468,1.1455,27.9464,6.6712,1.4279,27.9462,7.17071
4.32317,0.408774,18.285,28.2786,6.04052,16.8147,26.6379,7.41606,16.3573,25.9106,7.66242,18.8046,27.5136,6.08697
1.56796,0.241319,8.12545,26.7916,8.55534,8.51492,27.3368,9.00281,8.95506,26.2913,8.95695,7.69756,26.8,8.6922
2.43223,0.0537769,18.0848,8.59722,-1.63127,17.3783,7.56312,-1.78326,17.1743,7.5575,-2.6825,17.2757,7.75565,-2.75108
2.71097,0.0629344,-14.0763,6.23231,-4.8473,-14.2163,5.29655,-4.01759,-14.6444,5.03464,-3.84527,-15.6116,5.53427,-4.56535
3.74999,0.336415,0.201641,20.2252,8.20086,1.03446,19.6504,8.53342,0.0650668,20.5292,8.55897,-1.32483,19.0872,8.35238
2.47649,0.0980306,17.4475,23.9311,-4.92474,16.9021,25.1757,-5.51916,17.7159,26.3384,-4.72969,16.7127,25.312,-5.74566
1.02054,0.23159,3.28591,8.36389,8.9069,3.92574,7.98673,8.95082,4.15335,8.29764,8.89686,3.88857,8.17877,8.8726
4.72667,1.35688,-10.1308,4.8483,-4.57169,-11.837,4.4254,-3.61045,-11.9699,4.76045,-3.96757,-12.2497,4.83008,-4.24417
18.6931,0.659221,-7.42927,25.6802,5.74698,-7.19245,26.0657,8.29896,-8.81961,26.1729,6.19104,-9.44958,27.1235,6.88566
24.5278,4.25608,18.5544,30.3909,-1.35511,14.8098,28.1375,-1.27685,14.7151,27.8873,-3.8042,14.8618,27.8184,-3.18485
23.1878,0.100206,-8.43062,10.8715,7.97978,-8.70552,8.11472,8.32098,-10.6522,10.2166,7.80805,-6.93119,8.89308,8.51346
2.86839,0.0329357,-12.6285,19.862,-4.83664,-11.8545,19.1785,-5.31654,-13.5509,19.27,-5.18501,-13.3449,20.0519,-4.72948
3.02201,0.607653,18.1276,20.7629,-5.13582,18.3099,18.9374,-4.61766,18.3425,18.9343,-4.73783,18.3277,18.6448,-4.04335
3.67281,0.053542,8.92562,28.7524,4.97061,7.93293,28.8244,4.601,8.18996,28.9948,3.48952,8.47902,28.9857,3.62366
1.44296,0.00412446,-5.50255,23.0994,-3.77449,-5.79788,21.8679,-3.83836,-5.23109,23.1319,-3.79879,-5.36935,22.0033,-3.87633
8.03054,0.184322,-19.4419,5.97765,6.94434,-19.6552,7.66444,6.494,-19.1106,8.11191,6.73629,-18.2202,5.9191,7.36494
2.47728,0.398731,-18.612,12.5189,5.61346,-19.1086,13.3621,5.01079,-17.2789,12.076,6.36024,-18.7267,13.081,5.45129
4.12984,0.271192,-5.69962,6.62552,-5.78291,-7.92006,6.32189,-5.34407,-7.36273,6.29008,-5.39491,-7.45785,5.82141,-5.42688
3.04234,0.50828,-1.25451,2.08465,-0.872828,-2.9296,2.56079,-1.32896,-2.6565,2.04434,-0.72569,-2.79849,1.86051,-0.616989
1.15644,0.105677,17.9598,19.3589,5.8772,17.4505,19.1642,6.2438,18.5051,19.3529,5.73229,17.3937,19.5289,6.26298
1.25588,0.178061,14.2628,19.9984,6.6554,16.0876,20.2285,6.79364,16.0987,20.1396,6.76875,15.7925,20.2803,6.82542
3.9276,0.722907,-5.88284,25.8015,3.95228,-7.42305,25.6837,5.65354,-7.26922,25.5982,5.20265,-7.42069,25.6476,5.17748
3.22144,0.395681,3.23314,9.36983,-7.19291,3.17256,9.04847,-7.57006,2.81662,9.95914,-7.51142,3.37282,10.2676,-7.70938
3.22419,0.126427,6.5729,2.64272,-1.24291,8.00303,3.3256,-1.91196,6.58178,2.30485,-0.969064,6.17677,2.79582,-1.86333
3.49996,0.721564,-14.9192,12.9856,-4.1462,-15.2131,14.4455,-4.16425,-14.7153,14.5196,-4.39546,-14.7717,14.4289,-4.31018
16.095,0.226383,-3.95351,17.5608,-7.6289,-4.86836,19.5052,-7.55755,-1.7261,17.5342,-7.79931,-2.76152,19.6112,-7.47942
0.0908818,0.0974234,-13.77,17.9299,-5.23237,-14.0302,17.9103,-4.94841,-13.9455,18.0677,-5.10599,-11.8958,18.3303,-6.39162
4.30962,1.50357,14.3882,18.4234,6.93316,13.7045,20.0114,6.77988,13.2862,20.1237,7.1431,13.9822,20.0645,6.70917
4.62133,0.0386885,4.12202,6.87112,-7.47962,6.30512,8.8551,-7.91961,6.23146,8.24271,-7.73751,4.39914,8.19564,-7.90258
3.5794,0.0984855,20.4999,8.94014,5.14833,19.4076,10.0305,5.7,19.8647,8.9614,6.03043,19.1817,9.91426,6.05248
2.09138,0.194729,-1.41846,23.0263,-5.972,-1.9024,22.1768,-6.18479,-1.18516,21.9541,-6.62346,-1.47711,22.2347,-6.29964
13.0512,0.461217,16.0157,10.6264,6.55864,15.9779,8.69722,7.4742,15.4368,8.60476,7.6545,17.077,9.53699,6.96833
5.55066,0.235628,-6.54717,25.5451,8.18838,-7.01685,25.9844,8.29808,-3.96349,25.0844,8.82449,-4.51228,24.9214,8.78379
12.0233,0.283174,-13.5807,13.7852,-5.31467,-12.7127,12.1492,-5.60664,-13.2413,16.1205,-5.70757,-14.1171,16.9337,-4.80946
0.492754,0.156101,9.09589,28.6701,0.0815891,8.57661,28.3733,0.161146,8.34701,28.4857,0.411191,8.28397,28.4035,0.324042
9.88278,0.197353,9.83452,14.8909,8.61937,10.6719,16.9509,8.50467,11.5582,15.7679,8.62446,11.409,14.9034,8.74728
3.39052,0.676977,-7.79665,13.1042,8.77729,-11.6686,12.8201,8.32732,-10.8918,12.6197,8.55951,-7.84396,12.3673,8.66605
0.839403,0.136756,18.7919,22.2989,-2.66762,18.9242,22.024,-2.41864,19.1505,22.6152,-2.68915,18.591,21.8722,-2.89094
4.46738,0.170915,10.8611,2.31202,0.525295,9.77458,2.30387,-0.191836,8.48775,0.58528,0.59222,9.19221,0.845143,0.704523
2.46517,0.103136,0.503956,19.0849,8.11306,2.13319,18.9755,8.42589,-0.330782,18.3707,8.56655,-0.0437722,18.9797,8.24658
4.0662,0.249916,-16.9107,18.8485,2.30886,-17.9607,18.1478,1.1189,-16.74,19.5672,2.49222,-17.0146,18.8505,2.96723
1.97491,0.463242,-12.8364,14.22,7.57157,-13.7545,13.7989,7.72447,-11.2849,13.9959,8.16031,-11.1399,14.0117,8.19242
1.15904,0.13353,15.5218,18.9953,-7.37553,15.1861,19.4579,-7.5818,15.3428,19.5783,-7.7251,14.906,19.5391,-7.61398
18.3114,0.348209,17.5223,11.5608,-4.05827,18.4336,16.9818,-4.75123,17.9085,15.2344,-3.51767,18.0958,15.147,-5.31966
3.22254,0.139485,12.8288,20.5489,-7.68987,11.5038,21.1445,-8.17268,13.7537,21.1052,-7.70287,12.8781,20.1986,-7.78447
12.2291,0.0352535,-1.9872,7.39788,7.72282,-1.24134,5.52924,8.04688,0.0425655,7.43186,8.10901,-0.898563,7.90512,7.85984
37.8634,0.199897,-11.0936,12.8747,-6.16755,-9.36864,16.8346,-7.07852,-7.6858,13.9488,-7.22626,-8.58956,14.5835,-7.07363
2.42502,0.129603,2.23694,23.3094,8.73027,4.32473,22.917,8.91717,4.34058,22.8302,8.9131,2.6767,23.1834,8.66225
1.3844,0.227842,5.55592,1.70853,0.316786,4.86701,1.48223,0.0567453,6.55597,1.47743,0.2966,6.38962,1.62608,0.219731
1.31201,0.367352,-17.5847,18.802,-4.24013,-17.416,20.0228,-4.21499,-16.9741,19.5744,-4.00477,-17.2646,19.8396,-4.13352
2.38922,0.0525264,-19.3884,16.903,-3.9892,-19.5812,17.5829,-4.27525,-19.9635,17.155,-4.13343,-18.3682,17.8983,-4.37359
4.47696,0.220809,-0.310737,13.16,-8.08615,-0.877733,13.3551,-8.48279,0.280884,14.2726,-8.24154,0.454069,12.5827,-8.06561
3.79535,0.402012,-3.09536,5.97295,7.40008,-4.70768,4.95689,8.17457,-2.27267,5.50447,7.82538,-2.69416,6.3735,7.69213
46.1521,0.82886,-5.61209,21.5287,-3.93476,-3.96264,23.0499,-4.13738,-9.2806,20.1147,-5.39997,-6.3088,20.9416,-5.55529
3.15423,0.317598,6.64582,28.9561,5.73964,6.9696,28.6204,4.90573,8.06171,28.9091,5.062,6.7143,28.5779,5.10764
2.44029,0.202212,-19.2574,13.9872,3.36199,-20.0925,13.5473,1.55568,-19.8078,13.7161,1.79358,-19.9138,13.2723,3.00257
16.9622,0.238992,-19.0259,5.54028,0.143652,-20.9834,3.68016,1.44028,-19.5651,7.02226,-1.27885,-20.1407,3.01545,1.89718
5.93372,0.316038,20.0466,25.5417,0.0981247,21.0946,24.7778,0.611295,20.7844,25.8437,1.38874,19.9528,26.1121,-0.261412
3.07315,0.807681,8.01814,15.2553,8.07724,9.17707,15.4557,8.55701,8.51978,14.0883,8.46615,8.39335,13.9733,8.48729
5.63194,0.284686,-5.50344,16.1653,7.94573,-6.37151,16.8294,8.56425,-4.92873,16.1487,7.99132,-4.93773,14.547,8.28969
0.483002,0.095686,8.02278,16.8528,8.79268,7.11088,17.2813,8.86785,7.25087,17.2975,8.84913,7.28015,17.0271,8.81943
14.5579,0.0548823,-1.56166,0.708161,0.263674,1.52772,0.845096,0.212194,0.835785,2.4314,-0.975743,1.82369,2.26214,-0.814413
2.68461,0.386908,-3.14161,24.7821,8.24596,-3.93451,24.6411,8.64023,-3.07442,24.3312,8.275,-2.64137,24.2905,8.26576
0,0.00240945,10.9045,27.8905,8.25594,11.0351,27.9035,8.19608,10.6203,27.9698,8.16533,10.4893,27.9385,8.27172
3.1695,0.308135,6.76402,10.1026,8.06948,7.2975,9.51713,8.17843,6.23573,10.275,8.48154,8.15481,10.7068,8.47181
6.00085,0.178235,20.5013,17.9858,0.624914,20.6162,20.1205,0.0069087,20.1413,18.5372,-0.124162,21.6764,19.1616,1.30456
2.33166,0.0470933,9.26588,26.5514,-4.97507,8.15086,26.4944,-4.6255,8.85295,26.5352,-5.5713,8.85394,26.5536,-5.95774
2.32016,0.169295,7.76019,9.20941,8.13651,7.30527,9.42239,8.17284,8.66512,8.27647,8.63908,8.58901,9.66216,8.48452
4.35416,0.374864,-7.0127,22.9764,8.29142,-7.78326,22.6719,8.51846,-4.05901,21.908,8.93921,-8.10137,22.8128,8.49376
3.50707,0.128765,13.7719,3.49531,7.73226,16.1851,3.22908,6.49906,13.6233,3.80866,8.08012,15.8313,3.70137,7.46776
0.82087,0.404037,4.38412,3.30215,-2.30994,4.66248,3.56478,-2.78895,4.53764,3.6176,-2.97238,4.91485,3.43713,-2.63618
5.01364,0.0690744,3.09078,28.1911,5.91842,3.33793,28.3649,6.83811,3.64053,28.3354,4.45526,4.03483,28.5217,6.43951
2.52148,0.0317838,6.61212,20.2226,8.29966,8.00017,20.996,8.91823,7.59072,19.5847,8.44469,7.12747,19.6585,8.33406
4.95744,0.777081,13.6982,6.52915,-1.43581,13.5619,5.21485,-0.762774,13.8316,4.88039,-0.379746,14.3083,5.56145,-1.79113
5.69532,1.99978,-11.9399,17.3559,8.07746,-12.7891,20.2208,6.97851,-12.6045,20.2305,7.10599,-12.9556,20.2962,6.93224
3.95738,0.0412626,-9.64437,21.5501,-3.92395,-8.17995,21.7769,-4.14492,-9.37733,22.4398,-3.80725,-9.40608,22.7066,-3.74234
2.6027,0.732445,5.95693,18.7639,8.17199,8.34215,18.3894,8.58613,8.30273,18.6649,8.57321,8.17963,18.4671,8.503
0.915183,0.0110073,-4.23302,18.7828,8.50479,-5.67047,18.7692,8.46944,-5.05537,18.5796,8.54179,-5.62752,18.583,8.52952
0.558767,0.0103373,10.5868,6.94166,8.88397,11.3352,6.58672,8.79504,11.0153,6.90835,8.8504,11.2075,6.47966,8.78692
1.66307,0.155272,-7.72441,18.8324,8.09623,-6.08196,18.6478,8.42478,-5.78871,18.6769,8.46869,-5.81453,18.8495,8.50395
0.538922,0.115304,16.7349,29.3608,-3.50721,17.6098,29.4889,-3.59413,17.892,29.3621,-3.86638,17.2919,29.4328,-3.50765
8.11265,0.138681,3.8694,26.7849,-0.32702,3.25351,27.1293,0.778932,3.65739,27.2368,0.959142,2.61774,26.6627,-0.634854
3.54451,0.0272309,16.7182,18.3956,-7.00935,15.6436,17.7855,-7.29607,15.5376,18.8893,-7.33066,14.7086,18.7555,-7.53286
1.32419,0.206355,-10.9035,3.36944,-2.5832,-9.63742,3.5509,-2.89732,-10.2122,3.55602,-2.6301,-9.57463,2.84199,-3.08302
2.62445,0.0798065,-14.5168,22.3294,3.51452,-13.491,23.7394,2.79859,-14.0094,23.1959,3.32386,-13.3874,23.9755,2.92607
0.900479,0.16292,-10.9327,8.75294,8.33044,-10.2809,8.2715,8.42341,-10.9693,8.08575,8.44198,-10.8125,8.01891,8.42893
54.1778,0.0137348,-1.57617,1.34443,5.1116,-0.724269,0.451662,0.784254,6.09665,0.311177,1.50314,4.45027,0.204657,0.632064
1.0106,0.0903832,19.138,6.0036,0.954832,18.7314,7.047,0.622998,19.14,6.82378,0.782315,19.2847,6.87639,0.795407
0.301616,0.433712,-20.5564,5.59422,0.321457,-20.8054,6.01555,0.523833,-20.8438,6.0004,0.709692,-20.9512,5.86028,0.668394
16.8604,0.149301,2.00224,3.86591,-2.75425,1.78759,4.55945,-5.03874,3.60601,4.52852,-5.19581,3.55231,3.70834,-2.96433
1.59153,0.112492,-0.121957,3.15344,-1.80591,-1.94542,2.89988,-1.55095,-0.953454,3.29272,-1.96751,-1.66385,3.12697,-1.75979
2.36048,0.272062,-1.4858,19.9281,8.04774,-2.47672,19.2055,8.34876,-0.712644,19.7369,8.15646,-1.52072,20.627,8.48215
1.54542,0.155815,-5.39579,6.06522,8.37015,-5.59873,6.57129,8.53585,-4.28001,6.11856,8.32285,-5.47068,6.68285,8.50601
1.04521,0.766594,-15.391,1.37672,-0.0503287,-15.218,1.5071,-1.47026,-15.4887,1.54063,-1.25298,-15.356,1.52066,-1.35694
4.77916,0.0428575,-16.4183,15.28,-4.23449,-17.8585,14.3765,-4.72389,-16.8839,15.7921,-4.22581,-17.2647,14.0496,-4.62231
9.02628,0.78004,11.4717,11.5128,7.51045,9.7121,11.486,8.42712,11.2305,10.3513,7.76839,9.75656,10.9521,8.13289
3.99935,0.722658,19.9849,27.9054,0.59201,20.0591,28.7691,-0.0186043,19.6484,27.0656,-0.260349,19.7124,26.6542,-0.372307
4.13434,0.232972,-18.7014,14.445,3.88427,-19.0966,14.1334,3.71287,-18.5484,15.4274,3.08245,-18.953,14.3947,4.78187
38.0643,0.528644,-3.3685,11.5342,-7.97408,-6.357,10.4966,-7.47891,-8.26274,12.6355,-6.93605,-6.99707,14.2959,-7.43842
4.96643,0.0143831,-16.8463,10.0044,6.27089,-16.4467,8.03125,7.15431,-16.8519,7.79691,6.95866,-16.9313,8.19201,6.7786
1.63624,0.0631891,7.13994,22.7417,8.60419,9.37364,22.2899,8.84569,9.49893,22.3938,8.8671,9.52516,22.2153,8.86495
4.93465,0.643599,18.4404,4.05243,5.79563,17.7935,4.09576,3.73076,18.7627,4.14692,4.06905,18.0634,4.15295,3.95644
11.8223,0.167802,-17.8499,1.93212,1.65265,-17.3707,2.18409,-0.0993413,-15.3909,1.36189,0.0415747,-16.5893,1.00961,2.32512
1.24021,0.103814,0.13779,27.1934,8.74901,0.369435,26.7507,9.00367,0.245163,26.6258,9.02398,-0.089813,27.5929,8.25964
2.47428,0.0575814,21.4241,23.1097,0.408707,21.2452,22.2495,-0.104155,20.9852,22.2608,-0.511754,21.4338,21.5709,-0.0731445
4.85583,0.0673181,3.2634,10.184,6.10161,4.9713,10.9503,8.26671,3.84203,10.4596,6.70831,4.00071,9.11413,8.57337
15.692,0.0256883,-10.7515,5.17751,7.80695,-8.20416,4.24661,7.84598,-11.0114,2.86167,7.78081,-8.2281,5.44896,7.87085
3.76552,0.125104,0.555227,11.7257,-7.92412,-0.214548,12.2563,-8.21931,0.231643,10.5699,-7.92487,0.920547,12.165,-8.07047
1.45026,0.136331,-18.376,1.03878,4.44071,-18.745,1.27704,3.4398,-18.6327,1.03573,4.43349,-19.009,1.43349,3.47079
2.3431,0.0190047,2.43723,16.287,8.97679,3.10503,16.7276,9.119,0.285994,15.8734,8.33934,0.272708,15.9669,8.32644
5.22124,0.189877,2.66773,27.2823,2.05195,1.9017,26.7314,0.462072,1.79486,27.4811,2.12896,3.58964,27.6751,2.35366


