
3.61292,0.107427,-6.64479,3.95815,7.54848,-4.61529,3.85912,8.67223,-5.34509,3.70803,8.34535,-4.72897,4.04184,8.58406
2.89351,0.140396,1.28834,7.10557,1.20997,1.97589,7.18106,0.81293,1.37737,7.99249,1.32396,2.08873,7.9475,1.0342
6.24169,0.16426,9.89845,8.58606,6.86666,9.83918,7.71941,7.11168,10.4097,9.26063,6.4969,10.1925,10.192,6.99485
0.33302,0.00274815,-4.66207,26.8431,4.12281,-5.00311,26.8058,4.08763,-5.04598,26.9946,3.88564,-5.10038,26.8639,4.00832
9.38727,0.250028,-10.5612,22.5384,0.301441,-10.7623,25.3073,-0.929728,-10.6343,24.6688,-1.59247,-10.6234,22.9439,-1.11843
0.877833,0.179555,-10.6384,21.5429,0.48239,-10.5922,20.7143,0.100655,-10.6133,20.9387,0.584139,-10.5868,20.7412,0.228691
2.04709,0.17951,3.14006,8.44556,8.40905,3.38604,7.88447,8.53102,2.79926,8.42305,8.57584,3.902,8.90536,8.67046
6.03316,0.520719,-1.73076,12.512,-0.0521439,-1.03192,11.3286,0.406928,-0.329074,12.7309,0.840942,-1.39155,11.754,0.413428
0.973429,0.345338,-9.67019,22.8493,3.18139,-9.40591,22.4944,3.68823,-9.55564,22.4729,3.56856,-9.67616,22.4473,3.54203
8.26913,0.944333,-10.5493,22.0515,0.279334,-10.5135,20.6797,1.49715,-10.7921,21.1821,2.59937,-10.793,21.6618,3.0348
2.04251,0.0815184,-9.34261,3.88165,6.53187,-9.6209,3.20846,6.04782,-9.60038,4.72277,5.36705,-9.65849,4.54705,5.2089
7.04242,0.0136756,5.65279,12.3395,7.91982,5.62015,10.894,8.55237,6.88279,11.1906,8.26651,6.95946,11.6881,8.03566
5.12841,0.0792862,-6.87298,4.03973,7.47012,-7.80574,3.83253,7.10451,-8.88542,4.22109,6.80661,-9.01991,3.99864,6.75676
4.67919,0.346783,-7.99012,11.4976,6.68932,-8.25296,11.0831,6.83244,-6.09307,11.3932,7.66811,-8.55844,11.9415,7.05876
2.75599,0.0334437,2.45913,4.7395,8.85502,2.91044,4.4328,8.7636,2.59859,3.59608,8.62812,2.25455,3.37083,8.6267
6.24324,0.011374,5.80238,4.65292,8.14971,7.87016,6.48773,7.96047,7.84833,6.62085,7.98003,7.4851,5.89664,7.96461
1.33754,0.180861,5.58741,2.97559,6.5467,6.41058,3.71085,6.55476,6.34609,3.65168,6.28688,6.31242,3.63949,6.41928
2.23214,0.0516658,6.44645,12.2276,1.22133,3.669,12.4643,0.95734,5.79251,12.5529,1.13861,3.83954,12.5652,0.978564
1.63442,0.520696,-2.50228,9.77329,8.79984,-2.36578,8.90873,8.55261,-2.62777,8.74151,8.60895,-2.11593,8.82994,8.58249
4.09283,0.0292993,-0.605942,17.232,8.68654,1.54783,15.8897,8.52954,0.863216,16.6883,8.57834,-0.536999,17.494,8.70145
0.496325,0.450791,-11.05,11.4173,-1.54679,-11.0724,12.0963,-1.39772,-11.022,11.9297,-1.62141,-11.14,12.2589,-1.17747
0.335227,0.0237436,2.64508,19.485,3.17014,3.06407,19.4645,3.00309,2.94975,19.5006,2.97771,3.19656,19.3175,3.34898
3.08089,0.318188,7.00483,18.5639,4.07897,5.27593,18.7022,4.03962,5.59773,18.442,4.67284,4.00613,19.2974,3.1204
2.34328,0.0231781,-6.61386,13.4477,-6.0011,-7.1887,13.4595,-5.98929,-6.52211,12.8983,-6.07993,-7.03746,12.809,-6.05753
3.49199,1.17562,2.17803,5.2387,8.89186,1.96454,8.90579,8.48996,2.08831,8.93071,8.50108,1.86697,8.97955,8.5019
9.11014,0.280574,-9.38887,12.355,-3.29353,-9.95976,10.2914,-2.08054,-10.209,10.8415,-2.25387,-10.105,12.4505,-3.27674
6.27764,0.0152923,5.93293,9.91163,8.5194,5.01048,8.67325,8.9004,7.18548,10.217,8.41744,5.06146,9.75682,8.6014
11.793,0.175824,4.96458,13.8526,7.92007,5.45113,11.8882,8.18895,5.58699,15.5783,7.84998,6.86663,13.1304,7.8535
0.961147,0.276208,-1.84682,13.2474,8.872,-2.47043,13.6604,8.89626,-2.62161,13.3378,8.83998,-2.42602,13.516,8.83612
3.53512,0.151683,6.64516,7.08942,8.49811,6.43391,7.64762,8.72556,7.31321,7.28715,8.55666,6.06584,6.69978,8.71981
6.61542,0.369248,-3.4076,27.3348,1.60819,-2.81829,28.954,1.51582,-3.29775,26.2724,1.27118,-3.39356,28.6877,1.11628
32.231,2.09611,-4.47908,9.30921,-3.72005,-4.46988,12.1749,-3.44184,-3.0811,9.46996,-0.9575,-5.27908,13.9709,-5.25056
15.9278,0.216356,0.0435557,4.6046,0.912412,-2.31819,5.3381,0.770308,-2.81223,4.42141,1.75253,0.349176,5.62234,0.159513
2.43172,0.66805,-1.31794,18.8795,7.17256,-1.08898,19.1623,6.39855,-0.185677,18.4056,7.46735,-0.462068,18.5546,7.1503
3.12748,0.313971,-2.18408,19.7755,6.56697,-3.11761,20.1596,7.33134,-3.22071,20.4525,6.99444,-2.99817,20.5591,6.67313
3.93349,0.0924713,-10.78,13.5151,3.42473,-10.6332,12.773,5.01816,-11.0266,14.1299,4.05499,-10.5787,12.5765,5.0622
0.537104,0.0886429,-2.10185,0.518601,7.79918,-2.91156,0.475001,7.80976,-2.93558,0.423788,7.61707,-2.65738,0.396122,7.573
2.08817,0.064139,4.86284,15.8378,0.790385,7.5084,15.7986,0.72782,7.5368,15.6729,0.726455,6.23655,15.5702,0.788759
3.26883,0.0027426,-3.5461,5.08461,1.30771,-2.91642,4.87401,1.32049,-4.64238,4.56528,2.19528,-4.84868,4.60689,2.21823
23.786,0.264212,-2.30654,25.3043,1.67396,-0.628541,21.8493,1.41671,-0.38722,21.8995,1.46935,-0.241881,24.0359,1.69634
6.42474,0.248296,-6.72337,13.7771,-6.04731,-7.43757,14.5063,-6.34355,-6.4582,14.8312,-6.80603,-7.50053,14.931,-6.77065
21.133,0.934329,-5.85421,27.8581,2.72414,-2.61506,26.2512,4.76325,-2.74124,28.033,3.7346,-2.57998,26.3346,4.71554
1.48788,1.071,-3.72484,11.1131,-1.9377,-3.88521,9.90586,-2.27366,-3.79864,9.9621,-2.07361,-3.72536,10.0066,-1.91988
2.21184,0.197791,-4.24155,1.26082,6.32513,-3.89663,0.558155,7.22287,-4.3925,0.516254,7.20878,-4.07338,0.48864,7.31409
1.11095,0.0292321,1.19484,5.03471,8.77357,2.00469,5.0274,8.90514,1.73106,4.90719,8.86619,1.69254,4.62784,8.89419
6.59882,0.48604,10.4507,12.7424,2.97329,10.873,11.5842,3.32233,10.812,11.5741,2.68069,11.1542,13.0734,4.94444
1.41485,0.127885,-10.8531,18.8921,3.60301,-10.929,18.2154,2.91363,-10.9918,17.9581,2.83927,-10.7734,19.0659,2.54627
4.08961,0.0821969,-10.9753,17.4213,2.24804,-10.5232,19.1887,1.53791,-10.4527,19.6766,1.66643,-10.4686,19.9362,1.95634
0.96334,0.00430038,-11.2656,14.2288,-0.671393,-11.2352,14.6475,0.559456,-11.1361,14.9989,0.446005,-11.1894,14.7747,0.371643
7.86954,0.0704935,-10.7089,14.228,-2.17313,-10.5946,12.0991,-2.46425,-11.0849,12.8528,-1.52061,-10.7733,11.5451,-2.08379
15.9849,0.0396853,2.10278,4.12562,1.75402,1.52928,4.74067,0.733347,3.02026,4.35668,0.413642,4.49127,3.61024,0.917596
2.35706,0.427386,-10.7835,13.3811,3.11263,-11.1162,14.071,1.95364,-10.9232,13.3533,2.10644,-11.0395,13.8379,2.02474
3.22291,0.518904,0.137787,18.3072,7.34266,1.46791,17.8065,7.60967,1.54586,17.7538,7.67086,0.894669,18.15,7.07904
3.08933,0.0367616,-4.35701,21.8463,-1.89117,-4.48324,20.2064,-2.84095,-4.07826,20.3536,-2.03018,-4.30198,20.0853,-2.56908
3.48741,0.460878,0.433368,2.23241,4.92064,-0.403828,0.580003,6.13928,-0.46581,1.09747,5.70779,-0.43881,0.670927,6.07502
1.36378,0.0178422,-3.43482,0.835325,8.33358,-2.5012,1.57839,8.75294,-2.95312,0.941915,8.43682,-2.11523,1.56322,8.81341
2.88665,0.262864,6.87283,16.687,6.99966,8.3929,16.8824,5.75811,7.86932,17.1177,5.78473,8.49802,16.7635,5.90128
10.4407,0.234145,-6.3866,19.4923,6.17656,-9.05763,19.6616,6.18468,-5.80434,19.7166,6.33232,-5.26641,19.4528,7.84828
3.94055,0.53979,-7.50496,16.7106,-6.91128,-7.50871,15.0392,-6.83616,-7.48745,17.0419,-7.62073,-7.92827,17.0093,-7.61097
0.456391,0.288221,5.11816,16.8565,7.54967,5.68588,16.9142,7.26105,5.70134,17.0371,7.20941,5.62981,16.7284,7.38298
1.94455,0.167062,-2.89906,4.64647,8.56246,-3.75847,4.36097,8.63727,-4.89849,4.26087,8.52899,-4.92366,4.37,8.53272
2.55966,0.26375,8.35575,12.2662,7.94884,9.59534,11.866,7.75968,9.66573,11.2939,7.75759,9.6395,11.7293,7.74835
1.25255,0.047949,4.04881,2.82796,7.9399,4.22231,2.71348,7.63653,4.55359,2.69879,7.38175,4.91256,2.88099,7.28467
1.96782,0.0895898,-3.13598,7.39383,-1.34807,-3.45528,8.23417,-1.71735,-3.29336,8.43615,-1.3575,-3.05597,8.14445,-1.0771
6.22397,0.784596,-10.3595,10.6745,4.49852,-9.89279,9.87881,6.60289,-10.2575,9.79342,4.56995,-10.9891,9.87499,2.72657
1.85253,0.31352,-7.95925,4.24266,4.74755,-9.51479,4.10209,4.8197,-7.75046,3.87522,5.07453,-7.52907,3.85216,5.03942
9.44296,1.04262,-3.54617,20.9491,-0.602193,-4.44804,24.6901,-0.660111,-3.66272,24.3027,0.26646,-5.10474,24.3437,-2.10361
6.53481,0.825763,-6.61315,8.80184,-1.66408,-6.86334,10.3451,-3.20564,-7.24825,10.6271,-3.23413,-6.54464,9.97569,-3.12226
2.78392,0.160408,-7.06948,26.6891,-4.21694,-6.21761,27.3783,-2.80081,-5.86693,26.5445,-2.36874,-5.67849,26.8495,-2.1086
3.45917,0.173932,-4.38623,15.3234,-3.40362,-4.16956,15.9419,-3.07158,-4.59336,15.3595,-4.05125,-3.75249,15.9734,-2.39419
28.144,0.407353,-9.10143,7.58559,2.45333,-9.9856,8.97445,0.597148,-9.10924,6.20651,3.47838,-9.36331,8.8778,0.302692
2.3617,0.0964239,7.26503,10.4031,8.24636,7.46086,11.0358,8.23109,7.97462,10.4816,8.3001,7.22382,10.9958,8.24809
0.712024,0.0539234,-1.4252,28.5374,2.72766,-1.519,28.4803,2.93928,-0.953863,27.8427,3.37639,-0.697602,28.0615,2.96811
1.90232,0.110252,-10.5612,20.142,2.41316,-10.5401,19.6312,2.16277,-10.7083,19.7673,2.56879,-10.547,20.7035,1.94715
3.50841,0.974207,1.56174,13.5265,1.33825,1.38104,11.3408,1.20222,1.51138,11.5429,1.26198,2.44303,13.206,0.891786
7.26484,0.185866,0.339011,8.164,8.53811,0.266904,5.89198,8.88907,0.212333,8.57181,8.70366,1.51751,7.16381,8.7245
35.5583,0.249906,-10.7018,14.8095,-2.52629,-10.7397,16.6377,0.0570461,-11.1356,15.1891,0.324111,-11.1857,14.536,-0.901202
1.95628,0.423346,8.41312,13.6103,7.82809,7.14051,14.2258,7.73909,6.96864,13.9293,7.74979,7.52832,14.5354,7.79455
10.5307,0.68612,1.4732,3.14584,8.62102,2.96724,2.45391,8.2213,2.51691,1.76911,7.988,2.12952,1.42722,7.96223
1.30362,0.17672,-2.78798,8.93555,-0.603032,-2.87994,7.94647,-0.923685,-2.66994,7.9137,-0.734254,-2.70809,7.72884,-0.863803
3.24958,0.0379242,-10.5911,19.4093,-5.71847,-10.5923,20.1228,-6.10046,-10.6961,18.7013,-4.48673,-10.7138,19.0069,-3.71861
3.66608,0.0592593,1.36621,19.3005,1.65336,0.991523,18.1877,1.62597,2.08765,18.5344,1.13504,0.973882,18.8412,1.71924
11.0569,0.0344,-10.624,20.5016,-2.23126,-10.8028,19.796,-4.25777,-10.6673,21.7548,-2.44019,-10.6537,19.7444,-2.11219
4.28439,0.780554,-4.08563,20.3883,7.1293,-4.83192,20.2428,6.44973,-4.64104,21.2917,5.96541,-4.70199,20.9034,6.04358
4.24056,0.666179,-5.32619,25.807,4.34199,-5.1358,23.9196,5.01708,-5.33829,24.2156,4.64608,-5.51967,24.0071,4.69256
12.88,0.202754,-2.27411,16.7354,8.42395,-2.98623,17.5637,8.70327,-5.44645,16.6094,8.45696,-0.797469,16.9304,8.72665
11.7866,0.301549,-2.06648,3.27608,4.10587,-6.31012,2.7882,5.57978,-4.59008,2.88482,5.29599,-5.43404,3.35952,4.80611
25.1749,0.355345,3.99753,7.11618,0.367091,6.27518,7.74056,0.741519,6.14767,5.55457,0.115679,7.3511,5.79639,0.490031
1.70487,1.0406,-1.14995,19.8704,0.812152,-0.711565,18.5697,0.571077,-1.19205,18.5787,0.39364,-0.822765,18.5567,0.540927
4.04048,0.201657,-11.1686,12.1295,0.539345,-11.2901,11.2379,-0.39608,-11.3515,10.8963,0.470034,-11.2457,11.4263,-0.677447
4.89668,0.344084,-8.61508,26.2604,1.86765,-7.73144,27.7126,1.7076,-7.7398,27.8255,1.66595,-8.28254,25.3087,2.58764
9.98794,0.26829,-2.45605,18.645,-0.0355515,-2.64139,21.9345,1.06087,-2.938,21.5448,0.79868,-2.99821,21.0205,0.548289
6.16468,0.0322018,4.68145,18.3468,4.75521,1.97352,19.3043,3.9195,3.1874,18.3183,5.22551,2.99711,18.7126,4.63169
1.91383,0.112603,3.64396,7.79371,8.57334,4.54748,6.44782,8.84958,4.63049,6.59974,8.87569,4.07844,6.86513,8.75471
2.57402,0.113019,2.67067,18.1848,5.55805,2.88564,18.4547,5.09598,3.31034,17.9793,6.0373,1.77852,18.3584,5.88842
0.910467,0.100734,4.87639,9.22188,8.70722,4.05468,9.44532,8.61894,4.14014,9.71255,8.55816,4.1825,9.34056,8.63092
4.02463,0.131663,-9.15619,17.1225,-7.20919,-9.55304,16.6269,-6.21096,-9.47178,15.9114,-5.94731,-9.60005,16.8716,-6.25029
0.625302,0.283005,-4.85276,28.8189,0.0296819,-4.66904,28.1856,-0.438754,-4.46864,28.3325,-0.0779016,-4.57355,28.2894,-0.20511
0.714171,0.0604674,-4.55914,20.1689,-2.97839,-4.97874,19.9663,-3.52379,-5.08444,20.3293,-3.57063,-5.09399,20.186,-3.62475
6.02695,0.543782,0.0184871,16.2713,0.745252,0.484386,12.8637,0.973397,0.237957,12.8175,0.973083,0.154849,13.2995,0.861148
2.09047,0.0921847,2.64655,7.68394,0.765908,4.23087,7.82622,0.629797,4.40897,8.41,0.807432,4.12341,8.02057,0.697859
2.36373,0.481309,0.125188,25.4882,3.70677,-1.58418,24.8412,4.60631,-1.06898,24.6022,4.24868,-1.29952,24.7672,4.39497
10.1071,0.140796,6.55411,3.94431,5.37263,8.12252,4.92373,3.88561,8.47904,5.09674,5.78845,7.21393,4.29001,3.90999
1.26051,0.140366,2.90038,5.28049,-0.27984,4.2946,5.10171,-0.177517,4.26365,5.23182,-0.166327,3.69602,4.74786,-0.340217
32.5033,0.741508,7.38588,5.40691,0.812528,10.7778,10.6465,2.68038,8.90991,6.52993,2.87647,10.5927,10.122,3.27751
5.75041,0.0363001,-3.11646,13.4534,-0.994618,-3.73629,12.5461,-1.94507,-2.74185,11.4925,-0.713531,-2.73371,12.0179,-0.619565
12.7287,0.411787,-1.9444,20.5797,4.52494,-1.59553,22.0688,4.50473,-1.96856,24.1874,5.00764,-1.21149,20.5815,3.86896
4.4997,0.637773,1.28247,15.9693,1.40082,2.2866,15.8371,0.844355,1.55486,13.6486,1.34449,1.4275,13.6319,1.33991
7.99759,0.0443435,-0.83086,21.6433,1.34332,-1.97452,21.2477,0.927416,-1.14371,19.906,0.829124,0.447852,20.6035,1.37597
0.776123,0.0937831,8.24613,18.3673,3.51861,8.13851,18.085,3.97655,8.15172,18.4794,3.053,7.97036,18.4924,3.0913
2.31288,0.00449562,-6.95746,23.48,-5.62495,-6.51723,21.9419,-6.60442,-6.88194,23.1739,-5.96229,-6.51006,21.9645,-6.46865
7.26414,0.260526,2.23846,10.4341,8.36551,2.19855,10.8869,8.67073,5.37181,10.069,8.57242,1.93199,9.03281,8.49535
1.1009,0.0789985,-9.09084,23.3449,-8.53859,-9.31753,21.8027,-8.36033,-9.35902,22.3528,-8.37325,-9.39679,21.8447,-8.30843
5.09951,0.711367,9.99967,17.2019,4.32167,8.82769,17.7321,3.86199,8.35427,17.8249,4.1314,8.99811,18.1458,3.50741
2.81022,0.242024,-4.35203,5.71179,0.620089,-5.38588,5.94448,0.740217,-5.08915,6.13454,0.33237,-4.99378,6.28368,0.0183967
1.90882,0.795302,-9.75723,5.33341,3.99341,-8.94667,5.58007,3.85767,-9.18129,6.12583,3.5394,-8.91562,5.46184,3.89073
1.80054,0.194621,4.95462,3.2393,2.01249,4.14425,3.35351,1.86228,5.87993,3.48138,1.59453,6.03929,3.50344,1.69872
11.3577,0.898667,-0.573382,14.5357,8.62279,-0.425444,16.6087,8.70655,0.848348,14.7694,8.79562,-0.299116,16.4965,8.68314
5.85059,0.0183257,-2.75248,4.65631,8.54041,-1.4681,4.86399,8.46531,-1.04832,4.06271,8.90546,-0.917379,4.61661,8.61925
1.39503,0.241277,5.81903,16.0995,7.6335,6.41981,16.7964,7.1029,6.7336,16.5798,7.1254,6.6865,16.6629,7.08079
0.241542,0.0355189,-10.5698,22.5838,-0.363172,-10.596,22.1322,-0.418604,-10.6016,22.102,-0.561937,-10.5825,22.2496,-0.662408
1.6461,0.324897,-5.91099,11.3212,-5.42249,-6.43515,10.9634,-4.61314,-6.41031,10.8744,-4.55203,-6.51765,11.8502,-5.6278
0.794038,0.192575,6.12633,4.09861,0.275719,6.16772,3.77571,0.819853,5.88401,3.60069,0.786729,5.98865,3.65806,0.83237
1.94622,0.147719,8.28817,8.33642,0.965267,7.41175,8.29233,0.897494,6.78285,7.79541,0.809589,6.9633,7.18611,0.590096
5.71234,0.0490001,-4.60935,4.1022,3.19096,-4.92692,4.30431,2.74367,-2.9114,3.73075,3.17096,-3.26649,4.25563,2.12569
5.44278,0.166123,5.05382,11.6545,1.18798,8.17981,11.5084,1.50904,7.91307,12.2191,1.39027,8.1558,11.6311,1.49187
2.32984,0.0286264,9.85352,6.15036,6.58909,9.51106,6.61563,7.08008,9.55488,7.29355,7.27416,9.42326,7.17361,7.37318
13.0248,0.157175,-2.86595,17.3048,-0.552561,-2.3892,18.3981,-0.0559816,-2.67503,13.0507,-0.471578,-2.45065,12.937,-0.352728
6.53667,0.33044,2.64151,15.314,8.56664,3.87323,16.6174,8.08335,4.76806,15.7656,8.11469,4.05329,16.0684,8.11934
0.331259,0.0426883,-10.0016,24.0855,2.06203,-10.283,24.0557,1.69222,-10.2072,24.2197,1.64898,-10.2053,23.9919,1.89989
4.79887,0.12491,5.44056,2.96007,5.13436,6.79652,3.99614,6.00369,6.23491,3.64718,4.94129,5.07733,2.48663,4.74205
4.4688,0.123509,10.2522,8.334,4.84032,10.9063,10.8807,4.04769,10.9076,10.9294,3.8739,10.7022,10.3418,3.77581
2.42081,0.161577,-9.24603,25.6884,-7.44396,-9.48882,26.2679,-6.59443,-9.16793,26.5853,-6.26946,-9.40055,26.6167,-6.23041
1.98705,0.671336,4.34413,5.83454,8.80038,3.1396,5.35335,8.9035,3.6062,5.03953,8.89123,2.91456,5.49665,8.90481
2.8437,0.0693377,4.80184,12.4793,8.38594,3.72104,12.0036,8.69825,3.71132,12.6419,8.73246,3.39826,12.4466,8.84167
0.280033,0.0529315,-11.1674,13.8226,-1.16985,-11.2442,14.0088,-0.824531,-11.201,14.1043,-0.973444,-11.2473,14.1347,-0.845208
38.6938,0.0836537,1.91162,19.4702,3.50359,0.123772,18.4455,7.05604,-1.2839,19.4089,6.1334,-1.24045,19.5944,5.72844
27.9861,2.098,-0.0864018,6.19054,0.125968,0.485159,10.0762,1.06561,-1.32024,10.6373,-0.00749682,0.027536,9.96021,0.914389
0.501677,0.0811995,-9.13193,3.19683,6.8221,-8.63276,3.32993,7.04986,-8.71533,3.23475,7.05842,-9.11382,3.39795,6.83775
2.77108,0.140875,7.36543,9.90101,1.43354,8.31053,10.3531,1.49015,8.84564,10.2173,1.32109,8.89943,10.9358,1.52037
2.62926,0.056471,-0.118441,9.08617,8.68607,-2.00034,8.56722,8.686,-1.9915,8.85441,8.5908,-2.24345,8.61174,8.64084
8.77787,0.242576,0.217175,12.5487,1.15196,0.669725,10.1766,1.07242,-0.680443,11.2711,0.633399,0.69184,10.2647,1.07815
6.42677,0.461231,-5.55289,22.5339,5.18864,-6.4811,24.1084,4.12608,-7.29554,23.4534,4.32503,-6.73816,23.6319,4.28199
5.66199,0.850324,-7.01374,15.4959,7.23435,-4.54331,14.8193,8.75455,-4.6631,15.123,8.61504,-4.67442,15.547,8.59671
2.33235,0.0069483,3.75847,10.4818,1.08279,6.23283,10.3609,1.34463,3.98926,10.2019,1.08699,6.02854,10.1375,1.3005
41.291,0.0169248,-11.1621,14.3743,1.32623,-10.4375,19.4547,-1.10414,-10.8637,17.6118,1.37986,-10.5892,20.0838,0.856352
0.873938,0.126237,3.32815,5.80422,-0.079026,4.82283,5.70701,0.0290125,4.61187,5.85825,0.0748965,4.7129,5.46611,-0.04585
2.70313,0.122821,-4.30092,12.4695,-3.10601,-3.66664,11.6076,-1.80511,-3.74717,12.0938,-1.91156,-3.8404,12.4998,-2.0803
4.59178,0.301725,4.62288,14.4112,8.11903,3.3116,14.3304,8.86315,3.40309,14.6957,8.65278,3.77576,14.4477,8.42174
3.15807,0.0961465,-10.5839,16.8815,-4.661,-10.6217,17.0012,-4.03386,-10.6306,18.4137,-5.43896,-10.4707,17.9673,-5.85442
3.45103,0.156127,-1.21974,20.4159,4.00548,-0.192238,20.6899,3.15287,-0.345423,20.5515,3.24171,-1.00567,20.8138,3.71358
1.56778,0.166032,7.92664,9.04443,8.29477,8.37373,9.35194,8.08698,8.44273,8.3526,8.08158,8.17076,9.15194,8.10568
8.78058,0.251838,6.23007,4.24894,2.45679,5.10073,3.06193,2.68027,7.33901,4.71739,2.80591,7.2806,4.72357,2.40772
2.69235,0.158856,-5.88614,1.27527,8.55417,-6.24862,0.334357,7.76285,-6.52686,0.45691,7.77289,-6.46758,0.941039,8.24829
3.59686,0.263891,-9.36456,9.61689,-1.21481,-8.31816,10.0085,-2.52709,-8.19318,10.2985,-2.97198,-8.28125,10.3615,-3.03597
21.7404,0.0312391,2.854,16.5303,0.812926,7.9026,16.3924,0.723987,8.31832,17.0769,0.755946,6.64847,17.2232,0.801773
0.00124151,0.0148403,-10.7261,24.8742,-5.40262,-10.7335,24.8072,-5.43398,-10.7192,24.788,-5.54197,-10.6995,24.8524,-5.4962
3.65865,0.48098,-3.15958,14.8293,-0.862066,-3.20057,17.5697,-1.15907,-3.14444,17.5327,-1.06999,-3.26384,16.493,-1.57074
7.61141,0.425062,-9.23687,12.5507,-3.60172,-9.47542,13.8693,-4.4463,-10.0301,14.177,-4.005,-8.92095,13.1201,-4.05722
1.69344,0.152692,-10.3298,7.16007,3.8929,-10.2387,6.95128,2.96361,-10.2408,6.92059,3.05532,-10.3331,7.20765,2.82728
5.68538,0.0965653,-2.0923,19.8861,6.20955,-2.74359,20.3382,6.60938,-1.35407,20.1053,5.08553,-1.76116,20.3559,5.24665
1.04084,0.140831,-10.3604,8.59941,3.92401,-10.4263,7.83146,3.66574,-10.4265,7.70311,3.71284,-10.5305,7.69096,3.45982
3.17419,0.6511,-7.93845,7.17462,1.2685,-7.18801,7.11412,0.803585,-6.91448,7.59607,0.0860737,-6.94079,7.56212,0.178749
2.76907,0.279201,7.50031,4.86622,2.42474,8.48642,5.78778,3.07922,7.98038,5.44516,3.04527,8.36597,5.69848,3.1233
0.948597,0.267027,-9.17347,25.878,1.80834,-9.66387,25.545,1.34143,-9.77062,25.4358,1.3288,-9.60318,25.709,1.30233
2.94999,0.107406,3.00792,9.7284,1.0733,5.34222,9.54941,1.11478,5.38651,9.63108,1.1308,3.24865,10.1733,1.05153
6.34327,0.251799,-7.47911,27.9707,-2.40976,-7.49686,28.3212,-3.36629,-7.35109,28.094,-1.21997,-8.44119,28.3852,-1.04284
1.90759,0.0601851,-7.38508,27.1064,-4.75182,-7.30163,27.4544,-4.43207,-7.23543,26.3336,-4.86911,-7.49693,27.3631,-5.35429
7.6153,0.00257319,-1.39757,8.33111,-0.0182533,-2.42685,7.35355,-0.792771,-1.30608,6.66002,-0.498284,-0.885275,7.7974,0.0512441
28.7455,0.0573136,1.91504,3.45741,3.03793,0.630411,3.87892,2.416,-1.9352,3.40555,3.90248,-2.16477,3.8055,3.02138
2.58917,0.111564,-9.75218,9.65055,-0.959824,-9.88634,8.97565,0.601211,-9.98008,9.30394,0.0940131,-9.93775,9.09566,0.465736
7.14174,0.282114,-7.76522,15.6175,6.8754,-9.13744,13.7512,6.98583,-7.09268,15.5169,7.19631,-8.61622,16.2487,7.13351
3.87873,0.246088,-10.9344,13.4774,2.08413,-11.1768,13.9518,0.772536,-11.3027,13.5758,0.318305,-11.2473,13.8266,0.540072
0.975698,0.186184,-3.20044,14.7916,-1.01173,-2.98108,13.9841,-0.668199,-3.14264,14.0247,-0.876466,-2.96334,13.8514,-0.690094
6.26071,1.46359,-1.88808,12.417,8.65813,0.833635,13.075,8.82038,1.0633,13.3213,8.94622,0.721946,12.7256,8.82357
2.34394,0.593319,-6.92103,23.3751,-5.57726,-7.05612,24.2735,-5.31923,-6.93927,24.3218,-4.75225,-6.97905,24.2828,-4.86309
9.52128,0.348093,-8.05633,4.62382,4.49293,-7.80608,5.6843,3.28358,-7.98463,6.6258,1.97612,-8.3713,6.05892,3.30629
3.49289,0.00352494,4.77268,2.84409,2.81775,3.6179,2.59259,4.01901,3.91829,2.79801,3.29708,3.12802,2.65297,4.03186
5.72504,0.0843956,-3.6479,21.0221,-0.795231,-3.67636,18.4506,-2.00468,-3.9845,19.8593,-2.04452,-3.96311,18.3873,-2.56286
1.20205,0.105217,-1.73478,3.95598,2.54884,-2.44743,3.82475,2.88987,-1.88781,4.08558,1.99333,-2.03747,4.07474,2.0835
10.3677,0.165447,-7.51427,8.00903,0.0270953,-5.70409,8.26386,-2.01473,-6.96855,8.69767,-1.20977,-6.22628,8.59788,-1.89966
0.816191,0.0448504,-3.88676,18.3384,8.77112,-4.81192,18.9444,8.41924,-4.55414,18.9894,8.42945,-4.76833,18.7112,8.50494
3.09234,0.144853,-9.73445,26.7098,-5.48472,-9.95166,26.285,-6.81956,-10.0073,26.9605,-4.74963,-9.25216,27.4392,-4.84085
5.11022,0.191205,-7.06622,26.4834,-4.28032,-7.40264,25.2063,-6.09669,-7.11472,25.0707,-4.76502,-7.63123,25.5869,-6.91503
1.60708,0.737252,-8.70025,13.7053,-5.28412,-9.0504,13.443,-4.20399,-9.27502,13.5628,-4.22164,-8.99493,13.2341,-4.10015
4.11627,0.0238592,-10.4832,22.8798,-6.32334,-10.627,24.4208,-6.13228,-10.7814,24.1367,-5.4773,-10.5683,22.5284,-5.81458
8.00033,0.165914,-6.77434,28.1399,-0.939694,-7.26966,28.1862,1.54559,-7.03945,28.1771,-1.36665,-6.44223,28.5371,0.247096
2.83646,1.13737,-4.8189,8.61813,-3.42883,-4.92369,7.92558,-2.42236,-4.36113,7.50868,-2.36533,-5.29288,8.23998,-2.43143
5.81574,0.0157296,-3.36719,22.577,0.183486,-2.94565,18.0079,-0.585199,-3.03643,17.6608,-0.857015,-3.28096,19.6923,-0.599269
9.64653,0.325384,1.61315,13.6285,8.92273,1.24044,11.8425,8.80026,2.60017,11.1622,8.70231,2.79246,11.6588,8.83417
1.52954,0.0926763,4.83725,5.28503,8.50505,4.80184,5.74546,8.66433,4.87879,4.96852,8.55245,5.60073,5.00155,8.49263
1.21571,0.0706577,-0.914563,0.636684,8.16011,-2.03973,0.52235,7.81328,-1.82683,0.415678,7.67409,-2.05036,0.462314,7.70167
13.4146,1.11997,0.452397,3.36769,3.80744,3.17232,2.58536,4.088,2.48077,3.44875,2.60535,2.89687,2.00695,4.76384
1.22101,0.0211668,-8.26906,15.1436,-6.96082,-8.36656,14.8948,-6.81069,-8.9116,14.7953,-6.16194,-8.88764,14.5475,-6.1176
7.99299,0.0740892,-5.45616,25.8795,3.96336,-6.86647,26.9247,2.25331,-6.32257,26.2265,2.94312,-6.06266,26.9648,3.01653
0.973073,0.194088,1.00407,19.2534,1.74832,1.23602,19.9549,1.83369,1.30235,19.8386,1.78907,1.09921,19.9385,1.82145
1.84784,0.0500233,8.42202,18.4479,1.81183,8.60456,18.4368,2.44972,7.15655,18.6792,1.47593,7.11109,18.6777,1.59643
5.81801,0.893538,1.70505,17.2343,8.10823,3.25929,17.5231,6.85642,1.75143,15.3981,8.65258,2.99619,17.247,7.29322
5.52961,0.0445864,-8.41826,26.5485,-6.72956,-8.97805,26.2822,-6.81971,-8.18123,27.3551,-5.88434,-8.40274,27.8223,-5.13016
5.52583,1.11213,7.00272,18.1213,5.35991,5.37401,18.1499,5.45629,4.8759,18.311,4.86896,6.03227,17.9792,6.29932
5.60905,0.201965,-7.00326,2.83411,5.95889,-6.55315,3.82062,4.64374,-7.61013,3.78235,5.12025,-6.47164,3.72629,4.6905
0.901756,0.268012,3.01536,15.8874,0.762925,4.28789,15.8008,0.798289,4.57154,15.9271,0.794728,4.10581,15.7001,0.793448
1.51586,0.114103,8.8798,5.42397,6.08854,8.61748,5.16688,5.6667,8.60505,5.14443,6.12978,9.61948,5.69383,6.0852
3.37694,1.72436,1.25918,16.0915,1.38059,1.17369,18.2143,1.62253,1.09856,18.1596,1.65013,0.951721,18.1365,1.60386
0.339283,0.103037,-7.19868,25.2076,-4.98297,-7.03316,24.5439,-4.91751,-6.99591,24.5656,-4.7874,-7.07453,24.6571,-4.90956
6.74011,0.720623,-8.55783,12.9917,-4.76658,-7.76389,13.204,-5.85525,-7.51059,13.6333,-6.07343,-7.5397,13.7521,-6.1053
13.1784,0.105034,-6.18157,22.0935,-4.63533,-6.57904,20.8521,-7.71141,-5.5048,19.873,-4.56071,-5.85996,20.7291,-4.80569
2.51781,0.0590075,-10.5343,18.3909,5.54425,-10.707,17.9379,5.44672,-10.7583,18.1769,4.52183,-10.724,18.3714,4.44194
2.21224,0.331881,-9.66206,8.23246,6.64822,-9.92998,8.87397,5.54057,-9.99633,8.39808,5.21718,-10.0373,9.13741,5.41464
0.866277,0.0363217,-10.0894,21.3404,-7.21607,-10.1814,21.4495,-6.98966,-9.96853,22.0252,-7.55806,-9.90725,22.0132,-7.67269
7.66721,0.0862182,-5.43868,7.67107,8.30923,-7.78265,7.4508,7.21653,-7.6758,7.82723,7.24779,-4.92735,7.48547,8.6805
3.15279,0.0228146,-10.207,20.7037,4.57686,-8.82239,21.173,5.29553,-8.89014,22.0726,4.59238,-9.08791,21.2766,5.02351
4.29317,0.0108115,-2.73113,6.07923,-0.351398,-1.1765,5.61563,-0.063391,-1.43592,5.56707,0.321068,-2.42388,6.11604,-0.774752
8.72089,0.156008,-7.05683,11.0187,-3.61362,-7.41156,12.2769,-5.56778,-7.02825,10.5778,-3.27462,-6.62758,11.6218,-5.23863
1.15015,0.32624,1.39199,9.28302,8.74711,0.0650794,8.98864,8.68332,-0.108041,9.20879,8.69767,-0.0542398,9.09708,8.68183
1.16667,0.0982145,-10.5164,20.5585,-6.20621,-10.2279,21.4625,-6.87517,-10.2824,21.6025,-6.77923,-10.4032,21.7532,-6.56968
8.40866,0.230988,-5.23061,21.2703,5.64671,-4.73165,24.1526,5.19227,-5.25578,23.085,5.06084,-3.60081,22.5244,6.12671
6.1349,0.967595,-9.15452,26.8531,-5.89805,-8.77729,28.3897,-4.3718,-8.43265,28.3801,-4.66375,-8.6908,27.9029,-4.61396
2.42505,1.827,-2.82763,10.9221,-0.78697,-2.91177,9.0301,-0.702324,-2.7986,9.07522,-0.581485,-2.71131,9.09968,-0.539529
2.76092,0.13181,-5.86028,28.7288,0.923818,-6.24375,28.4715,1.36081,-5.06544,28.7345,2.46908,-5.25261,28.6058,2.49911
10.427,0.458547,-4.05691,2.11385,6.1866,-4.61863,1.46436,6.32204,-2.94552,2.56646,4.78604,-6.3166,2.31174,5.95885
3.11231,0.783665,1.15863,6.8577,1.00695,0.884044,4.90419,0.645238,1.83398,5.10205,0.15333,0.98729,5.28946,0.519251
13.2513,0.117401,-10.5866,24.1548,-1.62253,-10.8251,22.7031,-4.06891,-10.6732,23.5973,-3.01196,-10.7528,21.6244,-3.65575
1.79309,0.62401,-5.57122,19.8743,6.27155,-5.04007,20.6229,6.07403,-5.00093,20.1343,6.38659,-4.99445,20.2118,6.30477
1.87166,0.203158,-10.372,8.7235,3.90234,-10.1305,8.82463,4.83112,-10.1818,9.05126,4.4314,-10.2563,9.65391,4.52471
29.8892,0.524962,10.2217,9.09991,3.42478,9.41392,6.44847,4.54907,8.82544,6.27634,3.12144,8.95973,5.95223,3.68407
5.9479,0.262314,2.65587,17.8403,0.979211,8.30076,17.7336,0.855546,8.49459,17.6273,0.850214,7.81608,17.8392,0.853044
17.1371,0.291842,-4.67351,26.5605,-0.247213,-5.57665,26.4797,-2.04808,-4.27221,27.7908,-0.0156642,-3.71445,24.806,0.36249
4.9783,0.310234,0.513169,11.2459,8.49817,-0.061262,11.7422,8.83219,1.95435,11.0503,8.77167,0.0888385,10.5916,8.8042
0.970553,0.00116324,-10.6332,24.4936,-6.10416,-10.5062,25.376,-6.64436,-10.4804,25.2296,-6.74606,-10.4829,25.0955,-6.73233
9.31554,0.27662,-8.15325,25.3253,2.63932,-6.81595,24.8693,3.64918,-6.47409,24.2986,4.09142,-7.48369,23.4954,4.25978
1.22036,0.197205,-6.18552,19.9339,-7.11803,-6.32065,20.9324,-6.57749,-6.28271,20.6894,-6.52158,-6.19403,20.3265,-6.57037
14.9816,0.363878,-8.30422,19.9769,-7.63942,-8.38215,18.5991,-7.32203,-9.49756,20.633,-7.76535,-7.94658,20.609,-8.64498
1.37021,0.783011,-9.76809,24.86,1.77509,-10.5129,24.7436,0.438633,-10.4896,24.9583,0.32866,-10.5184,25.0719,0.248014
6.73858,0.48172,-5.51848,11.9377,8.30409,-2.0051,12.39,8.65008,-2.03692,12.1975,8.69548,-2.89115,12.5277,8.62875
8.56842,0.107602,10.5987,14.2055,3.1886,10.2141,13.5462,1.99414,10.3163,15.8494,2.63666,9.83476,15.2037,1.49213
2.09455,0.675023,9.47446,16.7896,5.60049,8.90572,16.4536,6.34792,9.19289,16.0835,6.75757,8.34902,16.946,5.69238
3.73336,0.0997924,-7.27061,5.26746,3.45643,-6.76248,6.48715,1.39448,-6.95698,5.4601,2.93236,-6.55743,6.58487,0.936656
6.67994,0.210343,-9.22917,23.2547,3.03781,-9.34589,24.7178,2.24364,-8.43404,22.949,4.15047,-8.3653,23.2188,4.01688
3.1036,1.85393,3.42129,17.6019,6.66738,5.35445,17.8659,6.5247,5.46855,17.7317,6.76106,5.14805,18.0384,5.94238
9.12654,0.296246,-6.57662,27.7555,2.13508,-6.17396,28.4671,1.6278,-6.99134,27.1147,2.01708,-7.07758,27.1356,2.04016
4.26419,0.103511,-10.6353,24.8643,-3.2395,-10.6856,24.5348,-2.88524,-10.8133,23.0053,-4.18196,-10.734,23.3578,-3.49613
2.6606,0.0562761,4.56628,3.7622,8.14042,4.61681,3.40533,8.0262,5.55525,4.35502,8.12939,3.95521,3.95501,8.50498
25.0682,0.685959,-9.49714,17.7304,-6.84298,-10.2071,14.517,-3.81345,-10.2878,19.3171,-6.60983,-10.1873,14.2328,-3.8785
3.34773,0.0220677,-9.07613,15.4453,-6.36566,-9.13953,14.249,-5.42658,-9.53054,13.9116,-4.42301,-9.54419,14.1531,-4.57148
7.20498,0.0914028,11.128,13.2984,6.15022,10.8847,11.121,5.78285,10.3818,10.2798,6.63916,10.2697,10.4715,6.94946
9.6897,1.29812,-10.564,16.4559,-4.01154,-10.585,19.3997,-1.91932,-10.5433,18.2393,-1.85349,-10.5706,19.3152,-1.89953
5.77326,0.175674,8.12902,7.49354,7.86781,7.66496,6.61046,8.09142,8.79249,8.15276,7.91849,7.89395,5.50664,7.85552
0.140383,0.0124004,4.43181,7.87981,0.629446,4.90097,7.60618,0.563725,4.48657,7.68822,0.570296,4.86858,7.72488,0.608746
5.34637,0.708991,10.2415,12.6945,2.27931,9.38437,11.7798,1.76018,8.57213,12.8512,1.33537,6.23589,12.9019,1.11904
2.34365,0.263287,-11.2586,9.83271,1.14422,-11.0664,9.98516,-0.144561,-10.9598,9.79599,-0.284774,-10.9493,9.20304,0.0709212
0.16733,0.0477661,2.86124,6.69145,0.192308,3.16035,6.40452,0.0875226,3.25344,6.53988,0.128342,3.28164,6.43631,0.103351
2.10239,0.0313314,1.24268,2.39389,4.70523,1.69945,2.66269,4.326,0.352374,2.30379,4.87645,0.0751263,2.5928,4.62482
3.31241,0.0815425,-4.49949,22.5351,-1.58449,-5.13186,22.2102,-2.82761,-5.00653,22.1589,-2.67327,-5.6212,22.7634,-3.24064
0.248763,0.000813068,8.83261,8.94061,1.09544,8.31751,8.95844,1.04422,8.34165,8.85732,1.03671,8.7804,9.05461,1.10057
1.28319,0.129813,6.64188,8.70032,8.632,6.36199,8.98688,8.76981,6.33758,8.45546,8.76009,7.33597,9.05898,8.7621
1.72287,0.292823,-10.5714,14.2044,-3.05454,-10.5423,15.3498,-3.22926,-10.5266,15.5047,-3.44661,-10.2835,15.0198,-3.80488
0.888311,0.0113124,-10.6339,22.7927,2.53631,-10.3537,23.3544,2.40185,-10.578,23.1862,2.16857,-10.4028,23.4715,2.17628
0.310551,0.0318679,8.16001,14.8463,7.71132,8.31378,15.1716,7.56603,8.09598,15.2041,7.60099,8.21212,15.3323,7.54593
3.68994,0.987961,-6.03866,11.3294,7.66863,-4.23515,11.1487,8.68918,-4.24446,11.2083,8.66922,-4.42283,11.4993,8.57808
0.842213,0.0407026,6.52564,5.64838,8.40781,5.46693,5.72815,8.59471,5.37928,5.85534,8.64389,5.50096,5.8996,8.64383
2.72166,0.123201,4.80934,3.55228,0.520489,3.46054,4.17235,0.585005,3.54913,4.09336,0.692849,3.41699,4.29848,0.190689
4.70083,0.259456,-0.394857,18.2542,0.655912,-0.456842,16.7917,0.599094,-0.88473,16.6676,0.316584,-0.0412996,16.3113,0.738937
2.97621,0.1395,3.43831,9.09061,0.951267,5.48933,8.91842,1.01305,2.65102,8.97076,1.05719,5.73456,9.02387,1.05708
1.6296,0.397106,-2.18549,24.6848,5.02442,-2.96164,24.5897,5.25761,-3.28791,24.8661,5.4323,-2.99158,24.4571,5.36326
1.28023,0.977575,-2.02916,1.92941,5.03877,-1.18066,2.35927,4.676,-1.51739,2.78329,4.48042,-1.41664,2.66118,4.56095
0.828682,0.297848,3.30004,3.34948,2.35067,2.77681,3.31282,2.7443,2.75922,3.39206,2.68311,2.83572,3.64735,2.18884
2.03388,0.335361,-10.7682,21.0239,-5.3613,-10.7364,21.8612,-4.43848,-10.7248,21.7373,-4.41608,-10.7893,20.9651,-3.65388
16.0876,2.0097,-10.002,5.00045,4.53191,-9.90617,7.37158,5.45067,-9.6232,6.99056,5.82452,-9.31542,6.45419,6.58177
4.00576,0.196057,-6.05741,18.5993,8.15157,-7.24436,17.4176,8.02561,-5.99225,17.5837,8.43618,-7.21759,16.8028,8.06831
10.1211,0.771802,-7.16001,17.3772,-7.65435,-5.60957,16.0235,-6.2381,-5.94163,18.1581,-7.256,-6.03664,15.4426,-6.85875
13.6279,0.216035,-4.83514,6.95734,-0.81031,-4.2232,7.40232,-2.32396,-6.15036,6.16689,0.992108,-5.25557,7.98876,-2.06888
3.35513,0.60161,-10.5654,21.427,-6.16328,-10.658,22.6621,-5.07093,-10.7315,22.6881,-4.87546,-10.8215,22.5005,-4.42896
3.63424,0.0394968,1.09756,4.8854,8.76915,-0.811368,4.76006,8.58673,-0.839262,4.8854,8.58597,0.614094,4.71129,8.74986
4.58803,0.000196359,-9.86193,25.8079,0.879952,-9.99588,26.685,0.024131,-9.60319,27.486,0.401234,-9.59388,26.5647,1.00422
0.122988,0.00781531,-10.8553,26.1451,-1.87059,-10.8144,26.4686,-1.64228,-10.8247,26.4826,-1.85199,-10.8605,26.2449,-2.01865
1.48881,0.0751226,-11.2142,15.5244,2.73812,-11.1838,15.5744,2.34773,-11.0917,16.8109,2.56651,-11.0327,16.7728,2.32448
1.27045,0.0466412,-10.1565,9.5571,-0.426935,-10.5428,10.1079,-1.02892,-10.354,10.1996,-1.39666,-10.4628,10.2545,-1.36693
0.611802,0.0898524,-4.3163,29.2169,0.76066,-4.65509,29.2834,1.06304,-4.74705,29.2369,0.917655,-4.41559,29.3473,1.10953
4.32081,0.123192,-6.63648,5.4853,2.65132,-6.23644,6.0327,1.19521,-5.99264,5.19459,2.1494,-6.30288,4.53828,3.41785
1.47393,0.064869,-10.7057,18.5089,-4.25212,-10.6769,17.7474,-3.83779,-10.6887,18.761,-3.01865,-10.7003,18.885,-3.04104
3.66424,0.315196,8.02983,18.0108,4.13851,7.85165,17.4556,5.24046,8.14473,17.174,5.44204,7.50291,17.6352,5.59923
2.67601,0.154295,-3.47824,24.6213,0.706804,-3.37064,23.2551,0.310894,-3.62542,24.9071,0.492679,-3.47114,23.4908,0.297969
0.539085,0.0299066,5.02914,11.7777,1.17366,4.67298,11.6153,1.16255,4.04096,11.577,1.07646,4.13789,11.7266,1.08235
7.70549,0.364747,3.88677,10.8287,1.09769,9.4098,11.6499,1.76251,8.4053,11.0386,1.56485,9.38176,11.5758,1.75585
1.27,0.237749,-0.803088,27.7173,1.97128,-1.1759,26.5423,1.86112,-0.906641,26.5754,1.92114,-1.37654,26.4913,1.82159
6.06097,0.259491,-10.5164,25.3879,0.00776572,-9.58533,28.1816,-0.845118,-9.74293,27.5738,-0.27333,-9.97122,27.479,-0.893731
3.85751,0.198066,-10.3763,20.5756,4.39319,-10.8484,18.6668,3.77157,-10.7281,18.592,4.15804,-10.7859,18.5523,3.98061
0.672511,0.0928834,-1.91015,18.024,8.6545,-1.67635,18.8906,7.91896,-1.81913,19.0258,7.89775,-1.90511,18.7184,8.20833
17.3228,0.0303777,6.87804,8.33122,1.04878,4.67873,8.37571,0.812731,7.41743,9.86033,1.42155,5.57968,9.63192,1.1507
1.73893,0.152749,-6.62122,21.3752,5.4201,-6.37136,22.2237,5.24505,-8.03427,22.0596,5.03278,-7.99153,22.121,5.0121
5.17195,0.0325495,-10.6876,16.509,-2.53035,-10.4372,18.1637,-1.03039,-10.4266,18.2669,-1.17527,-10.6039,17.3127,-2.50696
10.0129,0.481598,-3.34233,16.7506,-1.68004,-4.07919,17.8462,-2.87406,-3.3723,18.7479,-1.31273,-4.5947,17.5718,-3.76545
1.54812,0.0326142,1.53755,18.4164,5.96631,0.808589,18.2533,6.8931,1.23994,18.1864,6.79796,1.12148,18.4199,6.29652
3.93171,0.205055,-7.15258,2.09934,6.38321,-7.25798,0.690273,6.56817,-8.30353,1.48906,6.29841,-7.08367,0.968741,6.49554
17.5953,1.02879,3.39699,14.5778,0.77983,7.35632,15.2582,0.7768,7.80209,15.0698,0.73266,8.00905,13.8542,1.05269
18.4403,0.312217,1.52886,11.0343,1.56474,1.27283,8.01075,1.33394,3.35132,10.5377,1.08231,2.89354,11.0547,1.11716
1.92622,0.0277016,-1.2456,5.55267,0.315637,-0.318633,5.21233,0.404521,-0.503994,5.26879,0.487652,-0.904819,5.53718,-0.170964
0.497482,0.532219,10.0432,6.43598,5.36093,10.2759,6.80718,5.92979,10.2529,6.72528,6.00525,10.2475,6.66365,6.03974
0.531468,0.0693243,-3.0546,21.3163,6.54651,-3.53109,21.4568,6.58596,-3.39441,21.6184,6.45767,-3.79379,21.6398,6.48693
0.733871,0.0448585,-10.6768,21.544,-3.15255,-10.7099,21.0986,-3.01079,-10.7156,21.1135,-3.11135,-10.6888,21.1831,-2.61601
3.68566,0.00887001,-7.73482,24.0112,-7.76236,-6.87843,23.1012,-6.99978,-7.1207,24.0549,-6.55347,-7.24064,23.3105,-7.49965
16.6012,1.71977,-0.15199,20.4182,3.1927,1.1339,26.2224,3.18111,1.41992,23.1609,2.72611,1.19268,20.1293,1.93196
6.46511,1.01509,-3.0712,24.214,0.90795,-2.84633,21.9745,0.931188,-3.09758,21.7785,0.511659,-2.73737,21.9504,1.02138
6.96968,0.747506,-2.79151,8.88642,8.60766,-5.98546,8.21344,8.22737,-4.85619,8.18679,8.53025,-2.99065,7.81865,8.8599
3.23263,0.948429,-7.90745,7.89,7.13871,-9.13574,6.52948,6.79329,-9.05812,6.79854,6.76023,-8.86846,7.87549,6.90891
1.70002,0.567389,-10.1278,19.6865,-6.69177,-10.1347,20.4453,-6.82287,-10.3125,20.7206,-6.6457,-9.88832,19.8753,-7.33871
1.51022,0.0305214,10.8591,11.0351,5.79042,10.7987,10.112,5.39848,10.8801,10.4797,5.22842,10.7096,10.1481,5.83519
3.84341,0.169006,-8.52217,18.5947,-7.25629,-8.53246,16.8157,-7.44064,-8.44782,17.2122,-7.47203,-8.60802,16.7035,-7.33601
4.17072,0.164926,-2.70639,14.8639,8.60263,-1.66091,15.1495,8.76516,-3.13214,15.2707,8.68346,-3.77218,13.9415,8.8819
4.40852,0.23347,-10.0374,27.2071,-4.07268,-9.76507,28.4076,-2.31252,-9.52722,28.573,-2.85853,-9.76389,27.9803,-2.95153
1.69875,0.192449,-2.89014,24.4627,1.14555,-3.42452,26.2834,1.12833,-3.4157,25.8269,1.04797,-3.43525,26.0774,1.08808
5.28683,0.107063,2.94357,13.8011,0.805995,8.3231,13.55,1.1417,8.05692,13.5027,1.14447,6.97083,13.8043,1.04035
0.620262,0.0690167,-7.14489,19.18,-8.68818,-7.28577,20.5549,-8.53669,-7.20791,20.7476,-8.47246,-7.42834,20.4408,-8.6282
2.26313,0.190065,-2.16411,25.7272,1.74697,-1.64269,27.8215,1.68123,-2.65669,27.0207,1.5602,-2.36752,26.7225,1.69752
9.28577,0.0698966,-5.53029,18.9562,-5.03348,-5.98726,18.9609,-7.26558,-6.11396,20.3864,-6.23517,-5.90094,20.6692,-5.02739
5.15404,0.381464,9.60303,10.6864,7.69054,8.42659,10.0811,8.04336,8.07021,10.1157,8.2796,8.40604,9.46995,8.08412
2.62171,0.0594481,-3.05563,6.38786,-0.923513,-3.05934,5.48671,0.653019,-3.41843,5.35143,0.842693,-3.78444,6.32671,-0.771626
4.22569,0.227783,2.72622,1.48154,6.09486,4.93005,2.45382,5.7046,4.10178,2.16221,6.32252,4.24537,2.20047,6.57089
4.13865,0.501647,-6.15292,25.7823,-2.98989,-6.12145,22.8984,-3.84045,-5.93791,22.325,-3.90853,-5.87863,22.3178,-3.80767
12.3879,0.518047,-10.7601,11.6507,3.55175,-10.3865,12.4512,6.17495,-10.0706,11.2292,6.00341,-10.0002,10.9834,6.34947
0.796325,0.0455648,-10.8288,20.5494,-4.38337,-10.7758,19.6835,-4.62658,-10.766,19.5752,-4.73808,-10.7828,19.6723,-4.88845
0.424217,0.0431854,4.11436,11.849,1.06314,3.58914,11.6612,1.03763,3.53599,11.5136,1.0409,3.34626,11.8232,0.985604


