
1.21894,0.278713,2.52673,27.2175,4.34948,1.9983,26.7109,3.81195,1.98642,26.3678,3.71597,2.04119,26.5254,3.85868
4.30314,0.152853,-4.77117,36.5273,7.97102,-3.36776,36.5568,8.55499,-4.88125,36.3398,8.05521,-4.52206,37.7294,8.51196
10.5986,0.534663,6.81397,21.2413,2.69341,7.82427,21.46,4.09526,7.06208,22.7471,4.63484,6.64536,23.3881,4.79551
0.0444072,0.0338148,-10.8929,36.4561,3.97802,-10.8959,36.5896,3.79814,-10.8913,36.4435,3.83471,-10.9187,36.5091,3.70742
7.17372,0.0312232,-1.30783,11.394,6.34441,-1.07533,10.0658,5.89702,-0.226088,10.2844,6.87696,-0.64761,9.29385,5.90551
8.37611,0.0274813,-2.23069,11.2964,4.25697,-2.76679,11.53,5.28769,-1.69574,11.0617,3.45654,-1.87284,10.501,5.48239
18.1569,1.31953,9.02387,16.8334,0.269101,10.4813,16.2688,1.68537,10.5299,16.7076,2.20069,10.8038,15.7858,1.12972
22.7126,0.209063,2.29673,13.0093,-7.71903,-2.28383,12.5704,-7.44784,-0.97714,13.222,-7.47522,-1.12208,11.3442,-7.43901
14.1355,0.185312,4.04535,14.5035,-5.86981,5.72228,13.9778,-6.07691,0.69271,16.0509,-6.14218,2.58353,15.4929,-4.76065
0.453954,0.182056,-8.1655,20.476,-1.90287,-8.31701,21.0695,-1.65439,-8.2061,21.0317,-1.76228,-8.16682,21.1471,-1.84167
7.29081,0.470605,-8.73591,22.6045,6.13617,-8.78475,24.0556,7.02481,-9.1213,22.1665,6.39115,-6.24804,22.3698,7.54221
5.33728,0.217148,-1.89798,33.1382,7.83399,-0.453366,33.2831,8.4599,-2.33666,33.375,8.13625,-0.357302,33.0715,8.35765
9.32832,0.300535,-4.99743,21.2494,7.35189,-3.56819,20.7138,8.15313,-4.55209,21.643,7.5057,-5.59593,21.3294,7.60278
9.66993,0.0124065,4.26345,7.92322,-7.29901,2.57059,8.83785,-6.93263,3.33028,7.66419,-7.03033,2.20093,8.82583,-6.83852
4.08337,0.0468883,-0.76051,32.555,1.20055,0.413379,32.7159,1.20576,-0.407758,32.4576,0.687184,0.147154,32.8126,1.55206
2.0302,0.25265,6.30515,15.5259,8.03545,7.10574,16.6091,8.62524,7.10029,16.7462,8.64059,6.8667,16.5972,8.56527
5.451,0.164298,-7.75217,36.1303,0.882084,-7.07156,36.3092,0.841944,-8.08244,35.9082,0.552347,-7.87955,38.06,1.71432
1.48909,0.00764986,-3.4112,37.9938,7.81548,-3.65541,37.7149,8.51797,-3.36692,37.8652,7.98141,-3.58204,37.6476,8.54307
2.40769,0.0975259,-9.89733,38.186,2.19302,-9.94054,38.7758,2.84263,-9.71522,39.2593,3.29172,-9.64164,39.0596,3.12125
0.293643,0.0699777,-5.13253,39.4934,5.52483,-4.90255,39.1588,5.28901,-4.72837,39.1254,5.43092,-4.75456,39.0632,5.26925
15.3765,0.131132,-7.89209,17.9164,0.611017,-6.71803,15.8415,3.41102,-6.39805,15.5909,1.91238,-6.30855,15.3113,3.34628
1.87615,0.26136,5.20323,8.7756,6.29624,5.40607,9.19922,6.60889,5.41553,9.32418,6.80832,5.61634,8.86391,6.34853
6.20748,0.355261,-3.27553,36.1019,8.29266,-3.82393,35.3596,8.34554,-2.30844,36.3787,7.72494,-2.19769,36.5831,7.18423
12.1633,0.0531482,-10.3974,30.3277,4.82415,-10.97,30.5241,3.01415,-10.9291,29.2643,3.04027,-10.6409,30.9084,4.21342
4.04985,0.237537,-9.78447,28.8807,1.64469,-10.374,27.7117,1.42225,-10.5126,27.7421,1.3951,-10.3646,28.9404,1.29574
3.23552,0.276833,6.64033,17.2299,-2.48718,6.49697,17.1312,-2.86292,6.20498,17.6888,-2.84638,6.88841,16.9589,-2.75747
2.00364,0.229561,4.24747,5.55282,-6.62527,4.93577,6.67922,-7.07659,4.84059,6.85763,-7.12102,5.24712,6.26184,-7.00236
14.3397,0.976915,-9.93662,29.3452,1.62426,-9.67056,31.3866,1.27994,-9.05316,31.104,1.03142,-9.37714,32.1626,1.51225
9.13629,0.558552,-0.353682,5.47787,0.52284,-0.732152,6.31938,2.2204,-1.31958,7.13398,1.58946,-0.986798,6.77917,1.52487
15.4689,0.715975,0.792138,22.1131,0.0367626,1.75959,21.7489,-2.37411,0.674345,23.0026,0.141124,2.09463,21.6188,-2.34989
1.43734,0.328688,-9.20037,40.7335,7.24488,-8.73329,41.2365,7.03682,-8.63274,41.0764,7.06561,-8.41949,41.092,7.1267
17.686,0.615025,-8.19751,30.5929,0.291202,-7.78269,34.9462,0.096639,-7.7863,33.9248,0.254563,-7.14923,34.2841,-0.48672
11.155,0.0963271,0.828612,29.8425,1.90799,1.23857,29.2112,2.38107,0.766771,31.1192,1.45781,0.81446,31.6103,1.43662
1.20568,0.0164746,3.95678,3.17272,-6.09378,3.49062,2.93751,-6.06883,3.14946,3.83547,-6.14941,3.44051,3.93285,-6.17021
1.30359,0.0670251,10.3018,8.7455,-5.54302,10.1196,8.23892,-5.06781,10.616,8.80139,-5.8109,10.5945,8.27524,-5.6128
1.41728,0.204718,8.50694,23.6244,7.98925,8.25036,23.2895,8.66095,8.30444,23.2197,8.66606,8.22402,23.4893,8.55532
2.58734,0.0618367,10.0846,20.5299,7.16444,10.3396,20.6507,6.69752,10.0682,20.9601,7.47382,10.068,19.7173,7.20571
4.45054,0.112031,8.72692,7.74086,-3.72269,8.41521,6.91196,-2.99669,8.75349,6.10527,-3.25417,9.17929,7.01369,-3.95724
1.07124,0.0175897,6.16099,15.6376,-4.14841,5.47257,16.0122,-4.05307,5.14105,16.0592,-4.08067,5.57555,15.5003,-4.3563
12.3946,0.278999,3.41539,21.4258,-1.1634,4.41064,20.5475,-1.84049,7.18368,18.3529,-1.48998,5.99738,19.5837,-1.1704
3.05059,0.0947202,-0.745338,15.2002,7.62168,-0.882278,14.6537,7.3151,0.162892,16.6085,8.22873,0.213609,16.5279,8.22277
7.71606,0.343543,-4.29205,22.4602,7.2321,-2.97712,23.9126,8.15637,-4.10851,21.8046,7.44282,-5.02722,22.2339,7.42902
4.34298,0.41625,-1.08014,8.22498,-0.447097,-1.14106,6.66091,-0.273144,-0.806065,6.54817,-1.08025,-1.14017,7.40973,-0.871979
3.37375,0.989654,-7.71939,36.7815,7.7626,-9.07702,36.9889,7.18825,-9.11178,36.8718,7.19413,-9.0339,36.9195,7.17007
12.7029,0.0393063,6.11955,2.28736,2.04762,5.1797,3.33975,3.68553,6.18167,1.801,1.23801,4.54878,2.6131,1.99779
37.5961,0.0870362,-9.83146,24.2306,6.15914,-10.4518,29.3574,4.5711,-10.1293,29.1906,5.34507,-9.69828,30.6405,6.42449
0.268898,0.0165461,-2.26646,9.71832,-4.49523,-2.50191,10.1921,-4.4809,-2.52675,10.2426,-4.34236,-2.43467,10.0403,-4.29024
0.940674,0.0320118,2.28075,8.59816,6.21056,2.24836,8.80707,6.45645,1.53665,8.98985,6.38912,1.64561,8.8326,6.19969
2.18423,0.203797,0.935185,29.4639,8.10782,0.714686,29.754,8.61758,1.01987,28.5606,8.3211,1.23837,29.4779,8.09099
21.7699,0.240808,-9.41659,34.3688,1.89338,-10.4193,37.936,2.44629,-9.55465,38.0392,1.83069,-8.88436,37.3338,1.3246
3.03333,0.0495261,1.10197,10.9193,7.4023,1.98309,10.5908,7.73633,1.75799,10.7734,7.71997,1.01529,10.1203,6.98926
1.27617,0.64891,-4.42302,16.8429,8.0347,-5.57531,16.5937,7.65623,-5.84963,16.7635,7.60543,-5.7038,16.7093,7.60921
4.44765,0.0274489,9.30909,10.8256,-7.22731,8.78801,11.5743,-7.14669,7.65677,12.4063,-7.20281,7.8796,12.3835,-7.13886
2.86658,0.141243,0.53411,32.9586,1.80539,-0.588452,33.2183,2.38151,0.383142,33.2413,2.14084,-0.655371,33.1945,2.34734
4.00663,0.446273,4.06524,9.36272,6.95816,3.00914,8.539,6.09046,2.50398,8.8002,6.47084,2.9952,8.65065,6.18291
1.32137,0.395377,-9.44987,38.8413,2.85063,-8.6792,39.3817,3.06198,-8.70307,39.4285,3.14743,-8.62444,39.6575,3.26499
7.97058,0.110117,-7.67949,34.7825,7.72431,-9.27304,34.8158,7.01643,-8.74767,34.5154,7.12631,-5.71203,34.6162,8.29012
3.58561,0.377212,-9.33895,20.8301,1.50063,-9.98468,22.4426,0.876849,-10.0764,22.9038,0.762234,-9.92833,22.4979,0.753244
2.75777,0.0142385,-1.20844,9.48404,4.54254,-0.946423,9.2198,5.45805,-0.997693,8.88207,4.35059,-0.824424,8.43354,4.37969
0.614408,0.195662,-0.261985,29.1064,-0.120631,-0.427908,28.8216,-0.337118,-0.323363,28.5331,-0.311165,-0.47502,28.8793,-0.453169
5.96327,0.168145,-3.84199,20.54,-4.38186,-3.3391,19.1211,-4.73089,-3.69198,21.8109,-4.36016,-4.3278,19.5391,-4.72239
20.8565,0.101898,7.04818,9.47678,3.59184,7.59376,11.4937,3.81579,6.83623,10.1786,4.41949,8.47665,9.95913,1.77764
6.43483,0.575565,4.53467,7.89176,5.85021,5.81857,6.20571,4.87146,5.22568,6.17758,4.85013,5.47079,6.04933,4.82437
11.0813,1.88475,-7.48278,38.1787,8.00584,-9.39434,38.0222,7.13938,-9.12884,38.289,6.95211,-9.21682,38.6334,7.21873
5.37946,0.11328,0.387018,21.8913,-3.1394,1.57522,20.7987,-3.6026,-0.185413,20.4805,-3.65016,2.06936,20.1021,-3.81608
15.272,0.894915,-3.61092,16.6302,-6.37832,-1.67001,18.1727,-6.39895,-1.75031,17.9592,-6.66029,-1.65635,18.1516,-6.55518
1.09234,0.138649,10.277,15.7274,0.361237,10.2857,15.8809,0.0526243,10.6023,15.6592,0.42748,10.1142,16.029,0.487253
6.06013,0.0418226,10.014,9.94031,-6.90282,9.34685,12.7925,-6.51384,9.39085,11.892,-6.90382,9.30809,12.692,-6.62102
4.20086,0.165786,1.52204,8.50483,5.83247,1.92278,7.08025,5.04542,1.45656,7.81531,5.35598,1.12022,9.29723,6.54236
25.6708,0.292145,6.51034,18.125,7.15289,9.19605,17.8991,7.92791,8.60734,17.2353,8.45461,6.11209,17.9653,7.64646
1.2241,0.0392842,5.13644,4.79905,4.46663,5.90848,4.82186,4.45107,6.09076,4.42034,4.29711,6.20521,4.6509,4.39054
7.55794,0.348015,-4.99573,14.5081,-1.43069,-6.41605,17.2488,-1.83288,-6.36715,17.17,-1.72619,-6.07674,16.5363,-1.38696
0.336189,0.0231635,8.42318,6.04562,-0.380227,8.28785,6.53243,-0.504646,8.30301,6.54932,-0.408793,8.42611,6.18706,-0.296106
4.48706,0.141079,9.10784,12.3445,2.61861,9.03347,11.3605,1.99883,9.15437,12.5387,3.04367,9.78751,12.8628,2.43859
4.88106,0.252288,-1.32055,12.406,6.74028,-0.547034,12.6451,7.5448,-1.22978,11.3537,6.38231,-0.877724,12.7615,7.48796
49.7147,0.377139,-5.5088,34.8937,-0.278217,-4.44987,36.5661,1.75383,-5.05304,33.2003,-2.12664,-3.46463,35.5531,1.73699
6.55561,0.465721,-6.05334,20.8691,-3.83135,-5.76606,19.2253,-3.99036,-6.45554,19.6562,-3.6349,-5.70311,19.5271,-4.16482
3.1137,0.0511142,0.524502,28.8391,0.748838,0.232758,29.3796,0.359353,0.354535,27.1212,0.539542,0.399809,28.0821,0.563684
5.74235,0.0526633,3.65849,5.1601,4.04253,3.47888,3.96877,3.67605,4.44479,3.88879,3.99015,5.01431,4.9565,4.51375
3.81195,0.167614,3.5206,0.949051,-3.12806,5.41909,0.593252,-2.99574,4.90772,0.608648,-3.37003,4.3608,0.652335,-3.50549
3.59363,0.251529,-3.56148,21.4447,7.11953,-3.36727,21.6878,7.18701,-2.60608,20.6488,7.86833,-4.07584,21.606,7.48744
2.74987,0.066139,-8.00727,18.2062,5.51555,-8.96427,19.3695,4.4275,-9.11308,19.5192,4.79738,-9.05926,19.4894,4.38767
2.99292,0.138307,-7.00012,20.8652,7.52901,-8.13344,20.9136,6.90922,-8.10994,20.8518,6.92486,-6.02599,20.96,7.76942
0,0.00223945,10.5621,13.3454,-5.55921,10.5703,13.3506,-5.55989,10.6204,13.3372,-5.57468,10.5599,13.3489,-5.55947
6.91072,0.603656,6.6404,22.1708,7.55689,6.69356,20.6127,8.3396,8.14309,22.1661,7.99165,6.32936,22.6019,8.15631
2.65523,0.16563,-6.95418,20.7028,-2.93194,-6.82755,20.1901,-3.24913,-7.09558,21.3883,-3.07314,-7.29424,21.0552,-2.85866
3.00444,0.0415031,1.21831,7.3169,5.04633,0.612767,6.30387,4.33422,1.141,6.25707,4.39495,0.403276,6.28344,4.28483
2.00769,0.938358,-6.2328,29.9025,7.95328,-7.27527,29.6922,7.84997,-7.30653,30.0865,7.88694,-7.33313,30.1287,7.92745
15.6782,0.43759,6.86064,2.49058,1.38718,7.85968,4.93079,0.788316,7.55111,1.40132,0.338795,7.60096,4.98584,1.54806
3.42218,0.931184,3.29202,16.7808,8.16141,2.08728,14.97,7.51922,2.29803,14.9909,7.5356,2.13736,14.8908,7.54376
13.2286,0.567174,9.81536,14.408,3.77947,9.57307,16.6809,5.28825,9.16328,16.1984,5.40183,8.77879,15.2645,5.3668
1.68807,0.0187571,7.54906,12.5622,-7.20664,6.33906,13.6269,-7.47349,6.99178,13.0168,-7.41958,6.63898,13.3801,-7.30873
10.1265,0.214321,-4.68124,28.3283,6.75059,-4.60698,29.5249,7.63466,-5.62051,27.05,8.04196,-4.50974,28.2683,6.86458
26.324,0.657251,-4.84699,13.989,6.31826,-8.79339,19.1594,3.12377,-7.2889,17.57,4.95952,-8.03448,18.363,4.31149
1.74408,0.189216,-4.81024,20.6611,-4.68869,-4.74901,21.4864,-4.14097,-4.95425,21.4167,-4.22456,-5.002,21.2799,-4.29099
4.57603,0.937775,8.18054,13.4635,-5.49078,6.42531,14.194,-5.51216,6.28232,14.1119,-5.65086,6.72958,14.3066,-5.36436
5.55176,0.150616,5.55158,3.49076,-6.27588,5.37855,5.65502,-6.82752,4.49737,4.88364,-6.41874,5.64545,5.6223,-6.86012
2.53712,0.613068,3.97452,24.0553,3.90977,4.92958,22.9049,2.87753,4.92671,22.8637,2.79168,5.20437,23.0062,3.07411
4.25705,0.193877,-9.09102,19.5718,5.97491,-9.72712,20.6898,2.29662,-9.76112,20.6123,4.13422,-9.88286,20.7966,3.06015
23.1121,0.35731,-5.52122,15.8506,-2.64156,-6.25339,18.0075,-3.0162,-6.11505,18.3967,-3.46351,-4.8475,16.017,-4.8174
5.54717,0.00604262,-0.986772,7.53246,-1.90182,-1.34386,8.2945,-1.50145,0.057251,5.05301,-2.85592,-0.208208,5.32683,-2.17172
7.54874,0.589065,3.49794,20.8187,7.43431,2.88244,20.1039,8.18858,4.34831,21.6705,7.83696,4.88641,20.6037,7.96388
12.0822,1.63039,8.87319,2.64135,-3.49116,9.1339,4.76533,-3.75172,8.76452,5.01158,-3.20363,9.98107,4.68509,-4.38011
7.24542,0.306648,9.83936,5.65954,-4.31792,9.84519,6.48871,-4.57058,9.34665,7.4526,-4.16561,10.2149,7.09728,-4.70289
9.14098,0.398456,-1.02704,10.7638,2.83166,-1.21717,10.5593,1.67364,-1.26522,9.6123,4.39807,-1.62809,11.0551,3.33091
0.150362,0.028783,6.32819,6.12033,4.59539,6.08091,5.61105,4.71345,6.15184,6.09279,4.68917,6.11744,6.02906,4.71101
5.48593,0.00766611,8.21371,2.8358,-6.00686,8.09165,3.87122,-6.2147,9.29879,1.76145,-5.54424,8.8881,1.97195,-5.68099
0.706656,0.131579,2.56417,13.6488,-7.60821,3.32272,13.9517,-7.69168,3.04433,13.9507,-7.60624,3.19937,14.3253,-7.63936
3.30341,0.175705,-1.64814,34.5724,8.03657,-1.74984,34.4157,8.22451,-1.42181,35.4019,8.14314,-0.843138,34.5405,8.24113
9.01884,0.022547,7.94888,17.2967,-1.53842,7.42213,18.818,-0.292344,7.15973,18.8975,-0.639049,7.05396,17.9921,-2.15455
0.13109,0.0222933,-8.06057,18.683,-0.442357,-8.15927,19.0538,-0.640814,-8.16818,19.0012,-0.518514,-8.12458,18.9162,-0.526673
2.32083,0.637596,6.68977,18.5967,7.37009,6.81098,20.1849,8.44201,6.97677,20.0466,8.36469,6.87315,20.2338,8.43989
22.0648,0.131374,-1.52084,27.432,-1.99894,-2.85767,28.351,-3.9201,-0.775667,25.3646,-3.02094,-0.445708,25.3973,-2.35663
1.82394,0.0032809,10.2091,14.3812,1.58962,10.5188,14.6593,2.12722,10.7139,14.9342,2.08895,10.1466,14.425,1.13982
2.86185,0.262422,4.28805,24.5485,8.49702,4.22962,23.4603,8.00508,4.04792,23.0484,7.73311,3.9472,23.0185,7.73687
1.11511,0.690179,1.54579,33.5109,3.49522,0.836201,33.6175,3.08503,0.829513,33.6388,3.28011,0.817257,33.6923,3.49836
5.30402,0.535216,-5.79589,22.7127,7.08297,-4.81921,22.5933,7.4087,-6.14358,23.0884,7.71063,-5.8723,21.3266,7.65338
1.12285,0.528691,-8.7196,31.6258,7.00288,-9.27758,31.871,6.79893,-9.31,31.9948,6.87318,-9.39152,31.6315,6.76903
4.97375,0.491726,4.02701,19.1806,7.01152,4.60916,19.024,7.1962,3.9526,18.3633,7.32405,3.59241,19.6799,8.11904
6.65691,0.282725,-9.825,31.5544,6.37533,-10.8414,33.1962,3.88662,-10.3552,33.1005,5.19527,-10.0076,33.4253,5.98012
6.6531,0.612046,0.0140187,25.8193,7.71782,2.7259,25.7572,8.57213,1.39013,26.2884,8.40729,2.17509,25.8347,8.51772
15.8963,0.0131011,-1.37299,8.91028,-4.97683,-1.32624,9.55072,-6.39398,0.274081,6.09042,-4.92874,0.0121023,6.15384,-4.1411
0.753578,0.0195434,-4.2722,12.799,1.97001,-4.50305,13.1001,2.02485,-4.35145,13.0123,2.50417,-4.44445,13.1088,2.4528
11.5052,0.487757,-0.898257,26.9368,-1.26375,-0.0322307,24.7525,-0.982437,0.223367,24.2468,-1.15926,-1.24547,31.3486,-1.17929
7.60931,0.102492,2.20455,29.4316,4.59854,2.42264,32.2817,4.92614,2.38965,32.5705,4.52358,2.38967,31.2554,4.89061
3.5531,0.847214,-1.50409,34.6227,3.75569,-1.43461,35.0299,4.68005,-2.2749,35.5504,3.80421,-2.51326,35.6244,3.66508
5.26474,0.0783107,-7.65796,39.0944,2.97919,-8.54921,38.5211,1.98219,-8.03052,38.0738,1.70835,-8.53751,39.0849,2.6582
0.808829,0.105502,6.04405,0.673321,-2.80668,5.9723,0.626427,-2.90814,6.31096,0.432943,-2.71532,5.77918,0.617453,-2.84154
1.58612,0.0961367,6.06279,21.3195,2.13947,6.43929,21.3577,2.4643,5.80287,21.3464,1.67019,5.7018,21.5763,1.70832
1.97011,0.0457191,10.0268,20.5351,5.89517,9.58206,21.7961,6.92577,9.69347,20.9799,5.99151,9.90117,21.5936,7.03649
0.677543,0.0193148,-9.3293,25.7,0.364811,-9.02766,25.2092,-0.0975253,-9.17754,25.3142,0.123261,-8.98729,25.4548,-0.107448
5.04468,0.0100002,-0.915872,18.5408,-7.97088,-1.58933,18.2118,-6.94767,-1.48456,18.2232,-7.22847,-2.04432,17.7007,-7.21958
5.94609,0.0337822,-2.01192,22.7745,-3.33991,-1.01383,21.0867,-3.64116,-2.05186,23.5336,-3.19896,-0.540151,20.9674,-3.60456
12.116,0.671319,-3.56845,16.765,7.16627,-3.87113,17.176,7.86467,-3.63698,16.0872,7.75762,-2.37189,16.5665,7.94182
2.26038,0.365483,-7.59398,17.707,4.23159,-8.04913,17.4137,2.7146,-8.06753,17.5207,2.80312,-8.14228,17.8077,2.7855
3.76854,0.108757,-8.31897,39.6927,6.83926,-8.50324,39.5991,6.92536,-8.80822,39.0999,7.27721,-8.18419,40.7182,7.46323
24.919,0.577092,1.57528,29.0986,7.84786,3.07511,28.4879,8.01787,1.96051,30.6216,8.52033,3.94434,29.7,7.94322
0.649462,0.296499,1.41853,28.6527,3.03932,1.70607,29.1357,3.27101,1.73071,29.2217,3.20465,1.72638,29.0521,3.37128
6.61232,0.206606,0.871349,7.28821,-6.53136,3.94062,6.89375,-7.05862,3.12348,6.68307,-6.81313,2.45631,7.39127,-6.74558
13.6526,0.630558,-1.32315,9.95892,0.495966,-1.11937,8.37445,-0.171897,-1.29406,8.52494,-1.21401,-1.34342,7.19734,-0.102659
16.874,2.3789,3.85091,7.84915,5.75176,5.17084,10.742,7.89886,5.0139,10.6616,7.96855,5.72892,10.7473,7.63785
1.50877,0.46032,-2.63756,18.7916,-4.94468,-1.8501,18.6546,-4.83887,-1.9307,18.5776,-4.91909,-1.94007,18.5075,-5.05296
16.647,0.210338,3.9606,14.8252,7.69461,4.75571,14.447,8.02022,4.67298,16.5362,8.24363,2.37623,14.8659,7.60924
1.06725,0.0023139,-7.36641,38.3717,1.92185,-7.00199,37.9714,1.6303,-6.83296,37.5256,1.35898,-6.92133,37.5329,1.38381
1.71487,0.240513,-5.45506,34.1524,8.20438,-5.88058,32.8072,8.0735,-5.30909,33.8451,8.08062,-5.90821,33.0218,8.00424
13.235,1.65783,5.91905,13.8921,-7.88111,9.20917,10.281,-7.56306,8.65375,10.5204,-7.74431,8.58767,10.4928,-7.94188
11.9336,0.284234,9.83514,12.3745,-5.74763,9.51764,11.9008,-5.19001,9.20584,13.0156,-5.61456,8.11971,13.3192,-5.58346
10.2033,0.381748,-4.83002,35.0267,7.85002,-3.49909,34.6813,8.50469,-4.65296,36.1632,8.10895,-5.40335,34.4701,8.22606
0.930604,0.0592262,-1.45239,8.82667,2.28302,-1.43222,8.0432,3.21809,-1.40277,8.70321,2.77702,-1.42643,8.20007,3.23359
8.19314,0.184999,-5.6974,39.4204,8.21193,-7.16138,40.4923,7.86076,-7.77518,39.7302,7.16823,-8.06085,39.6378,6.9846
1.68388,0.33228,-8.44615,28.5279,6.64238,-7.52101,28.1414,7.20909,-7.47483,28.0645,7.22397,-7.63919,27.9557,7.19491
8.41557,0.121102,2.14621,27.8628,4.42369,2.62351,30.3923,5.4123,2.25123,29.2864,4.72864,2.38411,27.5963,4.42647
1.50083,0.282575,-3.4604,13.9725,6.40657,-2.86674,12.5555,6.38252,-2.92099,12.6095,6.39012,-2.88455,12.8856,6.47506
0.715428,0.00284322,-10.5229,29.1064,4.40528,-10.6847,29.3367,3.95652,-10.6529,29.6692,4.00621,-10.526,29.404,4.37344
0.0240795,0.00418769,7.27872,11.6989,-8.82343,7.19337,11.7102,-8.80236,7.24349,11.746,-8.81234,7.22473,11.6352,-8.80835
2.04059,1.22554,-1.97875,15.0508,7.14236,-1.92613,16.3972,8.02799,-1.78313,16.4681,8.03322,-1.86557,16.4474,8.02368
0.828927,0.0840802,8.00772,15.2508,7.2335,7.77925,15.1988,7.67942,7.76807,15.0391,7.52337,7.83657,15.3038,7.71004
2.36508,0.0238039,-9.12402,22.1181,-0.632464,-9.50692,22.9865,-0.0772344,-8.94227,23.0359,-0.688992,-9.13106,22.7579,-0.514893
2.63911,1.11467,1.18933,5.05319,3.61747,-0.0673678,5.54529,3.46691,-0.195576,5.92335,3.63215,-0.141976,5.80467,3.55922
9.38058,0.0590732,7.80965,13.2545,-6.81871,4.82017,14.1801,-6.9604,4.47605,14.2915,-6.72291,4.9314,14.1367,-6.2143
17.8827,0.165935,3.87236,22.2084,1.02017,4.95683,21.5145,0.396886,6.70435,22.4605,3.87472,4.80475,22.7236,2.50784
0,0.0269224,8.34072,0.057852,-3.57686,8.25814,0.0680486,-3.58488,8.34557,0.0522344,-3.48145,8.28627,0.0920687,-3.62721
0.12032,0.00874367,-5.49171,14.1541,0.412739,-5.40013,14.0375,0.382237,-5.45292,14.1651,0.228136,-5.39476,14.09,0.23413
2.68056,0.0104716,-4.7413,14.4111,-3.48459,-4.34652,13.7254,-4.53929,-4.21327,13.1999,-4.36441,-4.24703,13.1996,-4.17717
0.962835,0.0059742,-4.44331,38.2603,4.43364,-4.13524,37.4434,4.3715,-4.11985,38.0366,4.71018,-4.28048,37.566,4.26377
2.58041,0.126034,-1.97915,11.8778,6.1621,-1.99233,11.1696,5.92566,-1.71122,12.2427,6.56043,-2.33616,12.4867,6.55699
13.2392,0.108098,4.08108,24.7081,4.7822,5.98348,25.1883,6.17254,5.62037,26.0071,6.50781,3.30843,24.6498,4.49883
3.57091,0.0858443,-7.73591,18.8336,-1.45712,-7.8054,19.6308,-1.90281,-7.61154,19.5548,-2.30473,-8.02428,20.2131,-1.99025
2.40634,0.0659953,-6.35394,17.6941,-2.58879,-6.88283,17.6056,-1.71351,-6.32805,17.2991,-2.09314,-6.96329,17.7648,-1.77552
3.44292,0.231249,1.34278,21.4794,7.71431,1.90251,21.4769,7.84165,1.57767,20.1783,8.16941,1.02118,21.635,7.9888
3.10771,0.164914,9.29856,8.29647,-6.92601,9.12449,7.47559,-6.52743,8.95159,7.30295,-6.46389,8.71101,7.3307,-6.6116
7.65964,1.25124,-6.84711,40.9744,7.83515,-9.14805,41.7286,6.76866,-8.02986,41.8935,6.93095,-8.57087,41.7303,6.78685
8.06867,1.22323,9.99501,19.4312,7.12262,9.88342,18.3347,6.11581,10.4605,18.3335,5.58799,9.79239,18.2919,6.22841
3.90497,0.38336,-2.88848,32.5787,1.40243,-2.26988,33.2282,2.59878,-2.08526,33.0453,2.55912,-2.1535,33.0357,2.52248
10.1645,0.0732209,4.27402,15.1296,-4.71632,3.64647,15.0321,-4.99511,5.80122,15.2633,-4.52043,5.77016,14.2618,-5.60459
1.81043,0.0571196,-2.05139,9.82399,-5.4708,-2.36171,10.6543,-5.95609,-2.65375,10.9191,-5.9065,-2.42522,10.1789,-5.31254
10.0957,0.189896,7.65314,12.1774,4.20783,8.30279,13.8388,5.01376,8.83553,14.278,4.7296,8.66567,14.5136,5.09774
10.6556,0.270761,8.53274,18.3211,1.87616,9.56311,17.1944,1.54986,8.12767,18.7827,1.24952,9.70149,18.909,3.62633
10.0036,0.281161,0.931355,28.4513,2.2267,0.877626,28.9527,1.20093,2.14779,29.0737,3.99011,1.07922,27.046,2.44021
5.2295,0.414135,-5.85649,17.4838,7.71354,-4.56161,18.0884,7.90924,-4.22011,17.1886,7.96785,-4.66862,17.5546,7.80345
4.15155,0.0198029,4.86341,16.0162,-4.11992,2.99767,16.2975,-4.08252,4.70726,16.6012,-3.94348,3.01725,16.3769,-4.06004
2.46585,0.131223,0.317127,3.50745,-1.01535,-0.0848911,4.68689,-0.669112,0.161285,3.1282,-0.139468,-0.235762,3.67038,0.308221
11.4999,0.532241,4.78322,26.8937,7.91844,4.85345,27.9692,8.51442,4.27474,26.5834,8.45092,6.25654,26.6151,8.38399
9.26142,0.13982,0.785517,11.7032,7.75619,-0.235485,11.5791,7.25339,-0.0683164,10.7678,7.08751,-0.65999,10.493,6.6297
2.30551,0.0415939,1.02248,5.26752,3.69277,2.33239,5.00942,3.81811,2.20411,5.0467,3.81684,2.5628,5.04588,3.87512
0.157182,0.0157143,10.4033,15.4444,-0.797168,10.6328,15.2183,-0.666712,10.5636,15.3313,-0.668041,10.5719,15.2158,-0.779481
1.99635,0.0377877,-10.1847,26.1689,1.10355,-10.422,25.3718,1.02206,-10.5661,25.2579,1.05625,-10.3118,24.789,0.796708
3.71717,0.0933587,-2.18744,9.56132,-3.58498,-1.23476,8.60131,-4.20934,-1.33055,8.54027,-3.50206,-1.19518,8.48607,-3.87312
15.4461,0.302367,2.66933,11.9733,-7.82679,5.36375,14.4369,-8.2063,4.27183,14.5839,-7.80253,4.42953,12.3795,-8.08822
37.9739,0.691042,7.61305,10.8999,-1.70085,8.2905,10.3957,-3.3931,10.6083,14.8583,-0.621409,8.12329,10.6377,-0.297037
2.33947,0.340537,4.82728,11.6752,7.97863,5.9036,11.3772,8.19539,5.93433,12.7547,8.38641,5.95782,11.2938,8.21794
1.50556,0.0391812,10.0749,20.4251,5.83567,9.99415,19.8784,5.17482,10.2184,19.3304,4.93348,10.0683,19.515,4.89041
0.945059,0.142951,3.23657,10.498,-7.53616,2.45968,10.2582,-7.20031,2.87153,9.84427,-7.24546,2.56023,10.0986,-7.18712
4.31438,0.196017,-0.580418,25.8907,7.59449,-1.1271,26.2515,8.02714,-0.209671,25.7252,7.66638,-0.474568,24.3689,8.19827
9.85384,0.0918939,8.25003,7.16762,-6.80242,8.55884,8.10767,-7.21593,9.30008,6.34299,-5.91047,9.73876,7.22918,-6.10844
19.6234,0.24043,4.28285,21.2073,-0.532136,6.91668,20.2203,1.20532,6.41962,21.0473,2.01971,6.39989,20.702,1.43651
1.8426,0.099254,-10.4178,23.2632,1.53251,-10.4751,24.1536,1.04938,-10.1783,22.9032,1.02998,-10.3661,24.084,0.877651
2.52276,0.0633892,1.45359,14.8067,-7.48708,2.28319,14.0521,-7.49861,0.766498,15.7078,-7.58517,2.31667,14.397,-7.48455
2.64577,0.121652,-4.40173,13.8783,-4.54916,-4.38638,15.4508,-6.03352,-4.57746,15.5546,-5.42596,-4.47134,15.0735,-5.49972
5.53393,0.0551991,-2.18325,28.3287,8.1409,-1.25089,28.4528,7.96566,-4.49658,28.2939,6.86208,-4.25866,28.2619,7.10065
5.40613,0.558818,-8.31152,19.205,-0.265256,-8.50682,20.6318,-0.545462,-8.55732,20.466,-0.0878971,-8.73068,20.562,0.197971
1.06712,0.357208,7.86253,11.8891,3.80217,8.32097,11.6413,3.27172,8.13744,11.6151,3.33062,8.06127,11.429,3.35076
3.10647,0.0432405,-6.86292,35.0343,-0.931938,-6.87455,34.4922,-0.923857,-7.19355,34.6021,-0.490085,-7.08245,34.3272,-0.612169
1.94515,1.00303,-8.25641,20.8776,6.83114,-9.13553,21.1861,6.27391,-9.09478,21.043,6.24171,-9.12577,20.914,6.28239
15.045,0.308226,2.50817,18.9857,6.8241,3.40938,18.9258,7.31053,2.3011,19.2495,7.02737,2.72001,16.5294,8.10478
5.19142,0.0583254,-3.6676,12.2166,-5.00547,-2.29968,9.69956,-3.78547,-2.53925,10.28,-4.48676,-2.77199,10.7548,-4.8036
4.14524,0.455346,-8.72353,31.7339,7.00915,-7.17434,31.4049,7.9309,-6.94095,31.1916,8.04779,-6.63946,31.3427,8.06483
19.3389,0.0646163,8.87783,16.1649,6.0794,9.51149,18.3233,7.03674,10.8233,17.7869,4.68717,10.7931,18.4334,5.25714
27.52,0.182669,-3.12743,29.4592,-2.53226,-4.788,32.2144,-2.60145,-4.73162,29.9982,-3.81894,-3.9581,29.3643,-3.53699
11.6564,0.183495,-0.570378,7.75953,4.46886,-0.610922,6.60627,3.09211,-1.14348,7.10288,2.11515,-0.751526,6.42806,2.3077
5.44809,0.118474,-3.60719,16.2718,-6.63022,-4.29775,14.6624,-6.19545,-4.1815,14.3277,-6.65529,-4.11184,14.5328,-6.70695
28.0955,0.380851,8.31413,15.1238,6.21773,6.8593,12.3081,5.96284,6.41543,12.3366,7.6436,7.46721,12.9732,5.4761
5.91385,0.257849,-0.403001,24.2162,-2.19138,0.745322,23.0361,-1.30732,-0.232024,24.9122,-2.03487,-0.349698,23.735,-2.9347
1.83236,0.0379793,-4.54732,26.5857,7.85142,-3.72557,27.2484,8.35643,-4.11774,27.4511,8.23666,-4.36956,26.4813,7.85945
20.6448,0.323404,-1.71899,9.45898,-2.89562,0.0280566,5.50192,-3.20219,-0.899405,7.60439,-2.23273,-0.676452,7.44963,-2.97963
4.5754,0.0210944,-0.550876,5.44814,1.85598,-0.198196,5.10197,-0.63263,-0.157063,4.49618,-0.315866,-0.169805,4.51159,-0.222467
18.4416,0.666637,-3.35044,13.0007,3.38524,-4.67549,13.5621,3.29634,-4.05317,13.315,4.20012,-2.86434,11.7551,4.36106
2.00418,0.0968172,-0.0486192,34.0576,5.351,-0.839315,34.8494,5.61728,-0.0464418,34.072,5.70216,-0.571014,34.5528,5.74377
13.1026,0.271441,-1.39772,33.3726,3.21754,-2.14269,33.0819,2.58247,-0.407184,33.3378,2.47447,-0.637277,34.1062,3.52327
1.86944,0.111612,-2.98191,11.6293,-3.64947,-3.22891,11.8411,-3.97635,-3.49414,12.1137,-3.38283,-2.91668,11.3189,-3.51226
6.33552,0.164916,0.985733,3.75652,-4.70124,0.39727,5.02157,-4.14172,0.522146,6.03684,-5.46699,0.306903,5.89897,-4.81902
3.32505,0.13257,0.790134,17.2089,8.11477,-0.517502,17.1473,7.94337,-1.03048,17.2753,7.754,-0.986355,17.1942,7.79979
4.84387,0.121634,-5.38214,14.8922,-0.618231,-6.11681,15.5178,-0.0293399,-4.97083,14.0502,-0.987568,-5.45995,15.2956,-1.06161
10.4945,0.338532,-3.27588,18.2626,-4.81261,-3.01772,19.5834,-4.64157,-4.27324,17.9858,-4.72638,-4.09895,17.5788,-5.11021
2.73763,0.0720387,-1.8838,23.9901,-3.11261,-1.45641,23.4823,-3.10235,-0.102818,22.1329,-3.24877,-0.116933,22.069,-3.26403
6.58826,0.304005,1.48557,28.4316,7.82233,1.32533,27.7326,8.20763,3.28756,28.0363,8.20173,3.18534,27.5133,8.26124
15.9866,0.183089,6.36517,9.83598,5.72922,6.84075,9.48325,4.28636,6.29177,7.86398,5.09529,6.92176,6.83305,3.6282
3.56425,0.256093,-5.17923,15.57,6.82239,-5.39557,15.8654,7.34054,-5.21117,14.8652,6.67537,-4.51633,15.3645,6.93123
3.46186,0.0895027,-8.51479,34.3878,0.988934,-8.66657,32.6319,0.889575,-8.38036,32.8555,0.750559,-8.29062,33.6561,0.739142
0.396741,0.0267967,10.8808,15.6146,2.05139,10.7742,16.1713,2.11197,10.9043,15.7692,1.97751,10.813,16.1443,2.01833
4.06312,0.260091,-8.74605,28.7746,6.4933,-8.28946,29.9861,7.48925,-9.23439,28.4823,6.69784,-8.49215,28.5369,6.61354
1.53263,0.108655,0.939061,2.66585,-3.25048,1.64771,2.02893,-3.43808,1.44489,2.33356,-3.65131,1.66521,2.03358,-3.53332
1.47385,0.0232805,-3.00416,29.9011,8.49952,-3.45816,30.0009,8.3777,-4.15147,29.8667,7.99586,-4.03884,29.7167,7.96647
6.12123,0.426588,-9.3408,20.487,1.90354,-8.59084,19.9888,0.40006,-9.00003,19.4324,1.40342,-8.72375,20.1822,1.04907
9.60942,0.410208,-5.25069,18.0525,-3.98759,-4.50993,18.1485,-4.53014,-4.51712,17.8105,-4.74256,-4.96507,16.2962,-4.77172
1.22062,0.142249,-2.61261,15.7904,-7.75134,-2.97899,16.4996,-7.53701,-2.45336,16.9214,-7.6927,-2.55479,16.9423,-7.6351
1.17983,0.0131662,-7.78764,22.093,-2.11872,-8.11775,21.4259,-1.87671,-8.11549,22.1854,-1.69951,-8.13535,21.567,-1.82074
6.86325,0.504838,-1.0105,28.5752,7.78852,0.100446,30.5851,8.71631,0.0221111,30.5915,8.705,0.0454328,28.3337,8.43673
1.36738,0.183849,-3.56618,12.203,-3.8812,-4.15935,12.8497,-3.59912,-4.0928,12.868,-3.96143,-4.48913,13.4852,-3.54893
1.66062,0.35512,0.240138,17.2589,-7.84476,0.631698,15.7845,-7.627,0.402007,16.0319,-7.66773,0.716245,15.7877,-7.58987
17.6945,0.733952,1.57037,17.9221,7.03663,1.64278,19.4224,7.39876,1.94957,16.8701,8.06042,0.981988,17.5468,7.914
5.87139,0.372298,-5.64001,18.3851,7.46319,-4.38046,18.2606,7.97653,-6.035,18.0434,7.72506,-5.45809,19.6898,8.14584
16.5836,0.570847,-9.76021,27.9781,1.34445,-10.7623,26.7312,1.4306,-9.6963,25.4556,0.575325,-10.1892,26.3533,1.14411
6.1178,0.307767,-2.92096,25.459,-3.07845,-2.68215,25.8134,-3.56668,-3.7556,25.3699,-3.25233,-1.84743,24.2346,-3.14052
4.02193,0.234025,10.035,14.9478,3.47959,10.3024,15.5449,3.83266,10.3352,14.2382,2.70268,10.4254,14.2088,2.29668
12.1719,0.0249616,-2.99993,32.5558,1.22572,-3.48951,31.6586,-0.805516,-2.72609,32.1903,0.525149,-2.90628,31.3713,-1.18679
2.06379,0.128661,-1.49065,35.1016,4.67857,-1.93968,35.8778,5.37986,-1.70609,35.4652,5.37939,-1.83223,35.7229,5.47821
9.56144,0.779554,-8.41853,25.3402,6.2139,-6.76904,25.6729,7.36073,-9.17682,24.7171,6.79884,-8.31853,26.7937,7.19449
2.68879,0.0839396,-4.84449,31.0181,8.21508,-4.95576,32.9,7.43793,-4.56938,30.4733,8.25775,-4.97473,32.8514,7.46131
7.14896,0.011621,-9.61989,23.7323,0.183025,-10.1114,24.8705,0.686789,-9.78253,22.7385,0.229165,-9.05692,25.0793,-0.110087
0.112598,0.0410573,-10.9027,28.6529,3.07354,-10.8491,28.5259,3.2714,-10.8457,28.3806,3.27911,-10.8484,28.3795,3.22521
34.7754,0.623062,-2.92269,19.3909,7.24878,-2.10846,18.9782,7.71381,-3.66524,17.1948,7.86944,-2.47511,20.6287,7.88483
1.27298,0.262453,0.99415,5.16028,-5.5105,1.55416,3.80654,-5.39996,1.45768,3.57259,-5.15125,1.53196,3.61252,-5.24217
1.3515,0.044622,2.88201,3.60824,2.8626,2.53813,3.55413,2.701,3.1689,3.21089,2.20784,3.02873,3.20076,2.12333
6.01829,0.438671,-8.94162,28.1808,1.22435,-9.08636,27.8547,0.647497,-9.2502,28.8396,1.07476,-8.83909,28.7289,0.621648
2.97774,0.977802,8.9359,20.2315,8.35334,8.15333,18.548,7.91664,8.06046,18.6916,7.87154,7.7748,18.6942,7.88086
18.0206,0.290714,5.1468,14.5083,7.7244,7.0423,14.8986,8.29772,6.63188,13.6129,8.13015,6.40623,15.3701,7.98403
3.38611,0.0794096,-6.26112,15.2251,3.89585,-5.82471,14.5431,3.98737,-6.10769,15.1112,3.47006,-6.80166,15.427,4.56566
14.9395,0.213556,-0.834262,24.0525,8.24074,2.09583,23.6531,8.42631,-2.76157,24.1859,7.70371,-2.70496,24.5388,7.82144
5.11612,0.0600033,-10.8767,34.7628,3.8597,-10.4778,34.9581,5.03342,-10.437,34.6133,5.02984,-10.8908,35.3479,3.83939
2.63962,0.0663472,9.81057,16.6656,5.04656,10.8589,17.188,4.26209,10.8147,17.0907,4.2424,10.7826,16.7438,4.0501
9.01686,0.029917,2.85375,1.78557,-0.958749,1.93796,2.26914,-0.21843,2.36534,3.28046,2.05818,1.66486,3.11829,1.45699
12.8008,0.827788,3.4229,12.3083,7.27921,4.8696,11.7527,7.94969,4.32604,14.0701,8.08753,3.06381,10.9291,8.09622
4.69354,0.285177,6.95028,12.2147,5.05876,7.52021,12.8897,5.19347,7.05089,11.2476,4.83647,6.28405,11.1898,5.90615
1.54925,0.0315463,6.19668,15.1541,-4.57922,6.7217,14.3013,-5.36385,6.57608,14.2535,-5.40775,6.36351,14.5704,-5.13194
6.71279,0.576873,0.525365,19.1449,7.32457,0.217358,19.8947,8.16503,1.33194,19.1902,7.48145,0.720243,17.507,8.00913
30.0682,0.619487,-9.60686,32.4446,2.21334,-9.79728,31.8116,1.39825,-9.9235,35.3419,2.47711,-10.8709,36.4907,3.42415
2.03462,0.169569,-0.715129,7.57535,-3.61953,-0.921287,8.17776,-5.02409,-0.78858,7.79061,-4.63403,-0.765364,7.74875,-4.62679
1.61692,0.00983777,6.8335,11.3028,5.0476,6.82312,10.4049,4.88728,6.71279,10.0251,5.00257,6.73096,9.9586,4.96083
7.15761,0.088769,9.5777,12.5139,-3.5108,8.99693,12.541,-2.49587,8.76629,12.329,-2.34611,8.56062,11.6186,-3.03801
13.8371,0.81301,-1.608,21.8576,7.09988,-2.24567,21.1018,7.81055,1.00516,21.4805,7.95601,-1.39959,23.355,8.10052
24.8994,0.272391,1.2193,27.1666,7.9455,4.19868,26.877,8.43693,1.35306,27.667,8.16375,3.38208,25.4235,8.57659
0.44331,0.0882743,2.04898,33.2823,4.42325,2.12274,33.0844,4.15186,2.32031,32.7699,4.26984,2.16453,32.9992,4.15775
3.14497,0.198968,-0.218336,12.6809,7.4449,-0.368243,13.0334,7.84877,1.02226,12.7582,7.81556,1.01239,12.8253,7.85088
2.98766,0.355599,-2.37403,11.3032,-1.1257,-1.97361,10.5605,-0.958176,-2.03315,11.0964,-0.0138846,-2.01989,11.0241,-0.341112
22.8164,0.208689,-0.135897,25.4228,-0.167451,0.625332,23.2774,0.185972,0.0769344,28.1383,0.171956,-0.468944,29.7419,-0.3236
0.869027,0.0422334,-8.4881,18.7784,0.700365,-8.25412,18.2046,0.802989,-8.75116,19.036,0.970698,-8.79388,18.9499,1.07778
4.99689,0.240133,8.66778,10.6783,-4.34837,9.12279,9.78701,-4.94535,8.08244,9.59598,-2.8415,9.14812,11.4301,-4.60854
1.42006,0.0764399,9.05982,5.2283,-3.63546,9.42704,5.65311,-4.01836,8.76974,5.69712,-3.25188,9.37881,5.79861,-3.98535
3.32219,0.33472,-1.12839,9.17445,-1.16133,-1.3667,8.55424,-1.79961,-1.3773,8.60123,-2.2761,-1.43812,8.98118,-1.68055
3.81735,0.1033,-3.99956,26.9111,-3.74387,-3.96762,25.3526,-3.26764,-4.06354,25.2353,-3.23127,-4.38534,25.6499,-3.30239
2.32959,0.675091,-0.49305,14.4604,7.45513,-1.68241,14.4715,7.10834,-1.58955,14.4222,7.09419,-1.68351,14.5789,7.06902
5.88664,0.102415,0.75667,32.0622,1.88834,0.966415,31.2921,1.83752,0.764489,32.5957,1.83693,2.05895,31.5376,3.37863
7.20902,0.245338,-3.55241,12.8684,-2.12879,-3.51836,12.2896,-2.77208,-4.11002,13.2808,-1.52435,-2.82931,12.0684,-0.518187
2.01419,0.561079,-7.03014,25.8523,7.2777,-6.31232,27.1646,7.9041,-6.39275,27.2256,7.90398,-6.24972,26.9239,7.89756
7.86662,0.496381,3.68386,22.1941,7.34923,3.97417,22.9768,7.69274,3.20599,21.6327,7.96144,6.17958,21.9477,8.129
14.1514,0.182736,-3.73636,22.6893,-3.44332,-2.64639,21.3444,-3.96331,-1.89285,22.0665,-3.52409,-5.10286,21.7684,-4.28462
3.40103,0.377928,7.18691,5.01436,2.70776,6.95627,6.59956,3.16632,7.0403,6.92887,3.21901,7.1261,6.97254,3.12272
8.83563,0.276845,-2.72018,30.5308,-1.32232,-1.53099,28.3349,-1.36875,-1.9309,29.0698,-1.21874,-1.44457,27.6708,-1.73716
1.3031,0.0651505,-0.611247,16.8364,-8.03934,0.147093,15.711,-7.69048,-0.458123,16.2484,-7.8904,0.000648672,15.3295,-7.70408
0.656683,0.320134,4.80273,28.2995,8.51198,5.04455,28.7326,8.17204,5.1151,28.6575,8.09872,5.16173,28.5764,8.10694
5.75866,0.578996,2.08565,10.6704,-7.23562,1.82854,8.7766,-6.76508,1.58341,9.5212,-6.77004,0.889878,9.82863,-6.85791
1.53322,0.144872,0.723935,6.98429,-6.46996,1.48942,6.12204,-6.48817,1.02028,6.37244,-6.37995,1.81149,6.31779,-6.57001
7.71318,0.209307,6.03085,17.7988,-2.93755,3.39212,19.7916,-3.4106,4.02749,19.4278,-3.14207,3.4662,19.2558,-3.72209
33.8921,0.268802,-9.38648,39.3841,3.36851,-9.89563,41.3738,6.00713,-8.63601,41.9559,6.54389,-8.90065,41.4377,5.83571
5.04854,0.0160991,-7.01283,40.5442,5.10504,-7.57966,39.1767,3.14146,-7.73933,39.4005,3.34089,-7.63966,39.9105,4.01114
1.53104,0.25934,7.33933,6.40691,-6.99199,7.16128,7.40353,-7.18965,6.61559,7.11488,-7.14824,7.30794,7.43404,-7.20292
2.1688,0.146541,-3.08013,28.4988,7.6805,-1.79879,30.3799,8.48129,-1.9255,30.0701,8.39416,-1.90058,30.5402,8.48755
1.30741,0.123124,1.52413,13.0276,7.66374,1.82302,13.6442,7.99025,1.73263,14.1115,8.17622,1.81508,14.1594,8.18403
0.489819,0.051691,-0.781885,8.85631,-6.47206,-0.638547,8.54352,-6.31878,-0.511494,8.60891,-6.60249,-0.51546,8.40813,-6.40935
4.33328,0.900069,2.98526,26.9927,4.9026,2.79885,25.3699,4.48126,2.7334,25.3148,4.29232,2.94291,25.289,4.61207
29.4634,0.307166,0.952778,22.3876,0.679184,0.951044,24.1825,1.10456,0.735517,23.3355,0.801506,2.5506,21.9524,-0.299832
10.642,0.504932,-6.46012,32.1105,7.39412,-6.78289,31.8997,7.84621,-5.38853,31.1187,8.2185,-6.07239,32.5625,7.98616
12.1883,0.111104,-6.83558,17.1741,-0.257798,-6.33367,16.7527,-1.14964,-7.94544,18.7287,-0.805829,-7.51066,17.4806,0.552152
4.7405,0.256146,-7.19209,36.6426,7.35316,-5.32952,36.527,8.18321,-7.43037,36.2797,7.59424,-7.07746,37.1766,7.59301
1.14546,0.216254,-5.90867,25.3813,7.56833,-6.68354,25.5493,7.36353,-6.71986,25.426,7.37822,-6.59343,25.3828,7.45708
4.83072,0.0568155,-0.697219,18.3719,-3.89035,-1.51023,19.9206,-3.85435,-0.175202,18.9779,-3.77025,-1.88675,20.8017,-3.85901
2.09584,0.848311,-2.47751,14.0915,7.22506,-2.09837,14.8962,7.13218,-1.977,14.7762,6.99392,-1.73048,14.7145,7.08323
3.09929,0.0951381,7.46672,19.3311,1.10467,7.33189,19.352,0.722414,8.05413,19.7858,2.26165,8.05168,18.9042,1.36347
17.9547,0.270752,-0.670486,31.9586,8.16329,0.872804,31.2776,8.48973,0.352006,33.5219,8.56269,-1.17802,31.8881,8.40328
1.45231,0.14121,1.2307,31.2576,8.20146,1.25343,30.7554,8.35701,1.5403,30.5727,8.41419,1.52772,30.2324,8.41687
6.56462,0.26666,1.03109,24.5792,2.50573,1.03319,25.131,2.80772,1.87398,24.7055,3.36143,0.90732,24.2658,1.06618
0.833172,0.131047,8.1637,11.995,-1.97936,8.3724,12.1565,-1.64553,8.57545,12.0997,-2.42427,8.61552,12.1749,-2.3484
11.6968,0.297041,-1.54317,10.3285,-0.193787,-1.3344,9.34468,-0.956582,-1.19785,10.2223,1.02051,-1.23124,10.5453,1.60487
22.9254,0.207974,-3.77644,35.7793,2.00664,-2.89123,36.1025,4.07332,-4.10222,36.8429,3.15687,-2.57531,35.6269,3.61949
0.635888,0.0280695,-0.3581,4.1157,0.738194,-0.435613,4.14608,1.01772,-0.46525,4.37794,1.19431,-0.48298,4.30149,1.29234
11.5357,0.269422,-0.113169,5.45222,-1.12004,-0.633469,6.28648,-1.42732,0.549948,2.72463,-1.33561,-0.574402,5.46945,-0.0314893
3.04962,0.18293,-3.37792,27.2485,-3.93283,-2.48778,26.64,-3.73573,-3.89057,28.8715,-3.98259,-1.88643,26.6652,-3.29701
0.966397,0.672856,-3.9533,33.4129,-0.791019,-3.72379,32.8255,-0.428001,-3.7391,32.3852,-0.757699,-3.74332,32.5505,-0.626411
17.5908,0.0357531,5.80318,1.25571,-0.989073,3.1385,1.88643,-0.684066,3.85251,2.24116,0.428685,3.03473,2.13408,-0.176995
3.24931,0.110266,-10.0718,36.2606,2.71807,-10.2508,36.9904,2.59639,-10.0791,35.3905,2.74647,-10.5917,36.7449,3.05849
14.1599,0.752391,1.59466,14.8311,7.28746,1.31826,16.5461,8.22215,2.93196,13.9792,8.25837,0.915981,14.3995,7.85595
7.57937,0.667127,-1.9139,18.3736,7.36196,0.182717,18.175,8.07588,-2.29821,17.7619,7.95804,-0.916213,20.6321,8.29677
3.88154,0.0630892,-6.72354,16.2774,1.06331,-5.97451,14.9562,0.628705,-5.81434,14.6374,1.37492,-5.63142,14.3208,1.58668
9.72884,0.655037,2.08089,22.7896,7.42529,2.22152,19.905,8.07361,3.35215,22.7264,7.87089,1.09839,23.11,8.25861
6.31493,0.279295,-2.73763,11.938,-0.298135,-3.98441,12.5738,0.761764,-3.3204,12.1673,0.879818,-3.99547,12.8308,0.0650534
38.5869,2.04486,-1.44451,17.8793,-5.26035,1.25262,16.9803,-7.40923,0.689124,16.0922,-6.2098,0.578483,16.167,-5.81888
2.74276,0.00734155,8.30932,5.10293,-1.95276,8.22426,4.80512,-1.33702,8.11132,3.97617,-1.89341,8.39552,5.60886,-2.15767
6.47286,0.0756867,3.4043,14.6752,-6.20768,2.97131,14.9587,-6.05945,3.61616,14.9763,-7.35537,4.43243,14.2674,-6.43783
2.10712,0.0747079,-6.79687,33.2152,-1.47189,-7.31797,32.4516,-1.25713,-6.69181,33.0258,-1.86299,-6.84867,33.5746,-1.34345
1.93381,0.585438,10.0473,18.2609,3.26661,9.80938,19.0073,4.1045,10.1369,18.8173,4.39961,9.84136,18.8656,4.09733
4.19247,0.148686,0.775387,9.56427,-6.84232,1.40125,11.8587,-7.56365,0.52584,10.5118,-7.17926,1.30134,12.0177,-7.58873
8.97203,0.0194749,7.53724,3.45967,0.772385,8.14206,1.62871,-0.539874,8.19966,1.61863,-0.726664,7.95933,2.91369,-0.468132
31.1471,0.689084,-3.3034,31.3177,7.68724,-3.86103,30.7542,8.37926,-1.27912,31.8612,8.40029,-2.76898,33.8764,8.32921
17.502,0.464131,-3.29801,38.0088,6.7828,-2.54894,36.5668,4.75477,-3.5205,37.6101,5.18596,-1.96017,35.9056,5.51943
8.25595,0.145509,2.64915,5.57154,4.07809,4.36533,7.04894,5.4264,4.27324,6.46544,5.07836,4.72794,5.79531,4.79107
0,0.00868443,5.04902,7.43204,-7.24064,4.96167,7.34871,-7.22938,4.91504,7.42298,-7.25194,5.11304,7.38344,-7.2337
8.90275,0.0736927,1.37409,31.3047,7.62455,2.37514,30.8002,7.39985,1.55673,31.6934,6.78873,3.97052,29.7942,7.13294
0.658824,0.0237181,-10.0982,30.6569,5.55938,-10.5289,30.8988,4.51789,-10.315,31.0452,5.06049,-10.5061,30.9858,4.57369
4.65749,0.0523724,-7.97894,41.5131,5.89533,-7.9361,40.5972,4.50209,-8.13641,40.8973,4.80451,-7.28548,41.443,6.60889
36.7393,0.0950534,-10.8244,29.0217,3.42673,-10.5572,27.8061,4.17538,-10.1271,27.5975,5.2438,-10.1094,28.6007,5.45297
24.651,1.17736,-8.83115,30.3584,0.872212,-4.58743,27.9965,-3.40473,-4.65173,28.1202,-3.36178,-4.67034,26.6085,-3.34369
6.65939,0.531261,-2.17842,25.775,7.54586,-2.44558,25.0027,7.96296,-1.90484,27.1756,8.38805,-1.0079,25.5732,7.8414
6.57796,0.114707,7.01681,4.69685,2.69583,6.45759,2.61754,2.13192,7.14651,4.107,2.13978,6.74276,2.81288,1.72587
3.17522,0.541129,-6.13404,27.5121,7.87426,-7.54865,27.894,7.26021,-7.4029,28.1134,7.29383,-7.45962,28.1168,7.24427
5.99479,2.39533e-06,9.05623,12.7787,3.56812,8.52635,12.8778,4.06079,9.08758,13.9691,4.25028,9.47701,13.6179,3.72271
65.9691,0.380929,8.70369,20.6895,4.13963,7.47404,24.7885,7.64913,6.82465,25.091,7.06292,8.78206,23.1022,7.65666
25.0573,0.202908,5.82669,0.968016,-5.51006,7.38284,0.558781,-4.09555,5.78078,0.559984,-3.40736,6.5619,0.424288,-3.29003
6.36552,0.235294,9.58292,13.5416,0.304338,10.1294,14.1647,1.40637,10.7756,15.3371,0.262295,10.147,14.4514,0.664745
10.942,0.157393,-1.21097,35.2081,6.85254,0.420227,33.8631,7.34121,-1.63793,35.8412,7.61595,-0.915218,35.1383,6.21792
4.23369,0.00793281,0.314278,4.97544,-3.63459,-0.066623,4.32986,-2.23153,0.0369741,3.8507,-2.83137,0.376391,4.75738,-4.00741
5.4232,0.10269,-4.05517,37.273,4.41864,-3.66646,36.312,3.21648,-3.10113,36.9705,4.77711,-4.04964,36.7581,3.46112
0.371463,0.0532355,8.31868,15.7093,7.35241,8.52903,16.1553,7.66719,8.45468,16.027,7.55477,8.43331,16.0614,7.71723
5.72699,0.548483,2.76503,18.6016,-3.62233,3.45252,18.9107,-3.74041,3.37497,17.4035,-3.79966,3.39572,16.8492,-3.92442
6.63429,0.177195,-0.760228,30.1476,-0.62722,-0.145785,31.3356,0.0330322,0.0544455,30.4926,0.358874,-0.0445855,30.0972,0.324289
8.64063,0.202406,-4.08241,13.4602,4.76276,-5.05917,14.1758,5.48103,-4.42614,13.7133,4.31182,-3.41044,12.3471,4.41799
3.59012,0.400106,-7.51288,24.84,7.22231,-6.13512,23.9624,8.06621,-5.66737,23.9117,8.20651,-5.60566,23.8302,8.22636
3.27953,0.0837514,-1.99665,31.1638,8.12592,-0.322347,30.8717,8.64667,0.110045,30.9823,8.71897,-0.403074,30.8221,8.64667
2.36942,0.0801542,-2.5733,32.1889,0.526484,-1.4073,32.367,0.964837,-1.85153,32.3768,1.15725,-0.945759,32.3379,0.619463
4.12941,0.118798,-3.87861,12.6338,-5.1291,-4.33748,14.3349,-5.89619,-4.34527,14.3423,-5.8249,-4.24075,13.9714,-5.3255
22.1822,0.0757676,-8.99556,33.7968,6.96998,-6.08764,33.4737,8.1281,-9.77997,34.6028,6.38822,-8.69934,32.2574,7.35542
2.317,0.328226,8.89623,12.8663,-0.149202,9.51344,13.4783,0.129044,8.93171,12.5807,0.193202,8.84564,12.3387,0.109578
1.14925,0.425758,1.34865,8.20314,-6.66835,0.720166,8.32283,-6.77057,0.804235,8.18722,-6.68725,0.921175,7.82484,-6.6112
1.68174,0.0477622,2.68054,2.83723,-5.83263,2.2116,2.9126,-5.36328,1.65621,3.24777,-5.10525,1.70109,3.2768,-5.17309
0.704511,0.030527,8.2934,19.6198,2.52053,8.55249,19.998,3.14835,8.22212,19.9233,2.69259,8.44306,20.0905,3.07726
13.8109,0.157984,10.4278,13.7285,-5.2287,8.70749,14.8577,-3.98823,6.86303,14.6559,-5.14167,8.27795,14.6928,-4.49678
4.74631,0.140219,-8.18717,26.5493,-0.5769,-8.20257,27.5526,-0.229126,-8.72028,27.4098,0.0668056,-8.57323,27.5108,-0.00691309
7.8716,0.0291443,-4.64652,13.5298,-3.11932,-4.86769,14.2879,-3.09057,-5.40544,15.5595,-2.49354,-5.3853,15.7148,-2.83242
3.19057,0.134562,2.16348,21.3754,-2.67599,2.75477,20.5511,-3.3483,2.80899,20.3829,-3.56498,2.5962,20.3288,-3.73861
3.88937,0.114031,5.21271,16.4555,8.09542,6.18892,16.6104,8.45749,5.06792,17.5082,7.51493,5.29133,15.642,8.28275
3.4302,0.413018,-6.25833,17.9848,7.72896,-7.22679,17.9082,7.10117,-7.37347,17.6005,7.06134,-7.59873,18.1277,7.0295
8.64781,0.219953,1.90893,24.3956,2.96162,2.69094,23.5709,1.78565,3.1802,24.7137,4.47058,3.61462,22.9714,1.71815
6.6027,0.18846,-3.69689,30.9104,-1.43623,-3.01513,29.5322,-2.31347,-3.64795,31.7632,-0.904975,-2.74141,29.9265,-1.62783
3.81797,0.10834,-1.84846,15.6171,-7.79768,-2.50868,14.2604,-7.63736,-1.51222,14.3002,-7.63805,-1.82732,14.242,-7.62855
2.06479,0.131789,7.17438,0.534988,-1.94323,8.11738,0.629253,-2.38688,7.87742,0.243549,-2.81779,7.33112,0.619617,-1.65826
1.28275,0.080002,-4.73351,13.5197,-0.410103,-4.09533,13.0369,-0.272641,-3.95719,12.974,-0.37797,-3.94419,12.9958,-0.56271
5.76229,0.542903,-5.65785,29.8285,7.30945,-5.99122,30.4074,7.98797,-4.56323,29.8191,7.75512,-5.57093,28.3927,7.62047
2.56646,0.0984445,2.36271,9.79835,7.31503,3.96691,9.85115,7.43839,3.15264,9.6241,7.25373,3.94027,9.89336,7.47973
0,0.00849065,-8.12387,42.0566,6.3519,-8.16347,42.0663,6.37851,-8.18701,42.0259,6.31667,-8.24419,42.0507,6.34907
19.1444,1.28227,-5.76965,25.1086,7.56496,-3.28395,25.6509,8.36703,-4.4149,26.4501,7.82304,-2.96558,25.2238,8.37856
6.7757,0.109835,-4.85081,33.2925,7.3314,-3.18328,33.294,8.13866,-5.05966,33.623,7.75402,-5.31423,33.8014,8.06054
12.1724,0.130597,8.72401,1.20804,-5.93411,7.21929,0.987651,-5.37525,7.5739,0.786915,-4.47651,8.1265,0.781604,-4.50852
4.27787,0.328538,4.06353,25.3191,8.13581,5.04602,25.1042,8.21662,4.20025,25.9873,8.47885,3.50346,24.7736,8.58425
24.6506,0.208133,9.58894,16.2068,-0.203796,9.60855,14.7011,-3.56956,8.41461,15.6005,-2.95878,10.2628,14.5183,-3.06493
4.64466,0.327269,-3.76593,24.764,-3.11195,-4.14435,23.3823,-3.46317,-3.68093,23.8792,-3.27438,-3.37121,24.0478,-3.1158
4.71211,0.0213855,-2.04082,19.6584,-4.39911,-2.29504,21.3853,-3.83765,-2.42406,21.4641,-3.85155,-2.85609,21.4112,-4.01199
6.4547,0.0269491,2.34603,6.81516,4.9528,3.12808,8.35067,5.94852,2.88229,6.73135,5.05184,3.68909,8.71349,6.31243
1.00137,0.0614708,-2.02483,10.4195,-6.222,-1.50458,9.82719,-6.35599,-1.6809,10.162,-6.58136,-1.53326,9.77742,-6.22438
0.312134,0.0267274,-8.82829,19.469,6.41176,-8.78243,19.2065,6.34458,-8.62067,19.0103,6.4889,-8.58233,19.0418,6.58691
17.6866,0.546242,8.10818,21.2516,7.5384,7.62201,20.7717,8.4191,9.73237,21.0163,8.02856,8.14726,21.8257,7.88004
9.405,0.12009,5.10111,12.0662,-8.22896,4.8169,10.5773,-7.79873,5.50494,9.94872,-7.77972,5.13701,10.8278,-7.88769
35.0381,0.469959,7.30288,8.56232,-1.84617,7.86503,7.40833,-0.185879,7.79981,8.32581,-0.392397,7.89426,6.93956,-0.716283
62.2946,1.38253,7.53036,8.83962,2.56836,7.86041,5.38772,0.929763,8.30375,8.65637,0.8046,7.81505,6.52368,0.38471
2.92632,0.0861815,8.85868,10.967,1.84032,9.20446,10.9595,1.37949,8.48163,10.4643,2.32793,9.00817,10.5014,1.36588
9.20636,0.496179,5.00848,19.0294,7.02308,5.01435,17.5783,7.4834,6.3276,18.8653,7.63072,6.00734,18.9744,7.60598
11.0194,0.249245,7.00613,4.18251,-6.26017,6.2638,5.36433,-6.65674,7.26815,2.61163,-6.28937,7.16793,5.70228,-6.74602
73.5411,0.172978,-6.38211,39.6368,4.74545,-7.39492,39.4842,3.6721,-4.13768,39.1462,7.1802,-6.59264,35.8674,-0.0656644
2.65439,0.155958,4.99881,20.6369,7.99184,6.52135,20.4696,8.42247,6.14606,20.407,8.38823,6.47813,20.5891,8.38023
1.83741,0.0773067,0.100061,30.6854,0.369469,0.0635993,32.0623,0.257843,-0.116168,30.6579,0.172429,-0.0879605,32.2388,0.179685
17.9265,0.428298,8.41219,6.45908,-6.41182,9.67866,5.2077,-5.45135,8.77231,4.21152,-5.75524,8.13919,4.00617,-6.17397
4.1789,0.977115,-4.99374,37.6968,8.44232,-4.2762,38.4028,8.53319,-4.89627,39.2142,7.63423,-5.00844,39.374,7.56114
12.611,0.248506,-5.53637,18.3236,-3.81406,-6.8685,20.118,-3.2048,-6.43616,19.5623,-3.31906,-6.95685,19.4528,-3.19912
5.31058,0.16453,-10.2719,22.6818,1.60613,-10.5686,23.2454,3.17624,-10.2984,21.7649,2.03152,-10.5084,22.8343,3.48374
18.2742,0.42407,8.23729,4.07731,-2.21953,8.64174,0.373129,-3.57351,8.90352,0.689782,-4.0398,8.2614,1.33555,-2.31931
4.69682,0.258626,-7.19995,19.0918,7.1444,-7.63801,18.8985,7.20215,-6.06051,19.0457,7.88614,-7.38556,20.0944,7.61758
4.80696,0.282425,-7.50389,35.5469,7.3918,-7.88673,35.1281,7.71003,-7.40133,36.0229,7.59268,-5.55052,35.4121,8.1593
0,0.00227666,4.11514,14.7453,-7.5738,4.07464,14.7725,-7.55345,4.11573,14.7473,-7.56342,4.06161,14.7663,-7.57937
6.21001,0.334243,1.13146,33.039,5.91847,0.582315,33.7911,4.95489,1.29551,33.5174,4.81973,0.149748,33.8561,5.65234
0.0811114,0.000816512,9.36795,1.31127,-5.11676,9.49706,1.45826,-5.21764,9.42813,1.38355,-5.21883,9.49985,1.45363,-5.12222
1.34203,0.381436,-6.92292,37.9349,8.07176,-6.9439,37.1462,7.60111,-7.01008,37.2209,7.61665,-7.09609,37.3821,7.76536
31.2583,2.55695,8.77935,12.4956,-1.86821,10.3359,13.968,-3.56476,10.643,12.9548,-5.20515,10.4043,14.5624,-2.07788
0.699381,0.232916,2.24175,29.8061,3.96013,2.12023,30.0925,3.62161,2.19104,30.282,3.62793,2.05208,29.8958,3.52426
4.50218,0.063608,7.46229,9.37244,-1.40498,7.71834,10.3292,-1.75753,7.72225,10.3487,-1.02373,7.59422,9.96938,-0.907539
5.25099,0.201415,-3.81641,14.7287,6.53517,-4.17052,15.0774,6.89966,-2.59496,14.8113,7.36925,-3.56358,14.0188,6.39264
7.13824,1.01496,2.65732,30.3977,5.63701,1.29061,32.7063,6.03698,1.82122,31.3908,6.5015,1.42123,32.1225,6.26455
16.5452,0.0111244,-8.39916,22.6775,-1.2388,-7.84725,23.6825,-1.85734,-8.17163,24.9771,-1.27945,-8.68637,24.8225,-0.626218
6.41454,0.314257,-1.76685,9.53993,-2.91391,-2.42147,10.4168,-2.12255,-2.85201,11.2789,-2.70368,-2.86537,11.161,-3.40799
7.17678,1.34239,1.34892,22.7117,8.08479,-0.769097,23.0932,8.12871,0.275546,21.8758,7.93029,-0.399768,22.6527,7.97191
13.645,0.433017,-0.901078,17.7457,-4.09728,-1.12854,17.914,-4.77559,-1.32676,18.9393,-4.08985,0.689926,17.2935,-3.92115
5.7166,0.118128,8.31984,6.005,-2.5952,8.28645,6.45318,-1.54211,8.61928,5.40635,-2.95875,8.04476,7.40694,-2.2848
3.17131,0.0215345,1.43369,21.8466,-2.76663,0.569512,22.8214,-2.22319,0.250833,23.1448,-2.40387,0.317827,23.087,-2.28438
4.42918,0.520489,-2.78638,34.4883,7.81876,-2.87916,34.94,8.33787,-3.03449,33.9447,8.34739,-1.85029,34.3706,8.32376
4.55716,0.0594765,5.03141,2.17355,-6.05448,4.21914,3.99872,-6.22924,6.16838,3.25536,-6.40945,4.09304,3.75523,-6.18115
2.38921,0.0125319,6.23298,11.052,5.91679,5.80534,10.0955,6.79293,5.68429,9.71726,6.81353,6.04077,10.5093,6.14075
27.8491,0.457915,0.988893,17.3648,-3.79825,2.79568,15.9547,-4.36784,2.19222,15.5578,-5.06399,-0.121883,19.2371,-3.72156
7.73287,0.138393,0.862959,9.99655,6.81753,2.2944,9.78944,7.30062,-0.175548,8.42813,5.45917,0.0604945,8.40726,5.57179
2.50854,0.407618,-6.1273,15.3658,1.6996,-5.9243,14.8975,2.68412,-5.90957,14.9118,2.87202,-6.02685,15.029,3.28602
5.18522,0.167366,3.86973,21.4576,-0.0439988,2.61732,21.9961,-0.173002,3.01155,22.4143,0.49184,4.32706,21.4541,-0.133658
1.99466,0.0717602,0.962582,3.31501,-4.3789,0.576397,3.99031,-4.10889,0.608466,4.55072,-4.36921,0.484608,4.52327,-4.22043
7.08042,0.212105,1.32427,12.4643,7.49723,1.56029,12.9718,7.6547,1.2106,11.7579,7.822,2.8448,12.3445,7.9157
20.3985,0.815511,5.5407,24.785,7.48524,7.26032,25.2618,8.47028,6.77771,23.1308,8.44479,4.96567,24.8844,8.24673
2.28239,0.333588,-0.455463,14.3985,7.50983,0.412801,14.6047,7.82945,0.88177,14.5731,7.8366,0.85069,14.4457,7.85045
1.27289,0.237947,0.549654,2.79922,0.409538,1.61953,2.64982,0.315,2.10223,2.26839,-0.16673,1.98826,2.43462,0.122219
2.42514,0.381797,8.08487,15.2962,7.13588,8.68019,15.5846,5.90174,8.59751,15.62,6.04436,8.74957,15.9059,6.11948
3.32359,0.00105728,7.03752,19.2209,-0.292251,6.03718,19.6114,-1.1022,6.84118,20.1371,0.955162,6.09729,19.5271,-1.15572
12.576,0.311167,10.3934,16.9316,3.07791,10.8882,15.3111,2.16063,10.5557,18.2775,4.1442,10.5853,18.0128,3.80928
3.5305,0.246758,-1.8557,31.5723,-1.24086,-2.04056,32.1454,0.291743,-0.93741,32.2858,0.265443,-0.978607,32.2387,0.0790167
4.57943,0.321779,-3.2892,21.7452,7.22402,-1.69277,23.5539,8.18707,-2.0303,22.9333,8.00797,-1.99268,23.2329,8.07225
2.29885,0.0370956,5.93449,1.2231,-0.785282,6.97123,0.856473,-1.11996,7.43328,0.758869,-1.16123,7.55531,0.780687,-1.06405
12.3493,0.0623313,-3.09182,35.1206,1.87818,-3.42341,33.0773,0.504843,-3.57061,34.2084,0.527221,-2.60866,33.2426,2.17738
4.51488,0.549091,9.40331,3.59461,-4.0775,10.1177,4.1554,-4.86218,9.61407,1.86578,-4.73824,10.0366,3.75308,-5.03367
6.09824,0.345721,-1.87842,17.2814,7.42541,-1.75747,17.6669,7.6921,-1.07114,17.2861,7.73855,-2.30039,16.6085,7.94129
0.139249,0.0194386,6.65928,2.04103,1.30068,6.71785,2.30201,1.47436,6.60053,2.12349,1.46177,6.6624,2.26158,1.52314
3.46202,0.156584,-6.51542,22.2808,-3.47325,-6.19924,20.7983,-3.76333,-6.48794,22.8464,-3.63998,-6.06358,20.9355,-3.80672
6.84421,1.07559,2.78321,4.32923,-6.19092,4.27556,4.53065,-6.32093,3.86698,5.66775,-6.6348,4.19442,4.86674,-6.37966
18.4075,0.558885,8.19053,8.86093,-7.38481,6.53889,9.01396,-7.54847,7.38854,7.74969,-7.19304,7.05058,9.74073,-8.09954
18.187,0.250936,2.81136,28.3326,5.12346,3.17164,26.9867,5.03386,5.17023,27.306,6.72769,4.8875,26.1745,5.91754
6.72908,0.15717,0.869925,25.1776,2.31836,1.09752,26.8693,2.64125,0.997559,26.6769,2.45798,1.08535,26.4481,2.793
6.26492,0.097474,4.3564,2.08603,0.553577,4.0964,3.10972,2.67095,3.72296,3.40641,3.02528,3.55873,3.18358,2.47076


