
5.3393,0.68186,-5.73857,21.385,7.23555,-4.86676,20.8166,7.66371,-4.50882,22.8262,8.00068,-6.63209,21.2941,8.09354
45.4282,0.739913,-5.42491,2.36698,5.17286,-4.29947,1.33699,2.93521,-5.01888,1.5345,3.29598,-6.85227,1.83498,4.03086
2.19051,0.0158149,0.190465,38.4776,5.90132,0.830342,39.6583,6.12838,1.50406,39.5164,6.41093,0.824302,39.8411,6.11778
3.51979,0.124225,-0.455696,26.961,-7.84211,-0.450459,28.1283,-8.19793,-0.0946337,26.8657,-7.93696,-0.372144,28.3249,-8.23372
1.83993,0.272419,10.6742,38.7158,4.58263,11.2955,38.4562,4.33981,11.0695,39.3369,4.29462,10.7105,38.7503,4.97786
0.298714,0.467934,1.65536,29.863,8.23864,2.00927,30.1838,8.22925,1.94217,30.2773,8.23992,2.08806,30.0677,8.19816
105.224,0.0926583,9.06162,20.4753,-7.69592,3.26988,18.5945,-8.518,7.60776,17.797,-7.93312,3.66723,16.708,-8.43223
1.9336,0.4101,3.18526,25.2083,7.8963,5.25616,25.2325,8.03175,5.18364,25.3244,8.03749,5.18559,25.1881,8.04315
7.92022,0.0474885,0.926023,36.5371,7.14574,-0.277646,36.1646,7.07301,1.93874,36.3045,7.38181,1.71627,36.8838,7.25801
2.65398,0.0469756,15.0199,24.5083,-3.70943,14.909,24.2116,-2.48027,15.0551,24.4915,-3.23738,14.9679,24.2761,-4.00747
28.0674,0.212851,-1.27116,6.14829,6.61647,0.435282,5.66645,6.76385,0.0672622,7.43246,7.31287,-1.00624,4.46135,6.3118
6.37529,0.121144,3.95355,32.0438,6.87904,5.28328,32.4218,7.21681,5.23546,31.363,7.51099,3.65211,32.5367,6.79418
1.04635,0.234541,-0.609935,36.1427,6.92635,-0.849716,35.806,7.74422,-0.820946,35.6368,7.85596,-0.360627,36.2464,6.99691
5.26377,0.381097,-8.26873,35.9461,5.90424,-9.19444,35.4776,6.50584,-7.00415,36.0454,6.31273,-8.6825,36.4318,6.09294
71.8376,0.323992,-2.69826,24.5243,8.31617,-3.82182,28.1733,7.5063,-5.02164,25.3697,7.85365,-4.9407,26.9936,7.64535
9.80445,0.367197,12.5293,38.5282,-4.07047,13.0487,38.3685,-4.13202,10.9283,38.3869,-5.82666,12.4736,40.1805,-4.51884
56.2998,1.04035,-0.825948,10.8274,-7.40293,-5.01414,9.89118,-7.45121,-5.16629,11.1361,-7.13255,-2.89015,8.97361,-7.25973
128.049,0.552025,-7.74409,41.2761,3.2576,-10.501,41.6621,1.35935,-10.3219,42.0051,0.100012,-9.22856,42.0357,-0.558372
2.05995,0.0580841,1.90405,25.1059,7.88019,1.63811,25.0307,7.97269,3.11689,25.2096,7.89159,3.11756,25.1185,7.92535
2.53621,0.0122289,-4.84141,33.2158,7.39049,-5.73432,32.9142,7.14247,-5.73797,32.9572,7.16246,-3.98389,33.1817,7.44873
4.50875,0.359373,-6.72925,4.11873,-4.86601,-7.1836,4.33722,-5.2287,-4.10101,3.94077,-5.4367,-3.87286,4.02772,-5.47197
13.2625,0.673858,4.03141,34.2057,6.22351,6.02544,34.6528,6.4657,7.08356,34.478,5.89123,6.10891,34.0403,6.05101
1.69264,0.370564,5.52629,28.9811,6.9941,3.80346,28.843,7.30778,3.87714,28.7514,7.30216,3.73112,28.749,7.29799
4.64548,0.00151395,8.27154,34.4895,5.7298,7.24309,34.2487,5.62896,9.34271,34.7787,5.79235,8.91615,34.1629,6.26242
1.88186,0.865609,0.360568,38.0788,6.00817,1.83835,37.5798,6.98506,1.9134,37.4522,7.06947,2.04691,37.3636,7.08223
17.5426,0.64866,-8.72494,4.3962,5.67249,-6.84925,4.42507,6.31217,-8.69204,2.75971,6.15363,-8.88614,4.90113,6.37873
1.9569,0.0940038,5.67271,10.8756,6.43773,4.40705,10.8331,6.4988,4.823,10.8288,6.45175,4.40294,10.9243,6.47206
3.4414,0.135825,-3.89221,36.0331,7.107,-3.86052,34.868,7.61287,-3.55187,35.5082,7.58401,-3.52909,35.0242,7.73384
5.13489,0.0273023,-8.11558,1.19529,0.105615,-7.79442,1.11899,-1.29051,-8.62538,1.26302,-0.561626,-8.14433,1.17975,-0.999997
1.75436,0.120537,1.34839,3.93272,5.61539,2.93289,3.6817,5.70744,2.91161,3.53091,5.68557,2.48761,3.62634,5.69761
71.0086,0.0344961,11.2368,0.363897,1.02154,8.95061,0.324532,-0.408211,9.35213,0.992096,2.05722,8.91432,0.495447,0.151617
5.80613,0.408358,4.31721,36.0809,6.84366,5.9825,36.5198,6.68509,5.86205,36.795,6.6649,4.38285,35.5239,7.3731
5.20613,0.00151554,11.9028,4.05017,3.83087,11.8967,5.34276,3.9057,12.6321,4.62952,3.33926,12.5745,5.10424,3.40707
66.1673,0.250983,-4.41794,18.17,7.62131,-4.65402,16.2033,7.49284,-6.22659,19.1441,7.42542,-4.59552,22.061,7.16461
5.14396,0.290209,-6.79539,8.93994,-6.30343,-5.60649,6.77324,-7.13469,-6.56087,9.34167,-6.48375,-7.33817,9.11275,-6.58434
2.34562,0.0274042,6.50283,16.7905,6.35608,6.07357,16.7476,6.33938,7.90335,17.0844,6.18529,7.91033,17.0047,6.23209
2.36378,0.0591549,-11.3538,17.0934,7.15322,-11.2222,18.0807,6.95622,-11.3629,16.6327,7.17404,-11.3052,18.1168,6.89503
4.08975,0.0808207,-2.04293,10.3916,6.50166,-0.833541,10.6235,7.03834,-0.964407,11.5197,7.3401,-2.35355,9.89404,6.31015
5.96938,0.297894,11.1411,14.8627,5.59412,12.0469,14.8621,4.84894,9.56974,14.6532,5.99031,9.50264,14.7562,6.02099
3.19156,0.247973,13.4565,38.9651,-3.13226,13.5129,38.8623,-2.30994,12.8921,38.8074,-4.09106,13.4338,38.9949,-2.21173
8.71866,0.335545,9.29433,35.0611,-6.36673,9.16356,35.3083,-6.73967,12.7752,36.1973,-5.32029,9.72002,34.5572,-6.64156
3.30023,0.247512,-5.32899,14.6008,7.09244,-4.39372,14.3017,7.20663,-5.58494,14.5083,7.35162,-4.80994,15.7413,7.50102
0.549985,0.0328835,-4.22636,3.79501,6.3277,-4.2916,3.66222,6.3725,-3.73268,4.47103,5.70872,-3.66989,4.42184,5.67179
13.9483,0.214072,7.89637,30.5084,7.02617,7.8732,29.6228,6.96972,9.02262,33.3046,6.66079,7.52918,32.8103,6.1436
8.86859,0.596279,13.7179,36.3672,-3.1133,12.987,35.94,-5.24046,13.3651,35.9945,-4.83127,14.2131,35.9285,-3.18039
12.2954,0.373844,-7.85888,5.30084,-4.702,-8.55944,5.39776,-5.05985,-5.07456,5.08338,-5.68179,-5.25192,5.29088,-5.77962
25.8251,0.0883931,12.1585,20.7464,5.16351,15.1318,21.9632,1.28106,11.0565,20.6009,5.72196,14.5202,21.4226,2.61486
8.65054,0.933653,-12.0834,28.0637,6.32373,-11.9961,30.1903,5.46082,-11.8693,30.16,5.50908,-10.7641,29.0248,6.84459
33.7461,1.94556,-2.47037,33.7063,7.55779,-2.78091,37.6285,6.07404,-2.43836,37.6424,6.18175,-1.68048,36.8897,7.29205
9.45281,0.408947,-0.366501,28.7765,-7.67705,1.64252,29.1661,-8.24419,-0.299187,31.2277,-7.9545,-0.646986,28.583,-8.07443
3.58108,0.0123265,14.3346,35.9412,1.19297,14.3811,35.5967,1.06884,13.3534,37.5477,2.28743,13.5215,37.5113,2.14664
4.04317,0.410386,-2.35344,6.58006,6.52022,-1.12337,6.57952,6.98292,-1.02626,6.8353,7.11827,-1.67242,6.21768,6.79192
9.7725,0.307299,1.10375,9.34772,-6.89861,0.142468,10.9447,-6.99658,0.961059,10.8394,-6.64012,0.312827,10.4082,-6.91736
4.2869,0.0249246,10.052,18.1516,-7.39478,9.53056,18.8081,-7.56911,10.0135,17.3707,-7.43522,11.2888,18.0379,-7.06261
14.2357,0.00900468,-9.5441,1.67393,-2.53772,-10.5415,2.16954,-3.07589,-8.62002,1.73093,-3.41969,-10.4721,2.1221,-3.00054
9.57349,0.603444,2.11434,33.2194,6.7461,3.48443,32.4766,6.99807,3.14378,34.4883,7.23733,1.59959,33.3836,7.49574
5.16949,0.407951,2.12261,28.0967,-7.81633,1.7973,28.4738,-8.28062,3.46308,28.2325,-7.83352,2.1038,27.3225,-8.37612
2.17203,0.197477,8.53881,25.6854,7.36447,7.52553,24.0922,6.96289,7.91475,24.4849,7.09361,7.83764,24.6943,7.21069
1.00583,0.0122308,-0.47824,1.31473,3.49821,-0.17991,1.38574,3.70652,-0.151836,1.61158,4.15229,-0.220078,1.65549,4.22847
0.187825,0.170052,-4.26186,12.6814,7.77267,-4.12604,12.5046,7.77475,-4.27422,12.5048,7.7799,-4.18029,12.508,7.76283
29.0637,0.235083,-7.64577,28.7448,-7.62056,-6.83424,30.9692,-7.59031,-7.41531,30.639,-7.40932,-5.90081,29.6021,-7.91971
26.6286,0.0029516,0.837072,42.4944,0.355535,2.46779,42.5015,-1.42755,2.53494,42.5002,-1.57154,1.50412,42.4677,-1.52966
0.0621555,0.0603104,-8.68878,22.7828,7.85591,-8.75062,22.8557,7.85714,-8.61226,22.8633,7.87869,-8.68577,22.843,7.83951
2.32088,0.00417805,8.18427,1.38088,3.14032,7.76314,1.47424,3.41096,7.93045,1.59483,3.76075,8.43539,1.54193,3.62077
3.49563,0.53983,-2.24241,35.5936,-6.58795,-0.589914,35.9064,-6.90404,-2.72901,36.3185,-7.17437,-2.30411,35.2896,-7.15051
33.2574,0.48824,9.37573,32.6864,-6.51852,11.064,32.8168,-6.49073,12.8005,31.8481,-6.03945,9.86571,31.4689,-6.99555
5.62028,0.49704,-3.29194,2.90359,-4.19868,-1.25062,2.69822,-5.06352,-3.53929,3.4232,-4.65744,-3.67391,2.30472,-4.63891
1.20247,0.0273845,-2.00674,12.0562,7.82866,-2.65475,12.0456,7.76703,-1.9921,12.3469,7.88121,-2.57191,12.2414,7.79372
0.0687213,0.0140336,-0.826101,34.7414,8.02243,-0.890243,34.8891,8.03307,-0.825093,35.0194,8.03374,-0.883599,35.0262,8.04463
4.98298,0.521813,-6.70037,14.9894,-7.4733,-3.6299,14.6165,-7.62232,-8.07049,13.8509,-7.79401,-3.5601,14.7075,-7.64418
50.2094,0.0153193,-7.43747,1.11338,0.162459,-9.22164,1.61049,2.71164,-9.1086,1.46346,1.7175,-8.8065,1.58505,2.80059
3.79971,0.825302,0.756334,40.3178,-4.0795,0.911293,40.0318,-5.52007,0.230009,41.2936,-4.2607,0.831002,40.0349,-5.51409
1.05206,0.477157,-10.68,15.6056,6.01797,-9.74894,15.3579,6.45428,-9.80424,15.5091,6.49333,-9.82209,15.3575,6.45354
9.73115,0.0470035,-6.74785,31.4907,-7.43302,-9.6703,30.5699,-6.49449,-5.46126,31.6955,-7.59969,-9.84593,30.7357,-6.618
19.1782,0.0505414,7.33797,0.645442,-0.0989204,5.49234,0.703363,-1.84135,6.0899,0.747738,-0.552467,6.10145,0.578469,-2.07252
1.32525,0.617815,-3.76275,34.0149,7.771,-3.85981,34.8245,7.62728,-3.76285,34.8251,7.62442,-3.66518,34.7862,7.68689
2.28576,0.0207308,14.7228,7.84941,1.34907,14.7094,6.91957,1.39195,14.7275,6.07926,1.10987,14.7034,6.01719,1.2552
6.06845,0.131841,-13.3409,2.10087,2.11519,-14.7874,2.78544,1.1332,-14.3699,2.57925,1.06623,-13.8209,2.16368,2.45526
24.4005,1.07134,1.04995,22.2062,8.20202,-4.13688,22.3367,7.64591,-2.37209,21.7286,8.15485,-2.22207,21.8549,7.82557
0.194729,0.0114785,-7.03781,1.22268,1.34374,-6.74987,1.20828,1.42018,-6.824,1.19752,1.27999,-6.75414,1.20389,1.37254
8.57672,0.0131026,10.7444,40.3158,4.06166,11.3545,41.3636,3.70829,12.0044,41.4945,3.53608,10.8028,41.7447,3.75972
6.56055,0.444531,-12.8013,28.1144,-5.31729,-10.902,28.3095,-6.31743,-12.9319,27.5713,-5.83703,-13.1783,28.6046,-5.59446
1.82741,0.0799519,14.1221,34.8228,-3.81921,14.0435,35.9021,-3.64347,13.8927,33.9145,-3.89901,14.0773,35.6151,-3.731
5.23924,0.340005,4.27633,20.9747,7.3707,4.02504,20.711,7.76563,4.27757,21.6295,7.72577,5.97941,21.1189,7.37228
3.00031,0.226356,11.777,7.02759,3.8761,11.7517,6.71328,3.92431,11.936,7.19069,4.38455,12.7818,7.15108,3.4355
10.112,1.05299,-9.09652,15.6624,5.5237,-9.9763,16.4387,7.09615,-9.19528,14.1109,6.19085,-7.89691,15.7784,6.41492
11.664,0.613361,7.12627,5.62758,5.08216,10.2717,2.2596,4.71903,6.64661,5.70285,5.74452,8.85027,6.84441,6.08511
10.9386,0.0596355,8.10391,0.750814,0.869842,8.33526,0.977526,1.71186,6.98956,0.99031,1.42052,6.98604,0.898276,0.985401
0.0940853,0.00652248,-13.404,2.42607,4.78416,-13.2953,2.33917,4.71318,-13.2913,2.36524,4.76972,-13.3275,2.35212,4.70374
1.93414,0.532177,-9.57697,34.83,-6.02985,-10.4898,34.224,-5.77813,-10.3374,34.2617,-5.73404,-10.4768,34.4538,-5.75217
4.28293,0.0236716,-9.06121,12.2855,-6.9649,-8.89781,12.6502,-6.95458,-9.02351,10.647,-6.44764,-9.16778,11.0769,-6.7227
9.22524,0.185854,4.09619,29.7681,7.61801,5.03382,29.8381,7.73187,3.8383,31.8874,7.02963,4.05845,29.1475,7.49506
4.213,0.0574571,15.5401,30.5191,-2.12919,15.5162,30.3404,-1.25278,15.524,30.9,-1.17073,15.5065,30.2365,-1.4746
0.95977,0.0931006,15.2897,26.5293,-3.01987,15.4002,26.5397,-2.77255,15.4305,26.3994,-2.76643,15.3074,26.8363,-3.1948
3.62869,0.152684,-5.37557,30.1183,7.58207,-1.48788,30.3403,8.39644,-3.38077,30.2883,8.0656,-2.73022,30.1322,8.21446
4.92495,0.796596,2.66971,36.3641,6.22811,4.18696,36.3237,6.93762,2.30429,36.0139,7.03508,4.18087,36.2732,6.90079
21.8169,0.304319,-6.95849,1.97212,4.4052,-8.83518,2.37073,5.81869,-8.82476,1.98777,4.52268,-8.67374,1.93773,4.26112
6.80724,0.769866,0.557209,8.00918,6.33803,2.09261,6.78408,6.74873,-0.203281,7.9593,7.32386,1.52195,8.94428,6.88587
1.09288,0.0378508,5.46059,38.8758,-6.25158,5.73777,38.9321,-6.16479,4.75777,38.7484,-6.19691,4.54281,38.7476,-6.14209
0.684474,0.0747665,-10.9953,41.4045,2.45818,-11.0378,41.4639,2.05335,-10.9022,41.5314,1.88462,-10.9848,41.5415,1.84093
2.33638,1.04072,0.109097,23.0004,7.97016,1.94231,22.696,7.50908,1.82305,22.8092,7.61967,1.94061,22.6527,7.52372
1.74506,0.907724,12.4271,12.5664,-4.93072,13.8678,12.5136,-4.24267,13.7813,12.4014,-4.25351,13.8406,12.4569,-4.20928
6.18865,0.142959,2.13585,33.8962,-7.67703,-1.19039,33.5056,-7.27477,-1.18428,33.5833,-7.2456,2.54642,33.7755,-7.61856
0.937639,1.19308,8.03654,9.33689,-6.61108,6.84649,9.44832,-6.67341,6.83971,9.33632,-6.59202,6.84366,9.3898,-6.6041
15.8027,0.74088,12.5279,26.5572,-5.33395,14.5863,27.5636,-4.00723,14.7291,25.9875,-4.21699,13.8461,24.9371,-5.3981
5.93934,0.21389,-13.782,4.98854,-1.79342,-15.1927,5.67666,-1.91414,-14.2669,5.89029,-2.09536,-15.0004,4.71697,-1.77627
2.44395,0.00258569,-13.1983,15.0899,-5.95231,-12.0153,16.0463,-6.7768,-12.1555,16.1738,-6.68673,-12.5268,16.046,-6.43268
7.95671,0.0206608,6.06846,4.35731,-5.53754,6.90348,4.95863,-5.96293,6.89307,4.55319,-5.31914,5.86094,4.62584,-6.15497
3.70968,0.61752,-0.787062,14.1609,-7.54985,-3.49558,14.6077,-7.61104,-3.2773,14.6475,-7.62743,-3.56654,14.5657,-7.61864
7.99233,0.527264,-3.03042,30.3415,-7.2833,-3.33199,30.5394,-8.07274,-2.77567,28.9448,-8.31788,-2.45079,30.6276,-7.45244
24.8127,0.0228289,-13.7155,30.9724,5.11476,-14.7194,34.1883,3.22134,-14.5759,34.8918,3.45776,-14.4427,34.521,3.70157
53.2764,0.50199,1.32072,11.2119,-6.47951,2.65522,9.53974,-6.77098,-0.162248,11.7594,-7.06068,2.66574,13.3558,-7.24529
4.87754,0.0653236,-0.755738,13.1428,-7.81863,-0.0531774,12.3893,-7.2096,-0.454497,13.4776,-7.69643,-0.33352,12.1807,-7.2826
8.87421,0.742306,-12.0193,4.42903,5.18432,-11.7257,5.01189,5.99686,-9.54846,2.58415,5.93993,-12.6948,4.17053,5.86609
5.13625,0.464123,8.0393,26.6845,6.70816,7.92845,25.8877,7.4717,7.91083,27.265,7.18027,9.15891,26.7689,6.64267
2.35668,0.0424109,2.59762,0.850858,0.677179,1.73045,0.83875,1.1476,1.66113,0.834077,1.09678,1.93455,0.853368,1.5455
5.6731,0.415698,2.7405,37.6444,5.93163,2.48555,37.26,6.69937,3.9934,37.6688,6.3553,2.68868,38.2642,6.02137
6.16097,0.159241,-10.2448,10.9972,6.23974,-9.47669,12.1358,6.8642,-10.3675,10.1846,6.11041,-9.4833,12.0355,6.82782
0.229395,0.00878963,1.74576,42.1904,-3.13664,1.77245,42.0064,-3.50622,1.64648,42.0711,-3.37342,1.69722,42.0062,-3.50041
0.675863,0.0141073,6.16935,12.4051,7.00995,6.52566,12.6006,7.04214,6.63584,12.4536,7.0033,6.71831,12.5059,7.0089
4.56087,0.136929,-3.33572,6.18256,-6.74166,-3.57951,5.28177,-6.06635,-3.47209,7.3328,-7.08168,-3.42182,5.38783,-6.17307
6.69452,0.0229326,-0.310135,42.4242,-0.887147,0.227968,42.4703,-1.04583,0.666157,42.5035,-0.861373,0.773079,42.536,-0.287905
0.265161,0.157961,-2.62884,17.609,8.34834,-3.15307,17.6337,8.25381,-2.56105,17.7909,8.36442,-2.62162,17.773,8.33543
11.4219,0.436713,-3.66768,42.0408,1.60873,-3.11413,42.146,-0.321328,-3.25804,42.2143,0.0530112,-3.49814,42.1726,-0.338298
3.42078,0.0687362,4.33977,2.91114,-4.77207,5.70929,2.67857,-5.17692,5.17171,2.64646,-5.046,3.54527,3.04986,-4.41152
4.2186,0.411988,-7.2207,35.1806,6.94734,-6.92743,33.9105,7.38652,-6.96353,33.5706,7.31384,-7.18809,34.3604,7.31271
4.81649,0.372406,-2.55073,38.3787,5.86641,-2.69388,37.6727,6.06039,-1.52575,38.7596,6.57508,-2.84816,38.7063,6.26846
8.37344,0.0556113,11.5765,33.2421,-5.91692,13.3451,32.2616,-5.38266,12.656,32.9188,-5.45665,13.3601,33.1943,-5.00716
4.71185,0.0962782,-7.23101,12.7146,-7.62244,-8.44679,12.8047,-7.12283,-6.09672,12.6737,-7.89618,-8.36647,12.8571,-7.16888
36.4523,1.13715,-8.71332,33.5835,7.09468,-8.7827,32.1521,6.44705,-7.02087,31.4371,6.89533,-6.9332,32.6945,6.3818
1.71274,0.0992674,15.5284,12.5231,-1.52597,15.302,12.4106,-0.952415,15.3664,12.5334,-0.997759,15.5282,12.636,-2.05163
22.3277,1.05131,-0.259802,3.93039,6.16874,-2.5338,5.21495,6.41697,-3.66672,4.51408,5.6599,-3.63941,5.06711,6.37491
8.683,0.668567,1.87746,38.1671,-6.00083,3.51612,38.4687,-6.04868,1.59581,39.034,-6.01175,1.55183,39.2812,-5.60183
5.93745,0.658066,-11.8622,32.5101,4.30006,-11.932,31.3073,4.90286,-11.7404,31.4337,4.81571,-12.5549,33.2882,5.58412
16.3511,0.119423,14.2739,30.9541,2.59995,15.0291,28.1245,2.74105,15.0435,30.1308,1.96532,13.386,33.7463,2.25588
1.89313,0.144374,13.2638,34.1933,-4.93953,13.7761,34.0241,-4.44985,12.3835,34.3914,-5.31076,12.313,34.3358,-5.344
0,0.0304374,8.24299,42.2822,0.277012,8.19314,42.2931,0.282661,8.21989,42.2822,0.304813,8.21659,42.245,0.265841
1.46275,0.264347,15.4104,19.5923,-2.99697,15.3006,21.0417,-2.8389,15.2462,21.3014,-2.69612,15.3204,20.9062,-2.97937
0.631167,1.09146,2.27337,13.7216,-7.38046,3.38566,13.6892,-7.41422,3.37608,13.5778,-7.33556,3.37643,13.6264,-7.34611
2.24763,0.136229,1.68551,5.62633,6.48378,1.63666,5.93033,6.68,1.44483,5.0754,6.56122,1.81574,5.11817,6.52149
0.88739,0.277272,13.4139,35.7414,2.85232,13.2221,35.2102,3.41046,13.6873,36.2314,3.01688,13.2342,35.2791,3.40456
4.50393,1.86907,-9.37972,26.4097,6.65757,-6.44439,26.4154,8.08377,-6.5435,26.6321,7.96941,-6.44876,26.4577,8.05695
21.9994,1.09954,13.1281,37.6601,2.37959,12.463,38.2081,3.32142,13.2198,40.5617,2.3798,12.0696,37.8477,2.74664
2.01793,0.361047,3.00314,27.1002,7.36343,1.10459,27.029,7.5034,1.52628,27.1091,7.40539,1.1641,26.9778,7.4697
0.521032,0.0282386,6.64677,42.271,-0.249561,7.41415,42.2072,0.542468,7.01119,42.2846,-0.189072,6.75816,42.2746,-0.335768
3.55642,0.0605985,-5.38708,22.3497,7.74439,-7.69788,21.9833,7.5444,-7.17218,21.9148,7.66181,-7.69339,21.854,7.59369
19.6815,3.26981,2.24261,31.3167,7.81396,-1.56632,30.6563,8.32837,-1.10315,32.11,7.91578,-1.23075,31.1867,7.62672
3.37884,0.291167,9.31481,33.7493,-6.41491,9.14428,33.8363,-6.75964,9.73397,33.0682,-6.65719,11.0748,34.492,-6.15606
1.86501,0.502639,6.42497,38.2532,5.94688,6.307,37.4177,6.21216,6.1371,37.4595,6.18992,6.22804,37.4586,6.17459
0.0725997,0.0739183,6.52085,26.6612,-8.03432,6.52367,26.5735,-8.04767,6.38893,26.5843,-8.0686,6.45844,26.5883,-8.03603
7.47948,0.440589,-0.852673,37.4541,6.46756,-0.207072,37.9739,6.54557,-1.20946,37.4503,7.06437,0.841801,36.6318,7.0991
10.1575,0.0345273,-11.4453,13.9684,5.49236,-11.4136,13.2163,5.90447,-9.55684,13.9343,6.52834,-10.3304,12.7662,6.77531
6.83105,0.310559,10.7766,27.8361,5.81091,12.121,28.1579,5.34596,10.5244,27.4521,6.39236,12.1141,28.3734,5.30739
7.93648,0.252536,-9.83915,15.4726,-7.16264,-7.81461,15.1572,-7.38353,-9.14677,13.7699,-7.39905,-10.3023,14.5198,-7.41903
10.0803,0.531851,-1.78483,37.8799,-6.08688,0.15338,38.4793,-6.44956,-2.03355,37.968,-6.70092,-1.88313,39.8233,-5.04706
5.26224,0.809723,7.6173,36.8812,6.01373,7.51111,37.9707,5.57917,8.10041,38.1202,5.99323,7.43111,37.9252,5.58611
7.90282,0.933348,0.853232,28.8351,6.95555,2.54829,28.7169,7.3583,1.06063,27.1733,7.54931,0.683339,29.3902,8.13127
13.0492,0.0969574,5.97175,1.36063,3.04277,7.94718,1.34091,2.98706,7.4892,1.10459,2.04366,7.67425,1.13437,2.18704
3.17044,0.0588844,5.69061,6.54383,5.81445,7.04302,6.19236,5.88256,7.42856,6.35354,6.02839,7.20911,6.40646,6.02607
20.5939,2.18318,-7.01106,31.0424,7.02239,-9.14754,31.3464,6.62294,-9.02907,31.9168,6.7275,-9.31145,30.7867,6.88526
0.129871,0.0415616,4.5733,1.27235,-4.04467,4.63694,1.24305,-3.97015,4.63286,1.15687,-3.86725,4.75051,1.22735,-3.99861
1.42323,0.23272,6.00097,21.436,7.07494,6.37755,22.1846,7.13153,5.81625,21.3936,7.42258,6.63066,21.2163,7.03802
9.1356,0.210672,5.36442,4.72451,5.78512,7.50639,4.52722,5.89825,6.80109,4.39149,5.95559,7.0818,3.80253,6.01153
13.6055,0.611359,3.62279,42.1631,2.29013,4.08299,42.348,1.26869,4.73476,42.2108,1.50043,4.60332,42.223,1.40704
14.5138,0.0288155,-7.58578,10.3384,6.08232,-5.93495,8.72816,6.40982,-7.7307,8.43654,6.4035,-5.86514,9.90489,6.22858
0,0.0112285,8.23442,40.0886,5.73543,8.18104,40.1547,5.8166,8.21529,40.0925,5.74977,8.18058,40.1155,5.82277
11.5848,0.318135,-5.48391,10.3452,5.56001,-5.4685,10.041,5.6855,-5.99998,11.0714,7.05299,-2.37645,10.4661,6.69909
9.73692,0.0203186,-3.78354,36.5671,-6.75848,-3.64808,34.5796,-7.05036,-3.65028,33.0376,-7.21586,-3.75706,33.0414,-7.1718
21.7017,2.57464,1.50003,25.0752,7.96032,-1.15281,25.1287,8.05688,-0.807748,26.5109,8.3346,-1.27304,24.7238,8.38908
1.79512,0.19426,4.44431,22.2151,7.34578,4.47405,22.7909,7.49227,4.81258,22.1735,7.39064,4.20238,21.9958,7.69771
14.4166,0.0885667,-7.10195,1.07001,0.407572,-4.65999,0.901946,0.626068,-4.86412,0.860748,0.19561,-4.91999,0.963969,1.0654
14.6187,0.147824,6.43417,35.8489,6.7786,6.1829,34.9238,6.76907,6.95517,37.3101,6.4221,6.07232,37.4152,6.19512
2.68861,1.22566,8.19999,13.0083,-6.34499,10.8352,12.8098,-5.64385,10.7547,12.7062,-5.58588,10.8248,12.7572,-5.5802
23.1834,0.559503,-2.29164,27.8945,7.19304,-2.40738,27.0412,7.6287,0.520887,28.4331,7.97048,0.625859,27.6821,7.86543
7.78813,0.0840397,-2.06543,42.2494,0.486547,-2.61666,42.1027,1.62133,-2.74876,42.0979,1.72131,-3.37221,42.1502,0.939174
2.61621,0.087929,-1.35879,0.904452,-3.21204,-0.376017,0.960397,-3.36273,-0.510529,1.11032,-3.70161,-0.170933,1.0285,-3.58392
3.15904,0.145015,1.16606,24.4107,8.13243,1.00303,24.9887,8.00048,1.05914,23.526,8.10642,1.14044,23.4741,8.06821
0.1045,0.0107823,-11.1283,23.0863,7.2425,-11.3615,23.2036,7.14139,-11.1303,23.1631,7.21762,-11.2048,23.2132,7.18684
2.87827,0.175939,10.4825,39.6603,4.10934,10.4712,39.7988,4.28838,11.2624,39.5957,3.68843,11.6592,39.4044,3.47938
6.94158,0.50448,-6.08211,25.6986,7.28419,-6.47971,25.5239,7.71362,-6.145,26.8216,8.06431,-5.09749,25.3177,7.84486
2.02746,0.0896106,-8.75907,35.4201,-6.40305,-9.52124,34.9845,-6.10278,-9.50797,34.8782,-6.0596,-8.10812,35.7786,-6.47429
4.42307,0.0417588,-10.8179,1.7196,-0.98543,-11.2129,1.76016,-0.0174964,-10.9437,1.70716,0.795878,-10.7258,1.66184,0.486665
4.76835,0.0644541,12.432,26.299,5.54351,14.1723,26.2559,4.32892,14.2104,26.4028,4.28922,11.9747,26.2339,5.77263
2.64816,0.551142,-15.2786,9.53952,1.25927,-15.1885,11.2978,0.503685,-15.2328,11.516,0.516583,-15.1675,11.0247,0.505701
1.58374,0.0460437,1.15398,32.1184,-8.1039,0.283291,31.8016,-7.95663,1.64276,32.1113,-8.18893,1.79171,32.2856,-8.1509
2.82771,0.229706,2.26214,33.9666,7.06868,0.733241,33.8065,7.28925,0.264069,33.8239,7.40118,0.204181,33.7449,7.46431
5.14453,0.57286,-2.13377,24.4688,8.24296,-2.17941,23.1652,8.19433,-0.694542,24.0124,8.54359,-2.25234,23.1612,8.19753
1.08123,0.0848324,-6.70148,14.9452,-7.48704,-7.81584,15.1125,-7.40005,-7.53354,15.202,-7.42562,-7.74317,15.2056,-7.39687
26.8468,0.725557,-9.17575,8.77368,-5.73392,-9.11302,10.6024,-6.46794,-10.5291,9.10246,-6.35482,-7.40876,9.02399,-6.60181
83.1269,0.211032,0.15004,0.79356,-0.144268,0.0339145,0.816904,-2.69587,2.47165,0.829751,-1.49133,1.27549,0.875743,-2.63457
38.9052,0.00250774,1.67859,4.97625,-5.75945,3.01076,3.73271,-5.58619,4.9331,6.70691,-6.11914,3.95611,7.90095,-6.29461
1.9266,0.16974,14.2767,9.5168,1.38261,14.1624,10.7971,1.62766,14.0831,11.1465,1.68976,14.1935,10.693,1.70586
3.61123,0.370412,0.707745,4.00719,5.54221,1.26922,3.87334,5.60109,0.797225,4.82826,6.48129,0.0555553,3.45298,6.10357
2.55714,0.0280691,4.46942,1.71233,4.0252,5.94274,1.56442,3.64373,5.92385,1.67553,3.89189,5.70372,1.55806,3.62661
12.888,0.431144,-6.77852,4.42945,6.31459,-3.75315,5.78396,6.77809,-4.44632,5.07929,6.4921,-4.00515,4.99804,6.57074
3.95862,0.714254,5.82716,36.5195,-6.10918,5.88403,35.7325,-6.95433,5.40383,37.2674,-6.87431,5.96183,35.7298,-6.93243
3.16814,0.204819,-7.93566,8.89898,6.37812,-9.68827,8.97425,6.05228,-9.40563,9.15907,6.07868,-9.47983,8.97641,6.06699
5.19061,0.742963,4.18577,37.2611,5.79472,3.71882,36.754,6.96924,6.00912,37.4172,6.1961,4.40233,38.0583,6.20545
21.1219,0.123927,3.74121,30.3025,-7.36075,5.4325,28.7963,-7.82024,3.59795,28.631,-7.25837,5.79482,30.1755,-7.87328
7.73506,0.0265781,-5.1067,15.9525,7.37802,-7.10312,15.641,6.96652,-2.61874,16.0164,7.42513,-3.09995,16.0614,7.47443
6.0766,0.0321618,0.0113155,3.26765,-5.24627,2.61183,3.03729,-5.54129,2.26647,3.16396,-5.60849,-0.864017,3.48508,-5.24441
46.0922,0.187147,-10.6898,27.3689,-6.26818,-9.04391,27.7163,-7.25536,-9.03445,29.1531,-7.27528,-10.5703,30.2664,-6.14987
3.53011,0.197249,3.42152,3.14204,-4.3646,3.2493,2.52069,-4.72428,3.49619,3.93805,-5.09854,3.03423,2.35071,-5.00292
3.61661,0.212262,13.6237,7.95842,-3.58886,14.2282,7.79605,-3.01869,13.732,7.72478,-3.54605,13.779,8.10074,-4.15335
0.596635,0.0107578,-4.52369,1.06171,-3.24139,-4.25928,1.19822,-3.61427,-4.18827,1.16051,-3.53869,-4.60414,1.12927,-3.40996
7.80487,0.228751,9.58563,9.77383,5.8626,9.08735,8.98724,5.91238,8.01186,9.54373,6.19071,10.8526,9.86876,5.17167
3.15777,0.311322,8.21887,38.354,-5.43754,9.51934,38.845,-5.61638,9.79756,38.8627,-5.74272,7.96434,38.4744,-6.20636
9.23514,0.0588396,-1.96027,42.277,0.200534,-2.04319,42.2734,-0.591402,-3.07773,42.2475,0.0688981,-2.61034,42.2824,-0.569135
26.8073,0.0592119,-4.36233,0.82677,0.0471048,-2.7581,0.771519,-0.165674,-4.27118,0.981858,1.56263,-2.3242,0.815662,0.900944
2.21865,0.0612062,-8.59097,38.018,5.90915,-9.39235,37.8851,5.33919,-7.97764,37.9637,6.16014,-9.38899,37.9882,5.37777
3.60592,0.291077,6.65977,2.64689,-3.62631,6.83181,3.22879,-4.23781,6.83375,2.11177,-3.64624,6.89192,3.36417,-4.20408
4.28155,0.20532,14.391,23.6324,3.13312,14.6171,23.5802,2.89096,15.0638,25.237,3.05351,14.432,23.2486,3.73698
25.2043,0.069632,5.97311,10.8133,6.09873,8.43677,10.5888,6.04394,5.768,9.16112,6.46965,7.23961,11.001,6.05244
0.537097,0.481491,2.23964,35.9907,7.13857,1.97491,35.7167,7.75174,2.16833,35.6842,7.64751,2.25323,35.7035,7.61025
5.94183,0.0460474,8.32871,29.371,6.82926,9.26088,30.0219,6.84671,10.7455,29.5607,5.87331,9.72807,29.4265,6.2672
9.16174,0.34215,12.3776,34.4996,4.11257,12.3299,34.6317,4.70998,13.7616,33.2871,3.01173,13.1822,35.4673,3.6007
10.4608,0.120931,0.118343,16.2479,7.65173,2.62486,16.3564,7.14899,-2.26329,15.9261,7.43529,2.34029,16.4807,7.36755
1.65369,0.0135621,-5.39512,36.1891,6.61525,-4.72742,36.1783,6.80447,-3.9026,36.4178,6.92723,-3.81238,36.2041,7.02859
10.4752,0.808612,-12.0929,7.84758,5.03971,-12.0802,8.7703,5.52724,-7.57838,8.20934,6.42799,-12.787,7.16109,6.13131
4.84082,0.218792,13.4069,29.9554,4.25854,14.421,30.0803,2.81314,12.525,29.8749,4.83428,14.444,29.9006,2.93377
6.92526,0.18325,7.88831,27.5204,7.02016,8.6975,27.0295,6.84886,7.73917,28.6594,7.26038,8.39431,28.2428,6.95752
5.76364,0.150318,-4.61468,5.20421,-5.67127,-2.10176,5.10049,-6.02187,-1.98462,5.24715,-6.01461,-5.12383,5.27121,-5.77756
23.3408,0.863236,-5.66016,27.5831,-7.29042,-2.5942,28.2269,-8.48972,-5.93313,27.3356,-8.16449,-5.27371,31.0752,-7.76526
3.28278,0.64067,14.8685,32.4117,1.42586,14.9864,33.0488,0.958688,14.7478,33.4765,1.19774,14.6653,33.5749,1.25918
34.7871,0.224393,2.24578,4.85271,6.13704,3.5368,5.44354,6.20129,4.78932,5.29102,6.09109,4.8497,4.60256,6.12952
1.74827,0.244048,5.12873,6.71672,5.76431,4.94237,7.04517,6.50988,5.62095,6.59208,5.82267,5.11829,6.34302,5.75132
61.219,0.32885,-4.1338,1.50672,3.42181,-2.32793,0.83654,1.08702,-2.16726,0.938183,2.06572,-4.10669,0.869011,0.673435
2.31349,0.781977,3.48317,3.9777,-5.14176,3.48627,5.77185,-6.04985,3.39214,5.57248,-6.00208,3.56155,5.82077,-6.08503
7.6816,0.20985,1.16599,32.229,7.20428,1.04576,32.359,7.41434,1.7549,33.0197,7.55986,3.68358,30.7332,7.57583
1.48116,0.196724,-0.876921,11.575,7.39067,-0.405137,12.4658,8.0331,0.0540647,11.981,7.89412,-0.46984,12.4356,8.01216
57.2374,0.267909,13.2302,5.96229,-3.05917,12.2121,8.0205,-5.33335,10.5953,6.65827,-5.41455,13.673,7.63059,-3.78958
3.77333,1.45333,7.46119,32.8562,6.12413,7.54739,34.2476,5.61081,7.2406,34.2061,5.62871,7.76429,34.2996,5.65239
5.77827,0.461726,1.52158,39.3939,-5.34698,1.66732,40.3069,-5.11102,1.35676,39.9715,-5.46682,3.44022,39.6146,-5.50496
0.0673197,0.000938706,-8.72111,1.9631,-3.81157,-8.72517,1.92547,-3.73009,-8.85432,1.96926,-3.76211,-8.85642,1.95126,-3.72411
1.4054,0.0515993,5.6184,1.358,-4.2919,5.30942,1.0558,-3.80683,5.50928,1.06796,-3.84985,5.71794,0.938743,-3.63049
25.643,0.628892,-0.611174,33.1641,7.29355,0.966666,32.5236,7.59024,0.859435,33.3646,7.6951,-0.781035,31.5846,7.8044
0.976282,0.00301219,-12.1617,40.0001,4.12223,-12.4568,40.3034,3.51754,-12.4588,40.2459,3.59324,-11.994,40.1488,4.04455
1.30744,0.0244252,-13.6519,34.3807,-4.09558,-13.4235,34.3382,-4.15992,-14.2903,34.7744,-4.27319,-14.121,34.779,-4.32703
9.9298,0.687977,6.16203,33.024,-6.81601,5.74723,33.762,-7.52479,6.29142,31.8445,-7.73724,7.87328,33.2748,-6.99093
9.96825,0.0109006,11.9961,8.33854,-5.17338,10.1962,8.68858,-6.02529,13.5143,8.16688,-4.58591,10.23,8.38305,-5.75772
4.33529,0.174684,10.0522,24.1528,6.40766,10.7129,24.1182,6.16263,8.58696,23.8448,6.54003,8.59265,23.8031,6.57601
13.6051,0.227194,8.74026,42.151,0.799376,9.13524,42.2037,-1.59243,8.98441,42.1998,-1.7441,8.2266,42.2274,-1.79533
0.0444155,0.0127828,14.2999,13.5693,3.87319,14.311,13.4789,3.87614,14.3978,13.4361,3.76163,14.3943,13.5761,3.77179
8.89741,0.603966,-0.897858,7.86957,-6.12048,-0.425475,10.4957,-7.2136,-1.16645,7.4641,-6.80277,-0.0501665,7.80789,-6.427
3.86918,0.0758815,14.9295,21.5389,-2.92232,14.7548,21.8377,-4.68825,15.0463,21.5013,-2.63711,14.8136,21.6959,-4.45338
3.84795,0.570205,-11.9869,18.8893,5.69172,-12.3551,18.415,6.23387,-11.069,18.8654,6.37861,-12.262,19.3842,6.22
10.686,0.661596,2.90732,16.224,6.91634,3.07246,17.4064,7.85365,4.65145,16.2062,6.78694,2.85323,15.5486,7.54834
5.50187,1.2014,-2.30383,30.6725,-7.49885,0.147039,33.0626,-7.98533,0.281536,31.7496,-7.92165,0.0203658,31.8262,-8.00952
15.2463,0.0725489,-1.63407,13.8796,7.64759,-4.02834,13.8382,6.90145,0.404156,13.231,8.12523,-0.313613,14.1721,7.94929
7.86386,0.271761,10.5867,11.6738,4.73655,10.7947,11.855,5.64194,10.8632,11.683,4.66902,10.9398,9.1775,4.82058
2.74369,0.0470535,7.85126,41.2063,-4.00091,7.37227,41.0249,-4.41549,6.47351,41.0091,-4.13425,6.51561,41.0429,-4.06413
10.3269,0.17888,6.36278,22.3507,7.01499,7.28782,21.8604,7.10618,7.09754,23.5398,6.97601,9.50713,22.2212,6.74438
61.8528,1.11943,-7.74058,35.1827,-6.60483,-4.11218,35.1289,-7.17709,-7.4604,37.2663,-6.7034,-4.50867,36.5489,-6.48236
21.714,0.321886,-13.0727,2.16623,0.624817,-11.8155,2.27644,-2.23451,-10.3812,1.86846,-2.36574,-11.4807,1.98918,-1.62113
4.50247,0.400367,5.17527,13.5884,6.8869,5.18506,14.8202,6.77089,4.97115,15.4044,6.67552,5.03382,15.3905,6.59157
2.51398,0.190641,15.179,23.295,-1.48615,15.1342,23.1681,-2.04044,15.5233,23.3406,-1.18608,15.2884,24.414,-1.91457
3.57432,0.114677,1.16325,36.0372,-7.01862,-0.519719,35.9056,-6.91454,-0.451835,35.8617,-6.9434,1.93411,35.9453,-6.96341
7.61759,0.351303,10.0609,33.6264,5.83094,10.0543,34.8316,5.69066,10.62,33.0851,6.06146,10.6484,33.5669,5.71221
0.931586,0.0559443,10.7138,37.349,5.14722,11.0648,37.6415,5.05044,10.9678,37.4862,5.03316,11.0883,37.1628,4.87088
8.36103,0.162246,5.22101,8.75557,6.03065,7.56586,8.65256,6.14381,7.9852,8.76187,6.0412,4.98335,8.4237,6.47099
0.611047,0.031728,10.9659,1.77301,-2.56229,11.0583,1.91234,-2.44546,11.08,1.50637,-2.89715,11.2176,1.93216,-2.40816
9.08378,2.38407,11.1219,37.5217,-5.92688,13.1105,37.9218,-4.15748,13.0439,37.5274,-4.05889,13.4195,37.4002,-4.17426
6.79835,1.70511,0.192914,5.02896,-6.0979,-1.99292,5.27373,-6.05018,-1.77868,5.17914,-5.77909,-1.64983,4.58718,-5.88778
24.2927,0.183362,11.3715,29.14,5.45335,8.01543,28.7794,7.15116,14.5188,29.3826,3.34006,9.96159,28.598,6.56232
4.76287,1.08173,9.19606,17.2351,5.91332,11.3022,17.2852,5.20224,11.24,17.4097,5.27342,11.3283,17.3801,5.1754
6.26635,0.567242,5.38458,0.940201,0.768524,7.1778,0.719977,0.197609,6.76455,0.74709,-0.0800257,6.57046,0.730411,-0.280132
2.87842,0.239992,-2.46867,16.0146,7.42888,-1.9179,17.8024,8.41669,-1.93434,17.6063,8.34171,-2.08375,17.5965,8.32063
0.969525,0.203735,-7.18401,15.6769,6.9024,-7.74249,15.6064,6.50976,-7.81516,15.7877,6.48475,-7.83202,15.6842,6.4256
5.49817,0.0120045,3.03971,1.25668,-3.97797,2.98815,1.47991,-4.3756,4.30063,1.31882,-4.13325,4.48114,1.10725,-3.78149
2.33775,0.106433,-1.89575,39.8857,-4.99392,-1.0212,40.099,-5.16797,-1.86976,40.9778,-4.32672,-1.78816,40.728,-4.52992
16.3629,0.236027,8.78912,29.5244,-7.09678,10.4921,30.1218,-7.08476,12.1174,28.6353,-6.22642,10.225,29.073,-6.84548
0.502291,0.0474161,-7.13105,13.2834,7.5362,-7.72934,12.8838,7.39547,-7.72829,12.9759,7.38075,-7.66038,13.2511,7.36477
37.7618,0.722838,4.12576,0.802291,-1.51834,2.53789,0.849095,0.332647,3.10888,0.860992,0.355649,1.83403,0.820213,0.343824
14.8397,0.199844,6.23268,42.3238,0.0616194,4.42057,42.2763,1.0955,5.74782,41.8525,2.79816,5.75701,42.0476,2.01037
3.67655,0.336593,14.8751,29.7671,-3.83296,15.1099,28.9366,-3.61877,13.3338,29.1455,-4.89373,13.7193,29.2369,-4.70167
4.13733,0.268983,6.67267,2.96546,5.62458,3.11665,3.5279,5.65689,3.60547,3.38585,5.62364,2.98365,3.62705,5.65781
8.06038,0.0875565,5.54074,27.2329,7.31089,7.33072,27.1367,7.52046,3.00668,27.0563,7.39162,7.58897,27.5181,7.35444
9.44449,0.923026,-7.19126,37.6871,5.27251,-5.58642,38.0956,6.43814,-7.97882,38.6351,6.05336,-7.00866,36.2301,6.28546
49.6192,0.281012,-13.128,9.82516,-4.54748,-13.6911,11.2865,-4.50182,-9.63002,10.6145,-6.88724,-10.712,11.7427,-6.70119
3.39628,0.141642,-3.33774,4.6468,-5.63267,-3.36902,3.52566,-4.70374,-3.51976,5.01972,-5.79945,-3.53092,3.55725,-4.81746
4.79436,0.296781,1.09851,9.53995,6.37195,0.443542,9.73595,6.68776,1.97758,9.03674,6.62485,2.02991,10.4969,6.75238
1.22918,0.0596707,2.73445,36.5838,6.42956,2.29292,37.1413,6.83348,2.56217,37.1224,6.72889,2.19747,36.8575,6.77886
6.72706,0.238282,-7.98319,5.99505,-5.41109,-8.32982,6.39364,-6.7599,-8.25949,5.74206,-5.43307,-7.43176,5.80907,-5.57973
22.8841,0.000820727,-10.5013,42.0346,-0.12803,-8.75105,41.9713,-1.38533,-7.84966,41.9268,-1.49645,-9.23159,42.0006,-1.56456
3.89524,1.95355,4.86479,23.3419,7.18253,6.82666,23.8824,7.04837,6.82269,23.8283,7.02667,6.83384,23.7002,7.07632
3.36994,0.308414,-2.7792,12.7266,-8.1264,-4.7906,12.2346,-7.81245,-4.32464,11.9501,-7.64919,-4.63041,11.6647,-7.56828
4.56031,0.110179,4.40636,14.4127,7.36232,2.9087,14.4633,7.70907,2.87904,13.9852,7.60405,4.9156,14.3143,7.06684
8.3126,0.734943,-5.49507,13.6327,6.58675,-4.0975,13.7381,6.90574,-5.59561,14.3552,7.28573,-6.19951,12.8578,7.71108
0.230003,0.0657526,-3.10801,2.11463,4.8862,-3.46371,1.98038,4.60455,-3.59056,2.09723,4.81235,-3.59144,2.05826,4.72535
1.50638,0.0927363,13.3406,17.4364,3.78264,14.0885,17.6035,3.28237,12.8222,17.3652,3.94673,14.0338,17.5511,3.31672
18.6495,0.819513,10.9125,11.6505,4.65078,13.5734,10.529,3.42346,12.7319,11.4604,4.43153,12.5795,10.6125,4.1113
5.16633,0.78341,4.8941,16.6393,6.05033,5.99589,16.74,6.32352,5.09478,15.4358,6.58197,4.66164,17.2222,7.2814
2.74827,2.07481,2.59348,35.9136,-6.35709,5.12738,35.7568,-6.86833,5.05214,35.669,-6.90507,5.12804,35.803,-6.88584
4.40513,0.47282,-9.95006,37.8645,4.89636,-9.97118,36.7766,5.33287,-9.45183,37.9341,5.29828,-10.6317,38.4067,5.50876
2.17035,0.0282791,13.2873,1.6647,0.173676,12.6861,1.14164,1.18508,13.0092,1.35022,0.546593,12.6981,1.25273,1.386
1.69631,0.179594,-4.76452,9.46355,-7.02513,-4.71903,9.0953,-6.99842,-5.03421,9.64263,-7.37791,-3.99121,9.5173,-7.2064
16.8878,0.821774,-0.0223283,14.2517,7.94831,2.51644,14.9,7.82451,4.73312,15.0968,7.04917,3.69783,15.1739,7.23578
6.03306,0.0688356,10.5265,28.1102,-6.97379,12.602,27.8529,-6.1146,9.28787,28.2461,-7.18923,12.1154,27.9956,-6.45402
0.141018,7.10089e-05,-8.45082,7.56589,-7.02991,-8.09312,7.60241,-7.05102,-8.16193,7.55717,-7.05347,-8.44833,7.65675,-7.01473
5.21659,0.351927,-13.5896,11.7655,-4.3618,-14.5993,11.7544,-4.38065,-13.691,11.3268,-4.47254,-11.9699,12.493,-5.982
15.1389,0.210233,2.86206,7.21359,-6.37464,3.68475,7.26682,-6.08666,1.13098,7.47311,-6.39008,1.73942,9.5317,-6.77452
7.80892,0.181875,-13.3278,5.33796,-1.76772,-13.572,4.13315,-2.45209,-13.623,5.45953,-1.82475,-12.4224,5.15228,-2.35542
0.993843,0.168956,-1.14278,42.3224,0.220341,-1.31919,42.2934,0.407833,-1.35627,42.2864,0.301378,-1.47347,42.333,-0.194271
11.9981,0.137425,8.27962,40.4639,-4.28861,8.15174,38.4086,-5.45007,8.07457,38.5407,-5.41291,8.30326,41.8446,-3.24372
11.5817,0.0936167,-0.311273,42.268,1.43401,-0.464798,42.3824,0.717102,0.21863,42.4537,0.312973,0.874812,42.4933,0.562763
4.53449,1.61719,-10.6666,32.0112,-6.32854,-10.7695,30.3382,-6.24956,-10.6834,30.3146,-6.15204,-10.5695,30.3123,-6.15235
33.1277,0.322774,8.97938,1.04295,2.15939,10.3594,1.49877,3.80564,8.90084,1.62978,3.85667,9.36054,1.75065,4.12965
29.3504,0.914554,-7.2749,19.6954,7.13558,-4.74219,20.2019,7.64775,-6.16879,21.084,7.93125,-4.70997,19.3678,7.60734
6.2831,0.241028,14.2487,9.72583,-3.46778,14.334,10.3606,-4.3991,13.4929,9.7843,-4.1013,15.1616,10.1862,-2.37324
26.9393,0.32637,-3.59228,32.0578,-8.22295,-4.17401,28.9018,-8.27388,-5.39373,31.6542,-7.61159,-3.87547,29.2599,-8.27371
4.04536,0.151202,-7.06593,27.4426,7.57488,-8.11504,27.2134,7.32803,-5.51876,27.5443,7.64141,-5.50946,27.5895,7.60616
4.97037,0.0397255,-1.38414,7.46958,7.03363,-2.53299,7.94392,6.4544,-0.488623,7.48759,7.36068,-1.32424,7.055,7.06594
5.16779,0.666721,12.6028,7.10762,2.61242,12.7341,5.34374,2.54751,13.8864,7.1006,2.43021,12.9743,7.29284,3.33117
5.13303,0.103569,11.9146,9.82002,-5.17273,11.9501,10.5164,-6.22797,12.0213,9.96273,-5.82131,12.1651,8.97371,-5.54979
10.8103,0.736189,12.5331,29.2167,-5.12649,12.1296,28.5903,-6.24179,14.6082,28.5011,-4.08038,12.7138,29.9186,-6.25319
5.38191,0.158133,9.82541,10.7532,-6.53945,9.82991,11.8478,-6.47606,9.58266,9.61564,-6.31286,9.90885,11.8421,-6.46404
7.88715,0.412727,11.0307,9.06479,4.24145,10.8125,8.60455,4.7828,11.2606,9.50667,4.68952,13.2491,8.7865,3.23854
2.4632,0.190031,10.5886,5.76302,-4.88837,9.65098,6.24229,-4.97915,9.48966,6.13649,-4.88642,11.4626,5.72181,-4.65721
30.0048,2.45761,-4.63931,33.8143,-7.73234,-7.40039,33.8653,-7.0986,-7.03743,33.4765,-6.81362,-6.93593,31.7034,-7.54737
7.00691,0.756576,11.7602,17.2418,3.95882,11.7597,17.7119,5.16907,11.9966,15.5278,4.45629,12.8856,17.2767,3.89189
14.7973,1.23838,9.70905,9.52486,-6.25042,11.0387,9.337,-6.27654,9.05538,6.00732,-4.99045,9.03127,5.77358,-5.3775
0.703284,0.200712,-6.41082,9.35281,-6.56437,-5.42014,10.1582,-7.31087,-5.34499,10.1612,-7.34235,-5.57173,9.91252,-7.2122
2.26831,0.317704,6.4233,39.5418,5.34509,6.27091,39.0644,5.5466,6.06569,39.8517,5.89009,7.2252,39.6169,5.53895
3.51943,1.06234,11.4291,3.32854,-3.23903,11.0607,2.00589,-2.44657,10.9056,1.86964,-2.68479,10.8942,2.07451,-2.62481
15.5234,0.536881,-10.0854,36.4031,4.98574,-10.0061,32.8552,6.57759,-8.81314,36.6149,6.10191,-10.4144,36.7782,5.34362
16.1388,0.0465872,2.92589,42.5258,-0.665542,3.87023,42.4104,0.428494,3.88753,42.3836,1.13368,4.45243,42.4089,0.00581173
1.30197,0.174994,-0.0345087,38.2053,5.92748,0.283624,38.0676,5.99498,0.202888,38.4281,5.88878,-0.49795,38.1507,6.50324
9.94471,0.187717,15.1637,22.6422,0.996672,15.4701,22.4481,-0.747855,15.3319,23.0942,1.65697,15.5232,22.6136,-1.31697
29.4111,0.455804,-11.6525,20.8057,6.02978,-11.9577,19.3959,6.22729,-10.0278,20.5537,7.05081,-11.2178,19.151,6.45395
1.45014,0.111878,1.33873,1.30083,3.40741,0.537098,1.61309,4.19612,1.09974,1.59322,4.09533,0.835554,1.56383,3.99426
2.83398,0.11204,-8.84601,21.8671,7.43774,-7.83144,21.8574,7.57472,-9.13633,21.8864,7.54223,-7.75922,22.0731,7.56966
4.2987,0.333695,14.9622,12.3381,-0.27515,15.2175,11.977,-0.0342546,15.7869,13.9389,0.0319174,15.2887,12.3749,-0.921705
2.15978,0.416001,15.207,23.1574,1.98829,14.6147,23.5386,2.89434,14.6756,23.3834,2.80818,14.6698,23.3972,2.7613
56.4391,0.59045,13.4557,32.0597,-4.29755,13.8959,30.7602,-5.31051,13.877,34.0453,-3.86471,15.0707,31.9719,-3.51199
0.0253094,0.00502915,-13.2306,26.1287,6.02729,-13.1973,26.3535,6.046,-13.09,26.528,6.13198,-13.1916,26.5736,6.0322
31.6671,0.0463159,6.16139,42.3692,-1.56822,5.81415,42.349,0.117739,6.83059,42.2871,-0.431943,5.48332,42.3842,0.0388282
5.27941,0.0742681,-9.00637,11.7469,7.01731,-9.19497,14.0655,6.21079,-9.09129,14.0639,6.20145,-9.24402,13.4101,6.47117
7.46332,0.408009,14.82,24.082,-2.04963,14.8984,24.1368,-2.46816,15.6285,25.5647,-2.00714,15.1397,21.7787,-2.45555
13.5559,0.361157,-14.0894,8.06304,4.97299,-14.4948,5.95925,3.97075,-14.3673,5.56488,4.2132,-14.563,6.24849,3.83121
2.29002,0.222787,7.59732,36.7967,6.03642,7.59871,34.9903,6.29344,7.5392,35.6366,6.26998,7.51028,34.8955,6.27517
30.3641,0.0161558,-15.2241,15.1842,0.862404,-15.432,17.6439,0.502629,-15.397,16.1175,-0.888734,-15.4787,17.5635,-0.324556
11.0974,0.263156,3.79613,11.0701,-6.97963,3.87589,12.4225,-7.25345,5.9207,10.8517,-7.70781,4.2711,13.124,-7.33196
1.94727,0.0382421,-9.74563,20.7698,6.93819,-7.94339,20.329,7.61491,-8.17784,20.216,7.48859,-10.1254,20.9721,6.76516
6.63144,0.0239708,8.15191,20.2856,6.50711,10.3076,19.6526,6.6423,9.74388,20.3021,6.30106,7.0619,20.1405,6.78326
1.48381,0.163836,-11.6159,19.3281,-6.75234,-11.378,19.4177,-7.032,-11.307,19.6209,-7.13763,-12.1472,19.0081,-6.66736
14.4994,2.37818,11.9694,22.4407,5.4223,9.6156,22.0358,6.5646,9.60487,22.1914,6.33302,10.0259,23.5542,6.80744
15.3486,0.181584,-5.57989,6.1621,6.85047,-3.72651,8.0642,7.01949,-5.49115,8.59177,6.1449,-5.09577,7.92002,6.55636
5.93667,0.85973,-0.712582,9.32975,6.03357,0.360656,9.54945,6.66485,-1.50057,8.82106,7.0889,-0.764776,10.6235,7.01533
9.27904,0.265186,-11.4418,34.6126,-5.56627,-13.7129,33.9424,-4.47497,-10.3851,34.5964,-5.81421,-13.5308,34.2178,-4.15698
4.51976,0.0282067,-9.92651,1.70032,2.92432,-9.71716,1.49434,0.967955,-9.52033,1.71826,3.2319,-9.64639,1.49149,1.01233
6.14026,0.640153,-11.9985,23.9451,5.72997,-9.86148,24.1846,6.5949,-12.4952,23.5231,6.29727,-12.3798,24.6937,6.39187
3.40015,0.0958449,-6.85459,32.7023,6.42717,-5.25551,32.645,7.52998,-6.24927,32.2174,7.15333,-5.73402,32.8617,7.1359
0.00721213,0.00925616,-12.0731,3.2483,-3.3487,-12.1432,3.31217,-3.33095,-12.1277,3.33032,-3.35074,-12.1324,3.29195,-3.32585
4.19063,0.309311,7.29355,27.6995,-7.04079,8.47744,26.8803,-7.37944,7.81458,28.0553,-7.06457,6.98011,27.7881,-7.45679
3.15731,0.260628,-7.77265,28.3621,7.86165,-7.81452,29.1074,7.63238,-7.61999,29.7849,7.2408,-7.53862,29.7492,7.32235
20.5795,0.447711,3.68908,37.7273,-6.32896,3.72092,40.0809,-5.07099,5.13939,38.2754,-6.67765,3.92008,40.7622,-4.56829
7.90286,0.132578,13.0242,5.1788,-3.06254,13.3029,5.76909,-2.92149,13.155,5.83511,-3.15626,13.3808,4.47316,-2.6984
0,0.00547344,-8.15364,16.7703,7.65947,-8.15185,16.8131,7.67493,-8.21385,16.8066,7.65789,-8.20818,16.8391,7.67532
0,4.68044e-05,-0.14644,18.6048,8.67679,-0.143215,18.6766,8.66875,-0.144809,18.7135,8.6722,-0.144936,18.6344,8.67313
3.86003,0.0497409,3.41435,7.81479,6.49162,2.85328,8.29985,6.36947,4.68515,6.62962,6.58724,4.30255,8.03842,6.69117
4.13419,0.114098,4.03638,31.7191,-7.56992,4.12174,33.4193,-7.51076,3.67273,30.463,-7.43487,4.19595,33.4576,-7.50715
1.3607,0.169292,11.0681,33.1911,-6.09255,11.1833,32.7691,-6.4182,11.3432,33.1653,-5.96278,11.0325,33.4504,-6.40491
13.4454,0.151811,13.4965,32.1615,3.92578,14.3571,31.0091,3.01496,11.8858,33.3461,5.06806,13.7834,32.6541,3.48498
2.92198,2.6668,2.21173,13.7843,-7.42879,-0.623459,14.2126,-7.56517,-0.630099,14.2604,-7.61421,-0.630946,14.1543,-7.55035
1.45582,0.107181,-3.12899,4.65366,-5.70233,-2.47204,4.12689,-5.54092,-2.00103,3.93419,-5.6019,-2.07352,3.913,-5.56832
4.57535,0.133175,6.58595,34.2098,-7.30782,7.58597,34.2224,-7.40297,6.39765,34.145,-7.47637,6.72132,35.4388,-7.04664
7.53786,0.198381,-13.9396,30.1899,-4.20574,-11.753,31.6736,-5.83311,-14.3712,30.1462,-4.31711,-11.7992,31.7947,-5.89557
11.8286,1.37445,-1.09484,41.8199,3.04219,0.555018,42.2764,1.81396,0.897024,41.987,2.71324,0.474784,42.3165,1.64022
3.04523,0.323726,-4.90303,10.9369,6.78332,-4.00121,12.2246,7.75119,-4.4129,11.8055,7.54507,-4.17206,11.8668,7.58489
0.0728443,0.000865912,1.98964,5.95828,-6.79127,2.04084,5.72419,-6.70935,1.97066,5.78433,-6.73634,2.04935,5.90397,-6.76637
3.31743,0.2528,4.96698,40.8275,-4.06525,5.1836,40.5327,-4.95033,4.76217,41.083,-4.15588,6.47841,41.025,-4.09091
10.578,0.154935,15.1587,10.3419,-0.464275,15.4018,10.5239,-1.71505,15.0382,9.6926,-0.883268,14.466,9.95404,1.10031
2.12127,0.0382061,13.5923,2.27686,0.0836412,12.9748,1.66095,1.17506,12.9165,1.53232,1.17637,13.3231,1.86333,0.444452
17.1541,0.157298,5.94584,1.17864,2.44589,5.268,0.950416,1.0454,4.2454,0.904381,0.709484,3.69594,0.889474,0.816743
5.54204,0.351713,3.59879,34.1438,6.13938,3.96371,34.2055,6.21462,3.66104,32.5823,6.76979,3.29331,34.7293,7.29174
5.56654,0.00189989,7.195,0.431881,-3.1393,6.53158,0.626571,-3.31244,7.35379,0.714339,-3.79781,6.75361,0.898396,-3.97555
10.9505,0.201901,8.6299,36.6026,-6.21494,6.0413,36.467,-6.13645,11.6422,36.6099,-5.84653,11.3967,36.8128,-5.88542
1.42488,0.112905,12.8777,12.7746,4.83498,12.5514,13.5766,4.76763,12.4458,13.6211,4.77936,13.137,12.7102,4.6933
25.123,0.601797,3.03503,9.76922,6.04599,5.57072,7.72056,6.68505,2.34906,10.2463,6.63612,5.09221,13.0326,6.86126
3.23534,0.0869977,13.5778,8.80919,2.9605,14.3655,9.07236,1.7891,14.3822,9.24615,1.86377,13.2534,8.74167,3.2367
7.47974,0.336392,-11.2277,4.63552,-3.32447,-10.4952,4.6755,-4.04819,-8.76408,3.56925,-5.24398,-9.9114,4.20238,-4.48525
0.00142874,0.0376486,0.55961,0.815536,-2.32893,0.636316,0.83687,-2.37611,0.639287,0.832624,-2.46995,0.577196,0.838841,-2.62709
9.30405,0.315456,-11.9381,35.1968,-5.15984,-11.6437,34.8691,-5.50143,-8.36463,37.7476,-6.35501,-12.5007,35.5844,-5.42048
3.01961,0.902279,10.791,8.58506,4.8045,8.98154,8.42924,5.35556,8.77341,8.29044,5.34687,8.7778,8.24081,5.36488
58.1368,0.390642,9.21742,7.85053,-6.40348,6.30223,6.98673,-6.61318,6.22376,7.0346,-6.61643,6.33269,8.89324,-6.83372
3.09426,0.822241,1.81789,27.0224,-8.44844,0.328629,28.0329,-8.32555,-0.0907203,27.0071,-7.91332,-0.0291274,26.8667,-7.95736
0.0724734,0.00439262,3.96804,0.806403,-1.96984,3.89972,0.809129,-1.83127,3.75473,0.804857,-1.97444,3.76011,0.805241,-1.83465
2.58511,0.0069189,-7.41554,3.04026,6.3681,-7.85057,3.41142,6.38178,-7.69384,3.68979,6.38751,-7.41229,3.74045,6.38345
6.24701,0.402594,-9.6266,6.85091,5.89953,-7.76025,5.87473,6.56865,-10.0706,6.81472,6.25542,-9.09711,7.67492,6.32755
10.897,0.610604,-11.0645,6.46002,5.82869,-10.5559,7.2773,6.28869,-9.14207,4.86898,6.49413,-12.0348,6.39372,6.54423
1.84764,0.0391069,2.87846,20.0396,7.60252,2.52666,20.118,7.5397,4.14209,19.6506,8.02657,4.28977,19.7021,8.0611
2.42086,0.552102,4.21793,26.9044,-7.58604,5.92473,27.0409,-7.97082,5.71027,27.2552,-7.80901,5.85345,27.0864,-7.92052
0.135219,0.016965,7.84299,18.1217,7.13846,7.73504,18.2717,7.25104,7.58763,18.1932,7.26015,7.58738,18.245,7.28192
0.737815,0.0430084,11.8919,29.8039,5.15916,12.172,29.7609,4.97079,12.5253,29.8265,4.82571,12.4586,29.8647,4.86625
1.38258,0.128637,9.09087,9.41936,-6.53614,8.10348,9.33719,-6.60865,9.49509,9.55302,-6.34541,8.31553,9.43241,-6.62457
0.109949,0.0224357,4.5009,42.0411,-3.35937,4.91646,42.0082,-3.38951,4.77757,42.0443,-3.29193,4.87403,42.0417,-3.30036
22.2375,0.176719,-5.77519,41.9914,0.889331,-4.96596,42.0132,-1.14747,-6.14829,42.0197,-0.382666,-4.4484,42.088,-0.707424
9.33259,0.625033,-2.21489,24.7397,8.22066,-2.40253,27.0003,7.64887,-2.2252,27.0052,7.68752,-1.60144,26.1405,8.31427
9.40287,0.443671,-10.5028,22.7509,7.20036,-11.0152,21.0807,6.61737,-10.2057,20.9647,6.74727,-10.4065,23.7025,6.79417
0.0615979,0.0110884,-3.22772,0.892599,1.23713,-3.27919,0.885181,1.10052,-3.22273,0.888713,1.11267,-3.17074,0.884643,1.25635
5.41743,0.334286,3.00906,33.9158,-6.94198,6.33138,34.2403,-7.46848,2.44308,34.6042,-7.5724,5.76536,34.252,-7.38928
0.389757,0.0213068,-0.89433,3.13128,5.99625,-0.512716,3.00786,5.922,-0.880005,3.04128,5.90152,-0.50391,2.91853,5.85414
3.88564,0.247024,10.7108,24.3381,5.67675,10.8362,24.6486,6.40428,10.874,22.5421,5.88655,10.9757,24.3906,5.61051
7.23302,0.04646,-5.40225,8.63337,6.12235,-4.03019,9.52898,6.68249,-5.37863,10.0383,5.66218,-4.71966,8.43852,6.56312
31.1636,0.392861,13.7326,38.5841,0.25365,14.0009,38.3117,-1.19051,13.5275,38.8393,-1.71248,12.8746,38.1223,2.2399
7.32237,0.417409,7.58138,39.1696,5.0131,8.52747,39.7405,5.78719,7.52664,39.639,5.3908,7.41271,38.0135,5.52865
9.98009,0.583876,-2.23193,26.7084,-7.81643,-2.68482,26.2607,-8.585,-2.04192,28.4125,-8.09415,-0.78963,26.7892,-8.12071
5.77362,0.0647848,6.83346,13.2937,6.74164,5.98359,13.2926,6.752,9.26258,13.3019,6.45886,9.7541,13.4773,6.3951
5.39895,0.462554,1.64635,29.9155,-7.53917,1.6486,29.4977,-8.0308,3.41007,30.3189,-7.60407,1.2688,30.4457,-8.0747
31.3907,0.0595543,0.0907094,0.927427,2.16105,-1.68461,0.809654,0.560177,-0.344118,0.792696,-0.0713806,-1.53776,0.814271,0.569883
0.787778,0.236416,9.78463,34.9884,5.88645,9.41842,34.7294,5.80181,10.1128,34.8942,5.65439,10.0695,34.8692,5.67806
4.35322,0.159602,-9.19289,32.5353,6.89557,-11.2215,32.3458,4.72887,-11.4994,32.4461,4.44089,-11.5131,32.3025,4.45254
6.68678,0.343785,0.814672,40.3526,-4.04727,4.6401,40.9943,-4.37851,3.92876,40.8256,-4.49197,4.6366,41.0268,-4.33391
6.75672,0.0097488,13.5633,11.9126,3.79193,13.5577,11.1562,3.72561,14.4198,12.1315,2.80187,14.1464,11.4088,3.06318
0.106159,0.0131388,-9.25891,28.2528,7.54554,-9.02863,28.1823,7.61794,-9.21785,28.1751,7.54405,-9.02718,28.2748,7.62249
4.31837,0.0259382,-11.3103,4.71482,-3.25058,-11.7487,4.59136,-3.00852,-12.6938,4.81185,-2.30745,-12.3814,5.25893,-2.42133
5.82614,0.0165649,-3.50002,1.93228,4.53975,-4.79897,2.3472,5.12445,-4.18234,2.36987,5.2494,-4.83542,2.17912,4.7986
8.45908,0.522436,6.32395,42.2846,0.427742,6.22484,41.8074,3.01901,6.69779,42.0212,1.95276,6.41419,41.8876,2.52376
5.34512,0.15027,6.55437,29.0915,6.78762,5.59871,28.9367,7.01917,6.51443,28.3805,7.51211,8.26336,29.4712,6.82235
4.224,0.327118,-3.49927,39.7789,-5.09449,-2.03406,39.9937,-5.061,-3.83336,40.2274,-5.17824,-3.38877,39.3706,-5.94798
6.44168,0.258997,10.9377,26.6488,-6.66573,8.81502,27.1674,-7.00605,8.87491,27.0738,-6.99468,12.5751,26.484,-5.90457
111.721,1.70818,9.5188,42.2118,-0.695968,6.85494,42.1577,1.28109,9.90922,42.1158,3.39501,7.82304,41.9449,2.30496
4.73804,0.794154,6.5093,31.7359,6.93809,6.27557,34.0295,6.01385,6.19566,33.8748,6.18056,6.46798,33.5389,6.40356
6.47208,0.895582,13.6916,12.7951,1.90497,14.5792,12.9701,3.15381,14.8,12.8872,0.968044,14.0828,11.2297,1.67143
3.16093,0.977904,14.1454,17.5598,3.23153,14.9694,17.6283,2.62809,14.899,17.8327,2.65787,15.0965,17.4262,2.69364
4.17158,0.488765,7.96308,29.9217,-7.1997,9.18424,31.2064,-7.23329,9.86949,31.4269,-7.01052,9.54738,31.9591,-7.05744
4.55645,0.847462,-3.80641,8.30394,5.51776,-2.59858,7.95592,6.40412,-4.57735,8.61087,6.48223,-3.02458,9.12411,5.91673
3.9992,0.254713,2.31313,35.9096,-6.28908,2.33063,35.4107,-7.11726,1.90601,37.0281,-7.03236,2.19476,35.16,-7.52615
17.5752,0.0809994,8.34616,35.3454,-6.7253,8.32742,36.0287,-6.5381,7.9183,32.6059,-6.75341,7.96793,32.3609,-7.39676
11.2544,0.250981,7.8787,8.1259,5.51594,7.69322,7.01734,6.32592,8.70392,8.29349,5.36525,7.89673,6.82814,6.30637
0.0739649,0.0905196,-14.6779,6.83097,-3.77407,-14.8817,6.55528,-3.48176,-14.4606,7.66533,-4.24503,-14.8736,6.47859,-3.42555
4.39501,0.0830967,7.13553,2.31437,-3.58257,7.7136,2.43464,-3.82368,9.27417,2.45989,-4.24462,8.76466,2.17085,-4.10945
5.80598,0.0357101,11.8107,2.04405,3.6943,11.9014,3.89456,3.85125,12.596,3.69978,3.30941,12.3202,2.41019,3.32605
2.29196,0.325944,14.7278,12.7393,0.925197,15.3539,12.9153,0.284013,15.3043,12.9509,0.462426,15.2786,12.6385,0.262789
9.77594,0.581207,-3.91879,33.2267,7.42277,-0.0896934,33.8779,7.43402,-1.60128,32.4045,8.33891,0.195435,33.8782,7.41142
20.3155,0.785086,-7.07712,11.4109,-6.50345,-7.8933,11.4465,-7.20617,-6.6913,10.1847,-7.18812,-3.88715,13.2442,-7.92834
20.6167,0.0547182,-7.79111,41.934,-0.689028,-5.00754,41.907,-2.12254,-4.5113,42.0434,-1.10754,-6.47241,41.9883,-0.438676
18.8806,0.380974,14.3087,11.4213,1.42931,15.4565,11.5748,-1.09502,15.5513,11.3178,-1.70377,14.4395,10.2074,1.19189
0.0641164,0.0169992,-0.492727,0.798366,-0.104476,-0.609879,0.784674,-0.130068,-0.609705,0.781758,-0.178179,-0.531832,0.801425,-0.179233
0.226937,0.0201258,0.692493,41.7733,3.25845,0.691083,41.8481,2.99873,0.766814,41.8907,2.91959,0.831317,41.9007,2.92271
0.0687896,0.00700179,-14.6918,13.9159,-4.2232,-14.7408,13.7654,-4.12348,-14.7585,13.8573,-4.05804,-14.7121,13.9861,-4.17492
66.0028,0.445444,-6.42603,1.73513,3.75718,-4.4232,0.97587,1.42985,-5.56936,1.04158,1.23653,-6.89668,1.11185,0.933717
7.12267,0.584304,-4.16533,40.4889,-3.8501,-4.29726,40.1864,-5.11248,-4.13116,39.9391,-5.57468,-4.61895,41.2286,-4.0078
2.85034,0.119164,14.0725,36.6972,-2.02866,14.2977,36.7597,-1.6499,13.7257,36.774,-1.63225,14.3705,36.0644,-2.97149
6.73654,0.705735,-11.4825,15.6853,5.45242,-11.5511,14.2155,5.78571,-10.7616,15.6496,5.97694,-12.0576,16.2593,6.60472
10.881,0.221489,0.934322,7.70284,-6.33167,0.29809,7.62448,-6.51379,0.945328,6.26454,-6.84716,2.07287,7.72362,-6.66244
10.4555,0.683129,5.60821,28.0522,-7.02209,7.22433,26.6591,-7.92895,5.1854,28.053,-7.74533,7.88973,29.8797,-7.20243
3.35433,0.170201,13.1216,22.5987,5.0246,13.4067,22.6138,4.64688,12.091,22.4014,5.35661,12.041,22.5127,5.43294
4.68589,0.0381162,-8.23804,14.5267,6.7111,-7.46465,15.1322,6.97985,-6.97459,14.6596,7.45405,-7.44509,14.4315,7.21692
3.55742,0.109338,-7.34321,30.0895,6.82893,-5.89355,30.193,7.44046,-8.22381,30.0108,6.64387,-5.44463,30.0702,7.59855
9.59372,0.703495,8.64609,25.9995,-6.8373,10.6414,26.0021,-7.11207,8.48824,25.6869,-7.68601,8.65311,28.1154,-7.09003
37.21,0.12798,9.11691,0.538749,0.389171,9.79605,0.81072,1.62656,8.06209,1.30856,2.9127,8.52263,1.38112,3.16297
1.62858,0.339573,-7.13607,41.9121,1.09967,-8.98668,41.6888,1.50513,-8.09208,41.7652,1.48099,-8.91586,41.6861,1.50471
8.04007,0.666582,8.91665,37.2538,5.41239,10.6547,37.4206,5.319,8.64585,36.6709,6.4528,9.00333,37.9728,5.93337
20.2456,0.00600199,4.9014,42.4308,-1.4373,3.86149,42.4554,-1.92348,3.09975,42.526,-1.34235,3.1514,42.5391,-1.08796
1.20654,0.381442,-2.45975,9.88783,6.25587,-2.8537,9.18405,6.01543,-1.62576,9.78982,7.04485,-3.03605,9.17439,5.93147
2.82063,0.0646511,-8.11169,27.1657,7.31695,-9.84455,27.22,5.95742,-9.26832,27.0564,6.355,-9.85259,27.1187,5.89097
0.094302,0.169722,-9.8575,2.30877,5.68311,-10.1662,2.15751,5.33151,-10.1184,2.15821,5.43445,-10.0445,2.14294,5.3947
2.88027,0.0670987,12.0245,35.0858,4.87765,12.3927,35.1383,4.64417,10.1432,34.8786,5.62045,10.1503,34.8002,5.59447
2.19159,0.387977,2.26083,8.7281,6.1972,1.84871,8.7331,6.76853,2.76525,8.24854,6.37307,2.88174,9.47434,6.46122
3.5066,0.428576,6.24003,20.1552,6.88805,6.13367,20.9087,7.53543,5.98799,19.4256,7.7724,6.98583,20.2336,6.76184
18.1878,0.318646,-7.2438,5.93883,6.19279,-8.39857,4.88068,6.30069,-6.82215,7.30442,6.79946,-5.17487,5.33249,6.39177
2.08796,0.121242,7.71853,9.22379,6.21088,7.74471,10.2262,6.13009,7.6654,10.2717,6.10203,8.00749,9.4547,6.19892
16.6242,0.0530035,5.09061,5.3677,5.73356,4.97206,3.36614,5.74895,5.05905,6.30524,5.79529,6.81535,5.09256,5.96832
1.89552,0.558835,9.26296,29.2342,-6.97792,7.73851,28.1262,-7.08833,7.95931,28.192,-7.09455,7.77597,28.1789,-7.13043
12.0859,0.215178,14.5095,9.13027,-0.387314,14.6621,9.52307,-2.87767,14.6266,9.46323,-2.9332,14.0546,8.91411,0.539574
1.44187,0.104186,1.71414,37.8165,-6.47502,1.78693,38.0962,-6.24368,2.02977,37.9073,-6.40976,1.48943,37.7521,-6.83252
15.1515,0.0892621,-10.4681,32.4646,-6.27989,-9.78898,32.9154,-6.65312,-11.4761,34.0077,-5.62883,-11.7529,31.7299,-5.84733
35.9572,0.0705911,1.74243,22.3311,8.09202,2.56079,16.9628,7.73544,0.751773,20.646,7.9879,2.5507,18.6979,7.88193
0.760846,0.57785,0.289704,5.06954,-6.10892,1.40567,4.99101,-6.11699,1.33438,4.94309,-6.11996,1.32209,5.01248,-6.20711
18.9825,0.984736,-2.65366,19.6318,7.4997,2.27615,19.2686,7.98721,1.25978,19.4814,8.16757,-2.67025,20.4865,8.22187
2.65184,0.0657296,-12.3256,29.7247,-5.85949,-10.986,30.5066,-6.37182,-12.4797,29.6903,-5.86879,-11.9747,29.1427,-6.28372
0.224077,0.0481964,-9.80363,38.9074,5.71351,-9.50156,38.9171,5.786,-9.57229,38.8274,5.80221,-9.58989,38.8763,5.76796
10.7573,2.81882,-9.00025,3.43289,6.27787,-11.4727,5.15577,5.86475,-11.1168,5.57989,6.12339,-11.6532,5.0944,6.01612
13.2775,0.897577,-11.3917,12.8873,-5.76302,-12.427,13.9739,-6.57306,-8.51416,12.8485,-7.08869,-11.5721,11.4712,-6.576
49.6638,0.338717,10.9147,16.643,5.70636,8.38858,13.7069,6.69525,8.18829,16.7436,6.32233,11.8647,16.5,5.01677
0.347726,0.0499952,1.09512,18.358,8.63675,0.669663,18.0386,8.66269,0.757378,18.264,8.65884,0.748115,18.3668,8.66886
4.16249,0.018107,-11.8712,30.1947,5.47908,-11.9319,31.2623,4.91202,-11.9747,30.8352,5.1337,-11.7081,31.2688,4.95379
9.54854,1.49672,3.9862,10.6915,-6.98606,5.77088,9.55251,-7.44564,3.95195,8.0333,-6.26768,3.94584,8.07531,-6.22825
3.02822,0.135528,14.9299,12.3445,-3.56141,13.9075,12.4651,-4.18621,13.8405,12.4063,-4.21664,15.264,12.2925,-3.12137
5.13843,0.0880324,13.3955,39.7812,-2.34387,13.3683,39.0331,-2.03295,13.1967,41.0887,-2.91063,13.1999,40.8974,-2.93745
2.66475,0.0108838,10.3596,41.7331,-3.41008,9.90836,41.5851,-3.69686,9.37895,41.7084,-3.44945,9.54384,41.8011,-3.25565
19.1447,0.906822,8.97785,38.5994,5.3234,10.54,38.8651,5.10594,10.3052,39.717,4.69464,9.88683,39.812,5.004
2.39811,0.203148,3.12939,32.8242,-7.86098,3.35074,33.1416,-7.60231,2.80047,33.9765,-6.97036,3.0051,33.8343,-6.96971
3.06949,0.0129367,-14.8415,33.3276,3.09794,-14.7687,32.2349,3.45655,-15.1703,32.1837,2.71649,-14.7389,32.4423,3.47518
19.6463,1.24485,-11.7012,36.33,4.50223,-11.8582,33.3614,5.6289,-10.5607,36.3255,5.39438,-11.7491,33.7013,5.74378
1.93979,0.740013,-3.29786,33.165,-7.25401,-2.34782,33.3281,-7.88117,-2.06494,33.5831,-7.80138,-2.06782,33.5388,-7.81043
3.98769,0.0612729,12.8349,4.37709,2.46098,12.726,5.34846,2.50396,12.895,2.6774,2.27676,12.8235,2.482,2.33786
0.209854,0.000821924,-4.65359,1.1483,2.21448,-4.79922,1.11508,2.03018,-4.5835,1.12986,2.14936,-4.71006,1.0384,1.72259
4.47763,0.432884,-3.61983,38.2601,-5.89048,-3.54974,37.9464,-6.40797,-2.175,38.5544,-6.05941,-4.17656,39.0814,-6.21852
19.1352,0.0210446,-0.634348,0.777013,-0.497301,-0.91884,0.795519,0.426274,-1.8664,0.785196,-0.109135,-1.73838,0.728024,-1.52518
7.0933,0.030862,14.1022,4.31846,0.314661,14.1207,4.53652,1.34048,14.1204,4.44673,1.06977,14.1609,4.89746,1.34771
4.84036,0.028649,2.75467,13.0705,6.89071,5.91583,13.3418,6.77225,3.59475,13.1663,6.88449,5.9165,13.2471,6.75658
8.22095,1.04483,2.39645,10.7258,6.75295,0.02948,10.7809,7.08655,-0.397737,10.6622,6.97503,3.38335,12.0217,7.48631
3.75754,0.0804884,9.81302,27.7799,6.6579,8.38452,27.9244,6.99507,8.4322,28.0509,6.89831,10.3566,27.4894,6.53961
0.765408,0.326224,11.3694,1.99946,-2.3797,12.4712,1.98908,-2.17226,12.3116,2.25333,-2.35765,12.4045,1.94598,-2.19203
8.81774,0.64846,-7.22245,3.44624,-4.23774,-7.70764,3.78204,-5.10247,-7.12483,2.25441,-4.39021,-3.93202,3.32911,-5.00008
11.1141,0.139955,10.0725,32.3763,6.30255,12.7183,32.4504,4.7321,11.0913,32.3459,5.84702,10.0625,31.8848,6.78485
9.37907,0.572993,-11.6352,9.82527,5.42567,-11.4786,11.3727,6.52999,-8.72526,9.59786,6.14317,-9.03297,9.54272,6.10582
4.23088,0.00506087,13.8516,28.7781,4.11126,14.2786,28.9151,3.80266,12.1541,28.1701,5.3265,12.1564,28.3422,5.27379
9.59214,0.577078,-13.8278,7.95515,-4.68298,-13.4749,6.39756,-3.00846,-13.8178,6.31516,-2.75991,-13.7516,6.30803,-2.76296
3.36643,0.0641571,-1.07829,3.59947,-5.43429,-1.66266,3.97573,-5.58183,-1.73996,3.60617,-5.40158,-0.775832,3.13319,-5.11348
5.88765,0.12311,13.5027,38.4433,-1.7846,14.2064,37.6611,-2.50546,13.4056,38.9743,-2.13057,13.413,37.9663,-1.64409
0.00676377,0.018212,-12.7952,35.4581,5.76548,-12.6534,35.4583,5.78977,-12.7379,35.435,5.76832,-12.6428,35.4215,5.80032
13.6057,0.700807,3.44775,13.5306,-7.33706,8.13113,12.9662,-6.36241,5.50485,13.7265,-7.57207,8.07656,13.0745,-6.43134
1.77335,0.344195,11.8885,5.42429,3.8891,11.7952,6.68804,3.83119,11.7592,6.63833,3.93224,12.7162,5.3005,3.2742
23.0971,0.610535,-10.3069,25.297,6.35075,-6.52268,25.4388,7.76659,-12.3785,24.7443,6.40315,-10.2979,24.4008,6.5401
8.65891,0.454571,-5.16609,27.9641,7.34841,-4.01961,28.0383,7.53236,-5.52164,28.2388,7.9146,-5.35472,26.0018,7.80487
45.1538,0.713664,2.76551,38.6645,5.61413,2.81126,40.0273,6.15221,2.26836,38.0266,6.52433,6.39679,38.8084,5.65997
16.287,0.644352,8.47269,11.138,5.75533,10.5977,11.1336,5.31609,10.028,11.3992,5.67454,8.99213,9.98388,6.03085
0.254614,0.0272542,12.9508,40.9114,2.98296,12.978,41.0776,2.9064,12.8605,41.2034,2.99769,12.9134,41.1628,2.94807
2.55249,0.0505041,14.337,7.02655,2.26992,13.6923,6.91826,2.41368,13.6454,6.30521,2.41744,13.7332,5.98992,2.38489
3.51211,2.09085,-9.75372,8.97293,6.04591,-11.9809,9.01951,5.60171,-11.9141,9.15463,5.57666,-11.8944,9.37152,5.73453
1.47479,0.46316,6.34189,1.61693,-4.36906,6.84729,2.07115,-3.67913,6.75151,2.18058,-3.63809,6.68466,2.20843,-3.73166
20.417,0.182774,7.74873,41.8976,2.52596,8.14222,41.6461,4.09544,8.6172,41.7233,3.97882,7.04936,41.7022,3.59631
23.726,0.134144,12.3043,37.4165,4.00544,10.7741,35.4868,5.84089,12.8896,36.3613,4.26603,10.5062,36.227,5.69131
5.40939,0.0624972,1.08645,25.7539,7.88934,1.10463,26.9378,7.51768,2.68348,26.3049,8.14102,1.00608,25.2099,7.94135
0.149855,0.121405,9.30617,33.0846,6.74221,9.16207,33.2198,6.70083,9.2387,33.2173,6.70596,9.31028,33.2189,6.71588
0.181396,0.0650511,-5.15737,34.4,7.86986,-5.37472,34.2585,7.85095,-5.44108,34.3469,7.83876,-5.44573,34.3939,7.84245
4.17126,0.0109002,6.847,0.920567,1.06352,6.19111,1.0886,2.04189,6.02053,1.02747,1.61806,6.07338,0.993343,1.41521
0.881419,0.0369011,-6.83417,38.5994,6.11705,-6.54153,38.7836,6.11852,-6.28406,39.3118,5.94541,-6.26172,39.1386,6.01384
1.77101,0.197787,6.34938,9.34814,-6.54645,6.18233,9.37688,-6.8993,6.77235,9.29243,-6.60977,6.56125,10.1066,-7.36073
5.8485,0.221582,-12.1885,7.66828,-5.63945,-12.8676,8.52371,-5.33771,-12.7009,9.02377,-5.07306,-13.1408,9.66303,-4.66383
5.81136,0.441573,5.81017,40.0821,-5.11401,7.93809,40.0902,-4.88438,5.93821,39.7366,-5.79026,7.4272,40.1921,-5.00873
3.07674,0.0973324,11.5307,3.4553,-3.34813,11.723,4.51854,-4.05853,11.9156,5.21428,-4.16896,11.8076,5.03029,-4.28565
1.61405,0.0103316,-14.1218,3.11677,-1.74923,-14.6633,4.64292,-1.85496,-14.7573,4.35345,-1.77982,-14.7693,4.51609,-1.80456
0.0233552,0.00146813,0.77341,23.127,-8.69309,0.777052,23.0417,-8.70582,0.701634,23.1151,-8.68563,0.696342,23.0534,-8.69505
29.8845,0.593786,13.6455,5.33789,-0.628431,14.7134,8.72022,-1.02514,14.1322,6.07881,-2.15123,14.4822,5.541,0.650387
0.0827494,0.0020144,4.94006,40.074,6.13316,5.07208,39.9816,6.15231,5.13781,40.0241,6.13312,5.05033,40.1162,6.10865
9.03798,0.491904,13.8768,9.18397,0.870836,14.6962,7.94112,1.0794,14.763,7.88828,1.7402,14.3098,9.65946,1.34382
3.60013,0.164267,5.19058,35.7081,-6.87103,5.89081,35.5744,-7.0649,7.06763,35.4807,-7.04877,7.08038,35.6056,-7.00268
1.36363,0.523335,-11.5038,7.83262,5.20456,-10.1403,7.73706,5.67321,-10.1335,7.8416,5.66347,-10.204,7.87803,5.6636
42.6049,0.0531456,-15.288,11.7181,-0.0100775,-15.1884,13.0506,-1.99038,-15.0881,12.6637,-3.05272,-15.2794,14.3152,-1.19634
1.46003,0.761187,-7.13682,35.8907,6.4342,-7.02935,35.3101,6.91963,-7.11857,35.2633,6.89107,-7.23158,35.2659,6.91654
2.69288,0.389924,13.3948,22.691,4.5188,14.095,23.8443,4.30294,14.061,23.7817,4.34964,14.4383,22.2083,3.44133
1.80887,0.142095,13.4198,9.72536,-4.12018,12.1079,9.88927,-5.05647,12.2191,9.7473,-4.97789,12.4044,9.8623,-4.88308
3.21098,0.578954,10.888,12.692,-5.54099,11.1112,13.3135,-6.42861,12.414,12.6681,-5.02068,12.4322,12.5208,-4.93998
3.77305,0.418569,-13.2017,24.1289,5.9682,-12.7598,20.9205,6.45771,-12.8989,20.1266,6.24172,-13.144,19.6218,5.97645
1.2302,0.00742612,-1.64116,1.42122,3.69244,-2.11461,1.4341,3.7094,-1.60338,1.24306,3.2839,-1.97039,1.33111,3.47069
11.2328,0.782705,9.10145,26.3064,6.34737,11.9089,26.2791,5.79199,9.07183,25.8305,7.13536,11.3904,26.2035,6.04559
1.29905,0.0412316,12.2208,3.32655,-3.00628,12.8143,3.29145,-2.71926,11.5941,3.33961,-3.20224,12.9207,3.39859,-2.72326
3.24518,0.644221,-7.88906,24.2175,7.36904,-5.42405,24.2679,8.18866,-5.55797,24.5222,8.11995,-5.49281,24.3052,8.14703
3.92352,0.510767,-11.9167,26.4611,5.8386,-12.4079,26.044,6.42105,-10.5263,26.4658,6.14936,-12.0188,27.4765,6.38618
6.31393,0.846466,13.1853,36.938,-0.857331,14.49,37.2903,-0.670599,13.3882,38.0029,-1.51875,13.6973,36.7842,-1.62864
4.77393,1.78094,2.34795,22.2882,6.99122,2.38558,20.248,7.48946,2.22603,20.2137,7.5514,2.4577,20.2501,7.5021
2.08496,0.12237,10.9661,29.6408,5.57785,11.8878,29.7492,5.14389,10.8047,29.6129,5.84241,11.8219,29.8011,5.21946
9.94368,0.838106,12.3732,13.7518,4.75857,13.1844,15.1076,4.45355,13.0971,15.1399,4.45963,11.9834,15.4646,4.50234
7.83743,0.553612,-10.3886,27.1563,5.52264,-11.2021,27.8244,6.57128,-9.91633,27.2114,5.87848,-10.2199,25.3942,6.37995
1.6085,0.118637,14.9237,17.8165,2.6184,15.656,17.8541,1.52122,15.1466,17.6608,2.38723,15.6555,17.9251,1.55482
10.8157,1.62928,13.5615,36.9436,3.05672,11.2678,38.2779,4.58812,11.9817,39.0578,3.76078,11.3937,38.1382,4.26345
1.23058,0.178293,-14.8691,34.9436,1.75559,-15.0126,34.7719,2.01297,-14.9781,34.9242,2.01692,-15.0776,35.1787,1.55179
0.748699,0.150703,-14.4722,6.00348,-2.50096,-13.6145,6.16357,-2.57182,-13.6156,6.18532,-2.61186,-13.6945,6.12505,-2.49211
0.0540713,0.00598825,6.53643,18.8007,7.72669,6.47264,18.7314,7.75215,6.41897,18.7818,7.77475,6.53353,18.7374,7.73031
13.5963,0.0536954,7.1936,4.71225,-4.99705,8.93902,4.42849,-5.37356,7.10002,3.35592,-4.22125,7.48129,6.10575,-5.73082
1.66263,0.0186533,-10.0562,15.5288,-7.15688,-11.6012,15.8257,-6.92785,-11.675,15.7317,-6.90519,-11.825,15.6849,-6.87354
4.17653,0.0905752,-10.166,18.9434,6.83298,-8.67401,18.5998,7.78429,-8.4952,19.4826,6.95574,-11.0184,18.8225,6.40206
0.371564,0.014827,-14.945,10.075,2.56647,-14.9726,10.5361,2.4716,-14.9188,10.4941,2.65718,-14.9421,10.4745,2.57201
2.44223,0.117795,12.5408,38.8681,3.16322,12.0067,39.2657,3.31996,11.6984,39.446,3.47374,12.6912,39.9552,3.21643
0.398589,0.00762223,11.2915,0.42277,1.31525,11.5393,0.532331,1.65093,11.4019,0.525315,1.64209,11.5495,0.504543,1.56533
3.86704,0.693908,2.17076,23.1659,6.67898,2.21908,22.293,7.00489,1.95974,23.7505,8.00141,3.41251,23.1717,6.97158
0.222789,0.0210109,-12.6058,14.6608,6.50896,-12.961,15.161,6.29981,-12.9926,14.6298,6.28891,-12.6853,14.425,6.48742
2.99012,0.196725,-0.840446,26.9805,8.08582,0.5803,27.0799,8.12197,0.377977,27.1779,8.15746,-1.06959,26.8015,8.2937
1.17319,0.576647,-8.50081,19.5258,6.93131,-7.33121,19.8023,7.18167,-7.39188,19.8099,7.2079,-7.32976,19.7515,7.16725
6.2741,0.0196475,-0.609083,42.1309,-2.79597,0.381942,42.01,-3.37358,-1.0632,41.7204,-3.71397,-0.272126,41.8338,-3.63508
1.86251,0.144851,-5.5908,11.1291,-7.0066,-5.30856,11.0458,-7.11364,-4.70644,11.6568,-7.55914,-6.14153,11.2039,-7.27025
0.154472,0.0272234,-9.45888,17.9465,7.77178,-9.75244,18.165,7.6893,-9.75058,18.1182,7.69947,-9.67451,18.1678,7.70608
1.35543,0.121472,-9.68897,7.71323,5.78172,-9.55495,7.54603,6.17892,-10.0705,7.78362,5.66442,-9.12671,7.87294,6.16681
14.8493,0.467102,15.0758,13.7025,-2.4086,15.6552,13.8622,-1.98614,15.355,14.0352,-3.63139,15.0194,10.3379,-3.17835
7.01889,0.0985408,-11.2428,11.5513,6.49419,-10.7194,12.2897,6.70775,-11.3029,13.2112,5.88077,-11.2003,13.224,5.95265
0.0601635,0.00708569,-7.43921,17.7215,8.02069,-7.29824,17.581,8.03613,-7.29397,17.7222,8.04154,-7.22194,17.631,8.0451
16.369,0.317244,-1.63425,31.4634,8.2033,-6.94126,31.0399,7.03701,-6.76921,31.4279,6.82779,-5.50667,30.9947,7.57192
4.23184,0.0680654,6.59787,30.2312,7.31958,6.58276,29.6794,7.32356,6.42416,31.6973,6.97782,6.59318,31.4344,7.06976
1.66954,0.484159,9.12875,17.2385,5.93265,7.9802,17.0517,6.22196,8.11938,17.1001,6.24278,7.97477,17.0935,6.21161
10.7692,0.148999,3.83413,1.48633,3.5337,5.28155,1.27555,2.87861,5.11715,1.20132,2.62275,4.85245,1.14444,2.38883
0.296155,0.0138752,2.87242,0.967216,1.94613,3.11376,0.978924,1.95012,3.18981,0.992523,2.10075,3.12444,0.998355,2.15426
3.06055,0.432082,-8.72641,10.5961,6.00875,-8.97988,10.952,6.72478,-8.96388,9.69083,6.13249,-7.9199,10.5025,6.25692
0.0223961,0.0022658,-6.49263,1.45824,-3.69096,-6.41257,1.6378,-4.00481,-6.48568,1.59866,-3.92371,-6.55472,1.62907,-3.96024
32.8689,0.962075,14.4888,20.9265,2.86623,15.6521,20.328,0.774681,15.0488,21.5658,-2.59432,15.0966,21.5828,-1.30293
12.05,0.383214,7.62052,3.74092,-4.49505,10.2541,3.44253,-3.90147,11.3268,3.4052,-3.41779,9.98247,3.7035,-4.77056
6.12669,0.0499458,12.1894,33.6846,4.69283,10.507,33.7925,5.6824,13.0233,33.877,3.99007,10.6281,33.5984,5.69458
1.71832,1.29398,-5.46486,36.1398,6.61999,-6.93161,35.9995,6.35892,-6.94059,36.0968,6.30782,-6.94051,36.052,6.31916
0.00872698,0.0147156,2.69914,14.5278,-8.20688,2.78658,14.4988,-8.18644,2.8373,14.508,-8.19428,2.84253,14.5468,-8.21026
4.12573,0.149669,4.71751,23.2992,7.18203,3.67761,22.5377,7.34534,3.4068,23.0682,6.9353,3.20033,22.7571,7.02032
18.7288,1.18996,10.4365,42.1909,-1.5592,9.83242,42.1892,0.813005,10.7215,42.2523,0.877498,10.0927,42.19,0.864251
13.0027,0.376665,6.11425,6.45867,-6.05487,8.89626,6.19404,-5.51204,4.38868,7.12815,-6.01576,7.62285,6.70852,-6.19678
12.3054,0.932038,-3.24965,5.84817,6.33882,-2.67878,7.31931,7.0052,-1.69944,5.51733,6.74515,-2.42892,6.5295,6.48968
1.92189,0.616512,8.54617,11.2785,5.77037,7.42275,10.9818,5.9471,7.56026,11.1064,5.85048,7.48471,11.2862,6.07273
8.05476,0.571338,15.3135,19.6316,-0.298208,15.5402,18.7918,-2.73516,15.5655,20.7128,-0.923931,15.5949,18.8608,-2.42208
10.3576,0.00208749,-3.83086,38.3256,5.82328,-3.06035,38.6226,6.28621,-3.90555,36.4654,6.92535,-3.82386,36.4752,6.9884
5.64336,0.535708,-2.18066,28.714,-7.68467,-2.44308,28.3535,-8.44527,-2.47324,30.0414,-7.79739,-0.838072,28.7249,-8.05184
5.08137,0.141629,-9.0619,7.91983,6.14171,-5.84959,7.6598,6.65917,-6.94187,7.58246,6.51767,-5.8478,7.57419,6.70586
0.902788,0.089315,-13.5083,12.5546,-5.05356,-13.5201,12.4206,-5.06976,-13.78,12.7837,-5.22513,-13.0833,12.5455,-5.31995
2.96124,0.200365,-1.03142,22.8969,7.94366,0.0387932,22.9095,7.98212,-1.87614,22.4159,7.55086,0.0397288,22.9984,7.98133
0.463113,0.0112118,-13.189,2.59043,-1.72626,-13.0398,2.63139,-1.91773,-12.7916,2.56611,-1.98983,-12.8698,2.49979,-1.7753
4.15959,0.253914,3.78848,26.8627,-7.49707,3.64991,28.352,-7.51918,4.07913,26.8616,-7.57059,3.51797,26.6372,-8.23323
1.17812,0.00579149,6.7728,21.1953,7.01327,7.87282,20.8099,6.88559,7.87882,20.8659,6.92489,7.99093,20.6523,6.79116
4.81726,0.120138,2.02662,0.844789,-0.289936,0.733856,0.817278,-0.928079,0.684625,0.812538,-0.850301,1.00259,0.818707,-1.05144
20.7235,0.364157,12.7633,27.8995,-5.37974,13.0742,27.1419,-5.7895,15.1921,27.7133,-3.3337,15.3579,28.2564,-3.00906
45.6932,0.983568,-1.40768,33.5085,-7.26161,-2.31362,35.2443,-7.21534,1.63591,35.3235,-7.53716,-0.45622,35.5361,-7.19929
0.285033,0.0276862,2.79922,42.2157,-3.05641,2.92198,42.1498,-3.23735,2.75414,42.0484,-3.42705,2.83039,42.0664,-3.39325
2.15123,0.129767,-9.79848,24.1825,6.61794,-8.02837,24.1693,7.37177,-8.02579,24.3191,7.38654,-8.738,24.1594,7.00963
12.708,0.490743,9.89667,5.81314,4.86021,11.3286,6.71654,5.2681,11.7973,3.8426,4.22423,9.5741,5.68739,5.44683
0.547371,0.233004,3.54621,28.5755,-7.28301,3.58297,28.4035,-7.50923,3.32768,28.4793,-7.88987,3.50558,28.4094,-7.5681
2.74631,0.261738,-8.61953,5.36819,-5.11559,-8.83539,5.10523,-5.61959,-8.98299,5.53149,-6.04086,-8.88903,5.58663,-5.9695
2.28949,0.101441,11.0952,4.91199,-4.60936,11.5335,5.18256,-4.51473,10.8055,4.13275,-4.67427,10.8455,4.06186,-4.61937
5.37427,0.0555979,12.368,24.2547,5.26771,13.8827,24.4288,4.47812,10.9926,24.3443,5.58465,14.3192,24.6099,4.14391
2.15176,0.0182756,2.13542,2.12589,4.9247,3.0134,1.74565,4.20571,3.18952,1.93458,4.53233,3.21198,1.75924,4.21423
2.98688,0.0815106,-2.43773,41.0678,-4.20137,-3.64805,40.6975,-3.94352,-3.7507,40.5696,-4.00476,-1.95754,41.0201,-4.3038
1.33692,0.00206759,-1.81792,38.9777,6.50452,-0.666597,38.9976,6.63108,-0.739257,39.0402,6.60464,-1.24093,38.7773,6.65817
1.50876,0.0567372,-3.31153,37.6912,-6.66099,-3.83804,37.3845,-6.64622,-4.42085,36.5496,-6.5063,-4.50095,36.5999,-6.5071
6.96533,0.481373,0.97715,6.48005,6.37174,1.80157,6.6133,6.79963,0.945014,4.87087,6.47902,0.768507,6.92226,7.00655
1.54795,0.0052245,12.5901,31.5121,5.57752,11.9328,31.4447,5.97317,12.459,31.636,5.63581,12.1703,31.0132,5.8802
1.01192,0.0154848,15.7872,25.3729,-0.782402,15.7757,25.7016,-0.273882,15.7717,25.7771,-0.288578,15.7631,25.629,-0.69918
1.16623,0.0772867,11.3973,17.2437,4.85259,11.6388,17.2239,4.47927,11.3414,17.3445,5.1414,11.3635,17.2244,5.15833
1.56586,1.60977,6.95897,23.8202,6.97961,8.51701,23.844,6.54526,8.52335,23.8026,6.57566,8.51673,23.8964,6.55095
0.497932,0.212031,14.2094,4.95131,1.50034,14.1131,4.99692,1.8472,14.1198,5.06423,1.7281,14.1892,5.12124,1.752
10.788,0.597604,-9.1866,33.2542,-6.05472,-7.50231,34.9305,-6.82155,-8.27051,31.7579,-7.27463,-9.78144,33.2589,-6.51622
0.00926439,0.0304168,8.65804,11.4432,-7.13803,8.80154,11.3649,-7.12421,8.80028,11.3194,-7.1415,8.73409,11.3793,-7.12386
0.147769,0.0105442,13.3025,41.6349,2.0111,13.3522,41.4956,2.15595,13.438,41.4659,2.03099,13.3954,41.4398,2.15618
3.6996,0.0302963,1.82517,28.4367,7.3508,2.29309,28.1992,7.62584,3.65901,28.8098,7.31558,4.0045,28.3171,7.7339
6.39816,0.55601,12.7997,35.2188,2.09295,13.2912,35.196,1.62472,13.44,35.6558,2.68352,13.4586,33.5502,2.38906
3.61654,0.571975,-9.13748,29.9653,6.3456,-9.62325,29.4167,7.27401,-9.18965,30.5548,6.83779,-8.2263,30.0566,6.62903
12.9855,1.75356,-2.72799,15.4848,7.30363,1.0075,15.0253,8.07148,0.957324,15.4147,8.1714,1.03876,15.6974,8.21284
66.8424,0.767817,-5.4894,8.66841,-6.58117,-1.12851,9.25057,-7.17639,-1.48085,6.5888,-7.04135,-3.9841,6.7626,-7.17062
23.0952,0.712533,7.14344,21.5355,7.1123,11.0414,20.647,5.71307,10.0263,21.417,6.60157,10.106,21.0011,6.33651
0.52298,0.149891,-6.10749,17.0774,8.02026,-5.64538,17.5616,8.13428,-6.00967,17.4997,8.10471,-6.07013,17.4793,8.09349
8.42483,0.286576,-11.3146,9.57196,-5.75631,-11.4983,8.12206,-6.18521,-11.6953,9.9831,-5.90124,-9.5555,9.60514,-6.52777
4.96066,0.492022,-11.6707,37.8477,4.47477,-12.2115,38.3002,5.02496,-10.5017,37.8065,5.0995,-11.7917,36.9196,4.76007
2.246,0.0318083,-0.320427,11.1837,-7.17546,-0.468041,12.1708,-7.40864,-0.337972,12.1296,-7.25986,-0.23104,11.7219,-7.09306
8.55966,0.613595,-8.84855,28.1925,-6.88332,-8.90667,27.7096,-7.27088,-6.37462,28.5173,-7.9388,-5.88208,28.5357,-7.91649
3.58737,0.372693,11.2766,34.507,-5.60775,11.105,34.9077,-6.1095,12.2399,34.333,-5.37192,11.3697,33.8904,-6.25453
4.3885,0.281936,2.33673,13.1249,6.91305,2.41903,14.0607,7.81938,2.68768,13.1202,6.87886,1.93936,12.252,7.77836
1.65196,0.154025,4.88306,22.1767,7.40036,6.08382,22.459,7.41358,5.88347,22.3421,7.51591,5.88041,22.3783,7.48018
5.64175,0.404389,2.69997,6.67389,6.13917,3.20534,5.68069,6.28736,3.92158,6.45904,6.68381,2.41521,6.90506,6.61556
2.20616,0.0724012,13.3866,35.2448,1.60822,14.5612,35.2723,0.705012,14.1937,35.1815,0.957799,14.6782,35.3709,0.626485


