
11.5435,0.188703,-7.28289,25.9666,-5.6031,-6.77606,27.3987,-5.8715,-8.23882,25.2256,-5.63219,-8.11758,26.8323,-5.63908
0.0357224,0.00381362,14.2481,23.1316,2.16181,14.3113,23.2093,2.04073,14.3023,23.2869,2.09476,14.2843,23.1342,2.08019
11.4353,1.72256,-10.3261,26.4694,-5.25012,-14.0309,26.1011,-3.47272,-14.1204,27.2162,-3.4037,-13.823,26.9365,-3.42647
10.711,0.113497,-13.35,7.59223,-3.17961,-12.0869,7.11642,-4.42798,-13.0671,6.84516,-3.48719,-13.1518,5.81492,-3.26071
34.9754,0.0309067,13.5824,5.94656,1.47312,14.0507,5.15893,-0.83218,13.9933,6.62739,-0.747094,13.6338,3.51812,1.74914
1.19021,0.246559,-3.8474,34.0369,1.26044,-3.92074,34.0786,0.626829,-4.09405,34.0676,0.604334,-4.26636,34.0739,0.632128
0.0641629,0.00326964,5.32658,12.8682,-6.66511,5.3931,12.8687,-6.65255,5.32428,12.7433,-6.66488,5.39703,12.749,-6.65463
15.4614,0.297859,-4.50228,34.0623,-0.126608,-3.42276,33.9739,0.551441,-3.18348,33.7465,-1.62575,-2.71268,33.8459,-1.27787
0.0869111,0.00343687,9.05137,33.2784,4.5779,9.11847,33.1985,4.63197,9.26777,33.2071,4.57957,9.26541,33.1724,4.61044
4.55837,0.631608,0.450564,31.3781,6.06294,-1.4734,30.4518,6.27102,-1.27865,30.7725,6.099,-1.37762,30.5217,6.21756
0.320043,0.0112574,-14.2806,29.0423,-3.16838,-14.3061,29.4486,-2.88489,-14.2464,29.7114,-3.00874,-14.2066,29.0601,-3.39003
3.67165,0.197169,4.73534,20.2347,-5.98342,4.67143,20.7608,-6.14477,4.02802,20.3699,-6.69277,4.95299,20.027,-6.12737
4.48466,0.122669,-10.167,20.6276,5.68629,-10.5887,21.729,6.10767,-8.75679,20.9832,6.34693,-10.1065,21.8244,6.27777
10.6761,0.0477658,4.80221,5.4266,6.2171,5.78849,4.11146,6.14822,4.97995,4.72948,6.22577,6.27256,4.92375,6.14852
27.6922,0.0320091,-14.5535,24.4466,1.57203,-14.1062,23.5865,3.43944,-14.2885,22.6518,3.00318,-14.422,22.7414,2.51656
51.4989,0.0478572,-13.198,27.7746,4.11444,-14.3097,28.0056,2.03879,-14.5951,28.7534,1.3031,-13.3518,29.6982,3.43321
40.1625,0.981588,-9.52783,25.544,4.86553,-9.09043,21.5741,6.48689,-10.8871,25.548,4.51944,-11.5561,26.2714,4.48382
13.1291,0.0715651,13.4566,6.51878,2.16648,12.9033,8.33937,3.45902,13.1212,8.61594,2.93304,12.9667,5.98231,3.52104
2.42554,0.0995166,0.461507,0.320272,3.39897,0.431658,0.671787,4.1001,-0.970049,0.976563,4.52732,0.214708,0.774905,4.2495
1.92976,0.105649,3.25062,15.5124,6.62683,3.31014,14.5093,6.83581,3.37849,14.5042,6.85701,3.41693,14.8905,6.75
1.50342,0.109284,7.87922,19.69,-5.90126,8.16512,19.2495,-6.15277,7.95716,19.8228,-5.94277,7.40007,19.6087,-6.19144
3.2511,0.0531824,8.26769,28.5366,5.74552,9.68458,29.2598,5.58855,10.0538,29.5826,5.52353,9.79181,28.9624,5.68206
2.51343,0.0559662,6.86766,30.4998,-4.66309,8.69087,30.776,-4.6815,8.62402,30.8193,-4.66627,8.69338,30.8209,-4.66752
2.08329,0.0449208,-7.77226,27.7286,-5.81482,-8.26522,26.9296,-5.61333,-8.47044,26.9276,-5.60787,-7.91179,27.3245,-5.7387
12.5494,0.233183,12.7054,2.23503,-1.49492,11.555,2.20701,-2.20641,12.5309,4.19542,-2.46872,11.7773,2.43855,-2.13536
4.92715,0.441805,14.265,28.2855,0.354625,13.8691,28.0824,2.41815,14.0462,28.2301,1.91729,13.9797,28.01,2.27628
7.64682,0.126669,-10.9413,25.6521,4.48046,-11.8477,24.5384,4.9603,-11.3779,24.2548,5.18019,-11.5347,25.246,4.53758
24.5365,0.14403,-7.07279,11.4924,6.89467,-7.06996,8.70348,6.76724,-7.87276,9.6477,6.79527,-6.57254,9.13491,6.84932
2.94077,0.219049,-11.9632,22.1957,5.45451,-12.394,21.5015,5.29178,-11.6549,21.441,5.51077,-11.8293,21.698,5.3926
40.2737,0.205512,8.68949,21.6993,6.10488,12.7343,22.1868,4.05763,5.6578,21.3331,6.3999,10.1991,21.6949,5.51159
15.2497,0.155348,-5.98218,6.28385,6.0674,-3.41604,6.81707,6.53563,-3.72431,6.01666,6.4101,-5.21249,5.45472,6.19946
15.3586,0.476627,-13.6442,17.7607,-0.00699209,-14.1788,18.9952,0.762126,-13.8976,17.991,-0.871471,-14.3554,16.6269,0.317083
5.15232,0.910241,9.50098,26.8937,-4.80296,8.01742,26.6376,-5.44288,7.94313,26.563,-5.55128,8.01154,26.9851,-5.52403
0.100889,3.9734e-05,-1.44921,24.9807,7.02086,-1.45594,24.8882,7.03287,-1.30631,24.8792,7.03571,-1.29743,24.974,7.02339
0.826811,0.45188,0.291953,31.1558,-4.59505,-0.61556,31.0595,-4.63095,-0.555464,30.9487,-4.72665,-0.614286,31.1029,-4.60986
2.52143,0.0513274,-14.3977,5.23114,1.42124,-14.3823,5.61386,-0.0361225,-14.4316,4.97417,0.312817,-14.4177,5.5531,1.02417
0.411339,0.00347457,-1.33689,32.5917,5.07051,-1.01518,32.723,4.96636,-1.26175,32.8001,4.89499,-1.33255,32.7626,4.9241
54.6021,2.24712,7.81639,8.23565,-5.62647,11.8207,7.39992,-3.73342,12.0307,7.88785,-3.86259,12.2511,8.58165,-4.15183
13.4848,0.631983,-0.399074,19.3641,-6.29843,2.01756,19.102,-6.9415,1.53553,18.9118,-6.99595,-0.517693,20.8821,-6.61344
8.42408,0.0780839,-4.09566,28.2427,6.53708,-3.4447,29.62,6.49502,-2.47773,28.4971,6.6561,-4.09464,29.4079,6.49059
0.478717,0.470106,-13.4022,33.1654,-0.7901,-13.9089,32.8458,-0.844469,-13.7804,32.9684,-0.170273,-13.8714,32.8496,-0.767929
1.24957,0.00449379,-14.5451,14.1053,1.12753,-14.486,14.4045,1.85343,-14.4768,14.348,1.97632,-14.4721,14.0108,2.03913
45.9362,0.242084,-14.4485,7.63948,1.97729,-14.4614,10.169,1.42169,-14.271,9.77526,2.61726,-14.4093,9.98691,1.70942
26.6188,0.382623,14.4596,23.8337,1.10785,13.7891,23.8763,-2.29207,13.686,24.5042,-2.4469,13.6761,23.434,-2.77346
0.218686,0.000714393,-0.892352,34.04,0.210912,-0.674669,34.0479,0.0990039,-0.808657,34.0159,-0.0854306,-0.871267,34.0129,-0.0582421
0.930537,0.000546822,14.1725,20.2241,2.19503,14.2032,20.444,2.15294,13.9552,20.2404,2.60078,13.9392,20.3842,2.63934
1.45609,0.264141,-0.231381,21.4935,-6.88081,-0.452518,21.0161,-6.63231,-0.59917,21.104,-6.62604,-0.60223,20.9265,-6.63337
2.45809,0.447442,-5.55885,31.9416,-3.8791,-5.62528,33.0975,-3.19703,-5.78056,33.2018,-3.08777,-5.8516,33.1482,-3.15969
0.92299,0.769102,-1.5566,7.52067,-6.21929,-0.788161,7.48207,-6.17218,-0.791122,7.43526,-6.16167,-0.797102,7.34301,-6.17216
6.64635,0.00517694,-2.22223,20.9697,6.53517,-6.24903,20.6862,6.50713,-4.77247,20.7267,6.534,-6.2465,20.7894,6.47696
3.97277,0.337128,8.19518,28.4459,5.73985,7.3127,28.1023,5.74525,7.21548,27.864,5.79729,6.99229,27.4468,5.85182
0.758554,0.0161678,7.97984,12.9067,6.63367,8.1513,12.2179,6.5701,8.30319,12.1266,6.53248,7.89396,12.7697,6.63686
28.8851,0.00391466,1.43051,9.06333,7.02645,5.40983,10.8632,7.00714,3.32281,8.73671,6.921,2.32263,11.5878,7.18803
1.52055,0.0137311,-13.5824,4.79463,-2.51552,-13.5988,5.68915,-2.72028,-13.4481,5.57886,-2.89467,-13.6868,5.47762,-2.55568
10.7876,0.00752504,7.43744,3.50184,5.81439,6.96912,2.56886,5.68249,8.23538,4.02287,5.84018,9.18661,3.37824,5.6013
0.371621,0.185567,-6.37684,24.9609,6.43198,-5.97272,24.7808,6.59371,-6.06121,24.7175,6.55582,-6.11762,24.7041,6.54408
0.36928,0.0132997,-1.9544,1.0062,-2.53868,-2.5359,0.857551,-2.19585,-2.39687,0.818295,-2.12888,-2.33149,0.779033,-2.05391
12.7893,0.212553,0.344393,26.6681,6.51961,4.04049,26.8456,6.40893,-1.34505,26.3851,6.33049,4.04184,26.7962,6.43974
1.84089,0.00821169,-5.51676,5.06161,5.8137,-6.73147,5.55304,5.57647,-5.85212,5.08688,5.72613,-6.73099,5.41698,5.54152
5.29309,0.0517817,-3.78949,19.3747,-6.55984,-5.48141,19.1251,-6.38139,-3.4444,19.5021,-6.65536,-5.2682,19.4416,-6.39576
12.4623,0.417957,2.11625,19.7066,6.31194,2.79274,17.5185,7.20295,0.935655,20.1255,6.85029,2.57055,20.6484,6.42308
65.0802,0.219584,-9.35344,31.5832,-3.80833,-7.07919,32.1085,-4.3412,-12.684,30.0027,-4.39476,-10.355,29.6712,-5.34498
0.0213522,0.0147818,4.68067,5.16551,-5.68817,4.69993,5.3433,-5.73481,4.76752,5.25456,-5.71412,4.76628,5.2959,-5.72183
2.88724,0.0776571,10.8309,27.6659,5.01225,12.0929,27.938,4.32632,11.6219,27.9089,4.54702,12.1273,28.0944,4.3032
1.19487,0.192618,11.8762,6.92554,-3.39576,10.9889,6.91449,-3.97589,11.1223,6.83541,-3.83813,11.0617,6.65038,-3.87248
13.2107,0.503892,-9.38807,15.0322,5.59399,-10.0253,16.2314,6.04436,-7.75994,15.4847,6.21057,-9.83148,13.2695,6.08214
5.09537,0.0020733,12.9708,7.71411,3.76853,12.9128,6.80527,3.74381,12.5192,7.09066,4.21125,12.5446,7.84575,4.25979
2.03805,0.0924227,1.66567,22.5553,7.10579,1.51984,21.8583,6.87291,0.87139,21.6947,6.86823,1.23023,21.8654,6.88751
0.130221,0.0434032,-14.3836,4.93849,-0.135874,-14.4031,4.7714,0.0400108,-14.3833,4.76176,-0.0870705,-14.3835,4.78625,-0.140309
0.0104407,0.014398,-14.3083,26.8454,-3.05645,-14.284,26.7076,-3.09858,-14.2978,26.7118,-3.08416,-14.2976,26.8816,-3.08979
4.67803,0.0449943,3.1509,7.45285,-5.65565,2.18709,7.77928,-5.99314,2.47693,8.04485,-6.06695,2.03958,7.33736,-5.82032
13.2892,0.418568,13.4274,21.1588,-3.27427,11.3761,21.8775,-5.27456,11.518,20.8705,-5.2571,12.2439,22.1912,-4.59563
0.254198,0.0758107,14.1062,31.1469,1.52477,14.0812,31.0694,1.80362,14.048,31.2062,1.88861,14.0638,31.1393,1.84265
20.9726,0.413248,6.44378,0.385312,0.221712,9.05957,0.467107,-0.840455,9.73792,0.347773,-0.0692095,11.9374,0.331257,0.88834
1.47624,0.0192918,8.76295,30.7719,-4.68159,9.71869,31.1313,-4.38505,9.58867,30.9851,-4.46538,9.51269,31.1264,-4.42576
24.2743,0.0805381,12.0501,26.3538,4.95844,9.05789,26.2959,5.36524,10.4942,26.1875,5.1933,9.03588,25.1418,5.93515
11.765,0.124546,-13.3911,10.6654,-3.36592,-13.4098,13.491,-3.54536,-12.7133,11.775,-4.10591,-12.9545,12.8516,-3.91733
0.102415,0.00290522,5.86429,17.6976,7.08214,5.70559,17.6694,7.08208,5.76722,17.4451,7.02293,5.63153,17.4016,7.02064
0.0978671,0.0199812,13.6238,19.3519,3.34387,13.5884,19.5636,3.35909,13.566,19.4338,3.40571,13.5701,19.3573,3.41778
2.87347,0.219008,-4.68863,0.530758,2.63125,-4.42375,0.232061,2.51907,-4.80772,0.203231,2.1909,-4.3607,0.386517,3.13852
5.22334,0.0700958,4.92554,34.0344,2.80246,4.11281,34.0507,2.5028,4.60782,34.1402,2.03493,4.21973,33.8913,3.21331
13.5733,0.276429,-3.24069,7.39574,-6.1034,-1.33647,7.29307,-6.21449,-1.40134,8.04526,-6.41262,-1.84332,7.48155,-6.15225
4.81227,0.352603,-12.8786,13.0887,4.58968,-12.0625,12.2677,5.58974,-13.1775,13.7425,4.89325,-13.3304,12.8168,4.64428
7.80371,0.491967,6.88872,24.6643,-5.36886,6.21867,26.0238,-5.84895,7.61671,24.6682,-5.68843,5.89668,24.2798,-6.21055
58.4667,2.57935,7.42637,16.5507,6.48301,5.93238,14.3352,7.07756,4.41634,16.2865,6.712,5.54604,14.8585,7.09526
2.85124,0.0146422,-4.58878,29.6388,-5.57662,-4.32816,29.9988,-5.32241,-4.58116,30.538,-4.72765,-4.94059,30.2943,-4.81594
0.488713,0.0190977,6.17434,32.8263,5.28553,6.32019,33.011,5.08635,6.11988,33.3311,4.69537,6.18718,33.3578,4.6616
13.8797,0.23638,-8.29733,6.17902,5.43594,-6.79077,5.46873,5.52921,-8.36085,4.27237,5.297,-7.83716,4.23556,5.40064
0.0635418,0.000445706,-8.92128,9.15068,-5.87136,-9.00719,9.27864,-5.878,-8.92865,9.28429,-5.89174,-8.84854,9.14974,-5.88261
3.25959,0.0394631,-13.8843,17.8506,-0.783124,-14.3173,18.2036,-2.18713,-14.3278,18.2496,-2.16347,-14.1027,18.1669,-1.37986
0.898247,0.0488057,8.07153,33.1631,4.70743,8.28388,33.2871,4.63512,8.07553,33.4059,4.49423,7.86472,33.0874,4.87412
13.7659,0.160902,12.984,24.643,-2.99172,12.9244,26.4236,-3.45633,11.6446,24.5502,-4.09932,13.7318,23.6814,-2.55028
3.47453,0.39587,2.68122,27.9451,-5.19245,2.48043,27.794,-5.61785,3.46264,28.5776,-5.62767,2.75955,28.4129,-5.49044
10.6943,0.136302,14.0045,20.2122,-2.0293,12.7267,20.1361,-4.14785,14.656,21.6009,-1.25412,12.6536,19.8199,-4.10922
7.03404,0.294305,-7.00857,21.1449,-6.70913,-6.52233,19.9828,-6.45461,-6.31662,21.4122,-6.766,-6.1009,20.6333,-6.76255
12.032,0.140623,-1.51867,21.0992,6.48857,-2.65348,19.7514,6.14595,-0.531571,22.3948,7.11092,-0.0511988,21.0257,6.61645
8.15987,0.345419,-7.4657,13.3919,6.2736,-5.32686,13.346,6.69599,-7.94863,12.9789,6.69703,-7.5944,14.0073,6.49693
11.875,0.260819,-14.0275,19.9445,-1.03802,-14.305,20.4286,0.241442,-14.312,19.908,-1.85775,-14.1447,18.9558,-0.0310327
4.86004,0.032572,-14.1612,3.58833,2.63013,-14.3172,2.91697,2.00199,-13.9965,2.9198,2.87757,-14.1548,2.26455,2.34061
5.48915,0.190764,-5.19827,0.769923,3.79588,-6.78465,0.542322,2.91191,-5.63973,1.3641,4.58961,-6.1351,0.448764,2.71004
18.6197,1.08732,2.89801,19.4236,-6.5688,4.60851,19.9197,-6.25438,3.70428,17.9019,-7.05373,4.09407,18.9233,-6.55745
110.813,0.504738,-3.39772,30.3649,-4.65352,-5.77572,32.0857,-3.84278,-3.04314,33.07,-3.0677,-0.409145,31.3955,-4.50033
5.5962,0.14862,2.0046,6.06439,6.29627,0.609636,5.31987,6.37314,1.09596,6.31972,6.33202,0.548968,6.58115,6.25357
2.90215,0.23473,1.15537,29.6818,-4.58903,1.96334,29.3508,-5.32816,0.699128,29.3221,-5.20657,1.21066,30.1595,-4.46385
0.564565,0.00843864,-0.225498,31.9879,5.65011,-0.219518,32.4388,5.25795,-0.0776878,32.5486,5.17622,-0.071651,32.0729,5.60338
7.8233,0.501381,4.86776,19.1459,-5.84694,4.2412,18.6949,-6.55934,6.16342,18.5741,-6.39354,4.9507,19.9816,-6.13011
0.0134725,6.8467e-05,13.1871,1.61794,-0.838656,13.1765,1.53698,-0.751149,13.2497,1.58623,-0.688568,13.1386,1.62001,-0.925939
0.072501,0.00272124,-2.90305,0.849628,4.23166,-2.77116,0.786586,4.17091,-2.9298,0.787276,4.1529,-2.84172,0.846693,4.23964
3.82996,0.336313,-10.7683,11.5859,6.17176,-12.0708,12.1788,5.57319,-12.1434,12.0486,5.54236,-12.394,12.2718,5.33012
0.00532956,0.0165231,2.02156,13.5082,-7.11255,1.96677,13.5105,-7.1134,1.97419,13.539,-7.11485,2.02567,13.5773,-7.12917
4.77134,0.0880845,10.9628,3.80448,-3.12568,10.6053,4.62562,-3.98042,10.7675,3.21841,-3.02405,11.9437,4.28609,-2.8706
7.04195,0.0596647,4.18802,23.556,-6.50644,4.47599,22.4697,-6.39066,4.67664,20.8039,-6.15269,4.59648,20.7572,-6.15762
1.82612,0.104694,2.86679,3.94941,-5.06653,3.98096,3.46863,-4.89162,4.12319,3.55863,-4.96115,3.54211,3.33949,-4.78336
0.617455,0.00153794,9.6154,1.18652,4.32855,9.96746,1.17383,4.29107,9.81391,0.999583,4.0558,9.59637,1.01873,4.09307
2.36482,0.0241049,-2.46744,26.1563,6.26038,-3.86657,26.0861,6.0855,-3.87355,26.0363,6.11601,-3.36102,26.2099,6.09638
11.4748,0.0444764,5.45842,26.6012,6.24451,4.62734,24.8873,6.12871,4.57638,25.4559,6.00478,5.71098,24.3871,6.70189
7.97701,0.0954974,-0.320448,33.6376,3.58131,-1.52584,33.2253,4.28981,-1.79748,33.2885,4.15832,-2.28616,33.3936,3.94082
0.656833,0.218806,6.74024,20.2034,-5.85662,6.61225,20.0716,-6.09285,6.64903,20.3408,-6.17635,6.87221,20.2213,-6.06334
29.3896,0.0234715,-3.83497,19.7912,7.03998,-6.07939,18.5398,6.97807,-5.28396,17.6696,7.06149,-5.95777,19.4596,6.94824
0.0293766,0.00926398,-5.69093,7.45592,6.48451,-5.76078,7.45909,6.48378,-5.61354,7.58607,6.52677,-5.69222,7.61516,6.51935
7.94974,0.30913,12.3758,16.9989,4.58006,13.357,17.4943,3.42111,12.7095,16.1335,4.39132,13.2673,18.4959,3.8519
1.79677,0.0543671,-11.0994,1.1477,2.54535,-10.3342,1.09799,2.98952,-11.116,1.2214,3.00245,-10.0505,1.02494,2.88407
38.4356,0.506772,-8.4995,19.0352,5.76848,-9.12601,17.1265,6.02555,-10.7188,20.8386,5.60839,-6.88229,19.1352,6.85936
2.84338,0.0411732,12.4958,30.5399,4.64339,11.1196,30.2701,5.15239,11.0684,29.9357,5.20652,11.156,30.0771,5.15846
29.2678,0.116135,3.75626,34.1598,1.24794,5.02817,33.5765,-2.5187,5.76402,33.794,-1.67173,5.09018,34.1754,1.16367
8.03974,0.199578,-6.70624,33.7545,0.159756,-7.17786,33.8821,-0.407358,-7.3397,33.8717,1.25284,-6.46964,33.9888,-0.127707
2.67103,0.114722,-0.245426,34.0701,1.19505,0.438663,34.0224,2.08076,0.0168753,33.9865,1.87247,-0.038203,33.9854,2.06167
9.07184,0.269021,5.19453,13.2777,6.93883,4.61979,13.8956,7.24462,6.64351,12.8829,7.10451,4.41998,12.8384,7.27175
2.40564,0.155786,2.95725,21.2301,6.46247,2.64155,20.6417,6.43398,4.51378,21.3621,6.45551,4.08138,21.2788,6.48527
6.80505,0.142466,-11.5627,27.7651,-4.83431,-11.1636,28.2147,-5.27089,-11.1019,27.0457,-5.06182,-13.6409,28.0923,-4.09507
0.108842,0.0401377,-9.04038,1.39193,-2.21998,-9.57755,1.55375,-2.37548,-9.72456,1.56543,-2.33012,-9.57798,1.59467,-2.45481
1.90472,0.178988,-5.81529,15.4484,6.32205,-4.84826,15.3364,6.53918,-4.98032,15.4861,6.49663,-4.71032,15.3303,6.54079
5.90076,0.00804451,6.37643,22.6407,6.77308,6.06782,23.4771,6.80616,5.0673,23.5505,6.84491,6.62959,23.3256,6.78262
0.0354474,0.00497722,14.0329,11.9797,1.92997,14.0833,12.0496,1.79736,14.0525,11.9134,1.82774,14.0743,11.9767,1.7915
3.45957,0.27031,8.46896,11.6329,6.08532,10.0597,12.1963,6.57603,8.59303,11.1567,6.15913,7.93847,11.9937,6.57068
0.0777714,0.0287719,-13.575,31.343,3.14846,-13.6095,31.0921,3.23354,-13.5398,31.1298,3.27167,-13.4703,31.1127,3.3443
1.17172,0.0417255,-2.29118,12.836,-7.38131,-2.22063,12.0077,-7.36214,-1.9359,12.5965,-7.40566,-2.28769,12.0145,-7.36261
1.13196,0.0864676,0.193186,5.21264,6.26379,0.124694,5.56468,6.37824,-0.239709,5.08244,6.30653,0.457916,5.05115,6.35572
0.142245,0.00286811,-14.4796,21.7993,2.37224,-14.3981,21.6454,2.67819,-14.4925,21.7153,2.32861,-14.4026,21.6069,2.65825
2.9286,0.768421,2.49484,13.294,7.12697,0.498795,13.5317,6.93184,0.710174,13.6681,6.89232,0.560962,13.7997,6.95615
11.5534,0.0337152,-7.50712,26.015,5.84898,-9.45977,25.839,5.0175,-6.70311,25.6448,5.95386,-9.11277,25.5919,5.04331
0.38333,0.0176286,-12.6964,4.8269,4.78813,-12.6465,5.11879,4.8811,-12.4366,5.14827,4.96232,-12.5014,5.19749,4.94844
2.9512,0.225016,5.19124,9.71923,-6.23298,5.87369,8.65712,-5.93789,6.00657,9.05884,-6.01516,6.07471,9.50571,-6.09044
38.3989,0.724477,6.88173,3.92671,5.87565,7.20292,6.9539,6.21908,6.83421,6.92807,6.13007,7.76233,6.74328,6.26689
1.53622,0.0116088,3.24845,12.9951,7.11363,3.09167,12.6352,7.08855,2.56484,13.2491,7.11668,3.2597,13.2651,7.14823
9.47638,0.0508791,-0.591771,17.7706,-7.34555,-1.64065,16.6894,-7.3543,-2.39109,17.4527,-7.34266,-2.1886,17.0831,-7.34383
5.71702,0.416512,12.4506,11.0145,5.09976,13.5624,10.4819,3.67409,13.0729,9.88872,4.05078,13.6866,10.9543,3.58516
0.658312,0.114218,-1.82527,33.893,0.791951,-2.04301,33.9808,0.929273,-2.11776,34.0046,0.768903,-1.61693,34.007,0.837502
6.35546,0.244853,-13.9816,17.7643,1.6099,-14.1358,17.6911,0.791447,-14.2699,18.3629,2.12489,-14.36,16.2506,2.36251
4.06259,0.0420172,12.2772,32.3368,-1.56388,13.046,32.2019,-1.2119,12.4692,33.2192,-1.18715,11.676,32.5707,-1.88413
0.0082325,0.00244667,-13.4813,13.5003,-3.46549,-13.4753,13.9068,-3.52278,-13.4804,13.6815,-3.48648,-13.5592,14.0097,-3.4278
14.9486,0.0530333,-14.6518,30.5971,-0.026607,-14.7627,28.0409,0.323938,-14.789,28.1415,-0.0263691,-14.3651,31.0373,2.0172
0.0214076,0.0327037,-14.168,1.95432,1.84958,-14.1166,1.94858,1.97498,-14.1113,1.97224,2.09687,-14.1286,2.02988,2.12841
8.1261,0.938457,-6.95226,29.9522,-5.70073,-7.34813,27.7244,-5.85964,-6.74735,28.0876,-5.55409,-6.25415,27.8019,-5.6058
6.82339,0.150832,-7.9937,18.8206,6.1491,-7.93764,17.1668,6.69494,-7.30148,17.8148,6.84161,-8.18834,17.3032,6.47118
6.87737,0.202206,7.21094,24.5593,6.18829,9.1195,25.0505,5.94642,6.69603,24.9574,6.40206,6.85153,24.0921,6.56754
42.0083,0.586628,3.02119,31.4595,5.48101,2.3266,29.3747,6.6048,3.46769,29.605,6.64832,4.15446,30.9859,6.33014
5.81131,0.0813425,-11.7259,4.42848,-3.37217,-10.1347,3.56129,-3.79863,-11.6788,5.36926,-4.01183,-11.5399,5.18938,-3.98324
3.9683,0.0524579,-3.86329,21.7746,-6.80365,-4.50408,21.6503,-6.69821,-5.05499,20.4078,-6.73697,-4.36218,21.3697,-6.73264
0.580758,0.000406519,13.972,23.7875,3.02342,13.9026,23.3652,3.0947,13.7787,23.7957,3.38726,13.7523,23.724,3.42693
3.71082,0.353035,-3.37345,19.457,-6.65244,-1.53318,19.5163,-6.91389,-1.53891,19.3811,-6.91734,-1.46227,19.5155,-6.91042
18.1292,0.219402,2.50993,21.3193,6.57586,0.0208146,20.9796,6.60081,-1.44462,20.3079,6.79256,-0.909758,19.7792,6.79935
68.4573,0.273973,3.66422,11.5473,-6.64233,3.17406,16.1004,-7.18202,2.48661,15.5953,-7.20208,3.52529,15.3005,-6.99821
0.69087,0.0727889,12.2443,5.35102,4.16698,12.6069,5.37514,3.91259,12.1574,5.23398,4.34608,12.6314,5.2465,3.87772
1.50327,0.0220292,6.02163,21.8811,-6.70717,6.44502,22.0653,-6.69375,5.94741,22.2898,-6.73135,6.3706,22.2917,-6.72032
11.1181,0.355636,13.0594,17.7456,-3.4163,14.1251,17.1743,-1.88758,11.0373,17.8367,-4.95451,10.97,18.1061,-4.9925
17.7694,0.227668,5.57225,31.1293,5.66511,8.49066,30.7821,5.60945,7.62651,29.2373,6.13,5.02799,32.2774,5.67185
0.379481,0.552959,13.6843,30.4823,3.2336,13.952,30.3811,2.75545,13.9388,30.524,2.73537,13.9423,30.4542,2.7438
5.72635,0.419009,-4.09844,15.4563,6.18409,-4.46659,14.1771,6.82243,-4.55477,16.0525,6.61445,-3.06773,15.6173,6.42595
2.01665,0.399499,-13.5264,15.4335,4.48118,-12.4766,15.5358,5.09384,-12.4813,15.344,5.11501,-12.4106,15.3918,5.1239
0.112077,0.0101071,-1.88813,33.0046,4.63665,-2.09704,32.994,4.62822,-2.23971,33.0472,4.54835,-2.15712,33.075,4.51099
0.066321,0.029342,2.41566,6.00215,-5.94761,2.48892,5.86776,-5.92094,2.33961,5.7799,-5.89471,2.40357,5.78672,-5.89358
1.50003,0.0975532,-13.8379,22.5978,-3.03058,-13.9318,22.3325,-3.04753,-14.0975,22.2586,-3.00512,-14.2454,22.6885,-2.56819
0.253873,0.00173264,-14.4857,8.24162,1.65053,-14.5127,8.10648,1.2505,-14.5036,8.04803,1.38841,-14.4905,8.31316,1.60612
0.616739,0.514756,-9.10163,28.3059,5.44572,-9.22765,27.7266,5.61325,-9.09679,27.6138,5.69593,-9.28984,27.7768,5.60006
1.71507,0.0761428,5.84466,34.0918,2.07964,6.00731,34.1732,1.48402,5.62515,34.1679,1.30001,5.69773,34.1696,1.17225
53.2579,0.058189,-3.19445,6.98774,6.57512,0.482297,6.53965,6.23648,-1.15242,8.05558,6.92683,2.04252,6.92821,6.36931
2.00253,0.35933,-9.47142,17.0868,5.43646,-9.66623,16.2723,6.00736,-9.2381,16.9279,5.83952,-9.80155,17.2803,5.76666
7.42903,0.519949,-5.46841,20.238,-6.62951,-5.26255,22.1351,-6.84057,-4.5748,21.7395,-6.7205,-4.85946,21.7844,-6.72258
148.09,0.439632,0.544047,26.6353,-5.74316,4.0731,31.326,-4.65308,3.14691,23.5818,-6.66483,5.11088,25.8837,-5.88085
2.4056,0.0599351,-2.33124,34.0411,1.34951,-2.47274,33.6837,3.2773,-3.09229,33.6801,3.20825,-3.76175,33.9857,1.69414
1.08983,0.15936,2.27989,19.5081,-6.6446,2.7637,19.3682,-6.62309,2.1502,19.7079,-6.87441,2.07687,19.2429,-6.88158
15.4697,1.01987,2.88145,3.32282,5.93893,3.00514,5.87487,6.08231,2.83602,6.21632,5.97306,2.50755,5.7412,6.17812
4.72952,0.31789,6.4275,27.8913,-5.95989,6.21559,26.3468,-5.83511,6.42791,26.5355,-5.7986,6.63822,26.1209,-5.83322
26.8454,0.997264,-7.68792,24.371,6.05356,-5.78066,22.863,6.98598,-5.60799,24.2814,6.74642,-5.42335,25.0193,6.71846
1.00452,0.143567,-13.6666,18.1656,-3.78778,-13.9394,17.8799,-3.33286,-13.9352,18.035,-3.33365,-13.9288,17.5646,-3.4062
109.231,1.21546,13.7403,27.8508,-1.51974,14.2413,25.5651,1.91716,14.2784,24.2511,0.0919024,14.5199,27.0152,1.28885
3.4987,0.015905,-3.91663,17.1546,7.11377,-4.53678,17.6362,7.12158,-4.41681,17.0403,7.05156,-4.88575,17.4688,7.07799
2.35039,0.0851314,1.41389,18.2101,7.19686,1.56455,18.4724,7.2482,2.14778,17.6175,7.27775,2.06264,18.5087,7.20683
17.9868,0.115135,6.87583,1.51251,4.98956,9.13168,1.1602,4.33178,9.00368,0.769806,3.66271,8.37434,0.778763,3.75453
31.8451,0.786523,-5.04893,4.64637,5.71995,-9.79954,2.55863,4.73339,-10.7849,2.63831,4.73316,-9.86438,2.60666,4.73678
8.4046,0.384911,7.79774,20.7224,-5.76178,7.95175,19.9614,-5.93788,6.5821,20.8092,-6.49121,6.72071,21.166,-6.54829
0.467862,0.0286857,4.0767,2.40124,5.60262,3.93604,2.7991,5.80033,4.07547,2.70352,5.75734,3.73392,2.92737,5.85621
5.25706,0.465984,7.93663,27.3195,5.60089,10.3714,27.7736,5.17667,10.8125,27.7657,5.00564,10.7551,27.6933,5.02497
2.32195,0.321201,12.1512,5.13389,-3.08963,11.3346,6.39543,-3.69251,11.467,6.44822,-3.6318,11.5372,6.45164,-3.60147
1.00432,0.0586579,-13.2493,1.79451,2.87371,-12.8255,1.83581,3.25216,-12.8472,1.98637,3.47351,-12.627,1.62672,3.11894
27.3274,0.175465,-14.5416,11.8376,1.15864,-14.5584,14.1203,0.719363,-14.4141,14.1899,2.44401,-14.5627,13.4044,0.106809
23.0952,0.0975053,-2.41231,0.480671,3.67616,-4.25499,1.38072,4.72076,-4.51471,0.793283,3.96124,-1.94918,1.26375,4.85864
2.37946,0.124762,4.78112,30.5442,-4.6641,5.96963,30.4094,-4.62742,4.69873,30.3387,-4.80759,4.93663,30.9442,-4.75684
27.3616,1.44227,-13.898,24.1988,3.74742,-14.0693,27.0723,3.47903,-14.4806,26.061,2.30695,-14.6838,25.4468,0.980884
36.0759,0.00385371,0.830829,7.69903,6.73287,0.114339,7.93778,6.8492,2.42324,8.60012,6.81191,0.809181,9.83318,7.25312
9.80679,0.667322,-12.0636,31.5645,-3.27133,-13.7611,30.9933,-3.07032,-13.6186,31.3603,-3.08165,-13.6064,30.8865,-3.20079
0.0934524,0.0301175,13.2541,4.8691,3.08596,13.3258,4.78929,2.97273,13.2786,4.94589,3.00649,13.3219,4.8678,2.9683
7.57156,0.083715,-1.88411,9.63428,-6.9352,-3.35393,9.33571,-6.73355,-0.842403,8.84224,-6.66573,-2.9872,10.6226,-7.08169
3.24529,0.0105638,5.73934,24.8626,-5.95031,4.19267,24.9232,-5.85273,3.78417,25.0644,-5.77349,6.08991,25.0104,-5.88524
0.0669498,0.00703393,-1.12171,16.9139,7.18145,-1.25279,17.0094,7.17762,-1.25365,16.9642,7.17217,-1.11683,17.0026,7.18526
2.79643,0.214483,-4.81288,13.5425,6.50365,-3.45222,13.1313,6.77986,-5.18831,13.3444,6.69232,-4.61551,13.9169,6.74039
0.859879,0.088629,9.61412,6.46374,5.51277,10.9356,6.36502,5.33142,10.945,6.31923,5.33133,11.1179,6.49508,5.288
2.64787,0.0678254,-14.436,20.9747,-1.49,-14.5272,21.7837,-0.775029,-14.5165,21.9942,-0.921663,-14.5987,21.8879,-0.358669
0.0146763,0.00937306,4.01517,4.1176,6.2105,3.89383,4.08246,6.18772,3.88931,4.11415,6.18119,3.87419,4.04882,6.18692
3.79687,0.0805668,0.715358,11.6172,7.04438,1.82402,11.6926,7.21344,0.365705,12.5447,7.39291,0.426331,11.4855,7.0724
25.7717,0.593822,14.5706,22.6537,0.995779,13.6344,21.8589,3.05714,13.6327,19.0797,3.2937,12.7906,22.211,4.0047
5.75132,0.41628,6.26256,29.6607,-4.76456,5.51088,29.73,-5.25218,6.31774,30.9007,-4.40074,7.13265,29.33,-5.47395
2.67227,0.00459894,-5.89875,33.8888,1.81605,-6.74302,33.9372,1.24208,-6.71327,33.9175,1.41019,-6.57409,33.9649,1.04065
1.86159,0.0220167,5.44183,23.683,6.79268,4.63272,24.8294,6.17,4.82147,24.7754,6.20007,4.68396,24.7253,6.22895
0.749803,0.169983,13.6492,6.36655,1.51317,13.5245,6.86092,1.6934,13.525,6.79956,1.63971,13.5689,6.92838,1.55197
5.87546,0.0720946,-9.9496,7.79995,6.39043,-10.0202,9.57712,6.52175,-9.66677,9.64098,6.63065,-9.79003,10.0164,6.60994
0.0460056,0.0439218,5.81506,9.24639,6.93983,5.88206,9.16125,6.90622,5.80934,9.15843,6.91488,5.95317,9.19705,6.93102
5.38835,0.0401974,4.33023,9.11419,6.93403,5.86065,10.2034,7.00134,5.61771,9.52302,6.98937,5.66636,10.3525,6.98477
27.4426,0.599466,8.02459,16.8023,6.20633,9.48803,17.6615,6.31472,11.2501,15.2551,5.94685,10.3785,14.4506,6.27932
2.22702,0.322479,-9.50417,30.617,-4.45668,-8.7893,29.7794,-5.59754,-8.29945,30.2496,-5.53584,-8.57466,29.8147,-5.66466
1.331,0.17972,9.92282,18.1219,-5.23756,10.5544,18.0063,-5.05371,10.769,18.0549,-5.03958,10.767,17.8244,-5.07499
4.72872,0.16045,10.9966,1.90771,4.6301,11.6056,2.27357,4.44298,11.9279,1.74124,4.11994,11.8362,1.93969,4.21947
0.0526196,0.00085816,-14.0656,23.8685,3.48565,-14.1136,23.974,3.3777,-14.0754,23.9747,3.45875,-14.0297,23.9108,3.56091
19.8295,0.775309,12.211,31.8574,-1.99874,11.8247,29.2458,-3.3184,12.6636,29.0057,-3.06483,10.6301,31.867,-3.36416
6.82398,0.0848577,6.77755,33.7584,3.86972,6.36403,34.0163,2.61181,6.60548,34.0853,2.27668,7.03058,34.0501,2.67714
0.728805,0.173898,-10.8332,18.022,5.96286,-11.5448,18.551,5.67634,-11.464,18.6854,5.67055,-11.536,18.6475,5.6501
5.69192,0.189607,-6.07935,25.3548,-5.69059,-7.27526,25.1836,-5.60158,-8.10043,24.9449,-5.67717,-7.27979,25.5529,-5.58468
0.193233,0.0114661,-8.72515,2.00039,4.82129,-8.89346,2.03102,4.78749,-8.65642,2.16509,4.95558,-8.90549,2.09299,4.8339
0.986508,0.366118,14.4743,18.9004,0.80355,14.2614,18.9001,1.43621,14.3082,19.0492,1.30002,14.2579,18.9658,1.31596
2.20049,0.135657,-10.9662,25.7957,-4.75961,-11.4681,25.796,-4.76738,-10.7457,26.4057,-5.03186,-10.8819,25.5455,-4.89369
0.108738,0.0146208,-9.66107,1.33673,3.90115,-9.6333,1.37311,3.9735,-9.4951,1.33327,3.94221,-9.49018,1.28606,3.88414
19.7061,0.0832153,-7.71576,21.2839,-6.69252,-5.98661,22.6952,-6.7878,-7.47884,23.9706,-6.48655,-6.96044,22.7119,-6.63905
9.75072,0.688728,11.0502,27.0395,-4.0228,12.9054,28.0749,-3.12877,13.242,27.3211,-2.92961,12.3063,26.879,-3.84076
1.06441,0.068484,-1.1391,8.81464,7.12817,-0.927403,8.79653,7.19426,-1.21563,9.166,7.26722,-1.49693,8.68216,7.17212
0.580434,0.0724055,-13.8142,6.42564,3.68891,-14.0567,6.98496,3.13775,-14.0831,7.09984,3.12334,-13.9697,6.66782,3.34924
5.32342,0.0158084,-14.1478,12.6699,3.19314,-13.9463,12.5851,3.76272,-13.6555,12.9521,4.45192,-13.9691,12.0783,3.77688
54.042,0.763602,14.0627,9.67197,0.357085,13.8448,7.11367,1.0155,13.5328,7.26773,1.5745,13.2242,8.74587,2.72115
10.5734,0.404738,2.82224,7.06658,5.83887,2.77088,6.27095,5.95309,5.18689,7.34799,6.20553,2.19025,7.24099,6.40067
0.136902,0.000170088,3.96181,1.16199,4.67077,3.96051,1.10443,4.59932,3.86027,1.23825,4.76875,3.75848,1.06951,4.56109
29.4901,0.193829,-9.78118,12.7294,5.99331,-10.6323,9.43294,6.41785,-8.88321,10.2956,6.71289,-9.97301,13.3695,6.06756
6.63097,0.234397,-3.89437,7.59024,6.71296,-2.2176,7.5209,6.77817,-1.72441,7.88795,6.98548,-2.33858,8.80787,7.13573
2.87231,0.705495,-5.40559,19.2608,-6.36672,-6.63481,18.3041,-6.71175,-6.3238,18.8965,-6.39815,-6.19292,19.221,-6.31483
0.0625881,0.0181419,-14.2438,14.2328,3.31779,-14.1862,14.3662,3.45809,-14.1962,14.4733,3.42097,-14.1696,14.4907,3.51786
2.57607,0.517205,0.788803,11.5249,7.05919,0.114501,11.0285,7.15865,0.0679254,10.6287,7.32487,0.0790922,10.7772,7.26984
2.11001,0.0601685,10.493,2.6257,-2.99757,10.9578,3.09918,-2.8519,10.3509,2.51751,-3.15227,10.7012,3.16826,-3.06275
0.47008,0.0437568,0.894893,2.23382,5.64356,0.748575,2.84793,5.92608,0.957605,2.53345,5.80321,0.83206,2.88434,5.93856
4.54864,0.100017,-1.1704,12.2993,7.2154,-0.669286,11.6947,7.43976,-1.11267,11.2552,7.40852,-0.998888,13.1141,7.27763
0.0891829,0.00342686,-8.70716,0.674913,2.0485,-8.85134,0.692273,1.96916,-8.84792,0.67652,1.86866,-8.70972,0.654736,1.88816
0.0116525,0.0188794,-3.64799,5.74953,-6.07671,-3.70875,5.83934,-6.10288,-3.65308,5.82766,-6.08485,-3.70881,5.79799,-6.08838
220.738,0.914482,0.914201,13.5813,-7.24575,4.34658,8.41709,-6.01705,1.02143,8.5143,-6.35401,3.03133,8.58454,-6.14936
0.431911,0.027462,-2.29549,9.09826,-6.81317,-1.95862,9.18748,-6.81959,-1.88447,8.92225,-6.7612,-1.80433,8.96673,-6.77483
0.582693,0.368393,-14.4838,4.07349,0.932116,-14.3913,3.84478,1.4262,-14.4632,3.36649,-0.115502,-14.5084,3.64037,0.87838
3.6395,0.0378581,-6.97261,15.3969,6.01968,-5.88044,15.4523,6.3125,-7.56558,16.4628,6.69073,-7.33915,15.8768,6.26707
0.0144219,0.00419029,4.34999,15.6134,-6.99119,4.491,15.6205,-6.99301,4.4904,15.5709,-6.99423,4.34583,15.585,-6.99615
0.212792,0.0058758,13.6003,16.5433,-3.12559,13.529,15.9795,-3.23364,13.5972,15.948,-3.11384,13.678,16.195,-2.97432
0.428725,0.0607558,6.05189,3.25154,5.97724,6.43335,3.56954,5.91239,6.6451,3.61003,5.89625,6.64481,3.56483,5.89156
1.63763,0.198109,5.59124,21.4316,6.38443,4.58054,21.3135,6.45666,4.65635,21.4069,6.44636,4.51079,21.2676,6.47123
4.73161,0.451509,3.73968,31.9788,-3.59001,3.56429,31.6143,-4.51107,3.22479,32.8533,-3.6175,5.06203,32.283,-3.59682
3.36061,0.0179869,-11.6742,18.5592,5.63375,-11.3831,19.1009,5.67342,-11.833,19.6511,5.18436,-12.0118,19.1501,5.19352
1.65643,0.439433,-1.46303,19.0058,-6.98692,-0.66857,19.204,-6.47234,-0.674765,19.1504,-6.5368,-0.737686,19.3975,-6.3826
6.25222,0.158977,8.47816,25.2063,-5.06535,7.75406,24.8159,-5.61446,7.54108,26.1714,-5.78523,8.08485,26.3452,-5.50314
2.95318,0.132876,-3.38988,13.176,6.78957,-1.9887,12.5678,7.15018,-1.37167,12.3976,7.22916,-1.36657,12.4432,7.22021
2.32952,0.0547522,11.8122,1.23027,3.85863,12.2955,0.799473,3.1533,11.5272,0.820079,3.56204,12.1961,0.983366,3.44126
0.111384,0.126323,-0.19924,12.7015,-7.32495,-0.282253,12.5777,-7.29032,-0.330357,12.5695,-7.30706,-0.20254,12.5633,-7.30355
3.30388,0.126778,12.2736,20.7415,4.75869,11.0513,21.7127,4.93515,11.1123,21.7298,4.90036,12.593,20.3272,4.57454
4.08362,0.956565,3.84258,27.036,6.43188,6.45259,26.974,5.99941,6.5253,27.0253,5.96219,6.37835,27.1521,6.06316
17.2361,0.378743,-0.400911,25.1855,-5.96026,-2.38226,24.3192,-6.60373,-5.8652,25.3008,-5.75135,-2.31213,24.9732,-5.80557
1.96759,0.311922,4.28217,0.77817,2.98463,3.99315,0.616102,3.32869,4.00684,0.463136,2.9319,4.51534,0.388287,2.93964
6.90712,0.161643,-7.76637,6.35244,5.70232,-5.63171,6.65981,6.24475,-5.76188,7.02139,6.33173,-4.51035,8.01491,6.78494
0,0.0180515,-8.66957,1.45212,-2.52523,-8.74453,1.4606,-2.52012,-8.62723,1.38529,-2.39123,-8.67555,1.41698,-2.44727
4.22306,0.0724049,10.2492,30.6639,5.13744,10.7301,30.3572,5.21205,9.77719,31.1417,5.16026,8.72869,30.9646,5.44538
3.88818,0.0167117,-12.4933,27.7319,-4.37981,-12.9353,27.3546,-4.09474,-13.233,27.2375,-3.93266,-12.577,27.0263,-4.14365
2.6128,0.0186567,-2.6755,26.2619,6.195,-1.76515,26.1557,6.3838,-1.34841,26.2372,6.39046,-1.34448,26.3392,6.33608
0.949578,0.0874702,-2.47307,21.6436,-6.75889,-2.6064,22.039,-6.89054,-2.5446,21.5469,-6.81326,-2.04975,21.618,-6.96026
4.7922,0.00261201,1.60384,22.7838,7.14,-0.171111,22.8794,7.18017,0.805721,22.3086,7.10041,0.103821,22.4722,7.13098
2.96457,0.31139,14.078,24.4638,2.85461,13.6147,24.3476,3.70565,13.555,24.8443,3.8064,13.6252,24.008,3.66521
11.7348,0.541534,-3.93351,26.188,6.05569,-6.95388,26.0309,5.91844,-6.40185,25.8296,5.91111,-6.88104,25.2043,6.16819
83.4687,0.193207,-2.44327,3.87431,5.97025,0.202894,3.84517,6.16456,-0.363475,5.3584,6.33792,-3.58545,5.92194,6.39887
5.10147,0.281145,12.9876,28.134,3.4532,13.7988,28.3747,2.52734,13.8901,28.0106,2.49244,13.9865,28.5516,2.13854
7.05181,0.24871,-7.81996,3.32945,-3.91476,-9.82797,3.02579,-3.24497,-7.45513,2.9773,-4.17744,-7.4411,3.40832,-4.40578
0.355954,0.0102087,-5.73318,0.58618,-0.82162,-5.74747,0.417344,-0.301482,-5.36392,0.451064,-0.641632,-5.6868,0.40469,-0.297047
2.2477,0.183777,4.10827,27.2083,-5.56914,4.67791,26.9021,-5.80408,3.84082,27.1918,-5.71061,4.6025,26.6309,-5.74872
3.52982,0.0663439,1.24509,33.9406,2.18213,1.81332,34.0664,1.98876,1.82121,34.0754,1.93064,1.53724,33.9661,2.57001
3.4975,0.0305913,-5.36794,33.7689,2.5186,-4.77618,33.9629,1.7146,-5.03021,33.7033,2.83177,-5.39644,34.0233,1.15108
1.52254,0.0352638,7.0733,18.1347,7.06114,7.61522,17.6611,7.01461,7.55704,18.1973,7.14417,7.00225,18.3563,7.14807
3.18005,0.206185,-12.6015,4.31171,-2.73501,-11.5918,3.66659,-3.23111,-12.5717,4.82181,-3.06867,-12.9635,4.12472,-2.78286
2.92233,0.189897,-7.09311,19.4873,-6.37757,-6.19316,19.5859,-6.33427,-6.59533,19.9411,-6.44623,-7.94497,19.5695,-6.08957
11.2309,0.437524,-11.6731,19.7391,-4.66486,-12.9911,20.4727,-4.32232,-12.9027,19.0343,-4.44655,-13.2843,21.1651,-4.2948
1.42661,0.215083,-12.3231,28.7303,-4.84326,-11.9793,29.5022,-4.92178,-11.9625,29.0296,-5.01784,-12.0525,29.5054,-4.91801
0.935779,0.0475952,1.06865,0.415748,3.68381,0.782729,0.654105,4.12902,1.26413,0.500133,3.85439,1.12052,0.86453,4.37237
5.79819,0.0114231,13.9747,11.0026,1.80278,13.8047,11.925,3.35348,13.8408,11.1455,2.78348,13.9622,11.9827,2.38591
9.8362,0.00586856,-6.716,3.38645,-4.6411,-4.17723,3.3073,-5.00042,-3.61583,3.78553,-5.23978,-5.64308,3.93359,-4.97502
0.639368,0.00718152,7.2605,5.50398,-5.5404,7.60893,5.59888,-5.5143,6.91753,5.81698,-5.57975,6.9817,5.86207,-5.57817
0.867995,0.111556,0.530169,17.0409,-7.34223,1.43242,17.412,-7.31042,0.806815,16.6777,-7.33979,0.726325,16.6935,-7.32345
3.59239,0.128445,0.00207808,19.4373,6.70261,0.253906,20.1242,6.71456,-0.775354,19.638,6.7892,0.088156,18.8949,6.92968
8.30534,0.243421,-5.00381,27.3194,-5.43442,-6.11189,28.0796,-5.59672,-6.36923,26.7588,-5.8295,-4.06296,27.5283,-5.60936
4.46737,0.0244597,13.6953,31.7889,-0.362668,13.921,29.5675,-1.25373,13.6042,31.7808,-0.589121,13.7803,29.9627,-1.42037
3.22197,0.00702769,-14.1983,17.8547,3.31828,-14.2264,18.5904,2.74178,-14.3012,18.1011,2.41454,-14.3295,17.5046,2.51884
5.62095,0.42702,-13.8073,19.7021,1.9866,-14.0898,19.5748,0.781553,-14.2257,18.5604,1.96431,-14.2831,20.4839,2.31074
0.0225756,0.00364225,-7.21265,1.03151,4.01455,-7.29593,1.09902,4.128,-7.21738,1.07406,4.08145,-7.29099,1.05334,4.04834
1.4885,0.0597383,6.16008,18.528,-6.40311,6.99135,18.4521,-6.25604,7.55148,18.5624,-6.1352,7.34275,18.6463,-6.19568
0.226769,0.00872998,-3.35854,31.2884,5.94667,-3.63947,31.4077,5.86196,-3.43131,31.4408,5.84028,-3.56905,31.4424,5.83677
0.153991,0.0171114,-13.4285,6.84373,-3.06105,-13.4568,6.73397,-3.01801,-13.6116,6.87482,-2.79094,-13.6295,6.74594,-2.7933
3.63287,0.0341515,-8.1741,25.0337,-5.63589,-10.0942,25.3119,-5.31509,-8.80639,25.1954,-5.55221,-10.3864,25.193,-5.15579
13.9354,0.517123,10.16,32.8107,-2.17686,9.40598,32.453,-3.82803,11.6078,32.6655,-1.86387,9.81033,32.0397,-3.7994
2.92212,0.0305128,4.72945,26.5014,-5.70649,5.71984,26.0309,-5.80638,6.0759,26.0228,-5.86115,6.14578,25.977,-5.86362
119.124,4.07009,-8.58777,6.3002,5.61731,-12.4462,4.57012,4.82615,-13.6411,6.4443,3.9008,-11.3873,3.39199,4.76948
75.8402,0.550571,-9.15802,22.9002,-6.22813,-13.1387,21.701,-4.43147,-9.02229,20.9095,-6.00385,-11.2332,20.2583,-5.33139
0.009835,0.00906744,14.259,25.1604,2.3352,14.2774,25.1681,2.25981,14.2826,25.2313,2.24823,14.27,25.2271,2.28192
0.25813,0.00106374,1.26173,4.59957,6.42262,1.25827,4.41987,6.39621,1.41075,4.54899,6.41752,1.39889,4.36944,6.38997
10.3643,0.340298,12.2763,8.30379,4.39182,12.8945,8.81142,3.61585,11.7034,8.57514,4.97566,10.319,7.93269,5.43986
0.105373,0.0103216,13.3437,32.4254,3.25486,13.3457,32.6185,3.13342,13.3896,32.4871,3.11979,13.3232,32.6184,3.17395
0.791357,0.0325264,3.6857,12.0062,7.15466,3.58314,11.4624,7.149,3.18069,11.8953,7.14774,3.65549,11.4545,7.14631
10.6945,0.0631248,7.85779,32.2657,5.18021,7.24457,31.2399,5.66398,9.44174,31.3842,5.14578,9.50374,31.2396,5.17222
9.88172,0.212157,-0.872447,15.9425,6.53584,-1.0433,14.1613,7.078,-1.30917,15.9793,6.68467,0.276202,15.9853,6.90948
1.62214,0.106801,-8.56326,9.63854,6.72794,-8.31401,10.441,6.79893,-8.25425,10.3496,6.79416,-8.45608,10.4516,6.7752
12.4287,0.119276,10.4427,13.2017,6.25918,11.59,13.4745,5.81095,11.825,12.8596,5.71409,8.48244,13.3846,6.71762
3.34001,0.143523,-1.78522,5.7257,6.04774,-1.10851,6.03158,6.30827,-1.94734,5.98388,6.2131,-1.76888,4.66729,6.04482
1.36887,0.0104304,5.35806,1.13875,4.66194,5.43022,0.909126,4.32451,5.85241,0.755964,4.05671,5.63635,1.16815,4.70357
6.35335,0.193225,1.3487,33.2379,-2.80804,1.34061,30.7422,-4.19845,1.43765,31.8234,-3.70506,1.17934,30.7465,-4.16983
1.40915,0.0575526,11.1139,3.65063,4.90476,11.5939,4.29044,4.73699,11.4311,4.19347,4.81994,11.3915,3.36508,4.81369
20.211,0.0443522,1.09541,21.4443,-6.89805,3.74155,20.1843,-6.72507,3.22562,23.0613,-6.79002,-0.0870063,22.0363,-6.91155
28.0453,3.12862,6.57218,11.155,6.9338,2.04548,11.8255,7.17976,2.38775,12.6547,7.12016,2.38997,12.8305,7.17915
6.46412,0.0881627,13.0629,7.1088,-2.21464,12.1556,7.11323,-3.39682,13.9005,7.47274,-1.02645,13.8379,7.2247,-0.968688
7.56812,0.474309,-1.54907,17.8183,7.0698,-2.39478,19.4403,6.31299,-2.50451,19.76,6.08105,-2.51629,19.6588,6.1215
13.4525,0.246773,10.6796,17.0046,5.77692,9.56833,17.753,6.30302,12.2389,17.1293,4.72636,10.8777,18.6919,5.93454
21.6331,0.0259384,-14.3302,21.3468,2.72457,-14.0308,18.3631,3.86638,-13.9897,20.1579,3.95618,-13.8786,19.3428,4.33972
20.3851,0.385988,3.27827,7.40945,-5.61738,5.65085,7.26514,-5.30843,7.24411,7.60802,-5.51484,7.03018,7.21233,-5.37487
1.11455,0.0401967,13.703,18.1632,3.04106,13.3267,18.6766,3.76823,13.5387,18.7403,3.41239,13.592,18.8052,3.33673
0.0816645,0.0249278,5.87497,14.5005,-6.80152,6.15326,14.5049,-6.77127,6.15308,14.5505,-6.77287,6.08342,14.6388,-6.78989
3.47232,0.0152772,-14.5997,23.2693,1.36817,-14.6328,23.7207,0.544172,-14.5867,24.192,1.44001,-14.632,24.1538,0.613369
3.79553,0.0846486,1.64563,16.9536,-7.3018,2.61877,17.326,-7.26105,2.90196,16.6891,-7.22528,1.84763,17.6896,-7.26906
0.517717,0.0893653,2.9775,24.5027,7.08665,2.9167,24.8267,7.08255,2.98825,24.827,7.0983,2.75768,24.6976,7.08128
0.0135544,0.0116969,13.1017,0.753729,1.85448,13.3283,0.970161,1.58816,13.1682,0.818835,1.75216,13.3355,1.00125,1.6214
11.5924,0.805138,14.234,14.6125,-0.396323,14.0149,13.5575,1.57485,13.9649,13.2308,1.15498,14.0737,12.7335,1.30668
0.973769,0.765149,-6.51808,2.18915,5.24016,-6.77883,2.90896,5.41472,-6.84706,2.86908,5.39855,-6.91919,2.82687,5.38182
3.34487,0.206937,10.0735,30.4655,-4.21031,10.1676,31.8286,-3.66937,10.0874,31.92,-3.66074,10.2801,30.0239,-4.06509
0.236203,0.0105811,2.94784,17.748,-7.16856,3.0182,17.6057,-7.18911,3.22916,17.7044,-7.15737,3.22787,17.7497,-7.15222
1.99522,0.282071,5.1317,32.3435,-3.58659,6.24985,32.5422,-3.50652,6.16928,32.439,-3.56415,6.44703,32.5477,-3.44787
5.52269,0.33341,3.38186,16.3661,6.45264,4.21094,16.4413,6.68385,3.31613,15.5093,6.6165,2.26133,16.6357,7.03653
4.08768,0.0948282,-6.31571,20.691,6.50271,-7.50536,20.8799,6.46315,-8.69043,20.9349,6.35757,-8.5496,20.8361,6.39171
0.00162981,0.0133085,13.6416,27.7795,-2.60553,13.6387,27.6348,-2.62132,13.6398,27.6822,-2.60937,13.6556,27.5921,-2.61187
29.9139,0.584027,-10.3701,8.09303,-5.08636,-5.60457,8.74534,-6.26405,-9.90512,6.46025,-5.36888,-6.66573,7.3268,-5.85463
4.66929,0.0101602,13.1934,16.2399,3.67793,13.4819,16.9946,3.07589,13.183,16.6594,3.69164,13.5935,16.6414,2.82832
5.44671,0.0655924,-13.3846,10.4836,-3.34895,-13.2251,7.82292,-3.34947,-13.4088,7.88389,-3.13826,-13.0818,7.94034,-3.53222
34.3475,0.704947,-5.1071,11.0182,7.14545,-5.89354,8.25534,6.72256,-4.57224,8.32291,6.8846,-5.26951,8.0069,6.68694
0.478389,0.0428471,-2.26525,11.819,7.29755,-2.08922,11.1169,7.32897,-2.2386,11.082,7.31327,-2.30758,11.126,7.30846
1.5171,0.632535,0.964878,26.8447,-5.55175,0.404136,27.4009,-5.49312,0.633555,27.4346,-5.59732,0.33212,27.3897,-5.58315
3.49095,0.0971433,1.99288,16.0467,-7.24382,1.01428,16.8122,-7.33691,1.50607,16.7264,-7.29573,2.6231,16.3225,-7.23299
1.9837,0.0808281,-5.44612,33.871,-1.36938,-5.2495,34.0072,-0.881369,-5.89249,33.983,-0.631432,-6.05104,33.9697,-0.657487
21.3729,0.49583,12.9899,15.7524,4.03672,12.117,15.1625,5.24365,13.2342,13.0799,4.32889,13.9158,13.4427,2.42738
1.59974,0.0553612,-8.53304,31.267,-4.45801,-8.98145,31.2515,-4.21124,-7.24441,31.1911,-4.97334,-7.16653,31.3002,-4.90273
0,0.00194358,14.2763,19.5028,-1.84403,14.2645,19.7205,-1.79859,14.3125,19.6434,-1.75451,14.3322,19.567,-1.74985
4.15004,0.109005,-2.99869,15.7013,6.46655,-2.10952,15.5933,6.72755,-1.48107,15.6498,6.75238,-1.39751,15.7492,6.70597
4.59298,0.70612,-10.0552,27.2381,5.36298,-10.6511,27.8817,5.22437,-10.9419,26.9936,5.04184,-10.5012,28.3206,5.344
1.64985,0.0832293,0.689931,33.5355,-2.35767,-1.04531,33.4435,-2.28962,-1.05245,33.4882,-2.19175,-0.931912,33.6424,-1.85954
3.20139,0.141035,6.99603,18.3592,-6.28584,8.51171,18.0818,-5.95771,8.1016,18.3895,-6.03732,8.50934,18.221,-5.92833
0.760084,0.0609924,8.00596,27.2609,-5.50905,7.81581,27.5493,-5.77002,7.81001,27.3273,-5.70852,8.14216,27.1721,-5.47987
3.89678,0.198666,-1.73668,22.3441,7.10607,-1.4995,23.9634,7.04697,-1.93722,23.6985,7.045,-1.7089,23.9268,7.02996
5.89234,0.134008,10.3408,20.1977,5.91195,11.6658,19.5862,5.41949,10.6795,21.1735,5.80324,11.5525,19.5053,5.48583
1.42678,0.0702912,-1.03616,0.607847,-1.56901,-0.654161,0.848861,-2.42411,-1.22314,0.825988,-2.19082,-0.943463,0.791171,-2.09605
12.2835,0.0889152,-7.55934,4.50456,-4.87405,-8.37769,5.11622,-5.12094,-5.85869,4.07296,-5.07103,-8.68254,4.3834,-4.71501
0.186334,0.138543,-14.2561,7.83615,2.83659,-14.1542,7.90605,3.09168,-14.1648,7.95308,3.06028,-14.2063,8.01334,2.99507
5.13449,0.0654606,6.64754,31.047,-4.36245,6.89064,33.2863,-2.92019,6.75619,33.0665,-3.05115,8.02492,33.0889,-3.24781
6.66952,0.0169491,5.77688,29.4791,6.16028,5.47916,30.2739,6.16979,7.0885,28.5206,6.07239,7.31727,28.7055,6.03491
2.94155,0.183698,-7.27104,15.2045,6.13717,-7.04807,14.6943,6.40179,-7.53829,14.0048,6.48823,-7.45892,14.0044,6.49032
7.50322,0.535146,0.856077,17.383,7.3047,0.0811575,18.8466,6.94116,-0.0704662,18.8062,6.93893,0.802911,18.6499,7.17976
2.32462,0.389719,-9.1252,33.2114,-2.65186,-9.45987,32.2711,-3.47757,-9.17063,32.0691,-3.63803,-9.23768,32.0208,-3.64702
3.75798,0.420731,9.84252,4.83712,5.2096,11.8368,4.80215,4.53897,11.7743,4.78497,4.57242,11.7259,4.68379,4.58404
1.12749,0.00938393,13.507,11.2563,-3.24158,13.4413,11.659,-3.32717,13.1383,11.4677,-3.79994,13.3204,10.9447,-3.56442
3.16521,0.12028,-12.1492,15.0452,5.20937,-12.4671,13.906,5.52731,-11.5126,15.3788,5.29577,-12.6785,13.8369,5.41701
22.8906,0.0538867,-12.3478,25.4196,-4.10511,-14.1019,25.0918,-3.42373,-10.4621,25.101,-5.14076,-11.1932,24.1469,-5.43103
12.9686,0.233251,7.84765,26.4585,5.46178,6.86064,26.0394,6.25928,9.00383,26.4484,5.31841,6.60816,27.0792,5.91031
3.10336,0.0896723,-12.9361,22.5365,-4.37194,-12.402,22.2967,-4.79968,-13.5897,22.3954,-4.02917,-13.6611,22.9894,-4.06382
0.284583,0.0205267,-8.6695,26.4862,5.74969,-8.60032,26.3023,5.70058,-8.39947,26.4126,5.83544,-8.5314,26.2975,5.7238
3.6224,0.130832,-10.3443,30.6642,4.02643,-10.7413,29.9596,4.13512,-9.75304,30.8434,4.50318,-10.6778,30.7807,3.94437
41.4854,0.286721,7.84679,7.69685,6.02592,10.2732,7.97116,5.4554,3.58149,6.38897,6.21377,4.56624,6.00832,6.08838
39.4633,0.228885,-8.01096,19.6644,-6.06925,-11.3941,19.518,-4.97354,-9.71823,20.5523,-5.92424,-12.0939,20.7042,-5.05088
1.94017,0.0131949,-14.4077,12.6126,2.28242,-14.446,11.7252,1.98772,-14.4166,11.7491,2.15665,-14.4837,12.2356,1.77047
3.1164,0.0599456,1.25254,28.1884,6.67995,0.965939,28.1458,6.7137,1.8848,28.4695,6.80479,1.19936,27.3068,6.70599
5.27812,0.865221,-9.22991,23.1298,-6.22078,-11.0098,22.7804,-5.71812,-9.52462,23.9736,-6.07343,-9.80371,23.786,-6.11826
2.96448,0.0364926,7.16344,7.1255,-5.34067,8.00992,7.36601,-5.25154,8.27977,7.14751,-5.15021,8.20836,6.9226,-5.11879
6.0168,0.205855,-6.79818,0.730946,3.44931,-8.46133,0.735846,2.72864,-8.51959,0.80987,2.95962,-8.99651,0.747942,2.26521
21.3957,0.41097,9.43161,18.4697,-5.02757,8.64357,18.18,-5.8936,9.31427,23.1976,-5.75038,9.58346,21.9783,-5.55834
1.62552,0.251383,3.95829,15.1636,6.96066,4.85226,15.2395,7.15595,5.26278,14.9475,7.17092,5.26538,14.9916,7.16514
0.70132,0.09645,13.3233,8.01972,-3.09128,13.1456,8.34316,-3.46661,13.3346,8.63736,-3.30215,13.3938,8.69245,-3.2227
5.71972,0.153239,2.78746,33.1131,4.69188,3.17393,32.4714,5.46688,1.88573,32.7631,5.03528,2.06727,31.9889,5.68775
2.73126,0.092855,-11.7804,31.1985,3.87619,-12.0636,31.2381,3.95937,-11.2984,30.7719,3.83599,-10.741,30.7868,3.92614
6.55029,0.368097,0.718795,16.0005,6.70885,2.62175,16.1055,6.81084,0.456988,14.8793,7.15339,0.274035,16.5966,7.12388
3.00009,0.234238,10.4809,29.5374,-3.91562,11.6433,29.4728,-3.37056,10.1411,30.0077,-4.18991,10.2469,29.1031,-4.77435
0.766271,0.0996603,2.12515,34.0844,0.616395,2.43162,34.1244,0.459929,2.3588,34.0876,0.588955,2.44388,34.1265,0.838638
43.3351,0.763458,-2.12703,28.3024,-5.65646,-3.37084,26.7398,-5.67088,-0.821477,25.9509,-6.06712,-3.04954,25.8976,-6.13313
2.33148,0.0288257,-10.4738,3.13749,-3.03998,-9.74922,2.52307,-3.2398,-9.89065,3.15584,-3.27501,-10.6788,2.5104,-2.91635
45.7669,0.138136,-0.997218,22.9582,7.15426,-1.88542,24.3528,7.00782,-0.955292,25.7309,6.87962,0.453347,24.8599,7.13189
0.560354,0.342718,-6.37298,33.9029,-0.982481,-6.78498,33.7024,-1.50339,-6.7988,33.7435,-1.448,-6.79511,33.7831,-1.32397
1.29761,0.0891001,-11.3159,28.4017,-5.23604,-10.9473,28.8291,-5.49357,-11.0214,29.1073,-5.47677,-10.8788,29.1472,-5.53397
20.2676,0.426137,10.1116,24.9481,-4.21665,8.54735,24.7293,-5.20834,9.83633,26.3067,-4.71532,11.5812,24.309,-4.18715
4.9386,0.227636,-14.3174,6.27659,2.20267,-13.8537,4.79879,3.55979,-13.7734,5.31901,3.72948,-13.7833,6.08888,3.7309
1.671,0.150338,0.138268,13.5883,6.93551,-0.361014,13.0453,7.28829,0.265963,14.1133,7.09539,0.505037,13.573,6.92465
8.94618,0.309573,13.4152,5.75415,2.55612,13.5256,3.74312,2.58399,13.1578,3.12588,3.12266,13.1361,3.12871,3.16255
8.27006,0.153857,0.643875,7.51513,-5.87813,2.18796,7.51671,-5.86682,-0.727438,7.39051,-6.15798,-0.374124,7.7963,-6.22465
0.413506,0.0143135,14.4791,22.0917,-1.74957,14.341,21.4109,-2.04405,14.4121,21.4753,-1.90887,14.3692,21.8821,-1.98944
16.7038,0.300304,14.1514,16.0041,-1.36473,14.0159,17.0477,1.36359,14.2406,14.6096,-0.565706,14.1639,17.6618,0.720777
0.0934768,0.0178479,-2.65712,22.1561,7.02098,-2.51032,22.1984,7.02922,-2.4316,22.1465,7.03373,-2.51186,22.1071,7.01719
3.6131,0.181955,8.90268,6.56372,5.62771,8.32751,6.11233,6.02814,9.54972,6.46435,5.52246,8.51393,7.29616,6.10451
0.00990335,0.000634982,-6.53315,1.33443,-2.95208,-6.02144,1.31212,-3.03133,-6.2657,1.27836,-2.89661,-5.98303,1.27318,-2.95525
41.421,0.339904,-11.5659,21.1032,5.29842,-9.65417,17.3643,5.81152,-9.43248,19.3454,6.04753,-12.8333,19.3672,5.16506
1.78057,0.0470881,12.102,27.8818,4.33628,12.364,28.1043,4.06749,12.7973,28.074,3.70786,12.7861,28.1702,3.72105
32.8444,0.224975,-4.52524,23.898,-6.68922,-0.375835,21.7615,-6.9055,-5.74378,24.6782,-6.3473,-1.5707,23.1861,-6.87865
6.69321,6.78992e-05,-14.1719,13.5543,3.4262,-14.3853,12.8674,2.3998,-14.3122,12.3243,2.66595,-14.4955,12.7988,1.90135
2.25812,0.00105021,3.26006,13.3107,7.14549,3.39496,13.9326,6.98656,3.30337,14.4583,6.85256,3.2254,14.4621,6.85206
0.0136116,0.0265362,-10.1942,6.91728,-5.37199,-10.1133,6.88629,-5.38177,-10.0469,6.87249,-5.41197,-10.0524,6.90888,-5.40436
0,0.00759647,-12.7031,1.4605,-1.07331,-12.6336,1.44313,-1.09409,-12.6323,1.48393,-1.14883,-12.5568,1.44429,-1.12966
15.4859,0.31157,13.1782,1.79907,3.00443,12.8762,4.05585,3.56567,13.4362,3.32555,2.7591,12.1206,3.64506,4.21595
1.33571,0.00313264,-1.7692,0.0869333,2.3406,-1.48945,0.0919763,2.57661,-1.71361,0.256893,3.28869,-1.36246,0.209486,3.28142
8.63211,0.37264,-11.4717,27.6284,4.95085,-10.8208,28.2687,5.15559,-10.8284,29.7739,4.18259,-11.1642,29.7991,4.08148
9.48688,0.0556687,10.1383,20.0288,-5.39451,12.4503,19.5153,-4.33233,12.0535,19.8612,-4.50879,10.7607,19.6919,-5.1669
6.13775,0.21259,8.60857,4.93689,5.49,8.14269,5.30128,5.9511,9.81304,4.84293,5.21974,8.03006,4.21115,5.8755
1.1515,0.432729,0.344195,14.1554,7.09739,0.235737,14.6536,7.18273,0.530066,14.7825,7.17827,0.158367,14.6076,7.19652
4.06197,0.228817,7.65342,13.4842,6.54761,7.98984,13.0474,6.61734,8.25709,14.5801,6.80086,6.96697,13.2621,6.94971
6.33625,0.00496682,11.0193,22.3684,4.99013,11.641,23.4947,5.4205,11.5805,23.2821,5.31407,12.5203,22.9567,4.71594
2.02612,0.138714,-4.56757,4.72934,5.94018,-5.45998,5.14001,5.88796,-4.32271,4.47254,6.0996,-4.91121,4.6319,5.76529
17.9685,0.443812,-8.1221,30.3232,4.79395,-9.68588,30.8856,4.51663,-7.05842,31.0063,5.53924,-8.94616,28.3954,5.44013
44.8366,0.0173617,-2.45893,9.22376,7.16873,-4.40221,10.8993,7.15924,-3.14262,11.073,7.25748,-4.63555,10.4551,7.11461
2.68004,0.0297993,-13.458,4.60149,-2.60048,-13.9636,2.89615,-1.37227,-13.7113,3.0372,-1.77466,-13.7954,2.96062,-1.63058
11.5376,0.668988,8.56784,11.0116,6.20428,8.6036,8.84255,6.5277,8.97721,9.19497,6.56595,9.36352,9.90449,6.66173
5.40814,0.018318,-4.20437,20.636,-6.74924,-3.16865,21.7184,-6.87864,-3.4509,22.0377,-6.89817,-4.20309,19.816,-6.70118
4.09249,0.0117186,8.97332,22.1609,-5.98351,8.00496,20.9305,-5.88288,7.74683,20.9501,-6.04708,8.22415,21.5869,-6.10561
6.02168,1.91063,-12.0139,22.3418,5.43519,-11.387,24.2084,5.20076,-11.584,24.2285,5.0985,-11.3275,24.2019,5.25159
1.85002,0.0542498,-12.3028,25.6686,4.64149,-12.988,25.7584,4.50008,-11.9552,25.6137,4.6309,-12.907,26.1269,4.50705
10.9582,0.497271,0.476684,24.8445,-5.70099,1.84951,24.6527,-6.15296,-0.160418,24.6302,-6.31319,0.264245,26.9148,-5.74022
3.20062,0.0378388,-1.24821,14.2632,7.04833,-0.996221,13.1631,7.26743,-1.00466,13.69,7.14458,-1.18932,13.2206,7.25281
1.90573,0.264794,4.52238,30.3228,-4.90787,3.86285,29.577,-5.37094,3.98332,29.7365,-5.21206,4.04247,29.884,-5.10025
13.6706,0.057266,-12.6923,6.13723,-3.68069,-8.59716,4.90419,-4.97428,-9.03618,4.87678,-4.7626,-8.75421,4.47393,-4.72522
0.0440104,0.0111578,-0.0901118,25.3038,7.07012,0.0533334,25.3403,7.08468,0.0563034,25.3851,7.08314,-0.0190631,25.388,7.06847
6.14402,0.112678,-12.4685,2.69476,-2.435,-10.8228,3.09153,-2.99605,-10.8842,3.12984,-2.99523,-12.7098,2.23505,-2.01613
3.80029,0.1865,-5.51307,33.8174,0.192575,-5.72418,33.9972,-0.33171,-5.5372,33.9923,1.03691,-5.82521,33.9787,0.631106
45.1323,0.760104,-6.25801,7.37179,-5.8659,-3.51809,7.79774,-6.17387,-3.06652,9.0621,-6.7222,-3.34553,9.86872,-6.8603
0.842765,0.00278008,-1.7289,33.9837,2.10839,-1.39953,33.9257,2.53232,-1.74294,33.9281,2.41582,-1.12865,33.9845,2.29951
2.9784,0.152035,1.19584,30.6534,-4.17347,1.06233,30.1506,-4.48405,2.79708,30.1414,-5.26517,1.42005,30.2945,-4.46519
5.64243,0.0593304,10.6002,6.93196,-4.2205,9.64047,6.56642,-4.62577,9.77501,7.03027,-4.57741,8.40446,6.92825,-5.06583
0.96345,0.0372109,13.3124,14.3751,3.82347,13.3204,14.9191,3.64215,13.1149,15.0079,3.99626,13.2554,14.8567,3.76923
1.94944,0.087886,10.9755,31.43,-3.19156,10.7706,31.6389,-3.34678,11.8719,31.2175,-2.72171,10.7239,31.2782,-3.63657
2.91615,0.0810376,-11.181,13.1324,6.08037,-12.1,13.3933,5.78159,-10.4069,13.1816,6.20837,-12.1133,13.1224,5.74592
5.88244,0.0671627,-10.4421,7.87049,-5.03358,-12.4686,8.33563,-4.09233,-11.1554,8.26135,-4.80158,-12.5493,8.25344,-4.03017
0.658614,0.023196,-3.30697,16.4455,-7.32293,-3.30194,15.8981,-7.31309,-3.23202,15.9454,-7.31659,-3.15605,16.0785,-7.32533
2.19823,0.0931622,2.67333,33.9377,1.46768,2.88785,33.9472,1.34896,2.48815,34.131,0.84722,2.48603,34.1161,1.81563
68.4498,0.850641,8.8823,34.0663,0.0965197,11.4621,33.6954,3.40896,12.0967,34.0007,0.459145,12.3129,34.0035,1.56861
0.0459084,0.010374,-14.2603,16.7622,3.27642,-14.2116,16.7424,3.41141,-14.1864,16.6886,3.52494,-14.1988,16.6479,3.50794
24.8857,0.496205,8.10046,11.1029,-6.15683,3.80596,12.2684,-6.72352,4.22089,11.6921,-6.57253,3.80634,12.3135,-6.728
0.824898,0.0526316,-8.18003,28.2807,-5.79833,-8.04634,28.0992,-5.79958,-7.84653,28.5523,-5.85587,-8.46688,28.0462,-5.84924
4.07788,0.0215361,-0.318247,28.011,-5.35585,0.643033,29.1767,-5.29905,0.218374,28.9047,-5.24423,-0.0133068,27.421,-5.71265
12.502,0.171547,13.3964,17.4928,3.33824,14.0069,17.1932,1.47278,14.117,17.8758,1.47817,13.695,16.9874,2.55409
8.91397,0.461273,-10.1774,26.3216,-5.32958,-8.26388,26.8362,-5.61744,-8.39633,27.9143,-5.81217,-8.18926,26.7864,-5.63252
4.09943,0.0962793,-11.4388,15.6095,5.29353,-11.3862,16.3674,5.73368,-10.3094,15.5351,5.84333,-11.2675,16.5641,5.95111
8.46215,0.373849,-12.1228,3.65173,4.1083,-11.779,4.05209,4.7623,-12.7925,3.58317,4.29021,-11.2585,1.98977,4.2183
5.05299,0.405704,10.9274,27.0766,-4.0886,9.49055,26.7089,-4.81015,9.56492,26.6721,-4.74501,9.23925,27.1395,-5.02948
5.4816,0.132464,-0.406429,24.1269,-6.72689,-0.384999,22.6811,-6.89553,-0.159882,22.2649,-6.92209,0.169618,23.6427,-6.91401


