
2.89672,0.0455898,0.40943,35.072,2.97525,0.921241,34.8778,3.42104,1.48035,34.8207,3.54001,1.3934,35.0038,3.21958
0.0335919,0.0869232,-10.9858,28.2134,1.00462,-10.9854,28.3477,0.981905,-10.9967,28.3463,0.935085,-10.9775,28.3596,1.04718
1.81753,0.0850393,-7.7601,14.9449,-4.96639,-8.7214,14.9053,-4.52958,-9.4402,15.0361,-4.17384,-9.44713,14.9914,-4.15734
1.11013,0.0531783,-10.5158,33.0454,-0.206814,-10.6598,32.637,-0.458318,-10.1372,33.5899,-0.0174927,-10.6485,32.7973,-0.0643585
4.26765,0.187198,4.21877,15.8039,-5.69004,5.52796,15.1555,-5.5731,5.9243,14.8293,-5.55448,5.16184,15.5658,-5.50925
4.13476,0.0606557,-0.547906,35.3648,1.78601,0.627967,35.4372,1.55995,0.635644,35.4227,1.69223,-0.379502,35.4329,0.792644
0.00824557,0.0283811,5.61113,33.9135,4.16389,5.45773,33.9415,4.18837,5.55533,33.8944,4.16163,5.45292,33.8967,4.20468
4.58169,0.141998,5.83672,4.64509,4.26034,6.07173,3.17279,4.12383,5.94518,3.34641,4.18393,6.39125,4.00055,4.16312
1.3226,0.0513291,10.3966,7.12877,1.45686,10.7055,8.20752,1.27189,10.5873,8.09879,1.38559,10.6031,7.58543,1.24235
24.5932,0.149924,4.94273,15.9798,-5.62839,3.541,15.4167,-5.8886,1.27815,15.0932,-6.39973,0.271544,16.0027,-6.33164
5.50666,0.219027,2.55214,29.3986,-4.56576,2.29103,29.4582,-4.80133,3.7144,28.4533,-4.87216,4.14547,30.8278,-4.36728
1.87264,0.091638,-4.43678,4.9641,-4.3523,-4.48339,4.55179,-4.41713,-4.25476,4.24672,-4.42733,-4.03214,4.73757,-4.47955
1.22546,0.0332922,1.25842,0.953362,-2.3609,1.91742,1.1786,-2.83969,1.64718,1.17883,-2.77507,1.89677,1.02183,-2.56546
0.555067,0.00814241,3.27893,20.5282,-5.72336,3.66774,20.3261,-5.6784,3.59663,20.3363,-5.6872,3.82297,20.4473,-5.64798
2.69287,0.107291,4.92599,10.9164,4.92075,5.28566,11.5126,4.98912,5.63235,10.4218,4.69232,4.77083,10.6368,5.05389
1.2405,0.0394506,-9.15004,1.80059,0.687269,-8.71775,1.73187,1.02146,-8.74318,1.71984,0.616846,-8.58686,1.67792,0.692073
5.3631,0.0395977,-2.01209,9.61477,-6.04413,-2.87492,9.05436,-5.90408,-3.15168,9.64098,-5.89845,-2.32849,9.84205,-6.04772
2.7623,0.00825253,4.06117,10.9397,-5.30012,5.95289,10.5334,-4.88384,4.6632,10.6985,-5.16932,5.96237,10.5799,-4.87856
0.83885,0.344341,7.41312,15.3778,4.70308,8.26145,15.284,4.00061,7.98595,15.3726,4.09535,7.98875,15.4169,4.0859
58.6373,0.510147,-3.82251,26.3359,-5.49157,-1.39902,26.7477,-5.75423,-2.79574,24.6813,-6.22333,-3.53531,29.8472,-5.37261
3.94025,1.80322,-3.20416,32.2984,-4.99087,-5.27265,31.9561,-4.5338,-5.40153,32.1524,-4.51327,-5.28773,31.8771,-4.62222
1.51473,0.0361997,-10.9554,24.73,-2.35259,-10.8894,24.9726,-2.62683,-11.0104,24.3088,-2.35457,-11.1738,24.7843,-1.82188
2.95519,0.173122,-9.3033,10.1992,-4.00677,-9.71533,10.3108,-4.08715,-7.50493,10.0609,-4.62608,-9.50711,9.78066,-4.11948
4.34296,0.00332399,5.68988,17.7317,-5.60094,7.20891,18.2145,-5.19286,7.7799,18.3047,-5.03926,7.81258,18.0647,-5.02642
1.50542,0.221791,-11.0302,28.3488,-1.50438,-10.9726,28.9648,-1.28803,-11.0504,28.8436,-1.05135,-10.9758,29.1288,-1.34289
53.3692,0.694834,-2.83339,27.8744,5.44573,0.968019,28.7468,5.58783,1.04961,29.8902,5.72875,-2.16333,26.5894,5.86175
7.43392,0.0511021,-10.1878,4.8648,2.86786,-10.5143,5.16061,1.7039,-10.506,4.69671,1.66703,-10.6057,3.90985,1.24375
6.79375,0.296719,-9.19503,6.07699,-3.09332,-9.6598,6.26957,-3.36813,-9.38638,4.76529,-3.24084,-7.50415,5.7819,-3.52451
1.92449,0.0644579,-4.47888,15.8805,6.01975,-3.47228,16.022,6.02325,-5.15096,15.7786,5.90979,-3.47471,15.9741,6.02751
0.0397489,0.00428866,5.68244,23.5052,5.31762,5.74959,23.5009,5.30043,5.69574,23.5931,5.30343,5.83501,23.5751,5.27763
2.20436,0.166905,-7.66824,11.8623,-4.38129,-6.08059,12.1024,-5.48099,-6.17266,11.932,-5.50037,-6.23778,12.0165,-5.38596
8.20739,0.129081,-4.92669,9.77033,-5.5069,-7.43175,10.0569,-4.65817,-7.3113,9.91027,-4.72227,-3.18695,9.3743,-5.90939
6.67195,0.0913524,-5.20312,8.53527,-5.12749,-2.63377,8.34684,-5.7518,-2.55199,8.38353,-5.76519,-7.0636,8.77036,-4.48665
0.266405,0.266002,11.0807,10.668,0.962534,11.045,10.9692,1.06522,11.1183,10.9536,0.901303,11.0781,10.9634,0.98078
2.9528,0.0426927,5.66846,15.7453,-5.31105,4.86568,16.9713,-5.66069,5.02516,16.9784,-5.55098,5.10311,16.0513,-5.60848
0.159448,0.00831667,-0.0167631,33.2148,5.28842,-0.154245,33.4297,5.13064,0.0587418,33.2851,5.22444,-0.00476032,33.4159,5.13369
24.1058,0.791338,1.83445,20.9871,-5.31802,3.49224,20.9836,-5.87711,1.95941,23.1802,-5.59307,0.978363,23.1061,-5.76809
24.3102,0.183804,-10.3929,4.6619,-0.85362,-10.5319,5.95904,-0.372841,-10.4387,6.36792,-1.95012,-10.587,6.65195,-1.17287
7.13494,1.69061,0.0452211,7.13937,-5.04038,-4.40577,7.77009,-5.13624,-4.45215,7.84119,-5.17231,-4.41704,7.68308,-5.11983
6.50578,0.124614,-2.52979,30.3185,5.4241,-0.688096,30.7765,5.8104,-1.66457,30.206,5.74629,-2.17048,29.5219,5.79827
0.110558,0.0243445,5.26793,35.2816,1.35209,5.28804,35.2766,1.45274,5.16369,35.2818,1.53027,5.22696,35.2959,1.58266
1.34408,0.0167672,-11.1902,23.1906,0.997593,-11.0971,23.256,1.12551,-11.2629,23.9535,0.76739,-11.2983,22.9103,0.952057
0.064674,0.0229271,5.046,19.4058,5.5869,4.94387,19.4391,5.63203,5.08029,19.503,5.59952,5.02562,19.5158,5.61126
3.6099,0.44758,-7.54818,8.28481,-3.97106,-7.66101,9.97831,-4.56374,-7.63789,9.68797,-4.53902,-7.71371,9.6522,-4.54134
13.0503,0.800262,-3.71399,31.2594,4.69969,-2.89763,31.3176,4.89621,-3.65043,29.0263,5.64904,-3.7893,28.4489,5.73853
0.903127,0.0295888,5.06383,33.3784,-2.89866,5.7381,33.2425,-2.85562,4.92581,33.4896,-2.88276,5.73074,33.1991,-2.89609
1.33281,0.0188415,-9.9452,24.8222,-4.05643,-10.2428,24.5699,-3.73593,-10.1597,23.9157,-3.82763,-10.0673,24.1308,-3.91706
1.56377,0.0256469,7.8717,28.3473,3.81381,9.0488,28.1503,3.09743,8.86973,28.1321,3.2759,8.72218,28.1321,3.40345
7.82545,0.263862,0.0123618,26.4838,5.71895,-0.298822,25.7732,6.16327,0.0162347,27.5639,5.956,0.567833,26.3965,5.77988
2.29989,0.118168,-5.83109,18.5192,-5.69899,-5.48061,18.4867,-5.7925,-6.18736,18.9743,-5.9761,-6.40404,18.0842,-5.72823
5.15392,0.0679683,-1.9552,34.1825,-2.65966,-2.59442,34.1094,-2.75436,-1.45052,34.4711,-2.3085,-1.24441,34.0763,-3.50141
0.164568,0.0208811,-10.9182,21.1111,3.05405,-10.9483,21.4109,2.93695,-10.8943,21.3196,3.07494,-10.8544,21.3035,3.15908
16.4107,0.691711,3.13692,19.2284,5.38491,5.59858,18.6022,5.34117,3.32772,20.1345,5.54897,6.58601,18.3258,4.95774
0.0641948,0.0294721,10.896,25.6363,1.55333,10.877,25.8016,1.49837,10.8437,25.8878,1.55651,10.8628,25.8837,1.51599
49.0102,0.00202955,9.97087,8.77772,-2.64578,8.9195,12.2135,-4.00809,9.3653,12.3464,-3.50612,10.2545,10.7335,-2.41697
25.7667,0.0534878,4.19589,24.9426,5.00779,7.2735,26.6671,4.8681,7.15794,25.2949,4.5112,4.67191,26.3478,5.25207
0.116859,0.110118,-10.4155,32.964,1.78592,-10.5194,32.781,1.75184,-10.531,32.7691,1.71021,-10.4602,32.8292,1.87619
4.83473,0.198783,7.25019,28.2726,4.04385,7.1998,29.0073,4.18303,6.97959,27.8718,4.6745,7.72915,28.3269,3.85887
13.587,0.143068,0.0971922,20.7715,-6.12605,0.618241,20.3976,-6.25392,-1.79415,20.9994,-5.99891,3.32976,20.3764,-5.7273
9.52134,0.0148555,9.07672,6.33355,-2.24921,10.5916,6.46377,-0.0337085,7.69386,6.22557,-3.19741,10.2864,6.44509,-0.756276
1.95068,0.0676308,-10.8636,8.66657,-2.02921,-11.0242,8.62162,-1.67366,-10.8332,8.49091,-2.34087,-11.0825,9.22348,-1.68258
8.02414,1.44503,-1.83759,33.6772,-3.82448,-1.74218,31.2787,-5.04961,0.0437332,31.2026,-5.19563,-1.4395,31.4369,-4.78398
3.92639,0.0354786,-3.09741,8.17087,5.15449,-0.81678,8.08372,5.3352,-3.22222,8.29606,5.28069,-0.709684,8.29251,5.49959
32.4726,0.427882,10.2057,21.8936,-2.29243,11.142,19.7627,-1.07487,8.43338,21.8481,-4.14846,9.92453,19.7435,-2.88589
19.7903,0.204894,-10.6347,11.7217,3.32924,-11.1809,13.4552,1.87877,-11.1077,13.7262,2.1766,-10.7924,13.9608,3.11867
6.20876,0.168656,-9.76397,4.93779,3.63137,-10.2539,5.3047,2.99666,-9.85506,4.48853,3.22342,-9.84179,3.37183,3.02433
12.9731,0.226752,-2.27153,34.6481,3.10692,-3.84296,34.517,2.46053,-4.43388,34.019,3.40093,-4.30288,34.2386,2.9545
10.4676,0.075029,-3.44706,13.3062,-6.17067,-7.58152,13.3228,-4.88675,-2.28051,13.3831,-6.43525,-7.69125,13.5677,-4.86246
4.6323,0.300988,-11.4352,20.7518,-0.736823,-11.419,21.3497,0.118502,-11.4311,21.6606,0.130769,-11.4379,20.6549,0.227678
6.00148,0.100142,4.48457,4.36411,4.73071,5.4231,4.07909,4.48835,5.2423,3.76532,4.4782,5.21315,4.58946,4.56509
10.7972,0.329594,-4.06003,1.05183,0.543913,-5.53726,1.25279,0.46003,-6.1149,1.31937,1.63704,-5.85995,1.28119,1.1883
5.12967,0.673567,-2.72974,24.1242,5.88492,-1.92607,24.2835,5.92019,-2.80639,25.9174,5.90252,-2.62777,25.4083,6.03649
5.86254,0.4709,-9.39871,12.3949,-4.2656,-8.30191,12.4373,-4.57258,-8.42681,12.9924,-4.78524,-9.49199,11.6522,-4.53729
2.11797,0.183975,-4.29894,8.26942,5.10908,-3.22983,8.16633,5.16763,-4.33848,7.89261,5.10346,-4.53118,8.41717,5.43195
2.84057,0.013693,-11.3092,20.3664,-1.49898,-11.3401,19.5835,-1.59973,-11.2401,20.0085,-1.83345,-11.4361,20.3287,-0.973664
81.9613,0.686967,-2.86236,20.8119,-6.27489,-2.44224,18.6034,-6.48088,-5.39775,22.2861,-5.5507,-6.12097,24.2508,-5.95989
16.2108,0.173166,-7.18789,32.024,-3.50608,-8.44447,31.2138,-3.4742,-7.07755,29.4016,-5.15454,-6.3681,32.5189,-3.90198
0.350003,0.0293441,-5.22825,4.60252,5.19851,-5.0831,4.54503,5.21714,-5.11569,4.31247,5.21666,-5.30885,4.35169,5.15239
0.0334531,0.0481774,-6.15087,34.0478,-2.68719,-6.15202,33.9982,-2.73703,-6.23907,34.0204,-2.79852,-6.11497,34.0368,-2.71988
8.91773,0.190638,-6.01527,29.8105,4.96714,-7.53047,29.8037,4.2078,-7.58121,29.4791,4.21796,-4.04469,29.9639,5.47308
0.12263,0.0353183,3.592,25.7943,5.63131,3.82427,25.6518,5.53908,3.7634,25.6159,5.54277,3.83103,25.6912,5.54401
72.4752,0.170206,-6.30093,34.0241,2.56846,-7.53967,34.1094,-0.171553,-8.36217,33.9236,1.46038,-9.128,33.7971,1.72657
6.71743,0.292215,-1.28366,28.4632,-5.1854,0.199692,29.2305,-5.29315,-1.76149,28.2605,-5.62768,-1.51436,28.8638,-5.17944
8.27484,0.411348,1.02978,29.569,-4.67853,2.17841,28.4247,-5.20808,0.654945,29.6756,-5.11007,3.45793,31.7701,-4.49801
5.18311,0.0225093,8.29872,19.4145,-4.19445,7.39803,19.0908,-5.00614,7.06777,19.1604,-5.16065,7.30991,19.6555,-4.66484
7.22026,0.082299,-5.92673,25.7322,5.39194,-4.84142,25.2083,6.05163,-4.66628,25.9413,5.63621,-6.08372,25.0543,5.87565
0.0226769,0.00993755,5.10224,14.4255,5.57585,5.28155,14.511,5.5915,5.20946,14.5261,5.60497,5.09192,14.4674,5.58612
22.4583,0.15533,-2.37527,1.0808,-1.31346,-2.83331,1.94706,-3.00084,-0.617964,1.42761,-2.69452,-3.08427,1.6948,-2.49801
4.13865,0.761872,0.762264,23.1336,-5.76517,-0.969233,22.7491,-6.02625,-0.57267,23.229,-5.85295,-0.676241,23.4032,-5.98601
3.28199,0.216198,1.45983,8.56227,4.91267,1.54167,8.06729,4.83201,2.5614,8.35315,4.70309,1.24629,8.73469,5.35701
3.17872,0.228686,-2.55225,16.0628,5.98415,0.321003,16.5535,5.87838,0.339253,16.5185,5.91628,-0.472751,16.3154,5.91704
25.1582,0.307423,6.92942,28.4745,-3.40178,6.6993,27.5355,-4.08338,5.64523,28.4063,-4.38497,6.73246,29.9976,-3.48543
11.8812,0.325246,0.614279,25.6911,-5.38325,0.426093,27.9927,-5.46417,0.380513,29.0511,-5.34911,1.64248,25.9175,-5.6438
1.91263,0.0429424,6.11898,8.65954,3.99742,7.88785,9.01687,3.41669,7.95534,8.92358,3.41854,7.88787,8.88791,3.44776
10.2582,0.54525,0.603174,34.668,-0.0564812,0.184616,35.3677,0.615478,3.74768,35.2714,0.256883,1.2323,34.8857,-1.66484
0.12803,0.00652539,10.9789,9.95841,1.09482,10.8943,9.90824,1.25678,10.8781,9.84323,1.25556,10.9002,9.78945,1.1818
5.29208,0.181187,2.10581,24.0489,5.5606,1.96227,24.5863,5.6053,1.93203,23.4534,5.97795,2.85736,23.8167,5.69456
8.72339,0.0984304,3.82804,24.2903,5.07835,7.06664,24.1862,4.97183,4.18202,24.7607,5.02664,6.46389,23.7207,5.14271
1.80568,0.544453,-0.649503,24.3779,5.84559,-1.92635,24.3254,5.90033,-1.8568,24.2804,5.9225,-1.69077,25.4414,6.16896
7.65815,0.168045,-2.17481,31.3971,4.94342,-0.964244,31.271,5.54143,-0.729566,31.6228,5.60265,-2.82964,31.2645,4.90473
0.147303,0.0283104,-5.04898,11.1636,-5.96334,-5.2417,11.2731,-5.93446,-5.33491,11.1444,-5.92694,-5.25966,11.1817,-5.93035
4.12055,0.34953,7.95278,9.00579,3.39125,10.6316,9.46807,1.50289,10.4633,9.30313,1.65076,8.51099,9.59725,3.36596
1.7843,0.0379341,-10.5893,3.69275,0.212235,-10.6934,4.63092,0.526051,-10.7107,4.5017,0.822562,-10.5716,3.87432,0.210374
0.538866,0.055633,-10.6691,11.5097,3.21961,-10.6531,11.1293,3.21577,-10.7533,11.5574,3.00858,-10.6971,11.2864,3.0557
0.166761,0.175712,-6.1068,32.6005,4.56982,-5.8926,32.4073,4.67302,-6.00051,32.4127,4.61906,-6.06141,32.4211,4.61382
8.7335,0.0863777,-0.775956,6.69937,5.28931,1.16659,6.27236,5.268,-3.2093,6.77564,4.99026,-3.1553,6.61309,4.95162
0.0181735,0.0372355,-6.61753,12.6918,5.54752,-6.69862,12.7112,5.4827,-6.61849,12.7315,5.5367,-6.77343,12.6884,5.47651
1.19455,0.0377324,-0.325971,13.5626,6.47264,-0.133059,13.0179,6.21218,-0.643958,13.2925,6.38544,-0.599377,13.1338,6.3231
2.59984,0.110277,6.57422,19.4891,4.8943,7.53589,18.8043,4.59217,6.87698,20.2138,4.92172,6.31563,19.6102,5.124
3.66564,0.0954332,6.82485,25.3313,-4.34292,4.42423,24.6255,-5.6102,4.3599,24.6805,-5.62775,4.93764,24.9311,-5.33327
29.5877,0.515386,-10.9148,7.37958,1.42375,-10.2982,5.14363,2.55151,-10.4583,5.51779,1.82619,-10.4894,5.36553,1.76956
0.353869,0.00532734,2.96784,35.4185,1.22113,3.31635,35.4168,1.45489,3.322,35.4152,1.41024,3.51996,35.403,1.27013
3.06095,0.516684,10.417,21.2451,2.00181,11.2119,20.9993,0.877167,11.2366,21.3706,0.847979,11.2372,21.2157,0.815409
2.32205,0.116769,-6.31595,21.7009,5.42993,-5.14762,21.8264,5.64972,-6.52997,21.8719,5.47807,-6.6317,21.3126,5.62879
5.60499,0.168025,-11.0282,20.6276,2.60471,-10.7576,19.5621,3.11915,-10.8608,19.3784,2.9257,-10.6269,19.494,3.45045
0.551239,0.0210076,0.267813,14.2778,6.54914,0.095843,14.6277,6.58017,-0.00922273,14.3551,6.57309,-0.787323,14.9008,6.59025
0.0949102,0.0196819,4.67646,24.005,-5.73259,4.55935,23.9006,-5.76118,4.67238,23.9111,-5.73503,4.60837,23.8816,-5.75541
2.02824,0.0812894,10.211,14.1129,2.47529,9.81937,14.3749,3.02562,9.84722,14.4365,3.02832,9.70465,14.0455,2.96548
0.437211,0.0637388,2.61638,34.6334,3.88124,2.64876,34.4291,4.10618,2.79693,34.3853,4.18495,2.44737,34.4006,4.15007
2.04553,0.150312,-1.7309,21.1195,6.0844,-1.49716,21.0735,6.21278,-1.61279,21.7416,6.41852,-1.99391,20.6346,6.11456
5.20841,0.714483,-7.95914,12.4148,-4.41795,-8.11876,14.5587,-4.88978,-8.15602,14.2869,-4.91332,-8.03946,14.5944,-4.89806
74.2986,0.0921235,-11.0457,8.74346,-0.834942,-10.5122,4.85508,-0.33184,-11.0423,7.18723,0.922896,-10.473,6.52034,-1.87458
7.16154,0.503788,8.13711,14.8577,-3.71753,8.28309,15.7932,-3.86272,10.5444,14.9941,-2.69688,8.04086,14.5725,-4.54638
2.71312,0.0987823,0.150922,12.4981,-5.81411,1.01391,12.9445,-6.08574,0.739919,12.9727,-6.03885,0.634025,13.1838,-6.10821
15.4476,0.110381,-8.56419,26.7771,4.03831,-7.55153,26.2705,4.76084,-8.58008,24.353,4.59872,-7.68588,26.6621,4.55149
0,0.0234294,2.73618,25.1876,-5.67565,2.77625,25.1841,-5.62612,2.74724,25.2195,-5.64625,2.77648,25.2103,-5.62898
2.12464,0.00239412,-1.24146,33.397,-3.73121,-0.558106,33.7572,-3.65574,-1.50618,33.6661,-3.76123,-0.369084,33.6393,-3.63556
3.38899,0.00173128,-11.3708,10.896,-0.0104763,-11.2508,9.83542,0.642726,-11.2524,10.6129,0.705908,-11.1723,10.133,1.15578
1.56933,0.0140919,-7.11061,1.9058,-1.8481,-7.88458,1.94896,-1.78522,-7.63133,2.14496,-2.31086,-8.14608,2.1289,-2.13992
1.56082,0.000816276,11.3298,20.3239,0.111119,11.348,19.506,-0.0430292,11.3114,19.4382,0.245305,11.3009,20.0258,0.330498
6.1493,0.201354,1.60917,34.5913,-1.92677,1.84021,34.6625,-2.70863,1.85807,34.897,-1.15997,2.92433,34.7627,-1.62208
3.94118,0.0441677,3.68909,12.781,5.15517,4.72848,14.5264,5.62985,4.65796,14.5908,5.65648,4.60871,13.288,5.26449
0.194321,0.00474252,-9.34001,33.9901,-0.800472,-8.9923,34.0525,-0.639466,-9.04501,34.0347,-0.758953,-9.32911,33.9941,-0.711304
4.04186,0.156997,-7.55406,16.3696,-5.05704,-7.66431,17.471,-5.19292,-7.98019,16.4138,-4.99493,-6.17701,16.474,-6.02722
16.2245,0.208157,10.9473,7.95581,0.0650212,11.186,9.56841,-0.0565787,11.1427,9.3063,-0.775396,11.1479,9.48137,0.277998
2.44215,0.0974955,-5.89222,17.6202,-5.87075,-5.9857,17.9159,-5.89712,-5.81859,17.0027,-6.10917,-4.99763,17.8546,-6.04599
1.30505,0.0348339,11.3573,14.0571,0.427244,11.1343,12.6357,1.07342,11.2778,12.8232,0.669944,11.214,12.8361,0.839141
0.732202,0.142361,3.22182,12.4568,5.1576,2.74673,12.3585,5.36484,2.82942,12.5372,5.38429,2.75676,12.5062,5.39058
15.6937,0.374949,-0.0909505,8.61448,-5.42098,1.74658,9.42907,-5.59822,1.17494,10.1656,-6.00688,0.755442,7.59514,-5.24951
1.90085,0.150616,-0.36906,33.5956,-3.65143,1.42669,33.9284,-3.393,1.01731,34.0696,-3.36396,1.42907,33.9712,-3.36739
19.4232,1.28294,-7.06116,26.0628,-5.1257,-7.1126,28.1105,-5.14025,-5.17823,26.4643,-5.79104,-5.56306,26.8593,-5.60266
35.1605,0.77943,-0.74413,11.7687,-5.7262,2.1078,11.3957,-5.72374,3.45597,11.8833,-5.79626,1.06536,10.4142,-5.98945
4.31633,0.20973,-3.78554,23.4116,-5.7849,-2.49406,23.3651,-6.02812,-4.97971,23.2458,-5.18832,-2.67105,23.1621,-6.05631
4.0449,1.05001,7.34554,15.3923,4.73599,5.80584,15.56,5.2733,5.86363,16.0721,5.43674,6.02792,15.1696,5.2685
6.40165,0.0600189,-10.554,11.3766,-3.25087,-10.6745,12.3924,-3.10742,-10.8987,11.447,-2.50375,-10.9664,11.9805,-2.32711
2.8982,0.0304391,9.83663,4.10138,1.06927,9.41351,3.81554,1.86134,9.33517,3.52491,1.76429,9.68731,3.78112,1.19131
1.51042,0.101108,-2.74008,14.5743,-6.54974,-4.3783,14.6357,-6.1687,-3.75279,14.534,-6.34324,-4.38796,14.5883,-6.15868
5.66563,0.102613,9.34795,21.0884,2.84838,10.2111,22.2061,2.38213,10.2749,21.2356,2.10478,9.06805,20.9523,3.24351
14.8715,0.425436,9.36231,13.3775,2.41871,9.49702,13.8462,2.91252,10.9206,14.2787,1.36447,9.73039,10.3753,2.57939
11.8211,0.602055,8.80796,33.4313,-0.335095,7.93237,33.8362,-1.36921,6.92569,32.3104,-2.62858,7.55851,32.5372,-2.17621
1.01845,0.157691,-7.55839,16.3492,5.18026,-7.57451,16.7975,5.219,-7.42572,16.9737,5.23522,-7.40994,16.9324,5.25487
2.5947,0.0018037,-8.62425,33.9142,1.31727,-8.77503,33.9911,0.671233,-8.14041,34.0009,0.761931,-8.39975,34.0029,0.676417
0.22558,0.216488,9.14599,3.34923,-1.06305,8.99601,3.37437,-1.24283,8.96072,3.30604,-1.24642,9.0285,3.41287,-1.24465
7.93217,0.0472217,1.40414,19.9035,-6.43274,-0.513055,19.722,-6.66058,-0.275077,20.4824,-6.29589,-0.101713,19.581,-6.68105
3.6163,0.0779717,-7.41499,27.099,4.52858,-6.09801,27.0386,5.51008,-7.59685,26.6988,4.56249,-6.15999,26.6257,5.53138
4.89031,0.121294,10.431,7.35806,-1.75071,10.7142,7.47702,-1.13966,10.9542,8.09688,-0.697768,10.8399,8.24675,-1.41565
1.85049,0.400932,-7.94008,28.2468,4.83165,-7.86668,29.007,4.50209,-8.05084,28.9313,4.49254,-7.95793,29.0047,4.4436
2.0496,0.0226488,-10.399,15.0703,3.95224,-10.3639,13.6574,3.91748,-10.4144,13.8548,3.86266,-10.2821,13.5277,4.02281
14.5212,0.275204,-4.94101,19.885,5.87866,-3.92837,19.7153,6.19745,-7.29754,19.4056,4.79711,-1.84732,20.2593,5.94186
75.4919,0.426873,0.323481,6.95587,-4.70506,4.42239,6.51146,-4.37416,4.41355,7.59819,-5.05158,1.6642,8.50821,-5.31652
3.40505,0.123233,-3.70017,27.9723,5.70757,-5.43672,27.7883,5.60248,-5.2069,27.9016,5.62742,-3.0196,27.9674,5.54434
0.256742,0.0168564,-3.80099,2.24583,-3.1712,-3.74518,2.44314,-3.38835,-3.69458,2.44268,-3.39518,-3.59051,2.39169,-3.36209
4.95063,1.41787,1.40041,20.9743,5.73952,-1.77925,20.1636,5.97919,-1.78991,20.0398,6.04716,-1.84592,20.3029,5.94138
9.91386,0.12467,-5.1728,8.92047,5.3257,-6.6938,8.73401,4.7162,-1.76338,9.4876,6.14168,-3.0449,9.08023,5.8771
2.25908,0.0540177,-11.1683,18.0662,-2.15279,-11.3321,18.1475,-1.83083,-11.237,18.6704,-2.16451,-11.1788,17.6045,-2.25794
2.1748,0.304166,8.69715,29.5649,3.06369,9.04568,28.9804,2.71827,9.17013,29.9889,2.66371,8.92203,28.8678,3.12409
9.94413,0.337924,0.176639,8.07516,5.32153,-4.06606,7.72757,5.11195,1.39897,8.05584,4.93006,-2.93846,7.51545,5.27894
8.71095,0.898692,6.94542,7.21964,4.01517,7.16761,8.6355,3.71653,7.98871,7.11348,3.77945,7.61697,8.05712,4.02386
18.931,0.285072,-10.429,29.1777,3.08365,-10.4086,26.9189,3.23903,-9.94644,27.4991,3.93458,-10.2664,26.6851,3.58793
50.6492,0.00778473,0.528743,4.39557,-4.60547,3.25112,4.1618,-4.44856,3.83338,2.31477,-3.61697,3.2612,1.83801,-3.41409
20.9218,0.0938046,7.76268,2.21532,-1.7677,9.85173,4.45131,-0.712588,8.43164,4.44849,-2.32558,8.9311,2.60278,-0.792295
0.0266996,0.00506173,-0.612521,18.9149,-6.74346,-0.761412,18.9358,-6.72251,-0.607531,18.9611,-6.7406,-0.757623,18.9707,-6.71643
0.533511,0.00858728,-6.35975,33.7504,3.43321,-6.56553,33.6739,3.5077,-6.7826,33.8028,3.16888,-6.4389,33.8492,3.23013
3.06451,0.0312168,0.636461,1.33253,3.91351,0.560532,1.0606,3.50717,1.00986,1.02658,3.48011,1.2927,1.21366,3.73325
35.8207,0.670567,3.19766,20.8437,5.1034,6.20081,21.7971,4.79379,4.82841,20.3823,5.4188,4.02287,22.6325,5.2796
11.5246,0.0220562,-11.3553,13.767,-0.709531,-11.4268,14.6681,0.389151,-11.3484,14.0063,-1.12537,-11.4416,15.0118,-0.724118
11.4682,0.20021,3.2596,12.2577,5.13372,2.98307,11.9318,5.45972,5.359,12.8717,4.81725,4.83292,11.6423,5.16453
0.298023,0.0502511,-5.45677,21.544,5.72507,-5.56801,21.3523,5.79072,-5.54809,21.3066,5.85476,-5.31453,21.4587,5.82791
3.73604,0.107443,8.36746,13.4084,3.50393,8.79755,11.8503,3.48121,8.8974,13.4495,3.15917,8.54482,12.6056,3.60377
0.0819825,0.286863,6.86759,0.171397,0.154294,6.58268,0.133647,0.131882,6.5809,0.139133,0.218262,6.58092,0.14067,0.173639
21.9392,0.0471728,8.40137,16.7207,-3.99469,8.33233,15.8224,-3.82228,5.84293,16.9094,-5.48011,8.97453,18.7819,-3.96345
3.52678,0.00328963,4.9337,34.9374,3.38187,5.70872,35.0353,3.11701,5.11761,34.5707,3.82641,5.88473,34.6655,3.56168
5.96156,0.00769827,-0.317431,0.498447,0.0255493,0.598937,0.356172,0.178005,0.736173,0.310829,0.425099,-0.752369,0.503511,0.678988
0.0874391,0.0031595,-0.555934,34.7833,3.47565,-0.692592,34.805,3.42123,-0.69128,34.7796,3.46327,-0.555353,34.8431,3.38322
0.408068,0.176688,-3.09719,12.6791,-6.30948,-3.47401,12.5396,-6.19317,-3.35156,12.8499,-6.28283,-3.54344,12.5382,-6.2207
19.3974,0.115348,-2.03772,0.677803,1.10734,-2.95824,0.879092,0.308959,-2.45493,0.88933,-0.541997,-2.24971,0.785991,-0.142975
5.34013,0.336001,4.65545,30.8928,4.60841,7.81992,31.8063,3.5641,4.28384,30.2611,5.24884,4.4616,31.5318,4.91865
48.2349,0.509195,1.5655,34.8629,0.176707,6.12078,35.2773,2.28391,5.70531,35.1519,0.957109,4.63823,35.2323,0.944739
1.97886,0.0157844,-10.8937,31.308,0.866713,-10.7206,31.5023,1.84409,-10.933,30.6489,1.00063,-10.7112,31.433,1.96789
11.9866,0.258973,6.10272,34.3377,-1.69981,4.44785,34.5365,-1.62185,6.35197,32.7974,-2.58151,6.43129,31.6462,-3.01347
37.7316,0.777596,9.0606,29.1409,2.3624,10.1232,27.1018,2.1396,10.3676,28.6284,0.946574,10.2535,29.7788,0.995818
12.2293,0.155697,4.45949,27.6558,5.14386,1.63251,27.0848,5.77092,2.07742,27.931,5.76066,3.5006,27.157,5.4359
0.773988,0.0158188,10.3298,7.59905,-2.06903,9.94348,7.64736,-2.53813,10.1785,7.03088,-1.93417,10.1044,7.79241,-2.41691
90.1689,0.364833,6.07267,32.6018,-2.90963,4.68384,28.4246,-4.56538,4.60867,28.4345,-4.57515,4.05286,32.996,-3.52098
14.0076,0.0100202,-4.10953,1.37816,3.0603,-5.78367,1.75339,3.17976,-5.29071,1.78664,3.51236,-5.52291,1.41127,2.4143
1.63071,0.0112884,2.327,8.24789,4.70267,3.54756,8.38636,4.76745,3.52755,8.15366,4.78861,2.91219,8.38467,4.7329
26.1941,1.72191,3.41881,26.1919,-5.30332,5.70173,27.7637,-4.44514,6.93498,27.2176,-4.01692,6.17221,27.643,-4.35627
1.33017,0.162123,-10.7368,9.93328,-2.82643,-10.8744,10.5394,-2.54211,-10.7841,10.6754,-2.67835,-10.7702,11.0815,-2.78306
12.1749,0.0124698,-2.14434,21.2974,-5.50079,-2.20249,23.2916,-5.77656,0.954948,21.7493,-6.31137,-2.15726,23.9479,-5.88728
0.0639574,0.0263357,6.11605,9.49781,-5.23267,6.25092,9.47215,-5.20487,6.24543,9.54581,-5.20278,6.19825,9.57317,-5.22144
0.428701,0.161147,2.51047,0.108399,0.57283,1.99484,0.172286,0.636122,2.05311,0.172341,0.547851,2.02208,0.15318,0.460322
0.0852338,0.0153371,-4.25661,33.5707,-3.76691,-4.37824,33.6236,-3.71138,-4.24845,33.656,-3.74908,-4.37929,33.6656,-3.70897
3.39002,0.0403663,-11.2642,18.5524,1.37531,-11.1503,18.4524,1.85751,-11.2235,17.977,1.73122,-11.1544,18.2308,1.9724
0.236386,0.00875948,-3.72524,1.88862,4.14142,-3.46108,1.8259,4.18676,-3.44921,1.7693,4.10789,-3.54057,1.86487,4.20797
2.1576,0.089674,-2.39288,20.4422,-6.39923,-1.20252,19.8061,-6.60449,-1.18388,20.0286,-6.56619,-1.12913,19.8434,-6.60869
0.654207,0.0204917,4.97324,0.173263,1.3768,5.36808,0.0736831,0.86801,5.27096,0.0694549,0.846291,5.25602,0.217019,1.48516
11.1803,0.0752812,-11.2423,26.2734,-0.615058,-11.164,25.8047,0.445971,-11.1291,27.8349,-0.525327,-11.13,27.2526,0.442871
1.8871,0.00889229,-7.46051,4.55147,-2.88255,-7.3689,4.90291,-3.09708,-7.51384,5.73326,-3.50627,-7.36889,5.66925,-3.52015
1.82602,0.062412,8.83028,9.4206,2.96174,9.14921,9.96206,2.98193,9.47403,10.5573,2.92939,9.609,10.4755,2.76539
5.10712,0.183768,-6.76473,31.1646,-4.10465,-5.64662,32.4793,-4.28391,-7.03914,31.3346,-4.06446,-5.90827,30.5247,-5.32302
4.03894,0.129067,-8.27618,22.3864,4.25238,-6.86428,22.4291,5.49805,-8.50549,22.8243,4.41958,-7.35923,22.4027,4.94858
64.7663,1.22577,-7.52449,20.3919,4.51685,-2.49523,18.876,6.61905,-7.4852,17.6171,5.13888,-4.60636,18.8757,6.12362
3.60179,0.427223,6.13916,35.0748,1.24105,7.19694,35.094,1.9117,7.14054,35.1164,2.0522,7.59988,35.1152,1.57431
1.08496,1.11607,-8.47433,28.0309,-4.28963,-7.38907,28.8003,-4.88986,-7.45644,28.8672,-4.91198,-7.32361,28.7594,-4.94246
2.05023,0.219373,9.28698,31.6688,-0.322884,9.57594,32.0701,-0.914836,9.39242,31.7596,0.0443794,9.65557,31.1239,-0.225896
7.61576,0.264846,7.7555,19.6243,4.53949,7.92872,18.3755,4.27099,8.12791,21.3305,4.15103,7.57548,21.2664,4.25886
3.68387,0.274144,-8.85172,16.4518,-4.439,-9.15325,16.3318,-4.67456,-8.85611,17.5633,-4.47424,-7.96288,16.5005,-4.9643
1.54761,0.00669437,-6.47252,22.8142,-5.97362,-6.57152,23.6537,-5.92949,-6.41995,23.6879,-5.93829,-6.18153,22.8712,-5.98413
9.50121,0.250767,4.2968,2.52893,-3.56029,3.99698,3.19871,-4.02859,7.17066,2.27328,-2.56516,7.81323,2.53614,-2.31193
2.14133,0.162137,2.36323,32.2377,-4.17363,2.30443,32.156,-4.56515,2.79953,32.2698,-4.11787,2.22337,32.9044,-3.79347
3.46891,0.23389,2.26504,13.2909,5.53723,2.37165,13.6011,5.89418,1.70405,12.9067,5.68026,2.52712,12.7535,5.57331
0.214705,0.0244996,1.58926,35.2826,2.53214,1.71307,35.3143,2.31713,1.52125,35.318,2.39855,1.58525,35.3361,2.31947
1.16482,0.851395,-7.31379,28.8479,-4.92594,-6.01724,29.684,-5.51094,-6.02819,29.5925,-5.50295,-6.02581,29.6379,-5.50061
28.5655,0.107102,-0.556816,12.7966,-5.90901,-1.40615,13.6028,-6.49262,0.555394,14.8204,-6.52659,2.01684,14.879,-6.245
8.22534,0.22526,8.31017,30.8043,3.25338,9.29511,30.5495,2.65591,5.45965,30.8786,4.27364,5.04917,30.7818,4.52425
1.5606,0.0196413,-5.53393,7.62193,5.03466,-6.01758,7.86425,4.71191,-4.86717,7.55019,5.23539,-4.1324,7.73226,5.10612
39.0021,0.164935,-6.33265,34.115,1.4921,-5.50897,34.3018,-0.662757,-6.51144,34.1445,0.216606,-4.53897,34.5722,-0.000717596
0.511937,4.06743e-05,-8.52291,33.992,-1.76212,-8.47433,34.0835,-1.35967,-8.31136,34.0238,-1.79532,-8.40298,34.0966,-1.35866
1.56005,0.11177,3.17634,1.66631,3.96283,2.65132,1.86503,4.22845,2.0622,1.24743,3.7296,2.81248,1.95523,4.27143
87.0706,0.803642,4.60974,27.8808,-4.60916,2.02195,28.2802,-5.33442,1.60001,26.187,-5.54405,3.13705,25.0035,-5.69105
4.055,0.273952,-9.47093,31.0136,3.27105,-8.35734,31.2074,3.61669,-9.5821,31.8864,3.36393,-9.91909,30.7021,3.57313
3.25401,0.190193,-2.909,28.8197,-5.20955,-2.96962,28.2666,-5.48744,-3.27595,29.1651,-5.37121,-1.81053,29.0611,-5.30555
6.64881,1.51892,-5.24954,33.932,3.30269,-7.60753,33.8115,2.80208,-7.54783,33.859,2.67495,-7.47519,33.9004,2.54351
4.85336,0.0485685,-11.3965,22.6291,-0.494915,-11.4128,22.2092,0.344424,-11.3659,23.4853,0.0633409,-11.3635,22.7086,0.716821
177.011,0.143572,-1.55359,0.650093,1.40637,-3.01293,1.99779,4.46509,-2.02296,1.91012,4.51199,-3.7539,1.21144,2.4935
4.98337,0.219247,-6.83388,33.7738,-2.89148,-8.2451,32.2768,-2.87759,-8.48399,32.3342,-2.8316,-7.89633,33.3363,-2.92315
7.92306,0.0924599,2.31718,9.00778,-5.47768,4.5221,9.58062,-5.63048,4.57016,9.42571,-5.59036,4.07871,9.88549,-5.69476
11.5289,0.135062,-4.58254,14.432,5.99841,-2.42693,14.9947,6.51816,-1.92079,13.7797,6.53456,-6.67677,14.3784,5.26638
17.9493,0.201867,9.04923,30.5085,-2.30369,6.56798,31.1169,-3.04394,7.69092,30.0486,-3.07443,6.46187,30.3327,-3.33746
1.40812,0.0247555,7.14528,21.6356,4.49845,5.8337,21.5657,4.85072,5.8366,21.5221,4.87894,6.73389,21.5803,4.6517
4.03255,0.112284,7.99376,13.654,-4.53047,9.58558,13.8129,-3.59348,9.31452,13.8716,-3.7386,6.67706,13.5018,-5.07217
0.795863,0.0134104,-2.10377,1.32094,-2.07546,-2.11563,1.4492,-2.30893,-2.3989,1.48106,-2.32892,-2.44758,1.33971,-2.02737
20.8806,0.836816,-7.54723,7.8904,-3.84319,-8.19954,7.36585,-4.40155,-7.42833,6.09587,-3.80514,-5.63004,7.6429,-5.02046
1.11823,0.182053,4.78584,17.3444,-5.61948,4.96413,17.0848,-5.55434,4.48144,17.4189,-6.1544,5.53841,17.6577,-5.60963
2.6557,0.452473,11.023,12.2628,-0.741795,11.2519,12.2007,0.144498,11.3004,12.3827,0.529969,11.3008,12.3505,0.450526
3.99341,0.256738,0.54202,5.43735,-4.6806,2.70406,5.24066,-4.64947,2.61911,5.15677,-4.6326,3.01021,4.92232,-4.65672
2.32196,0.124012,10.7561,12.2379,-1.28936,10.9113,11.4948,-1.42975,11.0363,12.3366,-0.780637,10.7779,12.4332,-1.57941
4.58996,0.185366,-10.8625,27.5754,1.63942,-10.8193,29.5659,1.72463,-10.862,29.4424,1.43637,-10.7178,29.0745,2.062
8.45138,0.132572,-11.0893,28.1876,0.196712,-11.0832,28.3777,-1.15889,-11.1339,27.909,-1.04942,-11.0631,28.87,-0.90949
28.1846,0.167625,7.52007,28.1653,-3.36873,9.36147,28.6254,-2.3908,8.70885,29.9957,-2.6638,7.46959,29.8603,-3.19811
15.7191,0.055179,-11.2824,12.1455,0.517642,-11.2516,11.0546,0.75627,-10.9655,11.2401,2.23634,-10.9212,11.8068,2.56532
8.35036,0.323342,-8.40117,23.8546,4.2579,-6.32375,23.8569,5.62843,-8.67683,24.2727,4.55013,-8.48943,22.866,4.42825
10.6056,0.3655,-8.80692,17.8548,-4.24826,-7.84714,17.8288,-4.93691,-9.32196,17.6313,-4.45327,-9.13475,20.3789,-4.69991
0.933196,0.189765,9.83521,23.1174,3.45656,8.82194,23.6414,4.11143,9.2234,23.2714,3.90106,9.13175,23.3913,3.95602
11.9278,0.400644,-0.982749,25.5774,-5.38827,0.201747,25.8109,-5.50555,-0.993557,28.3147,-5.41848,-1.30041,25.3665,-5.90324
4.1385,0.16739,10.0536,29.2372,-0.384679,10.3569,28.8437,-0.0584592,10.4704,28.6095,0.79358,10.3688,28.9246,0.566841
13.3375,1.29146,2.09611,25.4941,-5.7008,3.33273,23.3235,-5.88769,2.04136,23.2212,-5.60417,1.62962,23.7365,-5.92856
0.385028,0.0405637,-10.5294,7.70806,3.25177,-10.3669,8.0157,3.48602,-10.3733,8.08646,3.49185,-10.5036,8.00685,3.28124
1.91292,0.14861,-9.03552,27.5321,4.08292,-8.13516,27.6151,4.44788,-9.3512,27.7775,4.28212,-8.99661,27.1619,4.10665
20.5384,0.429017,-0.411561,30.0724,5.70941,4.03437,31.1192,5.20143,2.41513,30.4204,5.33749,2.74623,30.1352,5.46897
0.0341329,0.0503511,-0.755536,9.85769,6.08385,-0.862329,9.8746,6.14562,-0.849743,9.91457,6.14003,-0.790216,9.95867,6.1285
1.84726,0.0379659,4.22459,0.0304848,-0.213659,4.32844,0.0751087,0.602448,4.26822,0.0702085,0.646713,3.89292,0.0413551,0.136475
1.88582,0.00390948,-11.4077,18.5103,-0.118754,-11.4485,19.6274,-0.10282,-11.4643,18.6948,-0.480356,-11.4207,19.357,0.0100275
1.92165,0.0508719,7.19807,10.2338,4.33553,7.82349,9.86924,4.01795,8.09571,10.2674,4.04476,7.55117,9.81574,4.07869
62.4961,0.330415,-7.52299,15.5396,4.65427,-2.73111,15.4612,6.36233,-9.19466,15.2905,4.50345,-7.66538,13.5162,4.81504
0.98611,0.274995,6.5952,13.5099,-5.12161,5.9375,13.5634,-5.57559,6.04624,13.4379,-5.39429,6.04722,13.3399,-5.36986
25.2378,0.41993,-5.21726,34.4004,1.08767,-5.21776,34.1253,2.87002,-3.71141,34.6714,2.12971,-4.17273,34.3275,2.78542
13.462,0.184252,10.2795,12.6218,-2.40824,10.2896,12.1839,-2.46057,10.7638,12.4065,-1.60206,8.68097,12.6696,-4.1709
35.6111,3.48433,5.73665,22.3715,5.07395,1.84038,23.3373,6.02869,1.58993,21.7627,6.01367,1.83188,22.7718,5.78545
1.82626,0.158769,0.052709,5.45399,-4.67928,0.473218,5.44558,-4.68256,-0.215374,5.82805,-5.0875,-0.138818,5.12811,-4.83339
2.14559,0.723335,4.15009,32.5542,-3.78193,2.80893,32.4324,-3.97868,2.86774,32.2539,-4.14096,2.80456,32.3897,-4.0053
0.883118,0.0427826,8.82063,2.88128,2.12136,8.5785,2.3275,1.99815,8.47215,1.98172,1.83581,8.60022,2.80073,2.33932
9.68548,0.114504,7.46351,21.2857,-4.50963,8.68553,21.0426,-4.26658,5.77567,21.5051,-5.14036,7.4937,21.9839,-4.56843
1.49987,0.00470143,3.36142,29.0403,5.2136,2.51199,28.9594,5.32369,2.06626,28.8277,5.37567,2.06867,28.7833,5.37373
64.0298,0.132516,-5.0278,13.2949,5.77923,-1.87561,13.5284,6.48073,-9.4124,14.2587,4.43745,-9.79706,12.8241,4.37637
2.22547,0.0654363,10.3679,22.8535,-2.13981,10.6755,24.0365,-1.77272,10.6057,24.0829,-1.89868,10.5712,24.3801,-2.02321
22.6745,0.154513,0.541948,5.39687,5.09869,-2.0234,5.80979,5.22319,-1.97576,4.85371,5.37885,3.50586,5.87481,5.13619
1.57855,0.341205,-6.21887,8.17298,4.5289,-5.0174,7.95559,5.28518,-5.06183,8.16565,5.35754,-5.07234,8.10633,5.30904
5.65692,0.0801119,7.65334,27.4893,-3.64046,8.66221,26.8828,-3.2411,9.55475,27.8966,-2.6974,8.24741,27.367,-3.32861
49.7006,1.73646,5.33303,12.1054,4.71971,7.73871,11.1455,4.41216,7.36292,14.845,4.82862,8.2948,13.1675,3.61087
2.48318,0.00680172,-10.2569,5.07983,-1.9327,-10.2325,4.31572,-1.82205,-10.2495,5.39839,-2.11085,-10.1025,4.9611,-2.66742
74.8959,3.9961,0.537276,23.1303,6.44443,-6.44166,22.4126,5.61577,-5.01345,24.3082,5.50225,-5.54998,24.6563,6.00287
0,0.000477996,1.21718,11.9097,-5.8274,1.19252,11.958,-5.88155,1.21628,11.9258,-5.83536,1.18141,11.914,-5.88185
21.9426,0.568745,-8.12821,27.7293,4.495,-3.5577,26.6383,5.89267,-4.94247,26.6222,5.6213,-5.54588,27.9709,5.59642
29.6934,0.195872,-11.2752,20.5572,1.73832,-11.3905,18.3566,0.573247,-11.3891,20.6383,0.604837,-11.3722,21.2647,0.38656
0.193582,0.0298867,4.78973,35.1201,-0.606771,4.61409,35.2434,-0.259331,4.68824,35.2332,-0.270722,4.93161,35.1618,-0.485942
1.97369,0.0422913,0.579222,19.2271,6.6018,0.384581,19.7074,6.57797,-0.010025,19.4878,6.6774,0.236692,18.7138,6.66086
1.50171,0.470675,1.9025,3.34621,-4.09025,0.205037,3.70897,-4.39766,0.196243,3.65402,-4.36005,0.226109,3.44271,-4.23414
7.66509,0.55755,-7.45361,8.4141,3.78766,-6.27315,8.22324,4.48444,-8.15659,8.85285,4.28155,-7.55897,6.63561,4.27007
7.09399,0.0388439,5.19835,9.99926,4.52471,7.16184,10.0416,4.27067,5.281,9.31402,4.64519,5.70575,9.35326,4.5915
1.58668,0.127959,-4.0823,32.037,4.855,-4.05096,31.7165,4.9229,-4.26008,32.2283,5.04756,-3.16056,32.0809,4.86006
5.69958,0.118389,1.50092,5.82035,5.08392,1.59227,7.88405,4.87379,1.45863,6.72251,5.09413,1.45793,7.95268,4.9133
5.38696,0.0841034,8.6824,32.0752,-1.89058,7.86091,32.1285,-2.24302,6.99157,31.2555,-2.77258,7.11156,31.0981,-2.7159
2.50949,0.338592,6.02346,10.5668,-4.85566,7.83343,10.5727,-4.33594,7.60417,10.4803,-4.4005,7.45667,10.4025,-4.4307
9.07751,0.432496,4.64538,6.28772,-4.0283,4.41594,5.9321,-4.52368,4.80587,8.37787,-5.01171,5.69836,6.2393,-4.0298
1.75431,0.0871404,-1.5365,14.0323,-6.53506,-2.27202,14.8432,-6.59192,-2.32803,14.5656,-6.59003,-2.45701,14.5419,-6.58491
6.81072,0.256312,7.4657,34.6675,-0.0697362,7.1991,35.0538,1.22511,8.01903,35.0175,1.07608,7.39269,34.8151,0.758813
5.05941,0.0156488,8.80627,32.384,2.78551,9.09443,32.1948,2.70853,5.86798,31.9596,4.27767,5.93097,31.9475,4.25063
3.16859,0.0372559,-7.8963,33.8574,2.43639,-8.64565,33.7844,2.23322,-8.5055,33.8159,2.19381,-8.70817,33.6505,2.61918
10.3931,0.583957,4.88465,8.50369,-4.97543,6.18954,8.62969,-5.0822,5.17507,9.81357,-5.27718,5.18372,10.3526,-5.18346
68.5156,0.0667629,-0.732645,11.9385,5.7424,2.76075,11.8192,5.52165,1.80494,14.5544,6.15521,-4.94333,11.6814,5.76986
1.08262,0.021968,0.369313,2.25746,-3.67366,-0.996159,2.54994,-3.80944,-0.484467,2.27257,-3.62561,-0.0440925,2.68651,-3.9449
54.2792,0.623553,-0.0726082,31.2333,5.59874,4.22319,32.9874,4.85177,4.00869,31.5288,5.15394,3.26825,32.799,4.83211
16.6151,0.234116,-0.645358,26.5083,6.1785,-3.5066,25.6523,6.11788,-2.85608,26.1251,5.78534,-4.59523,25.8959,5.66534
8.17267,1.12862,-2.13888,24.0413,-5.88546,-2.05021,26.327,-5.89217,-2.1035,26.2635,-5.92208,-1.43328,26.4905,-5.87466
0.0122206,0.0108681,10.064,5.13248,-0.674885,10.0666,5.14037,-0.703886,10.1312,5.27636,-0.763093,10.1251,5.19806,-0.68069
2.14223,0.282313,10.8529,23.2508,1.92737,10.2933,22.2639,2.31078,10.2431,22.2794,2.37751,10.5995,21.6379,1.95702
0,0.0111124,8.1628,23.456,-4.10239,8.11847,23.4409,-4.0959,7.96469,23.4919,-4.19396,8.02929,23.4791,-4.1587
1.50962,0.0620454,8.26185,6.95577,3.34248,8.63219,7.6931,3.20451,8.6796,7.54569,3.15165,8.18483,6.61051,3.24954
4.56081,0.909197,9.40247,5.402,-1.88291,8.41564,4.68469,-2.4125,8.83701,5.55102,-2.57918,8.62172,4.96763,-2.52378
0.71443,0.027218,6.42443,0.434895,-1.49868,6.29137,0.487936,-1.6407,7.0808,0.437311,-1.05798,5.94604,0.333172,-1.38659
13.201,0.216423,9.6594,5.03192,1.73465,9.73375,4.17674,1.46246,7.69961,6.11005,3.61076,6.70832,5.47705,3.7201
2.06532,0.129809,-0.780823,35.3455,1.7874,-2.09723,35.2405,1.63182,-1.82167,35.316,1.50464,-2.16538,35.2492,1.49182
0,0.00446909,-9.61815,23.1985,-4.39335,-9.69161,23.2644,-4.33896,-9.70463,23.1483,-4.32219,-9.75556,23.1958,-4.28048
0.0115122,0.0290011,1.09736,22.7891,6.34776,1.16332,22.7957,6.32946,1.05135,22.8306,6.39287,1.1721,22.7785,6.35344
0.109644,0.00568544,-8.20562,2.01159,-1.7952,-8.34561,2.01899,-1.73557,-8.32538,1.98756,-1.66404,-8.27512,1.97887,-1.6643
2.36645,0.198965,-7.99958,11.7919,-4.2661,-7.89539,12.3242,-4.39591,-8.62923,11.4938,-4.79028,-7.69895,11.9017,-4.34134
23.8116,0.0643197,-10.8798,15.9577,2.78568,-11.129,18.3108,2.09651,-10.9713,19.0658,2.70612,-10.8102,18.4451,3.1366
22.0849,0.163851,-4.8936,33.8084,3.66992,-2.24028,34.2917,3.74813,-2.01737,33.5559,4.73598,-1.94347,33.9481,4.27784
0.169869,0.101826,-2.67051,33.1418,4.98523,-2.45098,33.2142,4.9974,-2.48634,33.1465,5.01349,-2.46778,33.0987,5.07369
3.88744,0.122064,9.50987,19.3903,-3.19654,8.31494,19.5821,-4.11975,10.7894,19.1127,-1.82368,10.9412,19.0526,-1.66827
22.696,0.094628,-9.63432,8.7185,3.84193,-8.37505,10.2918,4.64847,-8.2161,8.8282,4.27173,-9.03964,10.6569,4.52145
1.79172,0.182932,8.54564,7.8526,-3.68354,9.56522,8.5252,-3.18181,9.28021,8.46236,-3.4358,9.55331,8.61499,-3.22255
2.97183,0.0874656,8.77437,10.6012,3.55468,8.77044,11.8085,3.52491,8.70567,11.3534,3.59756,8.81629,9.6604,3.13804
3.3523,0.204665,-4.98473,23.2512,5.60212,-6.17907,23.449,5.53946,-6.43136,23.0158,5.59365,-5.29009,23.6226,5.66931
0.922332,0.0645894,-11.1318,10.7348,1.36903,-11.0181,10.3458,1.67843,-11.1019,10.8531,1.63822,-11.0279,10.3792,1.74945
35.9901,0.743964,-8.02946,10.1936,4.59208,-0.611978,10.3082,6.0918,-1.02032,10.9301,6.17946,-4.74268,9.98602,5.6286
51.682,0.554429,5.69703,28.8652,4.75418,-0.0729878,28.2238,5.72266,0.640134,27.6213,5.85265,-0.442599,27.765,6.02537
7.00015,0.232225,5.42168,20.3346,5.03938,7.42824,20.3782,4.62767,5.31701,20.668,5.22536,5.24908,19.6284,5.56706
41.0608,0.6875,-3.83825,10.5949,-6.05704,-0.592636,10.5613,-6.1336,-1.00951,10.1474,-6.12345,-1.38565,8.61977,-5.8594
8.95094,0.709611,-7.58694,11.7905,4.14022,-5.09365,11.6252,5.69031,-8.33082,12.2584,4.79203,-7.77824,10.486,4.49697
9.98078,0.207721,3.77589,10.9294,-5.29256,2.68592,11.0558,-5.52634,3.7912,12.7311,-5.8703,4.24679,12.0045,-5.7244
6.75969,0.298669,-5.4682,33.0678,-3.6829,-3.52797,33.6696,-3.85296,-5.56201,32.5153,-4.28647,-3.54808,33.4992,-3.9366
0.0377337,0.00184923,0.255406,0.813773,-1.62265,0.208005,0.805055,-1.52883,0.286422,0.784943,-1.49439,0.197994,0.821819,-1.61901
32.7322,0.164169,5.56065,22.4978,-5.10564,5.4299,23.9887,-5.34505,5.1634,20.5691,-5.48572,8.32194,22.5274,-3.96131
5.43156,0.311274,8.19428,24.9306,-3.37542,8.11322,25.5438,-3.41796,9.63411,24.87,-3.05665,7.98643,24.8023,-3.98233
5.93795,0.0303683,-7.8487,34.1196,-0.936513,-7.61192,34.1136,-0.26326,-8.85845,34.0443,-0.25193,-8.59372,34.0394,0.012032
0.423123,0.187514,-11.0358,28.9251,0.454288,-11.0144,29.2954,0.362473,-11.0207,29.1476,0.165293,-11.0003,29.1764,0.257181
82.6303,0.698263,-7.89305,31.8473,3.28907,-4.26483,30.7547,5.15866,-7.78806,29.66,4.07781,-4.52137,31.746,5.06772
0,0.0149227,7.06773,35.0565,2.47538,7.05642,35.0748,2.40049,7.01528,35.1021,2.40605,7.07129,35.0676,2.42663
6.46063,0.0968655,-6.54353,14.7705,-5.48648,-4.44981,14.6427,-6.14919,-5.18957,14.1226,-6.0934,-7.78857,14.7999,-4.93642
0.0400247,0.00502978,-3.40582,28.6429,5.71659,-3.39051,28.7222,5.72452,-3.20345,28.6165,5.68262,-3.27569,28.5775,5.69314
11.0793,0.312249,10.2149,13.7166,-2.50997,10.1496,12.9385,-2.6887,11.3695,13.5402,0.283735,11.009,13.5645,-0.898639
57.5724,0.0163557,4.91472,0.251008,1.5976,2.34079,0.156839,0.920837,4.18299,0.079155,0.778376,1.67849,0.544802,2.66748
0.066514,0.017939,-0.909803,0.972429,-1.59397,-1.07377,1.02485,-1.65746,-1.17675,1.00498,-1.61478,-1.00529,0.967061,-1.54024
4.37776,0.158764,4.54809,32.5031,4.4686,5.71423,31.942,4.34724,4.26085,32.4013,4.74049,4.80288,33.585,4.40842
45.1212,0.217906,-0.0606989,16.177,-6.28125,-3.01573,15.7797,-6.35011,-3.00433,17.8161,-6.28915,-5.64092,16.7057,-6.17864
38.3555,1.8349,9.19189,29.0298,-2.32464,10.0273,29.1431,-0.459364,10.2752,28.803,-0.613245,10.9438,26.5688,-0.539393
19.5705,2.78697,-10.7183,14.0714,3.29944,-10.4756,16.891,3.71479,-10.3224,16.826,3.95132,-9.71094,16.5907,4.56613
0.171863,0.0125468,-2.33305,34.3956,3.54818,-1.98645,34.551,3.4043,-2.047,34.4926,3.47969,-2.25872,34.4696,3.42555
11.2624,0.153663,-1.26809,23.6742,6.20913,-4.1976,23.2816,5.66714,-3.67343,23.2765,5.78685,0.59879,23.7606,6.35828
1.32775,0.0937061,2.87587,21.0969,5.44056,2.31598,20.9499,5.62511,1.60877,20.9049,5.72001,1.52351,20.9605,5.72366
0.751244,0.00633829,-11.1383,22.3554,2.17348,-11.181,22.5529,1.94706,-11.1693,22.7603,1.99949,-11.1543,22.7571,2.06815
4.3029,0.00739715,2.49103,4.01674,5.05271,2.10911,3.68243,5.07343,3.8081,2.97251,4.56076,2.7573,2.88601,4.78544
3.5831,0.951854,-5.84387,33.3904,-3.64366,-7.13963,32.2016,-3.53214,-6.921,32.1444,-3.62046,-7.03309,32.1404,-3.55839
7.23367,0.196541,9.06312,25.5617,3.55669,7.15834,25.3383,4.49854,10.1141,25.2928,2.81494,10.2132,25.856,2.54513
1.268,0.00503849,9.4144,30.5806,2.49787,9.55673,29.8593,2.28496,9.70075,30.6616,2.18385,9.33537,30.236,2.55256
0.293394,0.00919295,11.3556,16.8853,0.281728,11.1927,17.1329,0.569043,11.1934,17.0346,0.594568,11.2558,16.9064,0.484896
0.8396,1.06009e-05,9.40927,26.7007,-2.99185,9.15686,26.8899,-3.09792,9.11254,26.4759,-3.10721,8.96183,26.4592,-3.16784
49.2459,0.34217,5.45997,6.51631,-4.07949,7.79092,6.29607,-3.18769,8.42614,5.00814,-2.7886,8.91128,7.05908,-3.10971
0.0122253,0.000263466,4.83868,0.868323,-2.4595,4.87736,0.884386,-2.47876,4.84334,0.911095,-2.52851,4.89803,0.914553,-2.5238
2.67392,0.222757,-4.2881,6.77782,4.7905,-4.41956,6.28307,4.86182,-4.52881,7.01751,5.11295,-3.21986,6.66672,4.96063
14.7747,0.296817,-0.444026,24.3952,5.81366,3.6921,24.6984,5.23267,3.85968,24.9238,5.20428,1.88656,24.6022,5.62021
25.4225,0.315815,1.4121,12.8642,-5.90804,3.27983,13.9233,-6.2261,1.54161,14.0558,-6.23051,4.33629,13.075,-5.78453
4.49105,0.0193962,9.64943,18.2212,3.16046,7.59242,17.9809,4.2283,8.54257,18.1721,3.77124,7.77714,17.8309,4.07973
0.125669,0.00389315,-9.93662,2.71591,-1.36419,-10.0282,2.741,-1.14504,-9.97626,2.69279,-1.18953,-10.056,2.80026,-1.19185
1.15778,0.0398269,4.56594,0.141993,-1.04796,4.07109,0.240559,-1.33928,4.35931,0.335006,-1.62581,4.00122,0.208845,-1.23833
0,0.00654893,8.10378,33.3412,3.02031,8.15192,33.2901,2.99281,8.10074,33.27,3.0037,8.04228,33.2976,3.03385
1.62103,0.00892677,3.20697,33.3291,4.89114,4.14424,33.6171,4.71538,4.13893,33.5417,4.75139,3.6357,33.6571,4.7121
14.2137,0.171767,8.45096,33.0315,2.7853,5.27157,32.8691,4.32568,9.2831,32.8695,2.16481,5.25791,32.6893,4.36031
33.8711,0.172501,-4.85547,6.10811,4.93179,-2.7239,5.90701,5.1391,-7.74023,6.4547,4.22883,-2.18649,3.66661,5.47742
0.362582,0.160534,-0.18717,0.434144,1.34637,0.100638,0.426521,1.42803,0.0867775,0.440027,1.57127,0.0851391,0.43988,1.51703
9.20083,0.230192,1.59115,18.3546,-6.16221,6.60093,18.2878,-5.4568,1.07359,18.1341,-6.39473,6.41456,18.3724,-5.546
20.4078,0.0737884,-11.0221,15.3293,2.53292,-11.2257,16.1708,1.73172,-11.142,13.9516,2.06764,-11.3419,12.8974,0.567027
9.77065,0.282429,-7.56024,17.7918,-4.93711,-6.18841,18.0259,-5.83467,-7.58758,21.1436,-5.59719,-7.6906,21.9533,-5.64276
0.677423,0.0156606,3.4897,0.0771846,-0.497509,2.76893,0.340246,-1.27434,2.75652,0.358079,-1.41023,3.44466,0.0713982,-0.209072
0.815336,0.03852,-10.6885,30.0912,-1.80644,-10.7963,29.831,-1.73406,-10.7716,30.1502,-1.60966,-10.621,30.3078,-2.05911
9.4407,0.0532576,9.53825,16.4664,-3.06518,8.63841,16.4786,-3.78801,11.3056,16.1902,-1.02278,11.0599,16.3415,-1.43952
9.8968,0.00273938,-10.5759,23.1776,3.54997,-10.5587,25.1336,3.20611,-10.342,24.9729,3.64957,-10.7642,24.171,3.00352
9.5018,0.348446,9.72173,18.8951,2.09091,11.2931,18.9183,0.144879,9.93693,19.26,2.57387,9.89899,17.95,2.10641
0.240278,0.205848,-4.73497,19.5472,6.13486,-4.31963,19.3039,6.28299,-4.39119,19.3051,6.25588,-4.53936,19.314,6.21308
0.842348,0.0893409,-11.3769,15.6002,0.822798,-11.4019,15.4603,-0.103545,-11.3935,15.3885,0.133576,-11.3694,15.5194,0.112763
0.785013,0.0970887,-9.69873,14.9241,-4.04364,-9.45467,14.9447,-4.15497,-9.79247,15.1138,-4.09919,-9.71939,14.6128,-4.20276
47.5972,2.18083,4.66343,11.586,-5.53681,8.72548,12.4342,-4.17438,8.54055,11.1879,-4.09943,8.54333,11.626,-4.20426
11.6818,0.878885,6.63998,5.49533,3.74131,4.10058,5.40936,4.60485,4.07714,5.16881,4.76768,4.27156,4.91549,4.76143
49.5079,1.19918,-11.3271,12.689,-0.604817,-11.304,10.7418,-0.389875,-11.1274,10.1339,-1.68412,-11.0429,10.0292,-2.01578
0.481715,0.160345,-7.24691,1.62846,2.144,-6.85543,1.51298,1.9414,-6.86141,1.54801,2.02261,-6.81992,1.57695,2.16132
3.17015,0.0702551,-11.2817,25.6152,-0.450074,-11.2398,25.6053,0.222051,-11.2716,25.1832,-0.116039,-11.284,25.0042,-0.287892
1.40128,0.0551511,6.66602,21.521,-4.7766,7.00329,21.4704,-4.6955,6.77461,22.2529,-4.80654,6.57209,22.374,-4.83317
2.14429,0.0367494,6.92113,26.0116,-4.32498,6.43061,27.0482,-4.32606,6.68046,26.7849,-4.31594,6.65895,25.5992,-4.44746
24.7582,0.0520112,-9.49743,28.898,3.67233,-7.65448,29.4038,4.23424,-8.37968,30.7072,3.88718,-9.48496,30.6869,3.49739
50.2295,0.459196,-7.28765,1.70406,-1.03275,-6.96585,1.46165,1.46668,-8.08392,1.6081,1.03336,-7.7598,1.59633,1.43007
13.9596,0.547562,2.06358,9.6214,-5.62046,3.53154,9.96333,-5.77236,2.15441,11.236,-5.65075,3.1612,10.9494,-5.52454
0.132831,0.0530484,3.58412,3.71355,-4.27212,3.64122,3.77627,-4.2432,3.55445,3.85438,-4.31622,3.8934,3.85835,-4.26434
28.1559,0.794073,6.97628,24.9343,-4.29975,8.17447,26.49,-3.31609,7.35819,27.4048,-3.76206,8.16672,26.8284,-3.37981
3.64599,0.235367,-5.3339,27.1624,-5.34006,-3.84974,28.5179,-5.48545,-4.74963,26.5754,-5.66401,-5.72222,27.289,-5.54812
2.24886,0.22122,3.72076,10.6053,-5.26343,4.50411,10.5476,-5.25785,3.50426,10.4503,-5.61144,3.51247,11.0372,-5.46674
29.8722,0.47426,-4.91482,17.5378,6.10555,-9.68035,17.0936,4.42913,-8.08775,16.7475,5.18484,-2.28733,17.2385,6.50003
17.2276,0.474648,-1.01598,17.7942,6.60135,1.23935,16.7221,5.71549,0.88381,17.8418,6.38225,0.76068,16.6583,5.8878
41.0225,0.287467,-4.15376,12.0026,-5.86472,-6.42025,12.3046,-5.29955,-0.758386,11.5571,-5.81527,-2.69407,11.1565,-6.12101
13.6286,0.388969,0.0521207,10.5043,5.38769,0.195543,11.6771,5.6321,2.98666,10.1776,5.3873,-0.666889,9.35597,6.01637
7.7234,0.362158,8.23154,9.71601,-3.6255,9.15664,9.91911,-3.3167,8.06512,9.36651,-4.22091,8.1668,11.0846,-4.29585
12.4708,0.36017,9.20877,30.176,-1.20972,9.31586,30.5439,-1.99087,9.86172,29.4781,-0.73264,9.81298,31.207,0.684401
0.0403005,0.0560093,-9.14785,14.923,4.58653,-9.20033,15.0767,4.57414,-9.07947,14.9721,4.61599,-9.14536,15.0165,4.58001
3.0424,0.114038,-10.2374,4.11179,-1.17142,-10.245,4.21463,-1.71423,-10.4173,4.54812,-0.672652,-10.528,3.1544,-0.589807
36.752,0.0394049,-3.89626,34.305,-0.835292,-2.54811,33.8741,-3.58863,-2.16986,35.1507,0.359299,-2.80948,34.0408,-2.80396
0.207816,0.159805,5.13127,0.988212,2.88676,5.3022,1.05632,2.91965,5.27786,1.06402,2.8489,5.38451,0.947528,2.77686
2.44193,0.00656386,-9.07897,33.9002,1.25712,-9.09634,33.9797,0.269427,-9.65362,33.8307,0.920787,-9.22606,33.9335,0.570772
5.33896,0.291702,-8.39228,22.1262,4.30639,-8.31439,19.6813,4.96427,-8.51245,20.5944,4.76005,-7.55816,21.2859,5.12626
30.3623,0.246505,10.0909,16.0113,2.37858,9.93417,17.7964,2.1382,10.9626,16.3279,1.06667,7.59208,15.6455,4.72235
6.55337,0.0602675,8.58916,9.1614,-3.95481,6.33071,8.24025,-4.84012,6.36191,7.99536,-4.76288,6.17044,8.08433,-4.88538
7.33558,0.0515166,-11.3236,17.0663,1.05236,-11.3682,17.1645,-0.281864,-11.3856,16.4376,0.436217,-11.3835,16.4051,-0.309087
0.263489,0.0107492,-3.17112,35.0412,1.10071,-2.78613,35.1378,1.25005,-2.76538,35.1455,1.1777,-2.88676,35.1137,1.03823
0.107788,0.0442799,-2.74039,9.75662,6.08381,-2.95713,9.67098,6.03228,-2.88866,9.60423,6.0027,-2.82002,9.61278,6.02373
2.07461,0.0675207,-2.34293,12.9511,-6.36961,-2.76698,12.5353,-6.28271,-2.20881,12.475,-6.33933,-2.79943,12.8313,-6.35166
0.0127275,0.0131806,6.37459,27.7016,-4.19168,6.33557,27.6976,-4.24235,6.32938,27.742,-4.26094,6.3212,27.6636,-4.26818
6.73411,0.0189453,-8.53653,2.01171,2.53705,-6.83524,1.83096,2.92946,-7.29802,1.78431,2.56291,-7.4893,1.94236,2.92169
6.23979,0.280742,3.03551,10.8088,5.0653,4.95964,10.0567,4.86666,3.23473,11.7845,5.31501,2.59311,10.698,5.46395
1.5036,0.0780359,-5.52342,1.35721,-0.41011,-6.31094,1.41498,-0.265932,-6.42168,1.4997,-0.696667,-6.47863,1.48124,-0.599462
2.75502,0.212914,-9.2143,11.1927,4.31048,-8.20103,11.0566,4.54876,-9.26832,12.072,4.65265,-9.46841,10.786,4.45543
0.00983846,0.00144318,-9.13346,24.2535,-4.78024,-9.18237,24.231,-4.74725,-9.1436,24.3329,-4.7731,-8.99783,24.4087,-4.86643
4.58407,0.00973843,4.91989,35.0953,3.09865,4.02444,34.8118,3.62183,3.53335,34.8352,3.60902,3.50669,35.0204,3.28897
0.924587,0.103012,-0.820019,18.0748,6.69808,-1.86011,17.9321,6.70886,-1.49086,18.3436,6.7498,-1.86708,18.1433,6.75824
21.8566,0.496737,9.52671,21.8428,3.13321,7.2112,21.6318,4.43587,6.55964,23.4224,5.10624,7.41682,22.4172,4.31199
1.70797,0.100214,9.82875,25.8345,-2.80516,9.1243,25.6524,-3.14176,8.99985,25.763,-3.17468,9.18411,26.0991,-3.09806
1.38909,0.0343742,-4.04584,20.132,-6.59576,-3.1471,20.0584,-6.578,-3.83039,20.283,-6.55105,-3.23689,19.4246,-6.63038
0.114759,0.0049792,9.13833,2.32286,0.646939,9.2045,2.3756,0.43748,9.14355,2.30919,0.550499,9.23766,2.43252,0.437358
11.3529,0.268461,4.77631,12.8586,-5.41024,4.44843,13.2969,-5.83798,8.02763,13.2594,-4.73602,4.63447,12.3166,-5.6803
0.0475615,0.00670724,-4.39685,20.6765,6.08722,-4.17286,20.6651,6.13789,-4.17129,20.7095,6.14339,-4.10423,20.7523,6.1619
0.00606403,0.00343184,-4.24002,17.0193,6.39299,-4.30875,16.972,6.36375,-4.351,16.9746,6.35374,-4.35648,17.0012,6.35721
0.30697,0.0748223,-5.53351,12.4793,5.92604,-5.57512,12.704,5.88773,-5.76145,12.543,5.87653,-5.45377,12.7162,5.93996
1.05061,0.00817635,8.44301,7.83497,-3.75414,8.12195,7.81579,-4.03287,8.18513,7.58302,-3.85525,7.82442,7.48086,-4.14079
1.47359,0.0977119,9.87318,6.16311,1.75573,10.0978,5.77825,1.39145,9.88759,5.68508,1.70284,10.1568,6.40511,1.58805
14.2916,0.276966,2.69972,22.9597,-5.67244,4.36779,22.0881,-5.98052,5.3908,22.8608,-5.19,3.98568,22.4924,-5.86529
4.08602,0.0364226,-11.1732,24.3782,0.913055,-11.2476,24.1557,0.505842,-11.3219,24.5504,-0.471257,-11.2713,24.7991,0.0835455
16.2474,0.162461,-9.10855,26.2069,-4.28467,-7.31219,26.2468,-5.20435,-9.23542,25.5631,-4.57059,-10.1419,27.8161,-3.63857
0.957089,0.318485,4.22894,30.8568,-4.3313,4.98776,31.3711,-4.06862,4.99992,31.4586,-4.05558,4.78955,30.8694,-4.25798
5.97659,0.0848819,3.74863,8.44587,-5.24363,1.91062,8.36985,-5.22293,4.63046,8.51725,-5.13205,1.82454,8.67824,-5.35143
3.35005,0.189291,8.68483,20.0556,3.63673,9.14556,20.805,3.14492,9.80554,19.2143,2.91889,8.63884,19.9741,4.01471
3.57627,0.11164,2.95645,33.4497,-3.0724,4.84764,33.4127,-2.92686,4.91049,33.3607,-2.9478,4.85772,33.4974,-2.89037
60.3961,0.783482,-1.23607,29.2652,-5.02655,0.339552,29.8266,-5.22585,-1.46075,31.2699,-4.91297,-3.52279,31.3747,-5.39364
4.77879,0.395961,11.0502,11.1693,-0.9471,10.7807,10.4441,-1.5971,10.2845,10.9631,-2.47815,10.2939,10.707,-2.34046
0.793933,0.0279281,4.09675,0.521694,2.43165,4.42088,0.780991,2.80629,4.68841,0.601041,2.47728,4.74941,0.628571,2.52138
0.859788,0.773267,-2.62476,16.1168,5.9778,-3.40738,15.9264,6.04902,-3.40596,15.9694,6.02829,-3.40115,16.0613,6.02126
0.313131,0.273939,-3.9191,13.4847,6.07975,-3.68982,13.8497,6.30048,-3.77125,13.8304,6.23905,-3.86273,13.8245,6.2126
0.851738,0.288033,-5.50899,31.3399,4.83265,-4.72126,31.2103,5.12485,-5.13191,31.4532,4.95297,-4.65371,31.17,5.14727
7.21593,0.387086,-7.4323,3.93685,-2.60063,-5.28605,3.81773,-3.84574,-8.02015,3.44279,-3.09529,-7.30896,4.47778,-2.82712
1.43425,0.0865531,-1.20079,29.6794,5.94504,-0.967738,29.3879,5.95233,-1.05709,29.2583,5.96156,-0.73974,29.4645,5.97758
4.20304,0.0775409,2.77504,5.23465,-4.65525,4.13586,4.42038,-4.47064,4.36705,5.05033,-4.52819,4.76526,4.85948,-4.50165
0,0.0117109,6.10158,6.6718,4.38694,6.10421,6.6539,4.37953,6.15662,6.67542,4.38995,6.15713,6.63752,4.3993
73.1558,0.225358,3.74389,8.25441,4.7168,6.40208,8.57635,3.94875,7.09509,6.18291,3.90824,5.87698,6.21501,4.35452
0.316434,0.00708312,-0.0420914,32.0681,5.5902,0.238723,32.0439,5.61344,0.296746,31.905,5.63824,0.466469,32.1968,5.61426
0.104499,0.00776839,8.08239,27.1121,4.49798,8.01205,27.1297,4.51851,7.79716,27.0341,4.62113,7.85111,26.9855,4.60213
3.58511,0.214981,-0.0847081,17.0903,-6.15565,1.06186,18.0239,-6.31131,0.344186,16.4976,-6.28024,-0.41503,17.1253,-6.41266
9.23008,0.137367,-4.91082,5.14629,-4.27052,-2.03568,4.62656,-4.80972,-7.22026,5.71162,-3.61393,-2.16544,4.7321,-4.80429
21.5463,0.0336035,7.58711,4.12558,-2.82355,6.34022,3.41993,-3.28122,8.43986,4.75447,-2.45329,3.97283,3.99442,-4.2709
16.2514,0.714173,6.85023,17.8943,4.59565,3.15161,16.937,5.42396,9.44705,16.9034,3.38386,3.0187,17.0438,5.41816
0.361848,0.00106815,-0.511881,7.41008,5.47504,-0.523352,7.33862,5.45805,-0.134862,7.10922,5.49337,-0.0435937,7.15812,5.52117
2.32754,0.103588,9.00033,21.061,3.30295,8.29246,20.8853,4.12102,8.30211,21.1495,4.04429,8.76998,20.6828,3.74729
8.28668,0.14507,9.58245,22.667,-2.81112,8.18318,22.695,-3.99377,10.7234,22.3938,-1.57859,7.87997,22.943,-4.17099
9.92262,0.833725,0.834574,26.4499,5.69238,2.66662,26.9604,5.65525,1.11633,27.339,5.85677,4.54654,26.4623,5.29096
0.485586,0.00422772,1.18227,33.3566,5.05044,0.823685,33.329,5.12286,0.976869,33.6057,4.9357,0.826406,33.3704,5.09777
0.0665994,0.00371754,10.8589,7.36516,0.439336,10.8823,7.43061,0.261825,10.8959,7.52279,0.245919,10.8666,7.44008,0.422525
2.60728,0.271732,-3.05421,32.8901,-4.04207,-2.25128,33.8417,-3.63421,-2.34452,32.5181,-4.75052,-3.51486,33.0669,-4.22471
10.9678,0.0313868,0.71478,35.1624,2.72186,0.615034,35.3946,1.9298,-0.642389,35.3048,1.96258,-0.228256,35.1814,2.53951
0.121806,0.0583378,6.06684,0.294648,1.3996,6.15692,0.404193,1.55271,6.12425,0.391964,1.59694,6.1688,0.378383,1.48936
2.07333,0.232194,2.67629,12.4136,5.36708,1.05851,12.224,5.54247,1.38916,12.1481,5.52,1.06893,12.2498,5.55072
1.88374,0.320852,7.25584,19.5946,-4.72339,6.46179,19.1961,-5.44324,6.31279,19.887,-4.96418,6.45412,19.9879,-4.88487
1.58312,0.0258176,-3.08906,1.01327,-0.44123,-2.78693,0.972899,-0.423778,-3.2548,1.01636,-0.580431,-2.90318,0.871367,0.214913
0.512891,0.0160291,-3.52303,3.32024,5.25789,-2.85353,3.47193,5.38334,-2.86879,3.33072,5.35916,-2.9154,3.47973,5.37354
1.88218,0.172329,-8.84457,31.8179,-2.7902,-9.16434,31.9674,-2.89948,-8.19758,32.2524,-2.90881,-8.55614,31.5894,-3.05859
37.9657,0.205714,-6.94342,1.7145,-1.30327,-3.94218,1.52199,-1.83907,-3.49086,1.57642,-2.18017,-4.13357,2.00028,-2.80114
18.863,0.222365,-1.80238,19.8715,6.08479,-2.82966,19.163,6.50389,-1.32218,18.7949,6.69681,-1.89137,18.5638,6.74595
3.19138,0.277898,2.03681,33.4411,-3.11258,1.58016,34.1612,-3.19617,2.81298,33.4656,-3.05659,2.16217,32.9561,-3.78529
1.60422,0.00726082,-11.3062,11.2421,0.442894,-11.339,11.8799,-0.132811,-11.3344,11.8963,-0.109322,-11.3456,11.5427,-0.0168805
12.8363,0.0255578,-10.6374,29.5371,2.63346,-10.9252,30.2012,1.16634,-10.9169,29.8027,1.20943,-10.8382,30.9772,1.66231
4.98938,0.251427,-9.7733,30.9276,-2.56874,-9.86479,30.494,-3.06772,-10.1424,31.2139,-2.52863,-7.92818,31.8888,-3.39117
23.6292,0.078989,7.26985,27.4091,4.61968,8.28092,27.2583,4.33751,4.7211,28.2665,5.05414,3.86019,27.2147,5.20944
12.5513,0.274877,-4.51155,1.33616,2.61039,-4.57937,1.18884,1.3126,-5.04095,1.25972,1.46857,-5.94952,1.37476,2.03839
0.00696173,0.017888,-0.240194,3.47454,5.41631,-0.256387,3.50264,5.40129,-0.197253,3.56516,5.44523,-0.257401,3.5524,5.41976
0.416702,0.08962,-10.8547,26.0894,-2.67006,-10.8182,25.8314,-2.7151,-10.8595,25.7747,-2.66013,-10.7866,25.8246,-2.79609
0.00424196,0.0257676,6.72882,33.1453,-2.37883,6.80491,33.2146,-2.32676,6.80247,33.1792,-2.34406,6.73112,33.214,-2.31588
30.8088,0.18858,-8.17267,6.42606,4.11753,-10.0364,6.46718,3.56077,-6.53986,4.55047,4.88577,-6.64744,4.50797,4.83935
63.0075,0.241984,9.24574,31.5905,0.420957,8.84483,34.3182,1.70462,8.61771,33.1002,-1.39905,9.83754,31.3028,1.55308
1.75056,0.307185,-6.78802,21.2246,-5.93814,-5.63349,21.236,-6.07446,-5.68306,21.3804,-6.0694,-5.93781,20.7505,-6.16269
0.112623,0.0198063,-5.95071,15.2555,5.51491,-5.97062,15.0006,5.63385,-6.04433,15.0044,5.56531,-6.03754,15.1911,5.49167
33.1704,0.171901,-1.215,22.2368,6.28669,1.15698,22.5402,6.36742,-4.58064,20.9081,6.00167,-5.08129,21.7296,5.68234
4.59789,0.00544472,0.338469,9.64056,-6.08237,-0.582794,9.66768,-6.08716,0.132302,10.1888,-6.15336,-0.517547,10.0668,-6.13578
0.0475341,0.0806882,7.14275,17.7684,-5.26997,6.93615,17.718,-5.3296,7.07449,17.687,-5.28614,7.0265,17.7103,-5.28028
10.7137,0.0858706,3.29717,34.3852,-1.92814,4.37678,34.4886,-1.66196,3.79107,34.0921,-2.74891,2.8018,34.9857,-0.816761
1.19758,0.187477,8.95366,13.5077,3.13554,9.29484,13.4677,2.92559,9.2728,13.4022,2.92403,9.27854,13.6962,3.08571
1.88313,0.0969255,1.60547,31.3098,-5.11625,1.15178,31.6882,-5.07526,1.10683,31.2504,-5.18707,1.55999,30.9018,-5.11745
10.8924,0.00511864,-5.35926,18.3794,-5.82236,-0.456677,17.6249,-6.63366,-2.95057,18.1312,-6.25737,-0.511261,17.7296,-6.65116
0.0571441,0.0714983,8.21082,29.5302,-2.9746,8.23546,29.4512,-2.966,8.29322,29.4427,-2.91894,8.36964,29.4258,-2.90553
2.46379,0.0554304,10.1921,26.091,2.46353,10.6407,25.7906,1.97813,10.212,26.8408,2.15047,10.31,26.8241,1.99442
31.8496,0.223052,0.941221,18.5221,6.11191,2.6455,20.1502,5.74421,2.71089,18.7969,5.79628,1.29795,20.7126,5.78298
2.26904,0.0560488,0.814044,1.72783,4.3263,0.262982,2.01231,4.6505,1.27631,2.19181,4.75148,0.313288,1.80249,4.38762
1.78202,0.0858422,-9.31466,27.371,-3.77505,-9.46462,27.4385,-3.78866,-8.48757,27.9872,-4.27176,-9.16816,27.1688,-3.96267
33.8752,2.68754,0.616421,15.7446,5.71689,3.58013,13.5891,5.79561,3.24144,17.5387,5.62313,3.20474,18.3557,5.71667
0.479165,0.172715,0.5574,34.5067,-3.1203,0.596514,34.7199,-2.69696,0.498015,34.6766,-2.80629,0.657364,34.746,-2.65587
0.682384,0.119842,4.49221,6.70056,4.82264,4.40037,6.0635,4.6928,4.34388,6.18428,4.76668,4.50795,6.25861,4.74969
8.35034,0.155962,6.84108,5.90477,-3.73721,6.25859,5.14469,-4.00849,7.60061,4.7725,-3.4134,5.51471,4.85549,-4.25401
44.9139,0.26682,6.53563,34.4434,-0.871964,6.06108,35.1773,1.67608,4.55602,34.946,-1.07965,7.62506,34.6111,-0.616857
3.3592,0.248351,-9.23468,8.85015,-3.80053,-9.53489,9.11219,-4.02027,-7.79107,8.82499,-4.25698,-9.39906,8.16028,-3.99773
5.98946,3.28687,5.65755,15.5435,5.33479,2.31377,14.9368,5.78123,2.32005,15.0232,5.74689,2.33211,15.2022,5.71313
0.00511616,0.0246258,-5.2344,30.4435,5.22176,-5.2322,30.4058,5.22833,-5.19445,30.399,5.20762,-5.18475,30.3678,5.24732
2.51385,0.0618457,8.05109,24.6192,4.38708,7.25761,24.8554,4.66986,8.76477,23.6998,4.13715,8.75909,23.6602,4.14774
54.5067,0.575925,7.94996,29.7316,3.75503,3.3702,29.1342,5.22058,5.60872,30.0707,4.72549,6.25846,28.2468,4.79688
21.3553,1.13439,8.09993,19.9288,-4.36697,3.73424,20.3164,-5.66867,6.53327,21.0148,-4.99081,2.98234,19.7091,-6.20161
2.99647,0.585954,-7.79214,18.912,4.90292,-9.12369,18.8146,4.52058,-9.42832,18.7127,4.56641,-9.24971,19.0205,4.54749
10.5568,0.163755,-1.70829,32.3291,4.93296,-3.20203,32.3298,4.90789,-3.02365,32.1068,4.81628,0.234366,32.6384,5.55692
0.0713637,0.0430617,-1.80508,10.1885,6.15598,-1.67295,10.2033,6.22613,-1.77652,10.1216,6.20373,-1.8846,10.2686,6.18636
0.686227,0.226335,-11.2168,18.8043,-2.19634,-11.2754,19.3399,-1.96511,-11.3084,19.3257,-1.82619,-11.3434,19.3143,-1.68429
0.0513085,0.00455804,-3.87144,9.17819,-5.83439,-3.90744,9.26286,-5.82474,-3.92972,9.17962,-5.8237,-3.97003,9.25275,-5.80885
11.583,0.0125374,5.51029,15.682,-5.35886,6.94832,13.8873,-5.17071,7.91862,15.5891,-4.31731,5.24288,15.6412,-5.47183


