
9.68,0.146131,9.9409,10.7712,-5.32999,7.63385,10.9028,-5.92221,7.85447,11.0356,-5.89594,11.9792,10.4698,-4.44798
51.571,0.444298,2.40739,31.8928,-4.34289,2.93365,30.8887,-5.60067,7.17691,33.4449,-3.14976,0.886645,32.8739,-4.34307
49.1128,0.532557,3.5055,33.6848,4.15388,0.851664,32.3795,5.53885,0.545841,32.569,5.14215,0.852717,33.9755,3.42517
11.6258,0.256391,11.0652,19.4713,5.30518,11.8974,19.9931,5.09263,11.0552,18.4377,5.77123,11.9998,19.008,5.20473
1.70673,0.221414,-12.5033,10.6023,-4.80034,-13.0686,10.3503,-4.53627,-13.302,10.2281,-4.52011,-13.05,10.6542,-4.66584
0.083514,0.184596,-8.18149,20.646,-7.53054,-8.36227,20.7272,-7.34405,-8.37257,20.6967,-7.30381,-8.44552,20.6584,-7.25793
0.584914,0.023023,-3.61802,11.475,7.38272,-3.60625,11.751,7.40556,-3.53285,11.7982,7.43411,-3.27556,11.419,7.44793
1.70922,0.131454,-2.92318,26.1126,6.51695,-4.41073,26.1707,6.33777,-3.96999,26.2041,6.40729,-4.41537,26.1244,6.36361
0.126804,0.152042,1.09189,5.60344,-6.57242,1.29994,5.64502,-6.54901,1.29545,5.54661,-6.53124,1.2761,5.59812,-6.52316
0.228775,0.0200408,-14.888,21.9346,-2.89906,-14.8376,21.6326,-3.11177,-14.8077,21.7857,-3.1584,-14.8518,21.6328,-3.06275
2.88649,0.085894,5.10285,2.36488,-4.53741,3.78952,1.8589,-3.54271,3.58941,1.91122,-3.5662,5.48038,2.58644,-4.74065
106.405,0.0807526,-11.2882,4.46623,5.13677,-9.43235,7.68539,5.8948,-7.97966,6.10209,6.09917,-7.59268,7.17355,6.27152
8.7209,0.130027,11.6693,22.6243,-4.38628,11.9181,21.8089,-5.24763,10.9141,22.6508,-5.04885,13.0254,22.1021,-3.16653
5.91568,0.00594868,-8.16726,31.7425,-6.48176,-7.70504,32.1433,-6.23071,-9.00194,32.4843,-6.02646,-8.3092,32.6965,-5.89631
1.32251,0.00210228,0.893464,30.758,6.75198,0.308,31.2153,6.50586,0.741627,30.5449,6.7927,0.589631,31.2954,6.53223
6.37819,0.0647013,13.8665,30.4354,-0.965403,13.6755,32.2839,-1.16678,13.4894,31.6758,-1.80904,13.7456,32.0003,-0.975614
34.6161,0.348541,10.6137,23.117,-4.85421,8.1451,22.0386,-6.31753,9.40335,23.848,-5.35384,7.90864,23.5173,-5.90385
0.576275,0.0307165,-5.62001,27.0043,6.50797,-5.59581,27.4908,6.36982,-5.46821,27.0507,6.56542,-5.50364,27.4458,6.41108
2.60671,0.113698,-8.01272,23.7375,-7.55122,-8.15536,22.9831,-7.65902,-7.94254,22.8226,-7.73272,-8.74858,23.0547,-7.47012
10.0614,0.533569,4.32057,25.7228,-5.94448,4.30436,26.637,-6.56753,4.17843,25.1254,-6.50718,6.40904,25.3346,-5.84534
6.35245,0.275455,-0.355113,8.85867,7.01981,-0.0106733,7.3851,7.18961,0.887721,8.986,7.3972,0.613596,8.89058,7.25592
20.4903,1.07039,-11.0751,25.1588,-6.05549,-9.98346,26.4437,-6.30568,-9.34149,24.1149,-7.17211,-8.9739,25.0779,-6.58864
3.72746,0.222313,14.4543,19.7516,-2.93792,14.245,19.8454,-3.45438,14.7013,18.119,-2.31426,14.8003,17.6171,-1.68589
2.59219,0.330325,-8.86007,31.0685,3.73519,-8.47566,30.3063,4.65296,-9.4172,31.4526,3.92449,-8.41677,31.4293,3.83828
7.4145,0.252944,-11.8819,28.4553,3.26356,-12.3341,28.5049,3.4214,-11.6077,28.7484,3.44482,-11.2457,26.8359,5.03769
18.1724,0.0890725,-9.8546,19.5023,6.1617,-8.41564,19.6822,6.67359,-7.53503,18.4861,7.02301,-7.96538,18.0797,6.92295
19.025,0.12584,13.7179,18.1623,-3.45322,12.379,18.1822,-4.90781,12.5434,18.7302,-4.89303,14.157,19.0155,-3.43276
6.04699,0.405727,-14.0515,12.7364,1.76877,-14.5482,11.5302,2.1181,-14.2327,12.6959,0.642696,-14.5153,13.1548,2.0241
0.00616843,0.0334573,6.89951,12.4792,-6.70801,6.94985,12.4083,-6.68172,6.9015,12.3967,-6.70005,6.94719,12.4356,-6.67275
18.99,1.09821,7.50741,11.0889,-5.95323,6.11938,12.2486,-6.71907,3.18156,11.4247,-6.58643,3.11007,11.3379,-6.59588
16.6177,0.541529,7.34328,6.62501,-5.38903,10.699,6.56797,-4.78179,12.6523,6.14964,-3.78843,11.1574,5.9842,-4.23669
15.444,0.905374,-4.57306,9.5419,6.5503,-3.89839,7.0399,6.5237,-4.07733,6.68873,6.83624,-3.65549,9.70775,6.77396
14.5255,0.23463,9.62958,3.16419,5.44065,8.25939,2.70592,5.54262,8.57169,3.80865,5.84369,8.19783,3.3112,5.80095
0.311478,0.012621,13.9826,31.647,2.39082,14.0218,31.3551,2.118,14.0275,31.439,2.06598,13.9917,31.3601,2.30666
1.0008,0.493944,5.49878,21.7881,6.83152,6.42881,22.0012,6.72675,6.50473,21.9434,6.70194,6.50441,21.9011,6.72279
4.5034,0.242891,-2.40524,29.6615,6.43528,-2.29047,30.8492,5.51498,-2.39112,30.6601,5.71723,-2.13386,30.8454,5.52123
9.99455,0.661045,-8.98432,19.1658,-6.41927,-9.07533,20.4119,-6.7778,-7.72942,18.665,-7.58324,-9.75319,18.6406,-7.0574
0.217635,0.0927202,10.9197,10.9675,5.70208,10.6805,11.0076,6.08485,10.7569,11.2447,6.14191,10.682,11.2109,6.1939
1.20274,0.00861439,13.4856,1.90808,-1.79954,13.2771,2.07891,-2.07313,12.7936,2.1673,-2.33454,12.7654,2.05442,-2.19379
25.1569,0.278898,-11.3621,8.17199,-4.50512,-5.64552,8.15976,-6.90133,-9.30072,7.72153,-5.43072,-6.86573,8.55619,-6.57586
0,0.00229702,-9.17012,11.9379,6.25631,-9.11161,11.9926,6.2848,-9.11534,11.9418,6.27662,-9.17907,11.9971,6.26406
0.616974,0.44203,3.09822,13.8273,7.25568,3.129,14.321,7.17768,2.96555,14.2887,7.16927,3.05552,14.3193,7.12525
3.03086,0.878506,10.8885,14.5356,5.63566,9.82673,15.2487,5.93676,10.0144,15.3408,5.73512,9.99306,15.5604,5.89599
2.24267,0.0140437,2.6743,3.25447,6.20308,3.59278,2.9017,5.91037,3.03821,3.01334,6.01435,3.58745,3.33005,6.176
0.563907,0.00172692,3.80181,23.3858,7.2418,3.38394,23.5038,7.25435,3.25372,23.6484,7.24559,3.09877,23.4322,7.27884
4.91628,0.250061,-3.04485,21.0339,6.72586,-4.57426,19.7181,5.68746,-2.00909,21.086,6.85501,-4.41986,19.6697,5.73879
9.29326,0.587716,-14.1365,15.1476,-0.566537,-14.6289,14.7932,-2.89745,-14.5271,14.0682,-0.139971,-14.8431,15.6574,-0.20826
1.82548,0.000408873,9.04457,18.608,6.40655,8.6918,18.7759,6.45975,8.71102,17.7738,6.56129,8.57942,17.9677,6.56718
1.11693,0.00369043,7.7271,8.32482,-6.151,7.84914,7.82686,-6.03992,8.02356,8.31173,-6.12289,7.62768,7.83749,-6.06393
4.44038,0.381594,-2.08271,31.5136,5.07152,-2.49778,31.945,5.31323,-2.12921,30.8873,5.47936,-0.932611,31.8881,5.8894
3.67127,0.0560179,11.6396,27.6979,4.61797,10.8491,27.5478,4.84269,12.4955,28.2274,4.17191,10.5211,27.3226,5.06637
5.30266,0.239457,-7.53894,5.89763,-6.10331,-6.95476,4.22997,-5.05016,-7.39932,4.87881,-5.49752,-7.06096,4.2379,-5.00839
3.85106,0.151135,7.06882,5.37445,-5.7998,6.90417,4.96437,-5.5502,6.32112,4.45848,-5.16792,7.46102,5.76286,-5.84522
6.41934,0.667914,0.258583,10.8719,6.81434,2.66416,9.30939,7.19926,-0.747378,10.1112,7.45653,0.442675,11.7256,7.56853
4.99194,0.253075,-12.2617,32.2955,-5.34889,-12.5333,33.4972,-4.46513,-13.1573,32.6968,-4.48767,-13.0887,32.8923,-4.44363
11.0946,0.11819,10.5683,7.92779,5.92577,11.7561,6.49659,5.29379,11.3936,6.40125,5.43306,12.0618,6.83134,5.18342
0.180037,0.0369419,8.66603,0.281009,0.141817,8.51915,0.231673,0.206838,8.44679,0.197309,0.162907,8.74256,0.231977,0.0754289
0.0170892,0.0374743,-4.0955,6.25439,-6.67864,-4.15604,6.22678,-6.65936,-4.23895,6.26241,-6.68405,-4.1,6.21621,-6.68376
15.3214,0.956445,9.42795,24.2709,-5.03801,13.204,23.5592,-3.53808,9.46938,25.3834,-5.55478,13.3255,23.5759,-3.39639
113.573,0.862796,8.97629,12.3941,-6.48535,5.91382,15.4988,-6.96359,5.90985,15.4074,-6.95988,5.99388,13.9293,-6.92412
0.542079,0.0412848,-2.59836,32.4747,5.12906,-2.3384,32.5696,5.24003,-2.58871,32.6504,5.07997,-2.46615,32.3593,5.30855
38.3808,1.48974,7.01836,26.2968,5.48309,8.05582,24.6374,6.51165,8.41172,27.9263,6.45026,10.4563,27.2912,5.141
0.0787587,0.00835197,1.60514,27.4418,7.31689,1.5971,27.2515,7.29997,1.47523,27.4021,7.32055,1.52729,27.2584,7.30784
0.153956,0.0268462,6.18863,21.0129,-6.70917,6.53788,20.8705,-6.6976,6.40676,21.0115,-6.72544,6.53834,20.9136,-6.70412
0,0.0301031,-5.41739,22.1129,7.16877,-5.36881,22.0624,7.1364,-5.40617,22.0673,7.15173,-5.36155,22.079,7.12333
6.92832,0.108977,0.615984,17.1197,-7.4466,-1.16914,17.7888,-7.69053,-0.681996,17.6829,-7.59431,-1.30566,17.5613,-7.71534
9.57211,0.506674,-13.8671,13.5746,-0.573234,-14.3538,13.1443,-3.14612,-14.4327,14.0623,-0.343808,-14.2533,12.5657,-0.148542
10.0198,0.0630977,9.30906,18.4084,6.41179,10.3663,19.1589,5.99671,9.97292,19.7837,6.00256,9.17554,19.7334,6.26736
0.227378,0.13558,-8.82623,7.25087,6.01479,-9.1745,7.11794,5.92082,-9.10143,7.20672,5.92265,-9.09846,7.35142,5.9498
0.838738,0.128325,-11.4239,12.7178,-5.36331,-12.0279,12.7899,-5.14247,-12.032,12.6496,-5.12883,-12.1094,12.7105,-5.08516
5.94699,0.0739976,9.28327,29.2754,5.94253,8.43957,29.1546,6.03695,11.6489,29.2859,5.37757,11.5134,29.5759,5.41672
3.77762,0.0648148,-8.73223,4.92892,-5.60045,-9.51265,4.31261,-4.81854,-9.48027,4.14705,-4.67048,-8.33567,5.28175,-5.90041
5.1441,0.150926,7.60156,27.4931,-5.82092,7.49122,25.8746,-5.82864,8.09671,27.7139,-5.71794,7.63119,25.9591,-5.84049
0.386386,0.0051383,4.63322,2.26725,5.41435,4.2787,2.20994,5.35809,4.60156,2.14153,5.3059,4.21378,2.12799,5.29129
2.88603,0.00184282,-1.7883,7.27308,-6.38782,0.800255,7.14641,-6.25238,-1.09171,7.19434,-6.35737,0.721801,7.18842,-6.25257
0.0284501,0.0260259,3.80645,17.7816,-7.07895,3.7738,17.8879,-7.02672,3.73623,17.8785,-7.0578,3.87458,17.7835,-7.07877
0.359448,0.043282,12.0494,4.0462,-4.49907,12.185,4.36578,-4.46703,12.271,4.40964,-4.42124,12.333,4.32253,-4.39233
2.50027,0.555057,7.21168,14.4175,-6.89065,8.45915,14.213,-6.8513,8.40345,14.6306,-6.85641,8.40891,14.6726,-6.86218
3.87211,0.138708,-8.67549,12.4717,-6.16358,-10.5896,12.7111,-5.67745,-9.93374,12.5588,-5.80805,-9.93339,12.4119,-5.83511
3.69847,0.70685,0.335582,12.9274,6.96664,-0.813009,12.162,7.78958,-0.600142,12.177,7.69209,1.60833,12.3992,7.31365
3.34869,0.362948,-0.329758,6.83759,6.30931,0.793255,7.26133,6.76037,-0.915627,7.11714,6.96672,-0.138712,6.48713,6.5082
5.87598,0.16139,-13.9085,25.928,3.15436,-12.3496,25.7644,3.91319,-13.0443,25.5413,3.68934,-14.5194,25.8006,2.69113
12.7165,0.154656,8.72444,31.6437,5.52706,6.57507,33.7072,3.52771,6.88908,33.6054,3.65351,7.06289,32.8714,4.39566
5.45836,0.0436096,-6.80668,33.9725,2.93631,-7.22252,34.2281,2.34898,-6.89396,33.1614,4.17542,-7.73453,33.1298,4.06542
0.57749,0.12784,13.7901,16.6318,-4.32815,13.9083,16.3466,-4.27334,14.0314,16.3377,-4.12072,14.1591,17.1112,-2.93582
1.39231,0.0925964,7.44243,21.2136,-6.52991,7.93035,22.1465,-6.31822,7.93123,21.8127,-6.37095,7.58324,22.3862,-6.39549
0.420414,0.0301446,-13.9587,23.9981,-4.53051,-14.0184,24.077,-4.28693,-14.0135,23.9962,-4.33725,-14.0032,24.2984,-4.37581
5.50556,0.479316,12.0747,31.8569,-3.02842,11.6331,29.4517,-3.59315,11.721,29.4972,-3.54614,11.5516,29.4943,-3.64569
0.184222,0.24298,8.75137,21.3123,-6.30831,8.87498,21.5545,-6.18332,8.74817,21.5549,-6.23956,8.813,21.5546,-6.18898
23.4891,0.68301,-9.68631,28.6671,4.00686,-8.4805,30.2634,4.67236,-10.7487,29.1966,4.35963,-8.36478,26.241,5.54946
23.8403,0.012238,-13.0872,9.00093,-4.30118,-11.0426,9.0439,-5.32099,-12.9081,9.95068,-4.65792,-12.107,10.203,-5.11539
9.84719,0.489538,-9.99367,14.5306,4.51698,-9.54036,14.6473,5.0918,-10.7962,11.9831,5.05833,-10.6243,14.9485,4.86761
49.9307,0.638046,-2.19493,24.2287,-7.48749,-0.29533,22.1826,-7.40119,0.643989,22.8274,-7.34511,-0.0846996,24.1361,-7.02134
1.06054,0.1268,-5.25845,13.908,6.40608,-5.55734,13.772,6.58793,-4.97851,13.8028,6.42665,-5.11266,14.2069,6.60235
63.9863,0.865894,-8.23553,15.1617,-7.39062,-11.8906,16.143,-6.12643,-11.8832,13.6416,-5.83549,-11.8143,14.7665,-6.01425
1.62083,0.195434,-10.0098,12.4218,-5.81778,-11.3473,12.6609,-5.38702,-11.2715,12.745,-5.43275,-11.3479,12.71,-5.39117
1.12947,0.177782,4.85752,16.9638,7.00517,5.05029,16.9355,7.18466,4.9909,17.2623,7.21006,5.26668,17.1552,7.20625
0.0221403,0.0208687,-5.66649,25.2362,6.96809,-5.58941,25.1558,6.99198,-5.66454,25.1485,6.98955,-5.73911,25.1917,6.96141
0.152223,0.00971803,-10.0815,34.9318,-1.30984,-9.86325,34.9379,-1.37974,-9.93122,34.9378,-1.43517,-9.94297,34.9282,-1.29186
1.33024,0.130226,1.08868,8.36159,-6.94406,1.34255,9.07546,-6.97033,1.27397,9.12106,-6.99145,1.06461,8.99706,-6.98425
0.731906,0.224581,-5.72474,21.9243,-7.58822,-5.27107,21.9618,-7.74102,-5.19945,21.8563,-7.7792,-5.06162,21.9537,-7.70718
59.273,0.0977181,3.57315,0.657266,2.49865,1.72356,0.248567,0.260339,0.479016,0.522924,1.8049,3.11718,0.360179,1.1774
0.786105,0.92699,12.9757,10.7485,3.59026,13.1398,9.82503,3.59034,13.1018,9.82508,3.62652,13.089,9.82597,3.6699
9.3848,0.580329,-5.30818,29.1063,5.27852,-5.49109,27.5297,6.36303,-5.56675,29.8673,5.632,-4.19602,29.4528,5.86464
6.30138,0.131975,-4.78871,4.69617,6.2021,-4.96836,4.00652,5.75104,-4.69343,4.19755,5.90847,-3.73677,3.85277,6.09587
0.0694282,0.0281097,-7.40073,31.9571,-6.33566,-7.44315,31.8598,-6.38709,-7.52883,32.0201,-6.32009,-7.3785,31.8551,-6.40172
1.99569,0.200879,7.59216,25.434,-5.67465,9.02835,25.7005,-5.7538,9.23529,25.7853,-5.73299,9.3782,25.9157,-5.7138
2.46829,1.05843,13.7198,23.8295,-2.53041,13.5136,22.755,-2.47122,13.4508,22.7478,-2.50656,13.3981,22.7371,-2.59482
0.0648079,0.00913684,12.3991,24.7987,-4.42622,12.5262,24.7566,-4.35914,12.4614,24.7137,-4.38589,12.5282,24.8013,-4.36697
7.59766,0.149779,2.36041,23.7735,7.10974,2.49234,22.3639,7.29614,2.3527,24.5952,6.76803,2.79387,22.902,7.3125
4.16706,0.03486,-7.41622,32.7727,4.30059,-8.19871,31.5717,3.97205,-7.48022,32.4125,4.33215,-8.50088,31.476,3.79984
1.1171,0.133783,0.69403,32.9683,-4.40631,0.0612881,33.662,-4.23942,0.13839,33.3241,-4.46723,0.247818,33.6389,-4.20508
10.1874,0.143091,1.2612,0.730801,-2.73325,-1.16183,0.525668,-2.45309,0.0104625,0.561485,-2.19682,2.25819,0.61214,-2.91576
0.395343,0.0710399,-14.252,20.377,-4.48927,-14.3631,20.6833,-4.26338,-14.326,20.4646,-4.29084,-14.425,20.4032,-4.16218
0.0202087,0.00151047,0.0179039,19.8234,7.814,0.159344,19.7747,7.84546,0.0144257,19.7815,7.83357,0.163497,19.8207,7.8221
17.1269,0.0421831,0.869628,16.6966,-7.41544,1.87445,17.439,-7.30952,1.99833,17.0152,-7.31292,0.774858,17.7641,-7.42404
41.737,0.0434282,6.77939,8.59006,-6.2806,5.49389,8.99111,-6.54558,5.54157,7.42069,-6.26147,4.48076,8.12494,-6.58255
0.0397734,0.0216781,-3.15852,31.7192,-6.19958,-3.08153,31.6232,-6.23422,-3.08111,31.5511,-6.28678,-3.15732,31.5603,-6.28844
0.0226849,0.00221714,-13.0944,3.70126,4.37894,-13.2227,3.74332,4.30765,-13.1582,3.6498,4.32811,-13.2274,3.69508,4.29552
78.7603,0.276443,-3.45224,24.0768,7.4735,-0.116336,24.8283,7.34023,-0.260754,24.8836,7.34984,-0.0973856,22.6921,7.53847
1.4406,0.209106,-14.0165,2.10187,-0.290788,-13.2199,1.57911,-0.714253,-13.4449,1.75168,-0.820234,-13.1281,1.57486,-0.824315
0.244964,0.102584,-15.0169,28.1812,-1.42441,-15.019,28.5324,-1.31879,-15.0271,28.1801,-1.27928,-15.012,28.3212,-1.28149
2.64428,1.46821,2.96273,21.5089,7.01688,1.3928,21.3691,6.7031,1.58308,21.2717,6.44668,1.58379,21.3171,6.44018
1.81458,0.092291,7.32371,17.7676,-5.60739,7.82864,17.397,-6.24325,8.19237,17.2076,-6.68,7.08269,17.2986,-6.83401
1.2624,0.0188338,-10.2101,23.6929,-7.23003,-11.1185,24.312,-6.38605,-11.2821,24.4463,-6.22642,-11.0327,24.4027,-6.38565
3.9318,0.661375,14.051,12.6953,-0.11067,14.7255,13.1977,0.0524315,14.6215,12.0262,0.844425,14.6892,12.3031,0.0108552
2.85051,0.356879,3.25574,1.68777,-3.32528,2.54,1.59575,-4.20284,4.04789,0.783245,-3.17803,3.6543,1.87089,-3.50721
0.681121,0.0264321,-13.5038,28.3639,-5.09231,-13.0879,28.4739,-5.37661,-12.9143,28.3921,-5.50978,-12.8486,28.2414,-5.56067
140.615,0.685683,-2.94308,2.60261,-5.3958,1.14414,5.37615,-6.5206,1.66615,3.93218,-6.13063,1.63624,4.41579,-6.29306
0.77705,0.137484,-0.129289,34.1819,2.8518,0.177712,34.2714,2.57714,0.16457,34.3253,2.46226,0.299952,34.2605,2.68559
4.83905,0.50147,-13.0723,19.8991,3.06217,-12.9152,19.3065,3.47226,-14.1437,19.9559,3.32652,-12.4583,20.7047,4.00423
6.34609,1.50346,-6.69378,24.9048,-6.77641,-5.42999,25.4566,-7.4292,-4.798,24.6408,-7.10323,-4.85348,24.7853,-7.08806
24.5495,0.282572,7.62721,16.6104,6.39544,6.2659,14.106,7.00223,6.53343,15.0224,6.76178,5.43594,16.3828,7.01591
0.738715,0.0269342,-3.1972,19.4298,-7.455,-3.69596,19.4175,-7.43543,-3.34253,19.3016,-7.45259,-3.6975,19.3715,-7.42937
0.599703,0.200757,-10.1861,4.2388,5.27482,-9.84509,3.94005,5.27884,-9.90166,4.22046,5.30139,-9.90624,4.07741,5.24658
16.4885,0.0924778,-0.0826794,32.2516,-5.53589,1.68697,30.7726,-6.16319,1.21798,30.3391,-6.4031,0.648606,30.6228,-6.3224
9.87319,0.569273,10.0905,14.4948,5.95355,12.3412,14.3562,4.93028,12.5377,13.9162,4.88115,12.5755,13.4251,4.97141
0.621754,0.151156,12.8508,15.5746,3.81556,12.9539,15.4244,3.96725,13.0153,15.7833,3.83537,13.1633,15.4082,3.81732
0.00322768,0.0039404,-8.71646,17.3126,-7.45208,-8.78314,17.3614,-7.43733,-8.86709,17.3252,-7.40735,-8.71152,17.3542,-7.46049
2.93334,0.0419491,3.12015,26.0739,-6.74227,2.60541,24.4616,-6.59698,2.89672,24.5462,-6.52453,3.08114,25.3072,-6.63255
1.71396,0.116234,10.8714,20.3423,-6.08474,10.1096,20.5617,-6.14706,10.3094,20.1883,-6.09759,10.1047,20.4737,-6.12844
0,0.0169016,2.50041,34.5783,2.10249,2.55476,34.6387,2.14847,2.49752,34.5988,2.11038,2.55025,34.652,2.12666
3.87508,0.918701,10.9706,24.6133,5.94651,9.54804,25.0758,6.32561,9.64737,24.3547,6.47445,9.59004,24.6742,6.43166
0.914008,0.0204004,2.58524,32.9961,-3.85933,2.87307,33.4151,-3.76339,2.44237,33.044,-3.88335,3.08616,33.3077,-3.76655
0.237595,0.0834388,-15.0273,22.7154,0.150704,-14.9732,22.5876,0.292792,-14.973,22.5337,0.170648,-14.9822,22.5244,0.278474
0.374667,0.0146361,-0.876898,31.2047,6.26052,-0.967408,30.7358,6.49238,-1.02397,30.9097,6.39744,-0.910664,30.7362,6.50168
43.391,0.307517,9.53613,4.75889,5.77531,10.5289,6.744,5.80759,12.1297,6.44231,5.11485,11.2444,6.3748,5.48421
0.552815,0.16627,6.54334,18.599,-6.71757,6.39497,18.318,-6.78473,6.53067,18.3729,-6.71624,6.61598,18.3051,-6.78214
5.51481,0.0429557,-7.02133,5.7595,-6.21198,-6.32116,5.19332,-6.32794,-6.09543,5.2586,-6.4162,-6.06852,5.79673,-6.50394
3.78819,0.19412,-2.30087,21.3415,-7.33997,-2.4372,20.9979,-7.50678,-2.61067,21.7803,-7.58889,-1.78931,21.3264,-7.5151
11.1181,0.133675,7.85807,10.8933,6.31855,10.1259,10.2561,5.82266,7.23622,10.4404,6.73275,10.5595,10.301,5.67487
109.205,0.549111,-4.47805,34.7554,-2.07229,-4.22486,34.8102,1.00612,-4.78695,34.7358,1.25385,-6.46467,34.7706,0.465142
1.12803,0.20445,11.4297,9.7607,-4.74767,11.5449,10.0108,-4.86704,11.7403,9.63482,-4.84751,11.2596,9.71751,-5.08234
5.83231,0.263459,-14.0848,20.6249,0.154169,-14.9889,19.4712,1.42506,-14.9867,19.1822,1.27907,-14.1536,20.7968,-0.388091
0.586597,0.0419867,8.67639,7.78632,-6.00186,8.43372,7.26657,-5.88215,8.28159,7.186,-5.85953,8.65961,7.51715,-5.95852
7.39633,0.338312,13.1308,5.66386,-2.88191,11.2205,5.93026,-4.24602,12.3218,5.7174,-3.67815,13.084,6.52397,-3.29662
176.054,1.33973,4.56352,10.2267,-6.65975,0.319787,9.48069,-7.1176,0.808004,7.19453,-6.27381,0.0778998,8.80983,-7.06955
110.891,0.339607,4.96272,2.73173,-4.9256,1.07857,2.75363,-5.32468,1.08224,1.37257,-4.39626,2.70474,4.63564,-6.25415
28.4551,0.80083,-1.88445,15.7275,6.59808,-0.0660209,15.8497,7.44542,-2.75276,16.1724,7.36437,-1.9921,12.042,7.49302
2.57383,0.284706,-13.3753,7.13226,3.96582,-13.1151,7.20456,4.48198,-13.3516,6.82776,4.38132,-13.6651,7.44174,4.06402
29.5504,0.207448,-2.81712,2.77487,5.279,-1.34631,0.873725,2.14572,-0.483362,0.492121,1.51114,-1.27623,2.22581,4.88006
26.7057,1.98271,-3.31255,16.5036,7.45422,-5.16729,19.934,6.22683,-4.67279,19.8318,5.7792,-5.71802,20.7668,6.67596
0.517115,0.172787,-11.7688,34.1656,1.40095,-11.608,34.267,1.13748,-11.7482,34.2185,1.1328,-11.802,34.2934,1.05364
2.54435,0.166217,-14.8848,8.62713,0.0973082,-14.7503,8.40142,1.88067,-14.7656,7.95486,1.87125,-14.7874,8.2621,1.69203
6.46508,0.391059,-14.2747,15.2905,1.94088,-14.5317,14.5616,2.1657,-14.7102,15.2559,0.0293099,-14.7572,15.7761,2.19668
0.234068,0.00575084,13.2982,4.60194,-3.71867,13.1585,4.49954,-3.83435,13.1614,4.40798,-3.83557,13.2892,4.41691,-3.72617
5.9839,0.840029,11.1607,2.59088,-3.23482,8.48612,3.4743,-4.77964,8.34281,3.47571,-4.78794,8.18771,3.35603,-4.73422
3.10317,1.50585,-11.1542,12.8411,5.08612,-12.7232,13.0263,4.51214,-12.6653,12.8361,4.50017,-12.6727,12.7503,4.53432
4.32291,0.0109345,-6.86079,25.9939,5.7264,-5.90923,26.1247,6.03343,-7.30521,25.8012,5.49217,-6.85296,27.3937,6.48194
4.44382,0.204838,-3.52315,31.664,4.88587,-2.80108,31.5996,5.35773,-2.69354,32.2776,5.32339,-3.79026,31.3343,5.04654
0.16511,0.0048306,0.151704,3.70947,6.38667,0.379823,3.49963,6.30962,0.296836,3.50278,6.29758,0.153636,3.61053,6.33003
14.6205,0.315325,-9.16886,21.1478,-6.55692,-9.16882,20.4136,-6.77587,-9.97773,21.0384,-6.9467,-9.33351,23.913,-7.2748
0.00672432,0.0169174,2.17228,3.32593,6.26575,2.10602,3.29648,6.26214,2.17905,3.22728,6.19925,2.23916,3.2164,6.18919
1.33171,0.0676255,14.122,8.08378,2.10553,14.3182,7.71347,1.85964,14.2767,8.69449,1.90733,14.1268,7.93336,2.2619
6.72492,0.100483,1.51851,19.3913,7.37251,1.62872,20.4226,6.89515,1.59775,17.5708,7.86308,1.38761,17.8075,7.82453
7.89079,0.524954,10.6762,9.2295,-4.88149,13.288,8.88018,-4.10108,10.4412,9.81534,-5.63992,10.5178,8.26912,-5.48042
4.28514,0.113345,10.7004,2.0032,-2.66256,12.7006,2.0534,-2.22405,12.6972,2.00728,-2.20072,13.0473,1.57817,-1.86971
18.8548,0.802628,-7.69771,12.9913,5.84874,-3.30772,12.2042,7.42925,-4.28091,13.0508,6.87968,-4.75653,13.1579,6.79697
39.571,0.508893,-7.04113,35.0212,-0.929506,-8.1955,34.5244,1.50269,-8.57932,34.5633,1.29057,-7.77241,34.64,-2.99473
0.101994,0.0267401,7.58455,21.0996,6.7586,7.57493,20.8253,6.73445,7.65672,21.0396,6.70798,7.64574,20.7682,6.71229
5.23746,0.00349144,-0.074486,26.198,6.68235,-2.80935,26.1105,6.56133,-1.85296,25.4395,7.33026,-1.90325,26.0678,6.67716
6.22746,0.0469309,-2.00596,11.8602,7.50139,-1.39912,11.6816,7.75655,-1.78642,10.6019,7.52785,-3.42315,12.7116,7.10806
4.31259,1.1815,-4.70514,7.51219,-6.25684,-2.6223,6.87853,-6.58453,-1.86012,7.22257,-6.40399,-1.8544,7.32017,-6.4326
2.05095,0.146206,11.6516,20.5139,-5.61158,11.604,20.238,-5.88273,11.3528,20.5679,-5.94764,12.5856,20.4746,-5.2449
2.74482,0.905191,-0.00634327,26.1962,6.68482,1.87824,26.1696,6.62711,1.95823,26.2012,6.57849,1.74523,26.2915,6.69975
51.3131,0.0570406,5.45889,34.5792,2.2202,6.35543,34.5991,1.10026,5.02554,34.7277,-0.440324,6.60311,34.6105,-0.152789
68.5082,0.656144,12.4164,18.2038,3.76895,13.953,18.8017,2.56431,13.7221,15.4339,3.33005,13.133,13.3168,4.4823
2.82517,0.0923304,2.68073,7.00616,-6.1366,4.88898,6.9264,-5.83531,5.17211,6.83595,-5.74743,5.08044,6.79416,-5.74389
0.258708,0.0474612,1.96727,28.6508,7.19442,2.16419,28.6785,7.19637,2.01585,28.7771,7.18274,1.94989,28.7819,7.19358
0.867059,0.00081061,13.6284,1.8469,-1.4994,13.9376,1.88544,-1.15783,13.6371,1.96072,-1.72174,14.0492,2.00285,-1.25019
0.163393,0.0828508,-4.23546,28.0351,6.54713,-4.45858,28.1449,6.57619,-4.54211,28.1603,6.63728,-4.46,28.0585,6.60775
1.25864,0.38303,-9.25532,34.7692,-2.72197,-8.9312,34.4877,-3.45175,-9.42332,34.5491,-3.43127,-8.86129,34.4919,-3.44349
0.186872,0.00248635,14.0102,13.6003,3.63067,14.0662,13.6031,3.55344,14.1392,13.376,3.44571,14.0874,13.3713,3.5211
10.2494,0.564565,3.69477,18.331,7.33287,3.55862,20.9448,6.28046,4.26578,19.7604,7.24719,3.71601,21.0261,6.27037
0.0258418,0.000827469,-0.576201,28.2884,-7.05814,-0.518622,28.2006,-7.04858,-0.512454,28.2849,-7.04971,-0.57869,28.1985,-7.05718
0.738766,0.0993292,-14.5413,10.9322,-1.45491,-14.5767,11.1159,-1.6084,-14.6767,11.3514,-1.45032,-14.5382,10.8836,-1.65826
5.01664,0.256419,-10.2973,23.2828,4.76001,-9.58266,22.0542,6.0566,-9.61047,23.0619,6.00458,-9.69657,22.2667,5.91404
0.158821,0.0533224,4.76597,12.8518,7.56104,4.82709,12.7017,7.50293,4.98726,12.6815,7.43382,4.98342,12.7262,7.42684
5.5874,0.0562043,2.07755,32.5776,5.15814,2.18339,31.8783,6.14301,1.75808,31.7758,6.19021,2.93327,32.7197,5.23405
0.0480867,0.00481443,13.4742,29.8194,-2.49423,13.5897,29.852,-2.26947,13.6527,29.8174,-2.18127,13.4695,29.7614,-2.52472
4.43269,1.64019,11.3102,30.8534,5.23349,9.68028,30.8498,5.53419,9.6675,30.7192,5.56501,9.74962,31.2695,5.57623
0.236004,0.00360601,-8.00167,4.9853,5.80125,-8.15233,5.19039,5.85779,-8.00246,5.12811,5.83511,-8.22441,5.14744,5.85332
11.2185,0.219219,-12.1741,25.1883,-5.48138,-11.6546,26.2283,-5.72559,-11.1196,24.5178,-6.27837,-13.501,24.8872,-5.24686
13.8581,0.0411038,3.93758,2.79045,5.8304,5.29488,3.70069,6.229,5.57919,3.33025,6.04469,5.64243,2.80945,5.78694
0.559684,0.067056,-13.9521,10.0567,-3.65797,-13.9601,10.1309,-3.79039,-14.1407,10.2335,-3.46435,-14.0869,9.86163,-3.53363
3.90233,0.156893,-10.9043,18.5925,4.39539,-9.56383,18.7251,6.32493,-11.4546,19.1351,4.7007,-10.9849,18.4121,4.395
0.0597852,0.01983,-6.38175,23.7361,7.12937,-6.25937,23.6907,7.16396,-6.39102,23.6004,7.14694,-6.248,23.735,7.16577
1.97668,0.0346864,-3.49386,32.9815,-5.34197,-3.96555,32.819,-5.52452,-3.89367,32.1236,-6.03161,-4.09119,32.6193,-5.70247
0.68218,0.038499,9.59657,5.31391,-5.23438,9.18157,5.38921,-5.22976,9.41247,5.49993,-5.31536,9.09073,5.22769,-5.11153
3.88945,0.078289,3.56732,21.1221,6.24238,3.25388,21.3518,6.66869,5.50177,21.7425,6.81169,3.04381,21.4429,6.94325
4.01293,0.260396,-6.58712,19.347,-7.53838,-8.05498,19.6318,-7.17778,-7.83329,19.4216,-7.23781,-8.38437,19.6315,-7.01521
0.688707,0.314193,14.6978,22.5602,1.43027,14.4988,22.7219,1.63069,14.5131,22.7946,1.53921,14.5605,22.8657,1.50623
7.09002,0.413118,14.2556,25.9169,-2.43972,13.7221,23.9127,-2.62151,13.7812,25.2443,-3.25702,13.8488,23.9348,-2.49409
2.68847,0.0506831,5.58348,9.53578,-6.57521,5.33388,8.50276,-6.49286,5.05639,8.73651,-6.56994,5.12273,8.50877,-6.53772
0.251643,0.0387674,3.92121,19.2153,-7.01389,4.54381,19.3274,-6.93364,4.4788,19.1949,-6.93972,4.26697,19.1615,-6.95374
0.0573377,0.0259343,0.158968,27.2832,7.24625,0.267164,27.3247,7.25864,0.140021,27.3329,7.26307,0.344826,27.2801,7.26442
0.267531,0.00181692,-8.39619,34.487,1.57674,-8.9463,34.4865,1.41373,-9.02687,34.4511,1.48924,-9.02136,34.4673,1.4458
5.55209,0.21461,-11.9306,24.97,3.3818,-10.9016,25.9974,4.48922,-10.3043,27.0402,5.5289,-10.3036,26.9891,5.5043
0.268401,0.207261,12.1634,26.9191,-4.33168,12.2313,27.0771,-4.20451,12.1573,27.1201,-4.24375,12.3042,27.0731,-4.20878
2.73127,0.356766,-14.3089,15.0167,3.35364,-13.3653,14.8686,3.92814,-13.4953,15.0542,3.86532,-13.025,14.9932,3.96435
0.345561,0.0896365,-14.9474,22.1947,1.45213,-15.0427,22.0599,1.37222,-15.0064,22.1265,1.55725,-15.0289,22.426,1.61898
4.72428,0.174891,5.70219,32.6395,5.36391,6.60856,31.8657,5.89355,7.34967,32.1356,5.52429,6.92369,32.0824,5.62153
0.0297494,0.00618937,-13.8724,30.7653,3.12016,-14.0505,30.6993,3.00718,-14.0041,30.7609,3.02619,-13.8677,30.8093,3.10732
0.984918,0.0673818,12.2512,34.3905,0.947388,11.8861,34.536,1.15549,12.3751,34.4273,1.07594,12.0012,34.5269,0.626618
2.35893,1.10086,2.6522,26.6916,-6.82211,0.402456,26.5383,-6.91097,0.933509,26.9288,-6.61959,0.865406,26.8866,-6.60556
0.00664822,0.00017696,-10.3353,27.5531,5.51958,-10.3931,27.5593,5.49747,-10.3936,27.5903,5.49305,-10.3374,27.639,5.50695
5.59932,0.279098,-7.36096,7.41854,-6.03802,-5.9064,7.60276,-6.17643,-9.22784,7.71376,-5.45559,-5.91408,7.5551,-6.13619
6.45547,0.174638,12.5588,19.377,-4.89826,12.3978,19.005,-5.23793,12.4441,19.906,-5.37028,14.0874,19.0976,-3.54785
0.0300448,0.00413474,-0.558403,24.7634,7.39098,-0.612905,24.7719,7.39696,-0.554583,24.8421,7.37307,-0.609309,24.8584,7.38211
2.44984,0.0731596,-13.7932,8.12224,-3.66231,-12.4552,8.08107,-4.33098,-13.2237,7.45479,-4.16456,-13.0751,8.01355,-4.08188
2.27439,0.165777,8.56262,12.7224,6.45381,9.04182,11.4238,6.61029,9.26437,11.4064,6.59156,9.19561,11.4562,6.5843
2.0625,0.10435,13.7199,17.4566,-3.24203,13.5402,17.4085,-3.57809,14.0957,17.1504,-2.99916,13.763,18.0383,-3.35445
0.0250302,0.0191177,-7.76807,27.2743,6.25492,-7.81774,27.4218,6.27785,-7.8254,27.33,6.26522,-7.75615,27.4197,6.29484
14.1512,0.493519,7.54014,13.2027,6.17426,8.63657,12.7677,6.46918,10.1376,14.0352,5.98668,9.27343,13.9815,6.196
0.249192,0.00436951,2.65008,29.378,-6.33778,2.77491,29.1109,-6.24351,2.70253,29.1538,-6.27813,2.85882,29.1503,-6.21712
9.33924,0.155137,-14.6257,3.80666,1.48404,-14.7501,4.80171,1.77327,-14.4888,4.27539,2.58862,-14.2703,4.24182,3.33576
10.9204,0.113382,-3.73526,6.55883,-6.67149,-5.27404,7.55117,-6.16906,-5.8478,7.59083,-6.15195,-6.32579,6.88606,-6.41695
1.42456,0.359659,-6.08313,17.2268,-7.54922,-5.86074,17.1979,-7.9227,-6.30202,16.8943,-7.94741,-6.22446,17.3607,-7.89042
0.284951,0.199515,10.292,13.0066,-6.22306,10.6399,13.2769,-6.14256,10.7147,13.2307,-6.10512,10.632,13.2256,-6.10745
6.5823,0.606879,3.0131,13.834,7.26006,3.1133,11.9726,7.5138,2.95848,12.4044,7.5531,3.44887,11.8342,7.63463
0.279276,0.0256808,-10.2644,33.5635,-5.12328,-10.2265,33.1903,-5.4502,-10.1412,33.1175,-5.52113,-10.0586,33.1056,-5.54472
0.260407,0.215135,-10.9423,31.4656,-6.14279,-10.6343,31.3379,-6.23466,-10.8628,31.2153,-6.21742,-10.7176,31.3068,-6.19624
144.305,3.13068,3.89068,28.259,7.21992,-1.51409,27.4655,7.16999,-1.3058,27.6852,7.18797,1.57498,30.4625,6.89478
0.0119989,0.0553491,4.7733,29.26,7.17389,4.63662,29.2664,7.17668,4.63299,29.1777,7.17743,4.6464,29.2176,7.1716
3.22028,0.054149,7.08418,22.0241,6.54369,8.57903,22.4276,6.41944,8.87882,22.3475,6.34037,6.5052,21.9878,6.70273
8.0063,0.270849,13.2316,22.0556,-2.56725,12.9738,21.926,-3.39612,14.6972,20.8417,-1.54595,13.4496,22.6982,-2.51679
5.82519,0.562424,-6.5873,21.8154,-7.16154,-5.79814,21.9327,-7.55619,-6.91012,21.3117,-7.78557,-6.48298,23.4601,-7.83452
12.9893,0.0845082,-2.0741,34.6928,1.40204,-2.57656,33.8922,3.39034,-1.4118,34.6002,1.78694,-1.96581,33.8009,3.56952
38.425,1.2742,12.5026,20.0083,4.70511,10.2919,20.1933,5.78708,10.1474,21.545,5.50252,9.90754,21.6179,5.87281
0.718962,0.0546693,11.2842,14.7076,-5.90381,11.087,14.5107,-6.04698,11.3639,14.8344,-5.92439,11.5027,14.6503,-5.88737
61.1783,0.0870688,5.34635,24.7807,-5.93117,9.08271,22.7087,-5.89203,9.06939,24.7705,-5.74489,7.68527,25.6374,-5.78468
10.055,0.380999,4.26734,8.14989,6.65418,4.12182,7.45907,7.17837,6.57385,8.04838,6.3033,4.01127,8.56645,7.09876
5.5994,0.565391,2.49005,26.3827,6.14813,3.5832,26.522,6.60068,1.73392,26.8394,7.04842,2.42003,25.2729,6.38997
1.83073,0.458564,12.0465,10.4688,-4.43164,13.267,10.2417,-3.67777,13.2797,10.2811,-3.70573,13.1922,10.1927,-3.7084
1.84104,0.152823,2.97756,15.5328,-6.96321,3.33958,15.7741,-7.07554,3.17818,15.0837,-7.09243,2.8288,15.2862,-7.13373
2.69201,0.260879,12.7599,11.6087,3.55729,13.8561,12.1455,3.45104,12.9296,10.8218,3.60986,12.6979,11.8227,3.92242
31.3351,1.31041,8.97708,29.3741,-4.1916,11.0938,29.3005,-4.12748,8.70884,27.7022,-5.55584,9.69575,28.2995,-4.45025
7.46613,0.0715048,14.889,21.4491,-1.07101,14.9883,23.4004,-1.34085,14.9431,23.6886,-1.57729,14.9142,23.6948,-1.69456
1.80272,0.139856,-7.35834,12.3546,-6.40662,-6.26566,12.1162,-6.63726,-6.18707,12.2951,-6.66683,-6.31095,12.2604,-6.62315
0.00464233,0.0160944,4.974,5.90464,-6.16481,4.9473,5.79094,-6.14523,4.95641,5.85793,-6.1496,4.90535,5.90309,-6.1874
0.056867,0.00266292,-6.54397,24.6711,6.85965,-6.58352,24.5822,6.86776,-6.65326,24.5858,6.84777,-6.64891,24.6269,6.83888
0.664895,0.131967,12.064,19.2327,-5.38014,11.8476,19.2195,-5.80786,12.2342,19.3533,-5.43739,12.0743,18.942,-5.46848
141.843,3.41641,2.4967,18.55,-7.09304,5.94772,14.3431,-6.94939,5.30736,14.3838,-6.95034,4.05889,14.3926,-7.06073
21.0265,0.317074,-10.0367,29.7947,-6.57803,-13.1979,26.4383,-4.81637,-13.1482,26.8434,-4.87698,-11.1478,27.2493,-6.0933
9.93691,0.533269,-12.8289,21.8182,-5.54588,-11.1191,22.6299,-7.00418,-11.2282,22.2461,-6.83705,-13.2159,20.8857,-5.68978
21.6276,0.104876,-4.02679,2.67238,-5.35903,-2.61325,4.11181,-6.25545,-2.67972,4.1195,-6.25394,-2.26393,3.48709,-5.99064
0,0.0177124,12.3396,23.0444,4.77377,12.2594,22.982,4.86947,12.3261,22.9818,4.8457,12.3376,23.0445,4.73999
0.082953,0.0598447,5.65867,30.0163,7.04219,5.73297,30.0928,7.01516,5.87198,30.0941,7.02762,5.67038,30.1544,7.03516
42.9249,0.0933326,2.28864,21.8572,-7.28496,3.7658,23.1195,-6.97457,4.72909,23.0965,-6.77192,3.59188,21.4359,-7.13509
3.72258,0.509768,-1.50765,5.42243,-6.63463,-2.1498,6.1183,-6.51444,-2.17868,6.3679,-6.72688,-1.91922,6.18898,-6.59135
3.32696,0.557989,8.23632,29.1633,6.01944,7.80006,28.7789,6.67074,7.7737,30.0109,6.58834,7.78629,30.2516,6.66143
6.69435,1.03725,-14.7998,25.358,-1.51004,-13.9936,25.2581,0.132841,-14.0109,24.8839,0.311621,-13.9837,25.1751,0.0810003
0.0343867,0.00525628,-12.4216,5.29316,4.9729,-12.4083,5.37952,4.95685,-12.3537,5.30199,5.0189,-12.3369,5.38653,4.99922
4.12575,0.164228,-12.132,8.02927,-4.23917,-12.2222,6.60999,-4.76821,-11.2879,8.11946,-4.51938,-12.3903,8.16728,-4.33433
0.133637,0.0336856,-13.4027,21.7788,4.30985,-13.7439,21.6084,3.99303,-13.7406,21.6574,4.00881,-13.5363,21.6691,4.14864
17.1239,0.477176,-12.2279,19.6347,-5.62083,-9.53613,19.6367,-6.84915,-12.644,18.682,-5.91929,-12.8694,20.2595,-5.99832
0.22178,0.0571767,8.86194,34.4787,0.443371,9.0557,34.4836,0.616405,9.13112,34.5052,0.58691,8.84708,34.4745,0.587365
0.0257007,0.0183927,6.37887,9.1013,-6.4038,6.43706,9.02507,-6.357,6.44118,9.09936,-6.3835,6.37664,9.01158,-6.39341
2.5478,0.283055,5.14404,34.4348,2.72291,5.94732,34.5269,2.26248,5.40789,34.5986,2.32747,4.89551,34.5944,2.11305
0.576336,0.167828,14.5442,6.16207,1.41677,14.3984,5.88835,1.60889,14.4146,5.74695,1.77099,14.3887,5.82036,1.70922
4.01048,1.19019,-11.0628,18.2366,4.4239,-11.6084,17.0767,4.79047,-11.7121,17.1226,4.73991,-11.5324,17.0878,4.87018
0.368741,0.105373,-6.12432,1.05899,-2.90698,-6.28379,1.01215,-2.94726,-6.15121,0.94105,-2.73235,-5.95258,0.85395,-2.6384
1.9231,0.0408643,5.42271,4.78732,-6.05101,5.76507,4.86058,-6.04414,5.65538,4.34176,-5.86718,6.02631,4.68262,-5.91324
8.38178,0.319368,5.63599,13.368,6.49036,5.73612,12.146,7.26902,5.32759,12.6108,7.14767,6.95489,13.1368,6.75872
0.294822,0.0142961,13.0994,33.9149,-0.55176,12.7771,33.919,-0.935948,13.0825,33.8687,-0.670029,12.9475,33.9401,-0.6321
4.94725,0.0222143,13.8216,30.3029,-1.13449,13.816,29.3622,-2.05221,13.8975,29.4666,-1.70088,13.5853,29.9974,-2.23216
13.1993,0.737464,-8.12385,26.7571,-6.25745,-6.78271,28.885,-7.15782,-8.97068,25.7137,-6.93728,-7.76804,25.9751,-6.8876
0.357102,0.0615395,4.93504,20.2952,7.10971,5.07563,20.2054,7.14601,4.84431,20.0934,7.20963,4.78843,20.4148,7.19956
0,0.014911,-7.16875,19.6366,6.96121,-7.11306,19.6486,6.98492,-7.16012,19.6177,6.95142,-7.11746,19.6117,6.98631
2.70263,0.369127,-7.88696,23.2148,5.54222,-7.38804,22.3034,6.708,-7.38518,22.3451,6.68855,-7.60267,22.4255,6.53715
13.1464,0.132619,-8.52805,25.9943,5.40119,-7.42941,26.0023,5.57249,-10.8451,25.7744,4.58379,-9.56015,25.3796,4.89697
12.8035,0.408276,-10.6719,22.3895,-7.14412,-11.9633,20.2177,-6.19925,-12.0439,20.2252,-6.18454,-12.691,20.6916,-6.11786
1.19378,0.00204047,12.7425,2.20421,-2.42659,12.5321,2.20681,-2.47704,11.255,2.62394,-3.24479,11.2428,2.58718,-3.20717
0.00625514,0.00450339,9.14239,9.07699,-6.04562,9.07643,8.99339,-6.08388,9.1325,9.01033,-6.0471,9.07467,9.03974,-6.08475
104.164,0.200139,2.30571,34.8414,-1.1555,3.32264,34.6953,2.07874,4.56691,34.7717,0.0215388,2.12269,34.8272,1.59734
25.1128,0.36423,11.7323,17.9093,-5.38295,10.2444,18.7671,-6.04434,9.81207,17.9793,-6.21023,13.3866,17.4292,-3.79176
10.9869,0.299424,-3.72789,28.9411,5.71198,-4.00117,29.204,5.82981,-2.15809,29.5354,6.61689,-3.89412,26.8509,6.77561
22.722,0.665302,-0.571315,26.6614,-6.54799,1.42045,28.1993,-6.34036,-0.223073,25.7408,-7.16686,0.213652,24.5789,-7.03372
0.257384,0.117408,-15.1025,21.0287,-1.85565,-15.1305,21.1838,-1.70848,-15.0673,21.0239,-1.7408,-15.1013,20.8874,-1.71954
0.231587,0.0346744,-1.87793,22.8563,-7.52626,-1.61019,22.757,-7.49727,-1.72922,22.8991,-7.48803,-1.53022,22.8431,-7.4911
0.448469,0.0470538,-1.43668,30.0622,6.72842,-1.09434,30.01,6.82435,-1.1661,29.9665,6.82183,-1.33424,29.7147,6.89677
5.81332,0.197456,-10.2638,16.3529,5.69003,-10.8293,17.5067,5.44108,-10.5659,17.0295,5.74032,-10.6885,15.9034,5.30169
0.545324,0.138013,-3.67636,3.95341,-5.87988,-3.81518,3.90134,-5.98993,-3.55077,4.00903,-6.09781,-3.52461,3.79618,-5.96952
143.511,0.300781,-0.914616,17.045,-7.62724,-3.30952,14.44,-7.74775,-5.12629,18.0138,-8.041,-4.65344,15.2693,-7.97438
0.264884,0.17846,14.9828,21.5,1.09985,14.9178,21.3528,1.27417,14.9162,21.5779,1.26588,14.9036,21.5082,1.26042
5.36732,0.00518621,11.792,11.3474,-5.37198,12.709,12.6378,-5.05708,11.8651,12.6558,-5.53407,12.1215,12.4837,-5.36254
4.74233,0.00430369,1.66454,21.1291,6.45455,1.68454,20.4593,6.89795,2.03877,20.3221,7.33319,2.13639,20.6665,7.21516
2.12781,0.177257,14.254,5.12753,-1.82606,13.2561,5.61849,-2.83169,13.6275,5.50308,-2.54287,14.6978,5.18598,-1.10627
2.9123,0.0742569,0.352934,1.70128,4.20072,1.15496,1.67584,4.54926,-0.0607936,1.56458,3.97563,-0.306254,1.96164,4.69439
0.00170417,0.013748,2.86081,4.81847,-6.2953,2.79354,4.85084,-6.3185,2.79197,4.80771,-6.31075,2.87183,4.88088,-6.32005
5.06308,0.154089,-11.6613,10.3938,-5.23412,-10.0545,9.63732,-5.59147,-10.1813,9.13921,-5.86236,-12.3421,10.5757,-4.9085
0.0377645,0.00087942,-1.14681,32.5014,5.4968,-1.36984,32.6273,5.33724,-1.29677,32.5379,5.44494,-1.14244,32.5339,5.46141
1.95491,0.0644769,-15.0065,16.3971,-1.45958,-14.9381,15.8099,-1.44749,-14.9837,15.8905,-1.10417,-14.903,15.517,-1.69607
7.30803,0.240234,-4.77745,21.9434,-7.677,-4.78357,19.7739,-7.63166,-4.77392,20.9055,-7.78226,-4.00269,21.7423,-7.77279
0.568046,0.0120523,5.08704,6.86508,7.02619,4.79756,6.70301,7.05893,4.93122,6.5486,7.01468,4.73911,7.03961,7.10576
2.05916,0.157603,-14.7318,18.804,2.09933,-14.834,18.8222,2.40138,-14.9195,18.0454,2.01957,-14.9903,19.1911,1.55694
0.352468,0.104491,6.31808,20.9492,6.77366,6.30864,20.8361,6.90406,6.16991,20.9292,6.87279,6.38634,21.0527,6.86451
3.21977,0.950258,8.13342,8.50534,6.01046,10.258,10.047,5.73852,10.4759,9.93494,5.69288,10.4026,9.93998,5.6931
5.19155,0.325231,0.439593,15.5801,7.11149,2.12269,15.9393,7.38071,0.148531,15.8193,7.35628,0.12114,14.5628,7.85174
1.07371,0.236413,-10.4839,19.4514,5.88596,-10.1213,19.7601,5.94179,-10.0469,19.7668,6.01654,-10.1759,19.9878,5.90894
0.183198,0.0432654,1.10181,0.572867,2.06192,0.950876,0.52269,2.02872,0.944048,0.528178,2.0732,1.22424,0.534731,2.09005
0.412013,0.00069726,0.723256,3.10595,-5.79192,1.0074,3.52401,-6.0314,1.07386,3.47866,-6.01294,0.880542,3.10462,-5.80404
2.05894,0.0447482,13.3953,0.97809,0.429519,13.722,1.19119,0.83011,13.8179,1.44294,0.449339,13.9739,1.55416,0.718473
0.744782,0.25475,-14.5916,18.237,0.607643,-14.9876,17.6443,1.27507,-15.0068,17.5033,1.28131,-14.9984,17.4995,1.18185
4.43353,0.0784029,3.92664,26.366,6.57613,3.43586,26.3388,6.51948,6.40943,26.6808,6.27865,6.25608,26.6957,6.33779
0.442183,0.0421955,-0.407997,3.32808,6.15474,-0.545028,3.71056,6.39437,-0.877402,3.66943,6.33398,-0.813312,3.75908,6.38988
9.6049,0.536771,-5.12203,31.7146,4.59121,-5.57178,29.9594,5.64714,-4.16903,31.8226,5.1023,-5.54737,32.1725,5.02782
0.297624,0.126382,-10.9959,8.22474,5.52013,-11.3914,8.32059,5.38733,-11.3309,8.31601,5.39045,-11.2674,8.36188,5.40914
3.12705,0.971697,-3.45412,7.36549,6.39595,-1.0527,7.10999,7.08548,-1.55536,7.32227,7.08266,-0.99565,7.13781,7.03006
0.0707168,0.0193892,4.76923,17.2293,-6.99825,4.77674,17.3124,-7.01483,4.84427,17.3097,-7.0164,4.91525,17.1657,-7.02311
7.69975,0.062108,-11.7651,31.23,1.46814,-11.77,30.9464,1.319,-11.5256,32.2646,2.95689,-10.8984,31.0482,2.76987
57.2084,0.457476,11.3843,26.2439,4.41276,13.4798,26.8526,3.68059,10.6887,27.2023,4.92748,11.5077,24.0865,5.72428
0.368831,0.185123,10.2603,9.10605,5.67698,10.2114,8.95865,5.83201,10.0685,9.05178,5.8142,10.2728,8.95222,5.8457
1.78704,0.025383,-7.36022,12.401,-6.41031,-8.66283,12.5561,-6.20916,-8.00889,12.3697,-6.28211,-8.53063,12.4136,-6.18336
2.31778,0.0481406,0.186887,13.134,7.04201,0.418421,13.0744,7.03302,0.180417,14.0462,7.83248,0.0243943,14.0623,7.86095
0.43888,0.00682045,-13.8894,32.6651,2.5264,-13.8405,32.3584,2.6754,-13.6996,32.4506,2.72664,-13.7091,32.3199,2.76832
6.17513,0.0490044,4.01804,0.555046,2.17865,5.14833,0.477962,1.99448,5.73661,0.311272,1.56206,4.83867,0.322383,1.40246
16.8756,0.212663,10.2033,15.3224,-6.4862,8.98466,17.6226,-6.42684,8.74132,16.6574,-6.76181,9.33064,17.8133,-6.27613
12.5112,0.163753,9.45671,30.7356,5.59799,8.09417,30.3035,6.51708,8.6178,31.366,5.79663,9.79246,29.8666,6.09184
0.038727,0.00816783,-10.2345,17.4711,6.02666,-10.1693,17.5579,6.03048,-10.2315,17.5161,6.01447,-10.0956,17.5639,6.07329
10.6944,0.297885,-12.7323,15.058,3.9018,-13.3298,13.9395,3.91243,-10.8062,15.1907,4.85722,-10.9027,14.7205,4.77983
7.48944,0.201759,4.01192,24.4495,7.04885,5.47913,24.2519,6.9207,5.03275,23.889,7.08088,5.15136,24.6897,6.94276
6.35051,0.742893,-7.40688,25.0512,-6.18829,-6.37888,23.7253,-7.70466,-8.40219,25.204,-6.72394,-6.71205,26.0672,-6.77398
2.32211,0.248066,-2.60163,6.25316,-6.73252,-2.93791,5.41869,-6.58815,-3.08169,6.65912,-6.6285,-2.88123,5.23313,-6.5704
6.20345,0.0242741,4.02143,32.0832,6.04293,4.23955,32.6802,5.45599,2.49402,32.1541,5.90406,2.39594,31.9134,6.12705
1.9828,0.122775,5.25651,30.1913,-5.5819,5.79146,30.1142,-5.30512,4.63025,29.9871,-5.62777,4.55761,29.8484,-5.64729
3.41217,0.611117,8.94707,22.2935,6.30908,10.7936,22.1394,5.11296,10.0898,22.0097,5.80083,10.575,22.2012,5.45149
0.028932,0.0391745,4.49467,3.8623,-5.8132,4.49217,3.93854,-5.82974,4.575,3.94484,-5.85892,4.50788,3.98482,-5.87806
0.0792258,0.0334969,3.56549,12.3965,-7.02515,3.27231,12.4073,-7.03142,3.49738,12.4451,-7.02729,3.21522,12.3657,-7.05339
5.33687,0.0882796,14.4128,13.6383,2.45901,14.6836,13.1299,1.64627,14.46,14.1209,2.81847,14.2781,12.1862,2.59618
2.14176,0.309047,-6.13169,3.65373,5.24699,-5.72516,4.20526,5.59312,-5.58773,4.33474,5.81231,-5.16793,4.1003,5.74506
8.2215,0.0881711,-14.7405,19.8561,-1.73783,-14.1168,20.5423,0.0649974,-14.9365,19.3986,-2.40714,-14.0805,20.6961,-0.314647
0.795107,0.107932,5.64516,13.5286,6.61736,5.11168,14.2971,7.47708,5.17092,14.138,7.35688,5.25418,14.1642,7.32341
2.75012,0.376959,-12.7108,24.2695,2.75606,-14.1005,25.0012,3.37915,-13.6816,24.8775,3.3059,-13.9717,24.8521,3.35759
3.56079,0.965559,14.1408,28.9759,1.85165,13.552,28.4482,3.30526,13.4832,28.5455,3.37067,13.5406,28.6048,3.34499
6.75599,0.200224,11.6233,26.581,-4.59376,10.3616,24.8638,-5.03611,10.1074,24.3614,-4.82547,11.8907,27.4004,-4.32954
0.794494,0.0365498,-11.466,6.88606,5.38578,-11.0711,6.55275,5.47656,-10.9837,6.87925,5.5082,-11.1879,6.96991,5.44072
1.76459,0.272334,-14.2846,12.6561,-0.0475814,-14.2904,12.8478,0.661248,-14.2635,12.7812,0.605704,-14.2492,12.614,0.597195
0.309732,0.0175282,-9.9674,13.6793,-6.61013,-10.1986,13.7506,-6.54806,-9.90064,13.5343,-6.62563,-9.9897,13.4992,-6.58043
0.0931482,0.0334089,-7.09042,13.2503,-7.34557,-7.13816,13.3828,-7.37185,-7.24033,13.3518,-7.27834,-7.07692,13.337,-7.37603
0.591296,0.0013426,10.62,12.8446,6.25744,10.8277,12.7332,6.20775,10.5818,12.2607,6.34663,10.7225,12.2454,6.30423
0.994176,0.292964,-0.0791734,30.8315,-6.17698,-0.320393,30.4235,-6.48798,-0.348019,30.494,-6.39826,-0.554362,30.6338,-6.39842
0.979765,0.0153452,-6.38736,26.5993,-7.02872,-6.87201,26.1233,-6.788,-6.71446,26.1112,-6.78855,-6.78456,26.2864,-6.8731
13.9405,1.05224,11.1788,22.1274,4.64782,12.2691,21.5914,4.81281,11.9726,23.9016,5.32358,12.1897,23.0841,4.86802
0.668401,0.163811,11.6108,32.1584,-2.7766,11.5111,31.9161,-3.16006,11.5023,32.2281,-2.97692,11.7842,32.0732,-2.96233
0.0392476,0.00115865,10.774,6.61123,5.68515,10.75,6.52961,5.68568,10.8122,6.47386,5.66315,10.8782,6.47,5.64297
0.21335,0.0150307,-2.82444,4.76076,6.58144,-2.68152,4.65549,6.54579,-2.54045,4.65046,6.56666,-2.61109,4.80013,6.61556
2.4166,0.290337,1.19071,18.7686,-6.81978,2.15199,18.6639,-7.08304,1.68136,19.2066,-6.96938,1.02675,18.6748,-7.15768
24.6399,0.220535,6.59431,10.2808,6.65498,4.40929,11.1925,7.46848,6.89162,8.4381,6.56312,7.16514,10.3564,6.77305
25.3598,2.53857,-8.20003,1.68578,-3.44524,-9.97036,3.61762,-3.50188,-10.2476,3.43682,-3.58772,-9.5396,4.23416,-4.67284
3.65289,0.0636122,1.60029,34.8948,-0.937461,1.31244,34.8131,0.509269,1.78124,34.9127,-0.691298,1.46377,34.8092,0.423602
1.5566,0.11796,-8.98005,24.8848,-6.59798,-8.03627,24.7571,-6.78169,-8.26646,24.9246,-6.6905,-8.10568,24.7046,-6.81436
6.93641,0.619712,-14.1037,18.9378,-0.268224,-14.7694,19.5943,-0.011737,-14.817,17.495,-2.58665,-14.5696,18.1549,0.553234
0.121129,0.000773128,-1.0054,3.20571,-5.81278,-1.02204,3.08504,-5.75496,-0.875063,3.20054,-5.86158,-0.975141,3.03726,-5.7537
0,0.0014108,-11.1911,23.3951,5.16821,-11.1509,23.3128,5.24551,-11.196,23.3238,5.21557,-11.1936,23.3637,5.18993
5.69416,0.0511525,-11.4604,9.70408,5.32432,-10.611,11.9412,5.15453,-10.7089,11.9349,5.0824,-10.8942,10.9227,5.34139
0.362119,0.161022,4.71439,14.7974,7.56713,4.58079,14.9803,7.51779,4.58163,15.0306,7.53534,4.50041,14.8993,7.53883
0.00405134,0.0390276,-13.3449,5.63483,4.37864,-13.2793,5.63187,4.45805,-13.3468,5.71004,4.41249,-13.2781,5.67461,4.45323
1.97432,0.399333,-1.45313,21.1517,6.92101,-2.14059,20.187,6.35026,-0.68831,21.1718,7.02445,-2.49711,19.9359,6.08814
242.788,0.133392,-5.39644,6.84453,6.74546,-4.52059,11.7152,7.39125,-10.1182,9.24017,5.80539,-10.0257,9.7529,5.85893
0.428266,0.0641729,-5.324,16.605,-7.96001,-5.4594,16.6925,-8.03751,-5.02013,16.6155,-8.06328,-5.16962,16.4934,-8.01193
3.73544,0.251856,-12.2342,27.8012,-5.45759,-11.7546,27.2453,-5.80054,-12.5889,27.6148,-5.57755,-11.8219,28.611,-5.9923
0.28998,0.17936,-1.46089,34.7149,1.43086,-0.970846,34.6351,1.50684,-1.0995,34.6117,1.46469,-0.975291,34.6224,1.54935
8.36627,0.188757,-9.74784,30.842,4.3061,-10.7645,29.7051,4.03347,-10.7498,30.8724,2.86727,-10.5097,30.7106,3.47555
31.7421,0.400371,0.839321,34.6947,1.7387,2.09095,34.2879,3.15513,2.80795,34.8086,1.66641,2.4969,34.4981,2.69298
0,0.00285795,-8.25635,17.1793,6.72049,-8.32509,17.185,6.70469,-8.26378,17.145,6.71872,-8.32299,17.1382,6.70164
2.21871,0.281225,-11.1561,1.12104,-1.45959,-12.7591,1.37582,-0.870657,-13.0604,1.54979,-0.870723,-12.7373,1.39573,-0.931779
0.0494045,0.0259342,-1.61126,13.6788,-7.55364,-1.7055,13.5658,-7.50602,-1.61079,13.544,-7.52865,-1.53244,13.6284,-7.54618
7.82854,0.846542,-11.7471,3.84903,-2.67162,-10.4562,3.53527,-3.61738,-12.7246,4.45999,-3.8762,-12.3692,2.25947,-2.68755
6.49452,0.209084,14.1738,9.93043,-2.66946,13.1826,10.0911,-3.7448,14.7823,9.36971,-1.3626,13.247,10.1541,-3.65983
14.3973,0.0798392,6.26075,18.0842,-6.86231,6.42018,16.0212,-6.97551,5.89349,17.1171,-6.95459,7.00587,16.3118,-6.97522
3.70603,0.10586,-7.82039,35.0357,-0.800482,-8.08927,35.0037,-0.658773,-7.72483,34.886,-1.75219,-7.4965,34.8174,-2.04901
41.1152,0.785096,-6.20057,29.3666,-7.12731,-6.55989,27.5898,-7.05955,-5.46347,26.07,-7.41437,-4.00151,26.7309,-6.80747
0.239942,0.0580294,2.1874,30.2883,6.88127,2.12391,30.3876,6.91283,2.04564,30.2539,6.93091,2.26163,30.2933,6.94886
3.80616,0.0750018,-5.58758,3.92575,-5.85731,-6.3699,4.75877,-6.10768,-6.53542,4.69321,-6.04742,-5.73144,4.4937,-6.13481
0.155715,0.0461615,14.1942,20.0723,-3.4976,14.4148,20.24,-2.98283,14.3471,20.1392,-3.08724,14.2951,20.2066,-3.22514
2.23134,0.0324605,-9.91808,26.6322,-6.27149,-8.91555,26.4421,-6.74082,-8.98863,26.4978,-6.70755,-10.2899,26.6767,-6.14685
2.33219,0.180551,-10.2208,31.2969,3.47026,-9.07906,32.5934,3.98007,-9.2541,31.9523,3.94056,-9.22709,32.3151,3.90177
0.0794013,0.0154122,0.12078,9.81322,-7.14036,0.177162,9.67475,-7.10496,0.165158,9.59524,-7.0891,0.107845,9.58522,-7.1047
2.91352,0.176924,-3.69894,19.2774,-7.44134,-4.77123,19.3446,-7.42676,-4.7688,19.3885,-7.44008,-4.2666,19.5032,-7.40483
5.38113,0.166623,-12.7724,17.9368,4.53536,-12.9806,19.257,3.43742,-13.0632,19.2179,3.44999,-12.1921,17.2631,4.86741
0.0587972,0.0119528,-12.9044,32.931,2.84951,-12.8928,33.0145,2.81324,-13.0401,33.0211,2.78164,-12.9519,33.0608,2.773
2.76465,0.0848866,-2.08133,8.21165,-6.98447,-1.20322,8.60219,-7.10548,-1.26979,8.47466,-7.06937,-1.15422,8.10769,-7.01011
19.3223,0.980273,0.985363,24.8034,5.96034,0.513184,23.5562,7.39124,4.35166,25.2468,6.66272,0.397911,25.9838,6.66101
22.6062,2.19321,11.8446,28.8435,5.26787,11.716,32.6694,4.56648,12.1687,32.4148,4.25518,12.6398,32.6245,4.16026
1.05796,0.103897,11.1134,17.5383,5.39042,12.4527,17.9692,4.80349,12.0861,18.0101,4.9854,12.4504,18.0515,4.79915
13.8845,0.108935,-4.37562,12.9531,-7.61068,-2.4936,13.809,-7.63849,-2.93667,13.464,-7.65192,-3.12132,14.1151,-7.68929
41.4103,0.458592,-2.81799,34.8048,0.937627,-0.885128,34.8803,-1.40384,-2.13604,34.828,-1.62473,-0.961705,34.867,-1.47528
0.0118777,0.0329442,4.13184,9.73159,-6.72988,4.11719,9.65726,-6.71378,4.21179,9.68275,-6.7331,4.0686,9.68962,-6.73929
19.9255,0.0122668,8.38791,20.596,-6.28344,6.76906,20.1542,-6.55376,6.59639,20.7763,-6.68156,6.98231,21.3546,-6.68308
5.25475,0.165033,9.79986,26.2464,-5.52567,9.731,27.592,-5.3302,9.0891,25.3629,-5.8035,9.47317,25.4284,-5.56162
0,0.0237318,-8.18417,3.3475,5.12432,-8.17339,3.4921,5.20298,-8.16158,3.38978,5.1306,-8.16516,3.44326,5.15083
33.8416,0.241959,8.21974,4.13011,5.96715,11.2286,3.52222,5.1163,11.0751,3.2995,5.10522,11.3031,4.15014,5.26065
6.07226,0.64537,-6.76696,18.5345,7.03574,-6.5404,17.4733,7.1141,-6.54394,17.4341,7.1443,-6.01684,17.9588,7.17769
8.10543,0.0304322,-11.4063,10.746,5.2033,-13.2979,12.8736,3.63898,-11.9596,11.6244,4.70891,-13.2492,12.8731,3.67622
13.1585,0.150173,-14.5172,23.0808,-3.0887,-14.8287,24.8007,-2.26653,-14.3854,23.9119,-3.51099,-14.975,23.8922,-1.1005
2.75626,0.0550465,3.03842,11.9319,7.51887,1.68347,12.4463,7.33552,1.60355,12.3563,7.33332,3.15255,11.5273,7.63063
1.63699,0.0132257,-1.81478,27.3399,7.1461,-0.71538,26.9559,7.16571,-0.915605,27.1543,7.18905,-0.924859,26.8699,7.12296
0.227521,0.0118802,-7.91422,30.4437,-6.89744,-7.91557,30.3495,-6.92755,-7.40765,30.5538,-6.86624,-7.40254,30.4703,-6.88192
3.3282,0.225104,13.1128,9.7618,3.6336,13.6602,7.96698,3.50705,13.6415,7.33547,3.66723,13.6878,7.33225,3.58832
11.3396,0.0760562,1.66873,8.29891,6.89336,3.42776,9.48995,7.44492,0.852269,7.21475,6.76544,3.57574,9.90417,7.4774
6.69461,0.0859312,-7.00063,29.3698,6.08341,-8.11669,28.1013,6.08895,-7.86553,29.034,5.94934,-7.71779,28.0562,6.24326
11.4207,0.00688765,-12.4143,24.1927,2.66306,-12.233,22.4699,4.45085,-11.7967,24.5808,4.23787,-12.4183,23.5654,3.08646
0.0532977,0.0294422,7.47384,3.13378,5.8447,7.61224,3.16375,5.82875,7.60712,3.10126,5.80143,7.54352,3.07737,5.82025
16.8411,0.686676,5.88464,29.4223,-4.72546,5.42563,29.3434,-5.56965,7.21205,28.5551,-5.72547,8.03779,30.5421,-4.73645
0.374289,0.0203556,4.1618,28.0105,7.20449,4.50554,28.0784,7.1887,4.71494,27.925,7.1547,4.51801,28.1695,7.19279
20.0823,0.0689301,8.68586,33.1574,4.10992,10.3836,33.6447,3.99072,9.91543,34.1079,3.14185,9.71935,33.0754,4.66838
0.0273247,0.00668494,-6.36011,27.8752,6.52856,-6.21608,27.8312,6.56449,-6.28385,27.8791,6.54735,-6.21368,27.7861,6.5706
7.99252,0.156664,1.11251,11.3584,-6.91718,-0.837861,11.7462,-6.94263,3.0414,11.3378,-6.61465,3.12618,11.4292,-6.61761
0.319963,0.0047007,0.604496,22.8348,7.5206,0.542529,23.0204,7.52041,0.401596,23.0307,7.5323,0.327512,22.9436,7.54372
1.31419,0.164368,-1.64162,0.654612,-1.71632,-1.48267,0.520801,-1.94214,-1.89692,0.46696,-1.52636,-1.3919,0.40177,-1.42385
7.1855,0.441112,8.15786,16.3827,5.75067,7.8342,16.521,6.20884,9.41914,16.9978,6.01167,8.62117,15.2402,6.2914
1.10523,0.0129342,-7.82621,34.0855,2.71494,-8.43399,34.1327,2.47029,-8.7853,34.1098,2.46529,-8.46857,34.2414,2.21004
0,0.00735759,9.7054,8.22207,-5.88362,9.73367,8.28475,-5.92939,9.7133,8.23959,-5.90249,9.81015,8.23773,-5.93482
2.98729,0.00716016,-4.98495,33.7934,3.56712,-4.25933,33.226,4.50527,-4.57448,33.7567,3.69564,-4.73932,33.2425,4.40747
4.31566,0.03937,10.9394,15.7435,5.67828,10.6481,17.0138,5.69888,10.4133,16.7166,5.77946,11.5961,15.8241,5.54859
14.308,0.55859,-13.9728,24.9571,0.44467,-14.9063,23.044,1.05095,-15.0787,22.5623,1.07233,-14.7519,25.9288,0.360564
3.46922,0.142864,-12.3359,32.0206,-5.38379,-13.5557,31.7505,-4.52401,-13.4153,32.1478,-4.51126,-13.524,32.0281,-4.45169
8.96294,0.544727,-11.7723,30.6691,1.18229,-10.6988,30.6508,3.22345,-12.7001,31.0071,2.43313,-11.2839,30.3024,2.09622
8.41324,0.0455365,4.86962,15.9762,-6.96582,5.63958,15.4772,-6.9598,5.05007,14.9951,-6.97911,5.32634,14.8875,-6.96226
0.626192,0.0824064,-0.673413,31.9608,-5.79005,-1.01057,32.6634,-5.35485,-1.07645,32.6563,-5.38905,-1.06592,32.5205,-5.47695
0,0.0528282,-7.90627,9.4745,6.34259,-7.96647,9.52439,6.32815,-8.08291,9.49358,6.14999,-8.10533,9.50914,6.25124
9.18572,0.312157,9.57532,17.0217,5.9553,11.1107,17.4955,5.40282,10.5123,15.7895,5.81266,10.0836,15.7287,5.86254
13.9871,0.165286,7.31648,2.016,-2.97793,8.85367,2.0351,-2.89732,7.5949,2.95139,-4.58322,6.02711,1.92183,-3.47807
0.122956,0.0168442,-10.2846,29.9069,4.34213,-10.0981,29.7758,4.48226,-10.1658,29.7333,4.45252,-10.1467,29.863,4.42351
40.1133,0.0920951,6.75401,34.2806,2.64815,6.64722,33.7222,3.49451,9.78509,33.8939,3.67972,8.36483,33.2374,4.3325
2.15473,0.0932247,-13.6225,20.5123,3.52306,-14.5813,20.6105,2.90875,-13.2161,20.5568,3.66277,-14.4463,20.6683,3.02217
3.74036,0.00893512,2.55279,25.7432,-6.68413,2.09905,24.736,-6.80002,1.82443,25.0282,-6.80546,2.23577,24.8233,-6.77921
0.564237,0.585976,-12.3915,28.6063,3.45068,-12.9324,29.0528,3.83052,-13.0433,28.844,3.85845,-13.0328,28.9307,3.8386
10.1492,0.17803,5.07679,28.0372,7.12338,6.52031,28.9935,7.0184,6.63617,27.9543,6.87803,6.64587,28.2354,6.91455
0.414779,0.0539121,4.63054,31.1651,6.6196,4.34793,31.1419,6.64838,4.46894,31.0132,6.70894,4.40531,30.8928,6.8159
0.718082,0.100647,-13.2913,15.6795,-4.79235,-13.253,15.6734,-4.98526,-13.7037,15.732,-4.48766,-13.3877,15.9847,-4.85688
0.74375,0.0648918,0.856704,21.7414,-7.1311,0.887607,22.0412,-7.2089,0.582339,21.8291,-7.2566,0.862293,21.6402,-7.19029
12.619,0.294392,-6.49097,6.15224,-6.43813,-8.79522,6.57164,-6.10954,-8.80483,6.25071,-6.09908,-8.37957,6.03987,-6.10108
5.21771,0.329222,-3.61858,31.2794,5.0606,-4.05395,29.8363,6.03272,-3.9442,30.1357,5.9293,-3.88774,29.9283,6.07632
12.2436,0.490691,-6.14575,19.2321,-7.21043,-6.41542,18.3542,-7.84979,-6.50046,21.4637,-7.56416,-4.83198,19.3462,-7.44774
0.844179,0.00941147,-13.991,23.3427,3.7595,-14.0294,22.8477,3.8255,-13.9508,22.8532,3.8881,-14.2043,23.3778,3.5932
4.8693,0.0967738,14.4084,3.1011,1.1505,14.1978,2.34802,1.07549,14.102,1.66144,0.500762,14.7008,3.59839,1.28908
0.525213,0.247468,-6.46948,11.1507,6.91436,-6.37648,11.4309,6.95167,-6.5317,11.4262,6.89065,-6.4558,11.4174,6.8972
2.68224,0.127828,-11.7343,28.6922,-6.03691,-10.9387,30.2178,-6.35447,-11.1827,29.5597,-6.20551,-10.8549,30.1576,-6.39403
0.191599,0.0340007,14.1702,12.122,-3.7139,14.231,12.2321,-3.57872,14.3442,12.2097,-3.39449,14.2336,12.3675,-3.60543
4.69692,1.3617,-3.27818,11.9149,-6.7796,-4.84296,12.1089,-6.73455,-4.23576,10.2363,-7.2594,-4.84013,12.0644,-6.71974
0.490931,0.270497,7.80839,15.6743,-6.89262,8.13946,15.3875,-6.83834,8.22566,15.3765,-6.86419,7.92671,15.3954,-6.86504
3.94243,0.0210159,12.3562,4.9572,4.92569,12.8992,5.37595,4.6432,12.3302,4.31025,4.94563,11.6236,4.91284,5.2275
0.623166,0.0567197,-11.2553,18.2971,-6.60908,-11.1631,18.6676,-6.57559,-11.3285,18.7769,-6.5347,-11.2498,18.7701,-6.54211
5.73656,0.207156,-14.2433,14.3082,1.85665,-14.558,13.2249,2.08285,-14.5224,14.2763,-0.0435239,-14.5134,14.3602,-0.0391626
0,0.000381364,-11.1112,3.01131,4.58901,-11.1692,3.05144,4.60936,-11.1704,2.95621,4.55378,-11.1126,2.96213,4.5607
1.14645,0.018924,5.22657,6.83281,-5.71568,6.29994,6.70156,-5.5357,6.32161,6.7967,-5.57559,6.02986,6.71104,-5.57567
3.22059,0.2243,-5.47967,25.9427,5.93148,-4.45965,26.1717,6.31659,-5.88503,25.6669,6.35208,-5.84673,26.0728,6.02129
6.68945,0.7044,-10.4778,24.0221,3.81334,-9.64375,25.3288,4.82255,-10.2668,23.4294,4.5714,-11.6626,24.621,4.25679
4.40148,0.0371941,-3.38701,2.54608,-5.33672,-2.27556,1.94107,-4.95082,-3.17391,2.03927,-4.94806,-2.02382,2.13429,-5.10845
1.0462,0.0861211,4.69981,10.3886,6.90303,4.63665,10.5886,6.98433,4.45815,10.1126,7.10933,5.05257,10.3652,6.88822
0.124778,0.00839129,-7.65063,10.6008,-7.08105,-7.43148,10.534,-7.12705,-7.49857,10.8182,-7.10215,-7.58636,10.8312,-7.08069
8.47165,0.957851,-8.25926,24.0279,4.40132,-7.12977,25.7572,5.60478,-7.86668,23.302,5.52683,-9.88202,24.6674,4.94203
1.8646,0.961854,-3.40684,12.7574,7.10298,-4.90947,13.7561,6.43907,-5.05662,13.7633,6.43033,-4.81831,13.8521,6.50356
9.24112,0.275374,10.7012,7.83846,-4.91861,13.0227,7.52043,-4.03243,10.6341,8.14342,-5.35299,10.5172,6.5081,-4.94224
0.0967548,0.0760709,-7.13779,33.5268,-5.05603,-7.30062,33.5284,-5.07307,-7.10964,33.3499,-5.25178,-7.20227,33.3747,-5.19675
8.59781,0.045111,13.5569,23.8446,3.01133,12.3815,23.1611,4.79232,12.7348,23.2641,4.3544,13.9887,24.3118,1.98993
1.1584,0.0676152,3.21923,33.1524,4.64749,2.89011,33.3773,4.3163,2.88094,33.178,4.5168,3.48833,33.1848,4.88714
1.05089,0.00706946,-2.90934,3.66549,6.11418,-2.5602,3.34143,6.00787,-2.21407,3.63647,6.18921,-2.21398,3.68604,6.21166
0,0.0058733,-0.66049,29.2818,7.06071,-0.662899,29.2418,7.06502,-0.718757,29.2386,7.05408,-0.726865,29.2863,7.05395
2.15316,0.906487,13.2271,6.53556,-3.18308,13.3632,7.48938,-3.52645,13.218,7.42608,-3.68165,13.2958,7.48466,-3.5727
0.134259,0.0939989,-4.234,34.9338,-0.1973,-4.20467,34.9226,-0.295265,-4.03062,34.9408,-0.26033,-4.15366,34.8653,-0.304058
14.4831,0.855949,6.2392,4.25704,-4.99783,5.92716,2.0838,-3.94898,5.41759,3.52334,-4.68967,5.03634,3.27351,-5.25359
0.395703,0.0887896,14.7825,8.4487,-0.722538,14.7915,8.23975,-0.552556,14.8209,8.24469,-0.795973,14.7516,8.31822,-0.644378
29.508,0.3531,2.9437,15.6479,6.73619,3.05841,14.3616,7.11315,5.37794,16.3346,7.01827,4.26265,14.4197,7.63949
7.931,0.21637,10.3318,32.2209,5.06441,11.2075,32.378,4.9117,8.53145,32.1905,4.77923,8.26667,32.4018,4.84426
0.819607,0.0760063,10.9764,16.6277,-6.13883,10.7123,16.6594,-6.31729,11.249,16.6612,-6.11931,10.922,16.8921,-6.24012
0.0303676,0.0129958,5.25266,13.2509,-6.86051,5.30794,13.2524,-6.85638,5.26103,13.3368,-6.88301,5.32438,13.3305,-6.86142
0.0377901,0.0121569,-6.13361,5.02169,6.18984,-6.15043,4.88621,6.13645,-6.07875,4.9824,6.197,-6.21589,4.94063,6.14776
1.59191,0.326697,-0.612243,21.2129,7.03061,1.05261,21.0971,7.19313,0.628819,21.2575,7.18848,1.05559,21.14,7.17501
0.222406,0.0136617,-9.22283,29.6952,-6.85394,-9.21968,29.509,-6.88546,-9.14593,29.499,-6.89954,-9.07125,29.5339,-6.90288
7.08766,0.398016,11.5655,28.0214,-3.85057,11.7235,29.4054,-3.56103,12.4928,27.6604,-3.98109,11.1819,28.001,-4.59863
0.108762,0.0689872,7.99965,13.3711,-6.79233,7.99242,13.2823,-6.77582,8.28817,13.4027,-6.77914,8.05085,13.3299,-6.75305
13.7417,0.905442,11.5448,31.2498,-3.47789,9.6319,30.2795,-4.0912,7.77408,31.1266,-4.40747,8.01479,31.5809,-3.88074
0.40686,0.00234621,-14.7951,28.772,2.17645,-14.6894,28.9045,2.43745,-14.6583,28.8248,2.56795,-14.669,28.7559,2.56812
99.2304,0.224232,5.12628,20.0971,-6.84183,9.16266,19.655,-6.12237,6.19546,18.3234,-6.8362,9.22394,18.6927,-6.31987
3.58803,0.0388354,-6.91844,29.6762,6.0025,-7.04057,29.8502,5.88487,-8.294,29.434,5.385,-8.37707,29.1772,5.47875
0.136071,0.0136831,-5.20924,23.8109,-7.75032,-5.14342,24.0045,-7.68508,-5.2169,24.0084,-7.69281,-5.28931,23.9117,-7.73766
0.0523643,0.0574178,-9.01806,34.9067,-0.320951,-9.01341,34.8532,-0.229478,-8.9134,34.9158,-0.0886134,-8.90082,34.9177,-0.135751
0.836248,0.0241344,10.6008,30.6122,-3.97358,11.2971,30.3073,-3.8849,11.2985,30.4015,-3.86658,10.5316,30.5127,-4.03496
3.04596,0.09892,-5.55062,10.6246,-7.30749,-6.42541,10.0365,-7.26929,-6.64042,10.0068,-7.24141,-6.84848,10.2984,-7.23124
13.6307,0.437429,-5.11319,22.6319,-7.28466,-5.43736,23.1716,-7.77044,-5.34641,22.2089,-7.72357,-2.29368,23.0221,-7.52867
2.8475,0.11757,6.84371,31.1861,-4.66855,7.39815,31.2741,-4.51761,6.26438,30.4426,-4.8581,6.11054,30.6532,-5.03585
1.27289,0.0842988,4.0161,25.3519,6.62495,4.91411,25.2665,6.71768,5.26254,25.2938,6.72081,5.4203,25.3652,6.631
9.52751,0.536247,6.89388,24.1081,5.90227,7.60678,25.1207,6.18007,6.36737,24.4548,6.47667,8.09269,22.5153,6.523
158.056,0.855835,2.83316,15.0443,-7.19514,-2.00904,13.9672,-7.612,-1.29913,15.8573,-7.67416,-0.712984,16.7098,-7.62092
18.3648,0.0410639,12.0122,10.82,4.22932,12.7578,13.139,4.8637,10.7742,10.1159,5.49032,12.6987,12.0965,4.11534
2.22946,0.0823447,-11.6071,32.3096,2.90242,-10.4927,33.1148,3.51156,-11.0542,33.0156,3.24376,-11.1787,32.5531,3.19432
39.7593,1.36429,-0.998663,19.763,-7.44084,-2.11919,18.2945,-7.7763,-3.08596,19.1957,-7.43118,-3.59386,20.883,-7.7659
43.637,0.694817,-6.46853,9.35418,6.67771,-8.68837,10.6188,6.27214,-6.34166,10.868,6.91937,-7.10614,10.7415,6.72567
5.31765,0.0380042,-2.97672,9.84149,-7.22239,-3.96448,9.76067,-7.23116,-3.28517,9.26352,-7.19881,-3.08806,8.93352,-7.17175
0.114508,0.00177417,6.14644,3.97721,6.23102,6.28445,3.87086,6.18848,6.14522,3.87861,6.20453,6.28969,3.96516,6.21519
8.74656,0.263831,-2.69741,19.697,5.97523,-3.73731,19.943,6.56497,-1.1566,16.746,7.75424,-1.42804,17.0268,7.66796
4.11019,0.123528,-8.63266,9.2319,-6.1677,-7.68891,8.82387,-6.35419,-9.99212,9.63151,-5.60952,-10.075,9.59427,-5.59183
6.89122,0.0676363,-2.52591,29.0433,-7.14746,-0.501721,29.7615,-6.83249,-2.11247,27.6932,-7.27386,-1.23252,27.1919,-7.18099
1.15102,0.0918819,14.3242,29.1087,0.82484,14.2772,29.6135,-0.532456,14.2188,29.7047,-0.618497,14.2789,29.477,0.0777221
0.222083,0.00212611,5.26638,0.0910953,0.407382,5.07162,0.062993,0.259044,5.21218,0.0415205,0.179579,5.27812,0.0502223,0.22945
2.86021,0.0117934,-1.63123,18.5527,-7.71519,-0.936185,18.2902,-7.64589,-1.56664,18.08,-7.75241,-0.936484,18.1962,-7.65282
2.34384,0.211032,-12.1917,15.864,4.79477,-11.6069,17.0365,4.82842,-11.7903,16.5128,4.97703,-11.7075,17.0779,4.74965
2.76691,0.274769,12.027,0.654853,-0.788881,11.781,0.571192,0.178449,12.0097,0.620055,0.0372381,12.5881,0.623233,-0.0199677
1.54978,0.00807095,-11.6204,28.7953,3.45345,-10.8366,29.7094,4.0124,-10.6854,29.621,4.11791,-11.4422,28.7967,3.56956
4.20345,0.0234304,-9.53919,10.2196,6.05779,-11.1273,9.66146,5.469,-10.3385,10.5029,5.80241,-10.7238,9.61566,5.61543
0.0716103,0.115343,-8.20513,29.6995,-7.00929,-8.05974,29.5408,-7.04803,-8.12589,29.5279,-7.02369,-8.20653,29.5511,-7.03014
11.2431,0.276979,14.5771,24.9608,-0.124269,14.5651,25.7634,-1.93107,13.9966,24.3091,1.94007,13.9946,24.2306,1.94297
0.102719,0.209851,-13.1761,34.4042,-2.27856,-13.0112,34.5264,-2.1712,-13.0026,34.525,-2.26036,-13.0045,34.5231,-2.21585
0.0200584,0.0202597,-13.1292,8.84162,4.55202,-13.2051,8.78397,4.4821,-13.2709,8.78654,4.41991,-13.3344,8.82304,4.37574
0.0431978,0.0179493,5.72814,31.581,6.41806,5.81634,31.6233,6.34852,5.74734,31.7033,6.32322,5.81846,31.6935,6.30873
2.93628,0.150033,10.5082,26.3097,5.71387,9.20096,26.2704,6.1591,9.25451,25.9041,6.19834,10.8129,26.2477,5.41609
1.03759,0.829976,7.21023,6.67354,-5.42985,6.38116,6.65569,-5.5418,6.39809,6.78891,-5.56379,6.38149,6.70482,-5.51921
29.5608,0.143317,4.44027,23.9334,-6.59967,7.0394,23.7199,-6.10013,0.918976,24.4062,-6.70674,0.116023,24.2199,-6.99763
3.69438,0.44243,-12.8155,26.4665,-4.78088,-10.7735,26.5683,-5.83913,-10.3666,26.6864,-6.1092,-13.3544,25.9346,-5.09114
1.14304,0.0701942,-12.1809,21.7813,4.80007,-12.2432,22.4257,4.46334,-12.1317,22.2734,4.71516,-12.1727,22.4368,4.55979
2.02232,0.0595661,13.435,28.4786,3.40445,12.2583,27.8832,4.22446,12.3217,27.8758,4.21176,12.4305,28.0705,4.0457
1.66514,0.00374226,0.0301811,14.4731,-7.465,-0.678987,14.0473,-7.49672,-0.796792,14.324,-7.54458,0.371694,14.3688,-7.41688
0.144058,0.0805385,5.35473,7.73469,-6.38422,4.9999,7.65966,-6.40665,5.06869,7.73978,-6.39836,5.00248,7.7042,-6.41449
8.04868,0.0256786,-0.910335,11.6621,-6.91582,-1.34803,11.6405,-6.89506,-3.20288,11.9579,-6.78795,-2.59322,10.5532,-7.24833
14.9783,0.0120472,4.63279,32.8772,5.08088,5.69636,31.9957,6.09224,4.64122,31.2962,6.54991,5.10067,32.8623,5.19278
0.100577,0.0119763,14.187,28.871,-1.67249,14.2604,28.5891,-1.67407,14.2181,28.4576,-1.83931,14.2665,28.3815,-1.76457
2.05155,0.0265157,10.9804,28.2969,-4.57205,9.61566,28.406,-4.41595,10.5487,28.4272,-4.5092,9.69363,28.2489,-4.47797
0.0708664,0.0156924,-2.6409,14.177,-7.63267,-2.49444,13.9487,-7.63783,-2.64354,14.0105,-7.6407,-2.56884,13.9487,-7.64365
2.48292,0.282755,6.24143,11.7012,6.71057,6.52653,11.8661,6.97154,5.80973,11.6386,7.0275,5.79678,11.5154,7.0946
0.120518,0.107826,0.119243,2.05241,4.8425,0.258951,2.09008,4.93192,0.182265,2.12346,4.91742,0.107865,2.13728,4.95463
10.8661,0.0933457,2.17962,9.58113,-6.91715,3.17743,10.1849,-6.8571,2.6534,10.8539,-6.90844,2.9306,10.7034,-6.8955
0.913539,0.0109936,6.97848,29.4203,6.94057,6.99529,29.9137,6.91577,7.46559,29.4673,6.84373,7.13342,29.9049,6.88657
3.64143,0.801407,14.7608,16.3601,-1.41406,14.2107,16.8318,-3.11235,14.3796,16.3396,-3.42145,14.1616,16.9109,-3.08953
3.92541,0.207099,-3.63683,8.38958,6.641,-1.8786,8.15891,7.2722,-3.94363,8.05524,6.74489,-1.86974,8.30095,7.2888
0.599007,0.0217952,-2.81406,0.724976,1.9478,-3.10059,0.771455,2.10416,-3.09328,0.723864,1.92911,-3.03342,0.78884,2.15114
8.3127,0.267339,-2.07187,24.864,-7.25454,-4.79126,24.7345,-7.09208,-4.08522,24.6318,-7.15705,-1.26492,24.6133,-7.09193
0.22177,0.0407766,10.1409,7.92604,6.04703,10.3576,7.89678,5.95385,10.349,7.76151,5.96308,10.4231,7.80028,5.943
0.0312557,0.00811742,1.37106,1.89592,-4.78306,1.31661,1.88608,-4.80234,1.32603,1.96932,-4.87858,1.38521,1.9776,-4.84094
121.663,0.132559,0.547252,10.2933,-7.13826,-3.00645,7.98702,-7,-2.78626,9.3761,-7.18453,-3.44599,8.81719,-7.16451
10.3275,0.911709,-8.20279,12.2438,6.45668,-8.21321,14.6947,6.17323,-6.79669,14.4681,6.70476,-7.76383,13.1417,5.88872
6.53475,0.197935,-12.7059,30.5081,3.10577,-12.5125,29.6064,3.94443,-12.5063,30.8218,2.52853,-12.5886,29.5665,3.94769
0.123186,0.0188907,-5.73798,31.7522,-6.40135,-5.69896,31.8969,-6.33144,-5.82097,31.8526,-6.3632,-5.7598,31.9013,-6.33062
1.36073,0.0626904,-8.90943,14.5783,6.06538,-9.48455,14.4634,5.13963,-9.48913,14.5549,5.129,-9.05114,14.3368,5.94143
6.32188,0.0192091,1.38575,9.84541,-7.04297,0.706935,10.6069,-7.14335,0.9163,10.7812,-7.13305,2.09692,10.504,-6.99294
3.76102,0.054562,-6.12182,12.2005,-6.62618,-4.57957,11.1899,-7.17307,-5.13222,11.081,-7.2062,-4.90873,12.0218,-6.71434
3.56475,0.0546835,6.37654,22.7453,7.06166,6.51068,23.6246,6.83412,6.68399,23.2243,6.99331,6.21578,23.5466,6.82435
0.0114506,0.0476273,-11.3038,33.013,-5.4335,-11.4306,32.9221,-5.46423,-11.3476,32.9271,-5.4623,-11.3093,32.9222,-5.47039
1.57849,0.5164,8.90036,1.99543,-2.81036,10.4984,1.98063,-2.63552,10.5564,1.93383,-2.59795,10.5134,2.01806,-2.69498
0.291768,0.0642559,-2.16144,23.2488,7.38939,-2.16755,23.1673,7.4385,-2.0218,23.208,7.46383,-2.31865,23.2679,7.44045
0.425172,0.0149442,-1.77209,2.32093,-5.27986,-1.98684,1.93008,-4.93679,-1.94219,2.17544,-5.13927,-1.82779,1.99651,-4.9928
1.8354,0.303743,-3.4685,14.5586,7.35524,-3.9734,14.2087,7.27835,-4.09902,14.3898,7.24058,-4.00055,13.9471,7.38407
13.2134,0.107701,-4.9821,10.6941,-7.25688,-5.44597,9.79675,-7.25565,-4.85269,9.12824,-7.17536,-4.33554,9.37056,-7.2056
7.23473,1.37514,1.72176,7.11087,7.28042,-0.0356162,6.14352,6.69902,0.0698015,5.63237,6.96815,-0.104648,6.19352,6.68913
8.18307,0.607347,14.7349,19.8505,-0.125279,13.9645,18.6928,2.47962,14.026,18.8676,2.4477,14.1744,18.801,2.06673
4.47666,0.0337329,13.3724,7.57552,-3.55502,13.4399,8.48729,-3.89406,12.9412,8.22116,-4.30232,13.609,8.9385,-3.89752
0.509739,0.189292,8.05877,9.58519,6.62152,7.69031,9.57627,6.71427,7.76842,9.75011,6.68001,7.76874,9.79942,6.69197
0.078479,0.110429,5.26601,33.3791,-3.6566,5.54582,33.4147,-3.6118,5.54474,33.4649,-3.59629,5.53936,33.3662,-3.63129
3.07514,0.17505,7.35217,3.68915,-4.68537,7.98073,4.43448,-5.00052,7.5301,3.04211,-4.62868,7.07093,3.49388,-4.85994
19.7321,0.059371,1.86025,14.7096,-7.32946,1.10953,13.2725,-7.36065,0.583727,13.8033,-7.41797,0.620083,13.3848,-7.39484
0.342978,0.0267531,-12.6116,26.8769,4.46207,-12.6606,27.2463,4.47082,-12.6056,27.1045,4.46603,-12.7347,27.2533,4.45281
0.130981,0.00813469,-10.2766,33.9138,2.50601,-10.3609,33.8145,2.65881,-10.2476,33.7884,2.75882,-10.3109,33.7612,2.78949
1.02765,0.119276,-9.79958,12.9101,5.71201,-8.77985,12.9932,6.31197,-8.71688,12.9478,6.34977,-8.99785,12.8554,6.23367
1.2648,0.101141,0.389282,15.117,-7.35117,0.193858,15.016,-7.47231,0.749651,15.0909,-7.41021,0.361511,15.6071,-7.4732
1.88798,0.2575,-13.5221,12.8636,-4.36627,-12.1009,12.7986,-5.10519,-12.1879,12.6725,-5.05747,-12.1844,12.7689,-5.04729
5.02551,0.033569,-7.86885,3.00429,-4.3216,-9.00058,2.88067,-4.04547,-9.02005,2.6232,-3.89165,-7.21606,2.96248,-4.35271
5.10303,0.0165007,-1.32266,26.6912,-7.17015,-4.86375,26.6613,-6.70219,-4.44288,26.5782,-6.77218,-3.78499,26.7117,-6.84398
2.82357,0.355123,-13.4679,13.3401,3.3206,-13.4844,14.1164,3.87954,-13.2423,12.9151,3.66385,-13.9777,13.2657,3.5348
33.5116,0.475305,-6.79035,20.9966,6.26297,-11.326,20.555,4.6654,-3.46542,21.0004,6.64553,-11.3265,20.5986,4.64952
2.25681,0.0269416,-5.73031,12.9083,-7.53273,-5.96762,13.5446,-7.68782,-5.60761,13.6064,-7.73764,-5.9591,13.6327,-7.70948
90.8736,0.993373,-7.11684,1.71965,-3.06073,-3.60363,2.51598,-5.32073,-4.9115,3.53828,-5.76945,-6.97837,4.19261,-4.98871
0.181915,0.0151427,-6.0062,32.9418,-5.57131,-6.02243,33.1043,-5.4212,-6.17478,33.1737,-5.36987,-6.17024,33.1227,-5.41085
1.45365,0.0617791,-11.4713,5.68165,-5.10824,-11.2687,4.69111,-4.83228,-11.1588,4.85005,-4.9702,-11.3363,4.70275,-4.79924
7.83067,0.125779,6.69633,7.77711,6.11933,7.03042,6.90404,6.57414,9.73011,8.24411,6.1311,8.05653,8.51139,6.0085
27.4849,0.626115,-7.23703,15.2145,5.75325,-2.48705,15.4613,7.01434,-7.51169,14.664,6.23052,-7.86862,16.8922,6.76247
32.352,0.171399,5.21312,20.3839,7.1598,7.32303,19.9627,6.73913,7.60898,21.5186,6.76041,8.71968,20.7021,6.40754
11.4509,0.378011,-11.8268,20.4697,3.92866,-11.3736,19.3342,4.82095,-12.3236,20.4117,3.96473,-10.6923,22.0658,5.71226
1.41617,0.273599,9.03741,0.773806,1.21439,9.23177,0.494034,1.17283,9.13011,0.587325,1.56853,8.65415,0.423747,1.0566
0.324262,0.0712131,9.73759,11.5911,-6.02801,9.52308,11.4982,-6.12301,9.88419,11.7087,-6.10836,9.53402,11.6738,-6.17534
0.519032,0.000425814,13.2358,33.8413,2.24249,13.0051,33.9485,2.2907,13.145,33.7519,2.58306,12.9612,33.7514,2.82991
0.215541,0.000903472,-2.63082,22.1804,7.43373,-2.90618,22.2816,7.4287,-2.97983,22.1992,7.42704,-2.6361,22.0887,7.43228


