
1.05648,0.0166263,-3.47714,16.3062,7.92613,-3.82567,15.9402,7.78094,-3.95472,15.6689,7.61597,-3.13822,16.6113,7.97457
50.299,1.36346,1.9846,29.0631,7.23831,-1.16157,28.1451,7.52203,-0.754271,28.8403,6.74419,-0.0699451,27.3617,7.713
19.2905,0.31161,12.3512,10.5989,5.78325,13.6376,10.2148,5.87209,13.0507,9.46857,6.04993,11.929,9.67398,6.26075
4.9624,0.000745454,-6.31909,14.88,6.64535,-5.97384,15.3173,6.94934,-7.41667,14.6795,7.201,-5.24524,16.4784,7.89158
2.41284,0.00187345,19.9927,7.57894,-3.95626,20.633,7.9474,-4.61302,20.3074,7.77618,-4.61927,20.3688,7.77446,-3.9453
1.39812,0.107923,21.5938,35.8703,3.63334,21.0041,35.3096,4.12784,21.2195,35.2642,4.10885,20.443,35.3374,4.25507
0.00721466,0.0281726,-19.3193,33.739,2.25515,-19.2057,33.6091,2.35895,-19.2272,33.5821,2.35315,-19.3069,33.6077,2.31237
1.33472,0.0437084,9.22646,5.95975,-3.08978,9.68758,5.83996,-3.38123,9.02477,6.08556,-3.14406,9.20883,5.64558,-2.813
0.0879026,0.141831,-8.975,38.0185,1.25977,-8.94269,38.2009,1.32553,-9.0135,38.1888,1.17353,-8.92554,38.2481,1.18052
0.109198,0.0350957,-22.3027,21.1527,4.43682,-22.2391,21.1506,4.45094,-22.2402,21.4379,4.46213,-22.2676,21.5505,4.47638
2.63788,0.150452,-1.41755,14.7061,6.73992,-0.514248,15.1738,7.03915,-2.18508,15.1085,7.22621,-0.51581,15.2736,7.0922
118.52,0.284594,-13.6924,22.787,-7.87956,-10.3807,26.0233,-7.37783,-7.50222,25.3929,-7.49038,-8.62784,26.2796,-7.39054
13.3671,1.31781,5.89669,6.01437,-1.90065,4.46553,6.59333,-2.26556,4.37376,6.48163,-2.14318,4.56221,6.95463,-3.4887
25.0788,0.484777,3.66312,2.96119,-3.41522,4.40846,3.31619,-3.07147,2.13385,3.8196,-3.44147,5.9685,2.13502,-2.21413
26.3993,0.174158,21.2331,9.32898,4.08002,20.1541,8.17232,4.64878,22.5081,10.1787,3.5817,22.8081,10.2445,4.44439
218.383,0.233891,17.6389,32.5519,-6.38363,13.978,34.7418,-5.60808,18.907,35.7812,-5.42368,10.0939,31.2703,-6.79584
0.134501,0.0177784,-11.5475,37.3812,2.80471,-11.4674,37.3133,2.92323,-11.5264,37.1219,3.13406,-11.6446,37.1028,3.13685
47.113,1.39521,-9.08802,0.962996,0.876556,-10.0275,1.26643,3.34981,-11.1749,3.28335,1.35513,-10.8591,2.89981,2.10123
0.163445,0.0583092,6.96052,38.1083,2.27006,6.91067,37.9988,2.61645,7.02148,37.9183,2.78382,6.98562,37.9266,2.76518
2.82988,0.32229,25.4057,18.0777,-1.27101,25.357,17.4491,-2.25413,25.3609,17.299,-2.28079,25.3611,17.9725,-2.12447
58.6751,0.337598,-15.0812,8.74812,4.23137,-13.1629,5.27747,4.52926,-13.5217,5.96121,3.93306,-15.7048,8.71855,5.45328
31.4966,0.121131,20.4013,7.30578,-0.619378,19.4945,6.47454,0.913906,21.7841,8.46196,0.15936,18.5692,5.91572,-0.27774
21.0158,0.521885,10.6512,8.28314,5.29173,13.1013,8.60732,5.88101,11.5429,7.74995,5.22864,9.81633,8.44252,6.56979
7.34197,0.123329,-9.75509,20.8436,-5.86005,-11.9674,21.5323,-7.3721,-11.4636,21.3566,-6.70107,-8.84204,20.3426,-6.08735
3.87698,0.29064,-1.66965,1.39335,3.44938,-1.58643,1.41776,3.99868,-2.26335,1.18982,3.67118,-1.16179,0.710553,2.96291
5.76047,0.483358,-11.3302,21.1577,6.54981,-11.2333,22.3488,7.02911,-11.3137,22.4847,7.07142,-10.189,21.0609,7.0084
7.59738,0.095684,-21.7493,33.9497,-6.50701,-21.5852,32.3722,-6.74432,-20.5111,33.6297,-6.77055,-21.0902,32.4855,-6.84422
1.13961,0.697635,-8.6682,13.0918,6.99892,-9.64228,12.9872,6.61106,-9.5564,13.1098,6.63156,-9.59006,13.005,6.59017
1.58091,0.235919,-15.042,27.3108,-6.6524,-15.3297,27.5939,-6.65466,-14.7016,27.7721,-6.65204,-14.4225,27.8049,-6.69107
7.11233,0.271564,18.2536,22.0094,-7.4479,20.4521,22.8691,-6.92037,20.396,22.9089,-6.93669,20.417,22.2371,-6.97813
0.824256,0.0456232,0.332007,38.1753,-1.1975,0.36615,38.0342,-1.54129,0.643888,38.1355,-1.26409,0.508787,38.0517,-1.52206
6.92216,0.644549,-16.3601,25.0681,4.56059,-15.8117,25.0327,5.0626,-16.8269,26.4917,5.63044,-17.7443,23.643,5.46303
1.81844,0.123078,-14.674,23.4459,6.34135,-15.3008,23.151,6.20461,-15.0441,23.5685,6.12522,-15.1492,22.8065,6.3222
2.45414,0.148872,-0.996448,13.2497,6.47195,-2.91413,13.4575,6.70623,-3.04412,13.5779,6.64642,-2.39927,13.3384,6.64278
0.385242,0.026501,-18.3133,16.4151,-0.0789147,-18.202,16.2528,-0.0340249,-18.257,16.3679,0.341685,-18.298,16.4149,0.341097
2.35269,0.154798,10.3153,25.3313,-7.35238,10.4654,25.5479,-7.42173,10.175,25.8826,-7.41996,10.671,24.6586,-7.58516
25.243,0.00319948,21.4335,8.41324,-5.10927,23.9553,10.173,-4.21395,23.3585,9.69898,-5.45428,20.4355,7.80801,-3.9545
12.9914,0.195542,-6.55343,3.71204,6.02093,-5.01845,3.95121,6.35335,-5.1447,3.44013,6.13938,-5.16204,4.23174,6.40626
2.51361,0.00775821,-3.93207,0.180243,0.280201,-4.63328,0.561007,0.481418,-5.02419,0.709694,0.77724,-5.08291,0.715578,0.873487
154.106,0.270377,13.7856,6.57705,3.79606,18.5605,6.16807,3.82944,16.3796,6.33668,4.35488,11.52,5.78907,0.894291
60.5885,2.08209,10.1978,36.5865,4.44439,9.15688,33.1269,6.42944,9.80016,33.701,5.35779,11.8153,33.8125,5.00461
12.832,0.201207,20.6873,37.3033,-2.71957,21.4653,37.6318,-1.36352,21.1781,37.5498,-0.198965,20.4254,36.8309,-3.82049
0.263629,0.0683131,20.5932,27.5653,5.40022,20.5867,27.7063,5.40106,20.7921,27.7013,5.30046,20.7807,27.8018,5.24159
2.59208,0.104175,14.9183,14.6784,4.91451,17.69,14.172,5.70121,17.8294,14.2791,5.75087,17.9131,14.0097,5.7692
6.865,0.463788,14.6486,24.0719,-7.65599,12.9771,24.3771,-7.6541,13.1882,24.6105,-7.6432,13.5273,25.1412,-7.58351
0.443703,0.0971885,-10.1875,21.0175,7.01802,-9.55827,21.0179,7.10178,-9.34851,21.0708,7.07508,-9.84464,21.0928,7.08257
0.0133151,0.014527,-10.4009,33.2375,-6.29176,-10.4257,33.2115,-6.29062,-10.4455,33.2394,-6.2893,-10.438,33.1593,-6.30832
14.3989,0.856326,21.6894,9.267,2.69553,20.8024,8.78631,3.53461,20.7283,8.59844,3.05784,20.9744,8.03779,1.76911
0.429773,0.0271549,9.07629,38.1445,-2.29292,8.92252,38.156,-2.33212,9.06399,38.056,-2.61617,9.1212,38.0698,-2.58127
6.04378,0.273404,24.8478,29.2153,-2.7718,24.8815,29.9642,-1.77866,24.9591,29.5629,-1.20718,24.194,28.5748,-4.07405
12.0665,0.00938255,-2.19434,33.4018,-6.14793,-2.46824,33.6298,-6.01991,-1.80062,31.2593,-6.92589,-2.28978,31.076,-6.91639
96.4565,1.16831,3.22183,14.2811,-7.05529,4.81374,11.6087,-6.79034,2.91772,10.9865,-6.56729,5.16717,11.8175,-6.88406
75.7816,0.035899,12.4763,5.21857,4.98063,8.62743,7.30719,6.56723,12.0763,6.67084,5.75001,11.1964,4.08791,4.53386
47.0503,0.0100299,13.2575,23.3083,-7.77052,11.1549,24.4979,-7.62786,9.4063,23.8172,-7.64252,10.0404,22.8443,-7.72846
16.2563,0.169999,17.183,17.0796,-7.3452,20.6037,21.3586,-6.92178,17.6863,20.3656,-7.48966,17.6204,21.1092,-7.51945
1.79313,0.0335635,22.6667,35.2451,-2.56248,22.7598,35.7388,-2.66627,22.8799,36.0105,-2.94605,22.7772,35.5964,-2.88057
10.4899,0.833369,-2.70439,20.6924,6.70373,-3.45483,21.2043,7.63878,-2.67571,19.2074,7.26036,-1.4255,19.5221,7.34903
36.9464,0.302238,-16.6858,16.548,-2.34845,-15.5911,15.6391,-1.79022,-18.0885,18.4722,-2.71274,-17.6861,17.2481,-1.96058
4.06084,0.322512,-13.1977,14.6651,-4.63522,-14.2301,15.3433,-4.47916,-14.349,15.5986,-5.03782,-14.3313,15.6059,-5.17321
3.90102,0.266849,0.337513,9.43783,6.88866,0.49609,10.6668,7.47099,1.26727,9.1714,7.13055,-0.0068444,9.18743,7.09009
69.1681,0.865901,-2.85697,3.15163,4.25838,-4.26974,2.18216,4.22244,-0.770987,2.03253,4.247,-0.364105,3.36684,6.47417
9.95017,0.346295,-5.48003,9.15476,-3.65086,-3.99109,8.15802,-4.05171,-3.50481,8.58099,-3.64102,-5.47623,8.08309,-4.64562
0.0633414,0.0472608,5.78448,38.3741,0.623796,5.66114,38.3605,0.60422,5.78962,38.3835,0.552757,5.67537,38.3363,0.566612
0.0797069,0.0818203,2.04702,38.0513,2.28359,2.14603,38.0846,2.15316,2.14043,38.048,2.29415,2.14776,38.0541,2.23425
0.82184,0.0245778,-9.6391,30.7767,-6.84498,-10.2046,30.6691,-6.88763,-10.6279,30.7707,-6.88474,-10.762,30.9204,-6.87329
16.3966,0.01183,-1.25347,10.2217,-2.89773,0.391931,9.55106,-2.37055,0.275859,9.98505,-2.42683,-2.42141,11.3033,-3.32164
117.685,0.271317,-0.925406,38.2968,0.359187,-5.02957,38.1204,1.53274,-4.33871,37.718,3.03521,-1.17779,38.141,1.88353
159.697,0.0434898,-19.8697,22.4099,-7.63732,-13.7003,23.0772,-7.84478,-13.778,24.2384,-7.72346,-17.8182,21.3875,-7.86239
33.6274,0.100657,-4.04741,32.0482,-6.7281,-5.63953,29.844,-6.92347,-5.93402,31.0192,-6.7924,-5.31289,31.7912,-6.68696
1.8679,0.0194152,9.98755,9.31447,6.65213,10.7423,9.67307,6.70631,11.1553,9.80411,6.72495,10.7701,9.3842,6.60599
11.3724,0.208663,-20.0102,27.3754,-7.00507,-19.7387,29.1346,-6.93441,-20.5037,29.4184,-6.97132,-21.4873,27.763,-6.85385
2.82825,0.00534426,-7.37679,4.65687,6.08586,-9.91367,4.55285,5.76131,-9.91362,4.5078,5.77223,-8.28537,4.54351,5.99163
2.72774,0.228403,2.15082,21.0619,-7.76763,2.79027,21.0435,-7.99544,1.67798,20.8663,-8.00623,2.09697,21.8572,-7.96085
0.183105,0.0435037,-16.6319,34.5927,3.36491,-16.9998,34.6014,3.2434,-16.8809,34.4689,3.2861,-16.6922,34.4953,3.37599
7.99855,0.383547,-18.3113,18.6988,4.56583,-19.126,16.2463,5.73281,-17.9587,18.7163,4.79238,-18.5964,19.2008,5.17889
6.77142,0.362169,4.31522,13.3062,6.65803,4.3429,13.8699,6.73923,3.94054,12.9678,7.31979,6.58098,13.0682,7.02797
7.14235,0.0340523,-7.20614,17.0577,-5.22646,-5.99935,17.0658,-5.51828,-7.19459,17.5263,-5.42829,-6.15987,16.4945,-5.18467
8.01471,0.173279,2.94889,10.5264,7.48883,1.42353,8.65243,7.01962,4.77993,10.2203,7.2285,1.84492,8.62749,7.00795
9.41591,0.530302,-15.4481,18.6325,5.74442,-13.9205,17.0091,6.68464,-13.5222,17.2631,6.68808,-14.6435,19.7202,6.20455
3.4967,0.056805,16.4719,38.1544,0.896607,17.4752,37.8664,1.5561,16.4919,37.9047,1.95511,17.1215,37.9119,1.52244
0.467168,0.00970164,1.26636,36.5252,5.50403,1.11885,36.6738,5.33229,1.38157,36.768,5.2472,1.19099,36.7897,5.20409
2.22919,0.255916,-6.17696,11.0497,-2.43812,-6.8406,11.2653,-2.9886,-6.85439,11.1913,-2.97664,-5.77646,10.9719,-2.56082
7.36615,0.085389,-3.13658,15.0864,-5.39383,-4.35171,14.2603,-4.99204,-4.27924,14.2194,-4.96906,-4.6057,15.0074,-5.42629
2.94428,0.0284563,2.98917,35.8245,6.09867,2.70258,35.0878,6.53671,2.49362,36.09,5.90878,3.4024,36.0176,6.06976
3.38926,0.0210987,18.0328,5.81644,2.45129,18.5922,5.92675,2.42812,18.9316,6.04463,1.7926,18.7833,5.93005,2.68281
7.05209,0.0843835,-21.4415,20.1154,0.865483,-20.7401,19.4977,1.35553,-22.0218,20.5011,2.42774,-21.7377,20.2873,2.43902
7.08286,0.561534,-13.9071,31.5727,4.48262,-14.1412,32.776,5.23008,-15.1684,30.5504,4.93693,-12.8248,31.3812,4.99317
7.17222,0.287458,-2.96575,23.4662,7.1173,-2.75165,25.8142,6.36714,-3.03835,25.488,6.45617,-2.91229,25.7978,6.33723
7.55783,0.611607,15.3101,25.8678,5.25775,15.5052,24.8872,5.44144,14.4732,26.2312,6.21137,17.0408,26.3462,5.98453
2.86752,0.117069,22.6964,33.1422,-1.52163,22.8818,33.2861,-1.03122,22.6373,33.2535,-2.31366,22.6835,33.6621,-1.59746
0.12696,0.00767049,14.5189,6.85266,5.46833,14.3675,6.80143,5.47176,14.4493,6.61157,5.41959,14.5146,6.66114,5.42051
0.837293,0.0794854,-19.2174,37.7615,-2.49892,-18.9926,37.7602,-1.48643,-18.9753,37.7801,-1.63456,-19.0636,37.7505,-1.49766
2.24139,0.0945082,4.90649,3.16601,6.15297,5.76792,3.26244,6.12598,5.56744,4.05706,6.50594,5.78602,3.86797,6.42172
8.82401,0.589118,-0.876551,24.6795,6.42776,0.175527,24.7187,6.60389,-1.59977,24.1223,7.29887,-1.01254,26.7609,7.73495
84.1683,0.0892016,1.66411,25.0349,-7.68353,7.45211,25.9062,-7.26831,7.02228,27.1167,-7.16714,2.79145,22.4567,-7.97392
3.54191,0.127437,-9.14252,19.1086,-5.78174,-9.83732,18.2834,-5.73227,-10.1119,18.7712,-5.87321,-10.5299,18.93,-6.01047
3.18414,0.0937281,-10.5097,12.2414,-3.75185,-9.80778,11.6526,-3.61689,-9.68557,11.5899,-3.43695,-11.0128,12.4438,-4.0243
9.53971,0.281711,-11.2193,28.4256,6.28311,-11.685,29.9063,5.53458,-11.3885,29.6517,5.57216,-11.4394,27.19,6.46069
1.52476,0.0565986,-13.8937,6.95794,0.619887,-14.0511,7.04255,0.731399,-13.5856,6.57858,0.181671,-14.144,7.37376,0.427039
2.07997,0.118013,-14.5287,37.7438,-2.04408,-14.1473,37.9147,-2.12403,-14.0816,38.0413,-1.70586,-14.7032,37.9123,-1.76819
2.48193,0.0347342,19.9675,7.65676,2.83044,20.4184,8.41895,3.59793,20.1562,8.01715,3.37276,20.4725,8.47354,3.56023
7.5021,0.284325,-3.24876,29.8587,6.14967,-3.77947,29.5425,6.56701,-2.19153,29.8508,6.62658,-1.23577,29.2797,7.06347
5.82443,1.16771,-3.67518,0.213519,-0.27076,-5.62398,0.891189,-0.401637,-5.97027,0.782,-0.527302,-6.12035,0.893993,0.662871
15.6699,0.0466589,10.8263,38.3037,0.831108,11.4866,38.4329,-0.286094,10.543,38.48,-0.750087,11.4848,38.4396,-0.369929
5.36909,0.329027,19.3615,31.9208,-6.45511,21.1201,31.8209,-5.7382,20.425,31.0771,-6.28724,21.3128,31.4854,-5.66224
0.137766,0.0467152,20.8669,25.1659,5.61156,20.7277,25.3499,5.65167,20.8045,25.3512,5.64283,20.9317,25.1744,5.55645
4.8547,0.0818549,9.01589,9.34989,6.73748,9.60155,8.86208,6.04993,10.2323,8.56087,5.78562,8.3806,9.51738,6.83161
51.615,1.27823,-10.6989,33.6788,3.72512,-8.93,32.4205,5.87346,-7.40913,33.0885,6.12581,-7.52712,33.8356,5.91227
0.977871,0.248751,7.00958,1.00478,1.26377,7.4051,0.929097,2.14024,7.48025,1.0133,2.12381,7.26701,0.939161,2.00023
13.2105,1.28829,-1.31762,13.9383,6.54554,-4.60259,13.8946,6.53573,-5.0273,14.1828,6.8058,-4.11532,13.6814,6.54002
7.78198,0.315728,24.887,24.9723,-2.34419,25.0564,24.6521,-3.08786,24.5738,25.9227,-3.46841,24.5831,26.2643,-3.83405
5.83067,0.597888,1.34783,20.9443,6.88179,3.45886,21.122,7.80819,0.661347,21.3714,7.82102,1.25123,20.1362,7.07623
2.37873,0.127015,7.79048,1.30117,3.17937,7.93791,1.34554,2.6496,8.17177,1.34445,3.74824,8.06896,1.38693,3.01962
0.679848,0.107615,-25.0165,33.6745,-1.44581,-24.9663,33.8089,-1.1016,-24.982,33.6616,-1.17496,-25.0576,33.4569,-1.08835
3.31133,0.539058,-2.38676,9.60034,-2.76438,-1.36917,9.55214,-2.61546,-1.5631,9.57949,-2.5205,-1.46492,9.46819,-2.60067
2.75469,0.420434,21.9154,25.3478,-6.05382,22.5576,26.4303,-5.53033,22.3787,26.5104,-5.59772,22.6155,26.6649,-5.53952
3.47873,0.251564,-16.9742,12.1454,4.74763,-16.5185,11.3772,4.33678,-17.0716,12.7469,5.47564,-17.1323,13.1222,5.7078
0.0649093,0.0268627,-17.2725,14.9612,-0.813927,-17.1595,14.9739,-0.660292,-17.2687,14.9569,-0.632591,-17.1569,14.9824,-0.706353
1.80066,0.0056424,-16.4391,29.5473,-6.81331,-16.7581,29.2737,-6.87155,-16.8627,28.7333,-6.87651,-16.8601,28.4997,-6.86967
27.4161,0.241828,11.6539,15.9372,5.81154,13.134,17.0184,6.26583,11.8988,15.2681,5.87041,11.7078,17.7195,6.53289
0.117361,0.0245817,22.1972,19.6553,5.75645,22.1601,19.4785,5.75687,22.2276,19.4314,5.74613,22.306,19.4372,5.72773
3.06791,0.165136,-7.81924,15.1702,-4.32179,-6.56788,14.2726,-4.07284,-7.95419,15.2992,-4.54629,-8.29706,14.6745,-4.46261
24.908,1.97469,-6.55583,31.2113,5.93258,-8.42497,30.2655,5.47973,-8.84974,31.391,5.43147,-9.21257,31.6813,5.75762
36.9271,0.0553783,6.24843,38.2221,1.39804,9.60778,38.2722,1.52972,8.7888,38.3133,0.774422,9.25965,38.2963,1.08836
8.49349,0.257661,11.4385,23.824,6.02023,12.5495,22.9959,6.53481,12.5374,23.295,6.38747,10.8138,22.9042,6.87829
0.493898,0.106676,-15.4754,15.1064,0.123053,-15.8751,14.9781,-0.00690598,-15.9445,14.9859,-0.0284781,-15.9187,15.1717,-0.161758
3.39364,0.234382,-1.04316,8.94072,6.80852,-0.103698,10.0497,7.29702,-0.59252,8.40035,7.02009,-1.45899,8.80894,6.98449
1.70586,0.0371687,17.2619,31.3268,5.54122,16.6231,31.3433,5.28157,16.063,31.2315,5.01824,16.0709,31.1407,5.0222
1.01733,0.0825271,0.55866,3.00732,6.06225,0.697366,2.8663,6.05979,0.216864,3.00459,6.1812,0.40822,3.26886,6.34193
9.5637,0.182364,-15.1663,13.1381,-0.722792,-15.6522,10.9525,0.173075,-15.2039,11.1542,-0.436275,-15.8829,11.813,0.226994
4.10981,0.0251117,-14.5778,34.9113,-5.69801,-14.3486,34.2268,-5.98087,-13.0643,33.5314,-6.25213,-13.0041,33.8856,-6.12153
11.2101,0.205311,-17.7609,28.1144,-6.96623,-18.9545,28.225,-6.93446,-19.0876,27.55,-6.99079,-19.0261,28.4681,-6.93241
6.97543,0.14422,-8.39593,0.91194,-0.328578,-8.15525,1.0705,-1.73139,-8.04519,1.04983,-1.47522,-8.39116,0.649989,0.296445
21.4293,0.0175175,23.5542,34.8104,2.37556,23.1784,35.197,0.319195,23.021,35.9683,-0.564757,22.8574,34.5688,-1.55652
18.9348,0.0698987,-15.1059,18.7057,-6.40803,-16.2108,18.0994,-6.63077,-15.3054,19.6114,-6.74154,-14.6456,17.241,-6.02647
34.365,0.391449,-9.68558,4.35906,-3.85661,-10.3616,5.78744,-3.51286,-11.7753,7.66009,-3.34588,-12.2983,7.11548,-2.61453
2.93569,0.0211037,22.979,14.692,5.35976,22.2915,14.5403,5.52548,22.3726,14.4003,5.49861,22.1995,15.0514,5.56659
31.9765,0.0785487,16.33,8.33247,5.66005,17.843,8.73973,5.59653,18.2688,8.65531,5.52455,17.44,7.09794,5.39212
2.7895,0.108626,23.8042,13.9913,-5.07504,23.4959,14.1697,-5.47561,23.7232,15.0289,-5.19803,23.5446,14.9509,-5.36239
0.877014,0.00441181,-0.995722,19.5417,-7.61138,-1.41879,19.17,-7.43308,-1.49113,19.2581,-7.45502,-1.48571,19.5171,-7.54657
1.18265,0.0281833,19.1886,17.5057,-7.02589,19.8236,17.5237,-6.9139,18.7769,17.8537,-7.15586,19.9539,17.6151,-6.92291
7.4907,0.357739,-19.2557,24.7424,4.38997,-19.7928,24.5123,4.61113,-18.0323,23.6667,5.41282,-18.4544,24.9761,5.04151
7.94809,0.377954,-19.0531,18.6875,-6.70979,-18.1558,19.5419,-6.98402,-17.5988,19.3929,-6.79414,-17.6679,19.1174,-6.76908
8.49918,0.141768,-19.3927,19.1002,-2.4058,-19.1859,18.6109,-1.79148,-20.3163,19.2977,-2.15774,-20.5687,19.2669,-1.72962
5.39049,0.551677,-12.3021,26.7127,5.39686,-13.5442,27.1621,6.1215,-11.5091,26.8612,6.11514,-12.3139,25.9157,5.64893
8.21201,0.250839,2.02864,1.37295,-3.79907,-0.662048,1.84389,-4.40177,0.977255,1.16656,-3.56417,-0.256264,2.18965,-4.56212
65.3675,0.127675,-8.50111,28.2285,-7.12466,-11.2568,30.629,-6.92292,-11.3816,30.243,-6.96881,-12.4922,29.2719,-7.13208
0.88313,0.0762341,25.0414,14.3733,-0.423445,25.182,14.7726,-0.567915,25.0558,14.4581,-0.242342,25.1286,14.033,-0.450262
4.5557,0.046074,-18.5199,14.6887,2.78805,-19.4144,14.9649,3.34565,-18.6802,14.2975,3.40019,-18.921,15.1852,2.70041
0.0104937,0.0232453,-14.9344,21.7545,-7.99783,-14.9687,21.7626,-7.97376,-15.0641,21.8389,-8.01573,-14.9991,21.8324,-8.01498
46.5617,0.525397,-17.3423,12.4897,3.17586,-19.9452,15.2449,3.94622,-16.6742,10.6777,2.59838,-16.4362,10.948,1.56827
6.67444,0.0250602,-8.59302,34.1369,-5.82854,-10.9668,34.0328,-5.98316,-9.71429,34.2534,-5.8175,-10.8874,33.7741,-6.08737
2.15629,0.169851,2.06038,19.6293,7.09216,3.40448,19.4045,7.54672,3.89308,19.402,7.64847,4.17023,19.5181,7.70557
1.99342,0.0342406,21.2591,25.3031,-6.42616,21.652,25.5163,-6.21922,22,25.0088,-6.03517,21.9156,24.9689,-6.08795
62.8782,2.21214,-17.0906,17.992,-3.39969,-14.1262,14.5624,-2.28279,-14.0195,15.138,-4.40535,-14.5492,15.0469,-3.61438
1.7503,0.0506619,-13.6211,7.05677,5.57223,-13.8504,7.25605,5.46969,-14.5104,7.34612,5.04199,-14.5048,7.25141,5.05351
38.8765,0.860033,5.17421,37.9603,2.72626,5.39063,38.3604,0.713804,3.54823,38.2634,0.295375,3.55494,38.3332,0.198727
2.57049,0.113057,0.515583,24.4717,6.3892,-0.174814,23.8267,7.55713,0.0350936,23.7914,7.56403,0.0595288,24.2575,6.94543
3.58145,0.152137,-14.6367,29.3313,-6.63771,-13.9899,28.2972,-6.778,-15.3619,28.7423,-6.57191,-13.8469,28.6074,-6.84849
42.2363,0.0394762,7.56859,7.35228,-4.6644,6.19982,8.22642,-5.445,6.1747,8.48793,-6.28269,8.56588,7.38838,-6.62681
0.99262,0.0420449,-12.5463,6.84754,-1.95651,-12.1206,6.19287,-1.70124,-12.6221,6.89839,-2.01675,-12.0732,6.21446,-1.7793
0,0.08647,-5.56303,37.8879,-1.91744,-5.49626,37.7622,-1.97927,-5.50457,37.8164,-1.98677,-5.55709,37.8753,-2.04952
3.16293,0.245942,11.1622,13.1248,-7.17113,11.2403,12.5833,-7.30347,10.7603,13.3431,-7.4487,11.68,13.629,-7.57482
3.7156,0.0915776,21.8568,12.3961,-6.32735,21.1648,12.0038,-6.45594,20.8874,12.3249,-6.47177,21.2308,11.8078,-6.47065
5.80904,0.0462811,18.6083,24.4395,5.91199,18.7148,22.4994,5.88704,18.9816,22.8764,5.83685,19.4232,23.0524,5.74256
5.07922,0.351704,-3.70342,10.0014,-2.47933,-5.78451,10.9138,-2.57504,-3.48444,9.64498,-2.7964,-5.1343,10.6796,-2.70369
16.1583,0.0942778,2.60848,38.3153,0.654545,3.94338,38.0029,2.30942,3.42733,38.3068,0.724484,3.95046,38.021,2.18727
4.97305,0.00614567,8.7808,2.26838,2.75586,9.58991,2.77274,2.35956,8.38098,2.20995,1.93375,9.06272,2.63406,1.57122
1.79477,0.167094,-22.6131,26.8173,3.70569,-22.647,26.3431,3.96761,-21.9127,26.9012,4.0071,-22.972,26.7628,3.81651
0.491293,0.00826057,4.94733,36.0216,6.07924,4.78043,36.3856,5.78613,4.49568,36.3309,5.84339,4.56282,36.3753,5.80309
1.6871,0.0142721,-21.8197,36.0877,-5.52478,-21.8668,35.2932,-5.93507,-21.6837,34.6014,-6.3585,-21.7443,34.5517,-6.36225
1.36899,0.109869,23.3043,31.6001,-1.13521,23.3393,31.527,-1.45567,23.5305,31.6853,-0.890755,23.1172,31.8918,-1.30101
58.9587,0.0996965,23.2812,34.1733,1.36014,22.9652,32.1408,-2.10423,23.6298,32.8878,2.05593,22.9421,33.3889,-0.729499
0.945689,0.327859,-6.86263,0.868048,-2.74339,-7.39514,1.23725,-2.99679,-7.39226,1.27452,-3.03534,-7.48932,1.08357,-2.89849
111.463,1.00936,21.4535,31.3986,-5.36425,23.1405,31.1675,-2.8109,22.8853,32.5597,-1.99348,22.3389,33.3108,-3.48937
3.40158,0.000799548,2.84496,11.223,7.50513,2.37859,12.2074,7.45134,3.48577,11.1132,7.46691,2.64629,11.0309,7.53879
9.27418,0.213781,15.8223,4.71446,-4.06403,15.1737,4.64725,-5.34037,14.8116,4.6432,-4.21246,14.8932,4.5983,-5.00095
1.13025,0.211743,-14.7523,33.4224,4.83455,-15.0785,32.8428,4.77443,-14.9995,32.8058,4.80076,-14.9995,32.7622,4.81729
3.55846,0.077532,6.5054,10.6644,7.10561,5.93037,11.0044,7.10526,4.69272,11.9392,7.2903,4.49438,11.9765,7.31014
2.75676,0.166256,-6.88874,37.8881,-1.21046,-6.58902,38.1031,-0.677069,-6.60894,38.115,-0.478165,-6.89946,38.1044,-0.433343
45.8466,0.09867,8.76072,29.8725,-6.80194,6.81209,27.9084,-7.02215,7.58353,27.1784,-7.09039,10.7266,28.8017,-7.01393
45.7747,0.168385,-22.854,34.2316,-0.146141,-21.9933,32.0447,1.80392,-20.6796,32.6568,2.02703,-21.3393,32.4444,1.84023
10.1422,0.262459,-6.09548,13.9027,-3.82283,-6.58266,14.1947,-4.02303,-4.50273,13.7533,-4.7705,-4.59759,12.7734,-4.35634
0.447555,0.22155,-20.1109,33.2444,-6.77749,-20.2454,33.5334,-6.75734,-20.6008,33.1455,-6.8254,-20.1843,33.582,-6.76177
11.9671,0.376845,23.6036,34.3624,3.30359,23.5226,33.2264,2.14108,23.6726,34.778,2.92364,23.8736,32.1809,2.18829
38.7819,0.118911,-10.6583,32.614,-6.50691,-12.556,33.1507,-6.37778,-12.2337,34.3487,-5.92817,-11.3935,34.1538,-5.91442
0,0.0192914,20.0175,17.659,5.77738,19.9302,17.7313,5.8044,19.9972,17.677,5.76603,19.9459,17.6937,5.79715
0.487032,0.0110807,-12.4408,9.94,6.9071,-12.4298,9.59929,6.78969,-12.768,9.47358,6.69452,-12.7162,9.47641,6.70392
240.57,0.149515,9.60206,30.9339,-6.85288,17.1663,28.5288,-7.20424,14.443,27.4862,-7.35976,15.7759,29.7057,-7.07961
0.25916,0.013797,10.9111,7.61848,6.26196,10.8349,7.76115,6.30507,11.2744,7.65018,6.06523,10.8868,7.81852,6.28653
8.90222,0.460133,21.5808,12.6217,-6.38564,20.7569,13.975,-6.44236,20.4071,13.9695,-6.48113,21.6409,13.7715,-6.2722
4.01472,0.0100776,-23.9933,22.7504,3.33974,-23.3583,23.8178,3.12713,-23.0626,23.7937,3.18147,-22.4471,24.238,3.14435
0.37918,0.153449,15.1934,32.9602,-6.39352,15.3372,32.6504,-6.4851,15.1944,32.6512,-6.49453,14.9881,32.6958,-6.51587
4.59649,0.171908,-23.3072,27.93,3.61062,-22.2199,27.6528,4.11285,-21.9834,28.3528,3.82783,-22.2213,27.7247,4.07035
3.39137,0.109173,-17.1954,15.0873,0.285893,-17.9485,15.6742,-0.995057,-18.1789,16.1092,-0.727523,-17.7662,15.4581,-0.769369
13.839,0.10978,4.68597,4.82579,-2.02593,2.67974,4.5934,-3.47194,4.17113,5.188,-2.30855,3.46097,4.20989,-3.17639
3.77012,1.31323,1.98889,19.6243,7.07334,0.354379,19.6445,6.60235,0.267649,19.7844,6.65642,0.0765997,19.5222,6.79843
4.05629,0.138924,-22.4505,31.2141,1.80105,-22.9579,30.7455,1.89288,-22.3892,31.3742,1.93614,-21.9867,31.1451,2.2716
0.702591,0.069169,-13.2385,34.0327,4.9805,-13.0237,33.9801,5.15634,-13.4528,34.1117,4.95638,-13.5043,33.8987,5.07971
0.0028547,0.00910053,5.28473,38.317,-1.40864,5.28499,38.2839,-1.45757,5.30496,38.289,-1.45207,5.19174,38.3189,-1.42006
14.281,0.365413,-18.1955,16.5756,1.66765,-17.0897,13.6051,1.18908,-17.1952,15.2277,0.993134,-18.2417,16.9108,2.40087
20.6866,0.25662,-19.5805,27.1751,-7.01759,-18.1059,26.7013,-7.13512,-17.9991,24.9241,-7.4529,-17.8064,25.9217,-7.23406
18.1936,0.0805953,18.661,10.6388,5.62803,18.8528,12.137,5.627,21.0309,10.7856,5.4198,21.0134,11.0664,5.43784
2.47597,0.120561,-6.90529,9.67969,-4.272,-6.61038,8.86973,-4.7264,-6.26663,8.8244,-4.51211,-5.92835,8.93597,-4.20537
7.21725,0.0752355,24.1965,12.1153,-4.46132,24.5462,11.437,-4.10855,23.758,13.8242,-5.17923,23.881,13.9513,-5.00039
5.23322,0.263387,-12.6643,5.0349,4.48378,-13.449,5.21711,5.36748,-12.5715,4.50994,4.31505,-12.4311,4.05755,4.79642
113.688,0.0177243,10.6711,25.5328,-7.48267,15.8396,26.899,-7.39158,12.1281,28.7424,-7.17666,15.1338,25.7489,-7.50645
0.157438,0.00170059,-12.1626,37.7908,1.85012,-12.2533,37.7549,1.90784,-12.1106,37.8998,1.48704,-12.1531,37.8907,1.48949
5.16569,0.493051,-21.1941,26.8135,3.7818,-20.3549,27.2575,4.58976,-21.9134,26.9962,4.05275,-21.3436,25.5801,4.26409
3.40607,0.513587,-3.05438,9.72964,-2.06409,-2.4175,9.48527,-2.69738,-2.42378,9.14312,-2.87008,-3.36624,9.71772,-2.68026
422.514,0.0115916,3.89087,26.7486,-7.30107,-3.48536,32.1336,-6.71778,-5.77957,29.2725,-6.96751,4.57274,29.056,-7.07786
3.95494,0.0299069,-22.0759,36.6994,-3.54843,-21.9083,36.6446,-4.57884,-21.6579,36.8958,-3.08701,-21.4022,36.885,-3.69891
1.68479,0.0540343,-4.89644,21.6533,-7.81368,-5.65945,22.0985,-7.77564,-5.52289,22.3817,-7.76662,-5.94069,22.1001,-7.7843
7.32611,0.0638264,-15.8372,36.2125,2.69606,-15.2986,35.7982,3.19357,-16.5749,34.7359,3.32426,-15.8615,34.7544,3.56882
1.09534,0.726797,13.6341,7.49167,5.69847,14.7284,8.19363,5.6462,14.7344,8.04757,5.60115,14.8058,7.96031,5.60952
29.5145,0.129106,23.4629,23.8023,4.10989,24.9413,23.6241,2.45776,24.8556,22.187,3.02321,24.6934,21.8002,3.31861
6.29342,0.0483749,-16.0368,32.4096,4.65691,-17.0415,32.3311,4.21417,-16.9944,32.6416,4.09081,-16.6615,33.0667,4.03464
56.8221,0.00470183,22.453,14.0754,5.45145,23.2751,12.848,5.05994,21.5651,11.2247,5.37037,23.195,11.589,4.93464
5.76273,0.456678,8.93405,2.34245,2.92128,10.5627,3.1988,3.8971,10.1406,3.21832,2.47895,10.132,3.24092,2.38985
5.32984,0.249308,13.7218,14.9101,4.74693,13.6908,15.8678,5.86703,12.2981,13.0816,6.28284,14.0058,14.883,4.77642
19.2264,0.217518,-13.6385,6.13976,1.89313,-13.9774,6.92581,0.73554,-13.4644,4.94629,1.96667,-14.6964,7.94326,3.2294
7.53558,0.0465973,21.6092,37.2254,-3.05657,21.3334,36.2507,-5.09515,21.4858,36.3181,-5.03594,21.865,37.4299,-2.87511
35.7458,0.781599,18.023,35.957,-5.16811,21.1032,36.8929,-4.00081,18.8154,36.924,-3.93685,21.1706,36.8854,-4.00546
23.438,0.653556,8.27622,7.00599,-4.69242,10.4977,5.96816,-4.16795,10.4581,6.39302,-5.52814,10.2879,6.4329,-5.20645
5.31056,0.0616592,-12.5196,4.65483,3.27851,-14.1613,6.7042,3.35462,-13.7462,6.23153,3.61301,-12.8784,4.99195,3.17574
8.69777,0.0533336,10.2033,38.2213,1.96393,11.7721,38.2899,1.14141,11.3035,38.2249,1.68856,10.9564,38.2749,1.05747
3.74079,0.300213,-18.2056,17.0012,2.65503,-18.785,16.764,3.18046,-19.0488,17.9179,2.84192,-18.7249,16.6735,3.13944
9.2562,0.120182,-22.0842,34.994,-0.766456,-22.4309,35.6134,-1.57989,-21.4579,34.4049,0.728581,-21.5964,35.7741,-0.910347
42.854,0.449162,3.12068,29.7406,6.36287,7.30841,29.7175,6.52268,6.77656,29.221,6.80458,2.4806,28.9597,7.28904
2.76041,0.189059,16.264,5.11382,-1.30063,16.0724,4.91695,-0.93683,16.7753,5.04771,-1.3055,15.9756,4.81718,-1.48991
19.9738,0.355987,6.59714,31.4439,-6.676,9.04531,32.3308,-6.58832,10.0052,34.4718,-5.96946,9.82285,35.0593,-5.67658
2.42764,0.0563543,0.438444,10.2925,-3.79084,-0.404401,11.7166,-4.24767,0.147072,11.0634,-4.15837,-0.289692,11.6755,-4.28442
10.6804,0.0112823,24.8361,11.9792,-3.38761,24.7152,11.3306,-2.30833,24.7515,11.5683,-3.65215,24.893,12.0443,-1.0035
11.3013,0.970428,-10.8857,12.6467,-4.08108,-11.8484,13.034,-3.10671,-12.681,12.6859,-2.78373,-12.0957,12.9885,-3.11143
0,0.000727335,-19.7512,29.3781,-6.90589,-19.7466,29.3353,-6.91117,-19.694,29.3851,-6.8898,-19.6928,29.349,-6.89555
11.5751,0.177749,-20.6363,21.9393,4.73016,-20.9151,20.5409,4.77222,-19.3622,22.0539,5.33223,-19.8744,22.5106,5.18509
2.1225,0.0287604,-1.47511,5.01673,6.79484,0.270566,4.97435,6.79016,-0.421119,4.93695,6.80311,0.335872,5.11748,6.78971
50.5341,0.578205,21.9697,9.05953,2.01808,23.3171,10.3418,2.2564,23.4848,10.5985,2.4566,23.9654,10.9045,4.14423
0.0533027,0.00835974,-21.7886,30.3757,-6.78097,-21.8908,30.4239,-6.76491,-21.7824,30.3373,-6.78615,-21.9,30.3862,-6.75655
0.797029,0.0157037,-10.6009,9.23778,-4.54831,-10.2417,9.01094,-4.7054,-10.0481,9.58342,-4.4588,-9.89338,9.62127,-4.46759
36.5686,0.0837077,22.2079,34.5404,-4.15636,22.6437,36.834,-4.19664,21.9309,34.4308,-5.12065,22.9326,37.0813,-2.83896
8.99271,1.05893,9.83208,5.39051,-0.218564,9.75023,5.59233,-1.32822,10.2177,5.01013,-1.27318,11.2092,4.98045,-0.985024
6.0985,0.361049,8.99623,37.4158,3.18231,9.26952,37.5918,3.70278,9.50873,37.8276,2.95372,8.01366,37.7359,3.65022
2.78197,0.108024,-20.516,33.9877,1.27129,-21.3445,33.6976,1.11369,-19.992,33.817,1.78688,-21.0188,34.1699,1.0339
4.85034,0.0932658,-1.22937,0.202355,-0.43555,-0.857992,0.0766126,-0.569162,-1.92336,0.162943,-0.261329,-0.609864,0.124588,0.273172
2.48307,0.0894628,-20.5345,36.5136,-5.01665,-19.703,36.7037,-4.85942,-20.6249,36.5651,-5.24627,-20.7648,36.6208,-4.72862
5.52219,0.88078,15.5109,4.61819,-3.69072,14.8206,4.39032,-2.53617,14.5576,4.21622,-2.47132,15.0815,4.16881,-2.27396
4.6266,0.0517888,-0.0297666,15.1593,7.04666,0.669746,15.6653,7.67389,-0.527938,15.7346,7.39084,0.170107,15.8747,7.68667
0,0.0118481,-18.6851,19.8425,5.43106,-18.6832,19.8746,5.43545,-18.7419,19.8552,5.40847,-18.7337,19.8403,5.40247
1.37075,0.0118756,6.18093,29.6886,-6.92107,7.01372,29.4984,-6.88179,5.90186,29.585,-6.96575,7.01282,29.4045,-6.89058
3.13362,0.265678,-0.787121,20.8024,7.33872,-1.89163,20.1314,7.26281,-2.34268,20.6774,6.78292,-2.00431,20.8149,6.93227
3.32659,0.05143,-4.0632,29.5035,6.51596,-3.05908,28.3285,7.56069,-4.46426,29.9594,6.01192,-2.98938,28.3315,7.5573
5.49446,0.100743,-6.73453,9.38846,6.94409,-5.4415,8.89853,7.18717,-8.05283,9.98522,6.48693,-7.04938,10.4219,7.42869
0.312931,0.000534265,21.8822,25.8468,5.49244,21.8152,25.8048,5.49833,21.9001,25.5187,5.41197,22.0305,25.5165,5.38013
28.6546,1.10609,-20.687,25.6092,-7.11695,-22.0426,25.223,-6.87825,-22.7191,27.3638,-6.42512,-22.5001,26.624,-6.55597
18.6578,1.24705,-3.55164,7.43578,-4.27247,-2.82793,6.32677,-4.77569,-5.31922,6.24546,-5.27047,-4.83251,6.23852,-5.07688
120.658,0.402844,2.0621,4.01955,-3.39178,-0.998174,2.99895,-5.16442,0.0484391,6.30514,-3.74403,-1.78836,5.36433,-4.64894
7.63564,0.933384,-8.67069,1.91787,-2.26783,-8.58576,2.71198,-2.95407,-7.74385,2.40883,-4.22659,-8.39146,2.64406,-3.24359
1.00945,0.0883341,11.5282,35.1221,-5.55981,11.5341,34.615,-5.84541,12.0261,34.9478,-5.63897,11.6845,34.6279,-5.81577
3.2123,0.520139,11.2346,3.83804,3.24046,10.9789,4.20524,1.9635,10.8548,4.19414,2.09832,10.707,3.3485,3.40581
3.22265,0.188644,-2.77188,26.0352,6.30217,-1.15386,26.1411,7.3627,-3.61792,26.3271,6.74259,-2.90706,25.8476,6.32239
164.159,0.0505874,-9.29037,29.8526,-6.91947,-4.72557,27.9734,-7.19195,-7.02957,27.7758,-7.16306,-5.50402,30.6611,-6.85929
9.82178,0.0665154,13.1777,19.9571,-7.86106,14.6407,19.525,-7.82294,13.3829,19.0572,-7.88607,15.0413,19.0136,-7.78161
16.4146,0.207645,-10.3096,2.35714,2.38196,-11.0016,2.66262,3.74116,-11.1976,2.4557,4.43928,-10.5305,1.82708,4.19521
8.7884,0.0710551,-10.5569,37.9045,-2.05458,-9.07942,37.8898,-1.91143,-10.1514,37.354,-3.08039,-8.50347,37.6235,-2.48859
1.81277,0.114798,23.3378,32.4131,0.923301,23.6195,32.6708,1.60514,23.5395,32.2146,0.909939,23.2724,32.6586,0.649554
8.08585,0.0721453,25.3786,18.4544,-0.462583,25.4,17.0266,-1.33437,25.2398,16.8155,0.353779,25.2084,16.6105,0.6973
7.33344,0.330817,-2.18142,7.58513,-3.77215,-1.31623,5.74444,-4.40792,-1.03482,5.56306,-4.36597,-0.758553,5.78141,-4.20137
1.8722,0.370387,21.985,8.45408,0.962417,21.2067,8.44399,1.98525,21.4298,8.40618,1.81235,21.9692,8.56529,1.49744
0.349531,0.181589,14.8534,23.5945,-7.65905,14.5109,23.6961,-7.66394,14.4404,23.5483,-7.69324,14.5104,23.6526,-7.66023
0.874176,0.0944182,-24.2201,21.6191,-1.36045,-24.5194,21.7166,-0.960369,-24.1034,21.4355,-1.31191,-24.3665,21.5953,-1.45704
55.228,0.524984,-15.9535,11.1018,0.633618,-16.1974,9.69085,2.26163,-15.3773,7.87539,1.86116,-14.5414,7.12711,1.08189
5.55191,0.28678,-2.71889,11.5053,-3.07592,-3.85569,11.5904,-3.32692,-2.3329,11.4034,-3.49613,-3.76579,11.4055,-3.14012
4.28833,0.184199,19.6397,7.34294,3.19,19.7312,7.71452,4.50604,19.1747,7.1336,4.45021,19.5394,7.51218,4.20537
28.7899,0.59468,2.92489,23.9451,-7.83877,4.12279,21.642,-7.97088,6.06506,21.4553,-7.85397,6.35555,21.5028,-7.85031
18.3857,0.13599,6.39892,10.4721,-6.76056,6.67418,8.43257,-6.6763,6.05204,9.89973,-6.6556,4.10758,11.2686,-6.68978
1.33046,0.18776,9.35651,30.6852,6.04164,10.3241,30.8665,6.61901,10.6858,30.8091,6.717,10.5375,30.8913,6.6959
4.43907,0.618874,-4.44781,16.0508,-5.75184,-4.97025,14.6395,-5.20894,-5.23513,16.3185,-5.64473,-5.15701,15.9188,-5.58131
0.12791,0.000405298,16.684,36.481,4.39651,16.6752,36.5678,4.32935,16.5394,36.4384,4.44871,16.4614,36.6,4.33039
3.61753,0.174858,-16.9157,26.5251,-7.02927,-16.0508,25.6374,-7.30648,-17.1042,28.1553,-6.93917,-16.8582,28.4517,-6.87344
49.0014,1.30383,-13.5002,8.96792,-1.03293,-12.2864,4.88565,-0.0351411,-11.8772,5.61615,-1.2899,-11.6996,4.62313,-0.343616
1.99159,0.153535,21.4571,8.51907,-3.737,21.9652,8.61353,-4.43554,21.2695,8.23508,-3.53613,21.8131,8.56311,-3.58578
1.93225,0.0550573,-13.6768,17.2299,-5.81573,-13.8691,18.0127,-6.09434,-14.2319,17.4374,-5.96838,-14.2366,17.1729,-5.89861
0.851471,0.00695032,17.805,36.346,-4.84746,18.4341,36.6976,-4.25953,18.3741,36.7969,-4.14723,18.4439,36.753,-4.1864
6.14538,0.0032858,-14.546,37.5318,-3.21494,-14.2847,37.8531,-2.42508,-13.2231,37.8344,-2.46008,-13.4097,37.9998,-2.06117
4.46613,0.442164,-2.12976,9.55631,6.69028,-2.29579,10.1527,7.24646,-2.70861,8.71443,7.11727,-1.13303,9.29253,6.95416
1.64277,0.684118,21.0938,8.00333,-1.03801,21.5924,8.51131,-1.2207,21.5206,8.48954,-1.36052,21.5308,8.408,-1.57
1.36285,0.158199,-12.5385,4.65036,3.14407,-12.2444,4.08535,3.62614,-12.2888,4.14804,2.78718,-12.2899,4.29569,3.54861
17.2933,0.25369,-7.64019,1.92214,-3.67097,-5.15586,0.86793,-3.25841,-6.22736,1.66147,-4.11589,-6.32841,0.519851,-2.4518
172.263,0.21715,21.8841,19.5615,5.78891,17.0126,19.03,5.91362,16.955,18.9351,5.91696,17.3947,17.1016,5.87094
1.63336,0.0821431,25.1562,18.2778,1.10265,25.199,18.1708,1.26995,25.3515,18.581,0.656915,25.2643,17.9328,0.940341
0.103239,0.0210357,3.51467,14.9247,-7.28679,3.38206,14.8344,-7.24025,3.31317,14.9312,-7.21412,3.30652,14.8472,-7.22022
2.96353,0.267933,11.4334,36.3378,3.76533,10.8985,35.9806,4.41095,11.7279,36.2759,3.89768,11.5337,37.3004,4.02254
5.46976,0.118743,6.16784,31.5283,6.41502,7.02175,31.1281,6.49966,8.09402,33.4662,6.64063,8.0959,33.4197,6.64298
7.70596,0.0575485,-16.2564,30.8111,4.26313,-14.9839,32.7191,4.8412,-14.8432,32.7007,4.98866,-15.2967,31.7769,4.83183
5.19862,0.484316,-6.50079,12.5246,6.46343,-7.64558,12.4669,7.3731,-5.72535,12.7424,6.7184,-4.69748,11.0814,7.52491
3.24461,0.047805,-18.0971,30.1413,3.26207,-17.4543,30.2339,3.55264,-19.0563,29.7244,3.55828,-19.6486,29.322,3.93091
0.409189,0.087617,-8.97843,37.7276,2.79691,-9.22265,37.7626,2.69298,-9.23188,37.8732,2.49636,-9.26135,37.7337,2.76973
4.87186,0.382071,7.97287,31.6577,5.65498,7.91748,31.0561,5.64731,7.40345,32.0519,6.38456,9.42899,31.8738,6.58502
27.5107,0.498738,1.10095,13.4138,6.7202,1.23011,12.4664,7.37673,3.39168,12.501,7.22529,3.98054,13.3406,7.0452
13.4829,0.233399,-12.6205,19.2934,-5.98276,-11.5714,18.4164,-6.05253,-13.4559,18.258,-6.03419,-12.4096,17.5712,-5.90168
7.37285,0.0785935,-12.5628,29.4937,5.57969,-12.1586,30.7932,4.80362,-12.8035,27.637,6.23152,-12.7568,28.0468,6.16947
6.72764,0.00743019,-7.72702,20.7098,-7.23348,-7.28887,21.0649,-7.47828,-8.48379,20.889,-7.30249,-7.54721,19.7648,-6.69472
2.29573,0.278585,-19.2151,30.9389,2.87265,-17.6395,31.1302,4.09576,-17.7761,31.4333,4.01506,-17.8542,31.3184,3.91492
10.2101,0.645106,22.5705,27.1371,-5.54099,23.2868,27.8495,-4.54928,23.9835,28.2003,-4.28269,24.046,27.613,-4.3199
3.21302,0.448229,-5.54226,18.9146,7.0125,-3.59023,18.4424,7.7196,-3.5188,18.4005,7.72889,-3.65967,18.2972,7.71022
4.85983,0.450334,-4.86026,30.5129,5.507,-4.53093,29.9615,6.00896,-3.21163,31.605,6.05713,-5.46419,30.5362,5.90692
0.137815,0.0198888,19.7094,21.4355,-7.21024,19.7908,21.5888,-7.1874,19.636,21.5777,-7.23014,19.712,21.6238,-7.21484
4.2254,0.279443,-11.2218,33.6407,4.32442,-11.6828,33.4083,4.91551,-12.2585,32.9836,5.29617,-12.2018,34.2681,4.90664
0.704771,0.462874,10.5426,38.1598,2.70726,10.5437,37.8889,3.54386,10.394,37.9481,3.31043,10.472,37.9092,3.42557
6.33017,0.287317,0.631236,38.1337,1.7023,1.49163,38.3042,0.808582,1.36373,38.3453,0.453234,1.41401,38.3092,1.01858
9.513,0.290118,7.0466,6.71063,-2.46914,7.95785,6.2839,-2.72394,6.85243,6.28193,-1.45701,6.84553,6.59526,-3.36047
1.74053,0.249832,-6.732,24.0653,6.34872,-6.35547,23.8893,6.57948,-6.38858,24.7768,6.92057,-7.07456,23.8842,6.51967
3.83967,0.350924,6.87124,6.02777,-0.866844,6.61348,5.88353,-1.14499,6.73257,6.2414,-1.34633,7.41511,5.80549,-1.25313
15.8541,0.0481563,0.591737,38.0107,2.48572,-0.798303,37.687,3.39437,-1.76199,37.9916,2.46985,-1.04003,38.031,2.32023
9.25746,0.069439,18.8837,6.69134,-2.74796,20.2249,7.70669,-3.78601,20.492,7.83981,-3.48382,19.8378,7.47698,-3.86914
0.196185,0.151866,7.99962,7.29605,6.68105,7.94178,7.14314,6.65822,8.14752,7.15282,6.62161,8.0046,7.14908,6.63944
3.62113,0.254117,18.0953,5.5093,1.20332,19.2023,6.25095,0.596818,19.2691,6.33503,0.809751,19.0738,6.17126,1.37552
2.13669,0.135764,19.9852,33.6392,4.84847,20.8164,33.6549,4.63884,21.3404,34.3418,4.38811,20.7328,33.8758,4.57713
3.75145,0.0286018,2.43784,2.84514,-3.83168,1.53583,2.14852,-4.24327,1.25948,2.49139,-4.20959,1.39042,2.63619,-4.13209
6.67065,0.223964,14.423,9.81895,-6.95103,16.3703,10.1861,-7.07793,17.2122,10.5522,-7.06529,15.612,9.3681,-7.01708
0.733621,0.339505,-5.48224,33.6101,-6.22418,-6.11248,33.4914,-6.17365,-6.04723,33.5502,-6.16437,-6.18586,33.4364,-6.19634
0.35052,0.112968,15.7649,27.2416,-7.33238,15.7735,27.0607,-7.35259,15.6958,27.0462,-7.36947,15.9085,27.0439,-7.36488
7.29028,0.0467127,-6.88535,10.7972,-3.34487,-6.34057,10.3231,-3.32087,-5.75747,9.4776,-3.67066,-7.26372,10.0239,-4.22171
21.0859,0.041794,5.51397,5.24235,6.63119,0.338093,5.07155,6.7817,5.66597,6.40873,6.89645,6.35019,5.3257,6.57162
0.24879,0.00927844,-10.5029,3.45731,5.52705,-10.7871,3.62893,5.54598,-10.8582,3.62292,5.53804,-10.7896,3.7754,5.591
0.613465,0.00129184,-18.1314,34.2381,2.72622,-17.6958,34.5204,2.84963,-17.811,34.2784,2.89749,-17.9757,34.717,2.58643
18.3762,0.00132898,8.4381,38.3327,-0.117514,10.3061,38.2416,0.92066,9.81575,38.2256,1.0197,9.94816,38.2811,0.520991
4.45048,0.464342,-0.974193,35.5876,-5.15019,-0.436788,34.0357,-6.01218,-0.423653,33.723,-6.26307,-0.639952,33.5899,-6.24872
71.22,0.331927,22.3512,10.9169,5.19487,20.031,8.43575,5.2953,17.2462,9.55311,5.69741,18.1168,8.88575,5.58117
32.0293,0.281947,23.8665,10.7828,3.55884,24.898,12.1802,-0.259361,24.4032,11.2956,-0.930374,24.933,12.106,-0.950615
0.814712,0.182843,-11.4302,26.8263,6.16648,-10.975,26.5682,6.75029,-11.0633,27.0052,6.6252,-10.9209,26.9382,6.73539
3.30169,0.0415263,-6.28094,23.8098,6.64342,-4.69019,23.2401,7.47912,-4.67188,22.889,7.58882,-4.41421,23.3611,7.55189
3.81581,0.0778674,-7.0177,38.1707,0.5388,-7.68365,38.1176,1.59295,-7.14549,38.0943,1.57698,-6.79281,38.1255,1.26714
1.11694,0.125018,-19.8366,19.2509,-3.52014,-20.1227,19.2816,-3.21189,-19.7552,19.044,-3.54868,-20.1836,19.3393,-3.53353
3.16425,0.391741,-6.11763,19.0767,6.77821,-6.97076,18.394,7.46915,-5.8447,19.6599,7.18547,-5.61401,18.9489,6.97112
14.8468,0.049759,9.96028,19.5158,-7.73564,12.2582,18.4195,-7.8683,11.9816,18.3816,-7.84943,12.4723,19.3066,-7.86721
3.006,0.081517,-2.01837,15.2289,-5.52822,-1.7228,15.9707,-5.74667,-1.37457,16.2361,-5.79555,-1.09758,16.0517,-5.76234
58.2529,0.0312527,1.84112,38.1746,-1.32527,-0.230401,38.2296,1.28408,-0.119689,38.2526,-0.319855,-1.22001,38.2667,0.972348
5.14489,0.34212,19.1287,8.4393,-6.40756,19.8253,9.13447,-6.59468,19.6252,8.7027,-6.46874,18.9351,6.98644,-6.33839
35.363,0.133648,-10.223,30.2192,5.53629,-9.54456,26.3349,7.13392,-9.29506,30.231,5.91386,-11.3779,30.4901,5.29728
1.68316,0.0499433,-12.9602,21.2543,-7.40814,-12.5107,20.9268,-6.6473,-12.1713,20.7483,-6.35222,-12.6188,21.1564,-7.18027
8.6226,0.56417,10.6105,18.5141,6.0633,9.9129,17.6512,7.02336,12.3845,18.1077,6.39414,10.9741,19.7654,6.26088
0.11231,0.0281767,13.0543,22.2143,-7.84362,13.2501,22.1635,-7.84479,13.2597,22.0646,-7.8482,13.1691,22.0932,-7.83437
10.7022,1.14467,-5.40369,12.8066,6.69443,-4.48182,13.5731,7.10289,-3.7501,12.7529,7.4944,-2.76386,11.5746,7.61796
4.672,0.442377,11.3896,4.18077,2.69337,12.3558,5.119,3.02002,11.8123,4.92187,2.28219,12.2854,5.08529,3.0108
3.47236,0.0953844,23.5046,31.9625,0.345118,23.5713,32.1384,0.777204,23.8281,31.6847,0.529231,23.4643,31.9629,-0.663329
11.1911,0.131113,0.574325,24.6062,6.32294,4.9578,24.4388,7.58264,0.717718,25.1069,6.53757,0.741414,26.2803,7.31406
95.7641,1.21797,11.479,24.6792,5.83749,14.8479,24.6277,6.08864,15.2142,24.0302,5.98561,13.9266,23.3723,6.3854
1.81792,0.34124,2.15809,14.8429,6.93132,3.64443,14.7745,7.41448,4.05533,14.8371,7.39548,3.28694,14.8804,7.34281
0.581302,0.00478258,-19.2619,14.7175,5.57102,-19.4649,14.8261,5.46068,-19.6208,15.2306,5.57171,-19.6638,15.1938,5.50939
12.1494,0.759719,-14.3827,15.1918,0.0966362,-14.3694,13.8983,-1.03995,-15.4473,15.0376,0.149132,-14.6371,15.4803,-0.762421
0.040854,0.00627283,-22.3049,22.6341,4.31093,-22.3001,22.7299,4.28193,-22.2451,22.7501,4.3051,-22.2368,22.6702,4.34263
20.7665,0.177584,-3.14586,38.1969,0.228176,-3.74314,37.8266,-1.7326,-1.90509,38.264,0.170053,-3.09857,37.7023,-1.96436
0.0901823,0.0144842,-12.7971,38.241,-0.881138,-12.8189,38.2295,-1.02092,-12.8791,38.2199,-0.887042,-12.8647,38.226,-1.02794
52.9027,0.195117,20.0837,7.61118,-2.70824,21.3979,8.30297,-1.79167,22.7375,9.16724,-2.47898,23.1147,9.46125,-1.6521
4.90929,0.0615948,16.7536,20.0212,5.82612,18.5562,20.278,5.93903,18.5682,20.0007,5.93936,15.288,19.9134,5.62242
36.2251,0.904428,10.7257,6.45537,-5.83056,12.9492,4.66715,-5.07467,13.6958,4.56242,-4.18366,12.7602,4.97395,-4.1586
24.8794,0.293854,-0.121678,31.4862,5.96713,0.786511,30.3293,6.55759,-0.139841,30.6133,6.32816,2.69104,31.6375,6.89243
5.56772,0.00681675,2.23641,4.11699,6.68825,2.73383,3.37034,6.41841,3.38453,3.47377,6.44413,3.04366,4.17957,6.69047
7.3947,0.193749,12.1633,33.3473,4.53555,11.4925,33.3788,5.64678,12.2307,33.7284,4.57784,11.4239,32.3534,6.25633
0,0.00116441,-17.3721,15.0133,-1.90293,-17.3454,15.0355,-1.94081,-17.4581,15.0506,-1.91549,-17.4212,14.9709,-1.83658
4.62851,0.0237042,7.22571,9.81981,6.49272,6.50601,10.6109,7.08427,8.37775,9.56793,6.83461,8.07168,9.68549,6.81335
56.8684,0.300069,-13.0402,20.1505,-6.14587,-14.6271,18.938,-6.38615,-17.8568,20.0364,-7.25013,-17.3662,20.1838,-7.20864
84.1592,0.875942,-6.55138,26.2472,6.38263,-4.20107,25.8659,7.25698,-3.63898,24.5011,7.18464,-7.63884,24.6449,7.16135
0.358013,0.0909309,-10.3062,7.11733,-4.80162,-9.93747,7.06607,-5.00021,-10.0113,7.12585,-4.94958,-10.0178,7.21421,-4.96932
2.82785,0.0919733,-2.30231,8.80358,-2.98128,-3.18951,8.78491,-3.3195,-2.44502,9.10226,-2.89316,-2.78243,8.62827,-3.14686
7.61817,0.030257,6.41069,19.2002,7.52864,6.17322,19.8902,7.58689,7.77268,19.8587,7.40326,7.14054,18.7244,7.47493
12.2913,0.231215,10.9463,13.5635,6.28497,11.4423,11.0605,6.68062,11.69,12.8513,6.4889,11.3899,10.8277,6.69632
3.98022,0.542341,-1.75762,30.4067,5.83805,-0.780681,29.4723,6.66266,-0.689684,31.4867,6.17445,-2.44795,30.5343,6.33883
0.169481,0.00959821,-18.0758,15.6421,6.23106,-18.1417,15.3961,6.1693,-18.2139,15.4841,6.15973,-18.2108,15.3863,6.14777
0.91686,0.0625314,8.16396,1.73759,4.47804,8.57685,1.7451,4.48884,8.46578,1.54677,4.26683,7.88282,1.68017,4.57565
18.3755,0.280442,-16.0173,33.1676,-6.15995,-16.0118,34.6834,-5.80399,-12.7477,33.1019,-6.39644,-15.4825,34.775,-5.74807
14.4123,0.764548,12.4974,29.1818,5.60469,11.6654,27.9223,6.78758,14.7508,28.8769,6.15139,12.5623,30.4996,6.09475
0.00671535,0.000828479,12.1536,26.2342,6.59598,12.0998,26.2112,6.62208,12.1491,26.1696,6.58195,12.1029,26.1672,6.60822
7.81955,0.194829,-21.9093,20.221,-0.354194,-21.4148,20.0411,0.728434,-22.166,20.4302,0.481952,-21.6433,20.228,0.852808
28.5502,0.536124,3.08923,31.5915,6.43769,4.78546,31.4024,6.70459,3.17309,33.0164,7.028,4.14437,30.3612,6.76195
0,0.0109316,1.76407,17.1514,-7.46763,1.76147,17.2131,-7.49701,1.75864,17.1898,-7.4785,1.86825,17.182,-7.52772
5.53892,0.614828,17.8931,24.091,-7.16898,18.6885,24.4397,-7.2623,18.0339,24.8712,-6.72706,18.1113,25.0607,-6.90545
1.80294,0.102556,8.49033,24.6987,-7.34882,7.9393,25.2536,-7.23601,9.06193,24.5581,-7.50708,7.85039,25.2018,-7.26023
46.8571,0.356641,-7.11926,1.13342,1.39983,-5.08109,0.71191,0.919299,-6.44129,0.779913,2.73239,-8.06296,0.817801,2.29931
9.61257,0.0297653,-0.651063,2.05674,4.28103,0.13586,2.05355,4.53224,2.45044,1.89026,4.9598,2.20761,1.60517,4.56891
3.28126,0.18745,-6.52364,12.7019,-3.7797,-7.4846,12.7807,-4.08353,-5.81509,12.9445,-3.88573,-5.60218,12.5277,-3.85748
6.43395,0.0537509,-5.67741,9.60857,7.33372,-6.00361,10.4406,7.45686,-5.89747,11.2487,7.54034,-6.17824,11.1346,7.51827
6.30512,0.0544867,16.301,16.6657,5.83352,16.2061,15.8096,5.73626,15.4727,16.2692,5.38737,15.5507,14.9829,5.43544
3.41481,0.0530014,-14.1977,22.4889,6.6034,-14.5939,21.7984,6.48781,-15.0925,21.8491,6.38452,-14.5879,21.7076,6.4916
0.0313236,0.0296551,20.0315,9.4752,5.49103,20.0527,9.3493,5.47891,19.9984,9.39193,5.47313,19.9768,9.48628,5.50609
5.73057,0.43448,-18.3329,18.5348,-2.80319,-18.9064,18.4998,-4.35591,-19.4601,18.9877,-2.71508,-18.6317,18.5293,-4.28216
1.49549,0.0760523,21.6971,20.4332,5.80268,21.777,21.3911,5.7215,21.9974,21.3013,5.64049,22.313,20.5297,5.61225
7.31451,0.0199559,-9.75331,2.84425,-0.735818,-9.77728,3.13497,-1.03889,-9.53287,1.78138,-0.017942,-11.5596,3.68995,1.05131
4.25418,0.163884,-13.1632,7.38765,5.47709,-11.737,6.12972,6.07019,-12.4687,8.04573,5.82308,-13.496,7.24846,5.55863
2.87516,0.201508,7.20758,14.3519,-7.3208,7.56714,14.7995,-7.3968,6.37617,14.9004,-7.23856,7.06469,14.9243,-7.29749
10.417,0.297577,11.4111,5.69244,0.921203,9.97271,5.42398,-0.0966021,10.2398,5.71277,0.362862,10.524,5.40862,-0.102496
17.0954,0.170673,-18.6203,37.4481,-3.28713,-19.3221,37.7114,-2.71523,-20.9104,37.052,-3.18145,-20.0311,36.8916,-4.05693
0.0182899,0.00944306,23.0848,31.9513,4.42385,23.0406,31.8912,4.46568,23.1899,31.8342,4.39926,23.0542,32.0874,4.4295
30.2354,3.91954,-0.660917,16.6948,-6.00421,-0.297779,12.9168,-4.88866,0.766806,12.8467,-5.34485,1.27561,12.6622,-5.89932
19.373,0.0160216,-2.2654,17.0634,7.89598,0.809674,17.2365,7.90508,-2.59739,19.1666,7.26549,-3.21925,16.6967,7.96146
9.21273,0.215989,-19.5314,16.3958,4.03456,-19.9164,16.496,5.24141,-18.76,16.6628,3.16997,-19.7129,16.1457,4.73741
0.231863,0.0122462,-5.38238,32.2728,-6.65776,-5.45871,32.5767,-6.55871,-5.52174,32.3282,-6.63204,-5.37779,32.5859,-6.5543
12.4225,0.348832,14.3149,19.7237,5.37205,15.2899,19.8638,5.59535,15.0353,16.676,5.7446,13.8167,19.8921,5.78077
44.2792,0.349927,6.23805,1.9205,-1.89795,8.98331,2.75456,0.821339,8.75094,3.06091,-0.664108,8.29472,2.13294,2.00566
4.17376,0.0605743,-13.6531,25.4303,-7.49541,-14.6478,25.5639,-7.33308,-12.121,26.4257,-7.36539,-12.1256,26.721,-7.3102
2.80748,0.194941,-3.38784,3.97177,-5.92793,-4.91936,4.12789,-6.13408,-4.83935,4.03561,-6.14793,-4.83917,3.87388,-6.21745
65.7614,1.26057,11.681,5.57415,0.272389,14.5724,4.00176,-1.48976,13.3078,4.1872,-1.5626,14.6371,3.88266,0.169229
32.1112,0.561879,-4.94363,12.0503,-3.26785,-6.02292,12.2986,-3.86057,-2.72201,9.79211,-2.87801,-4.04959,10.3883,-2.89904
1.69515,0.0222513,-5.26952,4.87584,6.39106,-7.30972,4.6619,6.09143,-7.38383,4.76078,6.13135,-6.53301,4.72073,6.18554
22.0199,0.346378,-24.5235,21.4215,-2.42908,-23.1652,20.5653,-4.12542,-22.9893,20.6518,-2.52516,-22.9605,20.609,-2.95079
0.327085,0.021436,17.6546,15.5139,-7.01496,18.1324,15.3966,-6.88643,17.4397,15.3745,-7.04143,17.4366,15.3204,-7.04225
15.2174,0.254903,-22.6214,20.8003,-0.320396,-23.4391,21.0835,-1.2858,-23.7685,21.6438,1.27147,-23.064,20.9661,0.774524
4.89361,0.0249772,-21.7972,21.0656,-7.10417,-22.021,20.0364,-6.89154,-22.0183,19.9468,-6.87861,-22.4071,20.1291,-6.76791
2.80552,0.0950275,-3.65578,8.17571,7.27086,-5.44047,8.85261,7.18625,-4.3854,7.44472,7.29841,-4.72765,8.53255,7.25847
69.1617,0.0805572,-14.1545,33.9264,4.85592,-15.1453,36.435,2.7128,-15.6878,35.2423,3.35458,-14.4931,36.3336,3.0617
2.96892,0.0169854,14.2196,14.7967,4.72361,14.9249,14.7251,4.93136,13.6527,13.7192,5.72886,13.9492,14.4537,5.00652
0,0.0120857,-19.5432,28.4541,4.70543,-19.5452,28.4503,4.72384,-19.4924,28.4449,4.77585,-19.5016,28.479,4.74672
37.6417,0.883374,22.5568,33.5277,-2.25307,22.9073,36.5369,-0.804559,22.7407,35.9637,-1.51235,22.2934,34.2081,-3.95928
48.7629,0.611162,-23.4218,21.9361,3.31059,-22.9663,20.9499,1.03533,-22.217,20.5475,1.5688,-21.8882,20.3991,3.45912
21.0039,0.636711,5.62616,9.65661,6.33715,6.81554,9.9305,6.74237,6.31571,5.99615,6.70685,4.93784,10.1599,7.15571
22.4529,0.0296228,8.36506,25.9506,7.159,8.12722,29.8691,5.68286,9.70583,28.0759,6.99754,8.21852,29.7066,5.78002
29.5156,0.72939,-5.62035,20.2809,6.91975,-5.43662,21.5545,7.61098,-3.94484,19.6884,7.54054,-3.41049,20.1723,7.49107
4.54838,0.23263,-2.78003,31.3152,5.79755,-1.49061,30.952,6.05856,-2.71854,31.7079,5.96225,-3.23929,30.9678,6.10992
35.728,1.01602,21.7324,8.69685,-0.719409,24.3614,11.3067,-0.657495,23.9483,10.862,-0.200876,24.5879,11.2881,-1.29762
2.896,0.0168481,1.01577,13.5039,-5.70656,0.708235,13.8923,-5.68319,0.437386,14.5762,-5.77646,0.587277,14.7256,-5.92911
12.0723,0.0358539,16.5369,6.97126,5.5043,14.8817,7.82508,5.61591,15.0413,6.54393,5.42579,14.6562,6.8165,5.47103
17.4133,0.170705,14.9787,38.3549,-0.942019,15.7993,38.2305,-1.86391,17.7714,38.08,-1.58911,18.0424,38.023,-1.21093
6.77284,0.00723803,17.0326,15.95,-7.17751,17.9334,16.6583,-7.10619,18.3563,16.1772,-6.94488,17.3132,16.5906,-7.22461
3.47559,0.879174,-20.9483,36.8318,-0.800648,-21.4724,35.8665,-0.791411,-21.6565,35.7986,-0.980881,-21.1778,36.1651,-0.26617
46.6414,0.303551,19.1987,6.98869,-5.55435,15.7744,4.81621,-5.22911,16.0569,4.79046,-4.50173,18.9884,6.80282,-4.21496
3.98333,0.154696,-20.5437,19.3365,-0.138183,-20.4729,19.1985,0.673224,-20.6095,19.2787,0.407843,-20.254,18.9379,0.326589
0.128934,0.00130592,3.14164,36.7465,5.37025,3.34635,36.7601,5.38275,3.27226,36.7945,5.33039,3.15068,36.5864,5.56151
0.00493089,0.0375711,-11.4796,31.4711,-6.79271,-11.3282,31.4337,-6.78275,-11.3246,31.4748,-6.7855,-11.3696,31.4557,-6.77556
13.4531,0.943445,-5.93984,2.86311,3.88711,-6.3287,0.969958,3.29234,-6.5426,2.60556,5.13625,-4.02822,2.48542,4.51525
3.01529,0.177829,1.66634,14.8464,-6.52887,1.04122,14.5583,-6.40461,1.68387,15.3121,-6.93348,2.02369,14.3079,-6.61892
12.2794,0.557103,8.28741,23.2635,-7.66517,5.28736,25.7728,-7.36613,6.26487,25.5719,-7.3622,5.6286,25.7817,-7.32569
4.74236,0.141769,-18.9984,17.8508,2.17835,-19.1092,17.8039,0.362879,-19.0329,17.5989,0.469252,-19.1622,17.9347,0.634372
5.85628,0.219348,-16.6244,20.9744,5.42895,-16.4936,19.836,5.84148,-14.8557,21.4946,6.41332,-17.0476,20.9083,5.48685
3.76058,0.0619158,9.12673,3.91081,5.28731,7.74893,3.25391,5.63811,7.54592,3.34429,5.74355,8.48938,4.26993,5.71335
1.19948,0.113026,-14.0658,27.9448,-6.63547,-13.9863,27.6898,-6.8027,-14.0625,28.1714,-6.71733,-14.495,27.9502,-6.68161
2.5303,0.116647,17.7562,24.9974,-6.97725,17.9075,25.5219,-7.13516,16.5902,24.6581,-7.46624,16.9384,24.8272,-7.32572
21.4347,0.00533655,-5.54932,19.9808,-7.21346,-5.14891,19.256,-7.08369,-3.91471,21.037,-7.8,-5.32333,21.0664,-7.56464
1.47017,0.0454803,22.2263,27.9697,-5.6309,21.6477,28.2551,-5.9909,22.7399,27.7798,-5.02783,22.5528,27.788,-5.29491
3.73526,0.00259036,8.20118,27.7694,-6.95333,8.62625,28.1834,-6.96592,7.65458,26.5285,-7.22948,7.64024,26.6859,-7.15659
30.2079,0.951756,-23.036,29.6028,1.61478,-24.7988,29.3079,2.04624,-21.4181,28.5445,3.83056,-23.8357,30.8922,1.87595
1.88571,0.131329,17.5953,5.89719,-3.05669,17.8904,5.88751,-3.34101,17.9514,5.94806,-3.11896,17.4349,5.64637,-3.07843
0.878454,0.0942197,22.8505,26.1737,5.17218,23.271,26.8986,4.97353,23.3038,26.7258,4.95437,23.0955,25.9959,4.98521
25.5913,0.169875,0.465621,18.4604,-7.55392,-1.04344,22.2622,-8.0156,-0.987571,20.6239,-7.79669,-1.88578,20.6156,-7.87745
72.956,0.0266395,7.34417,11.201,-7.39927,4.76591,14.5444,-7.24219,4.98274,16.4188,-7.22846,7.34955,14.2078,-7.33836
11.3708,0.430471,21.0744,8.02073,-6.47867,19.4672,7.14262,-5.83114,19.4114,7.07835,-4.22503,19.5373,7.20175,-5.34648
2.12602,0.401992,7.0094,17.0331,-7.49171,6.68621,17.9295,-7.67504,6.46717,17.9983,-7.59043,6.54278,17.9911,-7.61712
14.479,0.0650453,21.5976,32.8006,-5.33422,21.9,31.7955,-4.76457,21.8463,34.3243,-5.2165,22.5237,31.8193,-3.59407
2.02051,0.071225,-13.3487,25.2916,-7.54583,-12.613,25.5486,-7.50297,-12.3118,24.8669,-7.61044,-12.7512,25.7053,-7.47262
101.675,0.547825,18.8624,13.2068,-6.23125,21.0943,11.6208,-6.4768,20.0196,16.9526,-6.75481,15.4052,12.2789,-7.16066
2.94015,1.26415,-10.0579,4.59061,5.73977,-12.7505,4.53045,5.35139,-12.5307,4.38442,5.36428,-12.6877,4.48367,5.34646
4.84854,0.945783,20.4763,30.9033,5.20949,21.448,30.0276,5.1592,22.047,30.3995,4.95269,21.9796,30.3531,4.97248
45.3532,0.434188,-7.3687,16.5338,-4.87716,-5.83374,14.4973,-4.67446,-7.8772,15.5064,-4.68141,-5.31519,15.4976,-5.36773
0.428416,0.115591,15.535,18.8361,-7.71945,16.0861,18.7561,-7.63452,15.9517,18.8533,-7.63091,16.0855,18.9403,-7.64386
9.88317,0.677801,-6.72586,6.23776,-5.00096,-5.57679,5.10526,-5.57853,-4.93761,5.1348,-5.81221,-6.0308,5.29689,-5.2087
0.634868,0.0104736,-4.83568,31.9712,6.31142,-4.27467,32.4017,6.55925,-4.4095,32.2449,6.4873,-4.35362,32.4368,6.54024
4.28229,0.113369,8.08637,38.4276,-0.641017,8.43067,38.413,-1.23775,7.86805,38.3106,-1.57727,7.62978,38.3769,-1.26637
1.57965,0.0859478,23.0015,36.5553,0.0827656,22.9145,36.5195,-0.605145,23.1655,36.1652,0.127918,22.9148,36.4503,-0.645476
6.25708,0.0200115,20.8934,12.1238,5.44433,21.7276,11.977,5.3687,19.8809,11.2026,5.52329,19.3636,11.6993,5.60387
3.59841,0.0376713,-12.5637,28.259,-7.03234,-13.6998,28.6328,-6.92406,-13.1364,28.9117,-7.08591,-12.7133,28.7977,-7.14558
69.2118,3.70203,2.13426,38.3435,0.0338244,6.81963,38.4216,0.289649,5.77569,38.3791,-1.22263,6.3121,38.435,-0.449455
0.232185,0.00848996,23.4274,24.419,-5.16613,23.6155,24.2639,-5.0212,23.581,24.4855,-5.03813,23.6314,24.4247,-4.9975
19.9807,0.0844367,-13.0667,29.285,-7.10193,-13.4473,31.9001,-6.68273,-12.6857,32.5342,-6.57122,-11.7632,32.1738,-6.65207
1.8152,0.110455,-25.1738,26.2195,-2.99182,-25.1299,27.1825,-3.12471,-25.039,26.3163,-3.34576,-25.0569,26.3859,-3.20866
27.857,0.866509,8.98435,25.8026,-7.24384,9.82858,24.7354,-7.50668,10.3772,27.8452,-7.08647,10.2328,27.2387,-7.08777
1.79218,0.0893967,-18.6885,35.7804,1.37292,-19.5731,35.2892,1.17909,-19.4385,35.2296,1.26972,-19.8692,35.2123,1.10032
19.475,0.65349,11.4998,9.73408,-7.05538,8.70689,7.84691,-6.89177,7.1238,8.60014,-7.15714,7.8111,8.16059,-6.99503
8.87776,0.111201,19.7768,8.07004,5.19736,18.4363,8.18559,5.42777,18.7339,7.90694,5.32209,18.8277,7.28094,5.11759
4.20137,0.189427,23.0178,30.4039,4.58318,22.2138,29.8996,4.94388,24.0006,31.6697,3.78464,23.7381,31.39,4.03025
2.12066,0.510287,11.7929,36.3259,3.88942,12.8538,36.3007,4.2752,13.2082,36.1813,4.26929,13.0656,36.1417,4.34028
44.4838,0.143649,15.3427,32.0693,5.02648,16.7941,32.1269,5.5148,16.2603,26.7322,6.06789,15.5138,29.9475,5.25715
2.36494,0.153461,-15.275,24.8972,5.43688,-14.9465,25.2517,5.57233,-15.7298,25.0888,5.11627,-13.5809,25.0898,6.16748
1.85423,0.191606,12.4628,22.0396,6.35851,13.2529,21.4867,6.39801,12.9779,22.7319,6.46873,12.1688,22.061,6.60832
3.75332,0.258809,-12.4904,33.254,-6.34387,-12.436,34.0444,-6.03076,-12.7977,34.1468,-6.02946,-13.0823,34.247,-6.01261
1.5864,0.131765,-9.05849,38.2502,-0.369879,-8.47601,37.9967,-1.56665,-9.04233,38.13,-1.06973,-8.78158,38.0595,-0.984498
0,0.00159611,23.0289,12.2703,-5.85325,23.0972,12.3624,-5.82473,23.0277,12.3082,-5.85354,23.1663,12.3681,-5.79423
3.34272,0.134936,6.47562,1.16869,0.0924694,6.34755,0.402851,0.388514,6.74675,1.62114,-0.240001,7.01794,1.16312,1.08174
4.92757,0.854076,2.93126,20.3021,-7.9368,0.00506072,20.6104,-7.98791,0.00571764,20.5637,-7.98188,0.352903,20.1716,-8.03521
0.191842,0.000608154,-0.726019,12.8196,7.73135,-0.739791,13.0335,7.63592,-0.385423,13.1412,7.64285,-0.66372,13.0397,7.64482
0.461964,0.146574,-25.319,26.2241,-0.695755,-25.3542,26.5692,-0.576076,-25.3338,26.4958,-0.563673,-25.3402,26.242,-0.548471
83.1666,0.2477,-19.0439,29.2058,-6.86867,-15.8591,32.4786,-6.39272,-17.0116,29.8805,-6.82409,-15.7771,32.4453,-6.38801
3.03971,0.242055,-17.5,20.0216,5.28916,-17.029,20.5492,5.54271,-17.9217,19.9318,5.46956,-16.6003,19.1435,5.88017
12.397,0.270431,-1.6052,2.79859,-5.44378,-5.14723,2.85214,-5.78974,-3.30737,2.02463,-4.81794,-5.21941,2.73701,-5.7147
4.01752,0.271606,-22.1584,30.5052,2.25737,-20.7963,30.2887,3.00809,-22.5459,30.2647,2.31095,-20.5054,30.1223,3.04397
1.62153,0.307558,1.12034,33.7961,-6.27593,1.13504,32.9886,-6.5932,1.0448,33.0176,-6.54837,1.34056,32.9841,-6.63926
4.00428,0.0325111,-2.98423,30.6443,-6.97097,-2.60684,32.5914,-6.37058,-2.40109,32.9038,-6.24343,-2.33209,32.7502,-6.26335
14.1794,0.0360599,-8.71668,20.0266,-5.85356,-9.48872,20.3419,-5.75876,-7.0483,17.7793,-5.53939,-6.95646,18.6662,-5.9384
4.46853,0.604277,-12.009,31.4355,4.40004,-12.7796,32.0458,5.13431,-10.5092,31.3748,5.28477,-12.259,30.8313,4.79222
1.45184,0.0522179,0.378926,35.7643,-4.9993,-0.0285117,35.8045,-4.97239,0.69532,35.9385,-4.97216,0.265152,35.4871,-5.27811
4.7797,0.418261,-0.629942,19.7378,6.65848,-1.39294,18.993,7.50238,0.192891,19.7914,6.69424,-0.718863,20.5605,7.22875
1.85405,0.193739,13.8499,31.3445,5.69725,13.9254,30.95,5.80712,13.5497,31.5195,6.05454,14.6949,31.1868,5.55521
0.656187,0.0902583,-20.3445,20.6119,-7.15442,-20.5248,20.5132,-7.17287,-20.3648,21.058,-7.39936,-20.2978,21.0169,-7.40243
1.56124,0.0490499,7.72388,25.9716,-7.19241,7.85522,25.255,-7.24287,8.02206,25.3341,-7.27578,7.93962,26.0403,-7.28376
4.82932,0.0123188,20.2503,9.954,-6.65949,20.4714,11.3964,-6.48448,19.8281,9.22096,-6.61883,20.4616,10.8585,-6.57052
5.68201,0.245835,-16.247,13.2889,5.68731,-15.626,13.9413,6.04872,-14.8797,11.9075,6.42552,-16.722,13.1943,5.8255
3.37866,0.0291253,-15.7053,25.5906,-7.29751,-15.9839,25.5418,-7.34379,-15.6456,26.201,-7.14334,-14.5935,25.631,-7.31138
15.1907,0.805429,-2.19049,7.61724,6.21303,0.239938,7.1254,6.88287,-2.21988,8.72925,7.04419,-3.07577,6.22031,7.03708
1.37004,0.162394,0.94939,8.41951,6.91024,1.47756,8.99039,7.09403,1.59821,8.01223,7.02496,0.668205,8.38718,7.08002
0.445436,0.350396,17.4355,14.6496,-6.92627,17.0316,14.9878,-7.09566,17.0217,14.8573,-7.05047,17.0246,14.7692,-7.03082
40.377,0.0389042,-0.651791,16.9462,-6.12361,-1.08346,18.536,-7.16856,-4.14032,20.4138,-7.47608,-1.28056,17.4033,-6.19124
6.64301,0.322061,-8.8891,13.0977,-4.0199,-7.39882,13.1235,-4.20262,-7.48171,12.6364,-4.08621,-9.42812,13.015,-4.39015
28.3827,0.0736261,-12.2061,22.2667,6.86263,-12.3075,25.8728,5.66612,-11.0818,25.9599,6.73426,-12.3839,21.3312,6.86418
11.5966,0.373463,12.3352,5.25686,-3.72837,13.9144,4.5181,-3.97423,11.4178,5.02121,-3.3732,13.5903,4.42165,-3.1141
4.1407,0.336013,12.991,26.32,6.06964,14.0934,27.9534,6.39252,12.5931,26.1699,6.44656,13.7255,25.794,6.28179
10.7597,0.0597621,-7.6936,37.5514,3.20157,-6.30922,37.9804,2.2168,-6.18313,37.4311,3.63251,-7.3467,38.0237,1.90849
2.15679,0.0951873,0.224524,0.20909,-0.525297,0.794571,0.146386,-0.905036,0.647475,0.147077,-0.106418,-0.660568,0.0578957,-0.321166
1.82111,0.0122804,-22.1985,27.8691,-6.65792,-21.9175,28.3574,-6.75768,-21.7762,27.9219,-6.78299,-22.2776,28.3898,-6.64359
6.25939,1.63609,-5.74139,28.5527,7.27684,-6.56656,29.9589,5.85955,-6.34098,29.9362,5.94764,-5.84769,29.9644,6.25767
10.7663,0.337649,-11.5535,18.6936,6.52496,-9.57255,18.4421,7.19441,-8.86641,18.5842,7.26596,-11.267,17.505,7.13459
13.8147,0.363771,-19.4658,18.5765,2.70455,-21.651,20.2463,3.31899,-20.1738,19.4473,2.86739,-21.7627,20.3302,3.29807
4.67157,0.289728,-12.6387,4.7068,1.2586,-13.5164,5.50635,1.26275,-12.2342,4.47664,0.571236,-11.8778,4.23024,0.359255
17.435,0.352237,7.87473,2.71309,-0.998927,6.65196,4.04353,-1.79664,5.76931,3.30443,-2.246,5.63344,3.58143,-2.2803
0.278348,0.0197874,-17.1223,31.6279,-6.35021,-17.2583,31.751,-6.36274,-17.1174,31.8882,-6.36599,-17.2656,32.3239,-6.35317
0.563538,0.00152384,22.6149,36.2075,2.98569,22.7751,35.8829,3.29193,22.8417,35.9642,3.18201,22.9785,35.9233,3.1834
46.2702,0.250115,0.294109,9.2312,-2.03988,1.01381,7.40225,-2.70601,1.75231,6.80571,-2.65655,-1.31466,9.56841,-2.61027
0.89831,0.118906,24.584,14.7278,2.33538,24.7335,14.9059,2.2143,24.7136,14.3544,2.40457,24.6645,14.5467,2.51993
1.99848,0.296605,18.9098,12.2306,5.61088,19.0931,12.8439,5.60646,18.7329,13.0159,5.65395,18.5916,13.0605,5.68315
0.203116,0.00859244,6.25462,28.4858,-7.0121,6.25902,28.1927,-7.05933,6.18367,28.1918,-7.06375,6.40972,28.3888,-7.01322
0.176719,0.0102716,-3.90872,36.4336,5.24088,-3.89808,36.2627,5.38799,-3.68611,36.2383,5.43314,-3.7488,36.1948,5.4592
8.93478,0.402691,-24.9054,21.5651,-4.07056,-25.4812,22.714,-1.7433,-25.3798,23.3691,-2.55315,-24.9984,23.3288,-3.72732
3.11344,0.290374,19.5611,37.6756,-1.87404,19.8637,37.7618,-0.962781,20.2928,37.5043,-2.31436,19.9165,37.7631,-1.0257
2.80689,0.196308,22.6743,30.1848,-5.05982,22.3416,30.5618,-4.94036,22.3486,31.0714,-4.24205,22.6796,29.4433,-5.29107
21.0211,0.095482,12.1273,10.3842,-7.05971,12.426,12.2536,-7.42257,11.6483,9.86683,-7.10048,15.6164,10.8487,-7.06907
0.940911,0.18715,1.2832,10.1001,-4.64995,0.629165,10.5812,-4.21639,0.488425,10.5288,-4.06478,0.489469,10.4906,-4.03662
3.37352,0.183237,-5.5957,14.2777,6.98514,-4.6958,14.7965,7.03514,-5.09442,14.1479,6.84721,-6.39525,14.6121,6.74016
0.0861265,0.0159656,-16.0999,16.8002,-6.17145,-16.4549,16.6941,-6.23384,-16.239,16.7105,-6.16487,-16.4262,16.7718,-6.25604
16.4472,0.315198,23.2279,18.0688,-5.31348,22.751,14.1762,-5.87535,21.5841,14.0048,-6.26633,21.31,14.0344,-6.35688
1.58041,0.0200342,12.9384,18.2563,6.25859,12.666,18.1576,6.30956,12.8267,17.8428,6.31677,13.847,18.2272,6.04646
0.55819,0.099189,-9.27095,19.5546,7.07298,-8.99262,19.6287,7.18432,-9.06491,19.7194,7.17097,-9.5488,19.4086,7.16813
10.692,1.03812,-12.6379,19.5663,5.69676,-13.6602,18.4831,6.55645,-10.0267,19.325,7.08603,-12.9924,21.1293,6.77144
1.40284,0.0609776,-22.8129,33.9308,-5.80576,-23.0833,33.1996,-5.81515,-23.1607,33.1714,-5.77511,-22.8492,34.2764,-5.81266
3.17442,0.123388,-2.87016,21.9668,7.54936,-3.04043,23.3319,7.17191,-2.95811,23.3342,7.16366,-2.99702,21.4055,7.54501
10.858,0.46239,-13.6657,14.1284,6.27299,-12.5493,15.0733,6.85355,-12.2006,14.8581,6.84663,-12.2607,13.1188,6.69734
8.38833,0.356249,0.255615,6.45079,6.45888,2.25665,5.93467,6.86578,2.74726,6.24955,6.96002,1.09702,7.00036,6.98576
0.225759,0.0124465,5.79335,33.4645,-6.356,6.09529,33.6248,-6.29714,6.09152,33.6821,-6.28071,5.87344,33.6317,-6.29509
0.453119,0.106228,-14.0984,14.013,-1.2894,-14.2036,14.1008,-1.0688,-14.2143,14.2185,-0.999933,-14.2269,14.2955,-1.04734
1.06319,0.0109583,-3.72574,18.0707,7.76938,-3.58738,17.0423,7.94427,-3.65461,16.994,7.94933,-3.35426,17.9603,7.81075
55.9484,0.0966246,-21.0797,22.1095,-7.41249,-19.3284,25.0531,-7.39051,-22.2283,22.7393,-7.00193,-20.2091,26.3718,-7.06685
11.8997,0.0522926,7.91796,14.7163,-7.5314,6.16794,16.635,-7.24029,7.06796,15.1548,-7.31352,7.00715,16.9425,-7.47509
5.62246,0.744135,-8.14251,18.0644,7.23083,-8.039,16.2717,7.56124,-8.17411,16.029,7.54362,-7.64767,16.9142,7.68515
4.93324,0.200418,16.0176,23.2375,5.65117,16.7106,20.8454,6.07568,16.4102,21.285,6.04505,16.6382,20.886,6.07549
9.47693,0.272817,-12.6987,8.6517,-1.38656,-13.9207,10.5284,-1.36119,-13.4357,10.2887,-1.73885,-13.1708,8.20785,-1.13736
21.4885,0.0826683,-1.83451,17.3894,-6.28342,-2.77341,15.6763,-5.66129,-3.59358,17.2502,-6.18334,-4.09433,16.1654,-5.8427
40.4808,0.0269081,14.5659,20.4182,-7.8102,8.5002,22.0143,-7.74895,9.47699,22.3372,-7.72497,11.0777,20.4649,-7.80785
0.682203,0.340965,-9.21827,3.85962,5.82567,-8.95058,3.22823,5.58221,-9.01376,3.27314,5.59655,-9.29484,3.45646,5.67115
32.9476,1.50302,-17.6181,18.183,-2.43437,-18.9125,17.3532,-0.060081,-19.3682,18.3235,-0.519735,-19.2676,18.0995,0.0413783
9.45285,0.485668,15.8254,4.65557,-1.6117,15.8084,4.45291,-2.64211,17.0495,5.20231,-3.58731,16.5628,4.89328,-3.17107
14.6593,0.000897567,-7.28354,11.3753,-3.09473,-8.28705,11.3691,-3.88848,-8.97381,11.3799,-3.69679,-5.01289,11.3509,-3.25292
80.7477,0.126042,16.9914,10.3759,5.70409,18.6359,13.5316,5.69796,17.5933,13.3919,5.79676,19.0567,9.63912,5.62701
2.31459,0.512464,-21.4354,24.3914,3.77304,-19.9914,24.4124,4.60433,-19.6352,24.2545,4.67778,-19.7743,24.2411,4.64801
117.294,0.0429815,17.3666,30.3869,-6.76031,19.4553,26.8618,-6.9667,19.1823,33.7586,-6.21153,14.9931,31.2067,-6.98207
35.5933,0.0475242,2.76859,8.39014,-4.60717,3.77908,6.91117,-2.9813,4.37063,7.83004,-4.91626,5.16197,6.95154,-4.02795
5.32002,0.044977,-15.8201,30.0048,-6.82973,-15.7319,29.1106,-6.84283,-16.1599,29.2441,-6.8418,-14.9674,30.0737,-6.88921
5.19594,0.277499,-9.24125,11.4343,-3.4766,-9.70569,11.5599,-3.37208,-8.80516,10.3871,-3.93386,-9.61366,11.6189,-2.82883
12.5655,0.407697,-11.67,20.4859,-5.66734,-13.1906,19.7946,-6.07022,-10.9997,21.0038,-6.22095,-9.55757,20.4384,-5.75578
0.95744,0.0432066,7.27263,2.56162,-1.48291,6.71789,2.6503,-1.76431,6.92217,2.40801,-1.57644,6.64004,2.51917,-1.72636
111.621,0.455978,22.3631,29.7667,4.92082,17.8858,26.2981,5.9547,21.1025,26.0551,5.59384,19.8733,25.8225,5.73793
1.51277,0.0731871,3.97381,9.57167,7.19757,3.77156,9.66895,7.33856,4.12613,9.15227,7.16209,4.95569,9.54553,7.04113
2.82972,0.0288837,22.2153,34.885,3.96512,22.9413,35.672,3.39605,23.2249,35.37,3.45267,21.7801,35.1472,4.00782
0.0527688,0.00164836,6.18176,37.7088,3.59725,6.08198,37.7387,3.5224,6.15406,37.6606,3.7014,6.08622,37.7087,3.59045
29.0637,0.132833,3.28698,6.85,-2.16361,3.7358,5.29282,-2.46684,2.05212,6.8938,-2.49555,4.36892,6.52611,-2.17237
14.5308,0.0243656,20.3061,7.77287,-5.04765,20.2502,7.71236,-5.36182,22.5588,9.29058,-6.18433,22.1326,9.00773,-6.43444
19.3354,0.05368,21.3104,23.5621,5.54342,19.1444,22.4218,5.8273,19.9335,21.9016,5.7688,19.5877,24.1795,5.73905
1.5682,0.00873479,2.65546,0.186048,0.908391,1.45937,0.262371,0.84207,1.9607,0.243847,0.960966,1.47715,0.226647,0.660607
2.29548,0.0676759,3.91889,20.2099,-7.88395,4.18811,20.1432,-7.94874,2.9946,20.3919,-7.95849,3.05861,20.2127,-7.92207
4.70455,0.419846,13.9341,11.307,5.63514,14.116,10.536,5.6905,15.3115,11.7348,6.10894,13.4237,11.532,6.30592
0.0483021,0.0573743,10.3806,7.98,-6.83831,10.3936,7.85872,-6.80082,10.3429,7.86522,-6.79859,10.3573,7.92619,-6.78865
14.5933,2.61189,7.29126,11.7815,7.12831,7.97474,14.5888,7.06849,6.38719,15.2365,6.43822,6.45096,15.2313,6.41803
5.33486,0.45237,15.5175,24.6554,5.17796,17.6752,25.0326,5.92019,15.9503,23.2807,5.63252,16.0173,23.283,5.64102
5.48406,0.29123,5.13077,4.40347,-1.71242,4.73208,4.68152,-2.00849,6.58306,4.19594,-1.78417,5.56213,3.61637,-2.31351
6.57573,0.0752687,19.6015,16.171,-6.71081,19.6651,15.0251,-6.57557,19.3097,15.2198,-6.59744,20.7681,16.3221,-6.60338
3.07611,0.0881094,-8.3381,10.0964,6.42473,-9.26263,9.04505,6.84952,-8.06944,10.8523,7.29225,-8.1199,10.4943,6.84351
6.01045,0.13173,11.9672,7.43345,5.62799,13.7651,6.27529,4.40521,11.6053,7.71923,5.22815,13.6509,6.42216,4.7888
1.29814,0.465873,15.2063,12.5016,-7.21971,15.063,11.8662,-7.15017,14.8544,11.9137,-7.15693,14.7178,11.9048,-7.19303
9.42059,0.0278252,-15.0813,32.5558,-6.4189,-17.0778,33.2767,-6.13921,-15.5017,32.8727,-6.32844,-17.3448,33.071,-6.19807
1.74246,0.0517807,-24.2982,23.593,-5.01082,-23.8998,22.9348,-5.64769,-24.6344,23.124,-4.59454,-24.0031,22.7515,-5.55792
54.9405,0.412642,-22.4841,20.4197,-1.57216,-22.73,20.3062,-4.62802,-20.6184,19.5324,-3.83181,-20.9851,19.6106,-4.2202
16.6356,0.105919,-23.2045,34.7485,-1.32471,-22.6273,34.7924,-0.884176,-24.1511,35.2423,-2.3877,-24.134,33.5463,0.250068
8.01523,0.190449,24.0308,31.008,-1.02998,24.6252,30.8338,0.231644,24.0564,31.2696,0.165998,24.5334,30.907,0.303639
5.7124,0.123527,-15.0298,15.736,-1.44548,-15.2468,15.4661,-1.69687,-14.3187,14.6239,-0.891062,-14.6395,15.475,-0.818602
4.20291,0.415752,13.6965,36.0684,3.92821,13.2082,36.2736,4.27359,15.0011,36.4772,4.35938,13.8804,35.2884,4.54362
5.73558,0.0980032,18.6973,6.50395,-1.80887,17.9018,5.72945,-2.36088,19.3155,6.92687,-1.82869,19.5576,7.21542,-2.41162
42.8639,0.349101,-16.0048,10.905,3.90074,-15.3486,8.72885,3.31196,-15.9559,9.11046,5.34906,-16.9072,11.3534,5.39484
5.34555,0.0496629,22.4039,28.6504,-5.54605,21.7372,29.4127,-5.8554,21.7316,29.7536,-5.85292,22.2766,29.8758,-5.54096
10.3909,1.43004,11.0827,5.19798,-3.3351,10.6248,6.14539,-4.73378,11.0686,5.91865,-5.10362,10.4953,6.18996,-4.669
6.37458,0.132336,-16.7737,14.7936,0.557871,-16.0126,14.9949,-0.0482419,-17.1851,15.2297,0.950762,-16.4685,14.6082,0.0341629
7.56457,0.0480723,-11.3723,13.5133,-4.56817,-9.55867,13.1374,-4.46849,-10.0477,12.9088,-4.4735,-9.90102,13.7927,-4.49399
7.73513,0.0874242,20.2989,7.68924,1.93304,20.1861,6.99376,1.26685,19.9904,7.64484,2.69413,20.491,8.18815,2.60274
20.5699,0.492318,-15.2939,14.5894,5.9086,-14.8407,15.6257,6.75379,-14.1369,12.5557,6.45637,-16.1377,14.1503,6.08745
20.3768,0.169367,25.1646,24.2104,-0.938317,24.9089,24.9297,-2.3673,25.2794,25.3335,-1.49195,25.371,19.2459,0.772617
22.5737,0.0259785,11.3717,10.7155,-7.26689,8.16954,10.3578,-7.3589,9.3577,10.2222,-7.28536,9.09227,11.5875,-7.44954
0.862416,0.037673,12.2278,13.0709,-7.53411,12.4303,12.7543,-7.47853,12.2215,12.6655,-7.46641,12.3622,12.5442,-7.42675
12.2888,0.0554464,25.2267,26.218,-0.705031,25.1652,27.1156,-1.02448,25.0386,27.7564,-2.66706,25.2655,26.013,-2.08029
4.73988,0.0580413,-19.7669,18.682,0.860659,-19.9985,18.9303,1.78226,-20.1593,18.9176,0.590196,-20.3825,19.2467,1.58951
10.6753,0.05305,-1.62293,36.5502,5.13458,1.99513,36.1936,5.84721,1.30067,36.1118,5.83288,2.24683,36.5738,5.53448
0.126411,0.0124444,-8.75156,34.1931,5.23821,-8.68099,34.2752,5.24679,-8.76121,34.3856,5.11195,-8.69374,34.3986,5.14997
2.09217,0.0124207,-20.9159,26.5016,-6.95926,-19.6461,26.4911,-7.10425,-19.3546,26.1384,-7.18848,-19.5069,26.6393,-7.09578
2.65099,0.130968,24.1857,27.0981,-4.01878,24.558,26.3973,-3.84639,24.0735,27.5479,-4.31818,24.5933,27.3944,-3.66782
5.5276,0.424391,-8.13513,21.4751,6.24392,-8.27764,21.0194,6.3432,-9.31429,21.9006,7.10268,-6.77522,21.6345,7.3898
26.7381,0.101284,-17.9266,34.3839,-5.9136,-18.5262,32.3336,-6.36804,-18.6959,33.0278,-6.24882,-17.8819,31.7053,-6.38331
50.3208,1.00981,-19.2419,34.6011,1.76698,-17.4873,32.763,3.83456,-17.1894,36.5851,1.59086,-16.9663,35.2678,2.88185
42.2425,0.0917061,-8.69808,32.9151,-6.35228,-5.5351,32.8301,-6.49146,-6.42907,31.5026,-6.76534,-5.72764,32.0834,-6.66638
15.8265,0.674887,10.6627,20.0512,6.11541,13.1207,20.0302,6.29351,10.0911,19.4869,6.86163,11.1036,21.4426,6.88355
60.4522,0.910771,6.37264,3.32979,6.09856,9.60763,5.47144,5.77422,9.68217,5.02884,5.53635,8.31553,6.43346,6.43079
2.19343,0.685111,21.7336,14.5228,5.61135,20.6846,15.858,5.6497,20.7051,15.9377,5.64566,20.9459,16.1672,5.72028
201.768,0.0912529,-4.06241,24.6123,-7.61295,-12.1378,27.6846,-7.24136,-8.39888,23.5701,-7.68226,-8.03795,22.6018,-7.77286
7.57262,0.238989,24.233,16.1403,-4.18764,23.641,15.903,-5.29732,23.9476,17.3914,-4.90087,24.0051,15.596,-4.85372
3.09484,0.0127003,-21.6505,35.1023,-0.0956044,-21.1413,34.9428,0.571857,-21.1919,35.1924,0.295213,-20.6472,35.6329,0.430915
41.1419,0.180254,9.19749,19.4832,-7.70932,7.81392,21.6417,-7.77808,8.78064,21.3962,-7.76888,6.20505,20.8852,-7.8741
15.8878,0.348702,-15.9053,21.1922,-7.42963,-18.3213,20.7224,-7.7409,-18.8134,19.8281,-7.37069,-14.545,21.2329,-7.75211
0.308514,0.0108082,21.8435,22.4079,-6.22476,21.979,22.4212,-6.16652,21.9559,21.8258,-6.17523,21.8444,21.7733,-6.23291
4.74252,0.3334,6.43116,15.6297,6.32607,8.04395,15.9918,7.13814,5.53259,15.9384,7.40833,6.37731,15.2769,6.42178
0.649912,0.433574,-3.61236,26.3771,6.74509,-4.24576,26.8027,7.39629,-4.17638,26.8167,7.38975,-4.31047,26.7057,7.38123
11.0073,0.316381,-19.2562,18.1925,3.48004,-19.1923,17.2591,2.99074,-20.4759,18.8574,3.9086,-20.1257,17.2812,3.56204
2.10352,0.126614,0.186945,10.47,-3.10822,0.111154,10.3708,-2.84352,-0.224766,10.3722,-3.12612,0.435919,10.2688,-3.75312
42.6567,0.224514,12.3249,38.4386,-0.484415,10.7837,38.2913,-2.27632,9.60918,38.4326,-0.482673,9.5297,38.4259,-0.987973
0.165057,0.000450766,10.4207,11.9464,-7.44067,10.2032,11.7638,-7.43327,10.2691,11.9476,-7.44457,10.3486,11.7629,-7.42997
0.027005,0.0648496,-6.10387,36.3572,4.99809,-6.15143,36.2719,5.08048,-6.06193,36.2068,5.13755,-6.1214,36.2257,5.10769
7.36262,0.018697,12.5834,6.50553,-6.43474,13.8933,5.56131,-6.21559,13.4939,7.10191,-6.63208,12.996,5.79418,-6.2654
41.3875,0.615679,-14.8057,29.8393,4.35234,-13.1543,28.998,5.88948,-12.9159,30.436,5.18341,-16.3746,29.3744,4.94737
1.47957,0.139007,-9.38375,20.7532,-5.9616,-8.99174,20.8009,-7.1221,-9.00581,20.6844,-6.84786,-9.36305,20.9008,-6.71704
8.07644,0.686975,12.1864,31.0553,5.60036,12.0612,32.1489,6.19532,11.2716,30.0537,6.67863,13.5983,30.6858,6.01509
1.54596,0.155767,-5.19345,37.9848,0.00598993,-5.18797,38.1518,-0.182586,-5.33548,38.1429,0.262763,-5.59184,38.2019,-0.287033
0.385974,0.0996209,-16.5433,37.9369,-1.1144,-16.3271,37.9138,-0.880568,-16.1006,37.9047,-0.91333,-16.0873,37.9367,-0.984194
3.87285,0.0495096,21.4366,32.6892,4.72852,22.6078,32.9386,4.41164,22.1711,33.1514,4.47378,22.7534,33.2132,4.30544
32.0149,0.198868,-13.1507,26.1924,5.94437,-14.9651,25.4759,5.55954,-15.0073,26.2295,5.65856,-14.5696,28.0672,6.0454
0.795073,0.172599,-9.67135,3.41137,-1.4336,-9.84148,3.40522,-1.24502,-9.69865,3.01128,-1.18009,-9.86231,3.4218,-1.50143
4.18761,0.037627,-9.3153,32.2853,-6.62685,-11.2713,31.9127,-6.718,-11.414,32.0087,-6.7026,-10.5129,32.3506,-6.60858
56.6353,2.91845,7.6937,6.90616,-3.80494,3.97534,8.30884,-5.32676,4.11035,8.35237,-5.55387,4.8791,8.6483,-6.23706
28.5109,0.955488,6.20119,19.4367,-7.85535,6.52075,16.7088,-7.30501,4.84111,16.6989,-7.23873,5.33301,16.73,-7.27555
5.3911,0.0652841,-6.65112,30.3682,5.52146,-7.22096,30.3676,5.7307,-5.49704,31.1778,5.89143,-4.90203,31.9609,6.28973
9.99869,0.846942,-11.8792,7.75549,-3.222,-12.9558,7.26372,-1.58645,-12.7203,8.43255,-1.66744,-12.6653,8.59605,-1.99444
9.87221,0.0902459,-1.95707,12.2429,-4.07989,-0.430787,10.7806,-3.83239,-1.64071,12.9776,-4.71642,-2.39904,11.5495,-3.6434
1.43422,0.0390989,22.5759,9.12201,-4.33809,23.0658,9.43018,-4.53864,22.7781,9.2015,-4.16318,22.2212,8.84842,-4.60995
1.07294,0.160555,3.41016,12.4787,7.26456,4.48455,12.0279,7.32934,4.41476,12.0684,7.33698,4.12228,12.0997,7.3525
0,0.0589758,-11.4553,34.3065,-5.86519,-11.5178,34.238,-5.87291,-11.5165,34.2945,-5.87276,-11.5146,34.3056,-5.86229
1.94173,0.102318,1.86335,0.603975,-2.81933,2.15154,1.04983,-3.48395,1.45543,1.05361,-3.42313,1.80611,0.955393,-3.26827
11.9375,0.0884491,4.49815,14.0482,6.63234,5.44338,16.4362,7.63818,5.59208,14.6439,7.08953,5.83058,14.1317,6.99657
8.48542,0.498608,-19.6757,30.9553,2.41056,-19.2435,30.9649,2.84241,-20.2825,31.5093,2.91104,-20.3963,29.033,3.7686
18.3557,0.0194115,8.02273,6.51344,-3.17586,9.76732,6.35945,-4.26465,10.0106,5.59887,-3.32523,9.10342,6.57066,-4.08875
6.18839,0.0573885,14.2009,10.1711,5.41577,15.4547,10.3385,5.71005,16.1233,10.7266,5.87391,14.7353,8.4876,5.65399
8.25597,0.292827,21.9364,16.0167,5.62049,23.2012,15.9444,5.29842,23.3683,16.3378,5.22136,23.1361,17.0188,5.35579
3.4847,0.0749936,19.5441,6.87782,2.50138,19.2772,6.32072,2.62481,19.9905,7.21897,2.08132,19.5432,7.22819,3.22156
14.4179,0.321816,-7.77576,21.6519,-7.60076,-4.76051,21.1198,-7.69003,-5.67693,21.1215,-7.54426,-8.6124,21.3128,-7.4954
1.88783,0.857616,-24.5601,33.0168,-3.99694,-24.0497,34.3773,-4.26985,-24.14,34.5026,-4.18614,-24.0799,34.3677,-4.18624
45.3044,0.0583247,16.4863,17.2948,-7.45327,13.5636,15.9599,-7.71002,16.4018,15.1977,-7.27533,13.3655,16.1395,-7.74823
1.8707,0.0299747,-4.84281,33.3282,-6.37746,-4.34758,33.56,-6.3742,-4.58045,33.8909,-6.19509,-5.20592,33.5433,-6.26547
0.0955744,0.0743118,12.6053,16.3322,-7.75539,12.5184,16.1961,-7.75524,12.6229,16.2571,-7.72297,12.6726,16.2489,-7.73795
3.17047,0.132562,-22.4518,24.3387,3.08516,-23.0504,25.1601,3.6876,-22.8072,24.8258,3.51659,-21.5142,24.3768,3.71938
2.98542,0.0736984,-7.61852,13.0494,7.24101,-9.02211,12.9595,6.87989,-8.66507,13.0434,6.98912,-6.84322,12.9995,7.23742
132.667,0.0376213,11.5843,38.227,1.82809,13.1821,38.3556,-2.04624,15.3895,38.3334,-0.620958,13.4107,38.2058,2.07065
0.781872,0.252345,-13.7157,37.9119,0.66034,-13.811,37.8362,0.964673,-14.3068,37.8952,0.51759,-14.1243,37.8619,0.665742
1.63913,0.0284096,-2.39162,3.80293,-5.55392,-3.11749,3.72775,-5.93106,-2.84091,3.92168,-5.694,-3.2563,3.86512,-5.93631
2.3692,0.0917101,4.77808,30.3751,-6.89924,6.38832,31.2022,-6.70704,6.46052,30.9548,-6.75604,5.89144,31.1501,-6.75123
3.35236,0.334557,2.76586,1.77445,-3.78316,3.74681,2.15597,-3.67878,2.78336,2.36725,-4.05255,3.26365,2.45446,-3.83706
0.764491,0.0736295,-12.1641,4.13089,4.03626,-12.0991,3.91884,4.05946,-12.3324,4.18908,4.31392,-12.3931,4.31383,4.01809
6.20064,0.18543,-11.3461,5.78524,-1.96395,-12.2821,6.54713,-2.07564,-11.0133,5.24605,-2.13668,-11.1067,4.73685,-1.11552
9.96897,0.50515,10.6987,15.6481,5.78679,11.4618,15.672,5.94973,10.9392,13.7465,6.26976,9.93375,15.9447,6.76562
2.44284,1.54596,-21.2188,19.6102,-0.102261,-21.8434,19.9594,-1.518,-21.5996,19.7793,-1.69867,-21.6444,19.8415,-1.6508
0.0198246,0.151097,14.741,38.3677,-0.96047,14.6489,38.2603,-0.899119,14.6005,38.3427,-0.840785,14.6303,38.3261,-0.83533
24.894,0.170684,-16.9128,12.3215,1.9058,-16.3435,11.3826,1.13378,-15.898,12.4933,-0.015976,-16.4274,13.0669,0.535595
4.09896,0.0267984,-11.0062,4.01188,-0.290712,-11.718,4.53995,-0.21562,-11.2195,3.76579,0.182692,-11.2275,4.74435,-0.986273
9.1728,0.682065,-7.59648,7.19754,-4.51195,-8.4624,6.41724,-5.11461,-6.77409,6.32478,-5.02782,-7.35286,6.09666,-5.01573
50.9336,0.259383,-19.2365,33.3299,2.48266,-22.1805,31.761,1.89933,-21.4603,30.8338,2.6658,-21.1785,30.6672,2.86102
6.22968,0.524921,-17.8689,14.2874,5.00073,-17.8903,13.5038,5.27275,-16.1423,14.3926,6.17122,-18.5611,14.5662,5.48145
13.7748,0.330534,-1.40953,10.8127,7.00353,-1.72477,11.8718,7.62788,-0.53945,10.406,7.35471,-0.286549,11.1078,7.60414
0.0189281,0.00247338,4.20772,37.1819,4.83478,4.21918,37.2048,4.77484,4.29101,37.2028,4.77788,4.29808,37.1767,4.83853
3.97338,0.0290287,-18.181,27.3454,-7.02937,-17.6757,27.3676,-7.09087,-17.3277,26.7309,-7.16701,-18.6004,27.0562,-7.05413
23.2574,0.262747,1.866,7.95494,6.8786,4.77879,7.4527,7.04258,4.2125,6.20171,6.97912,4.38951,8.18157,7.09647
4.06589,0.427637,14.7788,15.9941,5.07873,14.0849,16.1754,5.82989,15.4062,16.3115,5.37134,15.0441,15.0663,5.26869
1.72352,0.231767,-0.266666,13.7159,6.20117,-1.09097,13.6142,6.46344,-1.08851,13.5694,6.47307,0.439236,13.7929,6.41886
1.0865,0.162338,14.7175,22.3163,-7.539,14.3626,22.1343,-7.71496,14.8512,22.136,-7.67606,13.6688,22.4538,-7.79827
44.1047,0.356427,-11.5601,34.6327,3.60607,-9.76072,35.1662,3.76916,-8.678,36.9347,3.77102,-13.0574,35.3257,4.22649
1.87174,0.167179,-7.13726,23.8441,6.56036,-7.79322,23.5483,7.01942,-8.05011,23.151,7.20474,-8.3342,23.1918,7.27966
30.6967,2.48332,-8.09396,20.8973,6.38893,-8.81408,17.9035,7.31303,-7.652,18.1739,7.46184,-8.2901,18.0562,7.23126
0.0521202,0.0634691,6.72639,38.2828,-1.61483,6.81721,38.2828,-1.60288,6.79564,38.2611,-1.76897,6.83266,38.2472,-1.67236
12.3268,0.145528,23.3091,34.662,3.69751,22.1459,33.6003,4.37793,20.895,34.6858,4.40855,20.8084,35.1263,4.26654
7.91917,0.397394,-17.1781,30.2014,3.59031,-16.4791,30.6794,4.07559,-16.4487,29.4558,4.90165,-15.6401,30.0933,4.82137
25.4826,0.0443787,-0.706827,33.4415,-6.27565,-0.0375139,31.2243,-6.95817,-0.739688,30.3127,-7.04787,-1.36667,33.7701,-6.12896
2.31035,0.0844041,23.6307,22.0958,-4.89477,23.8662,21.9669,-4.77547,24.2218,22.3475,-4.51797,23.4203,22.3853,-5.24717
10.2973,0.974901,0.916623,12.3931,-5.47128,1.77788,9.67739,-4.73078,1.95094,9.22358,-4.82254,1.55513,9.36747,-4.56586
3.0428,0.0357147,9.23427,38.43,-1.0893,8.87422,38.3828,-0.153636,8.76251,38.4209,-0.704883,9.5289,38.4465,-0.705579
0.184501,0.00336683,9.07552,38.2346,1.64848,9.16518,38.2817,1.49663,9.20529,38.248,1.69326,9.07909,38.2594,1.51901
10.8618,0.195677,24.0257,31.3067,1.60752,23.9813,31.9165,2.16561,23.9879,31.3872,0.222018,24.6606,30.7017,1.89331
6.02263,0.354984,-10.7143,4.46009,-1.37969,-10.1341,3.64375,-1.05585,-10.3057,4.49133,-2.72023,-10.4126,4.84172,-2.42104
21.1158,0.485296,-18.6575,25.6258,4.51312,-20.4069,26.8341,4.58194,-17.6041,24.874,5.28416,-17.2347,27.7629,5.6091
13.713,0.178899,20.3782,20.1236,5.78023,20.0984,21.4945,5.76203,20.3615,21.9179,5.71258,21.3613,21.4768,5.80779
0.402097,0.00115385,9.95837,16.9139,6.98684,9.74246,16.6209,6.99853,9.89739,16.5322,6.96577,9.82424,16.5291,6.9777
21.0802,2.23625,18.7937,6.26842,-0.810419,16.8777,5.14254,-3.00194,16.8681,5.14016,-2.43032,16.8754,5.11249,-1.71071
8.18306,0.268557,14.5573,33.2532,5.28169,16.5212,33.26,5.47842,12.4508,33.5052,4.56159,12.378,33.4972,4.53806
0.489655,0.00146013,19.4385,35.8738,4.243,19.3296,36.4999,3.77299,19.4032,36.4566,3.78936,19.4905,36.1268,4.03059
44.644,0.268964,3.0691,15.0487,-7.21185,0.39155,18.2143,-7.40969,-0.657133,18.699,-7.399,0.366206,16.9369,-7.07144
30.1579,0.443703,-19.5438,33.0592,-6.74276,-18.1531,31.5283,-6.40054,-18.2316,31.2115,-6.50145,-19.9628,31.0338,-6.90274
10.4567,0.0148276,-1.31607,4.99432,-4.42628,-2.52751,4.78665,-5.17002,-3.35636,5.40441,-5.37436,-2.59897,4.36826,-5.36913
3.33433,0.123434,3.39951,9.24215,-6.30166,2.74561,9.35172,-5.7632,2.73364,9.43685,-5.79508,2.37303,9.85136,-5.751
7.83092,0.00141731,0.670165,13.5128,6.37612,-0.992021,13.2141,6.52355,-0.0214064,13.1658,6.36257,0.0430455,15.0065,6.97932
3.49488,0.0739009,16.9702,6.03775,-6.20051,16.4642,5.79792,-6.26541,18.4487,6.61631,-6.3169,17.9855,6.3268,-6.20332
9.49293,0.115263,-0.258603,30.0933,6.28188,2.49813,29.8909,7.02181,-0.135337,30.5691,6.33699,2.35152,30.0696,7.02512
169.738,0.358154,-15.181,37.9676,-0.0711644,-9.66745,38.2287,0.843062,-9.80974,38.2119,1.45356,-10.0696,38.2716,-0.402791
20.6863,0.161909,-21.0307,20.2673,-7.02367,-19.3705,19.1251,-6.87547,-21.1014,19.5428,-6.74686,-19.3865,18.8155,-6.67712
2.07735,0.233277,22.7785,24.4808,4.49205,23.225,24.2233,4.31455,23.4375,24.2244,4.27496,22.9197,23.892,4.63413
0.446079,0.013163,-5.48478,7.68084,-4.74503,-5.06942,7.93106,-4.63984,-5.21556,7.93338,-4.64444,-5.06764,7.88204,-4.65473
17.4171,0.22705,5.45774,30.4638,6.35328,7.1359,30.3512,6.51254,5.71497,31.9264,6.43067,6.59657,32.8995,6.81593
11.4183,0.11525,-4.64824,14.944,7.09039,-3.17719,15.6736,7.57007,-3.16973,15.4065,7.40696,-2.24889,14.8712,7.18321
1.76494,0.109762,-11.2693,3.37622,1.557,-11.2393,3.25723,2.4619,-11.5284,3.61273,1.82236,-11.2857,3.32173,2.41109
15.4151,0.557713,-4.02206,16.4303,-5.90766,-5.57506,16.3937,-5.55883,-6.56522,17.6259,-5.56962,-6.8149,18.5315,-5.90891
7.02913,0.655768,-8.64884,29.4569,5.74669,-8.8786,26.9609,7.06669,-8.80596,26.9684,7.08459,-8.97291,27.2632,6.95844
6.1114,0.551476,1.40705,26.4438,6.78517,3.17489,26.557,7.58755,0.860619,26.8371,7.54292,1.47562,25.4374,6.92317
3.24077,0.156453,4.49448,30.117,6.53907,5.26231,30.2494,6.524,4.86574,31.1687,6.63092,4.22765,29.9972,6.75953
34.9298,0.00316406,-2.12712,35.8249,-4.88377,-0.870005,34.1826,-5.79699,-2.62984,33.6844,-5.97713,-1.58145,34.244,-5.73328
4.57528,0.852559,23.0974,31.3024,-2.72233,23.0036,32.2233,-1.30728,23.0473,31.9396,-1.42639,23.329,31.5288,-1.50962
5.24835,0.187721,-20.967,37.385,-2.62578,-21.3745,37.3252,-2.01187,-21.8152,36.9939,-2.76454,-21.1743,37.0077,-3.03988
0.859457,0.00478661,-17.3161,17.0562,6.11198,-17.6758,16.97,6.00607,-18.1797,17.2141,5.66787,-17.972,17.2351,5.74129
1.27753,0.0566168,-4.43836,3.60413,6.31124,-4.88556,4.15964,6.4232,-4.82208,4.30754,6.4833,-4.31903,4.06486,6.53931
34.1408,0.0202768,-0.778602,13.8067,-5.13741,-2.64766,15.2039,-5.47239,-3.30778,13.9447,-4.88722,-3.23622,13.8139,-4.84455
0.577064,0.449318,24.4173,31.5756,2.43883,23.9743,31.991,2.20639,24.0967,31.9731,2.40545,24.1453,31.9974,2.43267
4.56785,0.371816,8.08415,30.6075,5.35939,8.03309,29.8728,5.73755,7.83577,31.0128,5.68221,9.28109,30.6738,5.99026
26.1447,0.353418,-6.53986,8.12296,6.8152,-4.56571,8.26563,7.27959,-4.52902,6.05189,7.05099,-3.63969,6.25118,7.11399
7.90958,0.44013,-14.6784,20.272,5.8207,-13.5391,21.9308,6.68402,-13.506,19.5276,6.36262,-15.2984,20.1358,6.15013
8.51937,1.19777,2.37705,38.1515,-1.64735,3.56152,38.2531,-1.37375,3.51618,38.2931,-1.07334,3.68814,38.0662,-2.05516
2.59882,0.220065,20.1216,36.007,3.91707,21.6296,36.3952,3.09223,21.6943,36.2822,3.1881,21.7028,36.236,3.23603
7.13527,0.0164024,1.53664,19.0491,7.41487,1.22398,17.1622,7.87413,1.99573,17.1484,7.80599,1.62339,17.4466,7.77497
3.66511,0.400055,4.28934,18.3691,-7.09241,3.54288,18.3557,-7.62046,5.01047,18.8795,-7.70679,4.29786,17.9002,-7.30956
7.3131,0.209887,22.8054,19.3467,5.57517,22.9725,18.3304,5.49898,22.2406,18.0844,5.68591,21.5382,18.1546,5.81291
1.31382,0.104913,-2.56557,33.0546,6.61149,-2.59104,32.0703,6.17201,-2.80454,31.7559,5.98607,-2.7199,31.7599,5.99125
0.750512,0.125185,-1.09001,1.36547,-3.64801,-0.68041,1.20118,-3.42113,-0.671217,1.30246,-3.5364,-0.536555,1.26947,-3.54815
0.945482,0.0345579,25.0241,17.8468,2.10949,25.1328,18.2648,2.04735,25.0005,17.7838,2.34722,25.0797,17.6879,1.90842
0.657226,0.118406,-25.3021,24.101,0.428149,-25.3011,24.1117,0.195845,-25.3248,23.8941,0.215799,-25.3205,24.2526,0.125498
15.7048,0.093821,-25.2656,28.1166,-2.36598,-25.1725,28.9773,-2.34368,-24.6932,31.5709,-3.75528,-24.7342,32.3056,-3.62907
213.694,0.459571,-8.06073,16.7297,-5.06991,-13.3383,16.9754,-5.6938,-12.5386,15.8786,-4.94292,-11.4965,18.276,-6.04455
5.31234,0.273183,-10.3879,32.9798,-6.39592,-9.12445,32.7678,-6.41571,-8.91717,33.2296,-6.25999,-8.97495,32.9713,-6.33253
4.80031,0.413805,13.4838,20.9004,5.7915,13.8074,19.9885,5.81244,13.0898,21.1477,6.39231,15.0245,21.1383,6.20241
5.76663,0.0591285,-5.05907,4.79707,6.4115,-3.19047,5.74054,6.98642,-1.83432,5.13224,6.80129,-1.55033,5.10563,6.80582
6.91794,0.131892,-15.4815,31.0339,-6.65559,-13.715,30.8765,-6.82523,-14.2751,30.784,-6.83843,-14.2124,31.5271,-6.71063
27.8934,1.11019,-9.40859,7.98663,5.53754,-9.80001,8.81272,6.74151,-6.90245,7.19688,6.93621,-9.74212,6.00504,6.31603
14.6793,0.346628,-16.97,17.0858,6.19335,-13.3569,15.6324,6.8546,-13.3128,15.7297,6.85922,-11.6898,15.979,7.00617
4.41518,0.0255597,8.58,11.4379,7.17621,7.61862,10.7781,7.11294,8.13543,10.1,7.04348,8.19151,10.5244,7.07918
7.78816,0.0298893,-1.85998,16.0903,7.73893,-0.598928,15.7358,7.39405,-3.18044,15.7704,7.64078,-2.90123,15.4256,7.4222
46.3928,0.738059,-17.4835,17.4743,-6.14232,-18.5439,18.5988,-6.55005,-20.5986,19.3115,-4.90059,-20.5029,19.2525,-6.49158
11.1306,0.106508,23.8922,30.9611,-1.40758,24.897,30.1958,-1.48126,23.5617,30.478,-3.3959,23.6604,31.6687,-0.644535
19.3434,0.0507135,-1.37219,37.712,-2.13434,-2.41004,37.8306,-1.57366,-2.14561,38.1031,-0.746235,-2.89444,37.7932,-1.67287
1.20734,0.34395,-12.1517,15.2787,6.83014,-13.2227,15.5938,6.86062,-13.2113,15.4534,6.85289,-13.2828,15.4082,6.87766
12.3517,0.430307,-19.4272,20.2042,5.08741,-20.5898,18.9991,3.61484,-20.8288,19.6147,3.68767,-19.502,18.9301,4.95667
6.13119,0.146701,1.72992,14.7536,6.80596,1.62844,16.5162,7.76821,2.09079,14.8353,6.91115,1.05388,14.4235,7.00488
11.1125,0.0133397,25.3653,20.2968,-0.995862,25.3404,23.4107,-1.62925,25.3695,20.4496,-1.65195,25.3438,23.4051,-1.34152
17.463,0.0117873,-1.68279,26.3496,-7.50555,0.669405,26.5838,-7.37297,-0.167702,27.0574,-7.22005,0.263733,25.9658,-7.59663
1.74151,0.626761,19.0764,36.0854,4.21764,18.1516,35.2892,4.83117,18.3254,35.813,4.553,18.2075,35.4572,4.69496
1.65121,0.00591155,17.843,5.97897,-5.26848,17.1765,5.50645,-4.94897,17.1873,5.48147,-4.7158,17.4514,5.62134,-4.51584
12.4822,0.145401,24.4684,21.9178,-4.21244,25.278,20.9677,-2.33052,25.1417,22.1968,-2.90088,24.7457,21.2816,-3.78349
25.9689,0.185555,2.30388,18.664,-7.96018,4.63589,17.5176,-7.35324,4.07268,17.2274,-7.21459,3.28054,19.158,-7.9956
31.0965,0.227518,7.13488,6.24202,-1.43262,13.2839,4.33255,-2.65223,13.3267,4.29474,-2.57754,11.7954,4.56977,-1.83598
0.0108166,0.00352032,-7.99485,36.4022,4.64673,-7.92343,36.4168,4.66211,-7.98856,36.3185,4.7202,-7.8532,36.3754,4.73241
3.64028,0.237764,-5.01173,38.174,1.21521,-4.59704,38.1781,0.812701,-5.1015,38.1812,0.313783,-4.66045,38.0153,1.24406
0.71978,0.358997,-24.8873,22.0225,0.178294,-24.488,21.8793,-0.0478475,-24.3575,21.8118,0.212072,-24.4654,21.897,0.0331823
26.292,0.131107,-19.0965,36.8989,-4.40192,-17.7489,37.7045,-2.21305,-16.7181,37.7204,-2.5181,-16.8148,37.5533,-2.95271
19.3451,0.274594,-12.4299,8.47471,5.64769,-10.2247,7.11323,6.44249,-10.7914,10.4626,7.01113,-10.3096,9.22359,6.9009
16.7394,0.274618,24.1258,21.7001,-4.58487,24.2537,19.0281,-4.38504,23.2773,18.7674,-5.2915,23.6166,18.6125,-5.00277
11.0675,0.372754,-7.46936,29.7062,5.76502,-6.68834,29.7219,6.10855,-7.75456,28.0492,6.8134,-7.75188,26.9559,7.22933
0.739359,0.0393208,5.50403,11.5048,-6.80653,5.43796,11.2694,-6.81081,5.80219,11.6098,-6.93668,5.58147,11.7647,-6.88902
76.9799,1.36036,-10.4265,14.7082,5.58723,-12.0796,15.2415,6.82052,-7.42159,14.7195,7.18631,-10.0269,9.34806,7.00456
2.91966,0.542073,-10.3859,31.4677,5.29248,-10.1706,30.6559,5.66872,-9.22442,31.3138,5.70552,-9.36351,31.308,5.71776
20.8453,0.0321201,-5.02638,10.3218,7.59326,-3.05038,8.71459,7.22701,-5.45251,9.19197,7.26831,-3.1395,9.38173,7.38852
2.68381,0.00177853,2.84993,18.0189,7.74789,2.34714,18.2636,7.72354,3.83268,17.9369,7.76164,2.66076,17.5991,7.79038
6.4114,0.0283274,10.0672,4.69566,5.27829,9.1144,5.86063,6.08881,9.46032,6.10431,6.08269,9.81842,5.71212,5.80899
0.822727,0.119543,-8.5015,29.6782,5.60157,-8.65417,29.5448,5.70002,-8.09158,29.7729,5.77192,-8.75733,29.9101,5.70063
20.7243,0.378205,-12.693,14.0129,-2.61952,-14.102,14.1257,-1.26932,-11.9292,13.2122,-3.24991,-14.4867,14.7562,-2.73604
8.77287,0.193392,-20.8836,27.6006,4.29285,-20.4846,29.0225,3.74282,-18.2343,27.8122,5.37268,-19.8437,27.8216,4.77295
4.67496,0.18503,-11.1091,10.1355,-3.85093,-11.5392,12.1364,-3.73721,-11.8473,11.5421,-3.43144,-11.7154,10.101,-3.52788
12.2941,0.113995,-23.5869,35.1654,-4.41896,-22.7352,36.5038,-4.04269,-23.1059,36.1834,-3.96911,-22.2659,36.0278,-5.28658
27.8721,0.805482,17.3238,37.2262,-3.71807,19.6258,37.6044,-2.09035,17.7903,38.0913,-2.14226,19.6594,37.4644,-3.4442
0.244566,0.0340831,-6.64315,6.1446,6.92692,-6.4864,5.91178,6.86291,-6.55475,5.80023,6.81133,-6.62149,5.79282,6.8066
0.025086,0.000151344,-19.6683,17.0852,5.27239,-19.6047,17.0891,5.29993,-19.5994,17.1638,5.28723,-19.675,17.1543,5.25572
9.72423,0.0501579,20.6767,23.5507,-6.7937,19.6565,24.1324,-7.15059,19.6647,23.708,-7.16323,19.9265,23.2986,-7.09452
4.22666,0.0815891,15.8307,13.4185,5.72615,16.5438,12.1386,5.86366,15.6121,13.9833,5.52196,16.3276,12.3142,5.8564
4.54189,0.0956773,-0.399794,11.8475,-4.28462,-0.517107,13.0727,-4.86328,-0.725446,12.9517,-4.77519,-0.443896,13.0685,-4.87532
0.106561,0.00516601,-16.2834,10.5567,6.35087,-16.0782,10.4407,6.37397,-16.1503,10.6231,6.4034,-16.0145,10.5919,6.43511
3.26193,0.0304976,-17.3748,18.6165,5.15866,-15.7934,18.6288,5.8739,-17.8917,18.7289,4.83748,-15.8672,18.5331,5.87188
6.1048,0.0644909,23.3079,21.7763,4.74439,24.5004,21.4683,3.71296,24.1547,21.9889,3.83508,23.7814,21.2759,4.57518
34.469,0.149542,-16.1042,25.0711,-7.49873,-17.6562,25.3275,-7.33783,-17.8044,26.2656,-7.17963,-18.9034,24.6966,-7.47464
8.21297,0.219315,2.22656,13.891,-6.59971,1.59184,13.5166,-6.60523,2.69098,14.5933,-6.97761,2.32328,14.68,-6.8234
17.6698,0.620558,-11.5154,12.9782,5.86758,-12.1755,11.6643,6.82993,-11.6537,13.879,6.64283,-10.6765,12.9346,6.15732
0.702085,0.00688935,4.27407,3.08849,6.13122,4.46744,3.72829,6.45624,4.39825,3.72436,6.45947,4.42295,2.84117,5.97733
0.706781,0.00129972,-9.02058,1.5024,-0.91064,-9.17913,1.81101,-1.05096,-9.29201,1.9037,-0.973233,-8.64822,1.20649,-1.18392
41.3185,0.475304,16.5507,5.41982,1.07898,16.071,4.91763,-0.912329,15.1424,4.2366,0.216989,18.1397,5.64686,1.69334
4.56311,0.313834,-14.2522,11.9056,6.18385,-12.7599,10.62,6.92473,-14.0617,12.5209,6.46989,-14.7964,11.6825,6.43046
0.301615,0.0904985,-6.84916,1.10432,3.55907,-7.05586,1.10333,3.59743,-7.12685,1.14165,3.72475,-7.0341,1.00416,3.44017
4.0839,0.166381,-8.87473,10.301,-3.92452,-8.50055,9.2649,-4.48664,-8.65264,9.41219,-4.32462,-7.81532,10.0853,-4.39487
1.55547,0.540895,25.2097,16.1011,-2.69843,25.3572,17.148,-2.22002,25.2845,16.7199,-2.18534,25.3176,16.9229,-2.20146
4.32506,0.115833,12.0459,15.0704,5.76373,11.7539,15.219,5.91756,12.4714,13.8348,5.99257,13.0975,15.0257,5.68257
2.42843,0.204592,7.3906,35.737,5.71787,7.33936,35.3515,6.09262,7.81103,35.9567,5.8023,6.81246,36.097,5.87168
0.786015,0.175462,5.60508,1.0667,3.59108,5.35463,1.3823,4.1926,5.49125,1.38767,4.10105,5.55642,1.44405,4.2285
0.0328598,0.0181596,-0.634098,38.2679,-0.084162,-0.720427,38.2216,-0.0217609,-0.756192,38.2097,-0.0267523,-0.754313,38.2392,-0.0811175
28.9399,0.521742,-7.51971,9.37864,-4.60691,-8.98473,7.98253,-4.6339,-10.004,7.44262,-5.00058,-8.02997,7.37964,-4.37796
42.331,0.215235,9.93507,2.70003,4.34089,8.52035,3.47147,5.37625,9.64805,4.45982,5.28477,11.0584,4.23991,4.6786
2.72712,0.0923752,13.9819,34.7843,4.86908,13.9555,35.2511,4.56423,14.2391,34.1934,5.14261,14.1803,33.8773,5.21797
13.5189,0.150703,-11.9797,3.67538,4.3989,-11.264,2.56369,4.35697,-11.6925,3.757,1.41303,-11.8367,3.89943,1.56739
3.14269,0.177844,21.7811,10.8666,-6.48845,23.0879,11.4141,-5.86804,22.6271,10.6409,-6.21882,22.2702,10.4209,-6.36035
21.428,0.613325,22.1232,37.7275,-2.37822,21.3404,37.4064,0.662092,21.729,37.1698,-3.3394,22.6903,37.0563,1.50581
9.37892,0.139486,-16.0689,17.076,-4.54102,-15.2845,16.1931,-5.21879,-16.8278,17.3845,-4.6756,-15.8894,16.9375,-3.94218
15.8916,0.06985,-15.7607,27.6959,-6.63162,-13.5972,26.3581,-7.33902,-15.3664,26.5753,-6.80383,-15.3535,28.699,-6.55783


