
25.0398,0.848008,-11.0747,17.385,4.25247,-8.18094,18.6231,5.44631,-7.52335,17.3336,5.17398,-8.27551,17.6533,4.90811
1.30107,0.0137472,10.3859,4.16201,-3.74858,10.7789,3.46033,-3.24772,10.7235,3.85859,-3.39736,10.6454,3.3831,-3.32597
0.0903467,0.00483736,12.7774,16.9448,-2.94291,13.1517,16.8661,-2.51244,12.8414,16.9879,-2.88199,13.1119,16.9292,-2.56536
4.58075,0.260565,2.74511,17.7842,5.46346,2.57568,17.035,5.78891,1.83512,17.9878,5.75023,3.17856,17.9454,5.69359
0.169316,0.0530352,-4.41706,0.413596,-0.642842,-4.55843,0.433371,-0.659403,-4.53388,0.47315,-0.565801,-4.48905,0.389622,-0.821775
3.486,0.206716,5.50186,28.2691,-3.2011,5.36602,29.1103,-2.65306,5.5069,29.0678,-2.70474,6.07202,28.1827,-3.61664
0.628832,0.044645,13.3331,15.2701,0.487121,13.2662,14.9075,0.23016,13.428,15.2849,-0.304663,13.289,14.9117,0.10434
18.0248,0.0830699,-8.02719,3.09502,-3.58274,-11.9687,3.26196,-2.0208,-11.8239,3.49693,-2.0428,-7.41314,3.19919,-3.70564
3.04163,0.0465905,-10.8136,29.125,-1.39159,-10.9506,29.2161,-0.631846,-10.6724,29.3123,-0.644079,-11.3759,29.0471,-0.799614
1.13806,0.0904845,-13.2346,19.7904,0.858766,-13.2881,19.6364,1.06595,-13.284,20.2728,0.927467,-13.4091,19.7418,0.522691
0.102419,0.0370824,-11.056,1.13173,1.49985,-10.0708,1.37507,2.50554,-10.0767,1.46071,2.62532,-11.1293,1.19206,1.61172
85.1035,0.0675171,1.53679,0.286413,0.463395,5.42986,0.408701,1.0318,4.88449,0.187432,-1.29807,3.48408,0.167048,-0.947608
0.816791,0.00777486,5.64227,29.996,-1.09096,4.36221,29.8891,-1.29567,4.45437,29.9192,-1.15408,5.63873,30.0465,-0.842
4.5906,0.318727,5.85931,23.5641,-4.99382,5.81077,24.0075,-5.15062,7.25365,23.6493,-4.82818,5.64841,23.1269,-5.68714
10.1171,0.0232056,-1.06946,26.7612,4.52695,-2.05127,26.6109,4.48354,0.687957,26.7125,5.01717,-0.822066,26.1103,5.27259
22.7808,0.326711,12.2585,24.3348,1.6261,9.44649,23.9929,4.21961,11.5204,25.5096,3.13876,13.1169,24.4121,-0.00834383
3.14164,0.195065,-11.9945,1.69199,0.561455,-11.4897,1.60275,2.03295,-11.6573,1.93093,2.31537,-11.4934,1.23967,0.426621
3.99207,0.413925,7.66434,9.55808,4.60035,8.7776,9.34322,4.39106,7.13796,9.0447,5.30427,7.756,10.3501,5.17618
2.02973,0.212745,-12.0966,9.69091,-3.14358,-11.6432,9.69337,-3.46203,-12.4579,9.48314,-3.24068,-12.2731,10.3561,-3.49488
2.53288,0.190436,-12.7012,17.0427,2.05892,-12.7931,17.2324,2.39512,-12.8853,16.291,2.41733,-13.0177,16.9624,1.62675
7.68621,0.294066,7.18552,20.4667,-5.37881,7.73021,21.9106,-5.57411,9.67018,19.4976,-5.12944,8.98114,19.5374,-5.27999
9.65454,0.416459,11.5921,9.01077,2.42438,12.4993,9.65378,2.23799,12.4718,7.77158,2.20636,11.0981,9.11788,3.37088
5.01813,0.0507437,-6.72375,26.5935,3.37697,-5.43963,27.3561,4.3824,-6.0047,26.9102,3.8334,-7.5293,27.3505,3.50966
20.9773,2.82025,-3.84095,15.6629,-6.53134,-6.81232,16.4947,-6.47048,-6.64781,15.9951,-5.98144,-6.92371,14.9251,-6.4528
0.0991985,0.21595,12.9354,5.09333,-0.119833,12.9423,5.30855,-0.308931,12.8169,5.28915,-0.723403,12.8744,5.3011,-0.521548
0.142957,0.0325706,13.6692,16.3325,-0.425241,13.6392,16.3755,0.0898714,13.561,16.2148,0.387975,13.5486,16.2527,0.534406
2.92988,0.14936,-7.39579,11.1571,-5.69127,-6.20749,10.8696,-6.05682,-6.77506,11.1628,-5.79722,-5.98535,11.2956,-6.13354
1.83954,0.183851,-1.5647,6.03746,5.75182,-2.11469,6.10834,5.64287,-2.47506,6.30978,5.54428,-2.8063,6.55952,5.54235
2.0606,1.49189,-2.29707,10.9757,-6.26811,-0.687722,10.8938,-6.28454,-0.683199,10.9371,-6.28739,-0.684382,10.9906,-6.30726
3.08703,0.291488,-11.0214,13.2056,-4.57201,-9.5272,13.0922,-5.42789,-9.87419,13.2152,-5.29089,-9.45612,13.2314,-5.43813
8.6947,0.121081,-5.07433,21.5123,6.25556,-4.22216,20.231,6.57287,-5.0136,19.3995,6.4606,-4.8591,19.8497,6.47281
2.36414,0.11283,0.432833,19.4789,-6.17906,1.33777,20.1464,-6.09325,1.20513,19.9199,-6.10121,-0.273971,19.3789,-6.0037
3.05335,0.497115,8.9826,7.41864,4.35207,7.41757,7.1057,4.57075,7.55624,6.827,4.54083,7.26851,7.11097,4.63979
13.1882,0.369091,-1.16634,17.907,6.02801,-3.67267,18.0018,6.05391,-4.5198,17.4966,5.96018,-4.59189,17.9093,5.93223
106.347,0.193693,9.39501,1.63273,-2.63611,2.68369,2.51082,-4.48295,3.45724,2.54019,-4.43425,4.24153,1.67314,-3.47618
9.76723,0.42029,8.7685,7.61327,4.39365,10.8349,7.91429,3.92562,10.8657,8.47313,3.70416,10.5178,8.61805,3.79058
7.84426,0.107277,2.68973,9.81389,6.22774,3.43663,11.1529,6.16507,3.08441,10.9847,6.19177,3.75629,10.5491,6.22866
2.85081,0.126355,11.9136,22.0597,-3.01539,12.0542,22.3381,-3.01184,11.63,21.5466,-3.8244,11.4576,21.5627,-4.14361
3.96596,0.532366,6.36388,17.5898,-5.46934,5.60843,17.6733,-6.15571,7.30994,16.2881,-5.79679,7.15167,18.3839,-5.88529
5.74488,0.167649,-2.75289,20.3963,6.64173,-1.65149,19.8995,6.59285,-1.4128,20.6684,6.57345,-1.43624,20.2109,6.5951
0.0216242,0.0113377,13.1272,7.43885,-0.275954,13.0475,7.12348,-0.571995,13.0505,7.17139,-0.580082,13.1398,7.43478,-0.100342
2.25521,0.181721,11.6475,12.3927,2.60083,12.143,11.8134,2.35494,11.8126,12.785,2.57497,11.5027,12.355,3.15718
6.38171,0.504694,5.18319,7.29011,5.40405,4.98213,7.82809,5.84427,6.79057,7.24458,5.01618,7.27258,7.20149,4.69073
8.67972,1.72083,2.04094,23.0014,5.72207,6.10764,23.0165,5.14598,6.24032,23.053,5.19593,6.17974,23.3287,5.24185
61.7711,0.569426,12.1837,4.94698,-1.57266,8.48576,5.4127,-4.57596,8.86353,6.24325,-4.8601,12.4628,7.01521,-2.0098
38.7597,0.332415,-7.42559,3.49586,-3.67375,-5.40688,3.65527,-4.66216,-5.36537,5.18474,-4.8808,-6.64126,2.55366,-3.68566
0.286216,0.175763,-9.86149,0.765082,1.08633,-10.1264,0.936235,1.35715,-10.0881,0.851021,1.08616,-10.1199,0.919374,1.41065
3.79836,0.183475,2.22879,26.2973,-4.9082,4.04085,26.1711,-5.20112,1.53327,26.1091,-5.3964,3.21094,26.4673,-4.94547
0.963241,0.0163256,-4.52085,14.2757,6.49446,-3.9474,14.7931,6.61185,-4.51238,14.7285,6.50073,-4.43651,14.7688,6.51714
18.3288,0.161466,5.89938,12.6441,-5.92507,7.76623,12.5316,-5.50486,5.25718,12.0368,-6.3513,5.29367,13.5357,-6.21649
0.287796,0.0289678,-8.15729,27.3359,3.38302,-7.87722,27.3708,3.42272,-7.62276,27.2817,3.52041,-7.59958,27.3563,3.50654
22.4169,0.201187,-1.12759,12.7309,-6.43476,-3.80212,11.8941,-6.3792,-4.02941,11.4745,-6.32115,-3.1217,11.3234,-6.3637
0.244875,0.0698869,-10.9635,16.4812,4.06055,-11.1008,16.617,4.14676,-11.1713,16.5736,4.12593,-10.8319,16.3794,4.1272
1.23203,0.105771,11.6201,6.66093,-3.06234,10.3139,6.68042,-4.06385,11.1405,6.60503,-3.47411,10.4473,6.71249,-4.00626
0.531552,0.432315,2.57401,10.7396,-6.26175,3.00961,10.783,-6.28476,3.00737,10.7297,-6.27112,2.99739,10.5866,-6.28066
1.84063,0.224973,5.70373,1.45655,-2.65287,5.97448,0.900618,-2.40282,5.28992,1.34232,-3.01483,6.26716,1.8213,-3.04192
0.00630127,0.0100924,13.5186,18.997,-1.15818,13.5487,18.723,-1.1458,13.5192,18.8158,-1.19854,13.5399,18.6344,-1.2101
1.75698,0.270744,-10.7121,8.34028,4.69472,-11.5031,8.62159,4.18946,-11.6424,8.37658,4.06372,-11.7169,8.19946,4.0019
25.1712,0.347884,10.1088,11.9855,-4.725,11.7437,11.8985,-3.33171,9.12995,12.2246,-4.94909,11.871,13.3304,-3.6609
7.70848,0.269734,1.55597,17.9949,5.88804,-1.60045,17.466,6.07894,-1.67162,17.5128,6.08581,-0.410697,17.8406,5.89349
0.691983,0.0192148,1.09774,0.643923,-2.58484,1.2337,0.517248,-2.39226,0.832399,0.653089,-2.6493,1.02964,0.472233,-2.3178
42.64,0.511342,-6.58854,14.7034,-6.25903,-5.22934,11.3289,-6.16034,-4.41575,12.6146,-6.20022,-5.19664,14.4931,-6.54862
1.03683,0.058704,-12.1021,15.6554,-3.8569,-12.6042,15.6924,-3.75258,-12.0301,15.6197,-3.95149,-12.5404,15.2477,-3.88072
54.0426,0.688656,3.38481,20.768,-6.1963,1.33125,23.1138,-5.63837,3.61473,21.7126,-5.53047,2.53181,23.4098,-5.61426
0.365137,0.115975,2.17001,24.5352,5.95805,2.24442,24.6693,5.90789,2.17261,24.7185,5.92599,2.38193,24.7557,5.97243
15.4468,0.14521,-0.348612,1.48574,-3.3456,-1.7677,0.925635,-2.54568,0.648141,2.1413,-3.77681,0.969079,1.20975,-3.25014
1.49568,0.365711,-11.9544,15.6824,-4.01121,-10.9433,15.6137,-5.13789,-10.7839,15.7676,-5.26439,-10.5068,15.7486,-5.45125
3.12969,0.399914,-11.6569,19.3465,-3.86312,-10.8971,19.3534,-4.29242,-12.0779,18.8718,-4.30167,-12.1826,20.2804,-4.1456
19.6787,0.400425,-9.72368,24.8937,3.3174,-8.0828,26.0508,4.14964,-9.5518,25.8802,3.3835,-9.90916,23.7846,4.34164
0.732865,0.0575331,-13.1466,16.7149,1.23471,-13.1959,16.5118,1.44498,-13.1521,16.8475,1.34519,-13.2998,16.6067,0.953646
2.86901,0.304119,-3.27487,15.3663,-6.22896,-3.24351,17.0807,-6.527,-3.10799,16.7116,-6.537,-3.24549,16.712,-6.52871
3.39314,0.013277,11.8356,15.1294,3.35948,12.953,15.896,1.97506,12.9532,15.7164,1.93485,12.9961,15.9951,1.93801
1.34743,0.128337,13.0794,26.1357,-1.33471,13.0813,25.4363,-1.13995,13.2383,26.1289,-0.132368,13.1097,25.5715,-1.0347
37.9738,0.626768,-2.66873,22.551,-5.64891,-1.73271,19.7862,-5.7719,0.0800752,22.9258,-5.75361,-2.55742,20.4458,-6.0242
1.72898,0.00671468,-0.824201,14.5427,6.43665,-0.581631,13.5271,6.42096,-0.51406,13.5277,6.44613,-0.359089,13.9694,6.55289
19.083,3.09049,9.73872,23.1211,-4.44517,6.11125,22.8849,-5.09636,5.7911,22.6468,-5.84492,6.19311,23.2247,-4.93327
0.685051,0.0302889,6.76932,8.47004,-5.96832,6.91511,8.51525,-5.95928,6.29154,8.60764,-6.15821,6.5009,8.72969,-6.10444
3.20336,0.201565,-7.74983,13.3141,5.4358,-7.79255,14.32,5.41155,-7.56976,14.3101,5.46069,-7.41011,13.4713,5.68287
2.93949,2.47822,-2.4211,10.9718,-6.25273,-5.02016,10.986,-6.06774,-5.01185,11.0861,-6.08011,-5.01973,11.0321,-6.05956
6.25241,0.417715,-3.42441,13.6686,-5.71667,-4.13102,13.0392,-6.27475,-1.47736,13.0162,-6.45046,-2.15999,13.1103,-6.38148
13.3261,0.295112,9.48903,14.2856,4.6192,7.46394,13.5158,5.05687,6.76455,13.8415,5.46194,11.7742,15.1264,3.4093
4.14748,0.133465,-6.60104,10.4576,5.09371,-6.68574,9.53252,5.39447,-6.93725,9.36308,5.36054,-6.77616,9.35163,5.40598
1.00072,0.0378977,-6.18744,14.4935,6.15747,-6.16949,14.8129,6.14561,-6.65496,14.8874,5.96641,-6.51234,14.924,6.00833
0.899017,0.105938,-12.2671,22.4892,2.96161,-12.1647,22.5529,3.32644,-12.2901,22.19,3.1231,-12.4972,22.6355,2.79354
4.44855,0.00461287,-0.237585,13.338,-5.75668,-0.336917,14.2258,-6.0802,-1.06064,12.8643,-6.41268,-0.225585,13.8558,-5.88268
0.0643331,0.00385048,-12.8617,12.0812,-3.28491,-12.8003,12.0274,-3.37504,-12.7704,12.1023,-3.44474,-12.7903,12.1545,-3.42789
2.02894,0.0618566,3.895,21.9527,-5.61495,3.60465,21.8631,-5.5918,4.32398,22.4455,-5.86673,4.25397,22.6332,-5.87903
30.2908,0.259053,9.26171,11.2462,4.28487,8.8575,11.8642,5.08074,8.64707,10.0145,4.80572,12.6042,11.2337,2.01097
5.0488,0.22057,10.6095,22.7827,3.04348,10.7428,23.3862,2.97344,11.6574,22.0441,3.06551,10.1953,22.9115,3.48324
3.12963,0.0423898,-4.2739,18.788,-5.55871,-3.11666,19.7979,-6.23387,-4.13427,18.6203,-5.66372,-4.63311,18.9119,-5.43823
8.46738,0.188626,-1.37341,11.5821,-6.44974,0.496344,10.7793,-6.30672,1.29849,12.5081,-6.49841,0.0635546,10.8337,-6.28505
6.71349,0.317539,10.3982,21.3016,3.50741,11.3781,19.8465,3.42377,10.9593,22.1903,3.44465,10.0338,21.2333,4.11462
15.8332,0.134243,1.36115,13.145,-5.90191,1.42905,15.0539,-6.48645,-0.0240068,13.2193,-5.91481,2.15132,13.071,-6.1047
1.7945,0.0325364,-12.9708,13.633,-3.32942,-13.2945,13.0712,-2.40033,-13.3177,13.3272,-2.38383,-12.8781,13.2004,-3.39995
0.466552,0.0841825,3.32736,30.0257,0.0139178,3.69017,30.0035,0.181678,3.61787,29.9922,0.160871,3.47707,29.9896,0.315241
4.40146,0.311256,9.25512,22.3666,4.01967,8.74453,22.4768,4.77487,10.0622,22.9529,3.60486,10.0587,21.6894,4.05497
1.13949,0.0531915,-4.29265,14.21,-6.35869,-4.21563,14.3601,-6.45428,-4.51747,13.7447,-6.30007,-4.72939,13.7112,-6.34611
17.0334,0.168792,7.39079,13.5636,5.07144,6.93704,12.5684,5.25946,5.98836,13.5559,5.43762,5.93859,12.404,5.68244
8.01965,0.249707,-9.69147,20.5896,-4.91424,-10.6705,20.7187,-5.04143,-9.63068,20.07,-5.14277,-8.88018,21.8428,-5.35489
13.5442,0.035519,2.78507,29.8299,1.21326,4.80438,29.7253,2.00377,3.12032,29.7307,1.98211,3.1903,29.9771,0.577418
1.1441,0.394018,-7.45598,11.1613,-5.68628,-8.24732,11.2301,-5.48296,-8.31895,11.1768,-5.45969,-8.39723,11.1315,-5.44628
2.44837,0.441041,5.49566,5.82415,-5.24471,6.88813,5.65716,-4.987,7.07867,5.73671,-4.99546,7.03961,5.7002,-4.96148
1.58728,0.0903528,6.90789,10.4507,5.66338,6.35872,10.8759,5.68266,6.0833,10.8927,5.72903,7.31633,10.2143,5.49295
1.95978,0.148196,0.695673,2.38411,3.70157,0.191188,2.09023,3.55159,0.679658,2.69553,4.28405,1.38517,2.34879,3.93946
0.874295,0.147268,7.32175,17.015,-5.73014,8.07093,16.9009,-5.15513,7.84237,16.8379,-5.24975,8.06844,16.8571,-5.1434
12.891,1.86227,9.89637,27.732,-3.28177,7.6079,27.9272,-3.65493,7.54137,28.8685,-2.88475,7.67329,28.4581,-2.92968
19.2041,0.368351,-11.294,7.81594,-3.35414,-12.3186,7.09483,-3.13699,-11.2274,9.22071,-3.98359,-12.3519,8.0888,-3.24203
12.8851,0.574139,8.07553,12.1544,-4.99806,7.12847,11.375,-5.95507,7.93003,11.021,-5.59145,10.3412,12.8604,-4.73198
3.34624,0.170119,2.02993,7.17,5.81862,3.32388,8.25053,5.99811,3.53157,8.33387,5.99546,2.86608,7.17514,5.96321
0.695989,0.675775,-12.6419,25.8699,-2.83784,-12.9537,25.6229,-2.25125,-12.9485,25.7612,-2.22183,-12.9599,25.5309,-2.2732
3.55997,0.166621,3.96701,26.6906,-4.42418,5.02225,26.709,-4.37312,3.49057,27.2981,-4.40599,3.62327,26.4787,-4.80084
0.0453586,0.0453825,5.23035,19.6561,-6.42366,5.16396,19.5711,-6.41875,5.23863,19.5701,-6.42708,5.10107,19.6216,-6.44089
1.45506,0.0814221,1.96989,22.9604,5.71751,1.0522,22.8022,5.82486,0.500319,22.8735,5.80093,0.503471,22.8223,5.81274
12.4257,0.00632431,-13.1626,15.417,0.795808,-13.1051,14.7438,0.995098,-12.808,15.1182,2.29056,-12.6675,15.9618,2.92409
10.8438,0.92243,7.11052,20.284,-5.3831,5.81746,20.5146,-6.35535,6.36022,19.7635,-6.06276,6.12171,19.2721,-5.79188
1.64754,0.170322,12.7197,9.56639,-1.75239,11.7588,9.831,-3.42071,13.1463,9.19112,-0.487952,13.1853,9.37173,-0.331014
5.20286,0.13454,-12.3696,18.306,-4.2005,-9.40197,18.3306,-5.26154,-10.9035,18.4279,-4.74489,-9.40154,18.2879,-5.28509
13.4796,0.630873,-8.24122,22.2719,4.722,-5.52451,22.3395,5.56961,-7.21285,21.7011,5.33175,-5.57501,22.8007,5.65174
3.46638,0.612809,-2.22152,6.39765,-5.53768,-4.2685,6.39826,-5.33418,-4.26249,6.44991,-5.35023,-3.01422,5.6491,-5.68509
11.4823,0.315002,1.16586,4.10051,-5.50022,0.221166,2.36745,-3.94661,0.576061,2.18754,-3.79802,1.20191,2.31805,-4.02541
3.77562,0.161528,7.44521,13.3951,-5.62731,8.11831,12.8144,-5.55669,7.24065,13.1576,-5.85032,7.81025,14.3748,-5.72779
46.5115,0.0409589,-5.60846,0.50246,0.0828576,-1.00783,0.185563,-0.199817,-3.21665,0.314613,-1.06286,-0.511495,0.154213,-0.697501
8.19911,0.500927,-12.7352,14.5341,-0.357121,-13.1115,13.7142,0.70725,-13.2528,15.1855,0.127104,-13.3532,14.1339,-2.55721
4.67127,0.501013,-1.52004,12.54,6.03236,-3.05937,12.3294,5.90437,-1.89444,11.9531,6.30001,-3.32276,12.6695,5.87203
0.045504,0.0533027,12.613,28.6839,0.0134424,12.4325,28.8564,-0.148288,12.4526,28.8619,0.0182075,12.4176,28.9053,-0.0582635
1.51715,0.141007,-1.28178,3.5764,-5.18068,-0.437925,4.02487,-5.49476,-0.716715,4.03583,-5.43324,-0.668273,4.2375,-5.56951
1.9909,0.300316,11.2258,29.705,-0.0753275,10.1078,29.9827,0.17444,10.099,30.0196,-0.313593,10.2559,29.9112,-0.0308015
3.04899,0.0602909,5.42188,13.3381,5.53375,4.86542,13.4434,5.70923,6.05628,13.4578,5.43047,4.62391,12.5765,5.8997
8.63851,0.0618347,5.45027,11.2796,-6.29602,4.89073,10.8242,-6.26912,3.85429,11.4178,-6.36186,3.43897,11.1072,-6.38847
1.63036,0.0732803,-5.4467,11.0288,-6.00733,-5.07597,11.0875,-6.0688,-5.9971,10.7817,-6.09865,-5.98954,11.1947,-6.09735
3.24988,0.0631537,2.36471,29.65,1.7804,2.0154,29.726,1.60145,2.15874,29.4219,2.61101,2.7149,29.5136,2.56506
41.7806,0.166992,-2.23053,8.87533,6.02075,-0.478301,7.38098,6.32751,-0.637559,8.70259,6.44917,-2.23831,6.87469,5.96379
0.311677,0.013118,-4.42068,1.65851,3.06449,-4.21532,1.60888,2.97663,-4.08313,1.35604,2.56655,-4.08702,1.43623,2.70049
0.32704,0.0313758,11.2564,29.7025,-0.687765,11.6367,29.4819,-0.205761,11.786,29.3712,-0.264981,11.5803,29.5417,-0.0690377
2.89489,0.206304,-4.13265,24.0513,5.96361,-4.8703,26.2667,5.2835,-4.68034,25.6998,5.51466,-5.01305,26.3196,5.26419
4.26265,0.0851633,-2.14993,22.7459,5.84801,-4.94854,22.5051,5.56035,-4.94562,22.5556,5.55778,-3.7674,22.6811,5.71373
0.0299006,0.0317523,2.85201,0.218944,-1.19869,2.80207,0.260821,-1.08525,2.848,0.216631,-1.09311,2.76465,0.276714,-1.13424
5.7985,0.0266001,7.5327,19.9991,-5.38497,9.16033,18.5968,-5.19216,9.16517,18.6418,-5.18479,8.94372,18.4294,-5.2637
1.95413,0.0562986,-13.5174,16.0584,-2.02956,-13.4312,16.008,-0.971832,-13.4598,15.8485,-1.16701,-13.4117,16.234,-1.30809
11.9817,0.354335,2.55498,13.4637,-5.73345,2.85491,16.0141,-6.40249,2.2223,13.2838,-6.02297,4.16893,13.0635,-6.30843
14.9363,0.093194,-2.21655,26.7812,-5.07963,-0.3444,25.3681,-5.69453,-0.126591,26.0618,-5.46429,-0.551481,25.3708,-5.68936
4.47491,1.1073,-7.38291,17.5047,5.27996,-4.52792,17.5924,5.9276,-4.65724,17.8233,5.89009,-4.73096,17.5781,5.78177
0.318469,0.000302985,13.0679,27.2513,0.510882,12.9987,27.583,0.560707,12.9567,27.5669,0.779181,13.0521,27.1522,0.671477
0.861054,0.0733043,-5.01035,22.5091,5.54381,-5.46769,22.3807,5.5542,-5.38167,22.3906,5.53294,-5.43776,22.7924,5.67203
4.26548,0.245359,5.77141,18.776,-5.60078,5.28316,18.7694,-6.04962,6.38008,18.0707,-5.81797,6.12753,19.0606,-5.66874
8.07607,0.277935,-11.1349,22.3542,-4.22221,-9.09115,22.5598,-5.19502,-11.6872,22.9619,-4.22504,-11.9201,22.4597,-4.22957
11.4074,1.23689,-13.3983,16.284,-0.910335,-13.3804,16.9755,0.528513,-13.198,16.0354,0.592722,-13.2191,15.7401,0.675507
11.534,0.392802,-10.6964,6.70771,-3.23365,-11.0116,5.30861,-3.71716,-11.2326,7.27366,-3.51088,-9.97215,6.82776,-3.71396
7.64803,0.221899,-5.68864,2.01414,-2.73763,-6.07966,2.18209,-3.1494,-6.03522,1.0355,-2.20485,-4.27821,1.89691,-2.98156
10.9308,0.265538,7.8969,10.4351,5.15061,9.04088,12.7712,5.00285,7.76119,12.1827,5.07069,7.50266,12.5108,5.12911
28.1164,1.03973,-8.82933,21.0546,3.2555,-9.79875,17.946,4.79161,-9.66726,21.7898,3.82467,-7.63049,21.6427,4.9339
0.763649,0.155164,1.28042,11.2432,6.19529,1.05407,11.0948,6.4434,1.50928,11.3612,6.30724,1.13385,11.3265,6.32934
9.03952,0.307475,5.52383,22.3204,4.91834,5.47426,22.9054,5.08328,6.5294,21.7519,5.37422,6.56295,22.4004,5.20372
6.69086,0.414874,-10.1782,16.3494,4.14986,-10.3198,17.0639,4.54025,-9.07827,15.0134,5.35165,-10.914,16.1489,4.18027
1.39114,0.144164,11.7627,2.40774,-0.921831,11.7599,1.94832,-0.72091,12.1314,2.61882,-0.912019,10.9612,1.60592,-1.52555
0.513232,0.00538475,12.4146,17.7784,2.77783,11.9369,17.989,3.14924,12.1884,17.7505,2.94273,11.947,17.9016,3.13214
2.89936,0.152922,8.76804,8.07821,-4.72496,8.40581,7.68645,-5.36744,8.55425,7.96769,-4.88745,8.22979,8.50546,-5.51933
0.281459,0.234326,9.96318,14.4329,-5.24566,10.2494,14.4989,-5.11925,10.0481,14.6593,-5.22502,10.1194,14.5996,-5.16976
0.691153,0.63163,8.08042,29.4667,2.97194,7.58648,29.509,2.4962,7.65404,29.5902,2.44596,7.65227,29.4764,2.46894
2.86126,0.426745,-2.93579,21.8,-5.80746,-3.70431,21.9518,-5.81686,-3.78183,21.4811,-6.03951,-3.9722,22.2104,-5.94964
3.9821,0.38637,2.42973,10.7287,-6.26353,0.898743,10.0684,-6.50445,0.560343,10.7353,-6.31601,0.649161,10.9061,-6.30023
6.3192,0.0366702,8.0145,23.6605,4.64346,6.79935,23.3573,5.08816,9.50653,23.6716,4.15036,9.3687,23.8152,4.2132
6.73882,0.382158,-8.75454,13.3238,-5.24799,-8.90294,15.0268,-5.73021,-9.53237,12.9604,-5.46774,-8.2708,13.1169,-5.71269
4.08582,0.297696,5.44663,27.1523,4.51553,5.76617,28.0652,4.29996,5.08006,27.134,4.97449,6.11328,26.4521,5.03215
1.9218,1.52661,3.15589,6.10665,-5.53178,1.62048,6.24343,-5.6131,1.60608,6.09756,-5.5831,1.61262,6.1888,-5.58961
1.78206,0.0247507,10.1776,6.68911,-4.10704,9.70937,7.10572,-4.55872,9.35833,6.85851,-4.71239,9.62775,6.57578,-4.45744
14.7001,0.589887,-0.286073,6.1978,5.13734,0.0579472,4.5328,5.43468,-1.34865,6.25526,5.7911,1.95927,7.08409,5.79488
0.35237,0.0837952,-12.4108,3.39306,2.52386,-12.5664,3.25413,2.0952,-11.6535,2.18667,2.60129,-12.5801,3.30937,2.11173
1.27829,0.0248612,-0.516599,18.8613,6.45058,-0.430541,19.2183,6.52815,-1.26525,19.1581,6.56124,-1.26181,19.2466,6.57514
0.704419,0.0477071,8.73596,20.987,-5.3886,8.45564,20.8283,-5.49406,9.08722,20.9761,-5.36145,8.53277,21.1493,-5.48506
0.731573,0.707447,12.7628,11.1919,-2.03001,13.2985,10.8284,-0.493028,13.2783,11.0581,-0.760445,13.3162,10.7203,-0.401085
7.10723,0.0338797,11.4006,23.3208,-3.87489,11.9707,24.2206,-3.2352,12.4495,24.1127,-2.62065,12.2855,23.3627,-2.80285
1.9541,0.155924,11.2326,14.3179,3.44951,11.8592,14.4498,3.25082,11.4373,13.9467,3.42505,11.0265,14.4499,3.80466
3.28487,0.200247,1.27054,2.40985,-4.12519,1.90705,1.94305,-3.97052,2.39511,2.41047,-4.3959,2.40369,2.47858,-4.45793
8.68288,0.476076,1.68997,17.5375,-5.72411,0.881942,17.9386,-6.33615,3.15994,17.498,-5.89249,1.19745,16.5715,-6.48467
3.38759,0.013102,-1.58876,9.20271,6.26547,-0.814263,9.61576,6.52674,-0.26746,9.1001,6.37546,-0.330118,9.50762,6.53338
0.369398,0.815994,13.3149,23.4897,-0.436851,13.2313,23.5087,-1.27247,13.2394,23.4398,-1.26704,13.2483,23.371,-1.26188
1.5032,0.141948,12.8514,3.19528,0.678648,12.4692,3.73946,2.17723,12.8249,3.58934,1.08395,12.6169,3.53778,1.78272
2.40576,0.111101,8.82512,10.2343,-5.16491,7.51779,10.3615,-5.72334,7.021,10.1619,-5.86874,7.51175,10.3077,-5.7007
0.578011,0.0565484,-8.92627,29.2871,1.01119,-9.06207,29.2884,1.0911,-8.64653,29.3932,1.063,-9.0702,29.3913,0.807197
2.89022,0.149974,12.1226,7.04097,2.41983,12.2966,7.42468,2.4237,11.8235,7.41234,3.06578,12.3413,6.37602,2.39844
0.793915,0.29248,4.72203,1.95062,3.70585,4.19046,1.83921,3.44375,4.15748,1.97522,3.59934,4.23556,1.97143,3.55194
3.6422,0.293893,-8.37321,13.3205,4.93953,-8.88529,12.8875,4.8823,-8.64079,13.8954,5.40198,-7.57022,12.7636,5.40071
1.68303,0.0730389,2.16056,26.4262,-4.84365,1.20129,27.1149,-4.71156,1.3375,27.2739,-4.57416,1.20207,26.9926,-4.77976
0.426995,0.118189,-12.7837,24.7518,-2.67851,-12.7983,24.8867,-2.61629,-12.7254,24.8561,-2.8878,-12.9861,24.8766,-2.35164
5.59295,0.0997438,-1.18385,30.0124,-1.22795,-3.07768,29.999,-0.589509,-3.65011,29.8782,-1.37339,-3.22141,29.9396,-1.11457
2.72831,2.43874,0.434216,22.8275,5.80464,-2.09007,22.7898,5.85089,-2.0846,22.8342,5.86098,-2.09038,22.6507,5.88016
2.41479,0.0357735,8.50728,5.45752,-4.56403,7.72861,5.65902,-4.82208,7.03247,5.65004,-4.95896,7.07234,5.69933,-4.96651
3.87321,0.313243,-11.7325,13.3405,-3.91223,-12.1208,12.5338,-4.05032,-12.1488,13.8526,-4.12313,-11.087,13.1954,-4.48144
13.0197,0.135219,-12.1002,24.3384,3.16575,-11.5022,25.6051,3.3871,-11.6116,24.0007,3.78977,-12.1322,25.9231,2.8387
1.99549,1.12411,-2.08604,6.34908,-5.54879,-0.130866,6.33274,-5.6501,-0.211666,6.18817,-5.63325,-0.136371,6.28449,-5.6293
10.5095,0.450914,-11.4461,4.42261,-2.016,-12.5276,3.89762,-1.86635,-11.4912,5.73821,-3.45335,-10.9415,3.86269,-2.37013
0.608729,0.214555,-13.5002,23.3792,-0.958575,-13.3997,23.6534,-1.49068,-13.3977,23.7483,-1.46201,-13.4035,23.6078,-1.49937
23.7831,0.718335,2.55852,12.957,5.33849,4.78826,13.4051,5.72615,1.56949,13.2327,6.1574,3.31989,11.6168,6.15209
3.18647,0.152008,-5.57083,12.2253,5.34275,-4.94955,12.2682,5.94388,-5.9461,11.4262,5.38673,-5.98956,12.2564,5.23882
3.6368,0.30846,5.42763,25.5556,5.12677,5.14152,25.587,5.52027,6.04258,26.3614,5.09522,6.51431,24.8573,5.34879
34.139,1.79088,5.3737,28.0393,-3.49582,6.661,24.9367,-5.02978,6.57541,24.1894,-4.95456,4.94799,25.9988,-5.08513
4.89806,0.0549184,10.2085,10.0867,-4.48766,8.89884,10.2858,-5.1822,11.5197,9.96646,-3.67011,11.4403,9.69736,-3.70014
0.890042,0.035496,0.562408,0.245331,0.395769,0.661443,0.167461,-0.106401,0.941602,0.153704,-0.292731,0.874885,0.153167,-0.292865
5.21773,0.431738,-4.64758,10.7202,5.6576,-2.01458,10.8068,6.46447,-5.03537,10.0763,6.09534,-4.92013,11.2133,6.01383
40.896,1.95125,-7.50628,23.0444,5.17291,-6.1415,25.8338,4.99238,-8.31548,25.6453,4.15412,-6.30963,26.4644,3.73084
30.5314,0.491247,-2.86253,24.0413,5.36078,-3.52319,25.1396,5.66426,-0.233611,23.985,5.99961,-3.60416,23.1611,5.94842
4.49689,0.075232,5.128,18.3675,5.67076,3.17079,17.9855,5.68818,3.56839,17.7703,5.98247,5.68909,18.295,5.72085
1.58051,0.09214,8.7945,24.3483,-4.76009,9.29835,24.9998,-4.60732,8.29208,23.7032,-4.72731,8.07723,23.713,-4.75022
9.6356,0.181496,-10.2211,11.3448,-4.84277,-12.451,11.4121,-3.66553,-12.4474,11.5038,-3.66177,-8.31378,11.273,-5.48249
4.79742,0.278527,6.91936,15.1529,-5.58141,8.37292,14.5518,-5.47474,7.51242,16.1781,-5.71172,6.63489,14.9814,-5.94665
2.99612,0.324826,8.83287,8.07374,-4.70658,10.2141,7.98459,-4.34944,10.9797,8.04097,-3.98495,10.7058,8.17696,-4.20806
25.1317,0.218753,-11.7506,24.5158,-3.54681,-10.904,23.1283,-4.49008,-12.1876,23.1555,-3.93947,-10.0172,24.7687,-4.46282
2.70421,0.293131,-2.65656,26.9952,4.16023,-2.63936,27.574,4.26515,-2.96713,26.5467,4.75903,-2.10881,26.7159,4.41161
11.0427,0.0325319,7.36442,5.71989,5.04961,9.42982,6.38484,4.6631,7.27587,7.01843,4.60734,9.86611,6.92766,4.42397
13.0416,0.654542,-5.81598,21.858,-4.98418,-5.75516,23.9141,-5.12669,-5.5398,20.588,-5.98848,-7.26093,21.6849,-5.71246
1.29134,0.116908,-7.5438,11.6202,5.42819,-8.24185,11.6454,5.37876,-8.50191,11.8878,5.35216,-8.0944,11.734,5.34232
16.179,0.29942,-3.87051,1.74434,-2.61925,-4.36056,1.49343,-2.66783,-3.65505,3.60747,-4.98015,-3.10481,0.780013,-2.28775
1.51552,0.00869596,0.841141,0.646076,1.43152,0.85067,0.471647,1.1064,1.33891,0.720682,1.72026,1.57719,0.629708,1.59721
4.88158,0.124428,6.4505,27.4901,4.23021,6.84089,26.9066,4.58352,6.84934,28.2756,3.99444,7.25102,26.7506,4.61557
1.47002,0.103193,12.8157,4.49191,0.129461,12.8235,4.50515,0.981559,12.5198,4.7558,-1.09187,12.5128,4.80725,-1.10317
24.5933,0.185848,11.987,20.5351,2.74767,11.7758,21.9692,2.9674,12.5301,22.0762,2.30343,12.9369,20.6809,1.66001
1.25762,0.458915,0.644878,16.2807,6.13117,0.670007,16.882,5.98114,0.531896,16.8407,5.95828,0.471961,16.8431,5.962
1.78446,0.00171583,-10.743,9.4195,-4.11054,-9.6524,9.13247,-4.70398,-9.57044,9.03857,-4.71602,-10.2079,9.3776,-4.44716
45.4181,0.414369,8.25804,16.6037,-5.04016,10.6289,16.4881,-4.63459,8.11282,15.553,-5.63511,11.3562,18.0742,-4.22032
60.1324,0.269003,10.9056,16.3746,-4.2468,13.2494,14.7975,-0.46957,12.9078,19.6834,-2.68701,12.0041,17.1593,-3.27175
96.5731,1.46268,-10.6588,19.4124,-4.40575,-7.90386,21.6413,-5.64681,-7.5287,19.3577,-5.83658,-6.78602,18.3399,-5.91345
2.81176,0.789899,-3.27204,15.2839,-6.20556,-3.55474,14.0018,-5.76356,-3.41548,14.0389,-5.7261,-3.32406,13.9488,-5.73121
0,0.000634545,-5.61309,28.543,3.46981,-5.61434,28.5665,3.44068,-5.5465,28.55,3.46072,-5.54405,28.5634,3.44474
18.3623,0.918315,-5.05251,19.0277,-5.25643,-3.58717,20.801,-6.11473,-5.76282,19.8602,-6.01613,-4.83276,20.8961,-5.98188
5.94029,0.136231,-1.41629,11.5377,5.93971,0.285892,10.9454,6.40966,-1.41012,11.8011,6.12431,0.409798,10.4881,6.36884
0.957354,0.797888,13.4206,16.2615,1.08771,13.0308,16.0046,1.86093,13.033,15.9133,1.82659,13.0401,16.0941,1.89406
16.6664,0.317002,-8.89292,15.3628,-5.50691,-9.69043,16.722,-5.82351,-9.81318,15,-5.75738,-8.76486,17.3163,-5.89901
3.55166,0.666146,11.2675,11.8325,-3.69984,12.5797,11.3556,-2.42549,12.6937,11.2186,-2.17399,12.491,11.1602,-2.61572
30.6072,0.704812,3.62237,10.7421,6.16943,6.65775,11.3178,5.86113,4.60714,12.4043,5.88703,5.6337,11.9492,5.83016
1.40823,0.0510972,0.473939,30.013,-1.05953,1.1165,30.0655,-0.755473,0.82796,30.1148,-0.436149,1.0466,29.9825,-1.12754
0.580045,0.290711,-3.00305,7.92872,-6.27275,-3.42565,7.73776,-6.19716,-3.55379,7.93625,-6.25052,-3.3572,7.59418,-6.17241
2.34968,0.0510247,2.47757,21.0636,-5.8609,1.47323,20.051,-6.09362,2.04043,20.5243,-5.9546,1.40773,20.0515,-6.09735
23.0586,0.0425559,-4.35214,18.1079,-5.91517,0.326048,17.8647,-6.40162,-1.83848,17.8407,-6.27244,-3.73591,17.2234,-6.48018
0.98664,0.0606678,10.7011,13.1808,3.74648,11.434,13.2721,3.21018,10.4793,13.0399,3.97507,10.4064,13.1758,4.09343
68.163,0.286057,-0.598432,23.3563,-5.76772,-2.51042,25.7023,-5.50128,-5.37849,25.4441,-5.25432,-5.05974,24.367,-5.45424
38.9663,0.477952,0.0135897,2.39093,-3.94421,-2.83314,3.27602,-4.69936,-2.89392,2.27194,-3.69603,-1.88206,1.4626,-3.18448
66.4498,0.630291,7.66726,28.8923,3.64096,7.72401,26.4637,4.62894,8.90459,24.7219,4.58191,9.56481,26.7856,4.12247
2.31672,0.077682,7.13948,6.55018,-5.60223,8.30164,6.20592,-5.10646,7.76037,6.78845,-5.45775,8.29983,6.15838,-5.09823
0.688126,0.121278,-11.3559,4.80795,4.00827,-11.1428,5.06341,4.1656,-11.1409,4.93101,4.1043,-10.9675,4.88159,4.25846
2.30089,0.210241,1.54276,6.19513,-5.59497,-0.0650254,6.32835,-5.64413,-0.142661,6.18616,-5.6285,0.367346,6.32986,-5.6898
1.80008,0.288587,7.43622,3.30515,-4.55997,6.01864,2.50611,-3.84671,6.01895,2.53027,-3.88613,6.08581,2.45819,-3.76667
0.238343,0.00741536,2.9024,29.7508,-1.52702,2.75886,29.6999,-1.72933,2.5159,29.7188,-1.7269,2.58552,29.7611,-1.54875
28.9358,0.628314,2.8787,14.3667,6.26477,3.28273,16.045,6.04494,2.42412,16.9613,5.80142,3.78037,16.3303,6.32868
0.214107,0.046697,-12.9763,17.3329,-3.66459,-12.9714,17.761,-3.62375,-13.0192,17.6712,-3.55413,-12.8987,17.7984,-3.72279
2.24662,0.0341831,-9.82875,0.95166,-0.932388,-10.1806,0.905649,-0.0522228,-9.70189,0.799635,-0.422718,-10.4421,1.13379,-1.03131
7.79443,0.244996,-8.53424,22.243,-5.02046,-8.73814,21.9664,-5.30077,-8.93397,23.4474,-4.9768,-6.90382,22.4208,-5.45531
0.203,0.0233305,-8.30099,26.1792,-4.86352,-8.01591,26.3535,-4.84288,-8.08472,26.1332,-4.90267,-7.94651,26.3558,-4.85768
7.75169,0.287886,-13.0318,13.7582,0.909459,-12.9263,14.4657,2.01013,-12.8549,14.0018,2.00425,-12.7894,13.2787,2.63909
2.12699,0.0696609,1.18904,28.1353,-3.28167,1.58964,27.8655,-3.39989,2.08604,27.7705,-3.43856,0.912565,28.5146,-3.30151
0.745595,0.419101,-10.2705,22.9376,-4.82054,-10.8298,22.904,-4.52638,-10.846,22.7041,-4.47633,-10.8217,22.7994,-4.49525
2.94689,0.222199,-9.90401,6.8359,-3.76377,-7.37188,7.30187,-5.36863,-7.95553,7.04984,-4.96744,-7.79344,7.43296,-5.2869
1.04566,0.595001,-1.23185,16.3477,6.23174,-1.42567,16.9503,6.19497,-1.20329,16.945,6.15344,-1.35028,16.949,6.16682
9.57389,0.503542,-4.93409,5.52389,-4.76559,-4.1345,6.08779,-5.42015,-5.79392,5.35891,-5.21691,-4.0871,3.61573,-4.92506
2.86791,0.357381,-11.1056,22.0093,4.09366,-9.51245,21.9752,3.87058,-9.75429,22.8822,4.64368,-10.3338,21.9296,4.18072
0.530618,0.0346605,10.2185,19.2229,-4.92445,10.2168,18.9503,-4.95368,9.80029,19.2129,-5.0784,10.3644,19.266,-4.92039
13.5424,0.165643,-6.80469,7.91182,-5.48784,-9.81162,8.81578,-4.76598,-5.36107,6.84774,-5.68345,-4.85462,6.85446,-5.75142
8.09122,0.290469,4.17983,21.9969,5.24567,5.29549,22.1352,5.08663,3.47388,22.3508,5.74618,3.54884,20.7738,6.17649
1.88479,0.570998,10.098,28.0843,-2.91999,8.84693,28.218,-3.02068,8.92283,28.3827,-2.91853,8.77568,28.1798,-3.08103
2.1523,0.461077,-8.90597,24.363,-4.66651,-9.60022,24.5919,-4.57263,-9.88244,24.4844,-4.43878,-10.1065,24.4154,-4.31089
1.70991,0.0608584,12.5654,25.4643,1.58373,12.3837,25.1525,1.93802,12.4418,25.5715,1.99731,12.5531,25.1873,1.62825
0.609399,0.0424071,6.07751,29.9193,-1.39127,6.28176,30.0509,-0.910945,5.99415,30.0313,-0.930067,5.84286,29.995,-1.10299
4.38832,0.039108,-6.83163,29.547,0.901766,-6.35773,29.6832,0.572233,-7.67866,29.5399,0.520578,-7.25992,29.667,-0.0939503
1.69838,0.247353,0.719555,13.0877,6.10769,1.63383,13.0057,6.09821,1.29838,13.5943,6.41964,1.72758,12.913,6.06491
1.71439,0.0232596,13.3402,12.6585,-0.523723,13.1865,12.7001,0.181721,13.2698,13.4461,0.0552742,13.2145,13.4343,0.268117
4.64474,0.311631,9.96204,24.205,-4.02233,10.137,25.51,-4.13607,10.7828,23.7821,-4.08869,9.67891,23.9174,-4.5034
1.0737,0.277733,5.94487,17.268,-5.97455,5.24242,17.2631,-6.13728,5.04715,17.356,-6.10898,5.11641,17.3971,-6.12284
9.14019,0.0838656,-0.218464,15.5368,-6.47792,-0.330834,14.2723,-6.08965,-1.34734,15.1171,-6.60191,-0.261505,16.1029,-6.54828
4.51788,0.0980957,7.05382,22.3907,5.07592,8.67788,22.5247,4.79985,7.16718,23.1261,4.90413,7.68551,22.5054,5.01152
0.0485541,0.00331361,-4.12166,29.8657,-1.31036,-3.78669,29.9112,-1.19946,-4.05307,29.8284,-1.48676,-3.91591,29.8806,-1.2955
14.0791,0.496765,0.653474,13.0415,6.0747,-1.08946,12.6239,5.83643,-3.46796,12.848,5.93008,-1.33702,11.938,6.12414
0.598533,0.0446821,11.3997,13.9783,-4.35459,11.351,14.2983,-4.42101,11.1935,13.8704,-4.51836,11.2619,14.2946,-4.53381
5.67984,0.119254,12.0928,12.224,2.31951,12.3257,12.2688,1.70838,13.258,12.2907,0.234265,13.1249,12.5962,0.321556
1.76651,0.00106036,13.1795,20.7142,-1.7729,13.4887,19.8972,-0.8386,13.3169,20.4754,-0.763916,13.4747,19.9884,-0.625657
3.76903,0.2889,0.597523,9.68761,5.80527,1.15352,9.61403,5.94483,0.686989,10.3883,6.31813,0.091663,9.14637,6.08207
0.1329,0.0104654,7.03331,29.9971,-1.18976,7.10506,29.9545,-1.33505,7.39853,30.0123,-1.13473,7.40369,29.9884,-1.23637
0.259249,0.0523387,13.2411,9.59017,-0.0121792,13.2494,9.84871,0.424005,13.2451,9.60504,-0.313913,13.2868,9.82865,0.162519
86.8418,0.677494,3.41649,22.5321,-5.71502,0.529964,24.6417,-5.30645,3.20858,25.7295,-5.5244,0.00725915,25.9748,-5.50504
8.84505,0.367206,-3.29359,6.43805,5.45497,-2.54168,6.26647,5.53494,-3.61477,7.50669,6.27985,-3.68216,5.39301,5.70702
0.19172,0.00828065,-13.6209,18.7947,-1.46227,-13.6381,18.5404,-1.27745,-13.616,18.6615,-1.58422,-13.6241,18.5497,-1.45137
0.54218,0.0404801,4.4305,16.9416,6.25033,4.43942,16.7203,6.32677,4.50807,16.7265,6.31678,4.15595,16.9996,6.31806
0.924582,0.0229719,-12.9552,9.9241,-2.71848,-12.9171,10.5531,-2.93148,-13.1387,10.4992,-2.38083,-13.0375,9.88726,-2.57337
5.12488,0.0389867,1.37092,0.146,-0.201581,0.655602,0.182697,-1.37203,1.41428,0.101835,-1.16641,1.09085,0.146916,-1.12288
1.24343,0.107554,3.28558,14.3904,6.28354,3.48455,13.9693,6.34436,3.2731,14.0834,6.22247,3.77186,14.3664,6.39247
7.96088,0.224701,3.59327,18.5231,-5.73433,4.15227,21.1223,-6.21335,4.23158,21.0348,-6.24382,3.85825,20.5014,-6.09366
0.077935,0.00165682,-12.9215,6.55095,-2.3622,-12.8548,6.233,-2.40977,-12.8614,6.13536,-2.37624,-12.953,6.1993,-2.22433
11.0576,0.457793,11.7015,13.5308,2.60878,12.3658,14.169,2.43774,12.2272,12.6091,2.2189,13.1998,13.9771,0.351609
3.32348,0.186783,4.98565,14.9411,-6.01449,4.76331,14.6979,-6.20839,4.71966,15.2666,-6.27691,6.63996,14.8987,-5.9695
1.77978,0.28424,13.0923,24.785,-0.143819,12.973,24.8995,-1.27855,12.9204,24.6593,-1.45507,12.5963,24.7575,-2.32412
24.2728,0.398344,-9.02521,28.0631,2.58129,-9.12385,25.9022,3.51141,-9.47905,26.5212,3.01442,-8.79882,26.7398,3.02963
12.3963,0.0403256,8.90292,17.8538,4.88109,10.7265,17.5513,4.07177,11.0594,18.4743,3.71608,9.08559,18.6377,4.57941
3.05078,0.0539861,-10.3759,10.609,4.30977,-9.54746,9.98713,4.96548,-10.8086,11.1845,4.11657,-9.68914,9.95654,4.84275
3.77969,0.00810594,-5.83489,0.7762,1.21183,-4.59518,0.793904,1.38829,-6.0909,0.62823,0.778899,-4.97513,1.06872,2.04506
17.017,0.567301,-9.01885,12.6161,4.59134,-7.31202,12.0671,5.33803,-9.71479,13.135,5.11102,-9.87328,10.8214,4.9496
62.1454,0.0498437,-7.01932,9.13868,5.3993,-9.59744,8.79764,5.06458,-6.91355,6.4742,5.75668,-7.39946,6.45166,5.67949
9.46743,0.291129,9.81681,19.2869,3.87679,9.30116,19.086,4.54666,10.0039,20.49,4.3054,10.6553,18.9931,3.61578
2.25444,0.266706,-11.2862,22.5677,4.03166,-10.7329,22.5749,4.35179,-10.6675,22.481,4.37179,-10.9791,23.5083,4.18976
7.71847,0.0425294,-5.54832,12.7555,5.75244,-4.09501,12.7911,5.83623,-3.26665,12.293,5.87649,-3.89168,12.1029,5.81132
6.80567,0.021645,-6.3837,20.0178,6.16348,-7.19413,18.9734,5.8668,-8.08932,19.0245,5.54581,-7.36678,19.803,5.79219
6.61335,0.41033,6.23082,19.7328,5.74518,5.57161,21.993,5.13675,5.97461,21.4649,5.16312,5.89819,21.4717,5.16824
3.40145,0.126063,0.770003,17.4839,5.77536,1.55166,17.7628,5.90215,0.153211,17.6817,5.8656,0.610602,16.9734,5.94122
78.8502,0.541196,11.8252,19.4116,2.91875,9.89626,14.8968,4.76697,13.3138,20.3657,-0.454224,10.7255,18.8982,3.6367
7.86639,0.325826,-5.48715,18.1415,-5.68013,-5.48147,19.0122,-5.32713,-4.77146,18.2453,-5.85164,-4.908,18.8517,-5.32785
9.08034,0.0717117,-2.38956,2.05822,3.5605,-3.35694,2.43875,4.04143,-2.74958,1.30606,2.42811,-4.90557,2.01314,3.57805
14.7944,0.0672055,-6.29738,6.43165,-5.03559,-8.07069,5.75884,-4.96675,-8.90127,6.82365,-4.34604,-4.26965,6.35352,-5.33725
3.81809,0.0574138,-7.62582,13.0605,-5.97626,-7.13215,12.5012,-6.29904,-8.1907,13.1664,-5.76591,-6.36281,12.9721,-6.14774
1.6386,0.582151,-11.4986,1.61338,-0.768889,-12.535,2.41655,-0.0557389,-12.4739,2.29197,0.0329587,-12.608,2.5646,-0.232338
17.2628,0.201755,-2.96128,25.2247,5.41404,0.170399,25.1244,5.83772,-2.81824,26.5074,4.73186,-1.27257,25.567,5.46821
22.8672,0.314442,-7.25599,16.7434,4.86937,-7.63731,14.404,5.43583,-5.8149,16.9083,5.91445,-7.23976,15.5945,5.11742
2.7227,0.518939,10.5218,29.983,0.979557,9.53393,29.8841,1.55992,9.46612,29.9092,1.67009,9.46357,29.9604,1.31733
1.84374,0.0216071,-9.45009,4.25797,-4.16292,-8.66724,4.98953,-4.71187,-10.0183,4.48358,-4.04575,-8.5861,4.90861,-4.71661
1.02424,0.0471854,-9.01433,15.0101,5.36841,-8.39953,14.8393,5.54847,-8.68518,14.58,5.492,-8.68213,14.6722,5.47927
9.06391,0.447041,-8.86455,23.8321,-4.52416,-6.56635,25.4013,-5.14398,-9.33546,24.3206,-4.634,-6.14514,25.4791,-5.08723
0.635586,0.0414077,7.57137,0.820174,2.18665,6.95862,0.541172,1.49267,6.95282,0.570587,1.57425,7.86634,0.462889,1.33278
17.7702,1.68493,4.98868,0.594618,-2.21823,2.56125,0.317307,-1.68036,2.44801,0.184332,-1.06894,2.92366,0.746658,-2.80965
3.84682,0.0782952,6.11809,18.4302,5.5192,6.222,19.5978,5.74334,5.68819,18.3416,5.70823,6.96034,18.5832,5.38875
3.76072,0.0929083,7.87231,18.7372,5.21165,8.72136,18.7271,4.88155,6.96321,18.5386,5.39847,9.66186,18.8094,4.3934
0.225968,0.00371545,-8.41947,28.9662,2.13824,-8.27097,28.8741,2.30314,-8.20583,28.9179,2.28133,-8.41651,28.8475,2.27433
13.2209,0.33029,-6.73952,12.475,4.98467,-6.43535,10.6885,5.13995,-7.49838,12.8077,5.41939,-5.99343,12.1608,5.21871
10.814,0.620276,-1.77564,19.382,-5.68106,-0.26655,19.5181,-6.01259,-0.341151,19.3771,-5.99058,0.158814,19.9574,-6.23003
4.3803,1.27896,0.979485,7.15548,6.0359,0.680706,8.44981,5.92249,1.11146,8.65395,6.05031,0.759852,8.48974,5.91782
0.110866,0.00871226,-13.4519,21.9394,0.0478383,-13.4774,22.07,-0.141019,-13.4752,21.9633,-0.0950269,-13.4575,22.0962,-0.0669754
1.41629,0.255656,-5.98106,19.3922,-5.93056,-7.24955,19.3132,-5.90108,-7.17917,19.2223,-5.89937,-7.25051,19.2664,-5.89197
7.67733,0.22812,1.11369,15.8578,5.99546,0.294863,16.204,6.16482,1.1868,14.279,6.51612,1.95795,16.1363,6.1756
2.14959,0.0465394,8.08533,25.2946,4.73173,6.95063,25.1291,5.17736,7.18296,25.4492,5.02049,7.67535,25.532,4.84602
6.54312,0.0446524,10.3153,8.90196,3.76521,10.8867,9.06961,3.59613,10.5616,9.97322,4.08263,8.84304,9.29776,4.36716
6.36165,0.478555,-0.756081,15.7149,5.77137,-0.750976,14.5879,6.4271,0.217364,16.1534,6.15423,-1.31618,16.1702,6.20642
13.2978,0.0142934,-13.327,8.98183,-0.121233,-13.1884,8.60748,1.45937,-13.23,7.63678,1.13383,-13.2541,7.58047,0.896182
1.18182,0.0638784,-10.8552,1.43084,-1.03157,-11.159,1.3394,-0.693437,-10.5497,1.31314,-1.31238,-10.8483,1.54036,-1.35675
0.628457,0.0657278,-6.39652,19.6989,6.15853,-5.99552,19.4052,6.24621,-5.7875,19.3463,6.32491,-5.79079,19.3022,6.32518
3.29115,0.115528,-11.3547,28.8703,0.839039,-11.9085,28.6101,0.766336,-9.39864,29.12,1.52726,-11.7782,28.5057,1.32164
1.91553,0.071963,7.66149,8.12907,4.94156,8.17276,8.52192,4.90235,7.78738,7.5806,4.85816,7.39052,8.31122,5.16311
6.32257,0.110892,-11.1464,12.0827,4.35003,-10.8311,10.9484,4.01848,-11.6801,12.393,4.09818,-11.3598,11.0803,3.84006
0.674268,0.0850191,-3.44402,26.8435,4.74836,-3.79857,26.8861,4.96013,-3.36322,27.0653,4.7659,-3.36554,26.738,4.83357
3.72032,0.383127,9.79813,23.0311,-4.48263,11.2644,22.9591,-3.90665,11.1142,22.8877,-4.02251,11.6734,22.8165,-3.62661
1.19515,0.00598343,-11.5751,9.65899,-3.51644,-10.7185,9.56623,-4.14764,-10.8055,9.4574,-4.05486,-11.0123,9.62868,-3.94142
10.7947,0.0823908,8.13607,26.6405,-4.32237,9.12992,27.4826,-3.65666,9.66272,26.385,-4.07445,9.80793,26.9714,-3.71574
14.9659,0.282092,4.157,8.21604,6.04358,1.49217,9.55214,5.99144,2.54249,9.63938,6.17411,1.13773,9.25112,5.90811
1.564,0.964251,-5.88545,18.1131,-6.03979,-6.85754,18.1122,-5.93816,-6.85753,18.2473,-5.89616,-6.85802,18.1565,-5.91624
6.03054,0.552848,3.52163,18.2413,-5.51971,3.15668,17.6709,-5.8294,5.16117,17.0457,-6.20621,4.18246,17.4115,-5.78247
1.41531,0.113156,3.55086,25.6488,5.67846,3.76033,25.9489,5.73709,3.74185,25.4883,5.81859,2.84932,25.8449,5.77013
6.70351,0.347874,-5.83532,24.0468,-5.08817,-6.04824,26.6043,-4.92969,-5.77205,26.3259,-4.95328,-5.48806,26.8491,-4.80521
2.65336,0.0378025,10.0116,13.1319,-4.98533,8.56433,14.0394,-5.47996,8.22723,14.4726,-5.54164,8.22348,14.3854,-5.56883
7.68881,0.0546995,4.32492,10.596,-6.20017,6.98371,10.2017,-5.87215,3.0655,10.6322,-6.26895,6.96761,10.3485,-5.87912
3.49671,0.373885,3.28705,6.0581,-5.49992,5.37322,5.88095,-5.26069,5.00804,5.84612,-5.32542,5.46871,5.93187,-5.30032
9.7326,0.419349,1.88097,27.6141,-3.58117,2.31093,27.1268,-4.61848,3.63181,28.949,-2.86672,4.46443,28.726,-3.06827


