
0.00125701,0.00621892,16.3564,14.7091,-7.62746,16.3539,14.6151,-7.62634,16.2772,14.651,-7.65185,16.2761,14.7126,-7.64923
3.12722,0.303858,0.902294,30.5835,7.04662,2.66418,30.3409,7.38889,2.0979,30.3003,7.39133,2.66323,30.3865,7.38348
0.351782,0.158059,-6.5994,8.00551,7.69732,-6.59517,8.28945,7.76126,-6.8083,8.24611,7.7685,-6.94489,8.25183,7.80818
5.92991,1.76474,-1.82598,26.5389,-8.91029,-4.47648,25.9516,-8.29679,-4.68884,26.4125,-8.24406,-4.33229,26.1719,-8.15836
1.77465,0.104058,-2.31469,9.80758,7.87931,-2.5658,10.1744,8.15186,-1.52784,9.69127,7.80573,-1.53104,9.19997,7.6529
9.45581,0.31801,15.1906,26.8884,-7.56629,15.5678,28.878,-7.6015,15.0035,26.5168,-7.96007,15.9847,26.4595,-7.82743
4.45356,0.0654391,-2.38106,36.9029,-2.55952,-3.4734,36.1426,-2.99194,-2.75516,36.464,-3.38506,-3.13292,36.0977,-3.75523
1.54854,0.195673,21.2094,22.5034,-1.84705,20.937,21.9819,-1.87135,20.7006,21.921,-2.08892,20.576,21.9223,-2.20085
0.123759,0.000676032,14.9949,11.1943,7.43223,14.9915,11.1047,7.43294,15.1962,11.0527,7.42292,15.1992,11.0991,7.42284
0,0.0255168,0.297651,12.6275,8.76158,0.197998,12.6299,8.80383,0.225169,12.6545,8.79298,0.292961,12.6442,8.73819
36.2735,0.186248,-9.02717,35.5464,4.60175,-12.6145,36.2644,4.09694,-11.9717,36.5623,3.13092,-9.36071,36.429,2.83816
5.79962,0.107072,11.5963,17.4107,8.00524,11.5342,17.0035,8.062,12.0155,18.0858,8.19577,13.2777,17.4578,8.10727
3.11648,0.426653,-17.2939,9.27,-6.48296,-15.6154,10.613,-7.08426,-15.7606,10.5403,-7.02346,-16.0458,10.4496,-6.95649
0.178283,0.0395386,-2.88734,22.0004,8.58267,-2.95969,22.1997,8.65096,-2.98722,21.9656,8.53496,-3.10234,22.0018,8.5708
6.42951,0.00539575,-2.62489,11.6269,-8.9606,-1.50561,11.3499,-8.93457,-1.73585,10.4598,-8.86987,-1.86625,11.208,-8.92733
5.19354,0.0854803,-15.9808,26.7949,-6.89912,-18.2208,25.762,-5.28726,-18.3542,25.8499,-5.22126,-15.5474,27.1026,-7.10813
0.616511,0.0208331,-12.2509,15.3727,-8.31672,-12.6192,15.2202,-8.23504,-12.6936,15.4534,-8.23051,-12.7646,15.3098,-8.21549
0.154376,0.123209,-17.2953,21.7646,-6.99354,-16.9223,21.7024,-7.21211,-16.9303,21.7466,-7.1938,-16.9241,21.7895,-7.19029
15.2344,0.110846,-19.3861,3.85445,-4.93751,-20.2959,5.69872,-3.93014,-20.5638,5.37288,-3.38915,-20.1183,5.71992,-4.22002
1.60004,0.229637,-3.74056,22.4521,-9.04803,-3.81394,21.6342,-9.16504,-3.73604,21.5915,-9.17671,-3.88057,21.6365,-9.17024
7.83665,0.0326679,13.5147,6.55215,-7.63142,14.874,4.9978,-7.08991,12.1051,6.06871,-7.79338,14.9585,5.138,-7.10712
9.76091,0.0788192,3.40921,13.3918,-8.94227,4.05002,13.0303,-9.01559,2.87131,14.8811,-9.04463,2.79278,13.4472,-9.02174
1.97493,0.0346025,-3.23487,37.0235,0.522581,-3.78461,36.6671,1.55901,-3.33943,36.5979,1.79043,-3.40909,36.5941,1.79457
1.59825,0.0363072,-18.2276,18.8389,7.28633,-18.3788,18.5529,7.23302,-18.2007,19.3807,7.31475,-17.8032,18.8482,7.67124
4.07577,0.54721,-7.93899,15.5501,-8.59972,-8.95042,15.021,-8.43706,-9.16656,14.1124,-8.56596,-8.95885,14.8387,-8.44905
0.229683,0.0367609,19.2976,0.817575,-0.603177,19.2351,0.779555,-0.745328,19.1832,0.773184,-0.73588,19.1175,0.808372,-0.631227
4.03911,0.0479644,-18.7055,32.9951,-5.40525,-18.4901,34.2113,-5.54312,-19.0579,33.4979,-5.35891,-18.271,34.1738,-5.60829
3.96667,0.0208056,-14.0174,25.7854,-6.98153,-13.949,25.3641,-7.2555,-14.7752,26.4223,-7.24411,-13.9929,25.0119,-7.63497
7.78026,0.0520944,-6.84642,23.6254,-8.50074,-6.98734,24.9118,-8.45627,-7.80622,22.8074,-8.97162,-7.05685,23.0524,-8.69213
1.30979,0.205812,-16.6488,32.5187,-5.6619,-17.4302,32.0352,-5.37174,-17.4271,31.8812,-5.35035,-17.5895,31.8726,-5.25393
9.95763,1.38398,-5.48762,14.1609,-8.89574,-7.04169,15.1125,-8.77439,-7.413,13.3439,-8.69199,-7.114,14.692,-8.73728
0.36485,0.0366025,-21.0053,15.4311,4.1292,-20.9759,15.7969,4.19945,-20.8878,15.455,4.43301,-20.8959,15.3873,4.38401
2.14899,0.0507349,18.5741,6.16857,-6.14803,17.4703,6.05978,-6.70335,17.7453,6.42096,-6.61822,17.4687,6.10883,-6.70984
31.9462,0.206005,5.20702,18.4168,8.40907,4.49448,16.8659,8.83542,3.65923,17.6087,8.78771,6.40281,17.9272,8.61692
5.16417,0.475883,-12.7833,15.4381,6.98389,-13.3665,14.8448,7.27542,-11.6568,15.4218,7.53013,-12.5788,16.2561,7.73643
9.08583,0.300159,-1.45972,9.33084,-8.7405,-0.920396,7.17792,-8.55626,-0.503933,7.18299,-8.60432,-1.61841,7.78752,-8.63551
47.1755,0.557719,0.104759,33.7176,5.8781,-1.37566,36.0214,2.89918,-2.06853,36.2832,2.40783,0.271462,35.9607,3.08384
55.8579,0.111305,-4.20282,23.2404,8.72788,-1.32439,22.9794,8.71685,-0.481998,23.2991,8.73309,0.0886239,24.614,8.88924
10.6278,0.0812972,11.0942,15.9705,7.98,13.3418,15.7861,8.11757,13.1974,15.7404,8.11245,12.3573,16.3505,8.10566
5.85988,0.112071,2.37482,29.2993,7.19714,2.71959,30.1081,7.37625,4.81664,28.7241,7.55004,2.72107,29.9587,7.33771
4.12766,0.172532,20.2143,28.5746,0.876515,20.8272,28.5021,-0.221597,20.9216,28.0976,-0.299169,20.8544,28.2314,-0.225521
0.72135,0.0957424,12.4189,34.0035,-6.95407,12.0704,33.6141,-7.19753,12.4276,33.7864,-7.05852,12.2682,33.6616,-7.12176
8.65505,0.072701,16.0186,7.72198,-7.36618,17.6791,7.17191,-6.69372,17.128,7.71883,-6.95975,17.6801,6.7491,-6.67416
0.0290805,0.00423554,-17.0764,23.8392,-6.72754,-17.0011,23.8209,-6.79693,-16.923,23.8786,-6.87863,-17.0828,23.8826,-6.71711
26.6939,0.0913811,-2.07603,18.5184,8.90272,-3.55328,18.0095,8.80604,-3.87555,19.628,8.75985,-2.20327,20.0148,8.97414
0.0643083,0.00728936,-6.21107,25.8443,8.66293,-6.22024,25.4824,8.71837,-6.35201,25.4814,8.71083,-6.14013,25.7992,8.68047
5.31684,0.0977725,13.5385,28.4758,-7.73772,14.1684,27.5541,-8.11306,14.3129,27.4626,-8.14125,15.3051,29.0666,-7.69132
27.333,0.12701,18.3441,9.05045,5.36601,15.3258,9.00484,7.1463,15.7027,9.10778,6.64689,20.0821,8.88708,4.2589
4.66844,0.0521698,-0.746587,35.0885,-5.89397,-2.02293,35.2176,-5.82753,-1.93452,34.7612,-6.31727,-0.421767,35.4249,-5.61091
2.13619,0.0497137,-19.8861,22.255,-4.60686,-19.0117,21.5846,-5.57732,-18.9314,21.8231,-5.63856,-19.6924,21.7412,-4.90223
15.8198,0.211485,15.4945,22.2669,7.21377,11.7719,22.1238,7.2812,13.3961,22.1176,7.33156,16.1075,20.9083,7.16052
4.96492,0.00669119,6.6625,7.97577,-8.54315,5.4715,7.97786,-8.59233,5.53148,7.69655,-8.53014,6.03498,8.1671,-8.60599
0.0508045,0.0501535,-20.0081,33.0071,4.69985,-20.0145,33.1374,4.69372,-20.0209,33.0717,4.62615,-20.0445,33.0052,4.62484
0.539645,0.00228762,-1.3767,33.3045,6.15511,-1.22602,32.895,6.47839,-1.16042,33.3852,6.0942,-1.44492,32.847,6.51061
0.221335,0.274449,8.25905,29.9259,7.44135,8.48969,30.0993,7.39508,8.42425,30.1439,7.40593,8.55326,30.0572,7.40496
17.7067,0.265494,6.35098,11.5274,8.36409,7.53779,10.2161,8.12872,8.66652,11.7081,8.20189,7.67399,10.1135,8.07979
5.43287,0.339956,18.6348,28.8649,3.24173,19.2057,28.7928,2.4311,18.87,28.1902,4.14293,18.9248,29.2937,3.2273
0.033592,0.00201688,-14.4271,24.321,8.1762,-14.3595,24.28,8.174,-14.5012,24.2267,8.16182,-14.4184,24.199,8.16005
0.619859,0.0290903,-15.3089,14.4158,8.28097,-14.5942,14.345,8.47296,-14.8847,14.4699,8.39907,-14.528,14.4844,8.47584
9.53866,0.0747571,20.5968,29.5176,-0.34698,19.6436,29.9423,2.03541,20.2183,29.8225,0.65778,19.6592,29.6621,2.12884
2.01385,0.0693785,13.5114,28.3347,7.07111,14.1296,27.7469,7.18503,13.4413,27.6839,7.33282,13.5742,27.9343,7.18405
116.409,0.580003,-5.10905,25.5666,-8.15653,-0.506278,24.7161,-9.06571,0.480619,23.1585,-9.14463,-3.26451,22.7087,-8.88513
18.7912,0.215464,1.22022,6.10765,-7.84572,3.54103,5.83072,-8.17744,3.26078,6.16431,-8.26305,-1.32074,6.30033,-7.92279
4.51172,0.155872,20.3337,28.6476,-2.16154,20.1631,28.5589,-3.22544,20.3634,28.9489,-2.2281,20.9223,27.9307,-1.84019
8.28818,0.905846,-20.8923,4.54268,4.66211,-20.7879,2.59888,4.53062,-20.7814,2.64848,4.57211,-20.2058,3.51973,5.59265
0.17366,0.107177,-15.9046,1.61517,1.877,-15.9061,1.63144,2.03192,-16.0258,1.63542,2.00103,-15.9624,1.65107,2.03197
1.21387,0.0387003,2.57421,24.866,-8.78522,3.24227,25,-8.33646,3.11235,24.8712,-8.42175,2.77347,25.1204,-8.60564
4.72268,0.043286,17.9246,26.151,-7.19642,16.9861,24.098,-7.00212,16.9204,24.1026,-7.0497,17.2722,25,-7.19959
3.06662,0.126604,17.8751,26.4937,6.59791,18.7427,27.0935,5.32525,18.6373,27.2213,5.42778,18.6857,27.2272,5.35497
7.58884,0.481516,-15.3397,6.42781,7.55265,-14.5578,7.13763,7.64061,-14.4955,6.61264,7.57216,-15.1164,7.53214,8.03868
0,0.0171147,17.0747,4.6015,6.3232,17.0054,4.60409,6.33962,17.0802,4.62001,6.33071,17.0702,4.61807,6.32243
154.394,0.111555,11.1921,13.0383,-8.66088,9.6814,17.3082,-8.81248,13.2418,15.6916,-8.52303,11.7681,18.2046,-8.59999
2.07275,0.0971195,15.3095,22.6607,-7.32396,15.4552,22.9829,-7.33081,15.812,22.8456,-7.32807,15.0421,22.0971,-7.58945
3.11324,0.0250156,-20.8796,21.93,-2.95135,-20.2521,21.8171,-4.13359,-20.2419,21.9534,-4.13011,-20.787,22.7997,-3.02809
5.8453,0.145445,-16.5743,30.7725,5.25067,-16.641,29.7559,5.91263,-15.3841,30.6664,5.86906,-16.5077,31.0573,5.29872
9.13689,0.203286,1.88839,14.0522,-9.04526,2.28164,12.1952,-9.00252,3.47684,12.5212,-9.00644,2.71324,12.472,-8.99097
0.222367,0.00941553,-9.46428,21.7474,8.93933,-9.53794,22.1913,8.80841,-9.46156,22.1455,8.81357,-9.58885,22.0179,8.86424
0.299311,0.0158835,10.7381,1.72721,3.60335,10.5532,1.70485,3.58196,10.6688,1.65126,3.47467,10.5497,1.66971,3.50683
0.619563,0.0894328,18.944,21.8828,-2.6794,18.9395,21.1691,-2.4877,18.6588,20.9808,-2.46785,18.8047,21.0253,-2.47058
33.2852,0.124529,20.8884,6.20706,2.82999,20.7854,5.08865,3.2096,20.0947,7.42772,4.26891,19.5654,6.17491,5.06988
0.709147,0.530292,9.09516,34.5416,-6.44413,8.53966,34.2521,-6.68041,8.54466,34.3738,-6.57428,8.53896,34.2105,-6.7243
1.12143,0.0585342,13.2067,6.89808,7.3191,13.5595,7.05315,7.38062,13.2075,6.56803,7.25647,13.0657,7.17268,7.51178
0.233358,0.00476761,16.1002,8.23534,-7.34907,15.8871,8.14252,-7.39634,15.8866,8.1026,-7.39516,15.9516,8.05542,-7.37674
0.366268,0.0425781,3.12466,26.0663,8.61013,3.18063,25.8436,8.64581,3.31723,25.7987,8.65909,2.98229,25.8062,8.66445
5.1308,0.182063,-5.10963,23.205,-8.46332,-5.94637,23.1286,-8.5756,-4.93742,24.2256,-8.52709,-4.55363,23.9241,-8.26881
4.43168,0.021071,4.46578,12.9631,8.53189,5.465,13.8415,8.58661,5.09077,11.9231,8.47878,5.03247,13.3781,8.54963
1.31962,0.02398,5.12443,17.6397,-8.92534,5.69108,17.4648,-8.98099,5.19328,17.143,-8.99333,5.20499,17.875,-8.93198
4.51938,0.975947,19.7914,10.5701,4.42103,18.7082,10.0644,5.27691,18.7185,9.70686,5.25807,18.712,9.50216,5.3437
13.8908,0.0334949,2.85508,11.9197,-8.97536,1.52076,11.4097,-9.0126,2.78238,10.7525,-8.95777,1.71731,10.6649,-8.97512
6.00306,0.590704,15.2785,1.77574,3.6184,15.5108,2.19125,4.39848,14.4576,2.34983,4.64398,15.8574,2.12954,4.36655
3.8822,0.417631,2.40053,30.3986,-7.64969,1.5927,30.6574,-7.91178,3.3286,30.9185,-7.74015,3.60241,30.9239,-7.76975
11.8655,0.656097,-10.8493,26.2435,-7.37108,-8.32385,26.3117,-8.20867,-10.5897,25.348,-7.90608,-12.2408,27.5039,-8.15706
12.3754,0.249659,-4.42901,21.5214,8.38003,-5.97891,21.4874,8.08801,-6.95475,20.734,8.53115,-6.67353,20.2266,8.84215
0.0603417,0.0159159,-20.9815,2.06764,2.34449,-21.1096,2.09261,2.33641,-21.1103,2.08309,2.29195,-21.0428,2.05184,2.25524
15.9456,0.365029,-4.45969,25.1919,8.76213,-3.98244,23.843,8.74674,-2.56977,25.134,8.77065,-3.06753,24.042,8.8892
2.95607,0.046552,-1.5579,21.8389,8.51551,-0.357005,22.1142,8.57636,-0.358774,22.3959,8.5912,-0.987313,21.8406,8.5621
9.43496,0.128429,17.9047,27.9363,-6.70394,18.8422,28.3898,-6.0687,18.6683,27.1366,-6.54756,16.815,28.5802,-7.46084
1.33769,0.0121943,11.5066,30.0477,-7.39945,12.0827,30.0633,-7.52413,12.2958,30.0239,-7.58284,12.2083,29.8415,-7.59337
32.6095,1.73395,-1.15738,21.0138,-8.98387,2.48792,22.4482,-8.99187,1.87874,23.6758,-8.88435,1.7169,22.8265,-8.68155
1.87904,0.332344,-7.27312,11.3053,8.24006,-6.06963,11.9179,8.32892,-6.15025,12.2045,8.36592,-5.9258,11.8241,8.34754
2.55481,0.321216,-16.6597,32.5626,-5.66146,-15.6398,33.6246,-6.06645,-15.2836,33.7708,-6.11715,-15.2197,34.0465,-6.09961
1.46671,0.364899,11.486,7.69333,-8.16296,10.8582,7.32875,-8.19314,11.1921,7.35553,-8.02915,11.4088,7.03542,-8.10059
1.25153,0.0753318,-15.8628,27.8918,7.1631,-15.4526,27.7573,7.2129,-15.1691,27.4984,7.36024,-15.3168,28.1099,7.12032
7.21759,0.272153,20.1829,31.247,-2.31392,20.5118,31.161,-1.81319,20.2824,30.7981,-2.6632,20.4708,31.9826,-3.99917
0.772447,0.203225,-3.83819,6.03084,-8.03754,-3.64545,5.38835,-7.78227,-3.50238,5.59229,-7.87251,-3.5682,5.54162,-7.83834
1.76412,0.0883871,-8.59406,24.2348,-8.56768,-7.60268,23.8807,-8.70753,-7.67116,24.0216,-8.73188,-9.22098,24.5332,-8.3436
0.854082,0.0998334,18.9243,21.1184,5.98554,18.0221,20.8486,6.62021,18.1335,20.9992,6.57219,18.0196,20.7545,6.60912
117.649,0.353839,-21.5806,11.2897,-1.65568,-21.4313,10.3146,1.71638,-21.2984,11.1781,2.54614,-21.7247,12.666,-0.320383
27.8922,0.0110607,-5.383,17.9327,8.24586,-3.62156,18.3316,8.82203,-4.40363,16.6049,8.10824,-4.53161,18.9834,8.76885
0.728034,0.0509617,-18.2722,28.849,6.58301,-18.9393,28.7901,6.23917,-18.9798,28.7546,6.20372,-18.4812,28.6476,6.45513
3.16445,0.169416,17.3179,20.0885,6.46162,18.5902,19.9462,6.22609,17.2385,19.4246,6.66943,17.1592,20.3996,6.68973
0.681861,0.0218647,-18.8698,20.9501,-5.70608,-19.2454,21.1351,-5.34441,-19.0935,20.8746,-5.47273,-19.3421,20.9667,-5.25183
0.645159,0.016371,-1.27753,32.3075,-7.82018,-1.50201,31.8451,-7.80894,-1.42886,31.8454,-7.81134,-1.71097,32.4004,-7.82649
5.76325,0.708595,-21.5384,6.92682,-0.149556,-21.3465,5.48245,-0.961735,-21.1647,5.66225,-1.60815,-21.1564,5.59541,-1.90124
3.69237,0.0198144,-19.5925,13.3357,6.07524,-20.095,12.8187,5.15788,-19.702,12.6624,6.00026,-20.0805,12.7516,5.20656
12.1971,0.419535,13.5001,21.2755,-7.79526,14.63,21.5471,-7.67089,13.8608,22.4346,-7.73152,13.9352,20.8797,-8.20754
28.086,0.207775,-12.0616,1.62234,3.79438,-14.9371,1.86309,3.40967,-14.5933,1.58435,2.67814,-15.0776,1.69917,2.74272
0,0.00262846,5.9692,22.0203,-8.78047,5.91148,22.0188,-8.80284,5.96,22.0547,-8.76947,5.92412,22.053,-8.78181
2.43439,0.026975,20.8748,14.4612,-3.5572,21.0832,14.5077,-2.66727,21.0612,15.1412,-2.55434,20.9836,15.3303,-2.78372
9.18423,0.459809,5.32795,30.948,6.63943,5.37208,29.1859,7.27633,6.09362,30.845,6.93052,4.70652,31.82,7.19001
46.9881,0.0331478,12.3651,11.7546,-8.40953,14.3541,9.04951,-7.88862,14.5897,10.1645,-7.90503,13.4558,8.83953,-8.05729
5.49108,0.0974458,-9.09479,14.9715,-8.42494,-10.942,13.5951,-8.20463,-10.6543,13.5588,-8.2459,-10.5209,14.0236,-8.28115
0.941616,0.130154,1.67458,28.8948,7.57362,2.23446,29.1722,7.27737,1.11146,28.8855,7.48268,1.10938,28.9315,7.4646
11.6046,0.0166836,-12.8865,12.2899,-7.80443,-10.8745,13.5076,-8.19855,-10.6636,13.2824,-8.26285,-10.3795,12.7398,-8.36387
5.79452,0.41051,-13.848,30.3915,-6.83509,-12.7667,31.0968,-7.3349,-13.7563,29.6567,-7.62663,-14.7657,30.6309,-6.91857
1.11873,0.0321973,3.42077,21.742,9.1098,3.07449,22.1112,9.07056,2.65375,21.4342,9.16647,3.07556,21.6997,9.10856
3.84885,0.34257,-18.1664,13.6322,6.41966,-18.7163,13.0155,6.60928,-17.9337,14.4435,7.13943,-17.5861,13.5227,6.65181
1.11704,1.28789,12.9254,35.3628,4.97712,12.8697,34.4229,6.18526,13.0106,34.4287,6.19111,12.9394,34.4247,6.18509
24.1427,0.916117,19.6105,1.80333,0.982181,20.2789,0.932668,-0.820583,21.4666,1.28776,-0.552682,21.7647,2.48372,0.34845
0.426207,0.0247421,-0.747066,18.9743,-8.97896,-0.67884,18.8003,-8.99912,-0.808726,18.7242,-9.03448,-0.948855,19.0233,-9.04901
4.35911,1.13638,-14.7324,21.7542,8.33093,-17.0029,22.1525,7.46934,-17.2021,22.0581,7.46629,-17.2677,21.9653,7.45082
0.532078,0.0252027,-19.7869,36.4053,-3.03886,-20.2311,36.0362,-3.25028,-20.2512,36.0653,-3.16575,-20.291,36.0015,-3.25574
0.0639942,0.0176211,-7.72502,26.2136,8.55167,-7.59718,26.2042,8.50475,-7.53217,26.3272,8.40512,-7.59472,26.2475,8.4815
1.10685,0.0248677,19.6067,33.6034,3.23155,19.8105,33.3559,2.91896,19.7423,33.9792,2.97553,19.8206,33.9884,2.86534
0.89278,0.229959,-11.8565,9.53299,8.24168,-11.7888,10.1502,8.37166,-11.572,10.0689,8.38349,-12.0512,10.1683,8.37068
5.43885,0.141548,12.4994,16.5783,8.08418,11.0836,16.5166,8.19669,11.9428,17.0451,8.0644,12.7772,16.8664,8.15308
1.22587,0.431356,-0.000366908,7.37982,7.70466,-0.56159,7.34959,7.4994,-0.633641,7.77403,7.51924,-0.561859,7.44583,7.49606
3.96867,0.0609909,21.0881,11.4427,3.19314,19.8344,10.4991,4.37593,20.3139,10.929,4.06297,21.1915,11.1706,2.82298
2.66958,0.0310401,17.6886,35.6588,-5.64056,17.2138,35.1603,-6.17963,17.5874,36.4464,-4.73308,17.2843,35.1939,-6.13731
0.35409,0.00204708,2.99575,13.0261,-8.98309,2.85712,13.1178,-8.98629,3.21138,13.1207,-8.99112,2.99931,13.2588,-8.99282
1.66426,0.353456,7.71689,16.8196,8.1642,8.08448,17.5959,8.39321,8.15767,17.599,8.40898,8.01032,17.6008,8.37481
17.6694,0.395338,1.96498,28.2827,-8.83746,-0.23119,28.6919,-8.414,-0.234009,29.8335,-8.31659,0.11982,28.2554,-8.58059
10.1358,0.321969,19.8021,16.9099,3.17185,20.3049,16.7041,2.51184,19.6063,16.4771,4.41134,20.7347,18.0494,2.57714
16.0428,0.317597,13.5023,22.5685,-7.68067,14.8066,26.5817,-8.05817,14.5652,22.7546,-7.71152,14.294,25.0237,-7.77932
0.505324,0.00449026,-21.6546,19.6198,-0.539466,-21.6455,20.2638,-0.431847,-21.6555,19.9108,-0.399259,-21.6493,20.2663,-0.385201
3.71868,0.118713,-7.56132,26.0768,-7.7818,-8.39516,26.5935,-8.23322,-8.30387,26.978,-8.37768,-7.29105,25.7476,-7.74061
0.186276,0.0225198,-19.7372,9.95463,5.89803,-19.854,10.2132,5.78379,-19.7791,9.80087,5.87179,-19.8772,10.1437,5.7484
8.54202,0.177242,3.2306,31.1209,7.06003,4.76637,30.5455,7.33249,2.76763,31.6437,7.16439,3.02122,30.5575,7.31094
0,0.00303014,11.1771,26.5175,8.09743,11.2674,26.4697,8.07425,11.2646,26.496,8.07504,11.1742,26.4737,8.10149
5.24967,0.32182,0.999498,23.965,8.33489,0.144479,23.2725,8.60976,2.59344,23.3198,8.7702,1.3929,24.7152,8.67403
0.291795,0.00984579,-11.6073,32.3495,7.46227,-11.3349,32.5625,7.41538,-11.6185,32.4261,7.44795,-11.4031,32.6065,7.39891
5.62951,0.153959,-18.4739,8.13765,-6.02586,-18.0136,9.38806,-6.33881,-17.4358,9.17133,-6.43302,-16.6504,9.39691,-6.70845
0.0280329,0.0433804,3.31746,33.0985,6.62683,3.46683,33.0592,6.6554,3.51333,33.0828,6.63845,3.60318,33.098,6.64752
0.0232752,5.59223e-05,-16.4299,14.8246,-7.08045,-16.3667,14.8249,-7.10143,-16.3603,14.7406,-7.11935,-16.4215,14.6904,-7.10843
0.570041,0.020958,-19.8462,2.95178,5.74034,-19.6441,2.76401,5.76697,-19.8651,2.78043,5.6192,-19.5599,2.99739,6.01669
4.39302,0.28012,-8.11231,35.8425,3.805,-7.97055,36.4987,2.31766,-8.54385,36.5339,2.3263,-8.05499,36.5245,2.23736
4.4164,0.0630565,19.0142,29.5265,3.1833,19.6266,29.95,2.22952,19.4747,30.403,2.73775,19.4548,30.3997,2.77805
0.76988,0.117796,-21.3689,23.016,0.943488,-21.3962,22.5793,0.969241,-21.4845,22.3693,0.0907406,-21.4164,22.5772,0.831929
16.2084,0.539614,-2.05117,28.0659,7.35756,-1.41506,29.6708,7.28124,-0.914289,29.2346,7.51668,-2.32596,30.1173,6.81297
5.75178,0.0520911,-7.75272,20.2172,-8.92339,-6.49042,20.0885,-9.00747,-8.45494,20.8232,-8.99186,-7.48446,19.3858,-8.93126
5.92138,0.309985,20.2689,19.4254,3.29525,20.1913,19.1286,4.14492,20.8354,18.8614,2.69381,20.9049,20.6023,2.90192
0,0.000479823,9.65967,18.1181,-8.73668,9.60775,18.126,-8.74868,9.6547,18.091,-8.73594,9.60121,18.085,-8.74661
64.8086,2.49235,6.67511,17.9678,-8.93437,9.54227,17.8565,-8.77421,9.33498,18.271,-8.77092,8.66976,19.6301,-8.60181
0.316753,0.00685982,18.778,23.7849,5.93328,18.5342,23.6827,6.20401,18.3101,23.6527,6.43486,18.3326,23.7241,6.40202
1.27668,0.0698744,6.49869,12.3044,8.60748,6.64351,13.0563,8.67193,6.43344,13.2064,8.71118,6.71591,12.913,8.64098
15.7667,0.307007,-3.64305,36.5342,-2.09387,-4.74472,36.4544,-1.74304,-4.61633,34.7875,-3.85525,-4.10025,34.9499,-4.12946
1.93805,0.0104004,4.54802,9.47691,-8.78486,4.08106,8.92651,-8.77458,3.52189,9.35439,-8.8442,3.94963,9.58425,-8.83936
56.5205,0.827094,21.244,15.9829,-0.699201,20.561,16.3015,-2.85084,20.329,16.71,2.4759,20.743,18.1441,-2.15664
6.50483,0.0530952,-20.9902,35.5642,2.77275,-21.2556,36.0408,1.77332,-21.4083,36.0888,1.28672,-21.3102,35.5937,1.57003
9.6859,0.00493262,-4.50203,33.9793,-6.42936,-5.98253,33.6883,-4.80376,-6.04072,33.6604,-4.6685,-6.0616,33.9798,-6.0638
0.619001,0.0998745,-21.2158,13.9742,2.55377,-21.4848,14.1055,2.28334,-21.2797,13.7674,2.7097,-21.3474,14.176,2.47119
5.56271,0.0370654,11.8416,30.1932,6.65931,13.0398,30.784,6.98253,13.1143,30.1602,6.86157,13.1697,30.1217,6.86092
32.5874,0.365238,16.0343,24.6873,-7.31387,15.4571,23.1732,-7.36808,17.1909,22.4856,-7.03363,15.2092,24.6017,-7.74799
81.9851,0.0303761,-21.0526,11.4298,3.42068,-20.9871,9.47137,3.4456,-21.1413,8.67131,2.62015,-21.2922,9.2858,1.91673
0.0283659,0.001084,-13.0518,4.25979,7.51825,-12.9663,4.33676,7.55673,-12.9019,4.25273,7.52608,-12.8992,4.29485,7.54367
4.27255,0.169237,-4.63649,28.4897,7.56458,-3.16775,28.6521,7.80561,-4.7953,28.9182,7.64676,-5.13249,28.2005,7.75751
2.58377,0.0203848,-19.4048,25.415,5.64001,-19.1814,25.2612,6.02199,-18.8575,26.1938,6.14552,-18.9555,26.2917,5.98317
86.2111,0.458501,-3.6004,13.2531,8.40802,-2.56353,10.2809,8.19666,-4.96128,10.8535,8.15619,-3.90808,10.291,8.20037
19.4032,0.432122,-6.61885,27.1442,7.19218,-3.95007,27.1812,7.79742,-6.34069,27.6725,7.29429,-7.662,26.3905,8.47229
19.2456,0.0292471,-14.801,12.5787,-7.56772,-14.9149,14.3964,-7.64275,-15.8647,12.4,-7.27039,-16.3596,13.5911,-7.17301
4.21196,0.070728,-5.21235,12.6485,8.30839,-5.01526,13.1743,8.42118,-4.66827,12.3133,8.2579,-5.50227,11.9574,8.33138
7.65588,0.702916,0.0235112,25.1587,-8.20715,1.0368,23.9406,-9.13411,-0.919256,25.1179,-8.95936,0.834222,23.8493,-9.15799
14.5728,0.604621,9.88796,30.8195,6.37643,8.44041,31.9487,7.09068,9.4144,32.7668,7.0003,10.7988,30.7974,6.90767
7.39368,0.142209,14.8283,6.54707,-7.54842,15.672,7.83389,-7.47537,14.853,7.91642,-7.71917,15.5999,8.25703,-7.50584
0.374713,0.00819684,-17.1821,19.0592,-6.81948,-16.7454,19.0908,-7.06777,-16.6752,19.1877,-7.11422,-16.7454,19.2284,-7.07527
4.71037,0.0101277,2.93225,35.1293,4.54066,2.98792,34.2886,5.53516,3.26714,35.5761,3.97752,3.19499,33.8254,6.04598
0.468331,0.0269304,-20.3627,33.0054,-3.95419,-20.1894,33.0695,-4.20254,-19.9682,33.256,-4.48042,-19.872,33.5811,-4.63278
3.64057,0.00959144,-6.3747,23.0085,8.58696,-5.17677,23.029,8.78763,-6.38287,22.6851,8.60096,-6.02412,23.4292,8.64539
3.90624,0.262656,-8.0638,10.7404,7.82866,-7.27138,10.757,7.99285,-8.40221,11.175,8.24671,-8.33365,10.1638,8.00764
1.93435,0.0733061,7.27634,34.3284,-6.53004,7.69078,34.5472,-6.44664,6.92885,34.5819,-6.38044,6.99497,34.1712,-6.76214
8.30244,0.472971,11.5121,3.19107,5.6825,10.0204,4.33889,6.69034,11.5769,4.11008,6.42582,10.6639,4.17891,6.45586
0.00335509,0.0461207,1.16641,11.8208,-9.00798,1.17048,11.8671,-8.99666,1.30133,11.8231,-9.01164,1.19793,11.8544,-8.98937
8.84089,0.0216279,14.5603,8.51125,7.22716,15.8192,7.17508,7.10819,14.6312,6.4735,7.07615,14.9031,6.47599,7.07351
6.67571,0.583417,-12.0469,31.6183,-6.23897,-11.8765,30.9522,-7.27296,-10.9779,31.7391,-6.51428,-13.1497,32.9866,-6.51287
25.2375,0.483733,-5.90219,29.2401,7.5398,-6.23944,31.0234,7.37515,-2.95337,29.3592,7.59725,-3.99659,30.1753,7.40712
3.42104,0.146132,-19.7264,27.8643,4.80975,-19.1772,27.6875,5.60391,-19.2221,27.7534,5.56475,-19.1591,27.542,5.60124
6.2205,0.0745345,14.1354,18.0741,-8.29625,12.8817,18.3702,-8.43958,13.5956,17.5363,-8.41934,12.8862,18.1398,-8.44583
20.5322,0.0527716,-21.3145,13.1901,2.74877,-21.6011,12.9538,1.36079,-21.5263,12.703,1.63922,-21.6737,14.1341,1.56989
32.6436,0.555591,-21.1362,26.7336,0.199263,-21.0747,26.5644,2.07196,-21.0538,26.1417,2.18487,-20.8428,27.3235,2.63494
21.6876,0.205859,-21.5451,19.8714,-1.16574,-21.6078,19.2392,1.48851,-21.6518,19.7864,0.37055,-21.7208,18.2912,0.65744
7.18648,0.0718886,-8.4718,23.1162,8.85631,-7.4142,24.2573,8.80727,-7.62452,24.3452,8.77026,-7.84408,22.9755,8.88143
4.2184,0.144018,-9.80878,24.687,-8.13333,-8.58803,25.2029,-8.57466,-8.08974,25.2603,-8.65682,-9.22509,24.5744,-8.33564
16.1065,0.17067,10.0207,18.1651,-8.67284,11.4152,17.8453,-8.67788,10.7891,16.7508,-8.78052,11.2822,16.9274,-8.71499
14.9167,0.69182,8.88289,29.2195,7.40887,7.00635,30.1114,7.37515,6.06796,29.0332,7.20533,6.71625,29.3888,7.18816
1.5015,0.303974,-7.43965,32.8509,-6.95073,-7.182,33.5918,-6.57431,-7.07706,33.8338,-6.27623,-7.16595,33.3787,-6.74151
31.3664,0.347213,-8.58879,31.9374,-6.63285,-6.98427,30.7634,-7.95823,-10.9034,31.7412,-6.54432,-5.52413,33.2473,-7.17806
13.0609,0.0267855,-20.5288,29.706,-3.4888,-20.8981,29.2243,-1.55639,-20.9174,28.8508,-1.38083,-21.0036,29.8892,-1.11737
14.4774,0.175359,9.41429,33.0705,6.86764,7.87418,33.3809,6.66166,8.72336,33.888,6.35701,7.72908,33.1252,6.79138
0.0591877,0.0713952,11.9329,32.8402,7.02594,11.8704,32.6621,7.06977,11.8191,32.7145,7.03441,11.9357,32.6557,7.07108
0.00330223,0.00621493,-20.4248,36.6832,3.41917,-20.4775,36.7305,3.30235,-20.4066,36.7659,3.30383,-20.3962,36.6675,3.48639
0.617918,0.0295282,-21.8745,14.9599,-1.68934,-21.7122,15.7762,-2.17096,-21.7923,15.4552,-1.92921,-21.6829,15.8603,-2.33195
8.89517,0.0934377,4.80723,11.0275,8.08778,4.31328,10.8203,8.22058,6.56437,10.8142,8.31024,6.5598,10.4576,8.40532
3.22246,0.317659,-17.3118,30.5742,-4.48148,-17.2303,30.1673,-4.98937,-18.2229,31.4218,-4.59872,-17.0044,30.6969,-4.73445
2.73175,0.232186,-6.63663,6.14814,7.48515,-7.82215,5.61654,7.57071,-7.05759,5.32878,7.59444,-6.82938,5.32679,7.61114
11.0679,0.0322276,7.37655,15.6778,7.94976,6.66589,14.2941,8.52368,6.93976,13.8081,8.71502,6.2406,14.6876,8.37746
5.61642,0.285065,11.8728,18.8298,7.88467,11.3855,18.3806,8.20432,12.0292,19.5165,8.17255,13.3826,18.6965,8.03291
3.49311,0.144529,-9.43346,33.3034,6.89397,-9.20555,34.6379,5.77699,-8.73501,34.3246,6.0128,-9.56831,34.6917,5.77618
34.6356,1.2749,19.9172,4.01046,4.14049,20.6964,2.40055,0.979424,19.7641,2.12626,1.26087,20.625,2.37715,0.986391
7.59478,0.108859,-19.2393,14.3146,6.54246,-19.4784,15.5595,6.37098,-18.8129,15.4685,6.97899,-20.1202,14.5881,5.61232
10.3171,0.0334463,1.82971,18.1403,-8.87161,1.13024,18.8815,-8.89513,3.37146,19.1158,-8.91665,2.82117,19.2084,-8.92313
1.88644,0.251592,20.0981,15.9697,-4.17703,20.4098,16.1842,-3.23132,20.4654,16.0991,-3.1001,20.5912,15.9978,-2.84262
1.25456,0.714884,-6.49464,37.0146,-0.380206,-6.8733,36.5523,-0.873092,-6.51173,36.4743,-0.857738,-6.44056,36.4977,-0.89083
4.16793,0.0776148,15.9239,32.6162,-7.31226,14.6063,31.9276,-7.72006,14.4595,32.5128,-7.6062,14.3933,32.0674,-7.71598
0.0659666,0.121755,-20.7591,21.353,3.81312,-20.7603,21.1682,3.77898,-20.7495,21.1675,3.80976,-20.7411,21.1521,3.86663
6.81549,0.422723,20.2151,32.1988,-1.02125,20.7253,32.6993,-0.0913971,20.4185,31.4671,-0.955211,20.7511,31.9848,-2.53145
3.18332,1.13602,-6.05397,28.8336,7.61508,-6.43827,27.6911,7.33729,-6.12822,27.6804,7.31451,-6.19759,27.6816,7.29903
11.0425,0.550812,8.37554,8.69586,7.14978,10.3323,7.65849,7.4694,6.92153,8.42944,7.99338,8.86744,9.49907,7.54639
11.6254,0.197624,6.31087,30.7128,6.98809,7.28834,30.6673,7.04928,8.41376,30.4637,7.32918,7.42927,31.6233,7.29317
2.00315,0.151142,-13.3709,31.9426,7.49597,-13.7145,32.4936,7.43253,-13.525,31.2374,7.38127,-14.148,32.0516,7.5502
43.4544,0.161125,7.30415,16.7898,8.23264,9.06596,19.6185,8.61049,9.49287,19.7072,8.578,6.46268,18.5056,8.72776
3.69383,0.594875,18.9711,26.6531,-5.90445,18.6919,27.0402,-6.54919,18.6258,26.8826,-6.67553,18.4641,26.6375,-6.89958
2.36306,0.274381,0.244602,25.3947,-8.2707,1.75008,26.443,-8.86888,1.99801,26.5272,-8.87078,1.74567,26.3922,-8.84358
7.43813,0.30299,8.31237,27.7631,-8.33771,9.85866,27.6881,-8.47008,9.85491,28.4376,-8.19613,9.91869,28.6612,-8.13284
0,0.0419722,13.5864,36.0962,1.92296,13.5913,36.1835,1.98683,13.3866,36.2631,1.93758,13.5983,36.1555,1.94444
4.83236,0.304594,-9.38677,22.8575,8.61526,-8.34367,21.7988,8.73323,-7.78222,21.46,8.67763,-7.92255,21.7947,8.744
28.7155,0.211206,-1.8053,17.9006,8.51427,0.304045,17.6108,8.88514,-2.22561,16.6973,8.52293,-1.02287,18.9343,8.9442
0.286914,0.0347505,2.47898,5.76196,-7.995,2.48337,5.57083,-7.98999,2.32414,5.4724,-7.97995,2.75478,5.57387,-8.03286
0,0.00180964,-12.5726,23.177,-8.13219,-12.5688,23.1468,-8.14371,-12.505,23.1258,-8.19235,-12.5124,23.173,-8.16992
37.5832,1.04615,-15.182,29.4566,-7.13822,-16.0221,30.5507,-5.99294,-15.2155,24.997,-6.93196,-16.1966,24.2057,-7.26184
0.660622,0.0691543,21.1063,20.8109,-0.455337,21.348,21.1101,0.268311,21.3069,20.9507,0.186608,21.3432,21.0421,0.311333
1.28986,0.00673118,-10.8344,0.654488,0.874518,-11.2543,0.723415,0.853662,-11.2611,0.737282,1.18613,-10.9757,0.694981,1.19844
122.454,0.852492,-21.0462,30.8401,0.886938,-21.085,27.7026,0.559951,-20.8196,27.8411,2.36339,-20.9411,28.8277,-0.839575
0.555516,0.0452999,-5.68761,17.6432,-8.65481,-6.51769,18.0747,-8.77907,-6.44693,18.0736,-8.78521,-6.02974,17.8897,-8.75862
7.44927,0.130254,2.42595,20.0557,9.22617,1.25179,20.9849,9.16628,3.41321,21.1467,9.15662,2.65296,21.3467,9.17654
1.77343,0.0721637,15.03,5.14164,-7.10589,15.5619,4.3585,-6.80846,16.1978,3.99719,-6.60756,15.3525,4.50544,-6.88672
5.08122,0.280455,18.8821,25.9097,-4.06198,19.036,27.4626,-5.30204,19.2727,28.0772,-4.06984,19.076,27.1212,-4.96215
4.4979,0.166673,7.24445,19.0627,8.81678,6.69347,19.6123,8.99287,8.02764,19.9546,8.89974,8.16243,19.8976,8.89423
6.36142,0.307247,3.41068,28.2744,-8.38278,3.35705,27.2711,-8.84901,3.56512,27.5857,-8.78895,2.23419,28.5908,-8.71672
310.365,0.539371,-8.2214,10.1121,-8.42743,-4.80531,6.99583,-8.28164,-3.58525,14.4975,-8.96186,-2.96561,13.1589,-8.98677
6.64834,0.0526405,-7.99686,33.8281,-4.75159,-7.05654,33.7752,-4.74294,-6.75604,33.7134,-4.49739,-7.37767,33.7163,-3.915
14.0173,0.240835,18.4832,4.08822,-5.88278,14.9041,6.21262,-7.496,15.4603,6.18514,-7.34621,17.6739,5.61115,-6.53005
18.9981,0.0102125,-10.5596,9.87925,-8.09665,-10.249,12.319,-8.34399,-11.8177,11.212,-8.03972,-9.55415,11.2555,-8.34061
0,0.00376406,-5.43641,33.878,-6.65101,-5.24283,33.8827,-6.66347,-5.30926,33.8818,-6.65147,-5.54399,33.9052,-6.50925
0.912561,0.0291131,-9.31135,4.33361,7.37814,-9.30654,4.619,7.4062,-9.65739,5.23076,7.40102,-9.51067,5.13667,7.40257
0.68007,0.174136,5.29042,21.0083,-8.92726,4.99623,20.7776,-8.88259,4.86441,20.8269,-8.92491,5.06614,20.6328,-8.87704
0.719511,0.258602,-10.9013,36.9932,-0.69269,-11.397,36.9361,-1.06104,-11.0408,36.9062,-1.09656,-11.1908,36.9002,-1.03992
0.251509,0.0440613,-7.55323,7.32785,7.60932,-7.31394,7.68676,7.75691,-7.46653,7.69686,7.78502,-7.31385,7.78868,7.79605
0.0811415,0.0354948,3.88497,13.4719,-8.9824,4.04689,13.4008,-8.99915,4.05492,13.4505,-9.01044,3.9292,13.3931,-8.94923
7.8441,0.299817,4.35967,23.6066,-8.28833,6.76753,23.9925,-8.77004,6.41223,24.029,-8.72793,5.14219,22.7055,-8.82868
6.86192,0.504123,-15.0273,21.9779,-7.19445,-13.5742,22.6871,-8.02468,-15.6232,21.5779,-7.68672,-15.0861,23.5046,-7.20114
13.024,0.175747,10.4016,7.60987,7.4565,10.5557,8.66225,7.62815,12.5722,6.35111,7.29098,12.9923,6.38036,7.22893
31.249,0.117228,-20.835,24.7861,-2.32575,-21.1457,22.4949,-2.01071,-21.3468,23.0681,-0.859786,-21.6066,20.8387,-0.187178
32.6515,0.00200894,-20.715,13.209,3.56243,-21.5957,15.5664,1.81177,-21.2947,17.395,3.2145,-20.0971,12.7478,5.16455
0.316468,0.0302866,13.7627,12.3763,-8.19127,13.7011,12.648,-8.18694,13.8298,12.6018,-8.16284,13.6266,12.6112,-8.21301
0.0206841,0.076347,-21.1501,8.58957,2.48058,-21.134,8.51398,2.45885,-21.1362,8.51147,2.51746,-21.1724,8.5163,2.41089
73.2479,1.2828,18.0583,19.3924,-2.50458,18.7735,24.2745,-3.58774,18.5151,23.7444,-3.95738,18.8245,24.6639,-5.73923
0.0728641,0.0200694,3.90627,29.9137,-8.25131,4.02882,30.0082,-8.26778,3.90387,30.0076,-8.25855,3.97347,30.0575,-8.25688
3.07584,0.0377565,20.9066,34.1328,-3.73881,20.5567,34.6915,-4.33703,20.5906,34.1519,-4.45612,20.715,34.7331,-4.00301
38.1681,0.0308868,5.59067,14.1176,-8.8325,7.27314,12.7686,-8.74159,3.70231,15.9789,-8.91894,7.55551,14.0913,-8.95841
1.41375,0.018642,2.97359,17.4504,8.94899,3.59278,17.521,8.81372,3.66987,17.3396,8.8461,2.68299,17.281,9.01744
0.111125,0.047304,1.05095,14.4155,8.97916,0.932466,14.3744,8.98431,0.944074,14.4451,8.96401,0.995642,14.5004,8.97253
4.18812,0.0247046,-10.3347,16.2908,-8.612,-12.0547,15.0909,-8.31948,-11.1883,16.2306,-8.51826,-11.9124,14.7686,-8.31516
4.61857,0.321804,16.3673,5.48443,6.6156,15.9553,4.41495,6.28674,16.7198,3.43076,5.74642,16.434,3.64912,5.85484
3.80533,0.221886,8.45098,10.0194,7.55149,7.81293,10.1008,7.9934,8.73333,9.60113,7.56698,9.14895,10.7657,7.88437
17.7475,0.0827006,-9.99018,36.7262,2.06836,-12.4105,36.5638,3.21497,-12.3054,36.4238,3.59578,-10.9416,36.8344,1.84191
1.79693,0.065632,7.15456,23.83,8.75321,7.56576,23.4608,8.78714,6.45109,23.642,8.69749,7.35515,23.2821,8.81822
12.0659,0.0920475,-21.1855,19.7146,2.77743,-20.975,18.24,3.79261,-20.8181,19.3367,3.93054,-21.1323,18.0656,3.46656
8.47507,0.302069,-5.89721,24.5013,8.38677,-6.23737,23.3842,8.63059,-5.16504,25.1475,8.71885,-4.33,23.9716,8.64715
5.48806,0.214791,2.47656,23.4885,-8.4901,3.38526,23.4675,-8.66601,2.0637,23.0674,-8.76557,2.84181,24.7516,-8.56821
12.2266,0.158396,17.613,15.8165,-6.61766,18.8821,14.6409,-5.73306,17.6024,16.909,-6.70389,17.5252,15.0009,-7.04249
4.45989,0.0390294,6.44489,16.1248,-8.97912,6.93327,14.6933,-8.97331,6.58429,15.0173,-8.9563,7.01206,14.9708,-8.97377
18.9543,0.0583222,-11.957,7.51207,-7.47431,-9.8177,5.30534,-6.97629,-10.2545,7.60331,-7.75676,-11.8388,6.50112,-7.18516
36.8962,0.822609,-2.69323,35.3974,-5.40642,-3.95129,34.1483,-6.17725,-4.15749,34.3805,-4.88352,-4.92244,34.1021,-5.53561
248.665,0.120769,-17.1444,36.5796,2.92406,-12.9504,36.8667,0.814844,-15.7666,36.6488,-1.94847,-13.791,36.765,-1.44954
11.5364,1.81587,-13.9867,30.3325,5.89547,-11.9202,28.9499,8.01163,-11.3647,29.8642,7.96585,-11.6451,29.4993,7.97972
21.4974,0.276649,-20.9259,33.9211,2.49226,-19.6004,35.1099,5.4153,-19.6,34.5028,5.65725,-19.7528,33.8947,5.39706
21.9915,0.0969047,-18.8161,12.0858,6.89952,-19.5196,9.13031,6.20717,-19.9339,8.41643,5.79593,-19.9745,9.18366,5.68189
0.173242,0.00414038,-3.05004,0.679611,2.117,-3.04862,0.720963,2.21597,-3.23384,0.690537,2.13638,-3.10454,0.733189,2.24933
0,0.0161685,-18.7169,30.9051,-5.50158,-18.7801,30.8896,-5.51966,-18.7839,30.9253,-5.52539,-18.704,30.9046,-5.51706
34.9542,0.370189,20.0346,31.2319,0.602493,19.3702,31.1817,3.10221,20.0073,32.5536,2.25784,20.6171,30.131,-0.328865
73.501,1.00325,2.17633,8.05225,7.10427,7.02232,7.44067,7.9279,0.746171,6.00818,7.361,0.672848,4.35878,6.6921
7.22458,0.445829,20.764,3.11424,2.29248,21.3898,2.37886,0.514912,21.6869,2.49226,0.451699,21.1164,2.31847,0.616602
18.5762,0.359216,-19.1272,27.0456,5.61192,-17.637,27.7294,6.88898,-18.0154,25.7782,6.84369,-17.4903,27.3301,7.018
10.0131,0.00732059,-19.6614,15.1066,-5.3573,-20.1026,15.9735,-4.9147,-19.4343,17.426,-5.35054,-19.1086,17.1876,-5.6482
34.3051,1.14764,-8.3805,28.1417,-8.08746,-10.8335,31.4587,-6.85491,-9.95621,30.8701,-7.37573,-10.743,31.4236,-6.97888
24.9915,0.0438249,10.1728,24.3205,8.19738,6.92897,22.1204,8.77037,9.80981,23.2093,8.48643,7.90422,21.8463,8.87163
4.16651,0.0502934,2.43402,5.55123,7.26169,2.93396,5.0489,7.05312,3.56274,5.75135,7.37016,2.92947,5.3482,7.16751
57.4658,0.179034,19.3741,28.1604,-3.81913,20.3444,31.7915,-4.14678,18.6009,27.8121,-6.24553,20.3188,32.2671,-5.12049
3.82386,0.166619,13.4787,11.5454,-8.2,14.5979,11.6488,-7.94896,14.9279,11.8586,-7.92009,14.4421,11.0987,-7.97296
0.448215,0.014393,-12.2328,26.9117,8.29742,-11.9354,27.3289,8.30901,-12.0805,27.2774,8.27639,-11.9336,27.1468,8.33302
9.57046,0.774009,-15.3075,4.59061,-6.18967,-16.2603,3.58178,-5.67036,-17.698,5.19218,-6.21578,-17.0931,4.2747,-5.97921
20.1204,0.824713,-0.574319,21.1125,8.67807,-0.51558,19.4342,8.92613,0.888281,19.9415,9.29125,-0.953807,19.0761,8.97595
4.50668,0.0588489,-1.54623,30.9284,6.70143,-0.834203,31.491,7.06905,-1.83087,30.9791,6.65351,-0.416136,30.9469,7.21492
2.59473,0.0619241,-1.18598,27.884,-8.97021,-0.90068,27.295,-9.05661,-1.18247,27.1118,-9.0698,-0.561459,28.1081,-8.91578
36.6158,0.115707,10.3675,23.3607,8.31314,12.0827,25.5778,7.74736,11.0874,25.0248,8.01424,12.2138,24.4429,7.92722
20.3724,0.61471,-9.32963,15.1678,7.5337,-9.33772,14.0007,8.37178,-10.3861,15.4677,7.90879,-7.91735,16.5622,8.20389
11.5319,0.132771,-5.22787,30.9559,-7.6898,-6.09227,31.268,-7.63553,-2.82353,31.7775,-8.01996,-2.90091,31.5986,-8.04427
7.46825,0.322434,11.6265,8.33447,-8.10476,13.3667,6.70537,-7.70081,13.007,6.61872,-7.72923,13.0795,6.61401,-7.71694
2.63194,0.0550073,6.31419,18.6742,-8.72432,6.81361,18.4693,-8.89101,6.03028,18.0503,-8.88291,5.89903,18.4064,-8.78696
2.05199,0.164127,20.4139,31.4782,-1.06059,20.5889,30.4477,-1.24535,20.6065,30.3783,-1.039,20.6168,30.5574,-0.84902
0.124735,0.0881434,9.55466,22.1442,-8.47792,9.53278,22.1878,-8.40224,9.41085,22.4864,-8.52687,9.33927,22.4871,-8.53794
87.1336,0.316161,3.5867,24.9519,8.58907,9.47839,25.1291,8.29277,8.57316,26.4227,8.20895,8.91751,24.9618,8.37184
14.8013,0.198078,5.70919,22.818,-8.61313,7.38228,23.1407,-8.62028,7.03525,22.0067,-8.763,6.40226,21.7407,-8.84979
5.9255,0.925429,13.256,32.1778,7.02928,11.9876,31.0182,6.59859,11.7145,30.8065,6.71722,11.4875,30.8557,6.80116
0.551414,0.00551281,-7.61054,19.1818,8.95235,-7.53142,19.7946,9.01927,-7.46834,19.129,8.9258,-7.59834,19.7966,9.0316
26.1969,0.412567,-3.30387,14.4837,7.99128,-1.81526,16.0242,8.41141,-4.08854,13.5355,8.40279,-0.769158,15.3179,8.45107
18.0368,1.46479,16.8052,17.8989,6.99965,16.9576,20.0338,6.68674,15.9629,20.9149,7.20935,16.3355,20.0853,6.67441
7.32833,0.327418,13.6692,29.7226,6.72269,15.5648,30.8456,6.92624,15.4206,31.2215,6.95664,15.4186,31.0275,6.92618
0.0235355,0.00492632,13.8745,29.588,6.79271,13.8739,29.5074,6.80534,13.9183,29.5782,6.78987,13.9208,29.5102,6.79567
0.211691,0.0834128,-21.3764,10.5683,-0.192453,-21.4979,10.6907,-0.207499,-21.4499,10.5036,-0.140895,-21.5277,10.7569,-0.101753
2.0844,0.221856,6.47752,34.9087,-5.98896,6.01122,35.4106,-5.08997,6.28176,35.6413,-4.74163,6.11609,35.5167,-4.91648
16.5724,0.0818484,-15.489,10.4688,-7.06455,-12.5264,11.6207,-7.97531,-13.2334,12.5641,-7.83528,-15.1278,9.5143,-7.19862
4.4244,0.148476,0.112619,29.0971,7.27053,0.693991,30.0427,7.42479,1.03886,28.8843,7.46715,-0.293963,28.7056,7.40918
101.965,0.133431,-5.97481,7.32076,7.58358,-7.78215,9.6913,7.99304,-4.42626,8.18986,7.54694,-6.70397,11.4011,8.2782
16.0494,0.468107,-16.9359,29.6144,5.88319,-18.1215,30.1722,6.12631,-16.7304,26.7727,7.37396,-18.9615,30.174,6.08344
8.41766,0.277125,18.0966,16.4821,5.53428,19.5624,16.6481,4.45103,17.9091,16.1211,5.9664,18.8676,17.5741,5.81763
14.6994,0.0930308,2.17744,22.7105,8.69632,-0.285213,22.1159,8.58626,-0.149792,22.3442,8.57987,4.21704,23.547,8.60439
7.66174,0.167159,15.2371,4.48452,6.35061,13.0651,6.13119,7.14827,13.6982,5.96847,7.04789,13.136,6.26805,7.17692
15.4088,0.0721026,-7.00704,17.2416,7.86411,-5.50813,18.7996,8.69332,-6.49938,18.5297,8.40112,-5.74146,17.192,8.20693
4.58611,0.207449,-14.1344,20.0695,-8.18395,-14.688,21.1978,-7.97176,-15.1307,20.5403,-7.89945,-15.1334,21.4462,-7.73543
29.0289,0.0571679,-13.0067,0.989547,0.403242,-10.7545,0.792056,-1.27839,-10.6992,0.641921,0.249803,-10.1324,0.68982,-1.06156
0.0342541,0.00906605,-16.6266,5.01549,7.39306,-16.6944,5.1516,7.3733,-16.6323,5.153,7.38117,-16.6928,5.06499,7.38634
0.092043,0.00682472,-19.9621,25.6941,-4.59295,-19.9585,26.143,-4.63257,-19.9799,26.1379,-4.58517,-20.0031,25.8964,-4.50847
0.459763,0.0685418,6.94941,31.7583,7.23992,6.59966,32.1764,7.20268,6.61054,32.1192,7.20341,6.52836,32.1304,7.21433
0.309114,0.0280705,21.5909,11.8625,-0.537211,21.528,11.4235,-0.702492,21.5417,11.4347,-0.587213,21.5506,11.5066,-0.531643
6.66944,0.0247905,8.48372,7.53704,-8.39036,7.98704,7.25243,-8.3584,7.612,6.0086,-8.08275,8.10849,6.05399,-8.08611
4.89232,0.490108,-11.1821,23.8032,-7.73203,-10.8161,23.2743,-8.28111,-12.5433,24.4603,-8.17914,-9.88737,24.5906,-8.0992
8.98622,0.57951,-5.97717,17.222,-8.62859,-7.88114,15.5532,-8.60732,-7.95192,15.5981,-8.59375,-7.95337,15.9711,-8.62649
23.999,0.400064,19.2905,29.1105,-4.85592,17.9787,29.4646,-6.37699,19.2453,30.2883,-5.80729,17.434,30.4282,-7.08808
46.6395,0.666783,-19.9741,29.7016,4.26803,-20.8179,30.786,2.31461,-20.8546,31.7915,2.38012,-20.7134,30.0868,2.36471
19.9899,0.292634,15.5267,29.1726,-7.38969,17.3151,29.4739,-6.84182,16.3369,32.6302,-7.12246,15.9767,29.3603,-7.03507
3.01098,0.135211,-0.532184,30.4921,-7.66009,1.02069,30.759,-7.95532,0.182401,30.6945,-7.81726,1.45365,30.8506,-7.95975
17.9991,0.0595887,-2.31665,14.8826,-9.07635,-2.46926,14.1835,-9.04089,-4.5769,14.7721,-8.95964,-5.26906,15.9633,-8.89248
2.19386,0.0201126,-21.8048,14.1251,0.596969,-21.7035,14.6903,1.21314,-21.7744,14.6933,0.850235,-21.8127,13.7684,0.665777
5.26516,0.192429,-7.67395,28.8715,-7.99677,-7.38897,30.0491,-8.20965,-7.88517,28.4296,-8.16356,-6.82551,28.4631,-8.43693
17.0505,0.148453,-8.68878,36.4216,-0.673049,-8.26602,36.7907,1.28212,-8.66024,35.9486,-2.25403,-7.7122,36.4431,-1.22727
65.9816,0.247047,1.9001,17.1216,-8.9643,-1.83155,15.0244,-9.10203,-0.916362,14.6062,-9.07929,-2.31316,15.5777,-9.0883
25.6971,0.405267,21.04,19.9746,-0.869773,21.5482,17.9312,0.100838,21.5193,19.2801,0.124487,21.474,17.9901,-1.1549
8.39854,0.143046,7.63456,16.4102,7.89349,8.71056,16.161,8.14036,7.29025,16.0086,7.98303,8.77677,16.4887,8.16202
7.85287,0.448368,-4.97785,30.8095,6.6016,-5.60871,30.2823,7.087,-2.93634,30.591,7.13627,-4.48266,32.0553,6.94088
9.98074,0.242381,3.19043,10.7367,7.91904,4.17291,10.8262,8.23907,1.36867,10.5456,8.06351,3.82855,11.8776,8.66446
58.5561,1.72173,17.8188,16.0488,6.06603,13.8904,16.607,7.47713,14.6984,18.1655,7.38505,13.5598,16.9608,7.93126
9.87635,0.173482,7.61713,25.4957,-8.63165,5.78256,24.7581,-8.63819,5.9084,25.3695,-8.34365,10.002,25.5829,-8.61177
6.78638,0.13875,2.26058,9.5655,7.82015,2.75818,9.10803,7.90002,3.24425,10.0038,8.01184,3.53366,9.43048,7.93795
0.360201,0.0259857,9.39636,0.485047,-0.367139,9.51086,0.490501,-0.567938,9.51084,0.475917,-0.448549,9.40545,0.483712,-0.566299
10.423,0.753934,-3.27527,9.85474,8.11816,-5.46125,9.45777,7.87669,-5.68387,9.22924,7.86466,-5.76515,8.88003,7.7553
0.135633,0.227456,12.8974,9.69257,-8.21494,12.9708,9.92803,-8.22474,12.8999,9.92998,-8.23867,13.0415,9.92671,-8.21387
72.6444,0.599199,-11.0019,22.4679,8.6787,-13.4695,25.254,7.64196,-13.7737,27.1669,7.72773,-14.8194,27.1818,7.45043
25.7537,0.0331612,6.37598,6.22284,7.58789,8.13589,6.16481,7.6145,7.92426,4.70796,6.98103,8.84237,5.6509,7.39798
0.0167538,0.0182577,-12.7191,13.2007,-8.03993,-12.7221,13.3006,-8.05485,-12.6422,13.2775,-8.05028,-12.7875,13.2506,-8.03487
5.74985,0.108531,0.946779,20.3416,-9.12961,1.98881,19.8222,-9.03569,2.91146,20.5607,-9.04272,2.48328,20.1466,-9.02825
262.675,0.951533,-16.6458,3.28698,6.1961,-8.40014,2.29538,5.28516,-16.9875,1.51817,1.47154,-10.0227,2.24989,5.16442
0.911818,0.0562498,-9.1364,7.5509,7.92915,-10.1932,7.66964,7.73224,-9.56707,7.70985,7.93497,-10.1951,7.71991,7.75369
3.63152,1.47528,16.5432,26.2528,-7.65503,16.0332,24.7317,-7.32458,15.9527,24.7965,-7.40819,16.3835,24.4044,-7.24758
69.6497,0.149668,10.6988,22.3957,-7.81283,11.9465,26.8935,-8.36341,13.1863,22.9415,-8.11348,12.7135,26.4793,-8.36498
0.0762829,0.11452,17.044,36.3868,3.08901,17.0421,36.4064,2.95125,17.1144,36.4235,2.99896,16.9757,36.4026,2.9156
11.8269,0.257146,-2.42438,16.2659,8.22471,-1.02684,17.0501,8.77114,-1.03717,16.0009,8.59962,-3.66174,16.3142,8.35565
0.47731,0.0104867,-8.16485,23.0797,-8.93366,-8.72634,23.1658,-8.89489,-8.58431,23.214,-8.90126,-8.37265,22.9908,-8.93651
8.88163,0.615554,-10.6901,12.4849,8.41066,-13.2632,14.2411,7.60223,-13.3482,13.9344,7.72238,-13.0753,13.9684,7.6626
2.0445,0.0510764,9.87699,15.6562,-8.90463,10.787,14.901,-8.75498,10.436,15.5551,-8.82375,10.7032,14.8523,-8.75398
14.6315,0.0599207,-8.50218,3.46508,6.70015,-6.19771,3.43652,6.49376,-6.97332,3.08074,6.2285,-6.34198,3.47191,6.53013
1.18814,0.0475202,11.9827,22.1784,-8.27333,11.7755,21.4996,-8.38424,11.989,21.458,-8.41201,11.6886,22.2132,-8.19167
0.27632,0.00433017,-11.0929,1.25198,3.02327,-11.2756,1.2504,2.91113,-11.2675,1.28129,2.98282,-11.0794,1.22111,2.95253
3.15396,0.0880937,-13.1168,14.7833,7.25056,-13.5606,14.4525,7.45968,-13.1929,14.2834,7.60164,-13.8579,14.0924,7.81058
7.77304,0.333836,-11.7976,25.1168,-7.52634,-10.4921,25.0401,-7.98408,-12.3553,25.6927,-7.69848,-11.9372,24.5791,-7.97962
1.39507,0.101522,-19.1848,23.226,5.84306,-19.9794,23.5787,4.99792,-19.9156,23.6572,5.06934,-19.9783,23.6477,4.99322
2.37514,0.511682,19.7951,22.3592,-2.73934,20.6419,23.0881,-2.62686,20.4927,23.2226,-2.76005,20.4486,23.2973,-2.83066
1.04999,0.016425,12.5833,31.9515,-7.90994,12.5119,32.7511,-7.66443,12.58,32.7068,-7.6777,12.3089,31.9535,-7.93209
12.1641,0.121611,18.1931,13.8126,-6.63441,19.9018,13.8737,-5.14689,18.9415,14.186,-5.80409,19.6246,13.4479,-5.47159
0.25846,0.135124,-21.8229,16.8034,0.283168,-21.7662,17.0153,0.00539828,-21.8312,16.942,0.0846176,-21.8324,17.1004,0.128508
8.86288,1.11088,-17.5305,6.48938,6.67567,-14.2266,5.17819,7.39014,-14.4449,5.37245,7.42032,-14.367,5.18337,7.40565
40.0906,0.242165,18.1766,36.6838,1.83992,18.3122,36.7515,-0.841245,19.0212,36.881,-0.473043,16.928,36.6056,-0.104412
20.2291,0.351985,5.52058,28.418,6.77465,7.11571,27.9192,7.29233,3.95925,27.5046,8.02521,6.05269,26.3469,8.47784
3.16592,0.261029,9.21269,36.583,-1.51308,9.03925,36.0855,-3.52979,8.89672,36.046,-3.63193,8.82278,36.0499,-3.62182
0,0.000516732,11.0688,12.7582,8.12712,10.9951,12.7903,8.18068,10.9964,12.7466,8.16768,11.0686,12.7459,8.12316
2.03188,0.0424556,19.1707,3.51049,-5.42156,18.5511,3.79231,-5.79813,19.0363,4.19448,-5.6289,19.12,4.17899,-5.57729
69.8076,0.224027,17.0958,13.2215,-7.23811,15.5437,9.9406,-7.62821,18.529,10.4551,-6.30461,18.7408,11.9298,-6.23587
23.2571,0.675963,19.2428,17.0307,-4.45601,18.707,18.1745,-4.45679,19.9146,17.9422,-3.01464,18.2174,19.061,-2.72666
5.52487,0.686557,-9.87086,5.3778,7.43394,-8.46969,5.21002,7.60805,-9.65599,6.22285,7.20506,-9.41304,6.07202,7.16126
1.31078,0.0131995,16.9271,23.6411,-6.93086,17.2073,24.1878,-6.98829,17.3561,23.6331,-6.98189,17.1337,24.1439,-6.98022
0.139563,0.0169214,-2.11242,17.0868,-9.00307,-2.17882,16.9538,-9.01578,-2.316,16.9553,-9.02717,-2.31833,17.0001,-9.0192
13.5998,2.9981,-14.5321,30.2067,5.6446,-14.2601,27.5309,7.33132,-14.4011,27.4906,7.30179,-13.4825,27.8901,7.60515
1.03482,0.0189633,14.7016,23.7102,-7.60593,14.0763,23.842,-7.52669,14.9945,23.894,-7.62554,13.9315,23.6986,-7.53645
0.221783,0.0794151,-20.7375,29.2771,2.01946,-20.729,29.1365,2.27339,-20.8559,29.4285,1.91078,-20.7208,29.2757,2.16169
0.430501,0.0903537,4.1921,36.7055,-0.666271,4.09501,36.8198,-0.0287661,4.22989,36.8023,-0.184833,4.02162,36.8278,-0.0196924
2.1414,0.127755,-17.8133,6.66902,6.60471,-18.1696,7.09595,6.94689,-17.5963,6.53576,6.65584,-18.4529,6.3747,6.77506
1.16563,0.00167652,6.11903,18.7026,8.81572,5.98245,19.0455,8.92443,6.83441,19.2635,8.90028,6.40865,18.7449,8.80059
2.95733,0.0564572,-20.9763,34.9406,-2.8731,-21.1685,35.0112,-2.36886,-21.2309,34.6465,-1.99032,-21.1326,34.4352,-2.30371
26.7442,0.00917236,-13.3275,16.046,7.84416,-12.8805,18.4221,8.24554,-13.5953,18.0364,8.05523,-13.3495,19.5528,8.29759
0.220934,0.0303348,16.6826,4.71562,-6.71543,16.1803,4.72922,-6.83522,16.2032,4.58502,-6.80316,16.2701,4.58327,-6.78293
9.18424,0.16428,13.8358,31.5491,-7.62801,15.2432,31.433,-7.80689,13.7823,32.3367,-7.68711,13.7052,30.5257,-7.9328
3.29645,0.0152945,-14.679,30.467,5.51875,-15.4479,31.2112,6.13086,-15.7892,31.6604,6.65475,-14.1196,30.3172,5.78443
5.58692,0.00930652,-16.7001,17.3602,-6.94073,-18.526,16.5068,-6.11064,-16.2506,17.3427,-7.14895,-18.1713,15.657,-6.34468
1.07414,0.114185,-8.66085,12.1376,8.67786,-8.29927,13.0173,8.66943,-8.14986,13.052,8.69094,-8.4417,12.8786,8.67276
54.2914,0.330519,15.4124,10.3408,7.07511,16.8348,12.6866,7.26514,18.7438,12.8571,6.05325,18.472,11.7487,5.89174
5.5909,0.249872,16.4665,27.2687,-7.28584,16.6611,26.4842,-7.57566,18.0612,27.1002,-7.02705,16.0384,27.6839,-7.64947
3.73248,0.149482,-21.193,17.3394,3.52011,-20.7404,18.1352,4.24595,-20.072,18.316,5.32231,-20.3501,18.2688,4.88584
3.477,0.16469,19.615,17.5249,4.38783,20.2616,18.6518,3.79429,19.9072,17.1306,3.90541,19.6176,17.3178,4.72808
9.88095,0.153567,-9.20585,12.8879,8.68552,-10.2091,12.1012,8.64867,-10.5423,12.1369,8.56556,-10.61,13.3757,8.47278
8.63205,0.0683077,9.38228,29.1696,7.08472,9.51851,28.4909,7.20169,9.32465,30.7178,6.57788,10.3662,29.367,6.93049
0.577732,0.0717709,4.5051,25.788,8.66543,4.86532,26.0135,8.6451,4.50948,26.0161,8.64386,4.79718,26.0528,8.62788
14.7024,0.138822,-3.54029,27.0887,7.87691,-1.92123,26.7222,7.69801,-4.57535,28.1609,7.83106,-3.47523,25.8623,8.6416
13.1705,0.075866,-9.38917,22.537,8.64484,-8.83044,23.1537,8.79195,-11.205,24.6913,8.37527,-11.2002,24.3109,8.32674
7.88288,0.200602,13.8462,15.4466,-8.33349,12.6013,16.6298,-8.5971,13.9956,17.0634,-8.33519,13.6605,17.0246,-8.40804
0.570447,0.326575,-0.100937,7.22098,-8.56787,0.141021,7.60863,-8.69193,-0.353949,7.56493,-8.6752,0.211559,7.61779,-8.70613
21.3819,1.34767,-9.23664,6.55871,6.98834,-7.7937,8.29127,7.96674,-5.4861,6.43622,7.60657,-7.81108,7.91214,7.99315
5.31426,0.273809,-16.6321,23.3364,7.37999,-17.1098,22.7723,7.57122,-14.6493,22.9009,8.23358,-14.7114,22.7555,8.2262
6.90786,0.335897,5.63968,33.5193,6.47975,3.94586,32.715,6.88863,3.11329,33.3038,6.45078,3.93733,32.2343,7.10874
4.03942,0.362165,-18.8829,25.4695,-4.78508,-18.2902,25.7575,-5.22667,-19.6715,25.8936,-4.83129,-18.8655,24.8129,-5.41752
105.69,0.115196,15.7336,36.1931,2.84726,10.9964,36.0085,3.06682,14.6193,35.853,3.88707,13.3677,36.414,1.1784
13.7825,0.758325,9.657,27.6222,7.0062,10.9578,25.832,8.13631,9.75374,24.8023,8.29383,9.47443,25.66,8.13043
0.874726,0.0235462,-4.85432,14.5876,-8.96016,-4.86151,13.9353,-8.93504,-4.65782,13.8922,-8.95759,-4.99506,14.1209,-8.93183
53.1704,0.00356999,-8.1961,7.50796,-8.04426,-8.37136,9.73242,-8.35839,-9.93863,9.3284,-8.14382,-7.03504,9.32727,-8.43086
2.69669,0.0572396,18.9862,0.76578,0.00887024,18.6251,0.902556,0.976838,18.2644,0.877092,0.942445,18.7724,0.920883,1.06688
44.1552,0.722869,-0.872234,11.5272,7.65629,-1.11849,9.34278,7.66081,2.77236,11.3575,8.56376,-1.76722,12.1821,8.596
0.854021,0.0881673,-20.8984,36.6965,-0.56663,-21.1248,36.5188,-0.432984,-20.9832,36.4736,-0.680012,-21.1559,36.3391,-0.739528
0.386289,0.0268407,2.59924,5.99661,7.48736,2.23688,6.41551,7.65649,2.37414,6.41352,7.66038,2.37261,6.16656,7.57028
2.40393,0.127506,6.09229,24.0932,8.58223,7.50626,24.4831,8.50674,6.74711,24.0414,8.63531,7.50185,24.5775,8.49962
2.76554,0.85329,-21.683,14.9937,1.38669,-21.7313,16.3435,1.72138,-21.7398,16.2286,1.16056,-21.7533,16.346,1.63195
140.724,0.0532633,4.85754,9.96186,-8.8694,3.61889,12.7978,-8.99996,5.80584,13.2164,-9.00124,7.0594,11.7259,-8.89801
0.00702068,0.0529952,15.5489,10.6851,-7.68228,15.5996,10.5979,-7.62505,15.5549,10.5956,-7.65581,15.6008,10.6123,-7.61669
13.5378,0.018217,15.7746,36.4174,-1.75267,17.228,36.603,-2.53627,16.37,36.603,0.0392211,16.8069,36.5333,-2.76522
8.10989,0.0548585,18.4122,1.8146,3.26851,18.8651,1.75408,2.35324,19.2103,2.02862,2.14556,19.3934,2.65153,2.62504
32.6806,0.145492,-20.1264,23.7023,4.69986,-21.0016,26.5685,2.38324,-21.0048,25.86,2.32844,-20.8943,26.9618,2.66967
45.2095,0.00332383,13.7723,13.494,-8.25319,15.108,15.361,-8.02551,15.6477,14.413,-7.85645,13.9167,15.2586,-8.30108
9.43522,0.0894428,0.427263,7.8998,-8.7508,-0.763015,9.24459,-8.78183,0.307837,9.39932,-8.86441,-0.263153,9.11121,-8.79146
13.1539,0.0563061,5.66668,21.8945,9.02844,4.19158,21.5003,9.08895,4.3357,22.139,9.03608,4.46696,21.3113,9.08522
1.65382,0.0753315,4.39222,27.2748,8.07867,3.12053,27.4195,8.0442,3.1181,27.4724,8.03566,3.75493,27.4694,8.0802
1.13435,0.041611,17.5174,6.60653,6.61075,17.8712,7.27316,6.43065,17.3156,6.90397,6.7144,17.9465,7.17377,6.40782
3.66252,1.45776,3.38806,25.6382,-7.93891,4.79706,24.8418,-8.58203,4.82294,25.6952,-8.38469,4.8677,25.5472,-8.33732
0,0.017811,-19.5402,18.6563,5.92334,-19.5787,18.7007,5.9175,-19.6112,18.699,5.8869,-19.5993,18.6362,5.89003
1.32585,0.00362721,-21.5726,20.3501,-0.702587,-21.6134,19.8452,-0.805765,-21.6123,20.4249,-0.499699,-21.3867,21.1652,-1.12374
3.82517,0.0536384,-4.92828,29.6291,-8.15405,-3.22802,30.126,-8.46831,-5.2697,29.9613,-8.24667,-3.30161,30.0786,-8.45171
7.47818,0.335687,-13.7377,10.1518,7.63247,-14.8413,11.3629,8.42317,-12.1251,10.0699,8.33318,-12.5057,9.94475,8.18215
5.8891,0.145567,6.40589,29.6304,-7.77605,7.32392,29.8373,-7.95762,6.92304,30.6328,-8.09103,5.85064,29.9304,-7.97424
5.08174,0.161588,-6.56024,23.6279,-8.50128,-6.27733,22.1099,-8.93386,-6.00366,23.2193,-8.5605,-6.36032,22.9494,-8.60909
5.90425,0.309309,0.124589,30.659,6.84266,0.908488,30.4954,7.07661,0.573958,32.2863,6.91734,-0.281307,30.3931,7.23696
36.5984,0.0920557,7.78364,17.6403,-8.89435,7.22045,15.9411,-8.97631,7.41823,14.5525,-8.95787,6.10237,16.3605,-8.99827
61.547,1.85633,15.9826,22.4755,7.09868,16.0977,27.3053,7.16856,15.2383,26.4878,6.88083,17.0804,27.1382,7.01603
1.13974,0.00848658,10.2679,36.5021,0.634753,10.0367,36.5261,0.470237,9.95399,36.5928,-0.0839391,10.1679,36.5818,-0.102766
41.0113,0.0370793,-7.12673,16.8981,8.04577,-10.9285,17.0483,8.45648,-11.2005,17.2925,8.51855,-10.9805,18.1379,8.60229
0.0613468,0.0264372,-20.3076,10.055,5.0162,-20.3518,10.0745,4.93779,-20.3557,10.0236,4.90897,-20.3249,9.92734,5.03702
72.8079,4.13354,11.9456,0.760121,1.2707,7.95218,1.08857,2.83308,8.7481,1.74344,3.91863,7.66159,0.863431,2.42544
4.80599,0.258403,-15.2993,24.9078,-6.91596,-15.2352,23.4639,-7.24341,-14.9895,24.4158,-7.09173,-15.067,23.8236,-7.1545
3.7848,0.71973,11.0579,20.9805,8.24679,11.8433,20.1588,8.08258,11.9638,20.168,8.14085,11.6954,19.9328,8.08421
0.330313,0.0285484,-8.92947,0.703794,1.68641,-9.11423,0.680703,1.54284,-9.11625,0.711803,1.65398,-8.98603,0.685255,1.52828
3.13246,0.518183,-13.2905,12.3217,8.38069,-13.7449,10.9164,8.29619,-13.5981,10.7182,8.24379,-13.3772,10.8693,8.34607
5.33181,2.03759,-17.518,13.4828,6.69439,-15.2586,13.2202,7.78003,-15.2601,13.4073,7.77368,-15.461,12.907,7.90474
17.469,0.932459,-13.264,23.9183,7.73419,-11.7181,20.1678,8.76162,-13.1332,20.2112,8.37142,-13.0667,20.1673,8.38558
33.4586,0.0483149,-6.84433,19.4358,-8.96509,-3.46803,20.8486,-9.17867,-5.38953,18.6409,-8.87986,-2.62203,20.2451,-9.08007
6.80917,0.287309,-0.954885,30.4351,-7.56068,-2.40112,31.9528,-7.93827,-0.534717,30.4457,-7.6682,-0.936191,29.7874,-8.3386
16.7474,0.58886,11.0258,30.0861,-7.34797,10.4728,29.2986,-8.07105,10.4122,31.6115,-7.80219,9.85001,30.5757,-7.96099
17.3684,0.125949,-15.1021,20.1768,8.00707,-18.5003,21.3312,6.56475,-13.8393,19.6606,8.36605,-18.7035,21.0426,6.51518
3.6015,0.00103698,-20.9859,35.0611,2.60091,-20.7593,34.8122,3.21747,-21.0314,34.4107,2.30987,-20.759,34.3105,3.09567
56.5519,4.40568,13.9139,7.56664,7.39903,15.4198,11.8939,7.46349,14.0653,12.1477,7.5206,13.8704,12.2389,7.77453
7.02713,0.223031,21.249,10.6873,2.51533,21.5929,10.6074,0.721405,21.507,9.15678,0.15012,21.4936,9.29715,0.512834
16.9591,0.562325,21.1802,7.25297,-1.69159,20.9671,8.62531,-2.90264,21.5006,9.27284,-0.00874746,21.3997,8.9819,-0.789195
33.8772,0.0738424,-19.6263,11.3247,6.08849,-20.7433,9.99571,4.11867,-20.4009,11.9006,4.8256,-20.8888,11.9691,3.92096
12.2745,0.0885241,6.39533,32.5273,7.0737,5.26139,32.136,7.15873,4.45631,33.0126,6.73547,5.56604,33.1708,6.66391
1.68292,0.0124639,-9.241,13.3175,-8.52129,-9.04386,12.3363,-8.4513,-9.11828,12.0553,-8.42891,-9.53759,12.5215,-8.44149
2.40278,0.156351,21.5458,10.1448,0.700321,21.5396,10.1931,-0.426168,21.4955,10.3213,-0.697185,21.5228,10.465,-0.469006
9.08794,0.129764,-7.10162,27.022,-8.36296,-8.24596,28.0582,-8.14342,-7.53639,28.3887,-8.20243,-7.8806,27.1587,-8.34934
1.72769,0.0922909,5.30003,25.4933,-8.22072,6.00426,25.5507,-8.3506,5.867,25.4541,-8.31493,4.88352,25.6415,-8.36195
12.4406,0.095146,7.86188,15.6185,7.90354,9.32883,14.6861,8.25934,10.1061,15.2748,8.20845,10.2442,14.7754,8.30436
17.8125,0.184854,10.1932,18.4307,8.20557,11.2356,17.6368,8.24016,9.76308,19.5314,8.4578,11.3201,19.7233,8.23533
11.8381,0.019886,-4.34932,34.285,-4.65931,-4.44552,34.7707,-3.98873,-5.50445,33.9886,-4.12593,-5.31834,34.7391,-3.30957
4.16205,0.319808,-20.1476,36.8538,-1.2468,-20.6569,37.0637,0.17153,-20.3029,37.2141,0.168353,-20.1742,37.3394,0.288815
3.47172,0.141487,12.7643,24.0511,7.80696,12.7816,25.1416,7.65204,12.1446,24.1728,7.96367,12.6298,25.1444,7.66186
46.45,0.481225,3.87976,28.9009,-7.83466,8.26066,31.0621,-8.2006,6.28505,27.5736,-8.64878,7.55045,31.8285,-8.04562
21.6288,0.0484252,-16.5649,8.4372,-6.79925,-12.0816,8.32321,-7.61293,-13.9873,9.65013,-7.47115,-12.6649,7.97552,-7.46164
28.0025,0.0236958,-17.7432,22.9276,-6.30643,-18.8466,22.2895,-5.66377,-15.4924,23.0183,-7.38418,-16.8506,24.3902,-6.89765
214.579,0.259083,-0.831514,18.0189,-9.02607,-3.92905,15.6554,-8.98913,-5.33315,18.0105,-8.70498,-6.05453,16.7189,-8.66768
10.3743,0.678929,-6.98341,21.6427,7.82172,-5.97724,21.5815,8.07086,-8.43555,20.418,9.08582,-6.52395,22.5847,8.55514
1.29573,0.127417,-13.3417,19.6408,8.27392,-13.1356,20.1193,8.37421,-13.3521,20.1659,8.36636,-13.2015,20.2131,8.3665
0.0253193,0.0122604,15.0359,27.6714,-7.93578,14.9793,27.6402,-7.95929,15.038,27.6313,-7.96208,14.9686,27.6978,-7.94011
0.106662,0.0119068,18.6089,2.9656,-5.54544,18.4687,2.9725,-5.59288,18.6072,3.06126,-5.57401,18.4708,3.06911,-5.63419
4.33555,0.19085,2.42623,35.82,-4.67949,3.3105,36.2484,-3.69854,3.36422,36.4529,-3.25419,3.28495,36.5046,-3.08814
5.90144,0.0474404,-4.95193,32.9327,6.56418,-4.39086,33.1905,6.42122,-4.53457,33.7251,5.95418,-4.18142,33.725,5.96514
0.268794,0.025295,11.1557,19.8086,-8.52931,11.4239,19.9056,-8.54241,11.4289,19.8586,-8.54262,11.6386,19.724,-8.5706
18.0836,0.37579,4.81108,31.661,-7.79761,3.47902,29.8249,-8.24541,3.39606,30.9645,-7.75161,4.60786,32.4473,-7.83017
3.85031,0.0389061,-21.0981,26.7664,-0.347097,-21.0987,27.6188,0.370466,-21.1709,26.5029,0.125656,-21.1122,27.6722,0.919415
17.3019,0.0111045,12.5931,9.22215,7.48149,11.5318,7.86393,7.64874,13.9289,8.95947,7.36723,11.043,8.52064,7.65194
50.5531,0.0528554,-21.3057,20.783,2.04136,-20.7481,23.3826,3.51991,-21.0745,23.5522,2.50607,-20.7604,22.9398,3.49452
3.2825,0.00895736,-7.73609,24.7882,8.62932,-7.12494,25.3424,8.66018,-6.14782,24.8196,8.6266,-6.15068,24.8666,8.62983
13.545,0.0625161,4.91243,0.562551,2.11038,2.88497,0.5553,2.0817,3.64755,0.365714,1.51125,2.81301,0.344518,1.52424
79.8562,0.381942,11.5661,8.52342,-8.13353,7.39871,11.6686,-8.82278,9.22131,11.2745,-8.65023,7.39733,11.5306,-8.82843
1.93936,0.108264,12.2917,29.9308,-7.57761,13.4143,29.6813,-7.81116,13.4199,29.7769,-7.81262,12.9925,29.8985,-7.68051
2.60883,0.0956228,11.8786,2.60342,4.92797,11.9713,3.15628,5.61789,11.6772,2.87319,5.22542,11.1969,2.99741,5.53219
59.8437,0.722395,15.3828,36.3054,-4.21386,17.417,36.6166,-0.712381,19.2405,37.2747,-3.0187,18.4985,36.8323,-1.16891
30.3804,0.972172,-5.98573,28.345,-8.22531,-4.71822,29.3707,-8.30068,-6.53325,30.0988,-8.24073,-2.73312,28.9598,-8.7206
0.494775,0.0161982,16.0439,34.6445,-6.56009,15.9688,34.999,-6.39042,15.751,34.7801,-6.50976,16.0454,34.954,-6.41347
3.17077,0.460446,-17.1188,28.9768,-6.6032,-17.3141,30.0547,-5.17334,-17.0486,29.9042,-5.46569,-17.1176,29.9724,-5.3144
7.76876,0.30705,11.6204,22.2928,7.26815,11.9849,22.2119,7.2507,12.0063,23.5404,8.07856,10.7102,21.0158,8.45575
2.07421,0.023283,-10.463,5.09944,-6.81142,-10.0936,5.83881,-7.17986,-10.4963,5.99536,-7.19415,-10.6457,5.98275,-7.16683
0,0.00499476,-14.6684,16.3893,-7.70589,-14.6769,16.3573,-7.70577,-14.6187,16.3491,-7.73224,-14.6108,16.3876,-7.73793
23.4748,1.02199,17.9437,21.4419,-5.52028,17.2953,19.8854,-6.72956,17.2708,21.3589,-6.8919,17.8237,22.6764,-6.80425
16.4577,0.679083,-10.9537,9.74473,7.8524,-8.83021,10.1911,8.1469,-10.5055,10.9296,8.60496,-8.7549,9.85502,8.088
8.48971,0.458002,16.3963,31.1652,5.65105,17.8101,30.5346,4.79742,17.5151,32.2235,5.16037,16.3067,31.0273,6.4113
9.98824,0.106476,-4.09194,6.12214,7.46897,-5.48233,6.24798,7.60226,-4.87094,6.81933,7.68627,-4.32044,5.27337,7.44871
3.28898,0.21974,18.5381,23.8248,-3.92694,18.7057,24.9567,-3.94315,18.8037,25.4762,-4.39329,18.6943,24.9754,-4.03427
13.1043,0.946332,-0.805464,27.0105,7.54969,-0.036559,25.8297,8.63711,-1.4314,26.1552,8.25083,-0.945031,26.04,8.43343
1.56018,0.033952,-10.314,35.6701,-4.1802,-9.43233,35.1727,-3.78572,-9.94343,35.5703,-3.67822,-9.66765,35.4236,-3.56644
22.6549,0.217404,-2.31943,8.24414,7.17835,-0.981364,9.28811,7.63944,-4.13827,8.17119,7.47022,-2.23677,9.31051,7.70546
5.64528,0.197179,-7.82031,35.7906,-2.46801,-5.84385,35.6213,-2.05155,-8.1086,35.585,-2.57884,-6.5408,35.6483,-1.69848
0.135701,0.0377034,20.5766,4.5045,3.77107,20.3306,4.16598,4.01149,20.3513,4.15789,3.93975,20.3898,4.32985,4.01485
52.4955,0.950424,8.61645,23.4768,-7.65159,9.82844,22.6197,-8.47155,7.18587,25.1433,-8.77273,11.004,25.802,-8.36958
1.46493,0.0643883,-1.35609,19.526,8.8679,-1.77801,19.6888,8.9948,-1.4267,19.0295,8.97975,-1.07374,19.6638,8.87529
0.297656,0.0227064,-0.948595,4.54696,6.9005,-0.737502,4.65103,6.9462,-0.952427,4.84735,7.04332,-1.01918,4.85031,7.05069
38.632,0.0391279,-21.7702,17.6487,-0.604097,-21.7942,16.3507,0.874058,-21.7986,16.0504,1.03329,-21.8903,15.1494,-0.293117
0.130895,0.0536091,9.81645,1.41529,2.99025,9.69236,1.37778,2.92193,9.8144,1.33885,2.85497,9.75775,1.35037,2.84435
0.597101,0.152091,9.6225,7.10784,7.74926,9.21987,7.34152,7.73035,9.13757,7.30222,7.77172,9.27895,7.42664,7.69346
7.64302,0.392734,20.1242,29.7517,-1.29119,20.5699,29.6281,-0.489882,20.5447,30.5041,-2.03261,20.3508,28.9571,-2.34421
1.15184,0.0679417,6.25895,5.13962,-7.85884,6.19536,5.90625,-8.12323,5.91394,5.28459,-7.94834,6.2813,5.97289,-8.14491
9.22445,0.389794,-6.16355,35.7394,-1.4681,-7.91704,36.6043,-0.958605,-6.5615,36.3328,-1.00416,-5.67437,35.9958,-1.70938
49.0951,0.219119,14.7625,36.0175,3.30268,13.8577,35.4106,5.15632,12.5124,35.9489,3.4055,13.2125,35.4098,4.96727
162.037,0.431868,-20.7479,9.49711,4.13621,-21.1254,4.85647,4.24236,-21.4917,9.20388,0.249004,-21.4582,4.30334,0.0454688
2.79342,0.124184,8.34692,22.9579,-8.24651,7.91472,21.8421,-8.19048,7.79258,22.9005,-8.53534,8.07549,22.3142,-8.27804
0.370963,0.0375665,8.33329,13.4915,8.58978,8.60873,13.1072,8.51565,8.67351,13.3876,8.52358,8.68165,13.1982,8.51458
1.01601,0.0368305,-16.3333,10.7813,8.1845,-16.8323,10.7794,8.14225,-16.9724,11.0105,8.12119,-16.9116,10.2758,8.18395
12.2629,0.63542,3.90256,14.7999,8.04766,5.68378,15.8118,8.42662,5.74349,16.0669,8.53987,6.10199,15.003,8.32477
36.9052,0.159611,-11.6633,26.6987,8.44448,-9.3327,28.9066,8.20032,-9.83542,27.5118,8.43458,-10.1747,29.0987,8.18885
5.59229,0.0803329,19.0019,15.7309,-5.12547,20.0024,14.4502,-4.91718,19.3309,15.8688,-4.86288,18.3917,15.5878,-5.89303
0.310441,0.00327276,-16.5212,28.3034,-7.13466,-16.5252,28.1186,-7.14134,-16.6658,28.0202,-7.09365,-16.6674,28.2031,-7.08849
7.52523,0.0251422,-20.8949,32.8403,-2.55506,-20.5314,31.5824,-3.59117,-20.995,33.9021,-2.66853,-21.0749,32.5649,-1.85442
3.54818,0.0925199,8.44813,27.4888,7.58663,8.80469,27.2627,7.62168,7.1827,27.8786,7.30723,9.36954,27.1626,7.35806
1.71902,0.0147189,20.0679,31.5136,0.537708,20.4494,31.9727,-0.242453,20.2912,31.9042,0.291777,20.5004,32.1306,-0.147154
2.77899,0.0675405,-16.2435,30.8507,-5.59589,-16.9266,30.7097,-4.82542,-15.4288,31.114,-6.311,-15.2287,31.116,-6.33007
1.05579,0.0592401,-2.26427,6.08438,7.36129,-2.05661,5.71555,7.40078,-1.70507,6.09839,7.49456,-1.70195,6.00679,7.48324
9.74083,0.0601252,5.99111,26.0435,-8.60828,8.10657,27.6325,-8.39922,6.56346,26.321,-8.60096,8.45317,27.626,-8.36404
0.994426,0.0560411,15.0434,26.8459,7.11341,14.901,26.6164,7.11273,14.6221,27.2306,7.17264,14.4734,26.7795,7.2444
6.62713,0.436925,-14.9423,31.3766,-6.18994,-15.7662,31.9078,-6.38175,-13.2821,32.5874,-6.66378,-13.2096,32.5462,-6.68563
14.6723,0.252113,20.1679,19.8865,-1.56446,20.796,18.3269,-2.00528,20.6349,20.7476,-1.4213,19.384,18.799,-2.46134
14.8039,0.482413,3.13758,14.0387,7.91114,3.1939,11.893,8.74191,1.53938,14.6232,8.83778,4.06783,14.6533,8.03139
0.623203,1.14214e-05,-16.0616,9.20233,-6.96582,-15.6405,8.93577,-7.04554,-15.7526,9.16866,-7.03899,-15.5694,8.9856,-7.06759
7.20557,0.126213,9.27638,15.574,-8.81254,9.94679,15.9784,-8.8951,8.2853,16.2165,-8.9422,7.92152,15.8024,-8.9757
30.3838,0.0587677,-19.2604,33.0546,6.0036,-20.5483,31.546,3.16094,-20.6126,32.8212,3.26486,-20.5234,32.5974,3.39486
1.56489,0.0103101,5.90979,25.9414,8.53984,5.14643,25.8717,8.64271,5.7166,26.3032,8.49479,5.01614,26.0577,8.6291
34.2553,0.429648,-6.30731,16.3625,8.21845,-6.34312,12.6882,8.46187,-7.23191,14.3097,8.39995,-6.4142,12.4006,8.43573
5.89835,0.193393,-2.00642,25.6321,8.45774,-2.13608,26.5658,7.85189,-2.22352,24.9393,8.74431,-2.09063,24.4365,8.79754
8.50135,0.304757,12.8598,26.0468,7.22564,12.2264,25.6127,7.66609,13.4718,27.2481,7.43357,14.8243,25.873,7.10141
6.75426,0.0704259,-21.4395,34.2096,0.808462,-21.0166,33.9068,2.18364,-21.2901,34.7368,1.65362,-21.2606,34.5335,1.60621
6.1692,0.0973516,19.6715,6.26913,-5.22769,18.9855,6.26648,-5.8577,18.711,7.45382,-6.077,18.9012,8.19693,-5.94581
3.81015,0.128708,-6.88352,18.2867,-8.6373,-6.21941,18.9264,-8.89714,-6.93416,18.7145,-8.76613,-6.87737,17.3764,-8.75404
4.64651,0.0143947,4.05799,5.75477,7.3818,4.67582,4.94304,7.08853,3.63446,5.69894,7.35136,4.68907,5.74503,7.42697
5.44995,0.206993,17.1429,10.4563,6.28454,17.777,11.3857,6.23999,16.949,10.1358,6.62839,18.6378,9.98184,5.3853
19.1746,0.62964,-3.04814,23.2961,-8.78604,-1.77234,22.7933,-9.18884,-1.00069,21.34,-9.00733,-2.12536,21.2717,-9.19864
27.6893,0.178931,-13.91,8.01499,7.34703,-12.426,8.80009,7.96104,-14.0301,10.2984,7.65115,-14.0343,4.03269,7.23934
25.9321,0.159238,2.53145,15.7892,8.6556,3.50928,15.1232,8.35568,4.84911,16.2831,8.69309,3.93699,16.964,8.83467
6.57312,0.0637866,-15.1242,13.3533,7.79013,-12.7249,12.8663,8.34376,-12.5789,12.959,8.33206,-13.2138,13.2133,8.11623
107.941,0.0186543,-0.470784,9.43908,-8.81018,1.02146,11.8267,-9.01099,1.51101,11.1288,-8.98986,2.62999,10.3908,-8.98836
61.0549,0.99338,12.6427,12.0768,-8.38363,14.7484,13.1895,-8.03891,12.5246,14.6406,-8.53013,13.0737,14.2553,-8.42043
5.68645,0.00292282,3.6042,19.1648,8.92969,4.03649,19.3461,8.93529,5.02708,20.0828,8.96661,4.37344,18.9174,8.89268
4.20007,0.231509,3.16934,25.5909,-7.92763,3.51425,25.5001,-7.93925,3.17621,25.0403,-8.3372,2.24038,26.7723,-8.9172
0.42968,0.0962753,-10.181,1.80195,4.39333,-10.3869,1.69649,4.14094,-10.3952,1.63149,4.0677,-10.522,1.69074,4.14302
0.863574,0.520623,-8.13898,9.42187,7.95235,-8.68645,9.94594,8.0749,-8.54047,10.0321,8.05004,-8.47955,10.0782,8.05031
1.00957,0.0393297,0.630873,33.8418,5.81959,0.523108,34.4003,5.18348,0.670339,34.531,5.03887,0.472997,34.2698,5.33845
27.4539,0.0206309,10.9239,11.5964,7.66799,12.88,11.3461,7.68309,13.5257,12.0664,7.84398,12.6738,12.792,7.97166
7.90295,0.0208687,-3.14734,19.2429,-8.86789,-3.42659,18.825,-8.85488,-1.22976,20.7391,-9.00353,-1.29146,20.7399,-8.99078
3.96834,0.213421,14.965,21.5737,-7.51255,15.115,22.0396,-7.54069,15.6649,21.5809,-7.53613,14.6947,21.13,-7.98204
0.456217,0.00844772,15.3026,5.6833,6.84524,15.4031,6.36142,7.0132,15.4617,5.78316,6.86469,15.3473,6.35611,7.011
0.0426332,0.0382249,-6.88747,13.4873,8.52075,-6.96833,13.5286,8.50286,-6.89035,13.5813,8.5001,-6.79528,13.6026,8.48836
5.60298,0.0280864,-15.2549,6.38773,-6.7933,-16.2684,5.07881,-6.34789,-16.1251,5.65927,-6.53027,-15.7152,5.27079,-6.45474
1.14128,0.0114047,-0.0707305,14.364,8.89181,-0.290236,14.1349,8.8871,-0.0733235,14.6417,8.87659,-0.568486,14.2218,8.83054
0.165216,0.00752446,-10.5649,11.3636,8.68618,-10.5613,11.0822,8.63766,-10.4927,11.0776,8.639,-10.6328,11.1761,8.64926
0.90743,0.0824877,10.2001,28.6978,-8.05946,9.98042,28.5688,-8.1384,10.6169,28.4439,-8.25254,10.13,28.8423,-8.10627
9.15399,0.0260235,18.0828,23.6301,-6.69898,18.6959,24.227,-5.82209,18.9155,25.518,-6.10697,18.2622,24.3643,-6.70288
7.87092,0.00715999,8.58824,11.3131,-8.58323,7.13566,12.6723,-8.74122,7.80897,11.6549,-8.71483,6.83652,12.8654,-8.78656
6.54539,0.0684483,20.1903,28.48,0.958934,19.1217,28.9265,2.5486,19.0437,28.9218,2.65786,19.2144,28.7082,2.42959
1.02052,0.574025,7.40399,5.81906,-8.04289,7.9543,5.27893,-7.84984,7.94371,5.03278,-7.73813,7.94595,5.07983,-7.75303
1.8887,0.00279614,-3.31904,36.6472,-2.27263,-3.07744,37.0761,-1.68233,-2.92943,37.0123,-1.95099,-3.52148,36.7033,-1.95854
1.08337,0.0858641,18.3539,19.124,-4.45421,18.3589,19.4702,-4.80636,18.3829,19.4889,-4.38741,18.5025,18.7768,-4.42952
0,0.00959267,-14.2138,23.1051,-7.67094,-14.2764,23.0476,-7.64559,-14.2999,23.1055,-7.60208,-14.2165,23.1494,-7.66603
76.4108,1.07546,-16.9109,1.48036,-2.8336,-17.3924,1.49007,1.00405,-13.35,1.10416,-1.26811,-19.436,1.15193,0.409992
0.195794,0.268514,-16.6775,12.2694,-7.00652,-16.7548,11.9895,-6.95104,-16.671,11.9883,-6.98742,-16.8206,11.9829,-6.94264
0.0549609,0.0222358,1.45033,34.4465,5.22899,1.37653,34.5637,5.05832,1.58908,34.4869,5.19895,1.30681,34.5643,5.05795
1.33269,0.38549,-5.70441,15.0778,-8.83873,-5.97903,15.4018,-8.84442,-6.68003,15.1642,-8.8018,-6.39992,15.2541,-8.7935
2.97596,0.0404894,5.27869,17.0002,8.52568,5.49416,16.1667,8.55297,5.50356,17.0112,8.63333,5.82888,16.3629,8.6668
2.76648,0.0809797,-12.3729,0.891277,1.24408,-12.3651,1.18253,2.49599,-12.1483,1.1892,2.63513,-12.4381,1.06078,2.05351
4.42707,0.02861,-20.234,9.58275,5.264,-20.6984,8.57918,4.25828,-20.7707,8.70893,4.04278,-20.7168,8.07989,4.28937
22.3553,0.0439948,-18.3134,1.64072,2.35639,-19.6297,2.19515,4.01535,-19.8921,2.50645,5.26477,-20.3243,2.14412,3.12808
3.07136,0.388187,7.31863,9.21776,7.9802,6.25973,9.25637,8.15169,6.32331,9.14039,8.04948,5.90203,8.63811,8.0364
0.0502961,0.00746787,21.5968,1.04723,-1.06789,21.4215,1.07573,-0.923315,21.3506,1.05185,-0.946608,21.5489,1.08466,-0.953108
3.58541,0.194281,20.7088,21.2864,-1.52661,21.077,20.9437,-0.618464,21.2108,21.0171,-0.441405,21.0137,20.6717,-0.665531
16.4621,0.77083,4.17965,9.01116,7.69117,4.37375,10.5917,8.24249,6.19297,9.40635,8.24926,5.97934,9.61918,8.32544
0.068442,0.0745057,2.96496,18.4742,-8.93413,2.89069,18.5454,-8.90891,2.96343,18.5596,-8.93702,2.83169,18.5579,-8.9325
0.132081,0.0106285,14.4194,35.1019,5.62128,14.6437,35.016,5.69729,14.5521,35.1124,5.59084,14.709,35.0558,5.65131
1.42451,0.0183883,10.2366,14.1709,8.293,9.476,14.2835,8.34414,9.61014,14.5432,8.26775,9.3964,14.5499,8.29317
206.319,0.189108,7.31085,20.2978,-8.74438,3.28872,18.0606,-8.94883,2.89481,19.3485,-8.93464,5.50461,21.6086,-8.91627
8.26567,1.14868,9.23261,12.7863,-8.84997,10.4107,11.9328,-8.68655,9.42645,11.4201,-8.67422,9.22132,11.3243,-8.65831
40.2578,1.34593,-18.8469,33.26,6.28356,-16.0397,32.0287,6.92784,-16.5719,31.0575,5.29223,-16.4496,33.0852,7.1577
5.00724,0.0537283,-2.19549,13.2054,-8.98108,-1.12891,13.9602,-9.0854,-3.31908,13.9903,-8.99372,-3.03685,13.4846,-9.00169
41.8287,0.151355,-19.6746,6.96746,6.216,-18.4527,11.2518,7.24824,-18.532,10.9575,7.19533,-18.2607,10.3607,7.4694
0.155719,0.0706917,15.2402,15.2997,-7.95205,15.4437,15.3933,-7.92971,15.2919,15.2206,-7.87949,15.4407,15.3002,-7.91755
33.637,0.132009,-0.635262,15.557,8.45918,3.22977,17.0368,8.99224,2.45763,15.8394,8.66526,3.07863,14.9596,8.42179
10.3453,0.0587478,-12.0208,19.3182,8.64901,-12.5259,18.6902,8.46275,-11.4024,18.9116,8.77184,-11.412,17.6651,8.51286
3.73473,0.172765,-5.71291,35.8476,-1.76445,-5.25352,35.4474,-2.43977,-4.888,35.9279,-1.93671,-4.25502,36.0237,-2.29088
0.356281,0.0999207,1.87055,16.4574,-8.93342,2.10786,16.7669,-8.97519,2.10204,16.8141,-8.98272,2.17507,16.6756,-8.98108
8.8651,0.243688,-4.23244,19.3982,8.74782,-4.66172,20.4804,8.54956,-3.60382,20.0066,8.85489,-4.35989,20.8359,8.45112
104.153,0.59611,9.95956,16.1109,7.91525,13.4631,13.3974,8.00917,10.8641,13.0408,8.24677,13.608,13.7215,8.01362
23.2087,0.356446,-14.4359,17.4211,8.24498,-15.5588,16.9188,8.23553,-17.6758,17.1541,7.53861,-18.0251,17.9322,7.44187
40.2106,1.12514,17.6679,32.2441,4.43068,19.1834,31.905,3.58767,18.9871,29.6586,3.33941,18.2388,28.7178,4.8934
4.23982,0.0221365,6.24843,23.9554,8.60208,4.20976,23.7936,8.6284,4.62783,23.7439,8.61526,4.2817,23.5135,8.61565
2.95342,0.13544,-2.05606,29.4622,-8.31015,-2.33109,30.6088,-8.25686,-2.2579,30.6511,-8.22914,-1.64075,30.3648,-8.14337
1.75707,0.180203,8.16959,7.67658,7.73965,7.79828,6.99443,7.81022,7.51318,7.09163,7.80935,7.29664,7.05073,7.84588
0.602297,0.0340917,-1.17763,24.9803,8.8018,-1.44042,24.5289,8.86646,-1.28563,24.4672,8.83796,-1.30126,24.4324,8.83949
15.7079,1.36706,18.8364,24.7591,-4.9842,19.1328,26.5791,-4.89972,19.0705,26.111,-5.95026,19.1174,26.2629,-5.64181
27.4274,0.120045,-2.65336,35.3162,3.84126,-2.56561,33.5772,6.00577,-3.57043,34.6314,4.80739,-1.28816,34.2821,5.19744
2.56042,0.0169409,7.51176,10.1282,-8.70245,8.15561,10.4909,-8.65444,7.7298,9.75778,-8.70572,8.2953,9.93523,-8.65098
10.2864,0.0122558,19.1215,26.2847,-3.77917,18.7557,24.3418,-3.63854,19.2273,25.5453,-3.53981,19.0926,24.1252,-3.3194
0.917505,0.0688144,17.8744,34.4823,4.7404,17.8249,33.5786,5.06147,17.0208,34.5331,5.24678,17.6025,34.1694,5.03441
20.6297,0.676038,9.19335,0.386173,0.401134,5.19001,0.286582,0.562586,7.09806,0.343374,-0.860503,5.4039,0.252337,0.23708
0.0629423,0.068256,8.7524,13.8014,-8.84455,8.61124,13.8763,-8.80093,8.73934,13.8891,-8.85489,8.64775,13.8336,-8.73728
1.56018,0.0667837,3.05146,10.7535,-8.94374,2.90934,10.3409,-8.9563,3.60255,10.2886,-8.90883,3.32029,10.1006,-8.89609
0.507159,0.0317873,-11.4725,25.7348,8.52734,-11.6107,25.4967,8.45348,-11.7236,25.4856,8.41377,-11.7478,25.6816,8.45807
7.43733,0.192384,20.4459,5.19646,-4.16952,21.1104,6.95525,-2.1755,21.11,7.02866,-2.17922,19.9914,7.3799,-4.83345
12.8549,0.807214,-1.15187,27.6036,6.78998,-2.09094,26.9383,7.57802,-0.647349,29.1413,7.50314,3.05722,27.3755,8.04239
35.496,0.0440358,-14.4278,23.9027,8.17416,-16.7354,26.2192,7.40171,-16.9078,23.6311,7.44403,-15.9479,26.5709,7.63829
14.8979,0.160381,17.8699,34.3263,-6.55386,17.0304,32.9643,-7.1352,16.6091,34.7339,-6.50903,16.3414,32.8301,-7.13919
1.18358,0.282935,10.8417,5.9916,-7.92643,10.9045,5.64962,-7.82355,11.5427,6.27112,-7.93395,10.8495,5.59647,-7.81767
0.143943,0.0251645,9.71598,0.533509,0.521835,9.6655,0.564318,0.659458,9.70954,0.554841,0.647356,9.60363,0.544486,0.589201
25.5218,0.0560732,-4.02178,21.3835,8.13022,-1.54341,21.7015,8.54362,-2.0466,21.2976,8.58224,-2.12639,20.3346,8.94624
1.52044,0.00112416,11.9408,26.5663,7.84824,12.4353,26.1476,7.54926,12.297,26.3468,7.66179,12.6419,26.6776,7.67606
0.096052,0.00106583,-1.09804,10.2726,-8.84879,-1.23949,10.4144,-8.86024,-1.23521,10.3227,-8.84991,-1.09627,10.3644,-8.86047
4.11362,0.024957,20.2953,29.9868,-2.91914,20.4206,30.1599,-2.49204,20.2959,30.7933,-2.54656,20.1174,30.1573,-3.50097
0.116393,0.122198,20.9453,8.98973,3.05319,20.9979,9.05672,2.94059,21.0077,9.1212,2.95067,21.0045,8.99864,2.93173
5.612,0.64644,-19.1866,9.84516,-5.61351,-19.9264,11.0756,-5.00376,-20.0697,11.1152,-4.86564,-19.2059,10.9508,-5.63567
57.2794,0.0914582,-21.3187,25.1863,0.623981,-21.4192,23.4065,-0.272973,-21.1981,22.6697,1.9647,-21.1456,23.4086,2.09869
6.10474,0.29929,9.56857,8.8793,7.47679,11.1833,8.98538,7.64823,11.462,9.16618,7.59557,10.8395,9.22199,7.62942
7.60798,0.056955,5.87283,13.2534,8.69134,5.48068,14.7804,8.32512,4.97917,14.5512,8.32188,6.59062,13.9405,8.66609
55.9202,0.60325,9.93707,28.1186,6.59674,14.2183,28.9254,7.02021,15.4839,29.936,7.03697,13.2963,28.3822,7.02575
2.3047,0.131206,16.5439,17.2073,-7.31764,16.97,17.5615,-7.186,16.2888,16.9257,-7.65299,16.6371,17.812,-7.44064
3.7006,0.160128,-4.13924,16.1299,8.05872,-3.57953,15.4837,8.41062,-3.43467,16.0883,8.4028,-4.54694,16.6027,8.08818
2.5671,0.1099,6.99329,27.9922,-8.32974,8.03789,27.9091,-8.40009,6.98544,27.5467,-8.45824,6.64885,28.2376,-8.44407
7.50939,0.292332,3.996,16.0165,-8.86308,2.52504,16.8114,-8.95835,2.6739,17.0323,-8.88658,4.2773,16.7191,-8.94537
12.816,0.707322,-4.71798,13.4882,8.34614,-5.32542,15.2997,8.35126,-4.84806,15.0022,8.25682,-4.05845,15.3121,8.47446
17.8298,0.99547,-6.95945,13.9855,8.42604,-7.25235,12.2391,8.52402,-8.15258,13.2492,8.72645,-8.49745,14.619,7.94024
0.114933,0.0624394,-5.24335,31.949,7.1031,-5.58079,31.96,7.09203,-5.51668,32.0362,7.07459,-5.57451,32.0203,7.06828
8.86227,0.310819,-3.21559,3.95807,5.98494,-3.29144,4.17955,6.58512,-1.29044,3.07844,5.51,-4.63481,3.9779,6.51187
3.39255,0.0725084,0.294312,9.47448,7.99873,1.42111,9.33554,8.08325,1.21915,9.00116,8.01472,1.69041,8.4387,8.02456
57.3849,0.130034,-1.44253,11.067,-8.91109,0.604363,12.3844,-9.03415,-1.8486,13.0666,-9.00242,-0.64695,13.2678,-9.08258
0.190484,0.0409995,-4.80373,0.462606,1.32984,-4.99287,0.50948,1.42773,-4.98728,0.490218,1.32541,-4.92856,0.515223,1.43319
0.312396,0.258698,12.4371,1.45387,2.93955,12.6971,1.50948,3.00047,12.6948,1.44979,2.90669,12.6995,1.53415,3.07094
7.3699,0.0649356,17.9038,36.6194,1.55446,16.8156,36.4185,2.77882,16.7345,36.4311,2.50916,17.7288,36.5609,2.65508
0.296331,0.015178,-0.00274041,22.9174,8.69179,0.0747164,23.2337,8.64139,-0.075657,23.193,8.67953,0.0739619,22.9137,8.69186
97.0106,0.173384,9.93108,3.08216,5.70537,3.82921,3.21451,5.66886,8.33228,1.80331,3.99977,2.05277,2.44832,4.8149
3.18477,0.0698262,18.6061,12.4044,5.93449,19.587,12.2279,5.53939,19.6057,12.6805,5.67214,19.318,13.3891,6.01539
8.30449,0.429436,18.1331,20.315,-3.73875,18.1216,21.4569,-4.9882,18.0372,21.3917,-5.30749,18.3494,20.0315,-4.64951
3.07421,0.167815,-5.86624,10.8219,7.87692,-5.11109,11.1824,8.15132,-6.16758,11.1914,8.15455,-6.23349,10.3143,7.90962
1.17397,0.0346993,-14.1058,21.1654,8.47876,-14.4504,21.7147,8.40715,-13.8225,21.2539,8.46907,-14.1,21.9933,8.43669
11.5314,0.136259,1.29093,33.9674,5.74252,2.26434,32.7588,6.7876,2.76276,33.0096,6.66581,2.77951,33.9963,5.8179
0.196048,0.00506493,-2.33317,0.427585,1.30276,-2.21558,0.407276,1.27474,-2.21607,0.422542,1.37773,-2.32871,0.433629,1.38128
3.33319,0.0104552,-6.58585,36.8266,1.30584,-6.24727,36.6434,1.73998,-5.82804,36.6617,1.6713,-5.98072,36.7684,1.43115
62.5956,0.207383,-5.30533,36.191,2.58843,-5.45501,37.1051,0.244882,-7.57489,36.5616,2.06651,-7.77694,36.8183,1.20371
61.4523,0.638355,17.4786,2.24244,4.89485,14.9878,1.37548,2.5898,18.5596,0.543427,-1.35783,17.5763,0.946563,0.829739
57.2203,0.0692784,12.8981,36.3036,1.71057,9.88587,36.1397,2.52162,9.40011,36.366,1.52651,9.91681,36.0621,2.88007
1.93789,0.0111126,11.387,5.44974,-7.71615,11.0969,4.5248,-7.41137,11.5875,5.0621,-7.58046,11.1663,4.52902,-7.40969
203.473,0.278664,9.43592,5.57495,-7.92141,5.18752,7.41341,-8.53034,7.80453,9.43205,-8.71594,6.2024,10.1382,-8.84125
0.00385081,0.032971,-21.1094,12.2445,3.27121,-21.1186,12.2284,3.35474,-21.1452,12.2858,3.27004,-21.1339,12.2867,3.30799
6.54947,0.144161,9.55457,16.5009,7.98923,10.1103,17.7423,8.5482,9.27283,17.4983,8.4182,9.04884,16.4754,8.0978
14.7604,0.043381,-19.5404,4.20726,6.44779,-19.9484,5.49567,5.98928,-20.4117,4.26074,5.24155,-19.8642,3.51021,6.01115
4.13597,0.0323977,-15.2765,35.7657,-4.09828,-15.2589,34.7176,-5.52263,-14.9519,35.4751,-4.44714,-15.3596,35.1264,-5.01318
5.60609,0.140648,2.95476,17.258,-8.83329,3.37521,18.6091,-8.92656,2.60652,18.3357,-8.95301,2.1733,17.8669,-8.90184
2.14573,0.0188224,1.19226,36.8827,0.894855,1.35885,36.5326,2.06854,1.23406,36.4542,2.24706,1.16457,36.4286,2.2925
7.64831,0.0858654,-18.2986,23.0365,6.74232,-19.1806,23.0011,5.90073,-17.8702,24.3592,6.97152,-18.278,22.9012,6.93488
1.66372,0.00373053,12.6517,30.7039,-7.89028,13.2064,31.0262,-7.87455,13.2777,31.206,-7.84757,13.495,30.7572,-7.94165
1.17115,0.366738,-11.5464,4.67992,-6.48722,-10.7533,4.75016,-6.6177,-11.5294,5.08447,-6.67895,-10.9699,4.8433,-6.63224
2.96558,0.0828356,0.432797,16.9441,8.78496,1.28196,17.091,8.8823,0.29903,17.3772,8.86931,0.0110989,16.4497,8.85711
1.32307,0.00216048,12.8677,0.708043,-0.354246,13.1537,0.69758,-0.63963,13.4296,0.739451,-0.0795001,13.5075,0.738964,-0.127495
23.474,0.117962,-7.96805,24.7373,8.59489,-8.09182,26.0412,8.61121,-10.2772,25.6423,8.60755,-10.5655,24.2831,8.47398
2.25837,0.0397493,-12.8685,25.8438,-7.4445,-13.5852,25.6709,-7.15245,-12.4188,26.0645,-7.70578,-13.858,25.8454,-7.03949
18.8799,0.600701,13.6622,10.7276,7.63046,10.4808,10.2122,7.72558,9.77405,9.85295,7.74672,12.5822,11.1498,7.57168
36.854,0.660348,-14.3959,4.53506,-6.1685,-12.0711,5.7134,-6.89584,-12.0021,5.6745,-6.88885,-13.4656,6.61541,-7.05083
28.7713,0.580377,-15.2124,16.5917,8.24992,-16.5708,14.9965,8.04884,-14.807,14.8591,8.47575,-16.307,14.3652,7.93454
4.13525,0.314886,-2.37718,30.992,6.42884,-2.93859,31.5727,6.89112,-2.24483,30.1594,6.78345,-1.89542,30.9238,6.61356
35.6782,0.192243,16.3457,29.0217,6.14384,17.648,30.1062,5.03796,14.5535,27.7343,7.11526,18.8598,27.9938,4.27874
0.152959,0.0539228,-15.5635,15.2451,-7.41267,-15.2736,15.3947,-7.48016,-15.2807,15.3469,-7.47395,-15.3446,15.2538,-7.46303
50.1022,0.376585,-21.648,18.0665,1.46554,-21.7724,16.4354,0.906855,-21.613,16.7079,2.19576,-21.3111,17.5362,3.11774
1.72076,0.0263816,-10.8247,26.3301,8.51707,-10.0567,26.5559,8.53836,-10.0597,26.6486,8.53265,-10.4623,26.9221,8.48443
3.43835,0.00391756,-7.22464,25.7013,-7.72988,-6.28276,25.8771,-8.00798,-5.50178,25.9143,-8.33358,-7.15349,25.2823,-8.10659
2.30974,0.212939,-13.4468,27.6197,-7.96688,-14.3192,27.0096,-7.53617,-14.7409,27.3668,-7.38434,-14.6041,27.3229,-7.42796
0.437144,0.299617,-7.07819,33.8761,-6.20968,-6.4166,33.9904,-6.1757,-6.4868,33.971,-6.22248,-6.63556,33.9427,-6.315
1.83235,0.00317406,-7.97009,13.4698,-8.61958,-7.54491,13.6622,-8.68001,-8.04632,12.819,-8.57789,-7.69122,13.2453,-8.64061
2.96488,0.0923663,20.692,0.890779,-1.29311,21.4033,0.978448,-1.13222,20.4137,0.916563,-0.914006,20.4633,0.555951,-1.71673
2.54782,0.0121611,20.1774,26.021,-3.11694,19.4809,25.3121,-3.42237,19.4787,25.4656,-3.46771,21.1597,26.0842,-2.38206
0.777326,0.156361,18.7441,16.3218,-5.46543,18.6762,16.8788,-5.38524,18.5792,16.9359,-5.49804,18.5485,17.0067,-5.54105
0.684447,0.00643264,-0.386734,18.7052,9.01432,-0.517565,19.3897,8.93539,-0.310804,19.0273,9.00746,-0.373723,19.3398,8.96781
2.70315,0.104498,-19.6602,0.982377,-0.832496,-19.5121,0.776075,-1.48735,-19.9333,0.919373,-0.329993,-19.0106,1.09095,-0.34247
0.134826,0.00790812,-3.33984,33.216,6.34579,-3.05657,33.1191,6.40257,-3.05693,33.0498,6.45141,-3.23656,32.9093,6.56391
4.0491,0.104258,-20.1654,25.4284,4.09981,-19.9951,24.0773,4.88,-19.7946,24.6943,5.07655,-19.8742,25.1903,4.83633
5.59677,0.357267,-10.3029,22.5735,-8.23283,-8.72909,23.0758,-8.89744,-10.3471,21.6861,-8.85284,-10.4344,23.3334,-8.36785
12.2723,0.173408,1.66917,29.2389,-8.35953,2.87161,29.1586,-8.45355,1.87008,30.2292,-8.16127,1.17133,30.2372,-8.22864
1.92286,0.0886468,-8.84526,36.8522,1.10608,-9.72665,36.9342,0.628607,-9.9183,36.8925,0.917057,-9.92731,36.9111,0.829203
7.05433,0.289221,15.0633,19.2928,6.88366,14.6233,18.7623,7.3284,15.342,20.7134,7.3974,15.8955,19.798,6.89329
0.126131,0.00354145,18.1679,12.8442,6.75465,18.1345,12.9032,6.79197,18.4123,13.2512,6.68548,18.3407,13.2278,6.7321
19.0632,0.320628,-9.34413,35.7118,-2.66486,-9.83279,37.0061,-0.347586,-10.1759,36.721,-1.02259,-11.0526,36.8973,-1.33872
0.261271,0.0158796,-18.5006,32.2406,-4.89768,-18.1757,31.6582,-4.63031,-18.3117,31.8015,-4.63035,-18.3815,31.8048,-4.56018
0.00864814,0.0144079,-2.98606,17.7072,8.74765,-3.01391,17.6453,8.68907,-3.01654,17.6269,8.68596,-2.97732,17.6284,8.7366
5.60661,0.358031,18.7271,18.9329,5.42492,18.6237,18.4296,6.04775,19.1804,19.83,5.57988,20.0719,18.9142,4.31957
5.10708,0.0669769,-19.2662,2.32497,4.97763,-18.6408,2.06234,3.85756,-19.0627,1.98845,3.35769,-18.5782,1.86536,3.05491
5.74072,0.30166,12.0013,27.9768,-7.80843,12.3676,28.3127,-7.9188,11.4024,27.9452,-8.30118,12.8508,26.9795,-8.32157
23.881,0.292343,-16.0736,9.74094,7.78438,-16.9974,8.27781,7.92371,-14.7982,9.11038,8.02712,-16.1234,10.6797,8.17134
4.54186,0.190455,11.4922,29.9144,6.62414,10.9055,29.5954,6.94492,11.6995,30.3866,6.7058,12.8847,29.547,6.73655
5.89509,0.0659457,-8.59465,33.9918,-5.07931,-9.49427,34.3596,-5.60239,-8.14365,33.8875,-4.62058,-7.67436,33.9189,-5.94878
0.0964029,0.0335289,15.4171,9.40509,7.2998,15.1293,9.36348,7.36252,15.1937,9.30467,7.34421,15.1979,9.40672,7.3616
3.98024,0.197829,0.929798,25.1349,8.71305,3.59052,24.5885,8.6387,3.51689,24.86,8.59367,3.03853,25.0554,8.62374
0.288972,0.00619565,-21.1036,23.2728,2.34129,-21.0442,23.5367,2.29461,-21.0685,23.6564,2.20266,-21.1134,23.6755,2.13512
7.38243,0.0631681,5.80473,32.2649,-7.84465,4.87271,31.172,-7.95657,6.7823,31.7834,-8.05634,4.94017,31.5753,-7.85106
2.94251,0.387873,-21.179,19.2804,-2.9088,-20.5802,19.4428,-3.99388,-20.1421,19.0407,-4.61248,-20.5997,19.5094,-3.94348
5.39695,0.40792,-1.45285,6.48437,-7.95246,-3.13052,6.83811,-8.14224,-3.48168,6.84764,-8.2459,-3.24761,7.1461,-8.35618
47.6237,0.719652,-6.76619,33.8862,-2.77635,-8.6591,35.4194,-2.7383,-7.14571,33.6604,-3.76101,-5.27671,35.1508,-2.82089
0.342342,0.195591,7.04691,10.5114,-8.83669,6.83646,10.2321,-8.80797,6.97011,10.1378,-8.79894,6.90844,10.236,-8.77994
24.6403,0.229902,13.7301,19.6204,7.41884,14.8038,19.8637,7.31439,14.1222,17.4868,7.75742,12.0303,19.977,8.13224
4.13478,0.20981,18.413,32.0493,-6.77578,19.4462,31.913,-5.99955,19.1862,31.7437,-6.13791,19.264,31.3228,-6.10254
5.51171,0.0839313,5.86339,20.7132,8.90102,6.56537,21.6205,8.81577,7.05908,21.979,8.74987,7.28137,21.9772,8.75184
0.19248,0.000708203,3.78974,7.89238,-8.66579,3.7885,8.17702,-8.70013,3.9334,7.94197,-8.65788,3.85654,8.1715,-8.69263
23.4179,0.160304,-17.0402,36.6258,2.11845,-16.9302,36.8088,-0.274315,-17.5343,36.8933,-0.67925,-17.7885,36.9145,0.11276
1.02872,0.051228,12.2197,5.58357,-7.66987,12.0306,6.02438,-7.79556,12.0254,5.78466,-7.74476,11.8081,5.43944,-7.65013
5.15271,0.0045137,15.7747,13.8273,7.62152,15.9986,13.3497,7.58589,15.4997,12.9006,7.65101,14.9502,14.2244,7.75208
16.3332,0.612258,-11.5321,7.84177,7.30007,-12.8044,6.11692,7.78022,-9.97645,7.48979,7.78325,-11.7993,9.18761,8.09953
8.16222,0.277182,9.32218,11.4355,7.74371,10.2866,10.9473,7.93411,10.5736,12.3776,8.16681,8.80437,11.3969,8.02369
2.01735,0.00382642,5.79634,20.8952,8.88024,5.51643,20.5325,8.90335,4.80116,20.2694,8.97704,5.0915,20.1751,8.94568
12.7284,0.0301015,13.5948,18.8233,-8.38124,11.6282,18.5224,-8.55101,11.779,19.5835,-8.55794,11.5571,18.6614,-8.5586
5.7172,0.0374639,-4.24124,32.469,-7.62416,-3.3278,32.7988,-7.6741,-6.30718,31.6115,-7.38022,-6.5099,31.7954,-7.37955
13.908,0.0274789,-21.601,11.6117,-0.120605,-21.7829,13.6136,0.5131,-21.6893,12.9978,0.907232,-21.7063,13.1362,0.900138
7.60493,0.324934,-2.00479,28.4041,-8.32965,-1.91254,29.505,-8.28575,-0.311937,28.5684,-8.4984,-2.60113,28.0949,-8.82359
4.72128,0.200007,-18.1948,31.5159,-4.60444,-18.8744,32.1811,-4.78802,-19.3856,32.6265,-5.09173,-19.3894,32.076,-5.04808
25.8655,0.165811,13.2442,23.4794,7.73153,14.9605,25.2534,7.30346,14.1145,25.3348,7.48781,15.0236,24.3391,7.39523
3.44999,0.114433,-17.8765,24.3933,6.93963,-17.39,24.7367,7.33275,-17.2838,25.6899,7.22728,-17.0946,25.1194,7.45555
5.43467,0.274044,3.79496,23.7307,-8.18696,4.30942,22.3443,-8.90253,4.37615,23.791,-8.28295,3.19487,24.2341,-8.48324
39.6193,0.262963,18.0093,19.0454,-5.3968,17.1695,19.4739,-6.97182,17.0454,18.5618,-7.26013,17.7831,17.09,-6.41252
4.73653,0.0251594,3.00743,36.8764,-0.162666,2.5367,36.8755,0.642105,3.52821,36.8515,0.17341,3.40869,36.8148,0.845469
0.474597,0.00930516,-3.92656,3.60575,-6.67062,-3.9168,3.80996,-6.81777,-3.69015,4.17377,-7.07501,-3.62205,4.12759,-7.04931
11.4777,0.216492,16.3392,36.4897,0.817618,16.5379,36.4152,2.46472,15.3627,36.4257,1.40578,15.5432,36.3021,2.1723
1.98493,0.00745799,-18.2851,27.5404,-6.1833,-17.6939,27.5727,-6.48399,-17.5494,27.3975,-6.53082,-17.687,27.2027,-6.43764
3.18956,0.145546,12.1467,24.8078,-8.29065,12.9942,25.2445,-8.45501,13.409,24.6739,-8.31239,13.057,24.5834,-8.32328
0.722033,0.0119731,-14.7346,1.28012,0.473739,-15.0889,1.39916,1.06579,-15.1582,1.40788,1.10532,-15.3665,1.40814,1.06191
3.49172,0.0216126,-11.3774,15.2707,7.74105,-10.3198,15.6089,7.91289,-10.5884,15.3412,7.97703,-11.6639,15.5154,7.53973
102.962,0.368643,-0.624564,8.63033,7.64266,-0.943539,5.45187,7.28446,-3.66708,7.03211,7.38192,-2.8254,5.76308,7.35163
1.57053,0.054255,-8.65634,26.6931,-8.32511,-9.09141,26.3373,-8.03786,-9.8263,26.1579,-7.70553,-9.75269,26.3029,-7.75472
7.46541,0.066551,0.862354,24.9989,8.72714,-0.609856,25.3414,8.7629,-0.272828,24.5234,8.88377,0.604929,25.6873,8.6924
4.74423,0.309326,-9.88323,28.7788,-7.66972,-9.29933,28.7266,-7.98029,-9.95343,29.9671,-7.53898,-10.4825,28.3459,-8.21865
12.2407,0.311861,8.30996,29.7205,-7.75737,10.3986,29.9228,-7.89488,9.98566,29.6188,-8.04046,7.26446,30.2067,-7.95725
33.0609,0.0692492,3.46285,19.1205,8.92962,0.933453,17.2247,8.86665,0.368711,17.8957,8.92286,2.62142,18.1863,8.84717
2.02342,0.00897747,10.7846,22.1799,8.48836,9.80565,22.9834,8.53478,9.93927,22.4914,8.66107,9.53653,23.0014,8.62142
1.3561,0.00408653,12.1024,12.7466,-8.54885,11.7364,12.6645,-8.61445,11.6669,12.4782,-8.61319,12.2303,12.32,-8.4816
6.47633,0.306523,16.2856,21.3231,-7.01822,16.6362,22.2517,-7.0171,16.8377,21.3747,-7.02034,15.9442,21.081,-7.64529
15.8996,0.418304,1.56803,18.8399,-8.91723,-1.0244,19.9639,-9.08663,-1.01852,20.4628,-9.01526,-0.387275,20.7855,-8.99141
34.3468,0.405622,10.288,21.7586,-7.90431,8.75833,21.556,-8.48215,11.3485,20.7587,-8.36111,7.56592,21.2498,-8.63291


