
17.2631,0.260955,9.21101,17.9964,-6.45161,5.6135,18.1299,-7.04091,7.09655,18.1289,-6.9294,7.60886,18.2539,-6.93227
49.9657,0.106354,-3.35562,12.0602,-6.57745,-5.8635,12.8751,-6.65809,-1.61314,13.3411,-7.27275,-6.56524,11.9451,-6.29712
0.0251845,0.00509948,8.44876,7.22897,6.11143,8.59788,7.21925,6.08047,8.45335,7.27447,6.12033,8.66919,7.27467,6.08807
26.5283,0.633836,-6.85415,1.30097,-1.31584,-3.06399,0.873626,-1.61736,-3.73781,1.05569,-2.59122,-4.11076,1.17084,-1.80077
7.43923,0.0160751,-5.12217,25.882,-4.51225,-2.17624,25.7785,-5.08771,-3.83723,25.9545,-4.71964,-2.11564,25.7326,-5.11253
3.81205,0.119294,-2.07004,27.9054,-2.60983,-4.3549,27.6357,-2.77939,-3.96585,27.7415,-2.64355,-3.31445,27.8265,-2.53078
9.05415,0.0224837,-8.3588,27.7969,-0.150611,-9.74683,27.4548,-0.0819515,-8.15647,27.7707,0.606923,-8.33932,27.827,-0.90623
21.5791,0.311907,-4.30615,18.0182,-7.52742,-2.23371,18.0941,-7.53888,-2.20181,18.6402,-7.64395,-3.1076,18.2513,-7.43353
17.0972,0.162991,5.47151,20.528,5.79794,3.06957,20.4691,6.26159,7.00587,20.7312,5.73505,3.4688,20.9968,6.0708
18.2603,1.14904,2.53325,23.5295,-6.61651,-0.426781,23.5771,-6.41726,-1.68951,23.1004,-6.13705,-2.01089,22.8891,-6.29968
2.37292,0.0330397,-0.30358,27.9026,2.38933,-0.857293,27.7947,2.69154,-0.689881,28.302,1.85535,-0.255601,28.208,1.955
3.83294,0.182105,2.46586,28.9085,-0.602115,3.18552,28.3766,-1.8431,3.19461,28.2517,-2.33091,3.26436,28.2495,-2.32923
19.3368,1.6696,16.3466,13.8507,-1.80865,15.7264,13.62,-3.87613,15.6704,13.7464,-3.78116,15.7219,14.2039,-3.80401
4.17882,0.33272,8.9436,8.16284,-5.91093,6.7358,7.88309,-6.4735,6.16678,7.67265,-6.50508,6.24707,7.66422,-6.49358
2.62147,0.426913,-12.2343,20.1566,-5.38599,-10.3556,20.3715,-6.05785,-10.4162,20.4258,-6.05623,-10.7584,20.4563,-5.87498
72.4432,0.437549,-16.1133,15.5657,2.86134,-16.412,20.9849,0.700468,-16.3443,20.8192,1.01878,-17.1031,16.5693,0.515812
11.834,0.369957,8.16439,11.7769,-6.6631,5.69697,11.5735,-6.95545,8.83074,11.7071,-5.97636,7.68197,10.989,-7.17669
9.70138,0.128053,0.354402,24.6113,-5.71461,-2.75855,24.533,-5.69542,-2.79045,24.2003,-5.82996,-3.59274,24.447,-5.67978
3.54906,0.0629435,1.63701,1.66807,-3.36679,2.95763,0.88211,-2.90119,2.74291,1.0588,-3.22686,1.92153,1.51501,-2.98341
9.8849,0.408508,-12.996,25.7747,-0.248155,-13.4795,26.0031,-0.447638,-12.6661,26.4468,0.508929,-11.7376,26.4936,-1.7178
9.84857,0.0724863,-11.9046,1.87421,1.05131,-10.3474,1.22731,0.190845,-10.1412,1.09651,0.982298,-11.8862,1.83166,0.350468
10.0686,0.363824,3.13628,17.8227,6.53649,5.17381,18.0486,6.54391,5.17488,18.0949,6.55207,2.88146,18.8607,7.15255
16.003,0.0367923,-6.31582,20.7604,5.51821,-8.2406,21.3644,5.27181,-8.22482,20.6312,5.59674,-7.36754,20.4932,5.63042
44.8463,0.601247,10.4844,3.20945,2.32012,10.4997,1.83174,2.0562,12.804,3.69537,2.16229,13.6,4.77107,2.54601
7.65783,0.052838,5.11862,10.133,-7.05605,4.32776,9.7625,-7.0082,7.44448,9.99587,-7.12555,7.43919,10.1302,-7.15665
10.2533,0.554966,-7.68751,18.0272,-6.82013,-8.95141,16.9768,-6.76892,-8.65139,17.0401,-6.85274,-6.02167,17.693,-7.37779
12.4544,0.0650231,15.5025,22.8465,-1.37638,15.4721,22.7345,-0.0219816,15.8361,22.4425,-0.653896,15.0307,23.3497,-0.705376
2.06186,0.0572898,-5.81497,27.1009,-2.93112,-6.08104,27.1644,-3.73993,-5.81771,27.1227,-3.40659,-6.00392,27.1415,-3.77456
38.5083,0.0728248,11.6552,2.99294,-1.95075,10.3973,3.00591,-2.32038,11.2761,3.95386,-4.05769,13.5232,3.00569,-1.0264
7.25242,0.483114,-7.442,27.3688,-0.257053,-6.48199,27.8825,0.0392517,-7.86546,27.8705,0.0717065,-7.92,27.7629,-1.54139
20.1003,0.639885,11.0744,14.9678,-6.08959,10.9463,12.9512,-5.7025,10.5857,12.9723,-6.43284,11.2036,12.356,-5.42117
4.40627,0.273886,13.6724,15.4507,4.13277,15.3979,15.8829,3.11313,15.3136,15.9544,3.19728,14.8028,15.9864,3.63499
8.22196,0.237171,5.98842,6.8042,6.15453,5.22275,7.51409,6.58085,4.99004,7.22257,6.53134,5.77114,7.52338,6.55673
9.1753,0.413159,3.9079,2.38871,-3.9176,3.84347,1.67999,-3.44184,3.6377,2.09939,-4.43494,5.7255,2.53179,-4.27183
13.4919,0.568017,-0.27523,16.7104,6.38705,-1.01766,14.4183,7.41234,1.09844,17.0477,7.13857,-0.644701,17.0904,6.82232
7.84031,0.0671927,13.015,10.4656,4.47895,15.8019,11.2826,3.06648,15.713,11.1688,3.11274,12.0007,10.3592,4.88397
1.2315,1.04583,9.38041,26.9787,-2.47087,10.4177,26.7877,-2.3208,10.4172,26.7499,-2.40482,10.4234,26.817,-2.28614
2.7155,0.13255,13.8809,18.9937,3.68071,12.3629,18.7216,4.42871,12.708,18.7408,4.31584,12.4055,18.8135,4.36847
12.8519,0.145807,12.9346,7.37169,4.0357,14.935,8.06193,3.05528,14.2727,7.04454,3.11339,13.3366,8.11232,4.24237
2.51003,0.0857088,-7.78727,4.53587,4.92097,-9.46232,4.63515,4.12521,-8.388,4.46036,4.66621,-9.4489,4.71976,4.15892
29.5643,0.340705,-0.990419,9.64891,6.65846,-1.08196,10.9129,7.44587,-1.36893,8.69533,6.80338,0.824834,9.46962,6.5686
6.66929,0.0851992,-8.83488,18.395,5.95218,-7.38003,18.2644,6.51596,-6.83381,18.3063,6.63638,-6.6227,18.445,6.61115
14.0254,0.729223,16.4594,10.082,1.14043,14.6388,8.94843,3.57374,14.6359,8.85193,3.56236,13.7801,9.84518,4.4656
17.2646,0.769525,5.02034,27.0524,1.19412,6.77236,27.4893,1.36719,4.55363,28.4873,-0.0031946,4.60571,27.6924,1.8823
29.3312,0.530697,-9.88768,7.51054,-4.95566,-11.9153,8.54195,-4.27942,-13.8891,7.63773,-3.4676,-11.6698,8.03866,-4.14833
29.508,2.04511,-4.86584,26.4629,3.62507,-1.45319,26.3123,3.47583,-0.7051,26.9075,3.67738,-1.42697,25.5286,3.99848
1.10726,0.00236648,-7.41173,27.199,-2.59226,-8.24279,27.166,-2.25965,-7.79283,27.2401,-2.4065,-8.24766,27.0822,-2.30946
17.8745,0.0971299,-7.12675,4.0143,4.28773,-6.58717,6.06472,5.48836,-5.78912,5.76412,5.36922,-7.04093,2.72087,3.72887
17.7163,0.673362,-2.23457,27.8826,-0.338499,0.731725,28.8213,-0.0554844,-2.58875,28.4883,-1.57589,-2.72588,28.5284,0.0150314
2.91759,0.339647,8.26178,25.3382,2.98298,7.8827,25.6578,3.39194,8.30984,25.0274,3.46077,9.61834,26.1454,2.56534
1.28603,0.0672326,11.6803,26.3444,-2.30572,10.4843,26.7278,-2.39684,10.4929,26.7703,-2.31537,10.7036,26.6326,-2.45162
11.4721,0.153177,1.09258,8.65799,6.14623,1.00929,7.14916,6.27165,0.472564,6.01267,6.13026,0.540298,6.06555,6.14739
12.2514,0.956639,11.4019,5.99373,-4.47544,11.7442,4.47054,-3.33865,12.8073,4.98711,-3.68191,11.9606,4.3279,-3.37174
10.0936,0.500671,-14.6142,10.2725,-3.12282,-15.2131,8.66537,-3.28423,-14.1545,10.4584,-3.76528,-15.3176,11.015,-3.59257
12.7543,0.0339801,0.396201,5.22965,5.62968,1.35819,4.96452,6.0061,-1.64192,5.65121,5.20269,-1.78522,5.5111,5.40019
13.1752,0.438605,7.40683,15.311,6.42336,8.25402,18.1508,5.39357,7.89965,18.1559,5.44379,8.265,18.1062,5.41384
13.5957,0.0903973,5.09581,13.9607,-7.09247,6.07218,14.8032,-7.38175,6.63407,14.4019,-7.15043,7.7632,14.3861,-7.09271
2.88888,0.00162452,10.273,9.1472,-5.98596,10.1997,9.79564,-6.32259,10.4118,9.94577,-6.4574,10.6176,9.54619,-6.28837
14.7617,0.464211,11.7649,3.99774,3.84326,11.1621,5.11071,4.6421,10.8914,4.93774,4.6059,10.9578,4.50894,4.10938
1.26395,0.0365864,15.2946,18.2203,3.47428,15.649,18.0843,3.27527,15.2834,18.0155,3.56361,15.4186,18.5071,3.37844
16.4707,0.64237,1.81397,8.8192,-6.58913,3.10809,8.739,-7.49937,1.18655,11.0168,-6.9738,1.28449,8.32848,-7.17637
5.90191,0.0564309,10.0722,17.2215,-6.45493,10.9809,17.9546,-6.07908,11.2657,17.9332,-5.98956,10.6319,18.5239,-6.16783
18.0191,0.364784,0.906375,18.5008,-6.84271,2.89573,18.2445,-6.81408,4.22945,18.3651,-7.40898,4.02502,18.3187,-6.95147
0.0123963,0.00692413,-8.10561,6.2452,-5.4275,-8.02734,6.20082,-5.41079,-7.98619,6.24389,-5.37987,-8.04371,6.27114,-5.39938
2.09051,0.0582741,-12.0577,19.1748,5.03559,-11.3485,19.1237,5.51176,-12.7709,19.1285,4.4587,-11.152,19.2148,5.59238
3.2743,0.0421434,5.19991,16.3412,-7.11813,7.50716,16.23,-6.69659,7.04096,16.4156,-6.77569,7.6022,16.3575,-6.68305
2.26223,0.211312,13.1776,4.6574,-2.69469,13.5209,4.77832,-3.05325,13.5922,4.83737,-2.40021,13.0987,4.19978,-2.60095
52.6558,1.35265,-3.09153,21.3196,6.00084,-0.721923,21.515,6.17616,-1.8855,19.7641,7.13155,-1.11382,20.9118,6.52035
2.35327,0.0656041,-0.488463,25.4964,-5.60272,-0.223116,25.7692,-5.30743,-2.15415,25.6501,-5.14264,-0.145076,25.863,-5.15743
3.78882,0.314629,-14.0615,15.7284,3.96933,-14.4323,15.4824,4.25656,-13.0154,15.613,4.71459,-14.3278,16.2208,4.07888
1.35728,0.571926,11.2012,6.83031,5.08804,12.0557,7.16566,4.79257,12.0758,7.23538,4.8319,12.0268,7.10472,4.80359
8.38416,0.0270788,-12.7837,22.7011,3.55841,-12.5374,23.7804,2.2239,-12.2879,23.5993,3.12865,-12.9141,23.0392,2.58686
26.3876,0.353795,-5.71638,11.1881,-6.46276,-6.86259,11.5213,-6.36154,-4.20934,7.44895,-5.86451,-4.67444,7.30528,-5.98051
17.896,0.980898,4.83594,25.2554,-5.49207,0.398306,24.5589,-5.75293,1.69968,24.4604,-5.60408,1.65338,24.2751,-5.88131
1.98218,0.24607,-1.89107,18.0134,7.26255,-1.26394,18.579,6.87108,-1.91892,17.4407,7.22026,-1.35575,18.7429,6.78964
2.18147,0.0388015,13.8284,20.7541,-3.27019,14.46,20.6333,-3.40162,14.8858,20.8099,-3.27132,14.8806,20.6191,-3.40936
52.7027,0.161052,-15.9618,21.5175,0.895921,-16.3679,21.6949,-0.0789782,-16.3201,23.2226,-1.00265,-15.4467,24.0666,-0.334633
4.63889,0.250624,-14.358,9.69585,3.7589,-13.4368,9.48569,4.37227,-14.7355,9.63006,3.86832,-14.7756,10.6399,4.01846
24.4059,0.544664,1.32813,10.0385,6.20385,1.53528,8.74352,5.85534,2.19364,8.75961,5.90173,3.29075,10.2136,7.15221
3.37349,0.104985,9.25557,8.67467,-5.38963,9.36639,8.33945,-5.35748,8.89195,8.75929,-6.29663,8.8734,8.46125,-6.28797
3.37012,0.0229145,12.2985,12.5492,5.78789,12.4654,11.871,5.6446,11.9316,11.5755,5.84118,12.2605,11.401,5.67052
36.36,0.037087,-12.9735,6.36814,-3.16446,-14.5746,6.69218,-2.55777,-14.5047,5.66753,-2.05177,-7.67958,4.30941,-4.84679
19.6361,0.588431,0.371031,1.10038,2.38875,1.46223,1.91984,3.81227,0.979967,2.31343,3.6461,1.74947,0.732633,2.58504
0.0386406,0.0164898,15.0093,13.9358,4.35407,15.0102,14.0214,4.34633,14.8824,14.038,4.43745,14.8757,13.9983,4.43602
11.8404,1.58154,2.55077,12.1327,-7.12656,2.68738,13.7257,-7.41434,1.95079,13.8129,-7.59129,3.39294,13.6342,-7.09191
0.991809,0.235283,14.7047,23.642,-0.595214,14.7478,24.3236,-0.697971,15.026,23.4323,-0.786582,14.9506,23.5549,-0.786043
13.0296,0.0400735,-15.2667,16.6505,-3.34838,-14.3525,15.717,-3.98717,-16.4034,19.4911,-3.18982,-14.6611,15.4812,-3.62364
9.51622,0.299873,8.17883,14.7205,6.3031,9.54219,15.0248,5.94235,9.43177,14.6673,6.19398,8.44465,14.207,6.36198
0.606867,0.047029,14.4832,14.6571,4.59914,13.9671,14.9305,4.61943,14.1166,14.7985,4.65199,13.9667,14.9646,4.57961
11.5414,0.445872,-11.774,2.86666,-0.28181,-11.2543,2.2304,-0.589803,-12.6425,4.4404,-2.4033,-12.3438,2.36691,-0.0729542
4.57899,1.53828,15.4556,19.4314,2.86168,13.9499,18.9948,3.66524,14.1584,18.6837,4.07724,13.8623,19.1397,3.70323
2.91552,0.00449515,1.89571,19.7444,6.4363,1.99457,20.7819,6.67919,1.73712,20.7622,6.78114,2.02079,19.7891,6.40124
21.2742,0.0916592,5.32137,8.83903,6.12324,10.1836,9.08194,6.09773,2.24726,8.84514,5.89415,10.4711,9.17852,6.06188
45.8305,1.39556,-13.8269,13.2117,4.09341,-10.7823,12.9557,5.87902,-10.2329,13.6169,5.84763,-10.7348,13.9515,5.74641
11.1235,0.476267,-5.82804,27.6027,-1.30487,-6.33384,27.6847,-2.14558,-6.19382,28.1312,-1.09131,-3.34469,28.6617,-1.28523
7.99435,0.239347,-12.8938,23.8439,1.41442,-11.7682,25.0439,1.51277,-11.9414,24.9558,1.1712,-12.1214,24.4253,1.67997
1.02561,0.108039,7.28671,9.74746,6.11026,6.47531,9.81576,6.28894,6.68385,9.86908,6.2809,6.41217,9.77043,6.28735
11.2073,0.484426,2.51673,12.9987,6.93221,2.08382,10.8324,7.26154,1.84642,10.7647,7.26156,2.79739,11.5889,7.3039
9.41905,0.170594,-6.87257,7.91395,5.75576,-5.83271,6.72104,6.24717,-6.45922,8.58443,6.15439,-6.21955,6.69283,6.09442
3.84227,0.54189,-8.05691,24.2391,-5.13542,-5.48759,24.4236,-5.44458,-5.4945,24.3772,-5.43813,-5.95975,24.4499,-5.4984
3.97863,0.0382985,11.7908,19.6537,-5.23847,11.1495,19.6639,-5.61474,13.3792,19.3612,-4.54952,13.5181,19.2193,-4.52317
13.0853,0.11542,10.242,23.74,-4.9742,8.63567,24.2846,-4.84675,8.91018,23.5229,-5.71375,11.8827,23.4917,-4.29736
0.992846,0.0910932,16.0479,8.58209,-2.53232,15.4212,8.59863,-3.18338,15.794,8.70134,-2.91486,15.4344,8.64385,-3.19055
0.409767,0.12736,10.9228,15.1684,-6.16363,10.8847,15.7156,-6.09868,10.9557,15.6214,-6.12043,11.026,15.4287,-6.12304
3.00534,0.288148,-12.4674,7.9778,4.31744,-10.8133,7.91398,5.33407,-10.7594,7.98955,5.36885,-11.2232,7.78353,5.13809
7.76147,0.39249,-10.1801,2.68849,-1.46817,-8.58053,2.33432,-1.87792,-10.3771,2.45513,-2.05367,-10.5747,2.19065,-1.1016
10.6522,0.659197,7.26415,2.23026,-2.62342,7.95842,2.94292,-4.63835,6.9011,1.4981,-2.86003,8.76167,1.45292,-2.17097
25.9503,0.0241077,-0.510054,15.6443,-7.26057,0.946771,12.4053,-6.57465,0.954249,12.4103,-6.58172,1.30122,13.8345,-7.48545
6.774,0.144557,11.1182,7.62975,-5.33524,11.3514,5.9322,-4.51234,11.5233,6.02232,-4.41073,11.2213,6.46757,-4.88354
7.3681,0.343628,5.97386,18.3764,-6.96558,5.13824,18.1935,-7.08586,4.36504,18.3775,-7.46054,4.51371,18.3248,-7.22554
11.3807,0.0747477,-16.9942,10.9165,0.964387,-17.3085,12.4712,0.12204,-17.2429,12.0896,-0.281408,-17.3108,12.4608,0.472489
6.47058,0.141732,-6.04242,13.6531,6.87386,-9.13483,13.5382,6.04634,-5.18713,13.4865,6.92557,-9.20156,13.5805,6.02974
21.5168,0.569681,11.5305,11.5188,-5.20144,13.8333,11.3979,-5.13891,11.2241,12.3481,-5.40624,10.3653,11.5782,-6.41514
3.21093,1.27323,11.0504,18.5127,4.94862,8.9699,18.3645,5.47373,9.0499,18.2485,5.54837,8.97763,18.2802,5.50404
16.416,0.175675,4.12445,21.6837,5.58668,2.89932,21.7035,5.55598,1.3098,21.3233,6.04619,2.85033,20.8348,6.11516
1.82279,0.204792,-11.255,5.03979,3.41075,-10.892,4.84131,3.54817,-10.7552,4.98406,3.56252,-11.5654,5.43851,3.72525
0.728995,0.569285,-13.2502,14.7855,5.24886,-12.8304,14.3886,5.35225,-12.9161,14.3241,5.28029,-12.9976,14.2628,5.22475
23.3126,1.02993,-9.34588,21.4717,-5.65897,-4.29252,21.0724,-7.03055,-4.49455,21.1662,-7.01086,-3.99396,21.5106,-7.01343
13.6978,0.339668,-12.2231,16.5997,4.93911,-9.969,16.5982,5.53461,-14.145,16.8566,3.79615,-14.3325,17.2715,3.9672
6.76381,0.288034,3.70569,19.4837,6.38383,3.69215,18.9496,6.89406,1.80854,19.452,6.97498,1.87231,19.6576,6.44346
3.38775,0.237283,14.3117,23.8286,-0.0844955,14.5813,23.6556,-0.274345,14.5081,23.5517,0.630281,14.5248,24.351,-0.252069
3.22282,0.657868,-1.40698,9.31194,6.85667,-3.36114,9.63795,6.31663,-3.17335,9.56238,6.43428,-3.16702,9.45858,6.38652
1.77637,0.181309,0.479186,17.581,6.65359,1.14551,17.607,6.92784,0.188789,17.7017,6.78761,0.146231,17.2885,6.81306
36.0463,0.452726,3.33712,4.69902,-5.63086,5.60326,6.05856,-6.93189,4.80894,4.64383,-6.35099,2.95018,7.32651,-6.86605
2.87424,0.242715,7.52572,2.66531,3.35386,7.24224,2.31773,3.0077,8.01448,2.5386,3.32541,7.31205,2.39817,3.94458
6.84477,0.532167,-4.91378,12.6036,6.60089,-5.84418,10.1848,6.75163,-5.57465,10.4235,6.82078,-5.84972,10.0987,6.74242
11.2065,0.157983,-7.15388,7.47532,-5.61729,-7.92538,7.58367,-5.10268,-4.80663,7.40619,-5.98572,-7.04165,7.08218,-5.81825
7.35781,0.0658233,9.45387,16.1339,-6.33755,7.57344,16.2247,-6.68307,10.704,15.907,-6.08368,8.80488,15.4998,-6.84472
7.3278,0.361367,-15.4375,21.0985,-2.7799,-16.1853,20.887,-3.04801,-15.3354,20.6654,-3.11417,-15.0577,22.8022,-3.34539
20.9582,0.689887,8.22336,26.5902,1.06616,7.96804,27.3859,1.15136,9.90307,26.8433,1.68293,6.94779,25.9225,3.57859
5.54202,0.0233926,-13.2999,23.0706,2.09762,-13.4556,22.3435,3.25979,-13.443,22.2604,3.40889,-13.0234,22.1377,3.77125
9.81126,0.22005,10.1617,3.11811,3.46143,10.4752,3.24156,2.66201,9.99617,3.57668,4.33438,9.03944,2.83427,3.25649
2.40097,0.0025449,0.78454,5.62342,5.86492,2.08928,5.47456,5.55075,0.339333,5.53361,5.71063,1.33915,5.63531,5.86436
4.76718,0.15026,-2.39201,1.96468,-3.75146,0.49895,1.41479,-3.96297,0.143359,1.57449,-4.06685,-0.410408,1.68076,-4.07074
2.60489,0.311615,-10.37,12.0285,5.51371,-9.40786,11.7936,5.85158,-10.6195,11.7189,5.80132,-10.6623,12.6699,5.84573
8.04866,0.21152,-1.22511,1.40061,2.55367,0.217594,0.71826,1.95889,0.436979,0.861264,2.23531,-1.2622,1.54196,3.22363
7.7316,0.248485,16.2144,15.3647,1.43302,16.6736,15.7648,1.09289,16.8824,14.7326,1.06495,15.6868,15.3408,2.67072
3.6678,0.154864,6.13808,19.478,-7.38379,4.72526,18.88,-7.68615,4.11976,19.2461,-7.4626,4.86536,19.468,-7.43514
4.24624,0.2052,6.94117,0.406565,0.651889,6.08946,0.416661,1.3223,6.29507,0.517558,1.36703,6.90581,0.583565,1.2146
166.8,0.0632015,1.35367,20.8555,-6.77282,6.72965,21.5431,-6.57784,7.61131,20.1069,-6.5205,0.818907,22.8072,-6.76929
3.659,0.38768,-6.27467,17.4341,6.28294,-6.56786,17.8144,6.69997,-6.9202,16.5058,6.36536,-5.26994,17.3585,6.8848
3.08212,0.00322945,-0.000111025,12.0019,7.62363,0.697589,12.0983,7.63828,0.991932,11.7135,7.61042,1.05329,11.2169,7.56997
4.15092,0.141207,-2.18943,23.1931,6.03714,-0.859556,23.6948,5.938,-0.440088,23.6403,5.87889,-1.40693,23.3391,6.04995
13.0569,0.615064,12.6341,13.5049,-5.07019,12.9534,13.9961,-5.68674,15.2351,13.1908,-4.21727,12.5596,12.4574,-5.65623
1.31557,0.323148,4.14658,1.27456,-2.84192,3.95672,1.69959,-3.40966,4.0995,1.53677,-3.334,3.85181,1.59251,-3.35106
0.905694,0.0718802,-6.11003,14.3083,-7.11241,-6.05179,13.9465,-7.04397,-6.11926,13.9903,-7.06093,-5.63501,14.6136,-7.31925
9.09102,0.450706,-5.82079,2.03337,1.88662,-6.11939,2.15458,2.87514,-5.19476,1.75911,1.86205,-5.59556,0.838323,1.45278
0.0807185,0.00159267,11.9218,17.3668,5.59497,11.656,17.4334,5.70456,11.722,17.3835,5.68445,11.7366,17.4729,5.65729
0.963364,0.529787,7.9007,18.2001,5.43693,8.32047,18.5504,5.2376,8.32187,18.6422,5.29011,8.44302,18.455,5.29316
9.07489,0.445968,11.6044,24.4447,-3.08127,11.658,24.4515,-3.62859,13.1283,24.4628,-2.86058,11.2676,26.3766,-2.58171
0.260455,0.0316716,-11.6967,27.0628,0.256285,-11.9116,26.9233,0.223749,-11.997,26.8749,0.142478,-11.9052,26.9508,0.462572
2.87004,0.283843,-0.963528,13.9422,6.80094,-0.233428,13.9356,7.11211,-1.24013,14.1034,7.11873,-1.34813,13.424,6.96648
0.0174118,0.0203278,10.4356,16.1727,6.20149,10.5049,16.2638,6.16775,10.481,16.2848,6.17837,10.5053,16.2236,6.17459
5.64251,0.476732,11.126,19.5682,-5.67248,9.61745,20.3826,-5.83091,9.85312,19.6837,-6.1969,9.88011,20.0076,-5.86857
5.77924,0.0818826,-4.30872,3.70055,-4.72084,-2.02542,3.75751,-5.01638,-4.85526,3.78802,-4.64106,-1.82957,3.74622,-4.9352
0.181806,0.0156187,13.8611,11.257,-5.14745,13.8924,11.1172,-5.1301,13.9639,11.0647,-5.07582,14.1046,11.0874,-4.98257
5.90222,0.594851,-3.67922,3.91931,-5.23385,-6.38097,3.8085,-4.36978,-6.3827,3.70256,-4.28565,-5.55908,3.95937,-4.4946
6.84307,0.0945436,15.6718,21.1997,-0.916601,15.0072,21.2577,-1.65117,16.2304,21.1022,-0.00543871,16.1296,21.1944,-0.145444
0,0.030539,-3.65942,5.22767,5.85894,-3.55194,5.18191,5.87588,-3.64305,5.26139,5.84384,-3.59355,5.18073,5.84751
2.28126,0.133676,-9.12875,18.6011,5.87054,-8.91005,18.4297,5.92192,-9.24058,19.1493,6.0073,-9.30294,18.3445,6.18221
1.54597,0.00729342,0.564383,27.1111,3.36471,0.700884,27.3116,2.8624,0.801048,27.1382,3.5653,0.587707,27.3099,2.71651
0.387582,0.182328,16.2639,9.70214,-2.75447,16.4122,10.0982,-2.755,16.2754,10.0176,-2.86449,16.2894,10.013,-2.82243
2.34125,0.113743,-2.92712,21.4663,-6.68111,-3.12407,20.7896,-7.05008,-3.17745,21.6516,-6.92573,-2.65973,21.5652,-6.64148
2.16008,0.165211,7.08335,25.2658,-5.23342,5.54718,25.5914,-5.10118,5.53848,25.5506,-5.12656,5.77747,25.6568,-5.07744
0.00684605,0.0064142,7.89252,20.7502,5.56155,7.89336,20.7068,5.57238,7.79013,20.6764,5.6218,7.8271,20.7493,5.57771
7.3933,1.52379,-10.1011,11.7525,-5.52204,-7.93295,11.8483,-5.96421,-8.34153,12.4696,-6.08913,-7.92966,11.8978,-5.95154
50.1837,0.0695522,6.64738,24.1368,-5.70419,6.98034,21.5933,-6.46618,4.70782,24.5235,-5.84317,8.57944,22.2604,-6.13247
5.09548,0.389661,16.4492,16.9087,-1.54298,16.851,18.0523,-1.12144,16.8256,16.8323,-1.85006,16.8828,16.1562,-0.713759
12.2581,0.419468,-14.2079,23.8394,-2.4733,-13.9404,25.2768,-2.11433,-13.7586,23.7474,-3.33773,-14.8292,24.0357,-2.57225
13.8245,0.425179,-9.22888,12.9752,5.8323,-9.62144,12.6202,6.15625,-7.23812,12.8552,6.70905,-10.2453,14.3883,6.13766
9.03385,0.4633,8.55656,13.522,-6.41001,7.77876,15.8659,-6.82562,7.41087,15.8132,-6.9915,7.43833,15.8414,-6.98497
3.29588,0.314191,12.3238,7.6187,4.35223,12.0962,6.41161,4.23036,12.3717,7.70564,4.92017,12.8988,7.63553,4.21481
0.0991798,0.0164498,10.474,19.9985,5.50563,10.5358,20.1141,5.45312,10.4709,20.1078,5.44067,10.5958,20.0782,5.4972
8.99236,0.171066,0.18969,3.53679,-5.16763,2.64912,3.77806,-5.25546,2.15116,3.5796,-5.10583,1.78486,3.86506,-5.53755
1.80451,0.26859,-12.6376,12.2478,4.91397,-11.8533,12.119,5.65318,-11.7941,12.3734,5.66726,-11.6011,12.3556,5.77286
9.42467,0.43039,4.64406,2.08811,2.56248,5.18751,0.398763,1.42813,5.64925,2.16498,3.10843,5.11514,0.392896,1.43225
20.3809,0.0777001,-5.50701,21.652,5.27785,-5.78576,20.3466,5.71897,-3.35096,21.3889,6.0079,-3.43201,21.1816,6.08031
8.34451,0.0187836,-1.31347,17.0984,7.07559,-1.7839,14.4595,7.42852,-1.86839,14.4583,7.42642,-2.42608,16.9752,7.04458
7.90032,0.0222536,-11.9605,24.1261,2.99526,-12.3191,24.1347,2.10275,-12.7266,23.7184,1.8466,-12.5836,22.7652,3.69951
8.65117,0.363193,15.7867,11.3415,-3.28183,15.6919,13.7036,-3.49711,16.2314,11.0606,-3.06073,15.6885,13.6994,-3.54293
4.23679,0.818551,12.5411,8.44172,-4.62393,10.4624,8.274,-5.32943,10.3348,8.36904,-5.40441,10.567,8.62639,-5.68424
4.1146,0.186558,8.30715,11.4549,6.53952,8.11204,11.3185,6.75727,9.48072,11.3644,6.46025,7.82067,12.4409,6.97111
14.2016,0.560078,-11.9846,18.9315,-5.23713,-12.6004,18.6321,-5.62901,-10.2891,17.6659,-6.42184,-11.9794,19.8294,-5.80917
4.08355,0.332829,-4.71536,6.75352,5.82188,-4.21443,8.10621,5.87557,-4.31439,7.97621,5.83239,-4.44932,8.02367,5.83219
1.23179,0.0759008,-4.13463,19.3507,7.11587,-4.44443,18.4221,7.17785,-4.42886,19.1964,7.08437,-4.50257,18.5565,7.13356
5.41183,0.505578,5.90258,11.8589,6.42517,5.48085,10.2803,6.71412,5.67078,10.1461,6.67333,5.47619,10.0413,6.67425
0.0272599,0.00667035,-0.0160146,27.0152,-4.81138,-0.148036,27.0737,-4.7932,-0.152533,27.0354,-4.82344,-0.073297,27.1003,-4.75345
1.31829,0.0857817,-9.69663,24.3073,3.99881,-9.94289,24.4448,3.89468,-9.52648,24.462,4.0791,-10.0406,23.9539,4.2116
10.5668,0.292501,5.43903,19.4062,6.34296,6.93645,19.7833,5.88288,7.46658,19.3768,5.70116,3.90395,19.6138,6.33783
7.65187,0.377995,-13.1473,3.35785,0.768783,-13.6178,3.22283,0.821787,-12.395,2.73201,1.79111,-12.9898,2.52532,0.106059
18.3312,0.205479,17.128,11.7075,0.395737,16.201,10.0766,1.68714,16.3795,9.31852,0.926821,16.8316,9.41723,-0.251063
4.22841,0.240412,4.16814,27.0879,-4.77111,5.43733,27.138,-4.42407,6.06157,27.3553,-4.11526,6.12508,27.4,-4.03351
4.13112,0.0859819,-17.2644,12.5636,-0.182745,-17.1337,12.6011,-0.85555,-17.2324,12.9482,-0.641924,-17.1901,11.8585,-0.51073
12.4611,0.516243,12.8966,4.18835,1.32941,14.358,4.33358,0.959995,12.2719,1.92492,0.269306,13.044,3.92347,1.82286
25.2044,0.157757,-3.6228,14.4489,-6.81703,-0.96586,13.4632,-7.26893,-4.8145,14.2616,-6.66259,-4.96084,13.7899,-6.88054
1.95768,0.532104,4.24107,14.0643,6.76663,5.82045,14.3085,6.50432,5.81974,14.2614,6.50094,5.62885,14.1906,6.60342
16.7807,0.294379,-0.2387,18.4288,-6.60093,-1.32068,18.4158,-7.05594,0.948622,18.6924,-6.85633,-2.21697,18.0484,-7.53557
12.3786,0.336045,6.80367,27.2002,-2.74956,9.30865,27.0026,-2.43557,6.96194,27.6731,-2.03615,8.27961,26.9633,-3.76539
3.1381,0.00538687,-17.3147,14.3296,-0.424878,-17.2714,14.4602,-0.921824,-17.3418,13.9676,-0.265211,-17.3481,14.7866,-0.0340373
30.7673,0.575818,-4.50329,25.9899,3.77527,-7.11652,25.363,4.01968,-6.8295,26.3727,3.10568,-6.50155,24.9509,4.26009
13.2817,0.208719,2.64871,5.11409,5.01843,2.26071,5.67442,5.319,4.09639,5.69504,5.75464,4.04596,4.78215,5.46908
3.05474,0.238457,-9.5816,19.7145,5.25832,-9.21227,19.6514,5.40666,-9.77438,20.7729,5.22474,-9.90452,19.6243,5.68628
6.43283,0.104227,5.44859,12.386,-7.17625,5.14333,12.1527,-7.30081,7.01747,12.7909,-7.2356,7.61705,12.7099,-7.23552
50.5424,0.379213,-15.8413,7.97624,2.84249,-16.6209,10.6265,1.81708,-16.7364,10.2771,1.42944,-16.1949,10.945,2.77742
1.24792,0.0760719,-11.7074,25.3881,2.2816,-11.5646,25.3212,2.75662,-11.7984,24.9013,2.6257,-11.6284,25.052,2.83
22.9281,0.457615,15.8131,19.8528,-1.28969,16.2011,20.6845,-1.59586,16.1735,18.8237,-2.5783,16.4202,19.5543,-0.135278
1.06127,0.139847,11.5506,10.1319,-6.03887,11.8312,10.4035,-6.13281,11.8884,10.2627,-6.09327,11.3438,9.99496,-6.2374
13.5406,0.340126,4.07249,24.0678,4.40541,4.66875,22.463,5.90456,5.67118,25.3702,4.27848,3.86216,24.4635,4.52869
5.00616,0.405068,10.9504,2.88371,-2.73914,10.4388,3.62143,-4.34599,10.4735,3.35064,-4.06658,10.6745,3.47813,-4.07378
22.9834,0.155258,-6.50614,5.28015,-4.95786,-6.2586,4.0029,-4.60089,-5.04537,4.23906,-5.23101,-4.73216,5.18798,-5.60132
7.6414,0.0954962,-5.30308,1.25537,-2.51349,-8.23223,2.26545,-2.04353,-7.52582,1.96875,-2.09438,-8.19236,2.14678,-1.80217
1.23432,0.164581,0.449476,21.3136,5.96641,1.08012,21.3174,6.00329,1.2266,21.4155,6.0141,1.30394,21.2741,6.10233
6.28665,0.338309,-7.15832,5.64013,5.13819,-10.2965,5.81039,4.54688,-10.8968,5.75031,4.33149,-9.81009,5.62889,4.64468
0.0143023,0.0366364,0.191655,22.574,6.4689,0.122375,22.5385,6.44753,0.0509944,22.5761,6.4565,0.0544036,22.5306,6.46052
4.14182,0.428463,-7.15404,20.2538,-6.31488,-7.55783,19.9831,-6.99646,-7.60222,21.0435,-6.21056,-6.24927,20.4512,-6.82183
8.74089,1.59741,8.46355,1.40096,-1.27716,6.29095,0.998943,-1.25664,6.36782,1.46515,-1.85212,6.50735,1.50569,-1.51254
7.55668,0.1513,7.22982,5.88979,5.55833,8.43383,6.23874,5.53392,8.71587,5.63494,5.55319,6.0284,5.77098,5.28237
4.81808,0.25347,11.313,1.92203,-0.665603,12.5481,2.2582,-0.28847,13.3719,2.67638,-0.155778,12.6213,2.30149,-0.465208
3.77186,0.629815,-9.96607,2.73396,2.54191,-7.43226,2.26038,3.00175,-7.57443,2.15588,2.88544,-7.42134,2.19277,2.9283
4.90203,0.538993,-14.0475,12.7059,-3.2282,-13.2394,12.5933,-4.85877,-14.6409,12.378,-3.47444,-14.4745,13.756,-3.33878
8.36486,0.117441,6.69772,11.9892,-6.99751,6.54177,10.8429,-7.32558,5.27682,11.6454,-6.98924,3.76346,11.8305,-6.8955
2.41926,0.0101725,4.82964,24.1671,-5.99773,2.9559,24.3722,-5.78998,3.69908,24.2123,-6.01955,3.13809,24.2945,-5.91434
4.1348,0.192989,7.43961,9.82689,6.07094,10.2467,10.0555,5.45119,9.90958,9.92603,5.55192,10.2513,10.0012,5.45102
2.75505,0.195023,-6.95837,2.44532,2.92282,-7.05015,2.67013,3.6515,-7.17947,2.63452,3.58627,-6.17122,2.20548,2.95269
5.68732,0.321381,15.3669,16.3522,-3.34572,15.5389,16.7155,-3.73899,15.8615,16.4094,-2.92285,15.5744,15.5631,-3.87242
4.87979,0.17645,-8.13329,24.1464,-5.15062,-9.46257,24.0522,-4.91775,-11.1977,23.757,-4.435,-10.9227,23.7619,-4.53689
10.4509,0.598464,17.0942,13.7272,0.244024,16.3849,13.9651,-1.80729,16.4256,14.008,-1.76712,16.6178,13.7088,-1.40924
16.1767,0.227935,0.563687,27.4015,2.17247,1.5042,28.2792,0.421767,0.119664,26.913,3.8574,0.92929,28.556,0.347843
14.1178,0.0170962,8.07283,4.0774,-4.88439,6.69818,4.08357,-5.05804,6.74032,4.16439,-5.06848,4.65266,3.72422,-5.22107
14.4124,0.23904,13.1952,20.8699,-3.37258,12.9585,23.1261,-3.47061,13.3006,20.7145,-4.2938,13.4705,21.1455,-2.93038
0.863536,0.18938,13.3406,21.8617,3.20094,13.9319,21.8539,3.03974,13.7286,21.9909,3.12137,13.8595,21.8166,3.10577
2.55887,0.099335,3.50092,3.59229,-5.20089,4.62662,3.74564,-5.26089,4.61078,3.70064,-5.20567,4.0458,3.55592,-5.16971
37.0119,0.814333,15.795,18.337,0.290478,15.4528,21.8913,0.628266,15.4849,17.7472,3.47078,16.3362,17.334,1.86042
41.7009,0.76883,-1.79865,22.4818,6.40473,-3.41872,24.0742,5.12648,-4.67914,22.1113,5.99235,-4.45694,22.8445,5.50877
15.4192,0.555973,-2.48081,13.4765,6.74423,-3.31462,10.2058,7.1957,-2.56986,14.2825,7.50877,-1.51608,13.8463,7.01306
0.659268,0.112352,9.83007,1.69549,-1.91403,9.83914,2.4036,-2.11724,9.79333,2.25882,-2.1654,9.86906,2.38634,-2.07991
5.39008,0.00169539,-4.68233,5.07838,-5.56813,-4.17947,5.28348,-5.9015,-3.7657,5.70846,-6.29622,-3.78267,4.70884,-5.82485
0.0125409,0.0455383,12.9241,16.688,5.25577,12.7783,16.7851,5.30861,12.8508,16.6495,5.28223,12.7823,16.6975,5.28533
87.1172,0.418784,-6.58214,25.9477,3.58416,-8.16004,24.2219,4.45325,-9.5818,25.071,3.34735,-9.78158,24.5673,3.82148
24.9252,0.302325,-2.59428,0.920751,-1.22879,-1.54327,1.00978,-2.20639,0.660561,0.786535,-1.77648,-3.06213,1.46059,-3.16975
35.1548,0.429911,2.03051,7.45708,-6.74296,6.96551,7.97666,-6.53196,4.6531,8.93463,-7.36516,6.96751,8.01159,-6.56089
1.35847,0.126052,5.3639,2.12774,3.54665,4.4541,2.07106,3.64688,4.6422,2.0319,3.50608,4.41836,2.04041,3.61898
0.316625,0.0563341,-15.7703,9.54435,-2.73443,-15.9059,9.70807,-2.70511,-15.7623,9.33575,-2.74962,-15.7888,9.35878,-2.71528
22.704,0.0862361,-6.47138,19.4689,-7.35541,-6.52318,18.3661,-7.26767,-9.39431,17.7546,-6.81274,-8.42181,19.2073,-6.95794
0.567386,0.0164967,-2.99184,10.9925,-6.99811,-3.47064,11.1442,-6.89789,-3.61715,11.0548,-6.86734,-3.61641,11.1005,-6.86573
3.38289,0.00983887,-8.02412,19.8291,6.03535,-8.51263,19.6276,5.81907,-9.14167,19.6302,5.46149,-9.28931,19.7653,5.32911
19.2402,0.141167,-14.9242,13.9195,3.47556,-14.5066,14.9153,4.48636,-14.3492,13.556,4.15934,-15.7757,14.8858,3.14185
2.45852,2.29025,-10.5416,26.4353,-2.26697,-8.32017,27.0535,-2.34889,-8.32104,27.1043,-2.26803,-8.31817,27.067,-2.30348
37.0653,0.122601,-7.40125,11.695,-5.76379,-6.52985,11.8643,-6.31797,-9.29544,15.9766,-6.17496,-9.79635,16.0679,-5.98307
1.17281,0.00422455,-3.41699,8.71472,-6.19404,-3.5112,8.93988,-6.28865,-3.51109,8.9683,-6.32636,-3.19639,8.75772,-6.68747
7.00201,0.344618,-13.473,8.65792,-3.87813,-13.7857,8.32952,-4.09275,-12.6698,8.71413,-4.6264,-14.1989,10.0031,-4.01966
2.76224,0.378185,-13.9144,15.6532,-3.94169,-14.1385,16.3085,-3.88632,-13.3307,15.7364,-4.90266,-14.3755,15.3503,-4.30429
0,0.0182358,0.48126,5.78426,-6.68483,0.475275,5.795,-6.66316,0.551706,5.81814,-6.67306,0.614989,5.83057,-6.66207
97.1994,1.73775,3.85369,16.8318,6.81372,6.94676,17.0105,6.78015,7.82125,18.765,5.4236,7.25403,19.0481,5.71215
11.3702,0.304723,4.70529,1.09703,-1.24265,4.44456,0.738348,-1.2203,4.27735,1.28273,-2.83862,6.00151,0.978462,-1.45018
5.5102,0.011901,-7.79929,1.52529,2.23177,-9.83852,2.34953,1.77846,-9.74797,2.49567,1.9231,-9.73342,2.26961,1.77726
13.4959,0.0681485,-9.92934,8.52486,-4.986,-9.19603,7.70075,-4.71395,-10.6719,11.1921,-5.61534,-10.8272,11.1987,-5.61253
10.8049,0.0319898,14.1516,3.89916,-1.40382,12.4639,4.02556,-3.37514,14.0845,3.50117,-1.00364,12.1643,3.65046,-3.18247
8.0832,0.0121617,-5.2797,2.27265,-3.18099,-3.64657,2.17572,-3.53695,-5.44576,1.4972,-2.68501,-2.46608,1.97396,-3.70395
3.35787,0.038751,9.01572,1.03173,-0.539402,9.23238,1.20016,-0.776571,8.65159,0.664561,0.367529,9.96845,1.22505,-0.53673
5.18934,0.267944,-2.03359,15.063,-7.49139,-3.16931,15.1848,-7.58266,-3.22459,15.6744,-7.57951,-2.77059,14.8091,-7.46605
7.08426,0.289088,-10.9729,26.0981,-1.08843,-10.5608,26.3608,-0.898768,-11.5155,26.1598,-2.11503,-11.6397,26.8997,-0.829105
5.42344,0.265397,-15.3261,16.4134,3.19354,-15.327,17.4832,3.24616,-14.6218,16.4215,3.93626,-14.4926,16.5934,3.97223
3.23415,0.0592716,-5.21951,25.8988,-4.5186,-5.86483,25.8187,-4.39219,-6.83339,25.7213,-4.07387,-6.47811,25.9178,-4.0817
4.37062,0.206979,0.704021,12.3653,-6.56238,1.07105,12.0144,-6.47058,1.01325,11.4899,-6.5779,1.37821,11.6026,-6.59809
8.17469,0.0469477,-15.8863,7.37993,2.43777,-15.6141,5.41771,0.458713,-15.9537,6.60539,1.09356,-16.1185,7.2691,1.51563
9.08132,0.439493,15.0904,22.3105,0.445851,15.9651,21.8939,-0.026239,14.8461,22.0534,1.99265,15.2944,21.9084,1.22432
49.5437,0.739402,6.47327,21.7318,5.27308,8.63125,24.0678,3.24519,8.46111,24.1399,3.20705,8.90893,21.3884,4.63069
11.737,0.0126885,-2.16894,1.25436,-2.79045,-0.854844,1.25743,-3.55973,0.81403,0.894386,-3.11668,-1.60899,1.01397,-2.25214
7.74192,0.433679,-14.8785,19.225,2.334,-15.745,19.7616,2.16739,-14.9217,20.1857,2.86068,-14.9744,18.424,2.82446
14.9407,1.70691,10.0446,13.9374,5.3987,9.79274,10.7658,6.29727,10.0264,10.9396,6.27451,9.7299,10.7691,6.32065
26.5091,0.536856,-5.59519,4.86608,4.12378,-6.42594,2.5049,3.63119,-5.15218,5.60992,5.26282,-4.27616,4.87184,5.65159
17.4346,0.669382,10.2125,15.259,5.08559,12.6311,15.1563,4.65038,11.6836,14.9847,5.04058,10.0089,13.9603,5.40325
0.557963,0.420571,-12.8385,3.34779,2.20215,-13.2584,3.29919,2.15309,-13.2641,3.40517,2.21321,-13.2664,3.46651,2.27762
12.5656,0.347928,7.9322,4.94508,-5.12307,7.72096,4.98269,-5.72694,10.1297,4.82584,-5.0251,7.54612,4.3356,-5.06986
1.22768,0.110254,12.6125,8.49943,-4.60143,13.6714,8.61367,-4.17515,13.6667,8.57366,-4.15098,13.4112,8.48945,-4.25165
1.40757,0.0934566,7.56637,14.3951,6.24583,7.23498,14.4998,6.18524,7.84203,14.8254,6.376,7.9151,14.834,6.40546
10.65,1.00067,6.80239,1.49289,-1.65741,5.93218,1.84366,-3.6327,5.87743,2.12739,-4.0267,6.22893,1.82639,-3.73374
0.996123,0.00527085,-17.2015,18.8074,-0.829279,-17.1712,18.929,-1.24153,-17.0753,19.5747,-1.54581,-17.1168,19.3702,-1.22401
0.87496,0.0164736,-17.2381,16.5576,-1.66671,-17.1321,16.3692,-2.04202,-17.3063,16.1882,-1.56811,-17.1326,16.3203,-2.04673
7.65509,0.637524,-9.8859,21.0133,-5.45328,-10.2954,21.773,-6.14086,-8.16237,21.0873,-6.00848,-10.1704,20.2286,-6.07705
21.4638,0.54841,-8.47572,21.2523,5.15733,-11.6997,21.0137,4.08217,-7.98416,22.496,5.44242,-10.5834,21.0976,4.70091
5.68814,0.384869,16.6726,15.3823,-0.767378,17.2236,14.1611,0.248461,17.2371,15.1897,-1.25604,16.8489,16.0439,-0.566551
11.4755,0.522464,-8.69177,8.55792,-4.91134,-7.60784,8.44995,-5.85831,-9.11873,8.18516,-5.21963,-9.72904,11.1966,-5.90694
7.38199,0.23084,-9.83182,7.44499,5.02438,-7.47832,7.2589,5.9971,-10.0794,7.93754,5.31316,-8.67173,6.98848,5.54113
18.6882,0.0652208,-12.5313,23.3308,-4.19634,-13.5985,22.8893,-4.05956,-13.7656,23.5873,-3.51808,-14.697,22.8526,-3.55602
3.57995,0.180652,13.8607,5.3312,2.35642,13.863,5.10872,2.75378,13.5692,4.19276,1.70859,14.2054,5.51734,2.21493
32.839,0.159206,-16.8861,9.98601,0.430874,-16.1511,7.95287,2.02992,-16.1932,8.10523,1.91438,-16.341,7.82462,0.869193
3.77641,0.249544,-14.6069,11.5234,-3.26235,-14.2582,11.5358,-3.74188,-14.9394,11.827,-3.21258,-15.1728,11.3595,-3.48221
10.0428,0.31481,-10.2045,16.4397,-5.80666,-10.5469,16.2481,-6.00243,-7.84983,16.1627,-6.74852,-10.0054,17.5593,-6.43918
3.39827,0.415812,-12.2168,21.1033,3.37781,-11.5976,21.2554,4.17782,-12.601,20.4341,3.42117,-12.9038,21.8267,3.88244
2.98929,0.171421,-4.90749,24.9308,4.48564,-5.91839,24.6713,4.42385,-5.73373,24.5474,4.47328,-4.25663,25.6229,3.99853
24.7891,0.526473,8.38196,19.0018,5.24119,7.38688,19.1173,5.64057,10.0886,21.8618,3.97645,10.3802,21.8349,4.05295
39.0086,0.442612,8.05505,3.71704,4.59568,11.2199,5.71839,4.75076,10.1803,3.96434,4.62583,7.3934,4.48525,5.3677
4.16482,0.438899,-5.35629,20.6049,-6.92182,-3.73219,20.9501,-6.97821,-3.60999,20.57,-6.95701,-3.05703,20.6079,-7.12147
10.165,0.532941,1.76836,27.4723,0.967643,1.37701,28.0544,0.740774,1.20692,27.2174,3.32654,2.99025,28.1759,1.04406
15.3968,0.324692,-14.834,7.45398,3.0338,-15.3028,8.43027,3.43474,-12.847,7.05064,4.45328,-12.8457,6.86309,4.39925
0.599571,0.037411,-3.8147,24.5977,4.75708,-3.52004,24.408,4.95362,-3.53029,24.6925,4.73006,-3.72457,24.4112,4.95116
4.54029,0.132484,9.48448,3.97492,-4.59424,8.476,3.76294,-4.70637,8.20831,4.15921,-4.8963,8.40205,3.83015,-4.74029
8.38957,0.428996,16.5973,13.2491,0.403105,16.6834,14.5047,1.3827,17.1525,13.2714,0.150167,16.8198,12.461,1.02509
11.7755,0.2826,-4.18168,5.59292,5.68174,-5.303,5.89065,5.27662,-2.04227,5.50727,5.76838,-4.8603,6.64554,5.82304
55.2574,0.147096,4.90166,15.9706,-7.15573,2.24293,17.8883,-7.60426,4.40568,18.0096,-7.60619,2.41576,16.2643,-7.36551
0.0649476,0.0343931,13.7174,20.3414,4.03782,13.5381,20.1838,4.17713,13.5319,20.4016,4.12862,13.6004,20.3428,4.08735
2.7308,0.0663972,15.8017,16.4737,1.67584,16.2305,16.4399,1.06277,16.0131,16.3727,1.41952,16.2266,16.9357,1.19603
1.01696,0.0142195,-1.18165,2.91844,5.22572,-0.140499,2.88272,5.1535,-0.0802587,2.77642,5.08361,-0.918765,2.77753,5.1381
2.01236,0.188803,-8.05556,7.44356,-5.06997,-8.49469,7.18603,-5.42059,-8.5794,8.13729,-5.23644,-8.50713,8.13087,-5.22168
2.25537,0.124526,-15.5176,18.9686,-3.78657,-15.4867,19.4382,-3.87074,-14.8958,18.3291,-3.77039,-15.0663,18.3343,-3.64678
10.6311,0.715338,-12.9796,24.3153,1.25344,-14.4571,24.0129,0.679106,-13.879,24.8331,0.786171,-15.2586,23.3546,0.649746
0.20903,0.0374686,6.38404,21.9888,-6.7158,6.25891,22.2602,-6.6341,6.45015,22.2876,-6.63638,6.34291,22.4176,-6.61384
1.37386,0.0822045,10.6103,21.7478,4.10321,10.3592,21.7539,4.05312,11.6183,21.7494,3.8285,11.6063,21.839,3.78759
58.9908,0.393832,9.75626,24.9057,3.43082,13.3768,23.9138,2.57414,13.4682,22.4147,3.35804,14.1602,24.1718,2.0192
20.135,0.0228565,3.6297,25.9491,-4.9855,4.1011,27.0501,-4.80283,1.75538,26.3824,-4.90961,5.71186,25.6673,-5.08084
4.09349,0.167305,-12.3398,3.68408,2.78245,-13.0502,2.85444,1.67107,-11.5841,3.20523,2.7549,-12.6207,3.33735,2.20145
9.70279,0.0184559,-9.39873,16.216,5.2967,-7.09844,16.9041,6.46302,-7.87431,16.5089,5.9722,-9.80184,16.8028,5.45651
48.6348,0.617612,-12.7357,6.30091,3.66283,-13.1636,3.68808,2.48297,-10.8903,5.85703,4.39456,-13.3959,4.12803,2.29242
10.8157,0.634299,4.65499,5.31043,4.72777,6.81041,6.35902,5.93902,4.86072,4.185,4.91728,4.23573,5.51184,5.50837
11.3747,0.249254,6.63635,24.8114,3.64134,7.19707,23.581,4.75409,7.84956,25.3644,3.62833,7.77925,25.3029,3.66524
43.4254,0.53511,-1.66489,1.03498,1.16595,-1.96846,1.825,3.19964,-2.58777,1.07103,2.04988,2.3475,0.307611,1.51448
1.36201,0.063713,7.63664,0.639763,-0.758839,7.35589,0.437967,-0.329115,7.59487,0.347787,-0.0734791,7.51713,0.335368,-0.0299613
3.00499,0.0406188,6.38905,9.73355,6.29959,4.05841,9.66853,6.62877,5.44888,9.80812,6.50332,3.76449,9.56006,6.57183
8.7184,0.182645,-14.9979,11.8621,-3.20686,-16.2142,15.722,-3.30599,-16.1394,15.7226,-3.36148,-15.7997,14.0843,-3.28644
0.182018,0.106891,-0.021068,22.1646,-7.08785,0.308658,22.2233,-7.06678,0.240646,22.3123,-7.06583,0.300706,22.2666,-7.05702
0.00582115,0.0828252,-14.5191,11.4471,4.20102,-14.4641,11.6052,4.12985,-14.477,11.4754,4.2744,-14.535,11.5463,4.2609
6.23565,0.943549,8.50502,6.23772,5.52193,10.758,6.48594,5.11083,10.913,6.34366,5.22443,11.1352,6.78593,5.11186
13.4246,0.285204,-13.1416,5.26861,-2.28929,-13.6475,6.15296,-2.79052,-14.2979,4.98508,-1.78891,-12.5734,4.97048,-2.85854
18.3199,0.768422,2.76388,24.9168,4.59586,3.2239,24.1199,5.44575,2.40149,23.6783,5.45939,1.17453,24.0186,5.39725
10.9793,0.443686,-15.1801,11.0258,3.15109,-15.7046,12.2112,3.50918,-15.56,10.7643,3.39019,-13.3901,10.8504,4.93613
7.76271,0.765896,8.38023,8.71603,-6.87325,6.52573,9.35584,-7.25422,6.07926,9.00297,-6.80961,5.9434,8.96758,-6.80653
1.68063,0.0266388,4.89526,27.0887,3.0052,4.47143,26.8318,3.41593,4.76758,27.2341,2.90718,5.13164,26.8125,3.30954
26.487,0.047067,-4.00762,16.224,-6.87099,-1.97418,16.7199,-7.28395,-1.30932,17.584,-7.0892,0.0979014,17.9149,-7.34361
14.3264,0.429028,16.1578,12.1653,1.53315,16.8235,12.2205,1.07701,16.3278,11.3023,1.88329,16.3993,13.6218,2.7442
1.97464,0.120344,-5.37424,23.9181,4.75409,-5.66278,23.8603,4.7391,-5.04228,23.7417,5.1994,-5.44388,24.4434,4.64469
8.22961,0.041478,-6.67137,16.129,-6.93294,-8.31876,15.2831,-6.84792,-7.58309,16.1453,-6.71176,-5.40056,16.3101,-7.07042
6.44457,0.0478626,13.6397,4.87863,-2.46101,15.0182,4.71709,-1.00615,14.3024,4.74053,-1.72725,14.9281,4.87065,-1.30338
6.76888,1.33957,-8.19704,27.729,-1.2064,-9.52819,26.9578,-1.40201,-9.84567,26.8638,-0.94732,-9.75154,26.8225,-1.04984
7.51063,0.526376,1.12117,7.31718,-6.47177,1.89417,7.35859,-6.71586,0.538844,8.83506,-7.28764,1.1463,6.56424,-7.03405
3.46362,0.570893,-12.9461,15.6347,4.75467,-11.5113,15.5884,5.83488,-11.2918,15.7743,5.92778,-11.3867,15.7089,5.86534
25.5141,0.0410571,-5.05006,27.293,2.54835,-4.82502,28.2675,0.697612,-3.7482,27.8262,2.51089,-4.15996,28.2002,1.36851
61.7094,0.333975,2.07172,26.1356,4.00174,0.421337,24.402,5.11312,-1.52933,25.2113,4.14989,-1.99672,25.0037,4.31717
0,0.0150166,3.97737,21.9025,-6.69486,3.9949,21.9077,-6.70121,3.92114,21.9668,-6.75674,3.99264,21.9448,-6.70503
29.6647,0.877338,-4.49576,15.9224,-6.50973,-3.34673,15.9723,-7.35597,-6.66971,18.0956,-7.2403,-5.86735,18.5513,-7.17504
2.22747,0.0901552,-1.24246,28.373,1.33969,-0.896754,28.4477,1.4899,-1.27881,28.2878,1.79289,-1.4737,28.5497,1.07661
1.53518,0.00683934,-4.87522,22.2201,-7.00115,-5.6479,21.8046,-6.86322,-6.13331,21.7204,-6.72075,-4.79051,22.4178,-6.9806
2.89046,0.0772721,6.04584,25.9543,3.77986,4.41884,25.9705,4.1678,5.45699,25.7808,4.08135,4.35189,26.0751,4.12013
12.6018,0.0651024,7.22359,2.09245,2.71102,6.369,0.619708,1.52163,7.59764,2.53645,3.15542,6.98025,0.690856,1.37025
18.1346,1.60535,-1.58933,3.97273,-4.83773,-2.61702,6.91988,-6.6819,-2.47912,6.72218,-6.67249,-1.49377,5.7473,-6.65115
5.38729,0.280828,11.6719,21.7845,3.77649,13.293,21.871,3.22069,13.4508,21.7371,3.26558,13.9408,21.6346,3.25422
0.155514,0.0215863,-15.6145,22.7579,0.892949,-15.4252,22.8335,0.952919,-15.5369,22.9298,0.842643,-15.4353,22.7943,0.973899
1.55446,0.137876,-0.181152,13.1126,-7.36103,-0.689319,13.2237,-7.33154,-0.894742,13.5166,-7.28138,-0.94534,13.4947,-7.26094
79.146,0.856973,-10.5754,26.3562,1.80623,-12.1508,24.9567,1.06709,-6.42675,27.5723,1.05952,-6.96438,27.618,0.428733
14.4641,1.11063,-2.28717,20.4521,-6.77752,-0.575537,19.4599,-7.71392,-0.501259,19.0941,-7.75661,-0.957719,20.7067,-7.22676
5.2965,0.561618,-6.50933,3.83781,-4.44526,-8.76577,3.91371,-3.91844,-8.13277,4.0756,-4.10303,-8.33929,4.01603,-4.02454
4.50275,0.119631,-5.12307,1.72635,1.86724,-2.89888,0.898827,2.23517,-3.04301,0.883553,2.13503,-3.34181,0.805241,1.88362
3.58489,0.357754,-13.3193,8.32823,3.86472,-13.5752,7.87142,4.13371,-12.5529,8.05788,4.24358,-13.6683,9.13644,4.33337
2.41509,0.119193,4.15129,9.9097,-7.03044,3.96679,9.09492,-7.36215,4.33853,9.96106,-7.00859,3.91691,10.0214,-7.4558
131.064,0.835141,3.79015,13.9313,6.72396,0.803027,13.1668,7.13762,2.95857,10.4444,7.16437,-0.845236,13.5564,6.97033
15.432,0.652714,-14.231,25.3752,-1.62753,-10.9624,26.2947,-2.85223,-11.6528,26.1625,-2.06696,-11.5321,25.879,-2.86806
19.2186,0.786162,-11.8946,24.1545,-3.24738,-12.4146,23.3637,-4.18561,-12.169,25.317,-3.66362,-8.81945,25.3675,-4.69241
0.00761985,0.0159897,1.81037,20.0457,-7.54621,1.85459,20.0299,-7.61648,1.79558,20.1038,-7.4917,1.86052,20.06,-7.58124
5.96865,0.410308,3.08272,26.0921,3.59111,3.76376,26.3263,3.93421,2.55432,26.4453,3.8875,2.60068,24.9726,4.52376
6.81368,0.368419,-6.62793,12.7472,6.25327,-6.9773,12.8022,6.53706,-5.95843,11.0109,6.82864,-5.91452,13.4071,6.83756
1.66768,0.0554169,11.8071,26.8079,-1.62019,13.3235,25.702,-1.79626,13.0187,26.0017,-1.65307,12.9979,25.908,-1.84082
1.56662,0.0931159,1.00462,27.3453,-4.43967,1.13648,27.7476,-4.01893,0.729485,27.3178,-4.68048,0.648046,27.7296,-4.11885
3.76616,0.127892,10.0756,7.34869,5.55385,9.08243,6.74479,5.63802,10.7022,8.25628,5.95161,10.1282,6.80842,5.45777
5.8064,0.192971,8.87609,24.3525,3.06684,10.2758,24.2777,3.53091,8.46496,24.2589,3.15916,8.55741,24.7874,3.36596
3.01712,0.0466998,-2.60642,0.167207,-0.100617,-2.86157,0.19061,0.386013,-2.0791,0.230498,-0.733187,-1.32137,0.176876,-0.757302
1.69371,1.67138,11.9379,10.3126,4.89926,10.3199,10.0011,5.43668,10.308,10.0991,5.45452,10.3133,10.0496,5.43182
7.4882,0.157382,3.02216,3.50176,-4.96805,3.82607,3.4054,-5.12178,2.53646,4.15597,-5.78426,2.45115,4.40375,-6.0149
32.3843,0.340151,16.4446,12.6246,-3.03401,16.7321,11.0173,-1.93758,16.987,10.8708,-0.515221,17.0943,12.4342,-1.35426
4.03171,0.0463075,-15.3387,15.317,-3.7164,-14.6354,13.7143,-3.33283,-14.3478,13.711,-3.38785,-15.1222,14.6724,-3.57904
6.00859,0.167597,-7.78971,21.5526,-6.22015,-8.32299,23.2055,-6.13014,-8.24016,22.8567,-6.18642,-8.15541,23.4104,-6.08722
0.696388,0.036448,14.0468,8.89483,4,14.3115,8.77317,3.81697,13.922,8.6001,4.09608,14.1234,9.10042,4.02089
4.31142,0.319812,6.50846,14.9166,5.90128,6.34403,15.3556,6.89315,6.2796,14.5029,5.91711,7.71208,14.9181,6.3713
4.44407,0.00905005,-9.48736,8.55522,5.30129,-8.93216,8.26659,5.54011,-9.42534,9.45765,5.48977,-8.14915,8.06981,5.8969
1.90541,0.156503,5.64294,8.9057,-6.80262,5.9282,8.99596,-6.81808,5.20241,8.28456,-7.13936,5.41878,9.04586,-7.22105
14.4702,0.0781807,-7.13059,9.90119,-6.51513,-7.91943,9.57678,-6.26007,-8.08863,11.1584,-6.32672,-8.56514,10.843,-6.21333
3.38704,0.235484,9.16985,11.4097,-5.96555,9.04471,11.1129,-6.49133,8.80935,11.6262,-6.02765,10.1887,11.509,-6.38527
27.3859,1.87297,-15.5148,20.7938,1.64586,-13.6383,22.8014,2.36802,-14.4207,22.3646,2.75264,-12.8723,23.7885,1.5106
9.13366,0.243126,-1.35316,3.51038,-4.68926,-1.71899,3.23318,-4.96697,0.118941,3.537,-5.16952,-1.3861,3.93464,-4.81814
22.4107,0.0550169,-16.8964,11.0523,1.29218,-16.3151,11.6082,2.6337,-16.5246,12.2859,2.33053,-16.1227,11.3176,2.96389
64.2577,2.45453,6.30212,14.2638,5.8996,9.4017,13.2295,6.48936,8.349,12.6425,6.81272,6.40819,10.7043,6.83387
0.703032,0.0136666,-10.1381,26.5841,-0.89437,-9.91801,26.7016,-1.23737,-9.86135,26.7614,-1.01151,-10.5619,26.3297,-0.938364
9.47406,0.222541,4.18284,11.7739,6.76459,5.15835,10.7005,6.98252,5.15654,10.7478,6.98026,5.5778,13.2893,6.82741
5.36039,0.104099,14.8941,21.0807,-1.91359,15.1311,20.7444,-2.28346,15.7056,20.211,-2.82548,15.3069,21.8407,-2.37279
4.18646,0.304361,2.14955,1.18234,-1.28392,1.78564,1.39014,-1.97619,2.62853,0.996388,-1.36101,1.74666,0.560634,-1.36525
1.89591,0.0158001,-10.4747,22.2587,-6.02877,-11.2328,22.4465,-5.73799,-11.3764,22.2294,-5.78313,-10.3538,22.8324,-5.84809
41.5047,0.0881356,0.230133,7.45963,-6.50809,-3.79768,7.93349,-6.16169,-0.526486,6.55526,-6.70304,-3.78786,7.00681,-6.47498
11.3613,0.359148,16.2944,16.8399,0.242832,16.182,16.599,1.03335,16.9029,16.2691,-0.150071,16.8887,17.3833,0.100355
26.3129,1.09917,-4.11918,8.45064,-5.77099,-2.69655,8.16585,-6.93091,-4.3462,11.7058,-6.66015,-4.9264,11.302,-6.6694
2.75633,0.20502,3.43394,0.819864,-1.73574,2.62069,1.0913,-1.50734,4.15116,0.847197,-1.64431,2.69453,0.983568,-1.39732
5.40854,0.517401,-14.0151,12.3897,3.80417,-14.4581,13.3224,4.15717,-12.7219,12.2024,4.85086,-14.393,11.9473,4.23088
8.39107,0.500397,0.209118,18.9384,-7.0607,4.06105,19.337,-7.43933,4.07506,19.4962,-7.50397,2.7202,19.5025,-7.62246
7.87278,0.648015,-4.41077,13.8524,6.44829,-3.24281,13.869,7.26528,-4.97162,12.6106,6.59494,-4.71248,14.5124,7.38934
0.122171,0.034681,6.79876,11.0093,6.9299,7.07737,10.923,6.92666,7.13745,10.6751,6.86215,7.06665,10.6745,6.86656
14.5804,0.23195,-10.7239,16.0778,-5.98976,-10.3121,14.986,-6.1155,-11.3491,13.8927,-5.96756,-13.4828,16.0583,-4.74184
11.135,0.854671,8.88986,21.0125,-5.76606,8.60738,20.2606,-6.32839,13.333,20.3282,-4.59922,13.0361,20.36,-4.75895
7.34902,0.255584,-5.74589,27.1391,-2.43997,-6.04955,27.6043,-2.17424,-5.91434,27.12,-2.82768,-3.7332,27.9828,-2.46057
67.9499,3.25398,11.0574,24.3271,-4.47263,7.28652,25.4452,-4.7088,7.70628,24.071,-5.57398,6.86165,26.8041,-4.42576
6.02307,0.4778,5.94511,27.6466,-0.903622,5.60242,28.2738,-1.06582,6.28957,28.1282,0.140993,7.14192,27.6127,-1.8912
0.562278,0.0299513,-17.0459,12.3361,1.32772,-16.9444,11.9965,1.56574,-16.9947,12.2906,1.53756,-16.9301,12.0054,1.60773
2.10632,0.280042,-14.9925,12.5165,3.55103,-15.3526,12.3691,3.73259,-14.5034,12.3807,3.97754,-15.4045,13.2634,3.75692
8.42872,0.00198384,-11.2406,2.10902,-0.412247,-12.0546,1.98453,0.20848,-10.3765,1.30041,0.0598572,-10.3863,1.3969,-0.0497988
1.40232,0.0899943,-5.98494,3.1447,4.15701,-4.96093,2.99004,4.59532,-4.83263,2.89071,4.60607,-5.04446,2.83769,4.50338
4.66136,0.242774,-0.389635,11.2197,-7.1363,-1.53021,11.2403,-7.32572,-1.58946,10.8467,-7.10937,0.273849,10.9734,-7.33744
3.99728,0.460629,11.0443,21.5949,-5.06298,12.983,21.3927,-4.45889,12.7022,21.3817,-4.66102,12.3983,21.5421,-4.77684
5.50218,0.375645,6.3848,4.26271,-5.91547,6.82796,5.55959,-5.78233,6.48501,5.57487,-5.71211,6.94439,5.26506,-5.94862
2.96969,0.135526,3.42881,13.6977,-7.12653,4.37926,13.8511,-7.45888,4.58215,13.9169,-7.57222,4.62222,13.6326,-7.50984
8.79569,0.569608,0.23257,4.65961,-5.59251,-0.523054,6.46585,-6.70766,-0.597535,6.37701,-6.69071,1.25898,4.58323,-6.08104
61.227,0.643109,0.119913,28.6698,-1.03257,1.76275,27.5823,-4.52637,1.21515,27.3918,-4.55614,-1.38679,28.1074,-2.34153
32.7916,0.231127,-8.37123,23.1413,4.66641,-11.0779,23.4338,4.05084,-11.428,22.7318,4.35463,-10.0209,22.1406,5.0649
5.78594,0.111046,-4.31431,17.0353,6.91486,-2.47713,16.9238,7.07289,-2.47724,16.9682,7.04217,-5.70964,16.9839,6.65034
30.082,0.388503,11.8438,5.98787,4.11715,15.0786,7.18475,2.49009,11.1474,6.42118,5.1564,12.2432,4.78593,4.12978
5.14909,0.209225,-1.31769,8.18702,6.66819,-1.50382,8.56341,6.87323,0.331376,7.97777,6.85187,-0.35707,7.78167,6.86831
0.674741,0.729355,-6.1526,20.5698,-6.84298,-5.42613,20.5579,-6.90991,-5.42478,20.6096,-6.91916,-5.42942,20.5122,-6.92935
8.56153,0.133701,11.922,15.86,-5.76279,14.2402,15.5151,-4.73547,10.692,15.9934,-6.06584,14.4524,15.4473,-4.64301
10.7364,0.350242,-10.6049,13.2343,-5.34785,-10.0871,12.45,-5.96278,-10.9617,13.0368,-5.54831,-9.54149,15.4682,-6.40934
5.35249,0.0292882,4.18483,21.6275,5.57605,5.32344,21.3521,5.5842,5.92163,21.7133,5.41147,3.63102,21.4662,5.63836
4.67644,0.493075,1.78824,1.39832,-2.02225,0.968309,2.01318,-4.42785,1.14723,1.95985,-4.35765,0.927608,2.11099,-4.63952
3.29775,0.272282,7.24808,2.47649,-4.46877,5.83509,2.49389,-4.21128,5.79525,2.53245,-4.27244,6.04559,2.53935,-4.46835
23.6748,2.07374,6.97042,5.35941,5.68127,5.2329,3.25749,5.13437,5.16545,3.34986,5.12918,4.941,3.88302,5.00045
4.27052,0.0300048,-13.0868,14.2001,-5.33108,-12.6686,14.4559,-5.54035,-11.5532,13.9396,-5.90155,-11.5628,13.7518,-5.88056
1.41136,0.105805,-13.1654,18.8915,-5.31825,-13.5045,19.2082,-5.11378,-13.2131,19.315,-5.32909,-13.2007,18.6509,-5.478
33.1378,0.768373,-5.58347,2.37178,2.92217,-2.21588,1.8062,3.51448,-3.1759,1.27934,2.89474,-4.64047,2.53955,4.29693
2.62229,0.129343,8.93237,27.5526,-0.204011,9.22361,27.5364,-0.123994,8.67181,27.4082,0.934336,8.69977,27.7978,-0.16243
1.48183,0.210587,-6.0551,21.89,5.72353,-6.62348,22.2799,5.63382,-6.62828,22.3689,5.62181,-6.69803,22.0587,5.69332
6.7433,0.175931,-12.7472,25.3713,1.00768,-13.5735,25.981,0.65654,-14.3294,25.1103,0.426296,-14.3291,25.4429,0.362311
1.97871,0.140452,13.7267,8.53503,-4.11284,15.399,8.59725,-3.20156,15.3705,8.6692,-3.25326,14.9752,8.66573,-3.51651
2.73924,0.477564,-5.88966,19.8137,-7.37254,-5.69295,18.8279,-7.14403,-5.43073,18.7614,-7.18648,-5.71088,18.7066,-7.17262
0.00617404,0.0146286,-12.9363,10.0987,-4.86738,-12.8707,10.0578,-4.86928,-12.8767,10.0907,-4.87477,-12.9208,10.0757,-4.85205
9.57055,0.84805,-6.40363,18.4703,6.64445,-5.78712,20.3059,5.73917,-5.96083,20.1818,5.72571,-6.46672,20.4612,5.64235
9.68735,0.235283,2.5714,28.0071,-2.831,1.17955,28.0739,-2.38773,1.37198,28.6947,-1.51934,1.02008,28.52,-1.5931
1.08153,0.443438,16.5144,15.8646,-2.68377,16.7534,15.1304,-2.52861,16.8761,15.0402,-2.44298,16.6942,15.1659,-2.76443
8.54668,0.43253,-1.73761,25.3621,-5.58289,-5.35692,24.1778,-5.36901,-5.19618,24.0849,-5.35413,-4.20034,24.6164,-5.30081
5.12414,0.353275,12.0657,23.2276,-3.71398,12.9885,23.1473,-3.43402,12.0476,23.3528,-4.21904,11.797,24.2836,-3.63704
0.737665,0.0753089,-7.61778,3.51742,4.13705,-7.51738,3.13169,4.01415,-7.35217,3.46126,4.15778,-7.76169,3.46423,4.21466
4.7532,0.354725,2.9373,17.6066,6.76004,1.10707,17.2778,6.93789,1.9446,17.2758,6.93521,1.23865,17.2738,6.91263
7.96993,0.270295,7.54782,27.6399,0.116411,8.38293,27.6724,0.339569,7.33013,27.2816,1.70414,7.4016,27.9786,0.0974322
3.41559,0.0275562,2.70776,2.02653,3.75234,4.45594,2.08351,3.68814,4.38144,2.08392,3.73263,4.03812,2.08743,3.97906
11.5542,0.245677,-7.95693,1.39664,-0.727262,-8.46237,2.19049,-1.68773,-6.8965,1.31377,-1.30341,-8.48103,1.23112,-0.764101
5.98307,0.195035,10.1374,21.7571,-5.21349,8.66986,21.9321,-6.11955,10.9969,21.6475,-5.05833,11.2767,21.7656,-5.02231
10.978,0.628511,-14.12,16.7155,-3.41605,-14.6594,16.2905,-3.66897,-13.5022,16.5469,-5.07278,-15.0672,18.2914,-3.63442
9.27662,0.103319,-5.4829,26.9351,-4.17643,-4.55026,27.5253,-3.22866,-3.85347,27.5286,-3.66163,-4.26653,27.1227,-4.2821
0.933509,0.0138974,12.4036,9.217,5.35933,11.9382,9.25913,5.57467,12.0005,9.06649,5.53686,12.188,9.51856,5.46123
6.2592,0.678148,5.7768,2.07409,2.94104,6.56674,1.69015,3.13844,6.87575,2.15347,3.62684,6.60839,2.2194,3.90619
4.53663,0.00774902,3.62369,15.703,6.81102,5.39877,15.3911,6.94071,5.87737,15.4046,6.977,6.24399,15.5127,7.00823
5.98487,0.128839,-8.47661,23.4716,4.41499,-7.0964,24.0157,4.57048,-7.88958,23.6555,4.41662,-7.20367,23.1532,5.0188
53.4467,1.75228,-4.62137,23.2524,5.26314,-7.16706,22.8668,5.13816,-7.41236,22.5064,5.48148,-6.96435,24.1346,4.47361
9.28105,0.445171,-8.80154,3.00249,-3.28871,-8.06429,2.29574,-3.13544,-8.15852,3.03003,-3.76606,-8.43504,2.35942,-2.06045
0.894713,0.0689511,-6.4667,23.3994,-6.49567,-5.75468,23.5828,-6.45019,-5.66632,23.6773,-6.38908,-5.67333,23.7166,-6.36435
30.9495,0.373813,-1.57846,27.5421,-2.63451,-0.839619,27.6177,-3.74473,-2.20192,28.2806,-1.34016,0.288587,27.8073,-2.82759
0.363521,0.0359387,-4.08411,24.1218,-6.05725,-4.28921,23.9276,-6.22491,-4.22112,23.9164,-6.27034,-4.42569,23.8768,-6.25463
2.7383,0.00410591,12.3303,18.7696,4.4153,11.1282,18.4803,4.98057,11.9725,18.5926,4.65454,11.1405,18.5914,4.89478
20.5923,0.358018,3.41486,27.5535,-2.66793,6.46353,27.589,-2.73291,3.21251,27.6844,-4.15884,2.77895,27.9616,-2.80541
10.295,0.451885,-7.52637,1.41866,0.997974,-5.42216,0.644488,0.788357,-7.81378,1.46375,2.06137,-7.83666,0.812612,0.747685
27.1594,0.192425,-12.8089,11.6308,-4.65292,-10.1814,11.6592,-5.52406,-14.2206,12.31,-3.66458,-14.1378,11.4185,-3.94274
0.0415768,0.00506524,-14.1061,17.4977,-4.37748,-14.2327,17.7429,-4.46675,-14.2806,17.7841,-4.38619,-14.2159,17.5634,-4.10023
2.25564,0.162999,-9.13932,7.53888,-4.69848,-8.61289,7.53602,-5.20706,-9.72919,7.13093,-5.17377,-9.36022,7.68817,-4.68377
23.2112,0.216547,-9.07239,9.65199,5.52489,-6.07658,9.05913,6.34023,-9.47791,10.618,6.04555,-6.14899,9.00104,6.2971
7.76242,0.154643,-17.2982,15.6312,0.178686,-17.3469,14.0781,-0.0348629,-17.219,14.8259,0.599936,-17.3168,14.1285,0.39827
5.9301,0.0958078,15.1084,15.137,3.90067,14.8749,15.0675,4.20839,15.8039,16.4338,1.8159,15.8104,16.3114,1.82491
34.0689,0.587789,-12.2252,4.68234,-2.52998,-10.1019,4.59868,-4.10933,-10.0627,3.79306,-3.49244,-8.59365,3.57425,-3.91601
1.45954,0.328165,1.30043,11.3676,-6.54809,1.98036,11.3133,-7.05796,2.05909,11.535,-7.04507,1.12511,11.143,-6.87896
16.5769,0.440399,-0.0627443,21.408,5.68659,0.522607,21.9178,6.20711,-1.32034,18.7936,6.75894,-1.23575,18.5884,6.87307
0.0827703,0.0258416,4.25898,5.73119,-6.83785,4.0305,5.90458,-6.83431,4.05731,5.83874,-6.82705,4.26208,5.68099,-6.80669
3.13229,0.1277,-16.6023,20.6763,-0.429454,-16.5422,21.03,0.00245866,-16.6355,20.6811,0.159564,-16.8685,20.3027,-0.43131
30.6399,0.466946,-3.28867,22.2543,-6.27666,-2.75604,23.6758,-6.4424,0.717167,21.6193,-7.06295,-1.55011,21.5266,-6.99624
3.10234,0.030473,-9.03106,11.702,6.00506,-7.36793,11.7742,6.77707,-7.51139,11.5743,6.73539,-9.40439,11.7483,5.86577
17.9094,0.181147,-1.23102,27.6615,-3.93089,-3.29515,26.7848,-4.51545,-2.41264,26.6154,-4.66696,-2.33539,27.2976,-4.03051
2.00469,0.0657211,-4.65229,0.453106,-0.682851,-4.6436,0.451958,0.354903,-4.57606,0.450124,0.210493,-4.71378,0.463417,0.355727
1.39042,0.0577016,7.49604,10.045,-7.13081,8.05776,9.91627,-7.10829,8.55747,10.0636,-7.02606,8.48426,9.93117,-7.04244
18.8597,0.499325,-14.2314,17.5369,4.08286,-12.4355,19.6238,4.37223,-12.7797,19.5804,3.70612,-12.4766,20.3858,3.49737
3.41373,0.218133,0.00848174,23.4657,5.08982,0.333012,23.3985,5.07979,0.0282539,24.4469,5.09437,-0.256161,23.5598,5.69753
55.7923,0.714,-1.42093,16.3389,-6.99408,2.40436,16.1713,-7.34776,-1.7833,15.2146,-7.42672,1.93714,17.2987,-7.74154
0.0939841,0.0434046,-7.22092,19.7728,-7.24553,-6.89777,19.7928,-7.33189,-7.17162,19.6858,-7.26847,-7.16495,19.7956,-7.20258
41.2305,0.0834809,-8.33971,15.9838,5.82954,-3.48671,15.4352,7.70494,-2.64079,16.2873,7.70105,-3.10154,16.7115,7.37779
12.0637,0.735234,-3.35345,4.37946,4.57721,-3.60664,4.93712,5.64537,-1.15933,4.30539,5.80016,-3.51418,2.45832,4.41237
8.22935,0.458293,-7.21879,25.7453,-3.85,-7.77689,26.533,-4.10376,-7.79057,25.2491,-4.97123,-6.53634,25.9167,-4.06084
6.1444,0.518268,-14.3356,8.13718,-2.97492,-14.8497,8.44782,-3.43506,-13.1763,7.91803,-4.33196,-14.5977,6.979,-2.9423
10.3293,0.840861,-5.89237,9.29798,6.15919,-5.19566,8.1969,6.45335,-5.10372,10.3676,7.00156,-4.55847,9.44137,6.4354
15.1103,0.688976,2.25142,1.83952,2.74798,4.14937,1.26719,2.75108,1.74518,0.999613,2.88963,2.0217,2.22401,4.46422
10.0048,0.183103,-11.9723,8.64156,-4.30699,-12.2396,9.88246,-4.70435,-12.8629,10.7984,-4.94922,-12.6392,11.0679,-4.93455
8.1776,0.203719,8.59677,1.41737,-1.27158,11.0327,1.80422,-1.07445,11.2588,1.91124,-0.775979,11.2487,1.92039,-0.713394
12.5958,0.0107595,-16.9252,18.8157,0.151667,-16.991,17.5287,0.542802,-17.1801,18.1718,-0.286461,-16.6012,18.6783,1.08617
3.23515,0.282492,13.6876,15.364,4.16907,14.5191,15.0988,4.34759,12.5983,15.3405,4.63091,12.7105,15.1614,4.62884
11.501,0.533638,-4.34592,13.5928,-7.00835,-3.4358,12.7374,-6.95262,-5.81178,13.5951,-6.49247,-6.11574,13.6252,-6.86502
1.57383,0.0997591,5.31474,4.64968,-6.18059,5.92733,4.69583,-6.22363,4.87712,4.61766,-6.33899,5.11436,4.71191,-6.27672
5.17909,0.0971717,8.46394,13.386,-6.39369,8.83831,11.8429,-5.97103,9.3818,11.8532,-5.98752,8.9221,12.4466,-6.10352
2.65295,0.642576,-10.8144,4.88892,3.53134,-9.4929,4.53054,4.15036,-9.46026,4.73459,4.1582,-9.42659,4.58316,4.15195
1.38516,0.111957,15.8905,16.3695,-2.90014,16.4815,16.2534,-2.52825,16.6398,16.4698,-2.39695,16.6262,16.3512,-2.40492
27.9045,0.11552,2.00419,11.9069,-7.05905,3.44861,10.4231,-7.49558,4.93278,10.8068,-7.45624,4.18358,12.0675,-7.00914
4.93743,0.267674,0.227781,11.8111,-7.10644,-2.00743,11.8714,-6.99288,-2.75419,11.7524,-6.90072,-2.75355,11.71,-6.91304
16.0905,1.40705,-2.70477,18.388,7.31597,-3.17029,20.8203,6.3673,-3.49562,20.4007,6.27345,-3.64641,20.0745,6.2029
9.93555,0.165033,-9.03049,19.494,-6.87803,-9.26141,18.0805,-6.91615,-9.97281,18.7066,-6.82295,-8.74875,18.1523,-6.90724
8.34476,0.394334,-11.0976,3.0861,1.81534,-9.81771,2.47844,1.84386,-11.4997,3.13556,2.40317,-11.359,2.51241,1.77676
3.55012,0.0964812,-6.93585,24.5398,4.0988,-6.4288,24.528,4.27494,-7.84791,23.9214,4.32988,-6.05415,24.5813,4.449
6.57111,0.46921,2.78387,15.772,6.75603,2.36744,15.63,7.37233,2.44584,17.0556,7.25692,4.19765,15.4901,6.8616
14.7317,1.06242,-15.1785,24.1609,-0.227276,-14.3477,25.0126,0.482566,-14.7999,25.2295,-1.25166,-14.7483,25.3288,-0.533891
1.93367,0.0516457,-5.63014,27.7696,0.87583,-5.44605,27.8199,1.00608,-6.68964,27.6892,0.460621,-6.54247,27.647,0.599966
2.92745,0.192598,-3.81959,9.62694,5.99505,-4.07181,9.31934,5.93316,-3.40339,9.61504,6.25664,-4.35164,10.1156,7.02743
5.74144,0.201163,-11.6206,4.13899,3.51858,-10.3565,3.82667,3.99173,-11.4139,3.62703,3.45114,-12.1586,4.20288,3.64345
4.46558,0.18918,1.95126,5.0725,-6.07644,2.43785,4.43344,-6.0271,2.57005,5.86852,-6.87548,1.65274,4.99031,-6.19183
10.1774,0.093094,0.635937,26.4382,-4.7234,-0.231951,25.8616,-4.71994,0.120549,27.145,-4.74721,1.75946,26.3035,-4.9533
8.95189,0.689071,-4.85755,2.35475,3.21841,-3.86121,2.73118,4.47182,-3.98638,2.10763,3.50096,-3.8746,2.37962,4.12849
0.139289,0.025208,12.6166,20.5177,4.66726,12.6182,20.6962,4.60794,12.4824,20.6613,4.6907,12.6852,20.6921,4.57063
11.961,0.73376,8.20101,19.6816,-5.93135,7.39314,21.4958,-6.51817,9.59689,19.8259,-6.14447,7.69549,19.5541,-7.00015
15.9189,0.696936,-1.9168,12.7807,6.29386,-0.0546257,12.9457,7.51882,-2.25894,13.2798,6.84184,-2.96665,10.1244,7.22046
15.4737,0.183423,3.17151,28.6435,-1.16995,4.85022,28.2933,-2.07543,5.26549,28.2814,-1.96461,4.7674,28.6158,-1.22907
5.8344,0.411839,-0.506937,20.4774,-7.0943,0.650292,20.8488,-7.17329,0.791326,20.7227,-7.22023,-1.06447,21.5155,-7.0847
5.83267,0.28857,14.6883,21.8296,2.56569,14.5469,23.259,0.875488,13.9233,21.9254,3.00772,14.4993,23.5558,0.66983
20.2874,0.504792,0.212294,1.87713,3.55419,-1.97892,1.87225,3.28341,-1.87106,1.93627,3.97995,-0.769664,2.22582,4.58476
7.26117,0.512232,11.023,25.5065,-3.74381,8.27063,25.8519,-4.16752,8.54102,25.7117,-4.09453,8.50069,25.8806,-4.07237
1.26299,0.012191,1.45253,0.800771,-1.72381,0.667713,0.776589,-1.82152,0.678009,0.763219,-1.71798,0.718097,0.780313,-1.83763
1.83292,0.396673,-14.0885,10.47,-3.85752,-13.0242,10.3785,-4.89033,-13.5368,10.6131,-4.61969,-13.2815,10.4247,-4.75122
1.3487,0.11943,7.7563,23.8671,-5.74865,7.1311,23.9789,-5.73113,8.49185,23.9249,-5.34006,8.49795,23.9571,-5.31862
11.8577,0.298439,8.47893,3.02841,3.3718,9.77364,3.40944,4.16412,8.43353,2.53062,2.28944,8.14484,2.60511,3.86226
4.06227,0.310817,9.94972,3.0057,-2.53331,9.81926,2.40743,-2.15676,10.117,2.53868,-3.35631,10.3261,3.01486,-2.36059
1.28865,0.0553524,1.60528,0.623906,2.19957,1.80567,0.434518,1.7857,1.80587,0.387015,1.70637,2.01539,0.399785,1.73839
15.9703,0.091211,8.73212,6.28623,-5.97562,6.32905,5.88202,-6.02803,6.02146,5.76573,-6.65584,9.98006,6.37041,-5.82654
5.49716,0.545171,-5.33915,23.6543,-6.32247,-4.64326,23.9752,-5.90615,-5.19949,24.075,-5.36709,-4.99421,24.0296,-5.49131
12.6218,0.546217,-13.7696,20.4246,-3.99253,-10.5383,21.0334,-6.12575,-14.3768,20.7876,-4.39785,-14.2432,19.5125,-4.22207
13.3401,0.638236,-11.9864,12.8704,-4.57965,-13.3785,13.2834,-5.04586,-11.0608,13.0594,-5.55877,-12.5833,11.7242,-4.75986
9.34995,0.25712,9.61723,8.72039,-5.47447,9.22599,9.62333,-6.01227,9.03559,11.0354,-6.55648,9.09889,10.515,-6.48215
0.704693,0.107688,-12.8346,14.6814,-5.46392,-13.0843,15.0472,-5.35947,-13.0244,14.8109,-5.34572,-13.1723,14.6774,-5.31827
0.884716,0.0776883,-13.7293,3.19205,-0.57764,-13.9724,3.22952,-0.526277,-13.462,2.88231,-0.618814,-13.8123,3.30599,-0.769632
32.6292,2.18624,-10.6463,16.8943,-6.0134,-13.1281,17.5788,-5.37499,-13.1969,17.5452,-5.43881,-13.2054,18.6072,-5.4859
0.0122621,0.0019445,-10.1925,6.20131,-4.93162,-10.2648,6.04968,-4.8396,-10.3348,6.19473,-4.88394,-10.3429,6.09041,-4.83459
1.45623,0.251892,-0.589021,19.0593,7.07513,-0.217373,18.7563,7.35239,0.531374,19.0402,7.4551,0.259043,19.1126,7.42872
10.9603,0.623997,3.95366,23.2552,5.74024,0.465337,23.4082,5.08463,0.422351,23.4627,5.05838,0.364889,23.3687,5.10833
5.00175,0.679914,-4.46474,8.07895,5.83818,-4.09246,9.22105,5.92089,-3.85186,9.19159,5.95401,-3.92969,9.22992,5.92428
80.6598,0.0633998,8.10824,0.787251,0.59302,10.0831,1.97762,2.41004,7.98349,2.4487,2.47523,9.75477,1.3366,1.55433
3.34011,0.124415,11.0135,4.56726,-4.36169,9.72921,4.29559,-4.64441,9.43798,4.14467,-4.65529,11.3307,4.70854,-4.12403
0.787114,0.13502,-3.25713,13.4825,7.16955,-2.84029,13.4641,7.07526,-3.79333,13.6294,6.98002,-3.6525,13.6664,7.04866
13.1858,0.307686,-14.6525,19.1721,-3.90201,-15.2622,20.7301,-3.15636,-15.0634,18.9066,-4.19966,-13.6969,19.5451,-4.61156
3.56689,0.40865,-0.726787,17.6443,6.6016,-0.0500852,17.6336,6.88099,-1.23305,17.2292,7.03578,-0.635153,18.5041,7.24369
3.21894,0.0840254,4.42689,2.48466,4.70286,3.68191,2.64048,4.82737,3.73069,2.22145,4.39697,3.81499,2.89332,5.06818
36.8336,0.226107,-2.16034,25.3323,4.01016,-2.65463,23.4334,5.59199,-4.2869,25.0674,4.40701,-4.60033,24.581,4.73609
8.73253,0.329805,-2.10344,10.3206,-6.73869,-2.97693,10.8943,-6.98591,-1.4028,10.4965,-7.1199,-2.47589,11.4381,-7.01078
14.6601,0.613069,-1.46927,8.72914,-6.40754,-2.16911,10.2008,-6.76867,-1.86498,8.28217,-7.06068,-0.450437,8.67885,-7.11343
21.0404,0.0101366,16.6428,9.14856,0.177792,15.4719,6.09444,0.972389,15.4689,6.86733,1.61136,15.5888,6.29209,0.802339
10.2536,0.42637,13.7773,18.4165,-4.01729,13.8345,18.3459,-4.50339,15.1882,18.3303,-3.68968,13.5012,20.5034,-4.25395
1.8406,0.0865501,-9.07679,15.8742,5.62527,-8.73736,15.821,5.7506,-9.17962,16.0272,5.59047,-9.04115,15.4398,6.40202
0.941588,0.106647,9.33264,15.7392,6.40638,9.29495,16.2647,6.43065,9.14497,16.6223,6.40276,9.06503,16.586,6.42984
6.55713,0.427766,9.59945,7.74431,-5.20998,9.43565,8.36042,-5.32816,10.8664,7.80074,-5.40754,9.10245,7.25983,-6.24675


