
9.60182,0.712765,-6.60634,4.3116,-5.43497,-6.80651,3.19587,-5.58266,-6.87,5.52612,-6.93659,-5.33342,4.15361,-6.39009
9.38836,0.578068,-0.576141,7.73372,-7.81589,-1.03966,7.09297,-8.20553,-1.1614,9.19967,-8.84972,0.428185,7.68907,-8.44704
2.77887,0.0535529,-13.3291,5.43977,4.44609,-13.356,5.30471,3.52709,-13.5257,5.49403,4.01707,-13.5823,5.40939,3.52692
3.72712,0.135851,-7.30831,2.92067,-4.93871,-6.33095,2.45929,-4.95805,-7.642,3.10643,-5.27536,-7.31722,2.52176,-4.64749
11.4432,0.474129,-11.811,7.54517,-5.146,-11.9836,8.21393,-5.40615,-13.1889,7.42975,-5.10102,-11.2209,7.47391,-5.97145
0.111243,0.0186157,-2.23526,17.387,-7.86012,-2.2611,17.1725,-8.06483,-2.16465,17.1092,-8.12677,-2.20749,17.1057,-8.12614
9.48084,0.561679,12.1515,17.2731,-4.98807,13.5198,17.2044,-4.55021,12.7631,19.7017,-5.23378,12.1311,17.0072,-5.74339
7.62131,0.0818926,15.6772,20.4807,-0.53458,15.6931,20.6009,-1.28979,15.7813,19.6621,-0.92125,15.8356,20.0512,0.0930764
4.05295,0.133893,-3.47249,23.7064,-4.46949,-1.79228,23.9673,-4.95143,-3.83429,23.6155,-4.59507,-3.48984,24.4733,-4.09203
3.99586,0.471991,7.0864,7.07487,-6.95552,6.66351,6.78813,-7.3868,6.43017,7.27604,-7.45481,6.83403,8.25857,-7.60059
8.9423,0.321036,3.06356,17.2607,-7.27206,1.98026,17.3167,-7.50282,3.93267,18.0353,-7.41951,3.76479,16.3699,-7.97648
12.5925,0.0990279,5.42901,25.4341,1.23114,6.1509,25.4138,2.3804,5.79373,25.4251,2.80119,4.82217,25.5218,2.58395
12.3781,0.451966,-14.588,18.2191,-3.4774,-13.5907,18.5209,-4.60244,-15.4924,17.0621,-4.01286,-15.769,18.4034,-3.17018
39.2038,0.0556417,9.55177,19.5027,6.41083,5.28658,19.7637,7.06678,8.14625,20.2707,5.93649,5.47406,20.4555,6.37598
3.35978,0.0314103,8.44588,10.6451,-7.02709,8.0682,10.1546,-7.44037,7.70152,11.1308,-7.57603,7.94857,11.4831,-7.32709
8.13675,0.418424,-8.47345,23.3756,3.85717,-9.1098,23.9075,3.74411,-7.21858,23.7872,4.07907,-8.84783,22.8502,5.48724
5.08141,0.33834,3.01256,24.3125,-3.46699,3.54313,24.9547,-3.16278,3.45526,24.0619,-4.37786,2.38013,24.8224,-3.34671
8.10733,0.144152,-9.34387,24.0952,1.59565,-9.18083,25.054,0.887709,-8.61075,24.4633,1.93336,-7.58879,25.0838,2.66347
7.85552,0.346993,-7.91985,10.3456,-7.36839,-7.96349,9.56296,-7.7558,-6.44797,10.8434,-8.08323,-8.45909,11.0142,-7.55356
7.16506,0.15237,3.34119,24.3313,4.29614,1.93881,24.7257,3.93757,1.87103,24.2642,4.39676,2.01666,24.791,3.88124
21.8014,0.153268,-10.2443,3.71874,4.35796,-11.9683,4.1877,3.53289,-11.6338,4.70797,4.07774,-12.2065,4.87411,3.87882
7.1778,0.4527,-5.21789,0.718912,0.0886812,-5.57307,1.39728,1.24478,-4.84046,0.785763,0.875582,-4.3571,0.496185,0.203612
11.0765,0.141734,-9.80408,15.3712,7.98294,-7.50338,15.2207,8.50539,-6.49443,15.8004,8.59922,-11.5125,15.2458,7.40192
48.3189,0.0171516,2.52082,23.5721,4.9802,5.66123,22.7903,4.74801,4.86145,23.4411,4.39241,5.19979,22.5051,5.14067
4.00261,0.384142,3.2049,14.4414,8.1767,4.2191,14.5504,8.77739,4.31276,14.623,8.81776,2.65363,14.9477,8.69698
0.165013,0.0924252,15.9816,9.57911,0.0159248,16.0951,9.50536,0.0154679,15.9964,9.60596,-0.165114,15.9954,9.50785,-0.198373
32.3995,1.72894,-0.738954,11.077,-8.80232,1.41399,11.3873,-8.38615,1.71616,9.99727,-8.46689,1.37244,10.6197,-8.25472
1.91766,0.104358,-4.99938,10.689,8.18797,-5.07486,9.75759,8.16918,-5.17577,10.8768,8.26645,-4.55883,10.4829,8.40486
0.928392,0.0692061,13.4703,9.14097,-4.44562,13.6469,8.81119,-4.33921,13.2704,8.85409,-4.63202,13.8469,9.31622,-4.28053
5.33718,0.141666,10.9202,2.64446,-4.71902,12.004,3.12834,-4.02533,11.0287,2.08583,-3.94417,12.3123,3.25707,-3.70569
23.4416,0.280927,3.94913,11.0018,-7.99573,3.7082,9.88743,-8.26325,1.75349,10.2785,-8.42032,3.7173,12.4748,-8.3375
69.5592,0.692061,12.9607,12.5114,-5.34813,14.5397,9.69197,-3.1175,14.1382,11.3133,-4.28461,14.0382,9.83553,-4.14372
4.39202,0.345587,5.10909,25.3479,0.563404,5.0919,26.0457,-0.10656,5.91898,25.3497,0.78879,4.52006,25.708,1.1442
0.101334,0.00638381,7.37112,15.8689,-7.88733,7.449,16.0701,-7.83349,7.32268,15.9352,-7.88329,7.37081,16.0646,-7.84464
24.504,0.689981,11.3683,22.3958,4.54043,13.6846,20.5912,4.84972,12.7305,22.6539,3.70129,13.5072,21.4553,4.3816
50.5278,3.28934,14.9729,6.96303,-2.58566,16.1764,8.74577,0.00876292,16.0747,11.5632,-1.20724,15.8998,10.5368,-0.63208
3.08661,0.374109,10.8995,11.5269,7.514,10.7582,13.8618,6.87815,10.9321,13.8657,6.7953,10.803,13.724,6.87385
7.07225,0.0572128,-13.3945,15.0781,6.48824,-13.7367,14.6934,6.28584,-11.5611,15.3273,7.38019,-11.5589,15.4025,7.40609
7.60351,0.0428952,10.5728,12.2048,-6.46722,11.1246,13.2571,-6.2216,9.86292,12.614,-6.80398,9.49761,13.314,-7.03829
2.12794,0.448381,-7.62119,1.85049,-1.77272,-7.56138,1.37088,-1.31911,-6.76293,1.24072,-1.75084,-7.70238,1.3959,-1.3125
2.42795,0.351779,1.67819,19.1501,8.27145,2.96035,19.793,7.76058,2.80151,19.9238,7.67962,2.96577,19.7585,7.79278
8.7821,0.693156,-3.80936,25.0928,-0.795907,-1.92204,25.7818,-1.09429,-1.92623,25.8218,-0.964214,-3.83416,26.0615,-0.00581899
44.4089,0.320863,9.05961,23.4644,4.03562,10.6809,21.9668,5.03585,11.8338,23.3537,3.76925,10.9825,22.3054,4.72118
3.12054,0.421644,-8.52444,3.85581,4.57973,-7.19224,3.36654,5.22815,-8.73919,4.22104,5.1963,-8.93094,3.07004,4.53849
5.05419,0.201466,10.0186,6.97636,5.91533,10.9691,7.03582,5.95366,10.2217,6.63734,5.6138,9.61677,7.13554,6.86817
22.4726,0.879346,-2.30701,10.9973,8.14681,-1.60093,7.69032,8.74366,-1.51392,12.3678,8.993,-0.865479,10.2764,8.77594
20.3579,2.01378,-1.26495,14.6929,-8.63659,-3.14358,13.6911,-8.31867,-2.71369,13.0571,-8.43324,-2.49025,12.4411,-8.84707
0.718355,0.0441959,7.97143,6.52542,-7.13155,8.28939,6.03826,-7.017,8.14855,6.46812,-7.05682,8.15406,6.10556,-7.04086
2.85797,0.19343,5.15029,1.63742,-2.94379,5.45523,1.82083,-3.48528,5.48137,1.09882,-2.53582,4.74204,1.58715,-3.22232
52.7155,0.591325,-11.3243,11.3104,-6.19676,-9.19464,10.0953,-6.76721,-8.46455,11.0843,-7.54783,-9.18576,12.8888,-7.42342
1.20388,0.00439185,-14.9664,15.3589,4.94946,-14.7106,16.3173,5.17608,-14.6224,16.3474,5.24356,-14.4626,16.4956,5.36844
1.96725,0.108094,0.423964,1.81908,-5.51899,0.589875,2.11562,-6.07743,0.937463,1.99358,-5.91202,-0.0322541,2.06811,-6.02844
1.84208,0.122702,-9.66046,2.19889,2.01382,-8.99146,1.4285,1.73148,-8.99033,1.35173,1.56593,-10.0051,2.52978,2.54752
13.5607,0.947578,-9.59601,9.77164,6.95468,-11.5354,9.99442,6.04181,-12.0175,10.271,6.26998,-10.4639,9.20013,6.90552
5.76034,0.408249,-7.54631,10.9435,7.45597,-7.6715,10.1055,7.45427,-6.67373,11.1275,8.38499,-8.19684,11.235,7.84168
31.5755,0.429521,-7.66855,9.82599,7.43199,-9.50242,8.80248,7.28149,-7.83795,7.24976,7.6257,-6.39519,9.9475,8.24761
9.5329,0.472666,-10.1132,13.5014,-6.3295,-10.0329,12.6631,-7.14251,-10.1786,14.6397,-6.54064,-10.979,13.6195,-6.39307
70.1482,0.82767,4.61454,1.06761,-0.859453,7.91851,1.26033,-1.39776,8.63067,1.18288,-1.91994,8.33175,0.952791,-0.0925142
7.34807,0.283718,16.121,15.1494,0.116214,16.0214,15.4656,1.24128,15.9707,15.3109,0.95489,15.9898,15.9293,0.922024
31.9341,1.20667,-13.029,10.0528,5.09249,-12.4363,8.64313,6.03576,-13.3732,7.21609,5.6332,-12.2287,10.9621,6.60539
1.81674,0.210391,5.45425,0.943532,1.71623,6.18116,0.829637,1.55914,5.22051,0.607098,1.65358,5.87642,1.00782,2.10406
17.8829,0.530935,7.91699,4.145,-5.78949,9.42927,4.71008,-6.08069,8.10878,5.69605,-6.98139,7.6388,3.51502,-6.23431
4.10966,0.0326388,5.07557,19.7415,7.17533,3.24612,19.1392,8.13845,3.2199,19.1061,8.17203,3.55722,19.0368,8.12813
19.2771,0.472523,15.219,16.5877,-0.475663,15.6112,17.2996,0.792014,16.025,15.4754,0.274222,15.4919,17.2373,-1.3683
16.1556,0.150239,14.9238,20.9255,2.23047,15.518,19.1141,2.05697,15.5002,19.0959,2.09483,14.7508,19.7586,2.87403
18.6899,0.289947,-2.59818,18.769,7.94601,-1.38368,19.648,8.31079,-0.902374,18.0704,8.75174,-4.33691,18.7563,7.89051
10.4356,0.550951,6.32811,1.68032,2.31921,5.49877,1.39269,3.37792,7.64307,1.52764,2.58742,6.52347,0.440527,1.12152
1.49749,0.0871468,-4.92276,14.8326,-7.98489,-5.04954,14.6244,-8.05298,-5.00871,15.2586,-8.13247,-4.50664,14.988,-8.07016
15.7476,0.645339,-13.0082,22.7985,-1.72505,-13.6773,22.6321,-2.89757,-13.6516,23.7272,-1.08151,-11.1688,23.6697,-2.7767
5.08629,0.358858,-3.67491,25.0513,4.17915,-4.61174,25.2853,3.08971,-5.0394,25.2846,3.26627,-4.61977,25.3578,2.92331
6.00986,0.473139,-12.0008,12.8401,5.9662,-12.6438,14.1064,6.9636,-12.4326,12.2027,6.09725,-10.8949,13.0998,6.8795
6.93374,0.697318,-2.8512,9.78399,-8.35163,-2.25812,8.82703,-8.76169,-0.637498,10.3825,-8.79671,-0.460597,10.6023,-8.74561
2.86254,0.204816,11.8854,2.57133,-1.59328,12.2515,2.58256,-2.10261,11.6068,2.25336,-1.55663,12.6237,2.49165,-1.15227
22.4037,0.436144,6.74055,10.3955,-7.38966,4.68834,10.7426,-8.13046,5.87384,10.0618,-7.95191,6.69575,12.2304,-7.85662
2.35712,0.427354,-10.2491,14.682,-6.54341,-10.3321,16.0744,-6.9066,-10.2448,16.2849,-6.91957,-10.1948,16.0032,-6.94344
12.9312,0.45275,-13.1888,15.7325,-4.95755,-13.8514,16.9904,-5.05907,-12.2789,16.3318,-6.10621,-13.5236,15.0413,-5.2794
1.85962,0.0118396,4.45834,24.6646,3.87904,5.03441,23.7906,3.79106,4.89534,23.7819,3.81112,4.59465,24.2139,3.85099
0.765459,0.0811054,9.6909,2.07634,2.93348,9.23422,1.99143,2.59469,9.33825,1.99703,2.7439,9.11403,2.04208,2.31968
8.39039,0.557385,1.43496,23.5929,-4.40695,1.27924,23.3166,-5.61787,0.803184,24.8786,-3.90524,3.31855,23.9133,-4.51822
7.1339,0.220446,-8.90027,13.0108,7.50634,-8.30134,12.328,7.8797,-8.17998,12.8203,7.81622,-9.35075,11.9627,7.84961
13.4901,0.18101,6.60074,25.8647,-0.987242,5.23354,25.5267,-1.58173,4.52433,25.6888,-1.03249,4.53431,25.553,-1.51757
6.45786,0.0505365,0.533111,3.04973,6.10569,0.191143,2.6523,5.53389,-1.04109,2.80566,6.35653,-0.932342,2.5846,5.95281
4.046,0.332519,10.3758,1.95477,-0.639205,11.7202,2.00151,-1.18236,11.2374,1.63289,0.202715,10.0576,1.61089,-1.00767
4.02549,0.0319529,4.73672,18.5816,8.20603,5.1836,17.5565,8.41698,4.20153,18.4996,8.3265,5.2497,18.1751,8.26657
0.0106962,0.00911489,-1.03837,8.16895,8.81978,-0.974717,8.18039,8.83759,-1.01107,8.25116,8.84663,-1.05382,8.25345,8.84271
3.94826,0.26089,-4.81368,10.4513,-7.9431,-4.12713,10.4622,-8.4907,-4.96618,11.7092,-8.5289,-5.20716,10.0926,-7.98302
2.57423,0.155001,10.6799,24.5853,-1.13466,11.4398,24.7279,-0.52933,11.1319,24.381,-1.62332,10.4266,24.851,-1.16102
6.38914,0.262212,-0.982449,19.9991,-6.90206,-1.05801,20.8148,-6.63001,-2.2486,19.891,-6.96395,-2.05496,20.3889,-6.66194
24.779,0.53603,-9.72718,18.134,6.99761,-9.46952,16.3436,7.80808,-10.6961,16.9321,7.17167,-11.0089,17.9709,6.96789
3.13341,0.166419,-6.09397,11.1324,-8.02075,-5.88789,10.6422,-8.18145,-6.64017,11.3318,-8.07936,-5.28935,11.6304,-8.47014
7.471,0.291301,-2.08172,0.791655,-1.10626,-3.33591,0.410445,-1.11593,-1.77267,0.331195,-0.532317,-1.59365,0.617301,-1.4343
0.332197,0.0404167,3.25866,12.3776,-8.42306,3.17965,12.4687,-8.47288,3.41122,12.1846,-8.44771,3.27638,12.1796,-8.46972
0.622005,0.149661,-1.01209,0.386153,0.911446,-1.57934,0.43858,0.953507,-1.6264,0.288108,0.760978,-1.65156,0.448963,0.997927
3.22487,0.893231,-4.35727,25.7413,-0.725324,-6.10041,25.5764,-0.622221,-5.87856,25.4799,-1.01354,-5.81587,25.4466,-0.853776
8.81476,0.695449,9.55742,3.64634,4.28609,10.2941,3.67993,4.12766,10.2853,3.29261,3.71595,10.2087,4.15245,5.3619
5.70505,0.476916,-3.12821,10.153,-8.13108,-3.37083,10.686,-8.36013,-3.23241,10.9029,-8.35426,-3.68722,9.4264,-8.67977
3.45054,0.178419,9.00324,24.4371,-2.34474,8.79084,24.6952,-2.14818,9.09536,24.485,-3.18498,10.1061,24.3935,-2.24271
7.04405,0.232468,-2.7717,20.6568,7.40251,-2.14634,21.219,7.34928,-1.58775,19.9948,8.15979,-3.28713,20.0216,8.0602
2.81563,0.143797,10.6551,21.1325,-4.994,10.9444,20.7219,-5.11673,11.5883,21.9127,-4.77882,10.2978,21.415,-5.20845
2.14154,0.0606768,11.4012,2.90054,3.14987,9.74946,3.13425,3.53985,10.342,2.87177,3.27432,9.73083,2.99135,3.41752
26.4113,0.161019,14.8295,9.68299,-2.53424,13.7422,7.46561,-4.10572,15.5256,9.87977,-1.45526,14.6647,7.53572,-3.05292
34.7158,1.62004,-6.4047,18.3622,7.3028,-4.3718,18.4012,7.91426,-4.2853,17.7805,8.21017,-5.36549,19.9715,7.80254
3.7234,0.113256,-14.8078,15.9275,-4.4028,-14.3619,14.5375,-3.99286,-14.8049,16.8916,-4.56001,-14.5029,14.6711,-3.99602
1.14069,0.220303,8.69316,23.1236,4.38342,7.52104,23.4743,4.25845,7.74934,23.348,4.38684,7.45185,23.4655,4.25862
9.38402,0.456341,2.37336,20.1082,-6.54988,2.83553,19.5535,-7.13923,3.97323,21.0256,-6.78261,1.75957,20.3809,-6.9646
10.5922,0.60795,0.837457,25.367,1.8193,0.348364,26.411,0.534704,0.258826,25.9539,2.82563,1.86579,25.6773,2.08236
3.67559,0.274335,0.277564,13.0699,8.79251,1.62177,13.0423,9.02985,0.195591,13.5749,8.96421,1.67322,12.9746,9.04303
2.88875,0.132156,11.3987,16.1423,-6.22058,12.1083,16.6911,-5.89894,11.2402,16.4812,-6.56848,11.6388,15.7818,-6.14543
8.20766,0.0136313,-12.9097,18.1992,5.56038,-10.9078,18.8079,6.7841,-12.8022,17.5712,5.85578,-10.8877,18.5315,6.88745
12.9256,0.351679,5.97168,17.093,-7.04892,4.56116,16.7093,-7.76967,6.8464,17.2578,-7.20427,5.7379,18.3441,-7.24775
13.1157,0.639774,3.60761,14.7547,-7.30398,4.69981,14.8459,-7.87716,3.52447,14.0635,-7.92386,2.54248,16.5601,-8.08718
13.265,0.28153,-10.4363,23.8531,-2.09279,-7.38432,24.1323,-3.65161,-10.7547,23.7239,-2.58889,-10.8444,24.1299,-2.02122
1.78539,0.0674903,12.5678,17.5441,6.42186,12.4197,18.504,5.65363,12.4316,18.6047,5.49316,12.538,18.4759,5.43122
4.16775,0.277479,-8.65666,16.415,7.29148,-8.81263,17.2758,7.6869,-9.06866,16.1428,7.70782,-8.2805,16.4294,7.45882
4.94942,0.211666,2.77887,23.1395,-4.91751,3.75231,22.9673,-4.91273,3.35542,22.6477,-5.53794,2.69879,23.7185,-4.61232
11.8633,0.663109,8.6437,21.1038,-5.12352,9.46406,22.0269,-5.15741,7.79544,21.3688,-5.97708,10.0827,19.6505,-6.38469
42.3739,0.306805,-0.453833,1.00061,-3.15599,-2.02011,0.91869,-2.1654,-2.7718,0.892114,-2.69351,-3.00151,0.98697,-3.48676
7.75569,0.268076,3.92099,2.60214,4.46078,4.21778,1.50579,3.9295,4.99223,1.45458,3.99536,5.15125,2.23986,4.68105
11.4186,0.368731,8.35275,13.9725,7.57628,8.28332,13.4896,7.75563,8.04065,14.5521,8.26911,10.1541,13.6053,7.77023
2.68258,0.101109,12.4672,8.78249,-5.0898,12.3789,8.24863,-5.2006,13.1645,8.74178,-4.71363,12.2641,8.8162,-5.36375
30.7204,1.24098,-9.71265,3.03187,-3.08862,-6.88825,2.20301,-2.62072,-6.2435,1.77491,-2.74332,-7.45587,1.9109,-1.83787
25.7474,0.412979,-9.77011,20.1791,5.99557,-8.23825,20.8935,6.4949,-10.4675,23.0159,4.26144,-9.34536,23.5892,4.20666
3.62319,0.274917,1.99806,25.3029,2.52295,2.35122,25.7726,1.96918,2.63521,25.4458,3.21145,1.50414,25.5637,2.47572
10.3619,0.435032,14.1112,19.6536,3.3329,14.7546,19.8543,2.85278,14.5063,18.6726,4.02507,14.0548,20.9602,3.94603
0.0201523,0.00400342,8.61866,16.4259,-7.5345,8.70916,16.3666,-7.49018,8.802,16.422,-7.42034,8.74777,16.3638,-7.46765
1.1175,0.0861808,3.59456,24.9877,3.84119,3.05033,25.4158,3.36859,3.45202,25.5327,3.15061,4.20802,25.1563,3.68568
5.03499,0.293681,-9.97708,3.11613,3.18924,-10.287,3.19174,3.76349,-9.90084,2.42397,2.56711,-9.43242,2.64822,3.63228
5.39684,0.488434,-5.85634,13.8346,7.85005,-6.37246,12.732,8.45103,-4.54225,13.6602,8.20659,-5.95299,14.2719,8.33163
18.5388,0.51639,-8.68919,20.1491,-5.43532,-10.1057,20.2635,-5.50062,-8.67297,21.8995,-5.42099,-7.32375,20.2437,-6.42456
19.2978,0.222831,13.5345,3.05386,-1.32522,14.8651,3.42322,-0.18086,14.478,3.38724,-0.49832,15.0293,3.95666,-1.10176
0.249068,0.205986,-2.3446,25.5892,-3.0705,-2.22951,25.5561,-3.30015,-2.31328,25.5309,-3.27706,-2.51311,25.5322,-3.25261
6.22488,0.251037,-3.45884,15.0083,-8.01197,-3.43834,14.4418,-8.21566,-2.7973,15.6456,-8.45584,-4.46092,14.9876,-8.07952
8.92204,0.375397,-7.59612,12.4518,7.60685,-8.06163,12.123,7.96238,-7.35018,13.1289,7.903,-5.76217,12.1084,8.61804
22.6453,0.783787,-3.37417,13.7431,-8.28314,-6.03381,14.3274,-7.67794,-5.27891,14.699,-8.06928,-5.45315,13.8535,-8.0281
5.12518,0.225533,-1.66,25.5038,1.78942,-1.09568,25.6647,1.81814,-1.68157,25.7923,2.96081,-2.01305,25.7629,1.5694
3.75014,0.177435,4.37345,17.7605,-7.17105,4.15013,18.0486,-7.34473,5.55994,18.0617,-7.26596,4.7581,17.2166,-7.35925
23.0471,0.402521,0.404421,0.711292,1.23675,2.9987,0.973775,2.63868,1.94744,0.304234,0.738969,2.87962,1.14985,3.27863
0.474395,0.0439,-5.56639,0.704141,-0.306005,-5.23051,0.663685,-0.728358,-5.11873,0.639993,-0.682783,-5.15997,0.652735,-0.729219
10.0298,0.171444,-13.4447,19.655,4.58502,-13.541,20.5505,4.1772,-14.1563,18.3006,5.14182,-14.2136,19.4548,4.35375
3.63148,0.153461,11.9503,13.112,6.32447,11.8303,12.7616,6.44418,11.6478,13.4651,6.57275,13.048,13.2022,6.3522
3.78222,0.358813,-2.98257,9.92703,8.10489,-3.79205,9.37045,8.53722,-2.67923,10.4405,8.41934,-2.11679,9.47873,8.44984
8.26917,0.0123354,12.2192,6.49922,-5.07904,11.3447,6.2223,-5.61902,11.0843,6.63425,-5.87776,13.1747,7.48514,-4.66194
0.611149,0.190663,-3.90177,18.4066,-7.16017,-4.00147,19.242,-7.23634,-3.96012,19.4511,-7.22293,-3.9132,19.4525,-7.23487
30.4621,0.479877,3.11677,25.5317,0.864742,1.56586,26.0732,0.857463,4.31438,26.0813,0.404581,4.54566,25.6136,2.58819
6.02378,0.288793,-12.554,24.1334,-0.812772,-13.3855,23.5029,0.743782,-12.8893,23.392,0.725588,-13.1132,23.4055,0.844225
17.1109,0.508294,2.59775,7.50068,-7.50733,3.70997,7.45357,-7.6786,2.00909,6.93945,-8.08851,2.38004,9.25778,-8.68943
1.94038,0.365534,-9.04667,22.9488,-4.0304,-7.65983,23.9668,-3.98456,-7.7901,23.7344,-4.14399,-7.51748,23.9965,-3.99129
37.2367,1.26342,15.4618,17.5047,-1.09328,13.7855,18.167,-3.8484,15.0452,16.6789,-3.6388,14.5472,17.1864,-3.40122
2.24573,0.0234955,-16.1212,12.6353,0.507225,-16.1993,12.9788,-0.276432,-16.2239,13.118,-0.461804,-16.1934,12.6468,-0.253658
3.84274,0.159419,5.16498,12.7676,-8.24284,5.85608,11.8038,-8.1191,5.1427,13.4001,-8.06226,5.17455,11.6519,-8.12034
3.021,0.162729,-9.66228,24.8316,0.369296,-8.98933,25.188,0.646483,-9.64578,25.0115,-0.423761,-9.89613,24.9325,0.666933
21.3356,0.283665,1.39168,21.6342,-5.95981,3.08823,21.0898,-6.60084,2.10717,20.6533,-6.77557,3.09065,22.3771,-5.97878
3.79842,0.269185,8.88867,2.01985,1.67716,9.29757,2.01183,2.45985,8.49551,1.77582,1.76795,10.0196,1.52174,1.17888
3.02509,0.238022,12.1066,7.63401,5.07917,12.6875,7.69328,5.1827,11.7739,7.63271,5.68114,12.1296,7.05832,4.78467
5.81217,0.211751,-7.44322,1.63334,1.57819,-6.01348,1.1546,1.14184,-7.27971,1.29284,2.28518,-7.72868,1.50243,1.37517
7.83225,0.390408,-2.87708,22.1264,6.36294,-2.82478,20.9988,7.37301,-2.9901,21.2807,7.17936,-3.6153,22.9202,6.1741
6.83924,0.373083,-3.92,3.89821,-6.33305,-5.05537,3.65627,-6.36432,-2.77782,3.3555,-6.81592,-4.27261,3.18749,-6.37417
0.240684,0.132298,2.06233,12.022,-8.67473,2.18344,12.2402,-8.62786,2.19798,12.0933,-8.65482,2.19327,12.315,-8.65124
50.1402,1.78769,-11.9447,17.8685,-4.97339,-8.33138,18.056,-6.56505,-7.32378,17.442,-7.04899,-10.2318,19.0036,-5.93186
30.9109,0.354153,1.44148,11.702,8.3308,5.89056,9.50541,8.69954,0.779359,11.4903,8.5449,1.25139,12.3528,8.86876
10.2684,0.239777,-0.83312,25.2228,-2.44397,0.516731,25.3577,-3.37164,-0.84796,25.4723,-1.95803,-1.32432,25.4886,-2.86932
15.528,0.268598,7.70961,7.76679,-6.96494,8.66589,7.8705,-6.93063,8.38479,9.9599,-7.31813,7.49164,9.87963,-7.6206
1.01724,0.121237,0.994534,1.02405,2.16839,0.978757,0.96438,1.9069,1.39536,0.879271,2.37576,0.644533,0.852165,2.23212
20.0475,0.435209,-0.554416,21.6691,-6.21406,0.685877,22.0294,-6.38946,-0.138534,19.636,-7.05432,-0.0379647,19.5687,-7.17046
3.57808,0.773758,-0.821623,0.945181,2.48441,-1.59731,1.01506,1.78229,-1.37993,0.962884,1.76265,-1.97763,1.03262,1.83026
3.68406,0.37712,7.80506,20.2502,-5.89805,8.80164,20.4766,-5.81988,7.31543,20.8033,-6.19415,7.91608,19.7044,-6.72195
0.802224,0.0110098,3.91475,9.34642,-8.43403,4.0489,9.0549,-8.38203,4.36209,9.20529,-8.32292,4.40725,9.13595,-8.31046
29.2645,0.04248,4.2399,2.01781,-4.1002,5.46462,1.89513,-3.74605,7.05163,1.82677,-4.9893,4.49695,1.98603,-5.35089
6.84542,0.343251,-1.02476,14.2899,8.29666,-1.05945,12.3624,8.99118,-1.40762,14.437,8.45457,-0.367786,14.6758,9.00257
1.76853,0.0357408,-3.62181,18.316,7.64678,-3.33878,16.8377,8.82371,-3.49858,18.0027,7.90036,-3.23225,16.633,8.94063
8.16668,0.118198,11.7952,12.9196,-5.82667,11.2217,11.275,-6.07506,10.9728,12.0024,-6.21179,11.8514,11.9466,-5.67469
3.78973,0.134911,-7.94619,15.2691,-7.3885,-7.48447,16.1191,-7.62485,-8.16302,14.9219,-7.48003,-7.51525,14.9311,-7.57234
5.20194,0.47553,4.96988,13.4412,8.29158,4.52929,12.6821,8.85283,4.90864,14.2998,8.80009,6.03541,13.3984,8.56564
6.902,0.260907,-13.1642,19.9225,-4.04049,-12.174,20.0083,-5.06823,-14.0158,19.8372,-3.75167,-14.3538,20.2063,-3.56392
10.2554,0.0953253,2.74657,18.6193,8.38363,3.69903,17.4599,8.61262,4.49332,17.9514,8.4119,3.93492,18.3632,8.39212
1.37712,0.227946,6.53445,5.6665,-7.29696,7.12003,6.17648,-7.29085,7.21109,5.81346,-7.22847,7.11768,5.97307,-7.24511
17.7361,0.601409,9.64077,22.3161,-4.22085,9.02666,22.5798,-4.93302,11.042,22.1048,-4.83039,9.90163,23.7699,-3.8099
2.32172,0.164636,9.55795,2.99168,3.47294,9.58928,3.37672,3.97363,9.10075,2.53026,3.84891,9.38383,2.44985,3.51592
7.12227,0.593885,-11.4049,3.96325,-2.93678,-12.0622,3.02712,-2.15532,-11.6929,3.86084,-3.90482,-10.3983,3.10534,-3.10121
10.0156,0.533947,7.25234,17.9485,-6.59888,6.45611,18.7729,-7.16898,8.22036,18.169,-6.81036,6.97987,16.6158,-7.69613
0.339641,0.049192,15.3414,20.3036,-2.59757,15.4576,20.3152,-2.29912,15.4549,20.3779,-2.3109,15.4509,20.2358,-2.32965
13.9563,0.088879,10.1545,17.5764,-6.21152,10.278,18.6903,-6.34456,11.9324,17.4496,-5.68146,11.4036,18.7076,-6.09045
2.84471,0.120935,13.4528,19.0968,4.83977,13.2056,19.3781,5.17606,14.1152,18.7463,4.57055,13.2438,18.8216,4.98668
12.4667,0.503614,5.5824,6.30798,6.88536,6.20391,5.43198,6.93125,4.54886,6.17888,7.47859,6.68231,7.63052,8.08334
27.4249,0.973643,-3.7109,0.708617,-1.41624,-5.18797,1.42591,-1.75555,-5.00879,1.81298,-2.47447,-4.25423,1.58127,-3.57864
6.63517,0.454945,13.5718,17.2618,-4.00124,14.4266,17.2847,-3.48403,14.0052,18.8476,-3.99223,13.6384,16.8666,-4.80293
1.74249,0.358045,-15.2298,4.50934,-0.852252,-15.3342,4.91002,0.235618,-15.3385,4.99221,0.152482,-15.3651,5.06137,0.153725
0.818015,0.0478718,12.7534,5.41083,4.6456,12.3937,6.18434,4.8578,12.7071,5.70571,4.70382,12.4343,6.25378,4.82523
5.3755,0.126029,12.9685,8.65322,5.60949,12.634,8.96974,6.01164,14.3094,10.1691,4.91346,14.0045,10.1912,5.28455
0.268662,0.28607,-7.17987,22.4865,6.18284,-7.19809,22.7726,6.08131,-7.05164,22.7719,6.1377,-7.09854,22.7721,6.11555
11.9514,0.715289,7.84931,1.94476,1.58672,9.23863,1.10925,0.91679,7.18583,1.17923,1.75981,8.66869,1.79111,3.18232
27.6056,0.726242,10.839,8.37701,-6.02351,11.4795,11.3651,-5.88797,11.643,10.6817,-5.69198,12.5019,10.2779,-5.44444
5.98693,0.296088,-12.2479,5.15669,4.04453,-13.0451,4.91607,3.91438,-12.4575,5.61061,5.50269,-11.6989,4.72918,4.09194
8.25424,0.332288,-6.60378,19.8237,-6.2549,-6.7008,20.2542,-6.26132,-5.31182,20.2637,-6.49308,-3.34161,20.5071,-6.56847
3.16063,0.0983222,-2.46446,23.1894,5.38716,-3.08621,23.1837,5.82195,-1.65517,22.8773,5.84555,-2.19375,23.3331,5.23951
8.32866,0.161571,-6.78733,14.3271,-7.41581,-6.73219,15.9252,-7.84488,-5.93972,14.4065,-7.71507,-7.37719,15.0078,-7.60566
0.560494,0.102593,8.99942,23.3222,-4.39492,8.44439,23.2243,-4.4208,8.50988,23.4308,-4.29792,8.44251,23.3568,-4.32848
17.3457,0.0425705,3.53933,25.0852,-2.92205,5.60978,25.1677,-2.39931,5.66161,25.3234,-2.02424,4.33022,25.5692,-1.58041
1.55126,0.179879,-3.91317,8.463,-8.13558,-3.79334,8.02606,-8.16881,-4.20253,8.59211,-8.33909,-3.36616,8.81243,-8.57241
4.48652,0.225352,-11.4321,6.20653,-5.09502,-11.4415,5.72945,-4.93358,-11.7736,6.32473,-5.3506,-9.86811,5.62776,-5.97676
0.0306298,0.00191762,-15.3889,5.46067,1.48849,-15.3774,5.42616,1.50129,-15.3719,5.45527,1.61061,-15.3503,5.3875,1.66015
3.35704,0.383279,-1.41933,21.9905,-5.72606,-1.00345,22.4273,-5.85786,-2.16908,22.4133,-6.12929,-1.22127,21.3779,-6.40344
72.9017,0.156216,15.9483,12.4635,1.50578,15.1163,11.6744,3.88109,15.3531,12.6279,3.46767,15.3259,13.5804,3.72113
12.4376,0.282164,-5.88084,2.6985,4.07086,-5.56167,1.15616,2.86831,-4.64307,1.3918,3.79498,-4.64023,2.32494,4.43488
0.750507,0.06504,4.27481,10.5895,-8.05893,4.61565,10.0399,-8.23282,4.60637,10.2507,-8.1619,4.1798,10.8711,-8.05643
13.448,0.114161,5.82356,10.6954,8.68923,7.88339,11.6259,8.47388,8.12045,10.8694,8.43234,4.08926,10.6623,8.68571
48.1794,0.40991,-6.33464,6.5022,-6.93886,-8.02698,5.9945,-6.86409,-6.60591,8.47395,-7.92172,-7.14733,5.51688,-6.90354
1.94316,0.0340833,-8.95378,22.2321,-5.16477,-8.45922,22.5512,-5.17155,-8.9529,22.7563,-4.73307,-8.32348,22.9735,-4.94011
6.4804,0.246276,-13.0163,3.82579,-1.33305,-12.1959,3.25542,-1.01621,-13.4538,3.76011,-1.13646,-13.9454,3.83959,-2.24225
1.14347,0.013154,7.91742,1.0029,-2.79033,7.49853,1.12149,-2.76686,7.14786,1.26329,-2.87844,7.15764,1.31358,-3.00513
0.812064,0.169151,15.5037,15.3475,-3.51569,15.5226,16.1637,-3.19981,15.5116,16.1579,-3.24065,15.545,16.1001,-3.19459
22.4284,0.494426,10.6673,15.065,-6.5145,9.12597,16.8623,-7.09587,9.12645,15.9729,-6.9704,7.69109,14.9659,-7.6725
6.55684,0.229115,-8.59796,18.5342,-6.2121,-9.00528,19.1666,-6.41835,-7.33041,18.7085,-6.6528,-6.97099,19.4111,-6.75072
2.78719,0.106076,7.71256,19.0322,7.44046,7.69703,18.5928,7.89816,8.24216,19.2514,7.28958,6.89105,18.893,7.86908
19.9553,0.483318,-13.9547,8.39988,-4.09779,-14.5121,10.0585,-4.67976,-13.9858,7.36259,-4.43516,-15.4285,8.35743,-3.82733
18.5413,0.426606,7.62671,5.63083,6.11577,8.62557,4.18099,5.80905,9.77143,5.61306,6.08906,7.74009,6.12776,6.74338
9.16978,0.393993,9.59527,3.94774,-5.42806,9.28783,3.42176,-5.84042,9.23506,5.49858,-6.67831,10.2371,3.89392,-5.55519
6.06582,0.238838,-7.57195,13.8818,7.71203,-6.5805,14.1155,8.45442,-7.44417,13.1171,7.86715,-8.1658,13.6438,7.67009
1.32235,0.129761,10.2798,5.60737,5.65332,10.5144,4.69768,5.55637,10.4741,4.64926,5.56091,10.3524,5.94712,5.50238
11.9202,0.421709,9.17727,6.94437,-6.24996,8.0077,6.95177,-7.07765,8.76828,6.67579,-6.79455,9.02055,8.56475,-6.95929
1.84743,0.474446,-7.59826,2.10057,3.37895,-6.81979,1.96293,3.8388,-6.83308,2.03277,4.00541,-6.87263,1.89283,3.70873
0.124183,0.0980386,15.8335,11.9806,1.65325,15.8418,11.9854,1.43843,15.8417,11.9377,1.50709,15.864,11.8638,1.6447
57.1278,1.06834,5.11418,4.35602,6.40335,5.19774,5.6916,6.98184,3.22933,4.77495,6.32964,1.17654,4.06561,6.74038
0.617504,0.188999,1.23123,16.7875,8.89533,1.52946,17.2064,8.76299,1.39061,17.3503,8.75221,1.62215,17.2161,8.7753
57.1065,0.201796,13.488,7.41323,-4.34363,12.1612,4.40175,-4.55611,12.9682,4.64306,-3.83053,14.1024,5.88055,-3.25361
2.85704,0.131581,1.64405,20.7117,7.15947,0.807658,20.7022,7.4527,1.62141,19.8215,8.04824,1.54347,19.8234,8.05749
0.547039,0.0426603,-4.41096,24.4366,-3.57266,-4.17924,24.3219,-3.85824,-4.68941,24.58,-3.58477,-4.17138,24.3324,-3.80957
16.3897,0.174878,-16.295,15.1397,-0.606836,-15.6959,15.2635,3.62362,-16.0675,15.8794,1.73399,-16.0813,14.5356,1.39409
13.7776,0.12957,-15.8383,13.2635,2.98981,-15.7725,14.8506,3.36136,-15.8664,15.0029,2.84294,-16.0843,14.1296,1.03205
0.608969,0.128298,-3.14622,0.303822,0.28832,-2.86416,0.31859,0.511489,-2.71995,0.27009,0.414304,-2.57746,0.214086,0.437675
5.61683,0.46118,-10.0975,2.7572,1.86761,-11.0022,2.1573,1.45188,-9.71289,2.19887,1.86188,-10.3082,2.64699,2.67879
3.81084,0.0464849,-10.9121,7.76579,-6.06923,-10.1152,7.56487,-6.2456,-11.1426,7.18981,-5.99297,-10.2061,7.06857,-6.15979
13.4276,0.325901,-12.1789,3.53178,2.1793,-11.8076,2.56243,1.07814,-11.3904,2.77578,2.63614,-11.2199,2.50655,2.10799
8.81082,0.462423,10.2423,2.47722,1.95102,10.6768,1.44084,0.443843,11.5448,2.41549,2.38925,9.72571,2.00075,2.28869
4.73,0.192251,12.7116,18.6638,5.13802,12.4641,18.5363,5.48129,13.8188,18.3182,4.73135,12.554,19.23,5.48587
33.7037,0.0387468,9.95506,11.2926,-6.5363,10.1401,10.0452,-6.31078,10.1986,8.02284,-6.17609,9.41621,8.43208,-6.7013
48.6715,0.201093,10.5314,12.9033,-6.65353,12.46,16.344,-5.60474,11.5515,15.4124,-5.99915,13.7211,15.3169,-5.04444
9.15599,0.956876,-13.7003,17.5578,-4.76786,-12.1924,17.7927,-4.90771,-11.9871,18.6273,-5.15405,-12.3308,18.1404,-4.79371
9.39062,0.266785,10.3312,24.0616,2.41731,11.9793,23.5656,3.19851,11.0655,23.9327,3.31447,10.1394,24.3864,2.78452
6.37764,0.529986,-0.952106,25.3229,-0.983166,-0.849751,25.4826,-1.91555,0.556309,26.3755,-0.416553,-1.85759,25.829,-0.919414
6.07578,0.286462,-5.57236,1.56309,1.6483,-5.41087,1.4225,1.29533,-4.64602,0.708516,2.49532,-6.426,1.17114,1.84914
5.18651,0.638014,1.2006,17.9246,-6.92537,0.473472,18.1181,-7.58674,2.31493,19.1976,-7.4341,1.94599,17.1694,-7.57825
5.12915,0.152632,0.252756,24.9358,4.19985,1.15156,24.9415,4.05971,1.20326,24.608,4.24456,-0.716004,24.8126,4.05315
9.27784,0.152666,-9.26429,7.34649,7.13481,-9.53672,7.12676,7.12512,-7.27634,6.71408,7.66507,-6.24872,6.17394,7.75575
11.6635,0.172062,15.4176,7.32886,2.51445,14.9601,7.33123,3.26667,16.0217,7.09874,0.470486,16.1294,7.35749,-0.0403406
48.2049,0.0342516,-16.0052,13.2619,1.70328,-15.9328,10.6815,1.77941,-16.2764,13.9373,-0.846874,-15.8176,9.96969,2.69573
0.765697,0.0471344,6.10118,3.32138,5.80729,6.25043,3.74793,6.12308,6.17804,3.73687,6.1213,6.27508,3.55382,5.93899
4.98886,0.150934,-9.194,8.42508,-7.02592,-10.5508,8.90812,-6.76621,-10.555,8.38634,-6.63215,-8.97826,7.99929,-6.79514
22.9003,0.59992,-9.97936,23.5849,3.0438,-8.97573,24.2762,2.11902,-8.43845,24.596,3.33019,-10.2986,23.9436,1.87972
4.03468,0.170184,13.8339,14.7153,5.87183,13.1204,13.9687,6.29303,14.5112,14.743,5.09695,13.0864,14.0901,6.31121
6.27489,0.438354,-12.8532,4.07259,1.7663,-12.4564,3.65313,2.10106,-12.629,2.92247,0.547142,-13.9995,3.94654,2.01269
32.1534,0.0780987,-12.2161,12.6927,-6.19331,-10.527,14.3992,-6.45716,-11.7386,14.7269,-5.7302,-11.8254,12.28,-6.43008
1.03579,0.0586781,-3.51315,8.41265,8.48679,-3.36959,8.48692,8.56799,-3.78204,8.33743,8.50523,-3.72972,7.91346,8.51301
11.666,0.816233,16.2442,11.3129,0.217026,16.1967,9.88294,0.0917804,15.8425,9.89412,-0.368181,16.1245,10.4871,0.735501
27.3275,1.30582,14.2332,16.9058,3.55612,14.8914,14.6166,4.54304,15.7712,15.6413,2.51881,15.6529,16.0822,1.82926
20.1465,0.648754,-14.4327,21.5304,-2.24581,-13.6945,22.1508,-2.89316,-14.1161,22.8496,-2.46576,-14.3159,20.413,-3.51407
16.0447,0.631066,-12.2093,10.7325,-5.46823,-11.6115,10.4933,-6.47574,-12.4459,12.5493,-6.13166,-13.4717,9.94174,-5.49666
33.0026,0.191581,0.900309,21.5341,6.33183,-1.22455,21.6932,6.77232,-2.36555,22.4097,6.37392,-1.49966,22.7836,5.94556
3.74514,0.258748,2.35984,5.91379,7.4459,1.77679,6.13478,8.07872,2.39573,5.07289,7.212,3.15753,6.22174,7.72313
10.4842,0.495721,14.2294,22.8579,-2.52713,13.0869,23.5285,-0.996144,14.0405,23.1927,-0.823388,13.8151,23.4767,-0.452439
7.30833,1.45478,-8.48714,4.49024,-5.36529,-9.92857,4.83276,-5.25957,-9.92519,4.90243,-5.28953,-10.0128,4.25741,-5.21869
29.9316,0.0561328,-4.35971,2.3721,4.06377,-5.02901,2.9053,5.75606,-2.22768,1.58994,4.17209,-4.08078,2.58584,5.811
1.521,0.143967,14.0359,18.8769,-3.96655,14.3112,20.0725,-3.9686,14.3098,20.3521,-3.98253,14.2163,20.3521,-4.06586
5.04174,0.0465755,-2.63151,17.9635,8.33821,-1.73134,17.9096,8.69558,-2.11889,18.1156,8.4553,-2.42989,17.2787,8.86882
48.0433,1.13623,14.2024,14.4058,-4.66068,15.8622,14.1037,-2.55154,14.8984,13.0045,-2.99945,15.3648,11.9072,-2.73287
25.6977,0.233316,-8.58642,7.59299,-6.46501,-10.1056,6.57836,-6.19343,-10.1319,7.61964,-6.27147,-6.69364,7.41689,-7.23153
32.8535,0.229094,-10.1197,4.86654,-5.26999,-13.1956,5.63103,-4.04978,-15.1549,5.65671,-2.98715,-14.4528,6.20804,-3.50795
7.1266,0.187668,10.6248,4.07925,-5.33135,10.6216,4.43131,-5.69316,11.9167,5.58911,-5.17511,11.9514,4.84114,-4.8939
0,0.00326241,-11.3017,16.263,7.48032,-11.3298,16.2413,7.47432,-11.2322,16.2679,7.48528,-11.2541,16.2673,7.48266
11.7549,0.531479,-2.58972,7.13937,-7.67858,-2.16796,5.88973,-8.11986,-1.47613,6.54351,-8.3193,-1.71538,7.57473,-8.42072
45.4499,0.706898,-6.7468,4.92774,6.39447,-10.2682,4.60884,5.12835,-11.0141,5.37945,5.94056,-6.67261,3.8063,6.02119
18.5662,0.503258,-13.6252,10.9564,-4.60335,-14.0046,12.8684,-5.17528,-13.2159,10.7849,-5.39342,-15.5068,10.1022,-4.03754
8.74475,0.332398,5.06221,5.32613,-7.0238,6.48802,5.45952,-7.24801,5.9066,6.0281,-7.51889,4.98991,4.53265,-7.10996
2.89583,0.0497787,9.13354,9.75428,-6.87572,8.57769,8.70058,-7.15623,8.71953,10.509,-7.00192,9.05887,9.12103,-6.98904
13.3783,0.55541,-1.45889,25.4336,-2.25773,-2.05473,25.7328,-1.32411,-3.23533,25.427,-1.34383,-3.56997,25.4664,-2.29845
17.6312,0.0922248,-0.0190865,10.2115,8.10626,3.25766,10.5663,8.54234,2.11581,10.3157,8.457,-0.00376911,7.93238,8.79902
159.648,0.0419329,-16.1614,10.6771,-1.38124,-15.9188,9.38027,0.939879,-15.4809,6.25354,1.91841,-15.4147,5.46722,1.34976
38.788,0.682621,2.27123,1.34876,-1.12103,3.37164,1.01084,-3.40147,0.971946,0.607691,-1.02676,2.26145,0.993551,-3.5118
3.92236,0.204721,-8.34875,4.58246,-5.43589,-7.57099,4.3878,-5.97127,-8.85292,4.93552,-5.50479,-7.81015,4.09707,-5.81192
4.34074,0.0570796,-11.2136,9.64112,5.98489,-11.2212,8.81081,6.19431,-11.5347,6.78815,6.40612,-11.4425,6.85899,6.43781
1.06047,0.153749,1.42864,13.4725,-7.82057,1.27602,13.2487,-8.17112,1.34413,13.6221,-7.93605,1.7989,13.4928,-7.89956
5.00733,0.507021,-10.5988,22.7422,-3.32286,-11.4888,22.9125,-3.85625,-10.4798,23.7089,-2.67206,-9.81909,23.1373,-3.84051
22.2356,1.14317,-7.45913,2.3852,4.3434,-8.88657,2.25457,3.30261,-9.29504,2.60789,3.79631,-8.3331,1.51282,2.40848
0.0729994,0.0199523,-3.47284,11.2787,8.88261,-3.70392,11.271,8.86432,-3.60632,11.0683,8.84639,-3.61234,11.2034,8.86792
23.8633,0.884237,6.48965,24.9215,0.635703,7.72007,25.2803,0.586381,7.08202,25.1077,2.74744,7.44591,24.7154,3.5143
3.2953,0.141556,-6.55794,20.8019,-5.87303,-5.86033,20.8805,-6.06045,-6.57426,20.4491,-6.18828,-6.62134,21.3654,-5.76641
14.5184,0.331359,-6.84935,23.6489,4.14632,-6.93558,23.2353,5.65917,-5.27038,24.3641,4.59413,-4.58259,24.4937,4.81295
13.8559,0.668442,5.26771,19.9983,-6.11744,6.11992,20.9313,-6.11035,4.16048,20.8965,-6.81015,6.03046,19.2492,-7.05381
20.1886,0.127554,-6.9728,1.1502,-0.735766,-7.63841,1.50558,1.23392,-7.82169,1.36726,-0.513347,-6.20623,0.718742,-0.71618
14.8419,0.288775,1.00223,24.216,4.61653,2.45687,25.1421,3.56866,2.11795,24.5565,4.07279,2.35214,23.8253,4.81085
17.1673,0.554223,13.0436,23.2216,2.05948,12.0644,23.6611,2.49387,12.7782,22.1109,4.23151,12.315,23.2512,2.48869
7.2198,0.273677,5.46009,7.13605,-7.25673,6.38944,7.06665,-7.47293,4.88871,7.12706,-7.56372,6.20408,7.6242,-7.57133
2.62425,0.227429,0.177975,11.4059,8.41504,-0.189943,11.7557,8.90474,0.692055,11.3498,8.53663,0.088812,10.6287,8.33502
1.79321,0.060689,3.1803,19.2084,-7.41913,4.0688,19.9916,-7.261,2.92935,19.5563,-7.16042,3.29259,18.7214,-7.56555
17.6145,0.0492114,12.6748,2.90063,-2.11109,13.7797,4.23644,-2.74427,13.171,4.0351,-3.41625,13.2917,2.45599,-0.408922
4.5063,0.157861,-9.19681,2.59447,-2.11504,-8.26588,2.21058,-2.63861,-9.48973,2.65355,-2.25373,-9.23043,1.87753,-1.41263
35.0846,1.13967,6.29346,24.2439,-4.44786,3.93057,21.7352,-6.32964,4.74882,22.0387,-5.74755,4.08855,22.8959,-4.83078
5.0701,0.359563,-3.47938,11.3812,-8.22507,-3.81715,11.9357,-8.70363,-2.2675,11.1748,-8.51891,-3.54092,10.6796,-8.46195
4.37047,0.352861,15.3048,18.7581,-0.807461,15.5282,17.725,-0.12552,15.6838,18.994,-1.41496,15.756,19.3198,0.144454
0.897318,0.163073,-0.0709506,23.7568,-4.66606,0.90398,23.9097,-4.74119,0.695193,23.9756,-4.72534,0.493368,23.8468,-4.78243
1.80782,0.127533,-9.9422,8.23029,6.96367,-10.4922,8.2913,6.95491,-9.62787,7.75546,7.22144,-10.1209,8.51807,7.02224
4.26226,0.549425,-4.3293,25.5665,-1.52995,-5.90601,25.1929,-1.59021,-6.16464,25.3466,-1.45817,-5.6321,25.2235,-1.69094
3.7299,0.0326116,-6.50617,0.950267,-0.337718,-6.07001,0.88523,-0.05315,-6.40417,1.05732,0.581394,-5.58553,0.746813,0.0132172
8.47588,0.0776213,11.86,7.47379,-5.41836,11.8524,8.94151,-5.65174,11.2749,8.5842,-5.82082,11.8254,6.98633,-5.46427
4.56276,0.298491,6.15834,24.7572,-2.51493,5.74807,25.0053,-2.71977,7.14835,24.9463,-2.74732,6.34862,25.4677,-1.66931
6.18471,0.595271,-2.44154,4.45461,6.28231,-2.75823,5.04405,7.31736,-1.39025,4.35184,6.72571,-3.09465,3.1948,6.42376
20.3679,0.894802,-3.5296,0.937508,0.989646,-2.96197,0.972593,3.44782,-2.47042,0.802376,1.22196,-2.74571,0.999682,2.16385
5.21785,0.232007,3.66627,13.7906,-7.87522,4.55787,13.518,-8.17557,3.67245,12.6048,-8.34636,4.03228,13.5812,-7.8863
13.3387,0.380931,5.79696,2.23476,3.82473,7.06036,1.696,3.6762,5.70244,2.83303,4.7844,6.28417,2.73938,4.61129
9.26683,0.154657,-4.70419,2.16693,-4.30632,-2.99528,1.87397,-4.9484,-4.10773,1.50801,-3.5964,-2.37368,1.69098,-4.88601
2.4867,0.220566,11.9111,2.2683,-0.0868172,11.551,1.84321,-0.0487906,12.2799,2.27009,0.149842,12.3759,2.09482,-0.580533
2.57372,0.29794,-7.8628,6.76167,-6.76049,-8.47726,7.10678,-6.60224,-8.88713,6.74762,-6.57011,-8.65942,6.82105,-6.55982
24.5386,1.01311,-1.02872,23.1009,-5.12875,0.926146,23.3636,-5.60351,-0.998023,25.2566,-3.8268,-0.145899,23.8089,-4.59374
4.12739,0.392206,-0.39332,17.3419,-7.41244,0.80556,17.647,-7.67333,-0.593404,18.1737,-7.41578,0.761308,17.5795,-7.71022
4.76776,0.27774,5.90207,18.5994,8.00897,5.86279,19.6531,7.38876,5.08499,19.128,7.98524,6.03932,19.4034,7.60737
4.42628,0.138981,10.7512,3.99221,4.11986,11.9479,4.0202,3.7622,10.429,3.73825,4.12253,11.0397,4.28946,4.9027
49.4072,1.0175,15.9736,12.9309,1.42757,15.8177,13.2447,-2.12104,15.6812,12.0258,-2.27255,16.0906,12.0515,-1.12343
13.6675,0.212195,-9.56584,24.6367,-0.810435,-8.0448,25.6294,-0.416989,-9.3759,24.6954,-2.23301,-8.36001,25.312,-1.36809
4.54346,0.191778,-6.92432,18.3481,-6.52969,-6.1215,18.9306,-6.94318,-7.28596,18.6333,-6.63245,-6.71483,17.9468,-6.7831
1.73837,0.0266236,-3.71204,0.515243,-0.519404,-3.21337,0.32322,0.275697,-3.33366,0.357431,-0.635936,-3.50536,0.42018,-0.0553341
1.53566,0.14499,-9.47078,22.7957,-4.08267,-9.54311,23.1434,-3.87648,-9.11869,22.9466,-3.98286,-9.38266,22.7043,-4.43585
0.247031,0.116989,-4.95353,15.5508,8.90142,-4.90691,15.1388,8.85268,-5.04212,14.9235,8.82176,-4.9554,15.0719,8.8401
21.7268,0.244244,14.3181,22.7164,-0.81055,15.0693,21.8422,-1.62559,15.5859,21.2265,-0.271092,14.8732,22.4153,-0.00838227
4.35104,0.0415557,2.83289,22.2538,5.64747,1.77605,21.3705,6.20403,3.1566,22.1199,5.66626,1.95297,21.1403,6.33946
7.23827,0.277166,9.39989,24.6592,2.8044,7.80675,25.0531,2.05088,9.12948,24.5196,3.3059,7.78462,24.9233,2.19899
26.7557,0.921634,-4.3335,13.2561,7.91507,-2.56575,12.1283,8.94936,-2.91719,14.0739,8.92721,-3.34967,15.1688,8.90004
0.93497,0.81739,-6.3047,16.9661,-7.11141,-6.05462,16.2766,-7.82155,-5.91583,16.2836,-7.85192,-5.96255,16.2789,-7.83017
3.55297,0.273212,3.57233,1.06375,-0.579873,4.33456,0.939678,-0.730598,3.54202,0.651125,-0.107623,3.04762,0.858186,-1.21549
5.64842,0.357697,-8.58971,18.0852,6.9179,-9.25235,17.5905,7.477,-7.21276,18.0379,7.76376,-7.12916,18.1258,7.73196
31.9542,1.32785,13.7081,18.0024,4.75464,15.283,17.2643,2.21543,15.2505,17.2693,2.09386,14.1358,16.811,3.99256
44.5843,2.12185,1.68014,24.985,-3.14089,3.05688,26.3109,-0.647599,0.688079,26.2446,-0.652331,1.39699,25.7594,-0.771964
16.6808,0.220046,8.74435,13.0255,-7.30313,10.8097,14.6618,-6.53014,9.16341,14.4927,-7.09789,10.7692,14.3056,-6.50092
1.06796,0.0633013,12.2023,12.572,-5.63332,12.2576,11.8006,-5.54877,12.4361,11.7388,-5.50057,12.117,12.0152,-5.58765
1.98186,0.04493,4.75842,20.5848,6.37747,4.3785,20.7634,6.38027,5.42559,20.2871,6.55231,5.48395,20.3678,6.43362
27.5167,0.243072,5.1468,14.2322,-7.64766,6.16602,11.9402,-8.01663,8.09702,14.6169,-7.55205,7.13988,14.4636,-7.50849
1.9214,0.128069,6.32794,1.62238,-3.0799,7.08485,1.30065,-2.91567,5.97415,1.44481,-2.96833,6.2801,1.69029,-3.44366
1.5843,0.07058,0.556162,6.3181,8.20994,1.11548,6.336,8.34012,0.354481,6.88647,8.55699,0.420232,6.10903,8.17452
2.90415,0.0774963,-9.24667,21.8922,5.71738,-9.90082,22.0573,5.28903,-8.82682,22.1939,6.03322,-9.37511,21.569,5.81824
8.25648,0.116498,-12.0554,24.2728,0.606407,-10.0427,24.6471,-0.975901,-11.1366,24.6612,0.393666,-10.9178,24.3463,-0.954997
11.1692,0.482836,0.0162361,0.952588,-2.86684,1.78583,1.03025,-3.7138,0.979455,1.53334,-3.85986,1.3084,0.603623,-2.35099
9.73751,0.0224333,6.26358,23.8676,3.96352,4.93018,23.7098,3.85148,5.09624,23.8769,3.78063,7.18344,24.6099,3.70688
1.16423,0.0523667,-11.3832,22.7664,3.86202,-11.4538,22.4609,4.16094,-11.6513,22.2733,3.70067,-11.6131,22.3357,3.70123
11.6855,0.191706,5.6105,21.826,-5.57107,6.15046,22.6054,-5.61398,6.29293,21.2126,-6.05496,6.79916,22.5383,-5.72593
20.4087,0.179274,3.38982,21.3652,6.06466,4.3201,22.3521,5.4492,4.87692,21.6062,5.88826,3.8132,22.341,5.40392
15.0407,0.684071,1.6114,21.5414,6.13079,0.214697,22.8369,5.63707,-0.0887484,22.7639,5.76911,1.71031,22.5275,5.92081
1.68136,0.19344,-15.7948,10.8424,2.9787,-15.3498,10.4722,4.23531,-15.3537,10.3401,4.22956,-15.6143,11.6219,3.72263
51.0575,0.510641,13.0352,24.0331,0.4971,11.3722,23.8666,2.32816,10.9787,23.9932,1.3337,10.5643,24.0711,2.19478
10.026,0.35931,-7.57078,21.1279,5.91161,-6.41188,21.804,6.43855,-8.01117,21.4262,5.95555,-7.6673,19.6025,7.51428
1.03416,0.0669865,-11.8965,15.9146,-6.26682,-11.7793,14.9353,-5.82512,-12.5527,15.1306,-5.93683,-11.7365,14.8631,-5.79613
25.2205,0.545719,-1.23922,17.8172,-7.22916,-0.0507707,19.1584,-7.52785,0.198702,16.2419,-8.41156,-2.60091,18.5625,-7.44197
44.2695,1.42176,-4.39239,20.2841,7.8448,-5.36611,22.6101,6.50687,-5.81128,22.0369,6.53815,-6.38578,21.0146,6.94839
11.2987,0.314156,-1.436,21.0938,-6.51621,-3.3334,20.9883,-6.2008,-2.82713,21.9033,-6.42619,-3.10743,20.7685,-6.14004
16.4071,1.17761,8.02529,4.05724,6.00498,6.42851,3.19659,4.77456,5.77621,2.88686,4.87265,7.59254,3.31719,4.9573
1.05565,0.0828327,-0.213174,25.9852,1.84506,0.185476,26.0026,1.80489,-1.04384,25.689,1.83147,-0.767494,25.8106,1.76745
6.19701,0.19121,11.2731,20.3836,-5.06444,12.0663,19.5378,-5.62902,10.9017,20.6502,-5.16096,12.4757,21.227,-4.90212
2.66935,0.122695,5.55798,4.40981,6.25913,5.20685,4.33444,6.37743,5.74783,3.92499,6.24473,6.29382,3.86795,6.2103
28.0213,0.343855,10.4621,20.7934,5.31718,6.41978,21.2837,5.71137,7.60609,21.8568,5.33173,6.70052,21.8395,5.39988
2.67866,0.514662,-11.4154,19.0587,-5.52608,-13.1131,18.8217,-4.37541,-13.0193,18.9752,-4.42242,-12.9621,18.9537,-4.43993
2.03457,0.0208217,15.0835,13.3783,4.21602,15.3025,13.3184,3.73381,15.4631,13.8465,3.41652,15.4005,13.8913,3.57366
0.529394,0.0335101,-4.97007,7.41596,8.32855,-4.79333,7.12198,8.2661,-4.52109,7.05939,8.26258,-4.47867,6.91641,8.2115
3.28429,0.0187247,10.1148,6.06669,-6.33395,11.0399,5.99588,-5.78435,11.3014,6.22126,-5.64851,11.3042,6.14711,-5.6429
3.45086,0.232879,12.5045,3.29385,-3.23031,12.3865,3.2049,-3.44988,12.5043,3.87371,-3.98186,12.0015,2.4497,-2.45034
0.081088,0.000419695,-1.90616,0.902126,3.20321,-1.78151,0.939711,3.40068,-1.85296,0.931764,3.3922,-1.70753,0.940467,3.35294
22.5322,0.361351,-10.4685,20.1831,5.55684,-8.72833,18.448,6.94569,-11.4403,19.6083,5.87226,-9.69072,18.5486,6.97282
0.582741,0.0445095,14.7885,15.4701,-4.55196,14.8979,14.8703,-4.38885,14.8262,14.9158,-4.48344,14.8541,14.8121,-4.43214
10.4122,0.0036778,15.3715,15.114,3.59156,15.835,15.0858,2.46785,15.4841,15.855,3.10157,15.824,15.7064,2.30866
15.3745,0.260797,-6.665,1.14227,2.28376,-3.97395,1.13608,3.57753,-3.33234,1.06522,3.63741,-3.85591,0.868329,3.14161
3.51261,0.172107,3.03423,0.282851,0.507838,3.54983,0.619228,-0.0674676,2.49372,0.270618,1.24958,2.246,0.301765,0.764963
1.27344,0.57134,-11.9991,24.333,1.1678,-12.7423,23.4556,0.608108,-12.7393,23.4607,0.558358,-12.7426,23.4804,0.744464
6.05819,0.274025,8.61885,17.6897,-6.52988,8.26551,18.0305,-6.80355,8.94396,16.9292,-7.14673,10.0598,17.7815,-6.27759
4.74384,1.14553,-12.3254,22.9014,-3.63616,-13.7629,21.8317,-2.97876,-13.5585,21.8052,-3.01557,-13.4068,21.7407,-3.0844
19.2602,0.11924,5.99918,12.4179,8.48338,7.64694,12.3895,8.50774,7.71253,13.7117,8.45422,6.13108,13.3309,8.56089
2.65832,0.179608,-10.7132,13.5904,6.92713,-10.155,13.1858,7.40227,-10.9439,13.3647,6.88678,-10.59,14.7196,7.79095
0.0227267,0.00259745,0.847927,5.93328,-8.24966,0.766982,5.93562,-8.26467,0.841667,5.98523,-8.25478,0.77446,5.98862,-8.2651
2.74058,0.239812,-6.48829,17.4466,-6.66999,-6.75519,17.8056,-6.79757,-5.48963,18.2417,-7.29488,-6.2651,17.0366,-7.04734
3.12407,0.168831,-7.51475,25.0937,1.76312,-7.68735,25.2632,1.60312,-7.79733,25.1186,2.17569,-5.90303,25.5801,2.10077
0.790881,0.160043,-13.2051,18.8144,-4.31911,-13.3937,18.6942,-4.49999,-13.3868,19.2421,-4.49264,-13.3823,18.7999,-4.42777
7.94036,0.207718,-11.5294,23.6771,2.825,-12.8276,23.4621,2.29326,-11.1893,24.3934,2.04421,-12.5504,22.9399,2.83225
2.3656,0.524412,-14.1915,7.94916,5.02077,-14.0714,9.89945,4.69261,-13.9331,9.96986,4.70889,-13.8863,9.96976,4.72658
15.3229,0.246998,-0.825878,20.7739,7.30929,1.41616,19.0053,8.36204,0.480257,21.0817,7.08841,1.00895,19.1766,8.33507
0.962486,0.209562,-6.11788,7.28084,-7.54069,-5.3577,7.30338,-7.90192,-5.55935,7.45338,-7.87939,-5.31189,7.37871,-7.91855
6.18282,0.0338988,14.9819,11.2711,-3.05199,14.3826,11.4781,-3.99077,15.2342,11.6019,-2.87644,15.0553,10.2685,-2.68217
2.05752,0.0430985,8.9308,11.9174,-7.10361,8.25778,12.1802,-7.32143,8.2611,11.6909,-7.25494,8.66112,12.2591,-7.2493
3.84486,0.184959,0.629889,0.832805,-2.737,1.69239,0.79567,-2.98421,1.63654,0.894488,-3.38295,1.55194,0.841317,-3.02242
3.47264,0.210027,10.5613,1.97111,-1.77325,11.6148,2.28402,-1.95422,10.7907,1.91306,-1.18465,10.307,1.5656,-2.06098
5.6989,0.00918991,-13.9078,6.99265,-3.98741,-12.1783,6.24368,-5.27055,-13.9654,6.34535,-3.89278,-13.4773,6.72579,-4.30789
6.32957,0.305164,-3.15044,2.87108,6.218,-1.09269,2.27284,5.46456,-1.03586,2.32958,5.547,-0.933701,2.56405,5.91109
39.1141,2.73443,-9.14666,21.5393,-5.16537,-12.1608,21.0133,-4.6541,-12.1607,21.0795,-4.6627,-11.8398,22.2669,-4.34712
11.8317,0.523294,8.99171,1.82046,-0.708437,8.48111,1.16009,-0.394695,9.30617,1.22831,-2.92745,10.0271,1.56412,-0.555707
3.47008,0.274984,-4.37337,22.0516,6.27515,-3.81466,21.7916,6.91365,-3.97269,22.7654,6.28485,-4.8241,21.993,6.51685
5.70907,0.0537171,-6.45101,21.6519,-5.6781,-6.86348,21.7102,-5.67336,-7.22733,22.1896,-5.79704,-4.8553,22.0895,-6.26507
3.72028,0.303606,-3.84005,2.19945,-4.97346,-5.29262,2.66759,-4.97468,-5.43911,2.67488,-5.12323,-4.85689,2.61238,-5.08228
0.427728,0.264808,-0.408451,22.7115,-5.97261,-0.957618,22.3539,-5.87444,-0.962038,22.4313,-5.87091,-0.868263,22.3255,-5.94546
3.71059,0.034494,-4.12848,4.51434,-6.70976,-4.09761,4.03812,-6.39893,-5.61718,4.48381,-6.39134,-5.65972,4.5572,-6.42642
0.479349,0.108759,3.11357,7.99541,-7.80798,3.14633,8.56083,-8.39992,3.24376,8.70261,-8.49783,3.05617,8.56317,-8.41713
0.0898041,0.0204749,-15.7027,15.5837,3.60193,-15.7575,15.6452,3.3508,-15.7512,15.5599,3.38781,-15.7509,15.8203,3.42355
68.6688,0.259732,-2.47405,15.187,8.99125,-2.16672,16.3839,9.07667,2.17738,14.7965,8.91707,2.80024,15.2184,8.81184
1.33195,0.132471,5.08158,24.7077,3.76374,5.44624,25.319,3.28886,5.09459,24.357,3.84008,5.34403,25.0401,3.6154
4.94811,0.344366,-12.9383,13.7409,-5.12287,-13.2481,14.3461,-5.18097,-13.7498,13.3347,-5.2432,-12.493,13.741,-5.74369
4.35991,0.00423963,-16.0426,11.0456,0.758332,-16.124,11.1029,-0.160926,-16.0881,12.0116,0.723237,-16.1263,11.2115,-0.128692
4.86751,0.209585,-0.546062,6.6693,-7.99907,-0.692767,7.24019,-8.00828,0.433525,6.84394,-8.34613,-0.889683,6.39205,-8.25091
2.70823,1.97836e-05,-10.3718,21.9879,5.0077,-10.2879,21.3025,5.26049,-10.5001,20.9523,5.36916,-10.6289,22.4107,4.83531
71.8996,1.68049,-16.2078,19.3477,-0.279971,-16.1515,15.5822,0.947383,-16.3541,15.5812,-1.44098,-16.2845,15.5283,-0.295318
6.52547,0.478658,5.50756,3.90718,-6.53713,7.57755,4.10192,-6.35189,5.52134,3.34559,-6.62282,7.23876,4.07504,-6.53264
1.63347,0.384165,11.9912,11.3165,6.94791,11.76,12.4228,6.64533,11.8772,12.6879,6.4566,11.7975,12.4842,6.58357
0.89761,0.104663,-6.22479,2.63033,4.16684,-6.72563,2.64514,4.83116,-6.80521,2.64976,4.82933,-6.50473,2.57261,4.39558
2.53316,0.265403,4.36665,4.73219,-7.38242,3.31796,4.8045,-7.40667,2.88973,4.70123,-7.18317,2.93884,4.6303,-7.14965
1.40088,0.0934311,15.7822,16.0862,-2.5429,15.2283,16.5522,-3.23521,15.3986,16.5071,-2.79955,15.5219,16.5073,-2.35788
3.64654,0.0738092,-1.84917,4.33016,-7.34353,-3.79979,4.52412,-6.86814,-2.53893,4.27002,-7.15504,-3.80313,4.45028,-6.82178
5.31847,0.0352555,4.28236,7.03281,8.16294,5.76459,7.324,7.99202,5.51253,7.82361,8.28133,4.60517,7.45562,8.26938
58.6026,0.352518,11.4859,2.18388,1.15797,13.64,3.33004,1.51399,13.5643,3.33142,1.55545,12.9508,2.38082,-0.00402346
2.03957,0.0575876,15.9393,15.3322,1.72586,15.87,15.7934,1.97371,15.8683,15.0121,2.12271,15.8623,15.1779,2.25741
41.6173,0.803441,-12.1754,3.45976,-0.221815,-11.2577,2.1645,0.306276,-12.5394,3.18525,-2.16652,-10.3218,2.10738,-0.709786
18.0389,0.270929,-0.236581,17.2518,8.88896,-1.65426,15.9785,9.09785,-1.89896,16.6681,9.05514,-2.36163,16.8621,9.01324
1.83881,0.0943122,-2.59843,1.06313,1.76171,-2.50215,0.957563,1.51003,-2.58685,1.00072,2.09852,-2.04706,1.07166,2.03485
24.6431,0.381154,-4.96544,24.603,-3.55517,-7.54147,24.7718,-3.07063,-7.2029,24.1304,-3.4478,-5.64737,23.8589,-4.07109
21.1463,0.042084,15.4566,8.48133,2.52955,15.7482,7.53819,1.30484,16.1692,8.35529,0.232454,15.9488,8.95103,1.22141
27.1371,0.0981826,2.58406,21.0385,6.40416,2.2238,20.0215,7.75953,4.20126,21.0814,6.18771,0.846228,21.4436,6.44046
19.3639,1.63371,0.228051,1.4824,-4.35027,-1.60369,2.08718,-5.13952,-1.43411,1.69116,-4.26258,-1.6553,2.0372,-5.49479
6.72766,0.6799,-0.359202,4.64094,6.10709,-0.145685,5.15124,6.94068,-1.39093,3.79734,6.59396,1.12091,3.56217,6.52669
21.9816,0.196144,13.0263,4.04755,2.52103,14.1008,4.20307,1.74487,13.731,5.33163,2.83349,14.1978,5.36692,2.58986
3.05398,0.573195,5.08172,2.63725,5.22383,3.93569,2.94697,4.78631,3.58143,3.0097,4.89128,3.93134,2.97958,4.82664
3.31138,0.298762,13.2056,14.4727,-5.30367,13.7432,13.6384,-4.94924,13.8623,14.2018,-4.82014,13.776,14.1291,-4.85947
8.13091,0.324914,11.5005,14.0105,6.55474,12.2351,14.0305,6.62801,10.4877,14.4403,7.58977,11.4732,13.3916,6.66099
4.44317,0.226599,-7.92109,11.531,-7.5372,-6.68279,11.3312,-8.0762,-8.22885,11.9325,-7.77304,-8.27501,11.1507,-7.60278
7.34876,0.327521,8.09809,3.29977,4.33563,8.26351,2.07481,3.69505,8.92841,3.28193,4.67182,7.74604,3.15652,4.68085
0.886366,0.474234,16.139,7.26005,-0.48495,16.0021,6.89338,0.260457,16.0533,6.85157,0.0617817,15.9983,6.91372,0.41646
18.5546,0.55528,10.5705,3.52117,3.73641,13.0563,4.5314,2.78998,12.044,3.84925,3.28456,12.5874,4.80462,4.33357
62.3509,1.50939,-7.89601,1.3152,-0.246164,-9.87995,2.39167,0.0964532,-11.1726,2.14182,0.757309,-9.78998,2.01571,-1.38938
11.8328,0.708492,-4.73768,4.82306,6.19392,-3.44908,4.95919,7.23865,-4.56903,2.93599,5.85532,-6.01774,5.31927,7.23263
4.40821,0.199634,0.467692,5.45363,7.17369,1.3464,5.49147,7.75698,0.31609,4.81464,6.93865,0.0753211,5.58903,7.37961
35.3062,0.575513,-0.913776,4.20509,-6.61182,0.586966,4.56499,-7.48413,-0.230079,2.61433,-6.47562,0.364686,2.62485,-6.49919
5.8682,0.198075,2.97273,12.649,8.77328,2.94229,14.162,8.25635,3.07874,14.1688,8.24202,3.00162,11.3282,8.84364
45.5754,0.140176,13.8586,21.3095,3.75675,15.5258,20.736,1.6074,15.145,22.1586,0.626431,13.3824,22.5441,2.82822
0.0489646,0.00217169,1.02115,18.7279,8.49605,1.02469,18.663,8.51984,0.84731,18.7325,8.51837,0.88933,18.6376,8.54522
0.833644,0.176093,-10.7057,20.3145,5.48259,-11.2346,20.5857,5.32665,-11.2799,20.7352,5.34752,-11.0845,20.3757,5.38604
51.7935,1.60941,2.14168,22.7624,5.57697,-1.17245,25.6561,3.3172,-1.62598,24.255,4.28985,-1.62351,24.2213,4.32156
2.84192,0.326639,-14.3393,10.4711,4.83105,-13.9797,9.96826,4.6971,-13.8381,10.2857,4.78026,-13.5975,10.2934,4.94103
0.931944,0.0801597,4.70268,23.8717,-4.25928,4.34408,23.985,-4.36829,4.96297,24.1819,-4.17355,4.90329,23.626,-4.40839
10.9208,0.22413,11.969,6.7987,4.798,14.6505,6.95322,3.51828,11.8143,6.38788,5.07257,14.643,6.72707,3.47884
0.0149863,0.0464607,9.26856,17.9673,7.84525,9.20953,17.8785,7.8835,9.18981,17.9697,7.85901,9.1905,17.9063,7.86974
12.1814,1.23234,-7.75832,2.32496,-4.2573,-5.57216,2.02767,-3.43805,-4.8482,2.11581,-4.1865,-5.20083,2.13719,-3.90818
4.65435,0.22828,10.2417,7.75286,-5.93264,10.9395,6.97501,-5.8569,9.87048,7.66326,-6.43434,10.5188,8.02687,-6.00494
42.0423,0.346177,10.2464,19.6928,5.43733,12.9328,20.2846,5.34657,12.3118,20.9026,5.15046,12.2952,18.7831,6.00438
31.2589,0.555702,14.8287,6.96862,-2.78438,14.0383,4.15616,-2.40522,14.0266,4.08618,-2.36549,13.3155,4.74622,-3.57406
5.32743,0.0335462,-12.1411,9.59407,-6.06295,-11.8645,8.25505,-5.49479,-11.9851,8.28001,-5.43742,-11.741,8.08721,-5.48057
4.20318,0.123393,13.9993,4.9381,1.85054,15.6896,5.45064,0.615548,14.1528,5.20077,2.14014,13.786,4.73828,2.12804
7.41099,0.0319625,1.51131,13.8909,-7.78456,2.04117,13.4812,-8.04365,2.75501,13.4998,-8.46532,1.70518,15.9933,-8.39009
4.95815,0.859325,-13.4369,12.452,5.49826,-14.4166,12.6317,4.86314,-13.9563,12.9267,4.93838,-14.1441,12.7879,4.88251
13.7406,0.073128,0.118722,0.802399,1.28759,-0.918455,0.836488,1.71506,-0.788808,0.952191,3.11515,0.479327,0.838909,2.79913
1.44644,0.0876648,-3.23273,25.3618,-3.30201,-4.33369,24.4386,-3.56848,-4.18743,24.4443,-3.61571,-2.94476,25.3807,-3.49658
1.37147,0.0599243,-4.8013,16.3745,-8.07277,-4.23322,15.8934,-8.26235,-4.55868,15.8212,-8.17164,-4.59997,15.68,-8.18074
1.60268,0.0193985,-3.80867,26.1671,0.652109,-4.25237,25.7821,1.05048,-4.07611,26.0158,0.74898,-4.04523,25.8255,1.1599
9.50077,0.418276,-12.1163,21.9358,2.95642,-12.2329,21.4942,3.34241,-11.6953,22.6192,3.49604,-14.4938,21.6403,2.88925
80.269,0.317179,-4.22263,11.1825,8.65964,-4.8448,9.26913,8.10688,-5.84507,10.5889,8.33263,-6.7092,8.68186,8.11227
4.17218,0.20577,3.29442,3.07549,4.95015,2.47379,2.67441,5.85507,3.58061,3.03801,4.97811,2.80855,2.01774,4.49979
1.60921,0.129851,-13.8819,13.9769,-4.34474,-13.6864,14.0133,-4.87147,-13.6551,14.0801,-4.8708,-14.236,13.8462,-4.15411
4.85151,0.210542,10.2877,6.29062,5.36849,11.8183,6.24351,5.08191,10.1414,5.81399,5.67209,10.1844,6.578,5.60612
4.44132,0.286109,-5.44831,10.2542,-7.94284,-6.10617,9.94526,-8.20296,-6.11286,10.2201,-8.17108,-5.02822,9.19234,-8.39385
2.60529,0.133735,3.8522,6.1576,7.33904,3.75207,5.65924,7.1717,3.55581,6.37714,7.65031,4.51016,6.25629,7.55203
5.70812,0.185961,-1.2378,5.13346,6.99039,-1.11272,4.57016,6.77497,-1.6918,5.42794,7.52608,-0.0220078,5.52594,7.32832
1.79271,0.125643,8.06439,24.7025,3.09939,7.74866,24.3306,3.64661,8.11615,24.8351,2.51017,7.82105,24.3284,3.64022
1.09029,0.00722412,-16.0122,10.4291,-3.26754,-15.8805,11.0392,-3.64947,-15.8593,11.0419,-3.68909,-15.7367,10.3176,-3.76774
64.9706,0.0984106,15.1895,10.307,3.44083,15.9755,10.5486,1.15715,16.1068,8.75858,0.671622,16.2121,9.59144,0.339969
6.5151,0.459859,-0.620035,1.05734,-1.37251,-1.13073,0.754169,-1.64477,0.47212,0.612828,-2.29308,0.0920751,0.076604,-0.195517
4.72357,0.240377,-1.02074,5.34386,-7.49538,-0.281388,4.72626,-7.46961,-0.472981,5.85938,-8.19155,-1.45488,5.42132,-7.78199
12.7906,0.50485,7.27432,23.1657,-4.39014,7.16742,22.7998,-5.47013,8.67638,22.9078,-4.82736,6.84809,24.0077,-4.48265
42.979,0.795589,1.94869,1.99043,-5.52304,3.26405,2.92087,-6.66408,5.79274,3.07061,-6.50374,5.69719,2.78843,-6.39351
29.1522,0.268696,-4.72403,23.0591,-4.84861,-2.12549,23.5836,-5.44679,-4.33118,24.2733,-3.94499,-3.852,22.749,-5.91378
3.25317,0.210582,10.8211,18.7521,6.23958,11.0013,19.0792,5.98052,12.0463,18.0928,6.64135,10.5032,18.9057,6.73594
28.3331,0.52187,-3.89506,17.5008,-7.07871,-5.05622,16.638,-7.85806,-4.77535,19.0168,-7.22937,-2.53923,17.8004,-7.5246
17.5687,0.757615,13.4268,17.416,5.65953,11.7742,15.3621,7.32048,12.5504,14.9459,6.75598,12.206,15.5029,7.06345
40.767,1.79748,-7.31836,25.5642,0.314006,-6.34875,25.4315,-1.25382,-7.3904,25.2762,-2.02116,-4.44736,26.0947,0.00898292
1.68014,0.200553,4.08369,25.7029,-0.913884,4.5238,25.7219,-0.9524,4.39976,25.6824,-1.33071,3.53848,26.1934,-0.828778
4.95053,0.324462,10.7394,23.8216,-2.29292,10.2975,24.1962,-2.33634,11.6196,24.2656,-1.65794,11.322,23.8097,-3.23815
1.08721,0.102967,15.951,5.63759,-0.766195,15.9177,5.23559,-0.495057,15.8655,4.95822,-0.155897,15.8076,5.58443,-1.35601
4.066,0.266799,-13.2978,11.8883,5.31301,-13.3328,12.3213,5.53794,-12.5219,12.2074,6.08728,-13.6736,10.9015,5.55851
2.99269,0.222606,-12.6624,19.215,5.06389,-12.8641,18.7425,5.49683,-11.7396,19.8546,5.63958,-12.963,19.6463,4.90492
10.9861,0.0799732,-15.3619,6.0856,2.41081,-15.6868,8.8149,2.78834,-15.5455,8.21375,3.12522,-15.484,7.80505,3.18919
4.83094,1.52342,10.0952,18.8955,-6.36458,8.59991,18.66,-6.56989,8.52165,19.0843,-6.72831,8.7089,18.2504,-6.66373
3.73138,0.234684,0.860338,7.32919,-7.977,0.559371,7.6851,-8.38267,0.7404,6.97831,-8.15564,2.04155,7.43043,-8.00676
5.06781,0.0865436,-14.4118,11.6725,-4.4897,-14.5256,13.3847,-4.70377,-14.128,11.5999,-4.63896,-14.8746,11.5143,-4.45651
0.430506,0.00215251,-3.49502,12.2867,-8.79576,-3.31218,12.3636,-8.82097,-3.45393,12.57,-8.80464,-3.31334,12.5685,-8.82458
1.5686,0.00624651,-6.75404,6.99875,7.88651,-7.36272,7.40956,7.81441,-6.93248,7.36327,7.93716,-7.36303,7.3399,7.79245
2.1782,0.179062,-5.29094,25.141,2.20935,-5.74714,25.3511,2.48234,-4.95689,25.2901,1.90913,-4.62112,25.3654,2.878
9.34451,0.506751,-2.63348,2.49817,4.51089,-3.27842,2.0434,4.5002,-0.747397,1.06294,3.98037,-2.31724,2.57607,5.73114
0.97461,0.0155724,-2.7717,26.1454,1.55358,-3.17205,26.0504,1.41638,-3.63295,25.8346,1.44145,-3.55825,25.8247,1.53384
27.4788,0.624831,14.9376,17.1033,1.48727,15.757,16.4282,0.85191,15.7408,18.9534,0.770912,15.4918,16.2577,1.88852
7.37014,0.278343,-6.41588,1.39742,-1.92347,-5.24394,1.49897,-1.87583,-5.79449,1.91469,-3.15119,-5.13637,1.85588,-2.51532
7.26287,0.48457,4.57856,1.2229,-1.38214,6.00268,0.869993,-1.92607,3.98834,0.847474,-1.98574,5.25108,0.94168,-2.31772
0.392903,0.0269522,6.70733,0.409063,0.450306,6.59139,0.745628,-0.0145629,6.73022,0.624076,0.141164,6.66543,0.744202,-0.0102279
4.59711,0.280857,0.0655604,20.0023,-6.8437,1.21366,20.5738,-6.99846,1.41608,19.8828,-7.18008,1.18136,20.0171,-7.05312
0.0467492,0.00165018,0.312511,17.4892,8.79443,0.380505,17.4858,8.78632,0.349935,17.3268,8.83481,0.391464,17.3946,8.81106
0.3122,0.0613133,-14.8198,4.13766,1.03052,-14.7647,4.00496,1.07743,-14.8723,4.06407,0.823296,-15.0128,4.22353,0.933738
1.17548,0.0182987,2.5257,2.83638,6.19514,1.43003,3.17394,6.32878,1.55254,3.26161,6.44006,1.33849,3.27997,6.42233
84.6491,0.334202,9.05077,17.8907,7.91199,6.37333,15.7695,8.63543,6.29924,16.5278,8.47149,5.57499,17.9674,8.28483
5.56579,0.438031,15.8093,13.8058,1.8906,16.1989,14.4581,0.0365519,16.2024,14.1267,0.204926,16.1986,14.4073,0.0315894
5.91051,0.247117,-9.57123,13.6906,7.34662,-10.0426,14.1769,7.71384,-9.9619,13.2651,7.47033,-8.16181,13.7206,7.67321
5.86041,0.413731,8.32544,6.59191,6.39461,9.67511,6.5638,6.29048,8.05577,6.68817,7.30687,8.40707,5.86066,6.19429
5.15345,0.299527,-3.68728,20.9884,-6.34986,-5.07241,20.7544,-6.16502,-5.20971,20.8964,-6.19645,-5.81442,20.967,-6.05199
30.8559,0.369141,5.73687,23.2131,4.43719,7.39832,22.7877,4.95487,7.686,23.7924,4.06008,7.73178,22.343,5.26119
4.32203,0.128006,-14.2711,14.1941,-3.94989,-13.9571,14.0263,-4.23644,-15.3013,13.5362,-4.11032,-14.4106,14.4665,-3.94646
17.5181,0.0513951,8.29259,13.9949,-7.57754,8.25714,12.3164,-7.35034,7.10331,11.8904,-7.7151,7.9061,11.6121,-7.35982
4.1984,0.184755,-9.56664,9.87449,-6.69955,-9.47907,10.2292,-6.69185,-8.82016,9.74283,-7.33621,-10.1746,9.517,-7.00995
0.880795,0.108405,-8.26519,16.3518,7.51754,-8.01541,16.3666,7.73409,-7.76532,16.5876,7.97729,-7.91714,16.1786,8.17499
4.69187,0.17469,6.38975,13.1259,-7.64076,6.30202,13.757,-7.75628,6.65029,12.3676,-7.8742,7.09947,12.582,-7.80063
8.15753,0.074695,-15.9573,17.7611,2.29234,-16.1501,17.1008,1.24035,-16.1131,17.7762,1.30153,-15.5181,16.589,3.99991
0.75156,0.20606,15.0191,8.52773,3.4308,15.322,8.83139,2.97673,15.363,8.79728,2.80115,15.3449,8.50149,2.92992
1.19455,0.0985581,-0.76011,12.8626,8.85145,-0.277397,12.2423,9.04092,-0.23849,12.4511,9.01303,-0.322704,12.2422,9.04038
1.94931,1.05121,8.28709,13.4279,7.78247,8.0912,11.9764,8.33694,8.3275,11.6331,8.34539,8.27997,11.7001,8.33583
27.6356,0.510201,-4.50098,25.3195,1.5697,-2.54733,26.062,2.13688,-4.62381,25.9461,0.799787,-2.87014,25.877,2.97268
45.3531,0.797842,-0.21142,2.61117,4.86248,1.5924,2.62522,5.6717,2.69293,2.32564,4.8838,1.47535,1.13074,3.62542
2.10596,0.166579,-1.78609,1.68238,-4.1422,-2.18517,1.66645,-4.74296,-1.43994,1.62446,-4.14231,-1.87632,1.31225,-3.93884
28.6958,0.304848,6.75276,9.01521,-7.38946,4.62823,9.55452,-8.28542,4.09708,8.92395,-8.38216,6.3932,8.11446,-7.74033
11.8284,0.805879,2.47442,4.06583,-6.30223,4.07896,3.75166,-6.96678,0.919473,2.78004,-6.63623,2.38473,5.40974,-7.88601
7.96325,0.180954,-12.9472,16.5055,5.78786,-13.5196,15.8054,6.30537,-10.878,17.0078,7.19452,-11.2884,16.7595,7.11552
4.33758,0.228879,1.23991,4.61137,-7.03617,1.16049,4.11579,-7.12298,0.989467,4.772,-7.4124,2.24424,4.77525,-7.08892
10.6986,0.427767,-13.7658,16.9761,5.14473,-11.6014,17.3337,6.88788,-14.2179,16.3482,5.52235,-14.3758,17.5938,5.14395
6.11458,0.426328,7.92571,1.5839,-4.35987,5.40334,1.92176,-3.88554,5.62452,1.94481,-4.10611,5.3372,1.92478,-3.9367
0.0347478,0.0148967,9.80338,11.5882,8.02447,9.91959,11.6655,7.95669,9.93459,11.59,7.97385,9.8609,11.6735,7.96975
13.6581,0.0299408,4.05262,0.118096,0.965351,3.50265,1.32254,3.12808,4.66819,1.13333,3.50552,4.389,1.32257,3.70809
5.48745,0.560535,-13.2588,5.17431,2.80849,-12.611,3.97813,3.27518,-13.4321,5.34947,3.49438,-14.6201,4.74954,2.54995
5.51963,0.42813,3.41362,20.0927,7.32316,4.20478,20.4797,6.91074,4.32158,20.6969,6.44948,3.67977,19.6901,7.63355
26.9579,0.60418,0.980588,1.75648,-4.11812,1.97871,2.3494,-6.06886,2.43537,1.19252,-4.1511,1.04403,1.83865,-5.38453
3.17971,0.0370089,-7.2914,3.62708,5.28584,-5.9844,3.20746,5.85355,-6.88755,2.73007,4.89634,-7.80841,3.73756,4.95071
1.33117,0.115646,3.80604,7.46262,-7.74216,4.12583,7.38947,-7.83624,4.63403,7.39329,-7.84586,4.54371,7.47864,-7.93066
4.64096,0.365046,-10.0501,17.1269,-6.11222,-9.54266,16.9911,-6.76284,-10.6405,16.6123,-6.59844,-10.1217,16.7459,-6.33245
35.6759,0.73205,-7.05888,13.5487,-7.33345,-9.15937,13.5845,-7.33213,-9.1754,14.3479,-7.28862,-7.99868,12.2098,-7.83156
54.1406,1.96395,0.210734,15.6182,-8.44762,0.859291,12.9112,-8.64185,-0.203857,13.5878,-7.97045,-1.10038,13.2331,-8.68207
20.2999,0.452365,8.05266,20.3367,5.92314,5.66027,21.1546,5.83703,5.15304,22.0897,5.51078,5.11465,21.0335,6.11298
5.57075,0.0634711,-12.3643,20.9604,4.20743,-11.8544,21.9131,3.64298,-12.2202,21.471,3.38431,-12.3288,20.5166,4.96966
6.64313,0.878437,-2.12813,11.1136,-8.53331,-0.742007,11.4932,-8.84539,-0.826221,10.9359,-8.81991,-0.740803,11.4261,-8.83628
0.775388,0.0875502,14.7192,11.915,4.63886,14.8304,11.7559,4.33197,14.8736,11.9631,4.30588,14.924,11.836,4.22357
3.54663,0.145185,7.24477,5.49929,6.38847,6.50077,5.56792,6.81915,6.44686,5.21302,6.76804,6.70265,5.73479,6.78134
0.134429,0.0373267,4.42409,11.8486,9.02722,4.55589,12.0038,9.03724,4.56097,11.8475,9.02582,4.60839,11.7854,9.03372
35.7423,0.000233364,7.53559,24.7583,-2.36975,8.33576,25.2886,-0.995935,9.64326,25.27,-0.60623,10.5069,24.679,-1.56217
0.497222,0.0837307,3.1381,9.03957,8.9367,3.30583,9.67873,8.89621,3.21288,9.73683,8.87339,3.3096,9.53283,8.89625
6.10888,0.205801,-2.14596,24.019,4.258,-1.22235,23.3632,4.99264,-1.41861,25.376,3.65115,-2.50367,24.0656,4.45308
4.0647,0.567751,7.74729,23.4981,-4.20861,8.26895,24.371,-3.50559,7.63,24.5434,-3.60307,7.90602,24.2112,-3.573


