
2.72092,0.0616099,6.78371,11.2367,-8.51315,6.42148,11.4932,-8.75309,6.19476,10.1473,-8.34674,7.10055,11.1953,-8.49084
11.8051,0.00240067,-3.5867,28.0739,7.52716,-4.98432,28.3969,7.17074,-2.51723,27.8483,7.79666,-3.76474,29.2803,7.06204
5.53443,0.0695161,-12.1769,28.4847,-0.757162,-11.7925,29.6091,-0.712045,-12.4657,28.076,-0.532089,-12.1386,28.4333,-1.49023
5.78671,0.0726431,-8.19636,3.77904,-0.8532,-7.75375,3.80797,-2.0915,-7.09875,3.2619,-2.17521,-7.63694,3.73003,-2.18302
23.049,0.131846,-8.84676,23.9891,6.42153,-11.2355,24.2771,4.61468,-11.2108,24.7881,4.54531,-7.48622,23.4079,7.26931
4.14372,0.168297,13.1178,11.7421,2.71897,13.4342,12.6769,2.66392,13.2463,11.105,2.4994,13.1617,10.6294,2.58587
1.15109,0.0155087,14.2656,15.1831,-2.29498,14.1367,15.4889,-2.77502,14.0177,15.2475,-3.04245,14.3723,15.5279,-2.05906
3.32446,0.378211,-11.806,9.2677,3.87547,-12.3049,9.6592,3.11733,-12.7292,10.5188,2.69095,-11.8763,8.81546,3.49066
14.684,0.331638,-3.62784,3.32995,-4.96479,-5.94647,4.12499,-3.27806,-5.3501,3.77335,-3.50374,-5.76257,3.96551,-3.1009
2.11174,0.487918,-5.21327,30.9331,5.64985,-4.71379,30.5996,5.82353,-4.5448,30.8874,5.85723,-4.55641,30.8066,5.82789
11.3667,0.216445,-8.00478,19.526,7.32219,-7.85466,20.9214,7.13624,-6.46898,19.7768,8.42548,-6.64927,20.5634,8.24408
0.858148,0.103814,8.94464,22.0471,7.33937,9.2097,21.9623,7.25928,8.71938,22.1338,7.65217,9.15187,22.2472,7.37645
1.02825,0.0449537,4.96437,1.29601,-2.46945,4.47279,1.20304,-2.71786,4.98294,1.14457,-2.24231,5.09269,1.36835,-2.64768
180.951,0.146623,14.3761,22.4711,0.35439,13.8128,23.5414,-2.70319,14.5413,20.9498,0.700848,14.4821,20.2669,-2.07953
5.15785,0.127655,-13.9315,22.206,-1.60055,-14.3756,21.7094,-0.47326,-14.3503,21.9574,-0.463463,-14.2452,21.6186,-1.08904
5.45094,0.385035,-0.0492362,1.5548,3.32334,-0.0517263,0.855733,2.33175,-0.302396,1.33156,3.94432,0.510551,1.31304,3.80615
22.408,0.368846,-2.72353,7.70425,6.77917,-5.51029,7.95439,6.60169,-1.83686,8.20988,7.77864,-2.53165,7.11949,6.91951
13.2211,0.121367,-6.59398,23.4202,7.73009,-4.27153,22.9097,8.7298,-4.28232,22.8394,8.70287,-7.84577,23.8113,7.00477
12.5285,0.731887,-1.67353,22.0994,9.12869,1.54922,21.6613,9.5504,1.55026,21.7913,9.5014,1.76838,22.205,9.41716
1.39947,0.0805769,1.74543,1.69335,-3.25016,1.39891,1.62782,-3.23372,1.80556,1.72912,-3.37756,1.39427,1.48537,-3.15158
0.00903082,0.0484894,14.2909,19.3386,-2.9856,14.3224,19.3943,-3.06233,14.3182,19.3739,-3.08839,14.3155,19.4117,-3.09243
2.70229,0.151294,10.5126,23.0142,6.28257,9.99968,23.201,6.75054,10.6207,23.3686,6.36415,11.3918,22.5842,5.96975
0.442681,0.0267637,10.9083,31.0044,-2.99795,10.808,31.0143,-3.24454,10.7208,31.2084,-3.19302,10.7992,30.9959,-3.28217
8.5573,0.450298,1.93139,8.60349,7.7883,0.225152,7.45787,6.99876,-0.224813,7.69599,6.87621,0.201559,7.95495,7.1962
6.04566,0.180276,-7.15872,26.4681,6.56658,-6.36961,26.899,7.09511,-7.97041,26.9556,6.3952,-7.46463,26.0677,6.64144
10.1736,0.893191,-1.79849,9.65244,7.80129,-3.81276,9.36878,7.75767,-4.44785,9.75101,7.52706,-4.53481,9.95539,7.52882
3.63772,0.0101399,-10.2259,20.1227,5.74365,-9.50634,19.9493,6.35216,-9.13123,20.0131,6.79518,-10.9155,20.7839,5.62604
37.7734,0.744607,2.70655,13.3955,-9.46747,2.14104,9.76911,-9.01008,3.27312,10.3235,-9.09684,1.05017,9.75665,-9.11487
2.30856,0.102397,-1.32736,11.4338,8.58049,-1.74374,11.1963,8.59539,-1.53443,12.3745,8.89399,-1.19762,10.4389,8.45895
12.4492,0.267824,-7.41505,2.71663,0.534603,-6.32923,2.04911,-0.603314,-6.04497,1.7412,-0.668591,-6.27701,2.04972,-1.09001
0.714499,0.0708421,10.8715,32.2589,-1.49022,10.9531,32.3748,-0.779835,10.9863,32.3072,-0.779299,11.016,32.231,-0.87208
5.34869,0.234585,4.65158,27.2355,7.29083,4.15481,28.0716,7.56822,4.86847,26.7965,7.50667,4.88449,28.5513,7.525
9.14684,0.244479,2.44222,33.6376,4.65437,1.96372,32.2131,6.57856,3.58008,34.1032,4.97954,1.95551,32.599,6.10577
2.13049,0.0643469,-11.283,14.5844,-6.12511,-11.5292,13.9481,-5.73011,-11.0104,13.7888,-6.38061,-11.4106,14.915,-6.15381
0.108239,0.0264225,1.88375,21.2042,9.55317,1.77121,21.3404,9.52305,1.83313,21.3382,9.51442,1.75306,21.2811,9.53412
0.422407,0.0145461,-5.00599,11.2695,-9.41991,-4.96178,10.894,-9.37014,-4.75279,10.7001,-9.3928,-4.81751,10.5753,-9.36392
5.87417,0.00330547,11.8558,29.6618,-2.95877,11.7086,29.2128,-3.70575,11.2319,29.3015,-4.40869,11.0391,29.6309,-4.3711
4.78587,0.337145,-1.71574,22.1974,9.05497,-3.17723,22.533,8.90934,-3.04608,22.4467,8.90851,-3.18248,22.4325,8.94404
12.401,0.37893,-3.03999,3.05252,-4.58967,-4.30889,2.06621,-2.23891,-4.0836,2.44586,-2.84965,-4.69912,2.3803,-2.6911
2.57971,0.0125355,-4.06507,1.06051,-0.331406,-4.92455,1.32362,0.11647,-4.60078,1.24345,-0.165348,-4.91178,1.3156,0.144899
5.80815,0.297314,-4.25825,32.176,5.36182,-4.43552,31.6283,5.85912,-3.15108,32.3689,6.03321,-5.70145,32.506,5.0315
44.0566,0.0909298,2.89242,14.9474,9.04719,5.63811,13.0929,8.2664,4.03892,13.3487,8.59554,5.69228,14.0006,8.45603
8.67566,0.204305,6.99754,23.1073,7.63461,5.63095,22.3503,8.78278,5.43846,22.0863,8.97964,8.2749,23.5801,7.1268
0.167402,0.094107,9.41823,32.7358,-3.18987,9.3589,32.6562,-3.25568,9.48604,32.4924,-3.48132,9.35574,32.657,-3.30399
5.68974,0.327705,-4.8439,16.5682,8.5642,-3.99603,16.5006,8.76076,-3.0834,16.7131,9.31345,-4.01464,16.1437,8.88428
10.2879,0.105697,-6.02749,5.88436,-5.87431,-5.23598,6.08635,-6.64511,-7.43256,5.69725,-4.18166,-7.37473,5.62196,-4.14367
9.08979,0.463528,-4.98209,16.5728,8.53156,-7.93155,17.0718,7.27645,-7.90378,16.9207,7.28771,-7.50051,17.047,7.54137
10.9221,0.328348,-14.014,14.7573,-1.80173,-14.1808,15.5369,-2.05764,-14.1847,15.4405,-2.19639,-13.377,13.5129,-2.95888
9.66311,0.519094,0.530618,9.41063,7.82894,-0.853396,9.97561,8.18544,-1.77325,9.45722,7.78935,-1.69007,9.72697,7.8905
3.6372,0.0866794,10.468,33.1817,0.460099,10.6716,32.8018,-0.575996,11.002,32.3042,-0.734155,10.9737,32.3659,-0.640061
4.13604,0.0222798,-0.869846,8.42892,-9.00189,-0.878456,9.30318,-9.28097,-1.28452,9.35923,-9.29706,-1.34525,8.62209,-9.08128
5.58279,0.158995,-6.16271,10.4375,-8.91917,-7.11043,11.5586,-8.82854,-7.73113,10.9205,-8.32341,-7.71123,11.1377,-8.38596
20.4405,0.108174,2.58322,9.58333,7.7377,0.578576,9.40296,7.82784,3.88333,9.55675,7.42992,0.353558,10.1644,8.1572
2.21672,0.10211,6.10053,2.26587,-3.35181,6.03237,1.77873,-2.82609,6.91059,2.52643,-3.50544,5.90053,2.10828,-3.4148
18.0613,0.661963,7.4207,26.9204,6.6929,8.54108,24.2539,7.39844,8.202,27.5688,7.02791,6.21032,27.0455,7.81528
4.24726,0.112855,3.66639,17.4094,9.12247,3.56152,18.1914,9.21957,4.72526,17.4609,9.0802,3.8976,16.7591,9.22979
1.27925,0.0789189,9.73819,19.8644,7.0049,9.6055,20.2318,7.1714,10.2588,19.7447,6.8016,9.68789,19.7247,7.12345
7.03438,0.0401336,10.7483,29.8623,-4.53357,10.6827,30.936,-3.52228,10.8687,30.9067,-3.29174,11.0596,29.3109,-4.54787
1.53685,0.91152,4.66691,10.6339,8.04468,3.77216,10.86,8.10251,3.78029,10.9274,8.12603,3.76518,10.763,8.11311
0.918891,0.101585,-14.1992,15.5955,-1.63559,-14.1972,15.3082,-1.72452,-14.4373,15.9805,-1.60482,-14.1766,15.5116,-1.81318
6.96118,0.0185959,-2.69087,5.22388,6.12636,-1.35191,5.10264,6.22592,-2.28172,4.83827,6.02138,-1.18144,5.27926,6.31839
0.902927,0.183798,-3.55073,32.5627,5.58738,-3.05441,33.035,5.25449,-2.65154,33.0809,5.51846,-3.04784,32.9662,5.32142
9.03295,0.134127,2.21831,21.7351,9.25777,3.73023,21.3784,9.06543,3.74799,21.6092,9.03901,1.86134,22.1939,9.43856
7.23657,0.258829,10.7002,29.831,3.28421,10.9863,29.3278,3.57589,11.8063,29.8911,2.36911,11.6191,30.0113,2.53878
14.4765,1.59299,-5.42289,24.925,7.99641,-8.23992,25.4541,6.62473,-7.878,25.684,6.53564,-7.90038,26.1128,6.45858
101.721,0.0608185,-7.45299,18.6977,-8.62557,-4.7389,22.7624,-8.89846,-5.59251,23.6302,-8.61748,-7.90971,21.5663,-8.21591
0.264152,0.00237781,6.03253,11.9161,-8.97069,5.89147,11.8759,-8.98457,5.77203,12.0108,-9.04095,5.74374,12.146,-9.08285
19.6668,0.0980293,3.90693,17.5949,-9.56513,4.05961,14.3077,-9.48993,3.96961,14.3834,-9.50117,4.39517,17.0401,-9.59558
8.38915,0.289663,7.32528,33.3211,3.8506,7.17287,32.9028,4.27152,8.35712,33.6256,3.77249,7.32972,33.7244,4.09698
2.79581,0.0160868,10.897,7.22424,2.9018,12.0482,7.89477,2.69681,11.0992,6.71878,2.48833,10.9898,6.85493,2.63641
3.16377,0.285792,3.8253,17.6771,-9.57593,4.00795,19.5075,-9.69499,4.18938,19.4866,-9.69215,4.28044,19.4654,-9.68834
8.65065,0.318905,2.84338,5.54119,6.27039,4.69954,5.83108,5.8561,4.73879,5.81516,5.82056,4.02017,5.56062,6.04203
4.32845,0.258043,2.66239,10.7999,8.10393,2.4883,11.0766,8.43041,3.72624,10.8647,8.10699,2.64899,10.3227,8.34573
14.8342,0.440197,0.294562,25.6025,8.32619,1.9665,24.2045,9.17325,-0.280691,26.9731,8.31961,-0.936648,26.4021,8.62209
1.90008,0.727507,1.35618,0.71895,1.8175,3.01999,0.603016,2.01945,2.78984,0.550698,1.81099,2.87069,0.597003,1.90067
6.80414,0.0375598,7.36938,3.64445,-4.18127,6.23122,3.21059,-4.04954,6.93576,3.12897,-3.89276,8.37097,4.24651,-4.34676
0.319344,0.00490499,-10.2729,5.26958,0.999011,-10.239,5.13802,1.35036,-10.2844,5.19294,1.36118,-10.3302,5.28678,1.23196
63.5604,3.06766,-6.44032,21.6359,7.84279,-10.3906,20.7429,5.74708,-10.3352,22.082,5.62089,-10.3218,22.2205,5.63203
9.96316,0.0946081,-8.84887,5.5128,-2.21073,-7.43453,5.6826,-4.13961,-9.5717,5.66804,-1.13372,-9.4216,5.52188,-1.23783
3.17148,0.211262,-6.73803,5.09546,4.75518,-6.79663,4.05178,4.44881,-6.82944,4.18887,4.49456,-6.26955,5.14211,5.46106
5.85756,0.298876,3.02375,11.9713,8.38449,4.40542,12.0136,8.35675,2.77848,12.2957,8.7854,4.47329,11.7803,8.31757
1.67677,0.92982,-8.47448,19.2072,7.0714,-7.71347,18.7787,7.57043,-7.68242,18.8698,7.51864,-7.67317,18.952,7.51442
9.31133,1.28313,-8.1882,14.06,7.04532,-8.85713,16.4109,6.65658,-8.90223,16.6217,6.76262,-8.9269,15.9962,6.40125
36.7504,0.295882,4.96726,16.0613,-9.56351,4.71999,12.3243,-9.2218,5.26043,12.2693,-9.15022,5.82415,13.0744,-9.23076
32.7345,0.781848,-5.32287,1.89915,-0.892286,-4.35045,2.11908,-2.23216,-4.86258,2.44575,-1.55327,-6.83442,3.07283,-2.18036
1.80594,0.116061,7.23255,4.09067,4.02892,7.30672,4.27853,4.22092,7.86821,3.75469,3.69248,7.17658,3.81398,4.06775
3.40995,0.466469,12.3473,15.407,-5.71941,11.9015,14.677,-6.04871,10.6254,15.8581,-7.52274,11.8145,14.7832,-6.1672
6.33093,0.225185,13.0148,26.8722,-3.08256,12.2784,26.0122,-4.55278,12.5972,25.8753,-4.21437,12.3742,25.895,-4.47271
14.5912,1.77919,-3.94501,13.9025,8.36272,-6.08705,13.6181,7.60708,-6.57769,14.4317,7.51581,-6.39865,14.0536,7.37368
0,0.00997118,-9.14058,22.0478,6.1527,-9.11884,22.0438,6.15294,-9.2051,22.0047,6.10207,-9.17415,22.0419,6.12226
2.162,0.0549257,-13.2587,11.6438,-0.730055,-13.8104,12.6142,-0.784339,-13.7569,12.5324,-0.555567,-13.6454,12.2661,-0.964926
8.45028,0.0794548,13.0635,15.2926,3.24971,12.8444,13.5715,3.404,12.8304,12.3717,3.4323,13.0292,12.6865,3.19206
5.18354,0.172743,3.8429,3.00388,4.69024,3.06253,2.02953,3.48403,2.85768,2.01603,3.49862,3.32885,2.53892,4.32344
2.74961,0.584387,-4.80941,1.28033,0.155455,-5.64802,1.33304,0.799875,-5.71702,1.31108,0.796758,-5.633,1.24764,0.963398
0.0133673,0.0486049,12.8434,27.5664,-2.99258,12.8227,27.4697,-2.86912,12.9057,27.4931,-2.90214,12.8543,27.5688,-2.93815
22.3331,0.0224528,-13.3014,12.1796,0.936519,-12.9435,10.0259,0.774688,-13.3405,12.1793,2.00372,-13.196,11.5849,-0.605096
1.1024,0.266487,4.57096,7.31227,6.79981,5.17105,7.40298,6.72335,5.18032,7.47391,6.75049,5.10956,7.25374,6.70042
4.22157,0.0896053,1.49222,32.6842,6.09887,-0.161597,32.6485,5.60337,1.84139,32.721,6.06549,-0.170733,32.5943,5.62754
6.22079,0.124716,2.47927,7.04551,6.83768,4.47364,7.24075,6.7981,3.71087,7.32659,6.90899,4.58181,7.37871,6.82525
3.8025,0.0311396,9.1048,4.30888,2.74913,9.52644,4.4299,1.72769,9.13432,4.52161,3.10278,10.0227,4.85949,1.43642
19.3789,0.287449,2.83659,4.35804,-5.69375,2.45016,2.44637,-4.64725,3.46786,4.88524,-6.25338,2.91358,2.34711,-4.35333
1.02494,0.024764,-2.30334,15.1808,9.31261,-2.2148,14.6721,9.28719,-2.54492,14.6385,9.20953,-2.57723,15.2707,9.29011
4.8805,0.435625,-0.646054,7.38611,6.66898,-1.086,7.67343,7.43685,-0.271945,7.70152,6.87397,0.0356874,6.27979,7.01503
22.0711,0.496511,3.61173,8.82754,-8.21014,-2.33886,6.83106,-8.12615,-1.31865,7.13349,-8.22251,-0.291689,7.51958,-8.40194
3.10572,0.056392,6.14507,3.25181,-4.1154,4.0497,2.66951,-3.86627,4.00617,2.61437,-3.78544,4.18533,2.71637,-3.90531
12.4489,0.0355455,3.96483,2.09939,3.41647,3.05526,1.91685,3.38375,4.43746,3.02874,4.62933,7.04682,2.77781,3.32699
2.38348,0.678862,-1.04005,24.3851,8.87966,-2.577,24.5608,8.52176,-2.37763,24.58,8.67171,-2.38739,24.4255,8.69984
12.1574,0.486269,4.49465,4.45315,5.33662,4.01026,3.80479,4.77069,6.54294,4.53809,4.51468,6.45252,3.68144,4.34269
45.5545,0.347759,-9.11462,9.06665,5.37062,-9.10143,8.06683,5.45343,-7.00881,9.67927,6.95071,-6.72973,9.22944,6.93547
7.78328,0.110098,-0.629662,20.3746,9.53421,-0.800325,21.5067,9.58899,-1.74454,20.7515,9.51269,-0.31145,21.2514,9.65001
14.0764,0.151426,7.1182,10.1805,-7.74511,5.12777,9.67286,-8.26153,4.97161,9.48459,-8.18827,4.96577,9.36545,-8.11082
18.0445,0.276396,7.29574,1.74083,-0.93143,5.39293,0.947318,0.288848,4.70975,0.728658,-1.02834,5.03955,0.818489,-0.237751
71.3799,1.77398,-13.4888,24.179,-1.2679,-12.3361,26.9456,2.39526,-12.3103,26.9212,2.47689,-12.5227,27.8554,0.943675
0.218999,0.261893,11.5222,11.4285,-5.55717,11.7233,11.4302,-5.35173,11.6354,11.2211,-5.36979,11.6951,11.368,-5.35618
4.76011,0.146163,7.956,3.21944,2.71204,7.28765,2.65336,3.02488,7.57649,2.61074,2.63022,8.67896,4.19377,3.48668
1.73377,0.888329,4.95668,26.7107,7.55069,5.70125,25.475,8.23171,5.65769,25.4818,8.2483,5.80146,25.6128,8.19173
12.3882,0.211617,4.27772,15.5861,8.57943,7.04917,15.329,8.01425,7.10893,15.5031,7.98345,3.31053,16.0436,9.04643
25.9805,0.307479,11.9244,6.73807,0.0601919,12.7011,8.82803,1.64413,12.8411,8.49642,0.473092,12.991,9.25048,1.08372
11.5228,0.156691,0.00910399,19.095,8.80367,2.17215,18.9425,9.27318,2.19665,18.7874,9.30223,0.982462,19.0367,8.92306
13.3714,0.0912149,-12.8645,12.9486,3.49873,-13.1663,15.7512,3.48686,-13.2681,14.3879,3.11522,-12.9632,16.0201,3.78584
1.24001,0.130438,9.78295,33.7205,-1.01112,9.98405,33.7262,-0.277366,9.87508,33.7783,-0.399034,10.0065,33.6714,-0.322668
18.2657,2.33158,-14.5974,18.8754,0.742212,-13.8468,21.0296,1.7405,-14.1704,21.9798,0.532063,-13.9697,21.4513,1.17082
3.28179,0.0704567,8.50805,11.3808,6.38242,8.43129,11.128,6.54712,9.41664,11.6598,5.89112,8.52736,10.6863,6.5562
0.774801,0.0642186,-12.8451,17.5605,-4.6533,-13.0046,17.1783,-4.50516,-12.8713,17.114,-4.67893,-12.7595,17.9,-4.91331
8.04348,0.0945454,5.44395,33.5249,4.75346,7.13172,33.9355,4.21794,5.48485,31.9261,6.21778,5.3343,32.6323,5.6508
43.2608,0.421077,-2.44216,16.6656,9.37569,-1.11836,14.5143,9.30835,-0.0360872,15.3967,9.23171,-3.4064,15.4659,9.07625
4.45733,0.620505,-5.39294,31.0851,5.61513,-7.131,31.3037,4.79053,-7.16921,31.2787,4.76685,-7.2263,31.1199,4.78929
0.00895069,0.0416139,1.15484,23.0266,9.45383,1.10342,22.9643,9.44933,1.09978,22.8742,9.45479,1.11502,23.025,9.46702
0.149418,0.0109091,3.81194,12.3507,-9.30616,3.84919,12.6472,-9.34489,3.80435,12.6559,-9.34418,3.70315,12.597,-9.33552
10.5934,0.91922,-3.63044,33.5306,3.40927,-3.93791,35.1138,3.32836,-3.12127,35.0697,3.65601,-2.90938,34.8436,3.89766
2.85254,0.10634,2.66173,3.16236,4.74635,2.20084,3.44448,4.9634,3.22061,3.31058,4.66998,2.03507,3.00853,5.06786
54.0277,0.0319408,12.2068,29.6261,1.6986,12.2391,28.5599,2.54251,13.4975,24.9564,2.24778,14.0614,24.1661,1.30387
8.02955,0.201646,-13.1948,21.1252,3.1795,-14.0866,19.9994,1.85045,-13.6851,20.8394,2.51433,-13.8108,21.2278,1.82541
93.8464,0.304433,11.2421,30.7606,-2.91992,12.423,29.791,-0.690497,12.7242,28.6612,-2.0583,11.7296,31.1752,0.147641
3.85401,1.89109,7.34962,21.1512,7.76255,5.56302,21.3951,8.54461,5.57297,21.4638,8.59032,5.59035,21.2142,8.53837
12.355,0.425074,-7.36907,29.8688,4.68966,-6.64489,30.4028,5.66125,-7.67424,30.9879,4.69185,-7.91407,28.7497,5.127
1.26269,0.240857,3.57726,33.3663,-5.48849,2.90588,33.9799,-5.17464,2.63693,33.8788,-5.30219,2.84111,33.9247,-5.21819
14.3295,0.625073,9.28881,14.3553,6.4066,11.2624,14.2955,5.40164,11.1959,13.6759,5.22702,10.5471,13.5944,5.81297
4.66477,0.0755125,6.80555,32.0066,4.95643,6.89945,31.7963,5.11026,7.32929,32.8111,4.2447,7.11707,33.0344,4.26662
1.62364,0.114194,7.64035,19.4771,8.01524,8.14636,19.5354,7.94543,7.72376,19.2726,8.0976,7.29864,19.4643,8.26853
0.335833,0.123611,-14.4478,15.1618,0.786156,-14.4379,15.5626,0.859081,-14.4962,15.7022,0.779347,-14.4446,15.6275,0.955886
7.93897,0.0694537,-8.56002,31.2673,3.97583,-9.93641,31.2067,3.02256,-9.57609,31.3896,3.16464,-7.26523,31.0552,4.83337
0.377006,0.0908503,-14.2011,13.9709,0.671861,-14.1019,13.6943,0.699535,-14.0757,13.6821,0.884791,-14.0896,13.7176,0.789215
5.29178,0.31553,10.72,26.9685,5.50414,11.7594,26.4511,4.56627,12.0869,26.2573,4.37201,10.1672,27.7402,5.6331
1.40626,0.098845,2.03525,2.8299,-5.65429,1.18955,3.08743,-5.67294,1.18247,3.12864,-5.707,2.22103,3.02142,-5.7009
3.83397,0.414131,-10.8034,7.24484,-1.51595,-11.0526,8.74198,-2.82014,-10.8893,8.53607,-2.96285,-11.1681,8.9148,-2.8162
0.645668,0.0246878,9.60023,33.1377,3.33329,9.2051,33.3868,3.40988,9.31327,33.2624,3.44157,9.24315,33.4901,3.25048
3.25327,0.0670214,0.263566,4.04421,-6.61196,0.934562,5.02897,-7.41715,0.0123289,3.81552,-6.15726,0.694713,4.51106,-7.08716
12.9662,0.152866,-5.43815,33.3785,2.95742,-5.76882,33.0507,4.24294,-5.92571,32.9461,3.65316,-4.67692,33.6511,3.6211
7.60157,0.0827431,0.726737,3.48337,-5.61652,-0.512574,3.36289,-5.37394,1.12849,3.01611,-5.6457,-0.228198,3.76491,-5.57412
7.16316,0.637908,9.40018,21.0268,6.78883,7.42979,21.0528,7.74847,7.39281,21.1495,7.74365,8.09138,21.4213,7.60271
0.732088,0.189106,7.1378,13.7654,-9.07673,6.93681,13.2896,-9.01368,6.75675,13.3104,-9.04474,6.61583,13.2322,-9.08768
1.0569,0.0103281,13.2498,17.1659,-4.82629,13.4672,16.6469,-4.46066,13.2715,16.9081,-4.77244,13.1684,16.7759,-4.93673
6.35864,0.00628248,-14.6522,18.4394,-0.463907,-14.7122,16.5031,-0.608596,-14.778,16.7938,-0.237379,-14.7518,18.8208,0.0554741
0.220422,0.0661859,14.5434,19.9314,-0.84462,14.5882,19.9783,-1.05828,14.5402,19.8885,-0.98183,14.5973,19.9143,-1.08274
12.3358,0.230398,10.6618,11.5637,-6.43727,7.99743,10.5132,-7.59507,7.99327,10.4402,-7.55346,9.25307,10.6511,-6.97496
0.131946,0.0686245,12.1276,30.4219,-0.684458,12.1292,30.3781,-0.540244,12.0397,30.5647,-0.50947,12.0674,30.548,-0.465724
6.06846,0.571007,-5.76716,10.1333,7.21066,-7.25006,10.1865,6.90532,-7.59983,10.4988,6.88875,-6.79035,10.1926,6.80504
40.5238,0.200311,3.56832,23.1555,9.13245,4.77825,22.7076,9.17991,5.97706,25.4694,8.21134,6.38615,24.8672,8.2692
10.1687,0.0404131,8.62036,9.87523,5.9009,5.60573,9.74547,6.94526,5.34135,9.53504,7.03419,8.40435,10.025,6.0144
13.5457,0.355541,8.59888,13.3427,6.54536,9.19817,14.8275,6.96681,9.36524,14.273,6.34232,8.57378,11.5977,6.46989
0.312463,0.032846,-2.3903,9.99415,-9.47433,-2.5027,9.52852,-9.34889,-2.45656,9.51809,-9.35026,-2.55239,9.84432,-9.40239
2.50052,0.000522349,7.71422,24.9561,7.64121,7.50191,23.4961,7.75289,7.66857,23.8347,7.73163,7.76648,23.8948,7.73063
13.0486,0.454161,-1.40361,27.8216,7.45174,0.259172,29.4339,7.48946,0.0304023,29.5215,7.41518,-2.42753,27.8425,7.7873
4.18373,0.114589,-0.612786,5.09947,6.19928,-0.0304523,5.21093,6.43706,-1.21704,5.03953,6.20874,-0.101315,5.37455,6.46497
4.71148,0.0966976,1.26733,1.58132,-3.19872,-0.87553,1.03424,-2.42509,0.82563,1.33699,-2.97023,-0.908791,0.886659,-2.18053
18.0995,0.460399,-0.765262,16.7305,9.51764,-0.341341,18.388,9.54238,-0.905733,18.7123,9.59589,0.12226,18.6157,9.38998
55.7128,0.113566,12.7966,23.517,-4.52024,13.8201,23.6118,-2.79905,13.5118,22.4768,-3.8115,13.3879,24.6471,-3.22188
7.91714,0.118713,-9.73715,12.3696,6.43243,-10.0529,14.1638,6.0601,-10.4569,14.0782,5.82393,-9.31081,11.9552,6.55728
1.79887,0.0971057,10.2705,25.2761,6.2149,10.7183,25.0238,6.13068,10.5338,25.3308,6.10002,9.73711,25.3041,6.78672
2.5656,0.145288,-2.696,5.70759,6.52706,-2.48996,7.05397,6.9204,-2.56904,6.27983,6.77888,-2.86575,6.15512,6.75818
0.199046,0.0172932,-5.57615,15.9788,-9.3216,-5.55378,16.3214,-9.27212,-5.69082,16.2421,-9.26793,-5.63635,16.3206,-9.2599
7.56435,0.726922,-6.24371,21.6919,7.97159,-5.15675,21.1448,8.8159,-4.16298,21.6306,9.08245,-3.96831,21.2629,9.04986
5.31993,0.083173,-12.032,19.4561,4.68981,-12.7902,19.9942,3.90209,-12.8815,20.3491,3.786,-12.8173,20.3765,3.86219
4.9971,0.213517,8.35495,4.98374,3.85734,8.66114,5.62315,4.39982,8.86811,4.59775,3.63978,7.84108,4.25725,3.90301
0.792898,0.0206147,11.462,18.2169,5.83323,11.2456,18.6343,6.00591,11.4891,18.0158,5.85004,11.124,18.5555,6.1067
3.73724,0.00504242,10.0166,4.24154,0.93944,10.6471,4.30131,0.253705,10.8014,5.07829,0.768492,10.6574,5.06366,0.922266
6.97534,0.12085,4.70046,21.597,8.91979,3.78977,21.6042,9.03209,3.7822,21.4496,9.03089,5.50354,21.2184,8.57806
6.8412,0.0947162,7.6537,28.7993,6.48853,6.02674,29.1557,6.94304,6.01905,29.0159,6.96598,8.40304,28.3813,6.16666
13.8958,0.424588,-3.92016,32.9924,3.75798,-3.14074,33.4242,4.29519,-5.08366,32.9207,4.77413,-2.92051,33.224,5.09148
84.5265,0.282582,2.54048,27.2256,-8.4011,-0.776823,25.8761,-8.79637,-0.236421,22.0108,-9.52876,-2.39566,21.7725,-9.48137
1.05812,0.0409496,5.17629,6.26646,-6.96123,6.05423,6.3247,-6.87379,5.57944,6.23005,-6.87938,6.03868,6.24317,-6.85092
0.172354,0.0359567,12.9987,22.5221,4.04555,12.9566,22.6258,4.09609,13.0177,22.6201,3.92765,13.0616,22.5676,3.90255
16.6982,0.159414,1.17894,27.4742,8.2017,-0.79194,26.8247,8.36559,2.49467,27.362,8.10507,-0.861385,27.791,7.79574
1.7507,0.0213587,-11.4935,9.73832,-3.19672,-11.1534,8.92806,-2.85809,-11.646,9.69252,-3.0073,-11.1924,9.06803,-2.92733
13.4668,0.361849,6.10091,13.0186,7.50973,6.25613,13.6585,8.14778,8.50198,13.0997,7.02657,6.0026,12.1354,7.58203
1.77838,0.0874808,6.43307,19.6871,8.60023,7.12929,19.4815,8.37513,7.07659,19.4141,8.3922,7.24472,19.8174,8.32222
3.7842,0.294511,9.43633,4.23563,1.7707,10.1682,4.77545,1.10957,9.86087,4.17376,1.08949,9.78365,4.51914,1.27179
3.4947,0.173648,11.0846,5.63514,0.416695,11.8258,6.08017,0.276003,10.9844,5.01656,-0.28823,11.1145,5.52339,0.723594
3.10372,0.483551,14.112,19.3476,-3.44973,13.5793,18.9364,-4.27879,13.5298,19.1053,-4.37895,13.6219,18.8184,-4.20327
4.05433,0.161345,1.97651,7.0274,6.89048,0.453475,7.23766,7.13869,0.819885,6.9173,6.97433,1.09637,7.18671,7.13264
0.206094,0.0106805,1.57115,11.746,-9.30091,1.34686,11.3701,-9.31276,1.48756,11.7582,-9.30304,1.31147,11.4515,-9.32049
0.408464,0.00471565,-7.41275,14.7718,7.62216,-7.387,15.0674,7.64622,-7.14255,14.9636,7.73527,-7.16108,15.0332,7.73249
3.1111,0.125145,-5.28968,9.97807,7.19855,-4.49126,9.75214,7.51983,-4.52437,9.91537,7.51391,-5.66531,10.101,7.23709
14.3452,0.330493,-11.4793,10.9208,4.73779,-7.73775,10.0695,6.8056,-7.64584,10.495,6.86463,-7.78544,10.0707,6.78352
5.80707,0.128994,-3.58622,6.38425,-7.57589,-5.26915,6.14908,-6.68018,-2.28556,6.76463,-8.07353,-2.25706,6.67338,-8.0565
4.60443,0.161799,-8.07276,11.75,-8.11577,-7.44668,12.2589,-8.76877,-8.40165,11.3753,-8.03635,-8.77852,12.4855,-8.07843
10.8072,2.26745,-11.8567,17.5731,4.77452,-7.925,16.9514,7.24367,-8.01141,16.9065,7.23203,-7.95158,17.077,7.25853
60.1238,1.99844,4.99379,17.5051,8.94376,3.99807,21.2252,9.10824,5.44768,20.4812,8.64258,6.0356,20.4115,8.62056
17.1078,0.161396,-7.58885,5.78877,5.20869,-8.71969,6.00928,4.84273,-7.63408,4.57423,4.26944,-8.24053,4.31498,3.94897
20.4965,0.317155,2.8714,5.37859,6.24316,0.642288,5.07804,6.33184,-0.0680031,5.42646,6.49005,0.261128,6.26504,6.96952
34.0493,0.336912,9.39995,33.3316,-2.45586,10.5656,32.9454,-0.404671,10.7095,32.6058,-1.06323,10.0345,33.4704,-0.923351
13.2287,0.102304,-10.8145,17.0685,5.58155,-12.4541,14.7712,4.24322,-11.4541,14.5589,5.20057,-11.8472,14.334,4.86757
4.8474,0.143476,10.6759,6.53982,-2.45927,10.5203,6.70916,-2.81526,11.1834,6.16667,-2.14812,11.5985,6.37629,-1.94944
3.77433,0.861571,3.95047,2.55934,-3.75612,1.92724,1.60358,-3.31418,1.87197,1.7576,-3.38121,1.78696,1.72959,-3.40655
8.0876,0.117467,9.34089,26.4003,6.65563,10.0118,27.137,6.21045,9.03071,25.9502,7.09062,10.4354,27.0142,5.92351
4.05366,0.0784874,-10.9746,6.27107,0.57812,-10.6039,6.7293,-1.03519,-10.4911,6.52837,-0.870559,-10.6139,5.84316,0.52624
10.1044,0.279827,-0.0248884,19.8787,8.7433,0.859521,21.0823,9.51087,1.02212,21.4937,9.43331,-0.0360584,19.1026,8.80541
1.62601,0.146737,4.47641,25.3096,8.52677,4.8585,24.7177,8.68565,4.25636,25.6956,8.67862,4.52194,25.8048,8.54881
20.4653,1.41124,14.5373,19.3909,-2.19222,13.9615,21.5834,-3.23198,13.5887,21.9355,-3.86081,14.2382,21.2851,-2.61645
2.46874,0.301284,-12.9653,14.2029,-3.976,-11.9283,13.7883,-5.20031,-12.1232,13.617,-4.90839,-12.0533,13.758,-4.99746
5.20641,0.0671399,5.42881,27.8002,7.6361,5.55879,28.3608,7.62967,6.32299,28.0752,7.60017,6.42489,27.5805,7.6481
3.07799,0.136035,-7.25746,3.6233,3.60996,-6.63512,3.5388,4.12558,-7.52666,3.61641,3.62041,-7.38533,2.50357,2.9952
2.91366,0.758494,-1.2327,30.6103,6.82324,0.271085,30.1162,7.04728,0.271894,30.184,7.00336,0.021521,30.4433,7.03201
9.34755,0.420861,-10.2181,19.1589,5.60754,-10.6861,19.6474,5.66022,-8.54519,19.0651,7.07459,-8.49873,19.1238,7.07596
5.18465,0.0440947,13.0455,18.3573,3.88565,13.6853,18.8802,3.10725,12.9611,17.5127,3.94879,13.9784,18.485,2.60891
1.53815,0.353904,-8.26046,3.82394,-0.80898,-8.78412,4.14446,-0.742141,-8.65377,4.04893,-0.649284,-8.4172,3.50437,-0.501144
32.3785,0.500153,12.7937,28.7105,-1.57803,13.4314,27.2657,-0.0491666,13.4426,27.2239,-0.0716741,13.7122,26.3486,-0.858623
4.74629,0.00730939,3.68469,6.05655,-7.41693,3.18379,5.77675,-7.68679,4.44496,6.21812,-7.17943,5.21695,6.30702,-7.0033
4.02045,0.123377,7.09777,15.4173,7.97019,8.7749,15.2542,7.36604,8.72517,15.1883,7.39042,8.10969,15.2273,7.66242
0.438633,0.164324,-1.85354,33.2497,5.37178,-1.63498,32.9539,5.28825,-1.6072,32.8862,5.30816,-1.66138,32.8513,5.31794
3.61605,0.587663,-7.61982,18.9501,7.54675,-5.79901,18.6589,8.7117,-5.73455,18.8193,8.74242,-5.76382,18.8769,8.73711
1.15335,0.229377,2.78034,15.8807,8.88719,3.229,15.7513,8.95389,3.22634,15.837,8.93948,3.07189,15.7026,8.84308
13.251,0.0318494,10.613,7.22496,3.01936,9.33534,5.97272,3.52117,9.28355,6.44608,4.29871,9.97227,6.94625,3.81722
5.35735,0.136687,-12.9225,25.2063,-2.66308,-12.3941,26.5019,-2.8255,-12.8359,25.8546,-2.53224,-13.3072,23.8153,-2.27078
5.99716,0.258437,-6.14772,7.74892,6.28877,-6.37346,8.84114,6.71886,-6.53827,7.29257,6.4659,-5.43814,7.83316,6.5852
7.67388,0.218048,-2.25737,13.3994,8.63596,-2.67344,11.6867,8.70171,-1.25645,13.3312,9.00301,-2.72125,13.6601,8.80137
21.1079,0.596718,-6.16621,4.17593,-2.9509,-6.88066,3.1355,-2.19203,-5.92626,2.64428,-2.56305,-7.15365,3.85116,-2.70966
0.0219769,0.0753511,-4.1864,20.7909,9.02479,-4.11423,20.8351,8.99332,-4.13504,20.9311,9.0297,-4.10837,20.7901,9.0151
1.37025,0.130523,-6.34289,3.7589,4.30588,-6.53739,3.9573,4.50408,-6.65598,3.63335,4.15585,-5.90426,3.61981,4.73722
8.29506,0.283797,0.0424496,0.849845,1.86664,0.214684,0.0410691,0.196283,-0.0345716,0.121313,0.564285,1.22373,0.726556,1.86912
8.62513,0.269397,8.78951,9.75424,-7.34338,8.85159,8.87853,-7.16614,7.74587,8.51394,-7.48267,7.5897,8.59776,-7.60158
1.76609,0.292982,3.66177,32.2248,5.23942,3.66343,32.3108,5.5303,3.3495,32.7973,5.34565,4.03858,32.7301,5.23343
17.9009,0.453452,-6.61879,33.4592,1.96441,-8.00138,32.9909,3.14763,-6.10005,33.5752,2.77428,-6.39091,33.196,3.27963
17.1119,0.121908,-3.28082,6.17639,6.77167,-6.87005,6.59693,6.11226,-6.97917,7.12444,6.38372,-5.39623,6.33786,6.27655
1.59183,0.0587598,-5.85088,1.34203,2.34075,-6.48274,1.58865,2.06354,-7.06354,1.95658,2.38674,-7.12862,1.95675,2.12242
0.642402,0.0906188,-12.1858,19.474,-5.59794,-11.7376,19.9921,-6.01936,-11.7613,20.0795,-5.98722,-11.8084,20.1069,-5.94394
5.17201,0.0317079,-7.83597,6.89594,5.92798,-8.95233,8.28863,5.53565,-7.27865,6.50956,6.11416,-9.02031,8.03388,5.46578
4.02238,0.0111311,-3.27526,24.7085,8.40805,-4.95435,24.8198,8.13489,-4.16202,24.6693,8.33366,-4.96492,24.9321,8.06071
7.45079,0.0809619,13.2653,17.9207,3.56453,13.1607,15.3514,3.13581,13.1863,17.2569,3.5771,13.8193,15.0046,2.49929
7.48386,0.336044,2.03885,15.6491,8.6524,2.88328,15.6377,8.86041,2.7711,15.8136,8.8394,0.38127,16.0941,9.18295
34.4763,2.8568,11.7756,6.19126,1.50073,9.21385,5.64831,3.43221,9.22419,5.32008,3.19054,9.26399,4.53398,2.71695
6.77143,0.212303,1.96598,1.76459,3.32801,1.38816,1.64134,3.93668,2.98909,1.95594,3.41248,1.44627,1.37867,3.46054
8.80369,0.681348,3.73802,32.2954,5.61455,4.64469,31.4333,6.37834,4.75247,30.922,6.50757,4.42223,31.3874,6.45034
24.3136,0.305103,3.55355,4.81865,-6.14208,2.01695,6.48814,-8.38319,4.24697,5.38917,-6.88168,1.11083,5.28645,-7.55688
3.36865,0.212864,5.98224,29.1593,6.954,4.91761,29.3879,7.13283,4.59412,29.3443,7.17198,5.08651,29.0139,7.31414
3.41124,0.092707,-4.00628,29.7137,6.64958,-3.93305,30.064,6.59114,-3.81337,29.2828,7.04622,-5.55949,30.0524,6.12352
5.01011,0.0970133,-4.18769,1.14428,-0.444568,-2.19209,0.874174,-1.52566,-3.47558,0.964247,-0.75263,-2.4154,0.924668,-1.5397
3.9633,0.30194,6.75222,2.94458,3.6439,5.37792,3.23295,4.22365,5.56994,3.46849,4.22394,5.81002,3.15221,3.92635
6.67412,0.0653947,7.00447,17.9553,8.48134,6.05496,17.1933,8.81666,6.84771,17.1264,8.54587,6.04121,17.5512,8.84599
23.2101,0.259025,-8.59439,12.4586,6.75044,-7.51954,14.7132,7.58678,-8.90193,13.4151,6.98457,-7.63943,13.0352,7.41944
6.18277,0.342476,9.93395,11.9434,5.29987,9.56417,11.2201,5.88485,9.49204,11.8741,5.82785,10.9486,12.7844,5.20577
6.59749,0.152494,-1.00188,32.4661,5.43365,-1.9714,32.7057,5.73589,-0.237534,32.5526,5.64974,-1.83311,32.6924,5.44553
5.5226,0.037371,5.30013,9.62929,7.00846,3.88403,9.67341,7.4658,3.91041,9.46572,7.45303,4.57644,9.46593,7.25677
8.42176,0.333638,-6.28449,4.48284,5.06463,-3.785,2.88827,5.22839,-4.31724,2.32446,4.79617,-4.02905,2.81325,5.12765
6.5529,0.53775,-8.82518,27.0458,5.69265,-9.78859,27.0975,4.93741,-9.99459,27.4681,4.93702,-8.10221,28.1024,5.42006
31.0697,0.221372,1.071,29.3575,6.94789,3.47787,27.411,7.80565,0.632581,31.012,7.10218,4.22034,27.2129,8.01109
4.83284,0.145662,-11.9746,11.9444,-3.79601,-11.7721,10.5761,-3.314,-11.7191,10.7461,-3.49587,-12.2686,12.6039,-4.16417
6.63023,0.871893,11.9211,20.832,5.45081,9.49923,21.0835,6.79038,9.48334,20.9168,6.77866,9.5385,21.0018,6.73453
12.4361,0.8433,8.34806,11.9236,6.91423,6.61271,11.7056,7.23854,5.98828,11.9771,7.49823,7.08297,11.2575,7.30702
10.5588,0.165004,-3.04938,3.0719,4.7736,-2.15753,2.07026,4.65065,-3.0826,1.37174,3.55424,-2.27582,2.90797,5.03779
2.24682,0.00696705,-10.2445,6.43118,4.20629,-8.74915,5.95774,4.82372,-8.73367,6.04761,4.85614,-9.6505,6.14548,4.42946
11.7702,0.595891,14.0942,20.7266,-3.28497,13.2089,21.4747,-4.40738,13.2551,21.1596,-4.60274,13.4448,21.4983,-4.18352
8.32982,0.069203,3.70285,19.3709,9.10948,4.46405,18.4675,9.25404,3.91297,17.8318,9.22294,4.20577,19.2534,9.21989
0.602202,0.174894,11.8464,5.95428,-0.680977,11.9147,6.51365,-0.159596,11.9601,6.58814,-0.205656,11.9052,6.3903,-0.202535
16.4079,0.368151,-1.56034,2.25063,4.74553,1.68239,2.17162,4.59878,1.00416,2.08244,4.47433,0.626518,1.98708,4.37712
25.8703,0.346943,-6.62829,12.5272,7.23848,-2.67511,12.1737,8.75175,-6.88983,14.124,7.47867,-4.12887,12.2725,8.02064
6.0948,0.149548,8.66569,9.95101,5.8729,10.995,10.281,4.82429,11.0552,10.4575,4.82704,10.4363,10.3757,5.15301
1.6115,0.00848111,-9.05332,11.6426,6.60059,-8.88812,12.3502,6.69614,-8.74998,12.2656,6.71199,-8.83874,12.3466,6.70405
15.3644,0.513767,13.1317,9.72688,1.30045,11.5531,8.4691,3.39423,11.6814,8.98872,3.0592,12.3767,9.50188,2.43805
0.15068,0.0299171,7.99874,18.2793,8.04855,8.06093,18.4884,8.00773,8.15561,18.5477,7.97421,8.19967,18.5404,7.95583
5.44384,0.0660664,12.2492,26.7181,-4.35393,11.811,27.5571,-4.45719,11.6486,27.535,-4.68833,12.5496,26.9742,-3.8926
9.38116,0.7404,-2.1165,3.82332,-4.57379,-2.84606,2.68807,-4.42202,-3.01574,3.43111,-5.16095,-0.579195,3.51659,-5.43989
3.8834,0.350561,-2.72851,24.6982,8.33435,-1.48979,26.4445,8.62616,-2.00402,25.929,8.52849,-3.18297,24.7644,8.38216
2.63207,0.149604,12.7215,14.2869,-5.01098,12.1234,13.4447,-5.50931,12.0004,13.3004,-5.67648,11.9636,13.47,-5.77144
8.71637,0.424643,2.5496,8.32955,6.92087,2.22772,8.38463,7.40979,3.67247,8.74058,7.58589,2.35224,7.13987,6.84274
33.8349,0.271817,3.46115,3.73911,4.76918,1.97085,3.55171,5.47249,4.18751,5.41393,6.00756,5.5684,3.48891,4.24691
5.39058,0.134273,-7.76392,28.2197,5.34471,-5.80636,28.3874,6.8791,-7.92659,28.7406,5.13065,-5.81018,28.3232,6.91024
7.46921,0.63244,0.248279,14.9438,7.98588,1.34814,15.3517,8.90154,0.425108,15.4466,8.8446,-0.319039,13.9329,8.25826
2.26296,0.0391263,-2.81022,13.666,8.79246,-3.89901,13.9002,8.3827,-3.95321,13.8048,8.34577,-3.31914,13.8662,8.63611
4.70297,0.225055,4.82894,9.38066,-8.12164,4.36695,9.06314,-8.23978,4.48741,9.35047,-8.55556,3.66701,8.93793,-8.30549
23.6252,0.239212,6.88526,6.20887,5.23417,8.30004,5.58638,4.56188,7.4536,7.17453,5.79376,9.08609,6.806,4.86979
31.8521,0.100287,9.93394,30.528,3.79956,6.91345,31.163,5.528,6.85534,31.7473,5.14938,10.8556,30.247,3.14467
24.028,0.339558,6.65642,5.23242,4.56584,6.02133,6.18316,5.49003,7.74534,5.07958,4.55518,4.76185,5.7264,5.70181
5.10425,0.160844,-0.928594,19.152,9.5093,-1.22242,18.7391,9.61191,-2.03959,19.0037,9.50838,-2.13705,19.4487,9.51457
20.8396,0.574951,-9.34364,16.4466,6.1955,-10.3946,14.2039,5.86974,-9.74837,13.9446,6.51094,-9.90671,14.1467,6.27529
4.00793,0.276055,10.6436,4.87037,-0.6054,10.7382,4.51522,-0.144974,10.7362,4.45676,-0.665421,11.4811,5.73541,-1.48489
0.12618,0.0348667,-4.3653,8.85602,-8.92952,-4.53832,8.95208,-8.9167,-4.4939,8.99984,-8.94623,-4.55597,8.89541,-8.89649
1.11562,0.381394,-14.3078,21.4829,-1.20634,-14.5143,20.7306,-0.926848,-14.4602,20.7615,-1.18397,-14.4118,20.8327,-1.0014
18.0912,0.0802176,-12.5863,11.8686,3.57965,-13.2316,11.9209,1.4028,-13.0505,12.0821,2.29435,-13.0368,11.5653,1.80471
81.9551,0.542749,8.85585,7.49125,-6.02491,4.55828,5.19754,-6.61959,4.05935,5.94353,-7.22928,10.2398,6.69486,-4.2522
8.37074,0.394859,1.80271,23.93,9.15473,-1.04975,24.2953,8.88651,-0.992526,24.3924,8.8903,-0.345576,24.1294,9.06011
12.3767,0.626,-2.67739,4.21154,5.50968,-0.836676,4.06062,5.70125,-0.50205,3.77566,5.65231,-2.32238,4.82269,5.98666
0.354818,0.00216702,4.78689,11.1195,-9.00118,4.50007,11.7162,-9.14323,4.6039,11.789,-9.14477,4.75441,11.6228,-9.0964
1.79268,0.0857821,11.5105,9.00731,3.48221,11.5085,8.89338,3.86004,11.6397,8.92967,3.09994,11.5138,8.6058,3.32176
4.74968,0.110208,-6.5634,34.4858,1.62689,-6.5186,33.7861,1.83701,-6.00076,34.5359,2.28636,-6.82944,35.0349,1.51791
0.197611,0.0428059,-2.66134,11.26,-9.55364,-2.55388,11.6104,-9.59336,-2.54413,11.3242,-9.58527,-2.66827,11.0558,-9.5925
11.0043,0.580669,-2.81737,5.16528,6.15436,-5.99762,5.68806,5.91351,-5.58445,5.42199,5.92395,-6.55044,5.90107,5.94199
1.92711,0.575556,14.6482,19.4693,0.0560137,14.5108,19.5975,0.916534,14.5336,19.8493,1.02187,14.5003,19.7205,0.980674
3.13675,0.266824,-0.856738,16.3209,9.38576,0.253598,16.1004,9.2099,-0.358927,15.7805,9.34985,0.234829,15.9464,9.17536
1.2941,0.198068,2.09172,5.89483,6.72119,2.34296,7.0658,6.83891,2.13457,6.80865,6.86206,2.15105,6.93982,6.85341
10.8443,1.0632,-12.6257,10.4394,-2.06632,-11.7032,10.2535,-3.10938,-11.5092,9.82232,-3.27374,-12.235,10.8879,-2.95209
1.30393,0.101351,-7.55784,2.42165,1.39425,-7.3414,2.09541,1.99664,-7.74181,2.46722,1.25125,-7.35103,2.09743,1.95289
1.32073,0.048363,7.47557,10.3401,-7.61482,7.31167,10.338,-7.80548,7.96731,10.5651,-7.66524,7.99165,10.5434,-7.62128
3.12223,0.351742,-2.40805,0.924596,-1.55988,-0.933208,0.980808,-2.26047,-0.87861,1.03125,-2.38938,-1.04962,0.935517,-2.17133
22.6023,0.0161182,4.65269,29.4807,7.17428,3.75675,28.1559,7.6348,1.12164,29.9912,6.9379,3.62183,29.1474,7.28575
5.37691,0.0264355,-13.9143,22.3514,-1.56149,-13.2814,23.735,-2.35604,-13.4807,24.1203,-2.19398,-13.682,22.487,-1.78342
17.2007,0.00742275,6.73038,19.7724,-9.33025,6.17496,18.1025,-9.49778,6.61434,18.762,-9.39684,5.39257,18.4057,-9.62028
3.09348,0.0631047,0.896769,9.44513,-9.06113,0.520477,8.88766,-9.01782,0.0411883,9.70303,-9.25274,0.64479,8.79972,-8.9871
9.98231,1.08669,1.9894,33.9674,4.74527,0.621018,34.275,4.4845,-0.0454472,33.6877,4.44588,0.0327867,33.7173,4.40068
1.76062,0.108241,-14.5974,20.1656,-1.19424,-14.6398,18.7335,-0.520678,-14.6387,18.667,-0.522994,-14.6488,18.9999,-0.590552
0.00330326,0.0074513,2.43207,6.25521,-8.27744,2.36156,6.26586,-8.2851,2.40224,6.31124,-8.29994,2.36261,6.31071,-8.30587
63.933,2.10485,5.05504,30.9107,6.31342,10.7269,29.1238,4.5522,9.47754,28.8433,5.81876,11.3851,28.1476,4.25874
2.13554,0.515173,-4.19182,22.7691,8.70334,-3.28483,22.555,8.86304,-3.22059,22.61,8.89826,-3.23144,22.3932,8.9703
3.71979,0.152791,-0.833407,12.7175,8.34942,-0.342634,13.6362,8.24605,-0.13394,13.916,8.25421,-0.369253,13.9449,8.28815
5.66308,0.112581,9.3003,21.5896,7.10844,10.7602,22.3798,6.30941,9.21929,21.3188,7.02217,11.0925,22.1806,6.15625
18.4144,0.0212601,9.82154,28.0382,5.46834,8.44539,28.4076,6.13477,10.9719,27.6288,4.59937,12.4758,27.0618,3.14838
7.026,0.203185,4.51815,32.95,4.93752,3.13878,33.0695,5.47775,5.35595,33.5406,4.76726,4.1645,32.6646,5.3299
11.9112,0.677112,-1.05532,34.2586,4.21756,-0.166447,33.7392,4.27167,0.043037,33.7752,4.32762,-1.47346,33.3013,5.36665
8.11661,0.386949,11.0164,13.0048,4.74604,12.1505,13.92,4.43116,11.1703,11.1187,4.91087,11.2848,13.7205,5.10828
40.9799,1.23099,2.42034,11.8979,8.82585,0.897767,13.7928,8.96358,2.17176,14.0363,9.06916,1.36821,13.8212,9.03477
2.01121,0.0397986,2.21155,18.9407,9.27764,3.06812,18.7157,9.33954,3.30436,18.8426,9.28232,3.15882,18.7106,9.3354
3.42234,0.0468828,-12.7971,10.3163,0.0809664,-12.861,10.4819,0.232881,-12.7823,9.87267,-0.470462,-12.7303,9.80307,-0.913409
14.7353,0.0332374,1.31103,3.82273,5.8508,-2.21154,2.89488,5.03929,-0.293039,3.76819,5.65361,-1.58409,2.72183,4.99984
1.72331,0.157306,-9.2883,28.1745,4.89907,-9.52267,28.0845,4.98148,-8.62722,28.1125,5.43229,-9.44305,28.4719,4.92946
12.9378,0.261106,6.56509,6.66702,-6.54318,8.59306,8.19659,-7.04039,6.09005,6.3057,-6.83914,6.9836,7.63439,-7.35678
5.36724,0.209758,9.86871,23.2064,6.81756,8.30689,23.4806,7.1021,8.31682,23.5759,7.11047,8.53275,23.4527,7.03045
8.84058,0.139062,11.5097,24.7512,5.2284,10.7597,25.459,5.90966,10.8035,26.0033,5.88478,12.1842,24.355,4.93667
6.90029,0.257552,8.52716,32.6014,-4.10594,9.26471,33.3257,-2.64822,9.47605,33.1199,-2.54987,9.43906,32.9615,-2.79447
1.64276,0.0384366,-12.4755,28.0381,-0.401269,-12.5122,28.0681,-0.120055,-12.717,27.6199,0.288771,-12.7511,27.5178,-0.0725719
2.29699,0.130163,-3.98117,27.1354,8.056,-3.45452,26.3272,8.4412,-3.57271,25.9093,8.52343,-3.30688,25.7531,8.59179
5.46176,0.137719,-12.1906,22.0863,3.93059,-13.0931,20.5363,3.55629,-11.6401,23.1453,4.55815,-13.0381,20.9307,3.41906
18.6676,0.279033,-12.0671,14.7722,-5.31753,-12.4105,17.8512,-5.33235,-12.5254,17.7517,-5.19288,-12.012,17.3751,-5.81765
1.35707,0.0184482,-14.2892,21.7229,-0.0648371,-14.2317,21.8694,0.270236,-14.2172,21.8519,0.460312,-14.4399,21.3056,-0.171456
5.92666,0.0723273,-3.23853,4.59245,5.80862,-3.86533,4.8152,6.26874,-3.11232,3.09409,4.8093,-2.88362,4.45807,5.68581
9.39996,1.37967,-5.09592,25.0611,7.97649,-4.94626,27.4146,7.48011,-5.07283,27.1512,7.35287,-5.31106,27.1134,7.3064
0.0133377,0.0320223,-9.87359,9.09509,5.44692,-9.88665,8.95518,5.45458,-9.92276,8.95969,5.47449,-9.88356,9.05092,5.42668
21.7953,0.677036,-0.639709,11.7757,7.85339,0.507731,10.2141,8.22027,-1.18332,12.5054,8.70184,2.34396,10.9117,8.4349
9.49672,0.415939,-2.49007,1.44966,3.24835,-3.16138,1.28861,3.48986,-0.759416,1.88615,4.47659,-1.44761,1.74083,4.18035
30.8795,0.00541504,10.6063,6.80466,-2.76845,9.85093,6.46397,-4.60855,10.4045,7.58149,-4.10526,10.1769,8.7,-5.82618
9.40408,0.212569,-3.00521,30.8932,6.42366,-4.56048,30.7364,5.8284,-1.27988,30.5692,6.83924,-4.6664,30.4506,5.96424


