
67.5101,0.359786,9.01534,10.1439,-5.49326,8.70487,12.289,-7.06439,10.8355,8.65284,-4.48883,9.41221,7.52544,-4.50794
1.55087,0.0570654,-8.85551,11.7616,-7.28241,-8.7647,11.4012,-7.30895,-9.28951,11.3341,-6.96413,-9.15085,11.2564,-7.02906
10.7888,0.742559,-11.7635,11.699,-4.7527,-11.056,13.6883,-5.95338,-11.0174,13.2699,-5.9985,-12.1714,13.3517,-5.28964
0.896696,0.0301418,12.1784,10.5266,6.29763,12.2766,10.7031,6.25292,12.1437,9.87719,5.87859,12.0999,9.93195,5.9609
32.8394,0.159818,9.30526,26.6115,-6.20544,9.89758,27.5254,-5.78371,8.03081,28.5801,-5.71961,8.77768,28.6715,-5.48819
31.825,1.40135,-3.59507,31.9005,6.35875,-5.93473,30.8058,4.71208,-5.62228,32.3494,5.07327,-5.72833,30.4376,5.28887
11.9854,0.489257,-9.90786,5.79727,3.67537,-10.3744,4.87657,2.80513,-9.67661,4.30853,3.44666,-9.3094,5.07176,5.17618
7.65003,0.463868,-2.25429,26.9635,7.91289,-0.159268,26.5909,8.10237,0.156278,26.4316,8.22094,0.165168,26.7533,8.17261
9.56611,0.187129,8.44457,5.0249,5.1822,10.1659,5.61655,4.81438,10.269,5.82414,5.03122,7.59494,4.9494,5.16835
2.90062,0.00337562,-11.1813,5.69204,-1.1601,-11.4972,5.62847,-0.937032,-10.5549,6.63612,-2.17803,-10.8616,5.60923,-1.27077
0.828388,0.0605846,-11.8126,17.7111,-5.4252,-11.579,17.9337,-5.66075,-11.94,17.5023,-5.37777,-11.8173,18.116,-5.6068
52.4472,0.596335,-14.5342,13.6025,-2.36486,-12.2454,11.3747,-3.80329,-10.8513,10.8569,-4.11853,-11.1054,8.37329,-4.63022
3.0222,0.226085,-9.18797,6.73715,-4.85978,-9.59192,7.06625,-5.17234,-8.16114,6.4331,-5.49095,-9.44227,6.36788,-4.77098
2.94317,0.0236082,1.55987,4.95403,7.91574,0.954444,4.02257,7.35162,1.5716,4.33502,7.52422,0.985471,4.13888,7.42844
9.49527,0.231704,-12.1351,21.4448,-5.20022,-12.0612,20.8554,-5.48648,-11.067,22.0861,-5.58313,-12.411,22.6805,-5.30871
18.9722,0.812712,-6.52961,29.8897,4.19746,-8.1752,29.5119,5.70817,-6.00586,30.5235,4.7058,-7.63303,31.3768,3.93243
1.66366,0.0684258,-10.3407,15.9396,8.01395,-10.4607,16.2743,8.31117,-10.0009,15.5625,7.80228,-10.1891,15.3326,7.71586
89.6037,1.43232,6.99214,34.5886,2.58158,-0.114218,35.7517,2.58858,-0.508785,36.3176,1.42988,-1.13059,35.85,2.2713
59.6798,1.17181,12.1766,8.05816,-2.55857,12.0796,7.29393,-0.815527,12.5932,7.95706,-0.00958472,12.5705,9.1509,0.144778
23.1728,0.0390156,-5.93116,27.0068,-7.0767,-5.52881,25.4523,-7.2005,-3.48803,27.8652,-7.58293,-3.22172,27.2413,-7.67378
2.50739,0.0817803,-6.06905,2.12463,-2.51138,-6.19852,2.24631,-2.71309,-6.05359,1.75713,-2.19047,-5.60466,1.96986,-2.86788
0.286253,0.256408,-7.87314,5.3944,6.60785,-7.92571,5.08421,6.29992,-7.8875,5.05838,6.30236,-7.96431,5.10752,6.29711
15.5749,0.00698367,1.0633,20.7856,-9.90919,2.70647,21.4865,-9.72026,2.00223,19.448,-10.0205,3.06169,20.5759,-9.81001
4.05274,0.155316,-12.8912,12.5506,3.45439,-12.5348,12.3968,3.59272,-13.5806,12.4921,3.50202,-14.2307,13.5238,4.08782
7.38863,0.0460246,-7.03588,24.0709,-8.21976,-9.30079,23.8385,-6.63926,-9.56061,24.3508,-6.31854,-7.29421,24.7293,-7.9228
0.104349,0.0170124,-9.20871,25.3935,7.91579,-9.31704,25.2794,7.90872,-9.35548,25.3854,7.8365,-9.3231,25.4464,7.83385
26.5917,1.02705,-5.55783,32.3856,2.59362,-7.38303,32.6378,3.25967,-3.45693,33.8276,4.38535,-5.7819,32.8337,4.75803
8.38472,0.182244,8.43566,17.8872,7.85908,9.26182,18.9095,7.56877,9.57302,17.4202,7.34732,8.35693,19.231,7.82111
5.5281,0.488502,-13.5065,14.0464,-3.7627,-12.6479,14.5665,-4.27695,-12.2515,15.4463,-4.71317,-12.4151,14.9274,-4.40064
5.35164,0.059786,-2.1914,0.661174,2.87845,-1.14122,0.675851,3.10628,-0.974182,0.455308,2.26951,-1.26262,0.385269,2.02307
7.87214,0.0656639,-7.2156,14.2992,8.5096,-7.21117,15.8082,9.0784,-6.45821,14.54,8.82245,-6.48237,14.8682,8.92539
18.0487,2.32523,-13.8784,22.3591,4.44451,-11.9651,23.6889,6.38601,-12.2229,23.922,5.7823,-12.4925,24.1279,5.41021
2.52708,0.0327627,3.76837,9.64221,-8.68513,3.26957,9.36063,-8.66663,3.45105,9.29689,-8.62576,3.43957,10.4626,-9.05009
0.506394,0.0651422,-3.94815,28.4875,8.05322,-3.81222,28.4087,8.17661,-4.18765,28.4329,8.07666,-3.82506,28.6614,8.10845
13.5971,0.775922,11.3068,23.7058,-6.17472,9.60404,23.9665,-6.96663,9.53978,24.7236,-6.9216,9.93513,23.4253,-6.99374
45.1609,0.9158,12.1355,16.0308,5.48897,13.2536,19.3951,5.29911,13.4912,16.8123,5.01729,13.659,17.8047,4.71051
7.96301,0.227742,-5.51481,23.9562,-7.71265,-5.59067,24.6798,-7.41468,-4.14343,23.6795,-8.67664,-6.08655,23.2801,-8.36257
0.951267,0.0882782,-8.15754,26.2124,7.94858,-7.68026,25.7995,8.33361,-7.46936,25.8581,8.42993,-7.49934,25.7906,8.42362
25.4553,0.294547,13.033,11.2794,-3.73986,12.2357,10.2218,-3.71151,12.0047,9.56921,-4.08874,12.5659,10.624,-4.70813
11.4826,0.249324,-14.0995,10.0919,-0.4824,-12.6332,7.51625,-1.19283,-13.2561,8.2386,-0.014795,-12.9348,7.88269,-0.70576
7.79037,0.0605194,6.95264,7.44761,-6.50208,6.10593,5.52971,-5.75188,6.52464,6.03194,-5.84428,6.30314,7.64648,-7.14428
5.60522,0.539173,-4.32963,27.0168,7.4279,-2.69298,27.1594,7.96489,-2.5095,26.9081,7.98599,-2.44291,27.0444,7.97532
3.07717,1.20587,-7.83854,22.6376,-7.70684,-6.63713,23.4366,-8.51404,-6.36957,22.9328,-8.54932,-6.32306,22.8547,-8.5734
9.46566,1.07829,12.5133,9.02537,0.319539,12.4874,9.99634,0.948244,12.5148,10.3876,0.507339,12.4838,10.3254,0.561548
2.14144,0.19297,-6.24376,27.362,-6.99465,-7.10006,26.9767,-6.64354,-7.46266,26.6946,-6.61285,-7.06582,26.8008,-6.69837
0.79313,0.0702998,3.62112,3.68662,-5.62283,2.84103,3.25916,-5.43422,2.91295,3.13183,-5.32751,2.84238,3.21742,-5.40098
5.19674,0.136191,14.7246,23.9625,3.3122,15.0584,24.4256,2.39893,14.8646,23.2634,3.86679,14.5747,24.4178,3.86196
6.38428,0.0698348,6.62936,27.7028,7.23253,9.97799,28.6419,6.73145,10.0075,29.0665,6.41434,10.0818,29.1081,6.38577
2.68591,0.112461,-1.95998,22.8915,8.38323,-1.94587,23.3254,8.22931,-2.10069,22.4486,8.79208,-1.69307,23.3718,8.48642
3.12205,0.0887345,-7.98325,2.9297,2.50691,-7.30515,2.31115,1.53595,-8.51806,3.1183,2.75862,-7.3662,2.33582,1.5306
17.4763,0.578638,-4.72287,6.09239,-6.88501,-5.65322,4.6456,-6.04866,-3.39844,5.74841,-6.63569,-3.3595,4.56652,-6.65079
2.44305,0.0157218,6.35621,32.0098,5.82107,5.89567,31.1864,6.00089,6.49925,31.02,5.68963,6.50972,31.1684,5.69621
24.1389,0.0426007,-1.26982,17.395,-9.80386,-1.89339,19.892,-9.88988,-2.79611,19.4961,-9.71371,-2.98223,18.1771,-9.60394
1.47752,0.123654,-5.57796,32.7948,1.88206,-5.88998,32.6049,2.14498,-5.32577,32.8602,2.1189,-5.55856,33.0531,1.7961
3.7437,0.444853,1.68723,24.7009,-8.61429,3.07665,24.8039,-9.04141,2.66699,24.8836,-9.03291,2.38837,24.4524,-9.09298
6.55772,0.130716,-9.16303,20.0943,8.68464,-7.78657,20.6766,9.09949,-8.00349,20.9367,9.01733,-7.81659,20.6146,9.09874
2.434,0.103679,11.5412,7.18153,-3.14223,11.9404,7.38008,-2.47466,11.7433,7.62318,-3.38289,11.2775,7.27194,-3.53222
0.661766,0.00856836,-1.70277,20.8105,-9.77523,-1.02409,20.9384,-9.84549,-0.981102,20.7353,-9.87723,-1.34211,20.7386,-9.82619
105.93,0.168198,14.3755,17.6978,3.39979,14.6762,20.0402,1.05679,14.2437,20.2979,1.86658,15.4058,16.8938,1.15799
1.27229,0.084841,-1.71418,8.51812,-8.18786,-2.07336,8.52372,-8.10772,-1.29836,7.96289,-7.9717,-1.98438,8.59313,-8.12171
9.84837,0.186063,15.342,19.1247,0.495998,15.7135,17.8037,0.128881,15.6804,17.4368,0.312333,15.7273,19.5534,-0.247298
33.9495,0.842492,-7.45549,32.3056,1.09471,-8.42132,33.7432,-0.060397,-6.93799,33.1614,1.75916,-9.18939,32.1128,1.86977
0.0579906,0.0046093,4.31659,17.8403,-9.91778,4.30856,17.7791,-9.91658,4.52508,17.817,-9.86134,4.53357,17.7667,-9.86048
6.91356,0.687416,2.74618,6.63566,-7.7495,0.888247,6.37937,-7.48757,1.65458,6.02153,-7.68987,1.02279,6.51695,-7.63792
4.75089,0.363582,12.769,10.8888,-3.40275,12.4313,10.2109,-3.15262,12.3682,10.3241,-3.35961,12.5428,9.83992,-2.7587
6.97523,0.0345483,10.3778,4.59431,0.675153,11.2667,5.5963,0.734923,9.34151,4.03595,-0.230426,9.73348,4.52922,-0.333386
6.74361,0.00676183,-4.32581,23.8452,8.95919,-3.28176,24.1049,9.4123,-3.40926,23.1578,9.54899,-3.58825,23.5584,9.3797
10.5629,0.0775897,0.98193,29.2293,7.99072,3.51514,29.0458,8.27623,3.57426,29.2507,8.23178,0.600909,29.3212,8.02451
31.3938,0.648608,-13.9036,23.3818,-3.52375,-15.0265,22.4772,-1.90858,-15.0467,22.5484,-1.87161,-14.8053,22.2029,-2.48364
8.82223,0.0395969,15.7547,21.2857,-0.104554,15.4559,20.037,-1.08879,15.5038,20.0982,-0.761804,15.5754,19.9323,0.146714
36.1628,1.15146,10.0378,25.5667,7.10931,13.5465,24.5341,5.72811,13.6516,23.9707,5.71754,13.8986,25.1462,5.33171
1.42132,0.133438,-12.1101,8.99957,5.18712,-11.7555,8.7871,5.09661,-12.9568,9.48371,4.85593,-13.0392,9.67638,4.90412
83.6845,0.168037,-0.428569,3.08723,6.22287,-4.03722,3.19514,5.30451,-4.75404,4.05032,6.21624,-2.40114,4.10617,6.79571
8.95621,0.268548,15.2635,20.6907,0.144917,14.2706,20.0703,1.78876,14.5079,20.189,1.16824,14.5874,20.4058,1.08701
5.34343,0.0834885,-14.9921,12.3607,0.116727,-15.3055,13.7013,-0.728367,-14.9856,12.2931,0.957293,-15.3432,13.7684,-0.636125
44.395,1.77658,-10.5041,3.91874,0.293679,-8.77192,3.03251,-1.63622,-8.55074,2.45779,-0.894629,-8.76178,2.80434,-1.33501
0.0292509,0.0129588,-4.51261,10.8531,9.26875,-4.56457,10.9524,9.29812,-4.48901,10.8945,9.28911,-4.57807,10.8914,9.2877
0.244273,0.150564,14.4473,26.7178,1.46766,14.313,27.0403,1.57133,14.3276,26.9713,1.46557,14.349,26.9888,1.3836
0.481903,0.192483,10.0657,26.4191,7.29258,9.85606,26.6628,7.34588,9.85827,26.8242,7.42932,9.76533,26.4718,7.34087
34.1559,0.134486,10.0209,29.652,-5.31029,10.0598,27.8449,-5.57755,8.30543,28.9969,-5.80404,10.568,26.3197,-5.78982
4.10128,0.00632532,-11.0048,20.6825,6.72276,-10.74,21.4232,6.45588,-11.4589,19.9515,6.93647,-11.7095,20.1051,6.77774
0.262271,0.236637,0.657711,33.847,-5.17273,0.578868,33.6352,-5.33564,0.730555,33.6356,-5.33076,0.802562,33.6524,-5.33654
5.54112,0.471805,11.6385,10.0832,-5.0476,10.7433,10.7529,-5.6473,9.70289,9.7996,-5.41313,10.3398,9.72229,-5.41519
1.936,0.372145,9.6741,14.9732,-6.96345,10.6049,15.2628,-7.21222,10.6502,15.4064,-7.26879,10.595,15.4414,-7.30652
26.4637,0.618729,12.5441,10.4442,0.459692,14.0071,12.5178,0.722889,14.3647,12.2783,0.0566449,13.2648,11.4938,1.19314
8.18352,0.478404,1.81899,25.0872,8.9196,0.318269,25.4805,8.83647,0.279222,25.2391,9.13669,-0.348764,25.8623,8.92731
3.9874,0.0245924,7.85933,18.8273,8.16193,6.55249,17.6734,9.0797,6.83772,17.7153,8.82846,7.0397,18.3197,8.76984
37.5036,0.211244,-14.0357,26.4923,-1.86124,-13.2104,26.4705,-3.46169,-12.8764,25.5242,-4.36142,-13.3604,24.8415,-3.95131
6.72947,0.0202192,7.91358,12.9324,8.54056,7.79737,12.1109,8.84873,6.67485,12.7779,8.97915,7.1483,12.0854,9.07057
12.475,0.682408,8.06822,17.1982,-7.81656,10.3396,17.8244,-7.06967,10.1713,18.1401,-7.59892,11.0396,17.6326,-6.62909
9.80281,0.545325,5.56883,24.921,-7.36465,7.70359,23.2454,-8.06532,4.78036,25.0371,-8.56438,6.0743,25.6921,-7.21058
7.06704,0.23059,13.7262,18.8457,-3.69122,13.6076,19.0744,-4.69969,13.6999,18.0327,-4.45094,13.7458,19.2145,-4.31494
5.41584,0.37272,-9.81005,8.8526,-5.09854,-10.0764,7.53207,-3.8686,-10.0696,7.53145,-3.91484,-9.99803,7.60474,-4.20868
6.44371,0.381851,6.52597,4.2353,5.48227,5.19499,3.75964,5.67344,5.23922,3.61727,5.70781,5.20737,3.09308,5.79221
0.310456,0.013216,13.6036,28.8366,1.00435,13.7536,28.5191,1.04622,13.7303,28.5782,0.907366,13.7888,28.4568,1.00414
0.119306,0.00658931,-5.069,12.6135,-8.70352,-5.07362,12.3995,-8.73114,-5.11791,12.3994,-8.72915,-5.02632,12.4666,-8.72664
1.03608,0.0533495,6.00464,15.4389,-9.23849,6.17897,14.6031,-9.28471,6.13229,14.5353,-9.29343,6.01188,15.7302,-9.14922
16.3532,0.0330131,-7.76225,2.92615,2.96804,-6.33406,1.25647,-0.503571,-7.0594,2.20011,1.69639,-6.52759,1.3718,-0.720494
5.90351,0.179683,-12.418,9.11374,-2.97499,-12.9036,9.06539,-2.74661,-12.2908,10.3175,-4.12243,-11.922,8.18006,-3.15169
11.8972,1.37432,5.05777,1.31027,-1.8808,7.06589,2.45448,-2.6751,6.93081,2.7793,-3.33025,6.9294,2.76176,-3.28693
34.5137,0.353232,6.88891,33.3943,3.77297,8.92226,33.1077,3.38032,7.19324,33.0058,5.07262,8.74907,33.4091,2.95439
6.63088,0.15715,2.36509,26.4331,8.11496,1.04859,26.6528,8.18803,0.177465,26.6673,8.16159,0.191846,26.4161,8.22417
1.43951,0.0148305,-3.4219,15.1063,-8.75042,-3.24737,14.5377,-8.80248,-3.41579,15.5245,-8.64187,-3.06165,14.4,-8.77341
3.12682,0.454032,-15.2929,23.1386,-0.0644681,-15.3498,22.5545,0.605904,-15.2774,22.6798,0.766095,-15.2579,23.1438,0.923174
8.22328,0.743223,-1.66253,24.2333,7.79203,-2.04235,25.1113,8.84553,-1.91533,23.3861,8.20454,-0.61301,24.7142,9.41548
5.6036,0.293553,1.33716,16.68,9.02523,0.0916533,16.08,9.76097,0.64243,16.8766,9.09321,2.01026,16.9983,9.27892
29.1413,0.171865,-8.23355,5.05091,-4.31121,-6.96867,5.8916,-6.12116,-7.84584,7.78254,-6.7644,-7.43983,4.24744,-4.61048
0.963012,0.0626832,-4.40869,20.5174,-9.28962,-4.58989,20.7138,-9.3071,-4.1021,20.6142,-9.41491,-4.50393,20.2106,-9.34623
12.9616,0.0723654,14.7928,18.3783,-3.03935,14.6399,18.5428,-3.24805,15.3033,18.0226,-1.10781,15.5043,17.5771,-0.571555
6.24453,0.00391681,-11.5271,7.53912,3.27409,-12.7076,7.90171,2.37783,-12.5212,7.98622,2.59837,-11.4151,6.96994,3.05133
3.89189,0.114615,0.582331,16.8294,9.08394,-1.05435,17.1376,9.13674,-0.0548192,17.0673,9.15332,-1.07408,16.9948,9.16382
30.9208,0.619807,-8.47619,14.4211,6.80457,-9.81323,15.2553,7.52508,-9.07576,11.6824,7.46783,-7.81076,14.0746,7.37683
13.0015,0.805801,11.936,15.7794,5.85817,11.1096,16.328,6.24591,11.756,13.8637,6.99515,11.3405,15.2036,6.38135
5.61555,0.104058,8.65306,30.8876,5.74874,7.52271,30.7489,6.03377,8.93326,31.145,5.74482,7.74253,30.5736,6.06343
18.7251,0.168449,-11.2592,16.5068,-5.42574,-10.1396,16.5826,-6.00415,-11.3149,18.9435,-5.80212,-10.6365,18.1561,-6.06592
7.755,0.0690838,-13.574,24.4376,-3.31126,-14.0123,23.971,-2.87266,-14.0683,25.0391,-2.58647,-13.2004,24.4548,-3.98781
29.7553,0.303067,13.1634,19.0443,4.95636,13.7293,18.1434,3.68562,13.955,20.9689,4.037,13.8492,18.5036,3.40175
4.46367,0.0205574,-0.940325,24.5445,-8.23072,0.183827,24.3919,-8.5871,1.09672,24.5834,-8.57688,1.04471,24.4708,-8.66686
10.3054,0.345531,-9.62656,14.634,7.43963,-10.8535,13.1069,7.77441,-9.91119,13.292,7.67724,-10.2193,12.9556,7.8352
7.486,0.0103857,-12.6104,28.1186,3.47878,-11.87,29.7869,2.61472,-12.1954,28.5832,3.63322,-11.6361,29.9512,2.81765
1.9863,0.0830862,-4.60762,22.4076,-8.85044,-4.9247,22.6312,-8.78735,-4.51745,22.5531,-8.92597,-5.20929,21.6411,-8.97642
4.75548,0.35798,2.25123,33.7892,3.37096,2.99332,33.5773,3.42966,2.30954,34.3103,3.23915,1.72666,34.3937,4.30246
24.3037,0.207268,9.35679,13.5933,-7.35049,7.19118,13.1503,-7.87588,6.58257,12.0975,-7.49904,8.45861,12.495,-7.25523
49.4571,0.175714,-4.50992,8.20969,-7.58656,-7.53782,8.63518,-6.94724,-6.95573,8.94426,-7.27124,-5.94659,7.1425,-6.8594
87.2668,2.04539,-7.28583,2.76125,-2.81432,1.32553,2.9535,-5.37971,-0.690693,1.72575,-4.20362,-0.257738,3.43792,-6.02742
6.12347,0.0786802,-6.74485,3.39031,5.34252,-8.39247,3.83188,4.74897,-8.86861,4.1002,4.69228,-7.48718,3.3669,4.90563
2.15008,0.292896,-9.51045,16.5543,-6.32098,-10.0506,16.6851,-6.03681,-10.3213,17.1268,-6.10682,-10.0918,16.612,-6.02377
2.20317,0.158237,-3.28438,11.0574,9.32742,-3.06641,11.6469,9.37961,-2.93492,10.8174,9.54404,-3.53136,11.6385,9.36958
7.92771,0.0361274,9.70451,13.4258,8.17489,10.5339,13.6009,7.94796,8.88358,13.7154,8.47284,9.21396,12.9444,8.37117
32.3204,0.735774,8.56001,22.6002,-7.13998,9.05599,21.5641,-8.09559,8.88478,24.3455,-7.30153,7.74393,23.1705,-8.06495
3.39708,0.0255962,-12.3215,18.9749,6.87649,-11.7056,20.0093,6.79736,-12.1856,18.894,7.01131,-11.4912,19.8901,6.95808
4.34655,0.528817,-9.71787,24.2388,-6.15752,-9.57085,22.8107,-6.30551,-9.54841,22.4864,-6.47759,-9.75577,22.5228,-6.37558
16.2746,0.797226,7.31935,6.89884,5.9335,7.81969,5.25512,5.667,7.59052,4.6906,5.06535,8.19266,6.66545,6.29736
94.9688,0.0900849,12.9581,9.69065,-1.01518,14.0135,12.2808,-2.16224,13.7644,11.815,-0.194542,14.4633,13.349,-1.53801
1.43017,0.099011,3.7228,12.5396,-9.13504,3.99297,12.7493,-9.25523,3.62366,12.3868,-9.21104,3.435,12.9483,-9.4421
23.8749,1.61898,9.92412,21.0159,7.50338,8.5314,21.3427,8.41099,8.34065,19.2903,7.81803,8.21147,20.2314,7.79983
40.2844,1.48216,-11.4196,5.59698,2.00874,-12.7599,7.05872,0.602222,-12.0446,6.10543,0.120915,-11.5352,5.2794,-0.159034
44.2019,0.497377,-8.0432,16.5483,-7.21975,-9.29915,17.6814,-6.87394,-9.23353,18.7259,-6.92178,-7.03122,18.8844,-8.62477
21.681,1.42172,-9.69514,19.5161,-6.61023,-10.1405,17.9947,-6.43454,-10.548,18.2907,-6.1529,-9.54587,17.542,-6.71355
21.9853,0.0473553,-1.55444,22.205,-9.70324,-3.1659,23.2196,-9.23936,-0.888914,22.78,-9.60055,-2.97682,23.7874,-9.13244
6.35721,0.261858,-5.89803,18.6632,-8.68862,-4.82625,18.5545,-9.2024,-6.08127,19.7723,-8.93933,-5.36568,19.6121,-9.10098
1.12725,0.0679086,-10.1771,4.46688,-1.37514,-9.82411,3.86971,-1.2981,-9.86643,3.92865,-1.14573,-9.79041,3.73811,-0.986949
0.368496,0.0970242,-10.7653,10.2329,7.52157,-10.6806,9.73782,7.27946,-10.7603,9.77541,7.25547,-10.6614,9.65731,7.26081
31.5922,0.232199,-11.0095,22.0255,-5.5862,-10.2224,19.3986,-6.31004,-11.4594,23.1572,-5.58914,-9.70922,22.427,-6.41202
4.14355,0.101674,10.8707,32.3077,2.65551,10.6461,32.3089,3.17581,10.1891,32.5759,3.15554,12.1448,31.4713,1.60789
39.1537,0.290577,-0.0971509,6.73966,-7.27919,-1.10964,10.5982,-8.17989,-0.433374,11.3445,-8.4371,-0.69502,8.32552,-7.79665
14.3701,0.289807,-8.83074,10.0685,-6.84848,-9.44019,9.71265,-4.79825,-9.66472,10.1782,-4.71919,-9.40215,10.1545,-5.88149
14.7736,0.0769165,3.83845,29.0075,-7.86743,4.21108,25.2053,-8.09215,4.94282,27.3605,-8.31049,4.1666,25.2068,-8.07355
10.406,0.0490819,-14.4284,17.0007,-3.25841,-14.3816,17.6045,-3.41835,-15.0406,18.2447,-2.35301,-14.9403,17.1688,-2.52796
1.38279,0.050024,-5.4972,20.5374,-8.97828,-5.34669,21.2892,-9.01358,-5.22343,20.0913,-9.18228,-5.6173,20.5746,-8.98227
2.33143,0.112156,10.02,9.77838,7.45873,9.26269,9.63146,7.93442,10.2527,9.27123,7.18847,10.1438,10.03,7.67494
1.22242,0.0486916,-9.55159,8.72572,-5.72177,-9.50419,8.91222,-6.0963,-9.60252,8.91765,-5.61687,-9.61579,8.34553,-5.8516
83.8043,0.320672,-1.01544,10.8783,-8.13634,-2.64701,14.7481,-8.71211,-2.39141,9.9781,-8.31137,-3.96626,13.4489,-8.53311
6.63191,0.0144507,14.4612,12.9728,1.99221,13.6099,12.2055,1.09804,13.8691,12.6155,1.18942,14.9592,13.762,2.13255
5.44687,0.443869,-10.1965,25.085,5.26322,-10.2427,24.164,7.00605,-10.6243,24.5567,5.97034,-10.3083,23.9544,7.07853
10.0922,0.416845,7.37668,24.5157,-6.56812,7.4073,24.0336,-7.65106,6.3791,24.4848,-7.32434,7.28351,25.1027,-6.58017
0.5591,0.0840625,-15.2197,19.427,-1.38146,-15.5053,19.5289,-1.27313,-15.3768,19.5015,-1.51475,-15.4756,19.5018,-1.27282
60.0589,0.895704,-0.0310176,11.2734,-8.53894,3.89798,11.0128,-9.11146,2.75461,10.461,-9.14099,2.25774,13.2034,-9.47103
5.26224,0.121884,-1.11043,12.7749,9.12604,-1.82318,13.3711,9.34137,-2.20903,12.5453,9.53672,-1.74914,13.4922,9.30867
1.71268,0.652123,5.92093,14.5071,9.05612,5.32565,14.2247,9.2117,5.23667,14.6748,9.17239,5.25271,14.5741,9.1538
0.0329754,0.00573876,-3.29948,18.228,-9.4885,-3.33288,18.2241,-9.48827,-3.25408,18.1245,-9.48356,-3.2943,18.1243,-9.47698
0.758792,0.147354,13.7793,27.7251,-1.28719,13.7324,27.8712,-1.12945,13.7133,28.0146,-1.20751,13.8122,27.8619,-0.999721
22.1861,0.187758,-6.58774,7.8305,-7.2219,-5.30259,5.96647,-6.62294,-6.70596,6.05472,-6.3453,-5.83792,5.17194,-6.21554
2.19118,0.082861,-2.86265,21.7431,-9.4069,-2.56299,20.8916,-9.61835,-2.59435,22.1582,-9.50268,-2.87319,20.9668,-9.55698
13.6689,0.34094,-3.7274,6.77066,-7.12542,-4.82025,7.53796,-7.28345,-3.10934,8.19557,-7.71532,-3.46715,8.27591,-7.64034
9.02818,0.682453,7.23813,6.95222,6.02398,9.00307,5.36006,5.47731,8.27227,7.20697,6.72537,6.75605,6.80523,6.86246
0.220772,0.0594545,7.06394,19.3515,-9.24936,6.9705,19.1938,-9.37936,7.07246,19.5393,-9.31819,7.11849,19.4761,-9.28679
13.9118,0.24392,-8.58291,2.89568,-1.69441,-5.16909,1.341,-2.0901,-5.23341,1.33681,-2.04322,-7.05675,2.29998,-2.26437
2.73491,0.0132603,15.6549,22.5229,-0.124064,15.4957,22.3749,-1.20025,15.7191,21.8081,-0.852833,15.6008,22.2164,-0.858882
0.0899523,0.0620672,3.35721,18.6065,-10.0271,3.48841,18.4061,-10.0204,3.4368,18.4373,-9.99745,3.49222,18.4756,-10.0205
4.28694,0.00575342,-12.6125,27.3819,-3.72347,-12.963,27.3561,-3.22192,-13.0943,26.8872,-3.38578,-13.0717,26.7001,-3.56024
1.13986,0.229615,11.6829,5.99273,2.56608,11.9824,5.99373,2.66673,11.8951,6.06018,2.42786,11.7786,5.52873,2.44857
18.3003,0.165413,11.6304,9.46309,6.30831,10.32,9.30329,7.15177,11.8461,7.80889,5.21358,10.7673,9.92171,7.34885
3.76106,0.0556105,-10.7963,26.8349,4.99652,-10.2212,26.7709,5.49915,-9.98543,27.1246,5.62381,-10.8338,26.4864,5.08691
112.445,3.60457,12.3996,9.3974,1.37303,11.2696,5.51098,0.984684,11.2656,5.52741,0.913737,11.3898,5.7932,-1.25904
2.05966,0.0500885,-15.3676,14.992,1.16268,-15.4468,14.8495,0.0871862,-15.3325,14.4366,1.1957,-15.4451,15.0425,0.750788
25.1102,0.415193,6.41563,7.88218,7.65797,10.7676,7.7252,5.96531,10.5482,7.96896,6.28184,8.35295,7.2652,6.76012
50.0401,0.740405,-9.86391,8.02912,5.58339,-5.46287,7.55729,6.94263,-10.9724,8.17636,4.17933,-10.8543,7.62684,4.11816
6.07744,0.175796,0.596054,21.7169,9.40944,2.94578,21.4325,9.82356,2.30421,21.4246,9.68368,2.05263,21.3944,9.59625
43.0644,0.0109609,10.5466,6.87995,5.63246,10.7987,5.62361,4.28482,11.8583,5.62999,2.9776,12.4652,6.80067,3.20903
0.492887,0.035985,12.2474,27.4834,5.59181,12.0812,27.6331,5.79262,12.0981,27.6432,5.7528,12.408,27.2531,5.65018
5.55045,0.0586,4.80879,15.2236,-9.55124,3.45436,15.5144,-9.57307,3.54352,15.6512,-9.48923,4.09518,15.8011,-9.35838
31.0489,0.830882,10.5437,20.8849,7.30301,11.2224,22.7811,6.79481,10.8501,22.9398,6.65227,11.8509,21.6928,6.98633
3.32756,0.0224857,-2.33553,2.97741,-5.45461,-2.88012,3.30514,-5.67877,-1.98473,3.42307,-6.02422,-1.99266,2.88654,-5.48244
0.105945,0.00670193,15.4471,15.3516,0.768399,15.3789,15.3435,0.616627,15.4528,15.3098,0.781741,15.3981,15.4025,0.631498
3.99914,1.40044,-1.10437,21.8951,8.94596,0.314577,21.5616,9.43097,0.469023,21.7749,9.43316,0.410446,21.6385,9.37767
14.1107,0.0904625,-2.2985,9.77018,-8.29326,-2.74998,7.56555,-7.7972,-3.33129,8.27721,-7.69682,-1.98463,8.79732,-8.18312
2.21864,0.228263,-6.79529,29.7025,5.87148,-6.83403,29.5365,5.20844,-5.95902,30.0278,6.36001,-5.95103,30.0097,6.44929
22.4666,0.243815,4.61102,5.21317,6.70713,4.80907,6.25905,7.2311,5.91562,6.73255,7.16317,6.3572,5.96991,6.25904
6.7171,0.0323087,7.9193,4.95674,-4.86359,6.10335,3.58149,-4.82655,8.62713,5.15149,-4.67988,6.95086,4.28461,-4.91097
16.3179,0.584389,4.38194,20.1521,8.7605,4.36311,18.8012,9.71198,4.04844,18.8692,9.64326,5.73355,21.0377,9.36626
13.5286,0.360489,3.79535,3.40448,5.16187,6.34661,2.28023,4.46491,6.76323,2.25043,4.35698,5.99056,2.14364,4.48098
3.09684,0.242588,-6.55913,25.2703,-7.87635,-7.46041,25.3071,-7.61592,-7.63596,25.2412,-7.51661,-7.61146,25.1102,-7.54329
4.20064,0.111387,-5.78469,27.5056,-6.93534,-4.75423,28.0327,-7.27051,-4.74405,28.1077,-7.30189,-6.15284,27.3611,-6.99788
3.43293,0.033215,1.3661,18.545,9.98532,1.13742,19.7388,9.86691,1.45354,19.2799,9.9997,1.34631,19.5653,9.94602
1.36771,0.268957,12.0211,16.8816,5.44629,11.6178,16.8901,5.76831,11.7979,16.9596,5.72122,11.5747,16.7758,5.8738
0.447011,0.0656162,-0.946586,32.8725,-5.69641,-0.782077,33.1166,-5.64185,-1.16072,32.9149,-5.72047,-0.743185,33.1034,-5.65514
12.3364,0.0830908,1.8442,31.1543,6.60728,0.376051,32.4587,6.48251,2.28591,31.4941,6.73729,0.657924,31.2445,6.54418
8.31925,0.169757,6.58045,1.76925,-1.18774,4.28772,0.780266,-0.738866,3.7946,0.77333,-1.21183,3.5891,0.721137,-1.296
21.0182,0.205283,-7.91305,26.7157,-6.40575,-6.95714,27.817,-6.57553,-7.30662,28.6065,-6.30389,-7.43143,29.5386,-6.04945
2.46172,0.0196348,7.03888,14.2156,-8.56461,6.90029,12.6237,-7.6316,7.01914,13.1035,-7.89175,7.14597,13.1504,-7.87467
28.4906,0.554282,13.2238,12.2498,-4.79111,10.8706,12.8862,-6.19906,10.5043,12.3287,-6.08325,9.80195,12.6882,-6.85838
26.3026,1.44899,-0.132335,28.406,8.37792,2.0254,28.5525,8.51957,0.128803,31.49,6.63813,0.605779,31.128,6.54194
8.05762,0.307778,-3.18668,4.50212,6.65303,-2.73873,4.92839,7.60283,-3.77427,4.31544,6.90204,-2.3202,3.42311,5.90443
0.575937,0.0174694,-7.76459,2.93219,3.6747,-7.30475,2.66909,4.08432,-7.34915,2.71748,4.08943,-7.42044,2.69396,3.87647
3.21963,0.108345,8.51842,27.169,-5.80958,8.85354,28.0628,-5.51813,8.99617,27.8927,-5.49639,8.31939,26.7293,-6.15523
47.7969,0.019283,11.9609,13.4663,6.88802,12.1132,11.5262,6.66746,12.583,11.0698,5.83591,13.0673,11.6687,4.92539
6.72768,0.263309,1.08857,27.604,-8.0251,1.13805,24.6311,-8.52859,1.96956,26.7253,-8.53902,1.63806,24.6326,-8.62968
4.04463,0.0625105,1.92142,0.563171,-1.83812,2.8222,0.574033,-1.41335,2.04433,0.630945,-2.27726,1.58164,0.384518,-1.65796
0.539023,0.0986847,7.68208,34.2083,1.90995,7.59786,34.3428,2.20507,7.62277,34.1924,2.0663,7.45139,34.5036,1.93641
102.191,0.275119,0.0752647,31.346,-6.6853,0.152942,28.886,-7.74634,-5.80874,28.9434,-6.77848,-5.03634,29.6847,-6.67333
17.8876,0.156231,-7.86276,16.1804,-7.20864,-6.64568,16.0244,-7.50507,-9.61303,16.7252,-6.28466,-9.31155,16.3979,-6.47445
27.7385,0.0803645,6.25226,29.3321,-7.21357,5.57298,28.4629,-7.7434,6.97613,28.3265,-6.58609,7.55667,29.2379,-6.24651
3.58591,0.190556,-1.9218,2.3093,5.25719,-1.39623,2.56965,5.83307,-2.61283,1.46793,4.65331,-2.99397,1.76441,4.84847
4.37996,0.401871,-12.6596,24.2295,5.00146,-11.9013,24.8597,5.44324,-11.7142,25.083,5.35373,-11.7716,25.3678,5.08012
0.646346,0.205112,-13.3303,8.16426,0.732325,-13.4863,8.50539,0.929506,-13.5407,8.68941,0.756547,-13.4719,8.58295,0.805733
0.332196,0.287205,-5.66889,35.5212,-0.592181,-5.34623,35.6227,-0.744729,-5.34509,35.6292,-0.654706,-5.35286,35.6458,-0.524323
10.8794,0.152862,-14.4215,26.0582,-0.98291,-14.0991,25.2307,-2.48837,-13.8661,25.9327,-2.43473,-14.0181,25.8468,-2.21287
0.0200731,0.0794385,-14.4395,25.286,0.438408,-14.5328,25.2602,0.412882,-14.4819,25.2338,0.395755,-14.4946,25.2774,0.345876
1.64519,0.5154,-9.86532,3.25719,1.88461,-10.2928,3.89708,1.91103,-10.3593,3.6,1.24367,-10.3284,3.74987,1.50532
0.404091,0.0660452,14.0256,19.9938,3.3069,14.1521,19.9838,3.15482,13.9492,19.8567,3.50321,13.9831,19.8247,3.33257
99.2454,2.65221,-15.3862,14.6758,-0.15629,-15.5897,18.1632,1.18067,-15.3477,17.8696,-0.975752,-15.5873,18.0897,-0.10833
4.19362,0.16613,3.65072,4.74437,6.48584,4.45675,5.24342,6.84064,4.66796,5.83958,7.0765,2.74386,4.48265,5.73601
38.4485,0.558955,-12.4715,15.6743,-4.58082,-13.2872,17.5552,-4.76363,-12.3241,17.4444,-5.19784,-13.8166,17.0239,-4.09265
41.2622,0.186533,-5.96075,9.39238,-7.70378,-5.57278,11.2986,-8.57115,-4.24828,8.87818,-7.97175,-3.61781,9.56333,-8.28024
13.9342,0.207192,4.97697,14.813,9.23166,3.84898,14.4666,9.15124,2.84142,14.6976,9.05613,4.88964,15.3991,9.62563
60.2443,2.3773,-12.2485,24.7166,-4.808,-10.2314,23.727,-6.27468,-10.1578,23.7922,-6.30341,-11.8703,22.1719,-5.44156
17.3242,0.601732,-14.4814,10.9558,1.37972,-13.8015,10.7179,-2.65144,-13.7976,10.722,-2.70131,-14.1337,10.2432,-0.798804
25.6373,0.146558,-14.9729,17.6611,-2.36646,-15.1359,16.1095,-1.78908,-14.7802,16.1386,-2.58679,-14.9937,15.5293,-2.16541
3.52514,0.150584,-0.0137982,33.1715,5.60597,-1.14983,32.9008,5.66831,-1.38313,32.3648,6.07982,-1.34512,32.4221,6.0353
0.483338,0.164887,5.65451,19.7458,-9.54855,5.83623,19.4615,-9.54396,5.70123,19.395,-9.5646,5.64449,19.2455,-9.64305
49.1026,0.0495255,-1.67715,5.18021,-6.68121,-0.890131,3.80952,-6.19598,0.0827358,3.63662,-6.15807,1.10399,4.69072,-6.52227
3.08974,0.164077,-0.952796,16.5052,-8.83314,-1.96007,16.3548,-8.71736,-1.86438,16.272,-8.70053,-1.77744,16.2703,-8.69439
11.9822,0.0274566,-3.01053,26.0963,-7.93525,-3.83979,24.9723,-8.05758,-2.65923,25.3737,-8.26455,-4.1918,25.4053,-7.80031
6.9859,0.150889,12.1456,9.73067,4.82843,12.1969,10.3527,5.73032,12.1789,10.2793,5.76488,12.2294,8.68637,4.4652
4.34414,0.0812981,3.97396,17.6788,9.54593,3.69655,18.7235,9.74108,3.89847,17.1943,9.34228,4.3322,18.7399,9.71482
3.22628,1.00396,-11.0282,13.9591,7.82901,-9.59302,14.9998,7.37955,-9.90134,14.9965,7.3648,-9.7052,14.9682,7.35353
27.9725,3.86937,-2.64368,7.43998,7.47195,1.6327,7.41467,7.74702,1.62571,7.16077,7.71159,1.08518,8.35086,8.92482
94.5127,0.359007,8.48717,3.41452,-2.11163,11.112,5.59512,-1.64995,10.4122,5.07632,-0.670751,11.0584,5.58356,-2.16226
19.3837,1.50025,13.7488,22.2275,5.28894,11.6445,23.4953,5.93703,12.9719,23.8744,6.12319,11.374,23.3172,5.93694
23.4961,0.0739683,-11.7421,21.0923,-5.49862,-12.7972,17.6654,-5.07241,-12.1153,19.1768,-5.42154,-10.9903,19.3284,-6.05949
55.1555,0.394528,0.372209,2.9745,6.46292,-0.887571,1.26889,4.34757,-0.786252,4.74418,7.7332,-2.05326,1.69722,4.8609
4.91881,0.319675,-2.02992,34.0324,3.8263,-2.57285,34.2644,4.02477,-1.60905,33.5784,4.55215,-1.55863,35.0681,3.52625
39.3233,0.242771,-5.83621,15.9989,-7.71957,-3.5158,17.4387,-9.22589,-4.20548,16.2848,-8.30694,-5.94672,18.5241,-8.70827
6.56333,0.174097,1.02183,30.3212,7.44748,2.82747,30.1664,7.79226,3.36833,30.5447,7.61488,2.90094,30.1289,7.84125
11.9089,0.186777,-10.1199,26.2158,-5.38964,-9.89919,26.4965,-5.71818,-11.7307,26.1649,-4.4229,-11.7576,25.948,-4.46366
21.188,0.433089,-6.81317,22.0685,7.87597,-6.92693,22.8087,7.89638,-5.77335,20.9685,9.24419,-7.69153,20.9478,9.03024
4.05553,1.33945,-3.05243,17.119,8.85584,-1.20198,16.9686,9.2064,-1.0955,17.1569,9.13988,-1.10772,17.0198,9.14353
3.33787,0.00250347,-7.09301,12.6376,-8.21781,-7.26957,14.0328,-8.26371,-7.40328,13.9727,-8.1968,-6.7841,12.9772,-8.38828
6.54393,0.198298,-6.86834,17.3986,8.12061,-4.43564,17.1416,8.6065,-4.60207,17.3394,8.62839,-4.36102,17.3227,8.6582
0.953625,0.00579567,-3.73024,15.0791,9.67194,-3.6289,14.7655,9.66055,-3.94297,14.9523,9.65884,-3.40164,15.4714,9.72074
0.406694,0.0420705,11.5194,29.8742,4.73191,11.6101,29.677,4.86917,11.678,29.6331,4.83634,11.7294,29.8111,4.64053
2.00941,0.0549289,-5.979,1.51449,2.37345,-6.30495,1.75722,2.73681,-5.74697,1.18398,2.04227,-6.58511,1.73015,2.57377
17.0933,0.0989651,-4.74076,0.86087,-0.734373,-2.82251,0.646811,-1.93901,-2.88086,0.930173,-2.32873,-3.31635,1.15806,-2.37132
0.446098,0.187238,6.12535,22.4894,9.1398,5.76058,22.4794,9.32106,5.80758,22.5421,9.25919,5.8044,22.6318,9.26702
2.16536,0.231628,-1.64266,19.799,9.72343,-0.983594,17.9502,9.78822,-1.50243,18.9524,9.79952,-1.10566,18.1601,9.83257
2.01745,0.0986154,-13.8286,9.97413,-1.7075,-13.3098,8.86267,-1.57557,-13.2708,8.83601,-1.64188,-13.5681,9.43157,-1.52112
0.179697,0.111624,-10.0242,19.1529,8.32278,-9.94958,18.9541,8.2905,-9.88933,18.9985,8.32811,-10.0157,18.9123,8.25553
8.43771,0.129337,-15.5333,19.9172,1.18906,-15.6737,19.6788,0.466206,-15.6424,20.2225,-0.654743,-15.633,20.4018,-0.606027
3.6469,0.17626,-5.59484,12.0076,8.6103,-5.98321,13.3154,8.92168,-5.34568,11.966,8.78043,-5.9187,11.3912,8.73007
1.3688,0.0568074,8.71386,3.74102,4.47572,8.51497,4.37355,5.01545,8.58484,4.61045,5.11741,8.64811,3.53741,4.30647
3.44565,0.122128,-5.9095,1.35954,-0.697971,-5.63442,1.04593,-0.47987,-6.19439,1.3339,-0.716371,-5.18045,1.01006,-0.85848
0.778545,0.400621,13.0354,13.56,5.8915,13.0056,13.0899,5.68366,13.2362,12.9711,5.358,13.0984,13.0513,5.52075
5.38932,0.260446,-2.24546,11.09,-8.26976,-3.21297,10.5924,-8.45245,-3.71626,11.6304,-8.71835,-3.44148,11.3453,-8.64056
10.6753,0.218847,6.93388,20.3177,8.27498,6.18322,18.8159,9.5492,7.4405,20.6432,8.1075,8.13367,20.1784,7.82323
74.0457,0.417891,0.5078,33.4894,5.324,-3.41109,33.1114,5.26881,-2.99066,32.4623,6.05379,-2.89747,33.8848,4.29664
1.50851,0.145153,4.38592,11.2708,9.38294,3.58309,11.3239,9.55191,3.67255,11.3642,9.51281,3.72939,10.9519,9.51417
9.37746,0.0334402,-4.47175,3.14837,-5.2065,-2.80445,3.90258,-6.29991,-4.18885,3.5611,-5.69097,-2.46532,3.57181,-6.0695
10.132,0.69029,-4.13526,16.2528,-8.3036,-2.27967,15.6621,-8.65573,-1.87446,16.1306,-8.73785,-1.87439,16.0604,-8.75797
0.495418,0.0379328,-13.5148,24.381,4.53068,-13.554,24.5292,4.47799,-13.689,24.2683,4.42672,-13.5875,24.1366,4.61275
4.99183,0.033484,-8.28134,26.4454,-6.35361,-9.87256,26.5158,-5.74819,-8.13276,26.6398,-6.4336,-9.93025,26.1526,-5.75419
2.36218,0.290211,0.011883,27.9202,-7.69716,-0.895031,27.9957,-7.64691,-1.21398,28.1999,-7.70407,-1.16792,27.8269,-7.76047
7.27895,0.0566885,-2.79326,19.9126,-9.6848,-1.64997,21.9244,-9.74571,-1.6038,21.8546,-9.76903,-2.91904,20.8955,-9.5586
57.658,1.18714,-5.58363,25.0275,-7.27831,-3.86273,26.4627,-7.7209,-3.12962,24.5202,-8.36834,-2.30283,24.6679,-8.17473
5.2775,0.0642787,2.41309,0.293723,-0.792152,1.37903,0.133332,-0.0830385,1.58758,0.192609,-0.680538,1.73524,0.116269,0.242369
8.33866,0.674797,11.9337,12.9742,-5.73817,13.2362,12.9667,-4.51754,13.5203,13.1141,-4.38606,12.8489,12.7412,-4.92715
6.19255,1.07721,3.85785,7.43354,7.80007,1.77973,7.1598,7.71501,1.64959,7.32058,7.71369,1.78768,7.08326,7.74429
1.80617,0.13542,1.15396,14.5745,10.0833,0.791231,14.6882,9.89355,0.406765,14.6183,9.83323,0.815608,14.4106,9.89081
9.64023,0.230871,-3.88781,2.34775,4.76619,-4.17952,2.45227,5.11337,-3.74539,1.47004,4.35481,-3.01634,2.55985,5.37811
16.9269,0.515829,-13.8816,24.0318,-1.9088,-14.8837,24.274,-0.573274,-14.6433,23.373,-2.09094,-13.8694,24.6127,-2.90666
6.54335,0.620833,-1.96782,24.2801,-7.80964,-2.34227,25.0314,-8.18457,-2.29218,23.6365,-9.04163,-0.938161,24.3775,-8.23599
0.257156,0.0254454,-15.0477,14.3773,2.68947,-15.0803,14.3034,2.42556,-15.0802,14.3767,2.46414,-15.0578,14.2254,2.47079
15.4136,0.15758,-1.19495,0.128378,-0.352381,-0.294563,0.299332,1.82673,-0.594396,0.236605,1.37538,-1.39681,0.391144,2.02836
4.91809,0.0976482,-2.85513,20.4673,9.20965,-2.61605,21.2933,9.04305,-3.03934,19.9801,9.46868,-2.02906,20.0316,9.63873
78.1259,1.08491,-15.0981,21.9763,-2.14577,-15.6417,19.7964,-0.668442,-14.4746,17.508,-3.21935,-15.5005,19.6676,-1.41374
1.90319,0.0985733,10.1372,32.4554,-2.99505,9.84293,32.9837,-2.01463,9.77344,33.0221,-2.05079,9.71318,33.0719,-2.04453
16.2068,0.185619,-14.7622,11.9837,-1.33809,-14.7169,12.9248,-1.79365,-15.2096,14.1706,-1.08914,-15.2276,14.3702,-1.24873
30.8278,0.215561,1.99584,8.54736,-8.59588,-0.0642493,7.34665,-7.68506,1.04563,7.2427,-8.30111,0.42877,8.23783,-7.96812
6.09738,0.619833,2.52682,5.42331,8.04936,3.03932,6.10536,8.13751,2.06981,6.71927,7.98146,3.51953,5.30152,7.70993
12.2439,0.631645,-4.01525,19.8171,9.72071,-5.32667,20.9925,9.15937,-4.89936,21.5363,9.51434,-5.48708,21.2229,9.21533
4.22878,0.0807009,-5.23418,1.33274,2.9159,-5.01152,1.40802,3.3997,-6.03023,1.71247,3.02508,-5.31489,1.92824,3.99172
7.10714,1.32625,-8.15051,3.19326,3.18994,-9.72591,4.29578,3.3203,-9.71688,4.24915,3.22405,-9.82835,3.9472,2.70953
7.58251,0.312057,12.1099,20.3063,6.18756,11.6282,19.8802,6.70603,13.2399,19.9107,5.67854,12.474,20.7397,6.54129
104.408,2.19411,7.51803,27.6602,-5.84741,6.11534,25.2527,-7.25093,5.93397,27.8232,-7.59425,7.99149,23.8126,-7.85849
23.9407,0.133032,-9.36867,19.9454,-6.87085,-9.27695,22.493,-6.67954,-10.1815,20.2785,-6.35219,-9.01225,21.8415,-6.99603
5.02921,0.964537,-4.73967,34.5686,2.35918,-5.61747,33.1828,1.74316,-5.6208,33.2651,1.72441,-5.94408,33.5413,1.68162
41.6414,0.0688808,9.73204,17.7557,7.23651,11.6148,16.999,5.99381,12.7383,18.3113,5.68497,10.478,18.6868,7.13008
3.75678,0.28733,0.10591,9.20919,8.88989,0.560807,8.296,8.8507,1.08997,9.72203,9.41391,0.759094,8.27943,8.84754
5.06451,0.158895,-12.2495,29.8386,-1.93265,-11.721,30.9845,-0.374804,-12.0688,30.4847,-0.703498,-11.8564,30.7115,-1.18594
2.25002,0.0576663,14.8438,15.7275,-3.0826,14.6697,16.6358,-3.51425,14.7498,16.1053,-3.35628,14.7955,15.1302,-3.22008
6.45333,2.74192,10.1098,30.5098,5.54638,12.3766,28.5244,5.03659,12.3218,29.0341,4.57322,12.2998,28.0443,5.31485
17.9499,0.735011,14.7093,16.4008,0.418351,15.4927,15.9476,1.56866,15.1767,13.5746,0.13643,15.4763,17.5135,-0.569322
8.01454,0.43208,-11.9593,17.4844,6.09932,-14.1477,17.5045,4.52389,-14.1891,17.258,4.4365,-14.6308,17.542,4.04591
59.4533,0.701486,14.0456,12.6269,0.726059,14.9451,13.7756,1.60345,15.4638,15.6918,1.81679,15.4782,15.4393,1.3943
0.229054,0.0334163,-15.5907,16.2396,0.612747,-15.5628,15.9951,0.677435,-15.5528,16.0444,0.766247,-15.5474,16.1221,0.786368
43.012,0.37554,5.26326,2.49648,-3.69924,9.45345,3.97937,-2.76798,7.34757,3.56608,-4.21684,9.48902,4.51598,-3.64092
8.11275,0.189416,12.3806,9.92036,4.51887,12.6303,10.9743,5.59593,12.2937,10.4682,5.5003,12.7956,10.6276,3.90821
3.9966,0.0369792,-11.143,8.25153,4.13555,-11.9654,7.95813,3.18618,-11.7263,8.2304,3.56445,-12.0378,8.00936,3.15604
60.4532,0.234003,5.44791,7.58068,-7.42036,4.14817,4.05464,-5.6867,5.51536,4.57751,-5.55234,3.95218,4.08699,-5.76222
17.1191,0.0776945,3.0496,8.47385,8.60355,5.71766,8.91051,8.77642,4.50294,9.85561,9.14704,2.45397,8.88865,8.85038
29.4296,0.494107,-10.0651,7.37496,5.40919,-9.91165,5.94069,3.85435,-9.63577,6.26543,5.8432,-10.9383,7.02365,3.60841
12.2022,0.0365182,-11.0944,7.53899,-2.99747,-10.7512,7.17144,-2.99301,-11.7763,9.60301,-4.50028,-12.4459,8.37906,-2.71415
0.382721,0.0132236,-10.2304,20.6497,7.88986,-10.3303,20.2943,8.02892,-10.4902,20.2267,7.91168,-10.4899,20.1469,7.9716
3.08254,1.19891,10.3898,9.0132,6.94367,11.0159,8.39007,6.06742,10.7574,8.15278,6.1918,11.1682,8.48024,6.05109
38.6012,1.27384,3.35383,3.3994,5.10382,2.0584,4.12183,5.98872,1.19192,3.50063,6.75673,2.46001,4.4215,5.70486
44.9258,0.158293,-0.491932,15.1347,-9.22919,1.57999,15.0247,-9.60799,2.0256,13.9716,-9.64922,2.65806,14.2402,-9.83715
2.45289,0.100882,-11.9918,26.1843,-4.3623,-12.1983,25.4523,-4.74956,-12.3207,26.5213,-4.44441,-11.7734,26.1872,-4.41733
1.26587,0.118932,-1.02231,26.6086,-8.38134,-1.21771,25.4126,-8.55549,-1.03561,25.6897,-8.56127,-1.17429,25.272,-8.57069
3.99252,1.21765,-8.04546,26.9672,6.24909,-9.65394,26.7595,5.4644,-10.0033,26.7346,5.58309,-9.83551,26.8197,5.49608
2.02793,0.00544158,-7.94348,13.9833,-7.95805,-7.53759,14.2497,-8.13832,-7.48916,14.1813,-8.15236,-6.1999,13.5239,-8.62096
42.5832,0.171387,-2.25079,28.083,-7.47894,-1.3001,27.9321,-7.70438,-3.54293,26.6723,-7.6941,-1.87916,24.7,-7.91002
0.0561806,0.0743093,3.58883,11.7801,-9.18291,3.62165,11.9754,-9.26271,3.66287,11.7907,-9.18279,3.64959,11.8409,-9.16893
4.32511,0.121565,-2.48661,6.07669,-6.64525,-1.95952,6.47416,-7.09889,-1.75534,7.96469,-8.01559,-2.26299,6.43522,-6.83757
5.12392,0.0126234,10.808,4.87291,3.10452,10.4747,4.46707,1.33393,10.7597,4.67814,1.61152,10.5596,4.70822,3.20734
6.95678,0.015473,-6.33677,21.4556,-8.66065,-7.90983,21.7069,-8.1025,-7.09724,21.3979,-8.40612,-6.93197,20.4202,-8.58921
2.18037,0.0953109,2.4512,35.0092,2.93929,3.09349,34.223,3.24119,2.44279,34.3011,3.18485,3.09341,34.5327,3.17623
61.1393,0.0483662,-0.242643,8.33958,9.00798,-1.43773,10.4291,9.47101,0.292397,10.1831,9.14034,1.50057,12.1575,9.11659
0.647686,0.714038,-3.11554,24.1063,9.37264,-2.83416,24.916,9.18313,-2.61001,24.6621,9.03255,-2.69232,24.7015,9.04203
3.48956,0.111009,-6.25755,28.7296,-6.49013,-5.85025,29.5681,-6.50651,-6.49992,27.9851,-6.70747,-6.67899,27.8477,-6.70769
9.58621,0.00959802,11.9896,9.56752,-3.62878,12.4293,9.06855,-2.46958,12.0801,8.3202,-3.20163,11.8843,8.6027,-3.71542
7.58564,0.327618,8.99545,33.1904,3.12596,10.3758,32.8144,2.24075,10.1435,32.7126,2.81736,9.96866,32.5449,3.61381
4.67768,0.296817,-7.48448,8.40357,-6.91265,-8.21477,9.3646,-7.15077,-7.93845,8.05385,-6.83043,-8.07617,9.09443,-7.02819
9.96385,0.236604,-11.999,15.1913,5.56778,-12.7954,13.527,6.06365,-12.5131,16.2014,6.79477,-12.0786,15.2905,5.15447
3.60075,0.0475882,-4.20529,12.12,-8.59191,-3.65516,12.6106,-8.5409,-4.80358,11.6256,-8.74356,-4.17067,11.1452,-8.73849
1.20826,0.0951525,-10.6394,15.2208,-6.00609,-10.4367,15.258,-6.37966,-10.6557,15.6471,-6.1185,-10.7833,15.0136,-5.99293
6.91396,0.0213538,3.72585,4.07593,-5.80116,1.37329,4.82766,-6.54537,1.46583,3.76362,-6.17064,1.79471,4.28393,-6.2792
3.24277,0.17217,-3.4945,25.0488,9.37058,-4.44893,24.8882,9.16155,-4.06266,24.4718,9.30104,-4.47835,24.5964,9.13723
9.46172,0.0253395,12.2181,30.6585,2.93672,12.6578,29.7276,3.07891,13.2275,29.4755,1.60284,12.7454,30.4664,1.60083
0.590168,0.102153,14.1323,12.9055,-3.55941,14.1533,12.8197,-3.73843,14.1317,12.8847,-3.73462,14.3015,13.12,-3.42669
11.731,0.107072,-1.99011,4.8357,-6.55213,-2.80228,4.08002,-6.43259,-2.62426,6.16498,-6.68506,-3.25528,5.5413,-6.5033
5.66099,0.0412982,-11.0695,13.8845,-5.83676,-11.286,13.8373,-5.80737,-11.376,14.9596,-5.82032,-10.6757,15.0294,-6.0529
0.649519,0.320501,5.72109,21.1492,-9.31221,6.13312,21.0107,-9.18573,6.17664,20.801,-9.24302,6.08788,21.1587,-9.20309
24.6644,0.0599955,-7.64526,20.863,-8.26501,-7.60541,18.7669,-8.23449,-9.02872,19.4657,-7.27417,-8.84316,18.5516,-7.34748
4.90542,0.032071,-9.53183,5.639,-4.04169,-10.1499,6.16714,-3.71995,-9.95908,6.73183,-4.57538,-9.70493,6.38939,-4.54812
53.2943,0.941314,11.5382,13.6799,7.11433,10.9313,16.4654,6.35861,9.23558,16.6653,7.6902,10.0653,16.3589,7.25696
3.0468,0.20504,6.46606,23.816,9.06052,6.9488,23.8782,9.11792,6.72514,23.3704,8.85461,5.56666,23.1873,9.37148
8.55331,0.174283,6.18146,32.5936,5.34179,6.8991,32.8904,5.30393,4.08576,32.4731,5.87987,4.02421,32.4899,5.88125
7.19507,0.217572,-10.623,4.75369,1.50589,-10.5436,4.74762,2.39344,-10.3405,4.30915,2.31964,-10.9995,4.52961,0.883512
17.5046,1.63431,1.13684,33.5602,5.44303,-0.364886,34.259,4.50379,0.675805,34.9169,4.10335,0.224014,34.5395,4.25699
19.6345,0.105352,-10.2808,17.5017,6.85096,-11.9647,17.3913,6.12577,-12.3992,16.9481,6.79768,-11.5868,16.8388,7.64178
1.17102,0.0615057,-9.89216,10.3577,-5.37908,-10.299,11.1447,-5.95731,-10.0926,11.0264,-5.95941,-9.94616,10.8642,-5.89108
15.5267,0.590511,6.11643,30.3623,5.69025,5.66288,30.8298,6.35823,9.21111,28.8942,6.55557,6.2918,31.0946,5.7237
1.61715,0.119695,-13.0213,24.4076,-4.12812,-12.8125,24.5879,-4.7298,-13.1725,24.5423,-4.02436,-12.9259,24.1785,-4.73079
4.74263,0.255144,8.03249,28.7945,-5.69917,7.46107,28.938,-6.22137,7.14789,28.6687,-6.55762,7.68089,29.9379,-6.53827
1.26477,0.192771,7.07361,14.2991,-8.58913,7.15738,15.3237,-8.88347,7.02602,15.1716,-8.91855,7.02099,15.464,-8.95454
20.501,1.01458,3.19041,33.4945,3.50623,4.96717,34.0641,4.03916,5.8774,33.0592,5.25647,3.03451,33.7571,4.96196
23.4248,2.97853,7.04368,16.3322,-8.47891,9.61701,14.9099,-6.91775,9.38098,14.3142,-6.85331,9.64788,13.879,-7.13777
22.4546,0.60772,5.83253,11.625,-7.73044,6.70857,10.5558,-8.14818,6.60457,12.027,-7.46613,5.79821,12.5102,-8.46785
3.05193,0.0524477,-6.08031,11.0703,8.75552,-6.35995,10.7394,8.83448,-6.98849,11.1176,8.5662,-6.07769,11.3841,8.72296
1.6521,0.0586389,8.30918,8.38266,7.67039,8.76723,8.79332,7.89693,8.62004,8.92233,8.02844,8.48078,8.23188,7.59009
23.4592,0.580167,0.615957,5.66817,-6.37693,0.532079,6.6648,-7.45122,-1.27313,6.26598,-7.11699,2.37046,4.54482,-6.66531
0.249659,0.0595594,-9.20916,6.85205,6.47305,-9.13395,6.81282,6.51703,-8.88019,7.08638,6.62895,-8.84514,7.14765,6.61311
8.28183,0.0474488,5.53813,16.81,-8.6869,3.33874,16.6577,-9.18095,4.57656,16.5755,-8.85655,3.47692,16.4379,-9.04899
43.3517,0.263991,-6.46305,15.6797,-7.44477,-5.2036,15.7815,-7.89852,-4.09847,13.3079,-8.48364,-4.06063,13.4536,-8.51118
7.14906,1.33035,-7.48061,17.4722,7.9783,-9.89672,17.4636,7.09064,-9.80998,17.4958,7.06988,-9.62052,17.6507,7.19227
0.372083,0.0507521,-9.49062,15.657,-6.90841,-9.4122,15.3659,-7.10531,-9.54407,15.3602,-7.0658,-9.49999,15.2915,-7.13683
2.19028,0.0816483,-7.24354,12.3859,8.70689,-6.40442,12.2296,8.75317,-6.13616,12.0194,8.73069,-6.03081,11.9017,8.70738
4.21036,0.140809,9.38437,10.0546,8.08467,8.66042,10.2417,8.36535,8.14743,10.1756,8.61247,7.88406,9.60369,8.55004
5.64641,0.15555,10.5679,7.18386,-3.43425,10.7808,7.24914,-3.58463,9.82318,7.76874,-4.36381,10.2902,6.88228,-3.55267
5.22208,0.17877,-10.391,30.0528,-3.85398,-10.7462,29.3724,-4.31511,-11.1642,30.2006,-3.37216,-10.1059,30.4353,-4.08025
1.60098,0.0852804,-8.4829,3.86493,-3.13177,-8.37202,3.84013,-3.43263,-8.69541,3.75426,-2.88178,-8.6606,3.96095,-3.1876
27.6192,0.926652,1.79121,11.0127,9.29162,3.31238,14.0006,9.32684,3.44598,14.3384,9.20495,2.91886,14.4284,9.04602
30.6232,0.377862,-9.9978,7.35759,-3.16191,-10.6549,5.41289,-1.35113,-10.3718,4.90141,-1.55884,-10.1851,7.71136,-3.9262
24.5154,0.132946,-12.2912,14.3907,-4.68134,-13.5777,12.9177,-3.26748,-12.3101,12.1062,-4.32719,-12.3945,12.7779,-4.29992
115.962,1.11939,2.06397,12.5177,9.02164,-1.96376,14.8055,9.74802,-1.94828,14.1076,9.41058,-0.69939,15.672,9.88102
7.81868,0.344446,-2.79484,7.44213,7.4368,-5.42792,7.73893,6.93542,-4.14077,7.74913,7.38941,-5.42774,7.62429,6.91489
2.92358,0.0974035,7.1744,6.30965,-5.66556,7.16505,5.68869,-5.50098,7.7667,5.9668,-5.35462,7.00121,6.86904,-6.11697
7.37063,0.313243,13.6765,11.7462,-3.12607,13.3288,11.5158,-3.58187,13.7829,11.9412,-4.08993,13.2594,10.7977,-2.3223
2.81746,0.159184,14.9509,14.3634,-1.59029,14.6103,13.4426,-1.2351,15.4036,14.5156,-1.26208,14.7611,14.1666,-2.22456
0.799529,0.0319593,-3.58637,0.667019,2.23496,-3.6629,0.620327,2.1615,-3.17676,0.599542,2.33611,-3.23382,0.636952,2.4176
24.8177,0.683369,6.80469,22.1482,7.95013,6.48053,20.6561,8.60303,6.51683,23.098,8.77028,10.0983,22.1905,8.02154
1.75111,0.0460159,0.855842,2.56207,6.01654,0.506581,2.7155,6.21747,0.827158,1.89684,5.37231,0.768576,1.93811,5.41128
1.89499,0.0794376,3.90279,5.68754,-6.5454,3.68203,6.1403,-6.94852,4.16309,5.44243,-6.36289,3.83923,6.29586,-6.82431
63.2015,0.177421,-9.27506,29.3281,3.18602,-10.3583,31.4593,2.29382,-8.07079,31.3596,3.76555,-7.99137,31.2399,3.83942
282.106,0.552936,3.84171,24.2402,-9.10708,6.64247,21.3732,-9.05352,4.68016,18.5459,-9.88561,2.08493,18.3393,-10.1135
23.6906,1.03404,-12.2486,12.3483,3.84152,-12.729,10.2126,5.65906,-12.7492,13.4118,5.81904,-12.2865,12.8746,5.34515
5.12176,0.056522,3.37081,0.66526,-1.00876,3.51996,0.451041,-0.229017,2.82014,0.564979,-1.32532,2.93494,0.270206,0.00894004
8.65075,0.265661,3.85905,32.4857,5.91698,1.9756,32.975,5.89639,1.9218,32.5775,6.26783,2.20568,32.2227,6.58678
11.992,0.993924,0.0785062,32.047,6.65935,-1.96061,31.9038,6.2909,-2.06563,31.6812,6.40185,-3.00405,31.6043,6.74297
29.8542,1.40794,14.8875,19.4371,-1.0292,13.8623,19.0167,-3.61151,14.3314,19.3867,-3.41757,15.13,18.7011,-2.4108
1.26929,0.146276,-0.717502,19.1666,-9.84903,-1.17675,19.1921,-9.99837,-0.63664,18.7601,-10.0766,-0.585271,19.2778,-9.97483
2.41132,0.0338368,9.88543,16.8895,7.1779,10.5427,16.8887,6.62571,10.1948,17.1011,6.8844,10.5527,16.8163,6.62166
4.1218,0.222655,3.56771,31.5091,7.02594,2.32635,31.3835,6.77171,4.13871,31.2352,7.12441,3.04491,31.2546,7.17189
0.785485,0.0868714,-7.79963,16.5454,8.91343,-7.69344,15.8115,8.94916,-8.00715,15.8714,8.87741,-8.08701,15.9082,8.8561
1.8409,0.496377,4.20698,20.5004,8.27052,3.90067,20.3749,8.83921,4.23438,20.1372,8.71503,4.47526,20.6727,8.75708
4.0846,1.48292,3.03398,19.7116,9.90815,1.19969,19.8462,9.82858,1.23227,20.0113,9.80261,1.20252,19.9409,9.78928
4.82291,0.0524459,-7.63911,25.1646,-7.50293,-9.19377,24.9443,-6.5271,-9.63288,25.0396,-6.25531,-9.67258,25.0933,-6.23692
0.408821,0.0759779,10.8036,13.6064,-6.95906,10.8791,13.8124,-7.03201,10.9682,13.6163,-6.85841,11.0763,13.7025,-6.92689
0.918736,0.0398713,2.98863,17.8463,-10.0482,2.98955,17.4294,-9.94927,2.35339,17.9103,-10.0976,2.30961,17.8479,-10.0945
28.9109,0.198143,15.3238,15.7223,-2.19666,14.3515,12.6256,-3.12356,14.9446,14.2858,-2.38218,14.0303,12.2985,-2.18393
0.396662,0.22164,-4.64238,29.438,7.70508,-4.64644,29.7684,7.51411,-4.47514,29.6652,7.62175,-4.57158,29.73,7.54453
7.47488,0.152784,-4.72143,30.5661,6.89733,-6.01891,30.1706,6.16751,-5.90071,30.0709,6.3544,-5.69228,30.5262,6.22576
8.99354,0.298572,-6.68353,23.0722,7.86618,-6.8279,22.6032,7.9537,-7.96904,23.8601,8.68161,-5.53814,24.1185,8.74594
0.144087,0.00458213,7.7003,3.53944,-4.03714,7.62803,3.52054,-4.04482,7.77204,3.41276,-3.79623,7.70055,3.39556,-3.79716
3.42296,0.106704,-14.9872,15.3874,-2.11193,-15.2231,14.8536,-1.37348,-14.9435,14.6571,-2.01595,-15.1279,14.6308,-1.60675
4.66584,0.0108374,9.92507,33.3366,-0.718082,10.3545,32.8017,-1.80388,9.79339,33.0407,-1.91733,9.7467,33.1051,-1.77318
7.10555,0.0263046,4.69267,1.33206,-2.3618,4.2286,1.08056,-2.37869,4.13762,1.70017,-3.37621,3.44135,1.46886,-3.54384
2.35956,0.0977118,-12.75,22.6154,5.84737,-12.6197,22.6872,6.24278,-13.1318,22.582,5.3981,-12.7366,22.032,6.51703
4.33689,0.362051,9.59857,30.3756,-5.12961,9.67263,31.462,-4.66846,10.3147,30.4512,-4.78701,10.0286,30.3224,-4.78761
21.7964,0.456394,-10.2078,21.798,6.48853,-10.7863,24.4397,6.19788,-10.2004,23.7334,7.44425,-10.6799,21.0816,6.60033
16.46,0.0109023,-10.855,10.8175,-4.09814,-9.56328,10.0062,-4.72697,-9.95494,8.83908,-4.98539,-9.55231,9.37664,-4.93188
4.1647,0.0139117,-3.05066,25.6984,9.24674,-3.71528,26.1731,8.89692,-3.52771,26.4132,8.81049,-4.0974,26.2864,8.78192
32.7147,0.71969,7.24659,5.14483,5.19262,7.37176,2.17898,3.16078,5.13702,4.43146,5.90341,5.10033,3.87219,5.76424
3.0471,0.090482,-5.00016,17.3947,-8.85371,-4.2848,18.6186,-9.31949,-4.10982,18.2684,-9.33005,-4.55442,18.6271,-9.23774
62.6521,1.31445,-7.99488,13.4297,7.10915,-7.1678,13.2763,8.64955,-6.9578,11.1959,8.58659,-8.65606,9.99161,8.11889
16.6731,1.15673,-5.42991,5.16974,5.26824,-4.85963,4.74004,6.90189,-6.35832,5.0259,6.55873,-5.49249,2.98939,4.4947
0.243579,0.0659045,11.071,29.8734,-4.43714,11.0313,30.0164,-4.50643,11.1974,29.7837,-4.45951,11.0136,30.0041,-4.54989
17.6267,0.90948,10.168,23.7536,6.18526,11.0421,25.3412,7.02561,10.1794,23.6666,7.8014,11.3817,23.3719,5.91292
0.568784,0.0414534,-13.8675,18.8378,-4.19496,-13.973,18.7646,-4.11927,-13.8262,18.7472,-4.30104,-13.9826,19.0782,-4.15033
4.35163,0.532802,5.99225,27.4454,7.21937,7.02049,27.6568,7.25332,6.50755,27.0176,7.83718,5.27013,27.8026,8.05136
12.3069,0.0520168,14.2084,26.0622,3.47932,14.3395,23.926,4.80208,14.441,24.655,4.09479,13.6831,26.4907,4.37901
12.2936,1.1301,4.88875,9.2179,8.88807,5.16316,12.3321,8.77386,5.54206,11.7609,8.87064,5.50613,11.7801,8.8481
11.1523,0.185606,10.2795,19.0763,7.00911,9.36539,19.1715,7.46374,8.95441,19.8137,7.61433,11.1864,19.7616,6.98552
0.0990247,0.0744721,1.68219,19.309,-10.0581,1.89194,19.1253,-10.0394,1.90769,19.2451,-10.0443,1.90395,19.1782,-10.0396
0.591741,0.16084,13.8137,26.246,4.52517,13.8982,25.9042,4.69152,14.0226,25.8078,4.66875,13.8189,25.9459,4.7655
70.8141,0.562483,12.9343,10.7085,2.68715,12.6922,9.24704,4.23154,13.7545,11.9011,2.94772,13.0335,9.31311,3.19726
17.017,0.203528,-4.49347,12.2669,8.84452,-5.26324,12.1496,8.80464,-4.25102,14.0249,9.54107,-3.18526,12.312,9.46401
0.346973,0.294961,2.91981,32.0196,-6.49187,2.8462,31.7481,-6.64086,2.92197,31.7396,-6.63481,3.00786,31.7364,-6.6754
3.9209,0.380966,-6.28234,15.368,9.26876,-5.95626,13.8547,9.03119,-6.14437,14.3971,8.94808,-6.37969,14.5061,8.86468
36.6245,1.19863,12.0144,8.38675,3.87366,12.0361,6.81585,2.13684,12.4041,8.12573,2.05815,12.7319,8.99367,2.17076
1.90579,0.124972,-8.38834,21.2575,-7.57823,-8.25405,22.1538,-7.78101,-8.17901,20.8835,-7.85886,-8.21384,20.962,-7.72197
4.12752,0.125409,7.92562,20.0646,-8.67084,8.04974,19.2205,-8.88582,6.81697,20.597,-9.13463,6.77224,20.3963,-9.18099
13.3132,0.92676,10.8291,30.8878,4.66844,8.80589,32.0409,5.25904,8.36954,32.8491,4.554,8.26161,31.918,5.49012
9.3286,0.257522,-8.97558,12.3541,-7.33162,-9.68892,13.5593,-7.09791,-9.23651,13.7498,-7.27623,-9.19658,14.3687,-7.42082
1.26683,0.0389518,8.04492,11.2288,8.87998,8.15783,10.6343,8.74259,8.00596,10.2856,8.70407,7.95633,10.4259,8.75336
3.00429,0.032887,4.99258,28.2938,8.20456,5.1691,30.1127,7.46207,5.15899,28.8514,7.99121,5.38045,30.0991,7.44793
3.31886,0.0375269,1.66637,1.91265,5.418,2.01167,1.39748,4.68801,2.46837,1.44385,4.78895,1.53712,1.6222,4.95172
0.478419,0.0401452,-8.89715,2.52702,0.267887,-8.5017,2.28299,0.369862,-9.03489,2.55322,0.265157,-8.96291,2.5261,0.409069
2.99271,0.0295465,7.98205,27.8938,7.39468,7.25899,27.7777,7.16103,6.96336,27.5151,7.39873,6.77747,27.2755,7.67239
4.76544,0.0121921,-9.05639,21.8331,8.55717,-9.95795,21.8231,6.81309,-9.79727,20.8831,8.23934,-9.68368,21.557,7.6548
1.04638,0.046372,-3.26806,22.0255,9.33076,-3.62054,21.4114,9.53359,-3.05083,22.165,9.33174,-3.59691,21.6378,9.48501
1.175,0.121664,4.03091,25.2094,-8.04941,3.99023,25.0103,-8.1834,3.89913,24.736,-8.877,4.4743,25.1394,-8.35431
14.4808,3.86492,5.96425,26.3375,7.86947,1.34852,26.1273,8.26725,1.33449,26.2092,8.26542,1.66133,25.6506,8.57038
0.974917,0.125327,-10.8207,11.6497,7.52809,-10.9305,11.9144,7.65323,-11.372,11.4354,7.47623,-11.289,11.8548,7.54207
2.55603,1.04715,-3.17102,17.0943,8.84255,-4.31741,17.2967,8.65156,-4.30879,17.1788,8.62073,-4.38344,17.0941,8.70663
3.47101,0.260684,14.0351,21.9803,4.61613,13.8237,22.26,5.21474,14.0701,22.6739,5.25051,13.8599,22.3,5.11883
9.01853,1.35942,-7.96105,26.9046,6.24136,-4.72344,27.1975,7.47181,-4.46447,27.0808,7.45689,-4.80073,27.0304,7.46986
0.878484,0.0397117,1.15107,1.77108,5.06462,1.44061,1.78191,5.13691,1.1612,1.84989,5.22637,1.13195,1.49824,4.78781
3.2861,0.0691705,-1.92771,0.243361,-0.512794,-1.18667,0.21898,-1.19022,-2.43097,0.202702,-0.696823,-1.17392,0.179729,-0.768257
9.91908,0.51441,0.0141318,27.8466,-7.65936,2.9467,27.8356,-8.31843,2.72338,28.0821,-8.21013,2.08703,28.1477,-8.16192
9.71603,0.0578342,2.12961,9.72608,-8.78191,1.58439,10.1293,-8.91243,3.37433,8.69147,-8.23839,3.32659,8.09553,-8.0205
14.6396,0.18911,-4.5927,23.9021,8.67694,-4.88431,21.6876,9.54035,-5.84494,21.9149,9.26744,-5.09045,24.0596,8.72527
8.90927,0.282097,6.75837,16.9853,8.77323,9.04761,16.922,7.73111,8.0702,17.6619,8.02882,8.15358,16.8493,8.02496
2.48131,0.0596856,-4.1165,9.84523,-8.32148,-3.34699,10.6651,-8.50281,-4.16783,10.4448,-8.57911,-3.34596,10.4526,-8.43694
8.31645,0.305126,13.8041,12.0224,3.03223,14.0485,13.3542,4.41366,14.44,13.0925,3.34144,14.2581,13.7117,4.26457
5.96728,0.231674,6.35392,31.0241,-6.34135,6.07947,30.9338,-6.69889,6.69769,31.3091,-6.39968,5.41335,31.7057,-6.37271
6.6939,0.47281,0.806604,15.1179,10.0227,1.75668,16.1672,9.70066,1.45409,16.3129,9.54305,2.10971,16.1578,9.72687
31.221,0.987629,-12.4565,26.6589,4.05131,-10.5774,25.206,5.38343,-9.86816,26.4463,5.97778,-9.95754,26.1632,5.94213
0.681804,0.0985526,6.84036,2.02084,-0.745661,6.77654,1.82645,-0.703764,7.15179,2.1678,-0.828896,7.16064,2.15104,-0.923082
0.00720436,0.0168376,1.92956,13.4717,-9.54645,1.9302,13.5232,-9.53148,1.90042,13.5232,-9.52513,1.86001,13.4874,-9.54148
4.41188,0.0632239,5.93887,12.4464,-8.29903,5.81337,14.0603,-9.24925,5.99954,14.073,-9.17613,6.31759,14.4694,-9.24164
0.311427,0.0958184,-15.1317,23.7238,0.143404,-15.2265,23.436,-0.168429,-15.2588,23.4024,-0.265813,-15.2467,23.3852,-0.105329
0.758106,0.0542525,-6.99727,17.3721,8.12945,-7.3212,17.5516,8.11311,-7.13521,17.5352,8.16426,-7.33468,17.4621,8.01779
11.2227,0.468883,-6.04556,3.39753,-4.6026,-8.18178,3.76746,-3.53316,-5.46909,2.80605,-3.98309,-7.7532,3.39466,-3.50321
2.64565,0.00100172,9.15664,11.8934,8.44986,9.05194,12.6418,8.43105,9.16171,11.2711,8.4851,9.84266,11.8214,8.30665
14.536,0.309444,-1.16639,12.3136,-8.77477,-1.8754,14.6762,-8.73294,-2.28621,14.3988,-8.6377,-2.51498,15.0997,-8.71657
7.67426,0.000363272,-3.23882,1.14563,-2.39269,-2.61886,1.71556,-3.63434,-1.8662,1.19313,-3.27896,-2.65145,1.12309,-2.70662
8.23001,0.44266,-11.9317,8.4378,3.66105,-13.5456,8.62221,1.71948,-13.3139,8.55692,2.12893,-13.5098,8.81688,2.23678
28.3322,1.75338,7.93847,16.3229,8.26798,5.96537,14.4857,9.02936,6.75176,13.6817,8.75049,5.93253,15.1053,9.33202
13.782,0.170313,5.80956,9.52909,-7.85114,5.85833,8.15857,-7.50687,7.09572,9.42498,-7.3393,4.82796,8.55703,-8.19945
18.4458,0.22467,6.67636,7.52279,7.27431,3.92395,7.58344,7.85019,3.94295,7.47126,7.7927,6.29015,5.45785,6.17488
2.05705,0.011428,5.26626,2.86633,-4.33629,5.89446,3.3385,-4.70857,5.75758,3.14177,-4.48808,4.29176,2.51434,-4.25282
0.0638918,0.00401306,-6.95375,5.77637,7.19597,-6.86563,5.888,7.26962,-6.94937,5.91436,7.24762,-7.03462,5.81298,7.17454
10.2116,0.384245,5.06675,0.95836,1.01816,4.80724,0.769572,-0.0989946,5.73319,1.0334,0.345702,5.11289,0.98078,-0.333087
1.99841,0.0741135,3.66914,2.29243,-4.08409,3.49123,2.08905,-4.02785,4.50275,2.26657,-3.72132,4.14387,2.44822,-4.1791
0.0878358,0.0421227,-7.98178,14.9538,-7.8505,-8.11141,15.1072,-7.73492,-8.10686,15.0405,-7.74921,-8.06481,15.11,-7.74915
0.722538,0.0953447,-8.93313,4.13771,4.68702,-9.26371,4.40249,4.66863,-9.40365,4.39329,4.44912,-9.20048,4.32838,4.54467
4.81011,0.242943,-10.8485,6.14686,2.59883,-11.3152,6.95901,3.11435,-10.4548,5.96172,3.21234,-11.2123,5.55889,2.21398
2.1453,0.357778,-13.6144,20.7637,-4.60384,-12.6981,19.8562,-5.22809,-12.836,19.9,-5.1206,-12.534,19.7771,-5.37252
12.0474,0.718641,9.83604,25.5496,7.1765,6.13757,26.4871,7.89794,6.1435,26.1559,8.04564,6.05653,26.1188,8.11036
41.5475,0.0319768,-13.8992,15.7596,-3.91913,-14.8397,13.9263,-1.96653,-14.5696,14.0815,-2.47794,-15.0787,14.4801,-1.64076
2.56921,0.289915,-13.2162,22.1388,4.48935,-13.2784,21.5461,5.1517,-13.2153,22.4151,4.9005,-13.4597,22.3502,4.57667
41.7471,0.0631907,-0.401437,19.9523,-10.0199,-0.882553,21.4278,-9.82505,0.174722,22.8953,-9.69264,1.02981,22.1176,-9.76124
6.05164,0.184461,12.1652,18.9971,6.1287,12.921,19.8173,5.70646,12.1552,19.7705,6.1136,12.0076,20.0445,6.2633
7.77414,0.595767,5.21203,13.0883,8.6081,5.35023,14.0707,9.23101,5.79933,13.1906,8.89512,5.69377,11.8457,9.02615
0.853757,0.420224,8.84055,15.8363,8.15227,8.74034,16.5132,7.97113,8.63241,16.5124,8.01969,8.88935,16.6054,7.93939
4.1989,1.78213,0.93494,26.8043,-8.35852,-0.975521,26.6739,-8.36096,-1.01323,26.8994,-8.28555,-1.01761,26.9725,-8.28103
4.70479,0.199483,-13.0336,20.168,6.39627,-12.7423,19.7182,6.66079,-12.8529,21.0092,6.6876,-13.1783,21.7154,5.23096
1.69545,0.320231,7.61356,6.78176,-5.71486,7.66468,7.69865,-5.87083,7.74203,7.96552,-6.00369,7.79341,7.86522,-5.88731
22.4428,0.435925,-12.3796,15.0423,4.58834,-12.1073,15.2784,5.11713,-12.7858,14.3491,5.11623,-14.4949,15.469,4.09014
77.6901,0.112163,10.1305,15.2622,7.74247,5.97903,12.4008,9.14874,8.28712,12.6531,8.56641,8.68206,11.1022,8.6276
2.13482,0.204783,-9.00335,22.4239,-6.88478,-8.01962,22.7303,-7.60408,-7.93243,22.5592,-7.70571,-7.88263,22.727,-7.68403
4.77906,0.0731772,-11.0711,11.2945,7.46682,-9.80414,11.553,7.66178,-10.4551,11.0783,7.49053,-9.48622,11.314,7.59308
1.76381,0.0542653,11.7503,28.1795,-4.65201,11.6024,28.6481,-4.7085,11.9137,27.7098,-4.74801,12.062,28.4515,-4.27239
0.0787061,0.0499396,-6.3605,10.2686,-7.98581,-6.33703,10.419,-8.14604,-6.29043,10.3421,-8.10652,-6.41722,10.3404,-8.08004
8.4387,0.333084,2.27609,25.0415,8.87205,2.93735,25.9837,8.28515,2.82209,24.2743,9.53634,3.23784,25.4258,9.07322
0.136502,0.0800738,15.515,18.6404,-1.61013,15.3922,18.6934,-1.74866,15.3912,18.7741,-1.77794,15.4391,18.6964,-1.60129
0.666032,0.330994,-1.76907,10.1957,9.50975,-2.27362,9.57382,9.29868,-2.23629,9.63622,9.28481,-2.21627,9.79513,9.3232
15.9868,0.98862,13.2823,13.2195,5.3623,13.4628,11.6884,3.37729,13.1661,11.2831,3.74765,13.2656,11.4026,3.18667
0.0103071,0.0149894,15.3692,18.7541,2.1376,15.249,18.7692,2.14809,15.2377,18.7005,2.32576,15.2031,18.7413,2.22298
29.0097,0.151033,-1.98614,20.0202,9.65154,1.16274,19.9596,9.78211,-2.05428,21.2463,9.38846,0.749812,21.3967,9.62275
13.6372,0.0829269,10.2731,10.5682,7.78352,9.99843,11.4774,8.13322,10.7976,12.8669,7.80996,11.3634,12.4668,7.43912
35.8788,0.241502,-13.2598,28.7808,-0.728075,-13.0827,29.0638,2.01157,-14.2609,26.7678,0.56235,-12.2169,30.3358,0.609261
20.6295,0.146146,3.8554,7.62607,-7.40598,3.41612,8.85041,-8.33623,4.83981,6.81644,-6.71637,3.39598,5.02218,-6.71921
4.35857,0.0583379,9.78387,19.623,-7.84928,8.62498,20.0915,-8.37072,8.01897,20.1418,-8.62981,8.01737,19.9985,-8.6451
3.10579,0.209089,1.89438,9.35672,9.25197,2.03987,8.07885,8.56255,2.36643,8.7766,8.79309,1.9544,8.65954,8.7759
6.60096,0.267239,-2.25293,21.8294,8.63187,-1.24689,21.9091,8.91833,-2.3234,22.4788,8.70774,-2.86574,21.3189,9.05156
10.1341,0.739144,-6.49725,4.69062,-4.48835,-6.72435,5.80818,-6.16806,-5.72605,3.51074,-4.99941,-7.11286,3.84332,-4.55327
6.30954,1.38913,8.03951,17.0378,-7.83899,5.48982,16.577,-8.69804,5.63012,16.8139,-8.65242,5.62789,16.8905,-8.71113
3.79576,0.126693,8.6828,14.9768,8.14477,7.72392,14.6329,8.57711,9.39881,15.8178,7.88984,9.47248,15.6306,7.92796
12.6654,0.372775,12.6475,21.1021,6.44931,13.4348,20.2887,5.70979,13.9312,20.8676,5.02018,13.8034,21.6367,5.39097
7.27812,0.897508,14.2513,16.2183,-3.92887,13.9011,18.5061,-3.50806,13.7467,18.1758,-3.62812,13.6118,18.4065,-3.87992
1.6543,0.0666268,-1.82869,14.6127,-8.73749,-2.23354,15.6615,-8.66532,-2.19008,15.7308,-8.67609,-2.10404,15.0991,-8.71609
2.1845,0.486959,-2.65908,12.8286,9.59758,-3.28867,13.591,9.62237,-3.26025,13.4987,9.56047,-3.50442,13.2888,9.49211
5.15601,0.21735,3.12143,16.7118,9.06256,3.51865,15.9678,9.55292,3.74712,16.8943,9.19422,2.09804,16.9644,9.25331
5.82005,0.146643,-5.37001,2.85154,4.57586,-5.77252,2.12563,3.98958,-5.28771,1.93681,4.02713,-6.47737,1.93982,3.53992
0.0103554,0.0519777,1.63393,12.5444,-9.27519,1.54612,12.4958,-9.20123,1.5415,12.5499,-9.25988,1.56135,12.4896,-9.21561
1.76441,0.0511386,-10.4426,14.4893,-6.64066,-9.77941,13.9807,-7.06904,-9.59816,13.9013,-7.17378,-9.68792,14.4533,-7.15662
9.75966,0.247262,4.70966,0.664156,1.03642,4.36114,0.945147,2.56477,5.36456,1.16254,2.92108,3.88089,0.901724,3.35609
8.5907,0.195119,-7.12284,28.6834,-6.25787,-6.43739,29.5029,-6.36601,-6.84691,30.3035,-5.89309,-6.62464,29.0254,-6.31974
62.9335,0.302452,-0.646771,16.4826,-8.8217,3.4831,16.5048,-9.03992,1.7503,16.295,-9.0547,-0.574323,11.753,-8.62168
6.88881,0.0675905,12.4831,17.839,-5.65291,13.5538,17.8583,-4.75553,11.1116,17.4384,-6.60901,11.0652,17.6851,-6.64407
13.9417,0.0160793,2.50292,33.4066,5.56542,0.379405,33.0942,5.88702,1.40681,32.8776,6.01514,-0.0550332,32.8726,6.06619
2.83893,0.138826,-9.94388,25.8997,-5.99177,-9.78404,24.2215,-6.12748,-9.83205,24.0907,-6.14598,-9.87605,24.0911,-6.14372
8.57033,0.130898,13.7253,17.6788,4.37703,14.5861,17.0331,3.69702,13.1348,18.8445,4.94335,13.8928,16.6178,4.78671
0.727423,0.0446845,-14.8477,12.0043,1.63362,-15.0056,12.3951,1.03831,-15.0062,12.4383,1.11802,-14.9763,12.4014,1.41106
11.6909,0.0375524,14.5204,13.2943,-0.843603,13.7867,11.9662,-0.271043,13.9416,12.5128,-0.718739,15.1992,13.8689,-0.354132
0.697913,0.0267092,-8.36079,23.3437,8.66153,-7.84995,23.3451,8.67377,-8.12294,23.2296,8.71445,-8.30638,23.5562,8.62778
5.80156,0.0198399,15.0143,21.3492,1.9096,15.4031,21.9452,1.52706,14.322,20.3583,2.45784,14.2505,20.1808,2.28803
22.561,0.169072,10.3334,25.4438,-5.95343,11.5857,25.7849,-5.46991,10.4376,24.1239,-6.36308,12.1797,24.7389,-5.3962
7.08352,0.469397,13.8337,21.4306,3.6998,14.062,20.4128,3.59953,14.1096,22.0227,4.5514,14.6799,20.8031,2.96541
0.567132,0.094044,13.1889,29.1947,-0.522407,13.3881,29.0421,-0.574103,13.3789,29.076,-0.366683,13.164,29.4166,-0.542095
15.7957,0.132161,5.85464,16.998,9.08158,6.76266,17.2129,8.78294,3.86622,16.5142,9.23376,4.77346,15.9288,9.64322
4.52552,0.0106094,-5.11426,0.831779,0.565238,-6.19153,1.17581,0.88478,-4.50987,0.641757,0.923445,-4.99061,0.826655,-0.29183


