
34.0191,2.26111,6.84225,10.3889,-7.74869,7.74479,6.66999,-6.13943,7.50537,6.7853,-6.22293,7.13128,6.75336,-6.45074
2.52373,0.134274,4.41024,0.875301,-0.526394,5.33633,1.13225,-0.716201,4.12012,0.657489,-0.730872,5.74329,1.2611,-0.56927
0.260917,0.0628196,-7.93618,11.156,-7.19743,-8.10376,11.3131,-7.15834,-8.09973,11.1573,-7.07444,-8.06909,11.0301,-7.04634
0.190196,0.0399212,-0.853659,9.87392,-8.8373,-1.04234,9.86775,-8.85316,-0.882814,9.6804,-8.92742,-0.821482,9.69405,-8.93268
15.0859,0.577804,2.7188,8.63595,7.77479,3.226,9.79671,8.66975,2.40468,7.09542,8.06589,3.49577,9.02034,8.1553
0.270048,0.0378819,-5.11463,3.35635,-4.81772,-4.95736,3.37505,-4.98531,-5.01758,3.413,-4.98367,-4.8414,3.25892,-4.9493
58.532,0.145919,1.05279,13.3094,-9.23719,-2.68599,12.8842,-8.83655,0.523066,14.7147,-9.21874,1.25066,10.816,-8.8211
8.44305,0.363355,6.16017,2.77544,-0.343715,6.47303,1.86936,-1.45795,6.01825,1.88353,-0.10768,6.58574,2.86617,-0.172833
20.3067,0.613417,0.0937854,15.2823,7.98717,-2.06787,13.9525,8.69419,-0.736832,13.9626,8.07844,1.01056,15.8607,8.93586
0.225936,0.0203222,-10.1818,13.5596,5.53639,-10.2996,13.7302,5.38648,-10.2977,13.5805,5.38535,-10.2344,13.7266,5.45502
6.30166,0.0285278,-2.3535,14.6966,-9.14069,-2.96999,13.9617,-8.9553,-2.3896,16.075,-9.13326,-2.1194,15.0575,-9.25162
2.86073,0.165369,1.72286,21.2618,-6.4938,1.5609,21.4009,-6.06485,1.87317,19.8384,-7.08807,1.56364,21.4443,-5.93572
22.8028,0.23527,-5.49262,9.17911,7.75059,-3.24266,9.54961,8.17328,-2.78715,9.35029,8.20382,-2.0851,8.12783,7.89249
9.48012,0.0522334,7.04743,23.0648,-1.92007,4.40663,23.6215,-3.56437,7.38691,22.8106,-2.43721,4.65719,23.7171,-2.9909
1.72585,0.0929266,-3.23745,11.7637,9.21719,-2.89973,12.4048,9.3896,-2.89177,12.4503,9.39197,-3.50657,12.1922,9.26649
2.3502,0.167593,-2.30263,0.596307,-0.282771,-2.20394,0.595784,0.255111,-2.47619,0.26617,-0.769291,-1.84437,0.290512,-0.291605
30.1475,1.07109,12.3584,13.6442,2.15504,12.494,15.17,0.917978,12.6566,14.4979,0.573186,12.4089,15.7484,1.16105
1.55001,0.0531627,-4.63517,23.1828,-3.45772,-3.4966,23.5429,-3.63871,-4.04648,23.4826,-3.51669,-3.51479,23.6512,-3.57147
9.33298,0.237127,-8.04539,18.787,-4.87489,-7.25024,18.2824,-6.22548,-6.79234,17.986,-6.79385,-7.15798,19.3724,-6.20088
0.830201,0.0520915,-2.33971,19.9862,-7.5316,-1.83631,19.9425,-7.68434,-2.08554,19.8279,-7.63304,-1.77899,19.8376,-7.748
17.2537,0.0643826,0.637366,18.801,-8.065,0.0208689,20.7827,-7.22472,0.514465,20.8454,-7.20821,0.761404,19.4841,-7.73531
11.3459,0.095539,-6.49159,22.451,-2.93158,-4.6453,23.204,-3.41549,-8.2633,21.4812,-2.2504,-8.89814,20.948,-2.02569
5.72003,0.322823,-0.108454,22.3578,-6.14185,-0.301112,21.0544,-7.10415,0.452207,21.3781,-6.93738,0.0938863,21.4514,-6.75164
11.0571,0.145787,7.42338,22.1214,2.08353,8.05913,21.9,1.05458,7.74829,22.1772,-0.0217398,7.3046,22.302,0.186124
74.0247,1.16262,-6.74382,4.6277,-2.21688,-8.31214,5.00095,-3.03152,-5.81502,3.73358,-3.91892,-8.38042,3.5142,-1.85818
14.8452,0.0326557,-3.90259,11.0077,8.36612,-4.97774,10.9503,7.97616,-1.05364,10.8421,9.00677,-4.11573,11.8709,8.91462
22.9157,0.880023,-8.7005,8.70553,5.85615,-9.14756,10.2098,5.09046,-9.17741,11.0856,5.16346,-9.10557,10.609,5.12483
2.94946,0.0415107,3.19906,21.885,5.40732,2.49039,21.6458,5.8557,2.48972,21.4249,6.04423,3.48674,21.8405,5.42423
31.0929,0.870945,-9.48187,11.0975,5.00567,-10.6022,9.07696,4.46069,-10.7883,11.6519,4.54279,-10.7148,12.5024,4.81282
10.8079,0.213787,4.75461,23.5523,-0.863484,4.47829,23.6716,0.187367,5.28641,23.7069,-1.35964,5.6298,23.3888,-0.200787
1.60857,0.180757,-0.562292,17.6023,8.71484,-0.161809,18.4285,8.42018,-0.561125,18.2358,8.50549,-0.355897,18.1928,8.46721
3.45403,0.000917122,3.3997,2.18319,-4.80461,3.35785,1.78504,-4.30546,3.75636,1.43136,-3.47013,3.66267,1.42465,-3.54573
4.95426,0.170538,1.1226,17.3202,8.23344,0.17813,16.7137,8.77654,-0.341321,17.2769,8.72734,1.56194,17.4226,8.295
46.6247,0.158548,-9.74085,10.7414,-4.5514,-7.28956,9.85089,-7.11877,-11.6654,10.9661,-2.70177,-8.81117,10.0291,-5.89301
11.5481,0.136014,3.42156,12.995,-8.84179,3.96269,12.0369,-8.65605,4.73899,11.044,-8.10174,3.23487,14.4568,-9.04326
19.2349,1.71232,9.34064,9.58149,5.77625,6.57137,10.7825,7.71934,5.39542,10.2232,7.69132,5.43372,10.0853,7.67456
3.03147,0.0523153,10.2586,6.15119,-2.91453,10.085,5.61774,-2.2665,10.0425,5.35064,-1.87907,9.94997,5.45683,-2.50692
1.15754,0.00340174,-10.7328,14.8967,-4.20214,-11.0245,15.1299,-3.83771,-10.9044,14.7748,-4.01272,-10.7615,15.1901,-4.14726
18.3677,1.12184,-9.07827,18.2448,-3.82162,-11.0256,18.2573,-2.42317,-10.8025,17.3276,-3.05613,-10.9125,18,-2.70219
16.5385,0.171789,11.323,7.67224,-1.54482,11.532,10.5586,-3.94065,11.3267,9.70852,-3.96091,10.9513,6.41576,-0.70389
1.4245,0.0673679,1.09067,20.6182,6.54185,1.27227,20.3489,6.87355,1.60708,20.7472,6.65707,1.06513,20.799,6.48605
0.169606,0.0328088,11.0593,8.91825,3.54112,10.9485,8.87182,3.65342,10.9255,8.84515,3.64072,10.9359,8.84803,3.59996
16.7831,0.833211,7.55439,4.33352,-4.08927,7.54155,5.51966,-5.80675,6.54628,5.10184,-5.93365,7.2083,5.49916,-5.91942
5.58142,0.00389826,0.82234,25.329,0.969407,0.0388714,24.9817,2.07159,-0.271459,25.274,0.807839,0.258199,25.2287,1.17714
64.0186,0.0489617,3.10797,0.414031,-0.0686429,3.37787,0.756448,2.16983,5.77717,1.23081,0.318487,6.04231,1.39323,1.2443
158.511,0.862794,-0.43412,0.315316,2.75787,2.61814,0.109893,0.0717049,2.51077,0.219252,0.542617,1.12953,0.174864,-1.12701
2.07631,0.142032,-4.35613,22.5783,4.06327,-4.78592,22.3696,3.57397,-4.84998,22.4151,3.44259,-3.91608,22.5841,4.26418
19.5388,0.74254,9.97643,9.91829,5.35487,10.4685,10.66,5.2181,11.0295,9.62345,4.13799,10.1103,11.4178,5.38103
7.87517,0.152201,-5.51432,11.8428,-7.86469,-5.65946,10.8709,-8.09821,-4.8668,10.8621,-8.34277,-5.47209,12.364,-7.97475
2.36066,0.153583,-0.195511,23.6881,-4.54593,-0.688639,23.9013,-4.44385,-0.176493,23.6977,-4.98652,-0.276981,24.0129,-4.08414
4.11961,0.164991,7.38921,19.2629,5.34088,8.93789,18.6916,4.70824,7.21129,19.3166,5.74139,7.36084,19.7571,5.15283
0.417376,0.274449,12.2992,16.139,0.536296,12.3073,16.1815,0.875855,12.3188,16.0453,0.83635,12.3534,15.9713,0.829331
5.91636,0.136959,-9.07423,18.8352,-3.48673,-9.61417,19.6678,-3.36916,-9.03827,18.6355,-3.65808,-8.9449,19.4513,-3.83295
2.31069,0.12145,-3.00125,24.5641,2.16595,-2.44608,24.4412,2.69738,-2.8913,24.2269,2.86507,-2.836,24.2758,2.77933
2.55666,0.0194808,8.76512,20.7859,3.19213,7.20826,21.1453,3.82782,7.03588,21.1396,3.97082,7.79025,20.9354,3.68938
22.9253,0.288415,4.35401,18.0767,-7.13033,3.95736,20.1721,-6.3993,4.42367,17.8053,-7.60613,5.13352,17.8663,-7.3642
30.4531,0.504175,6.04757,23.0016,-0.462518,8.6551,21.5278,0.0315031,6.90627,23.1072,-1.42075,5.76896,23.4979,2.14419
0.770654,0.055318,-10.5387,18.3007,-2.77037,-10.7444,18.296,-2.68853,-10.3832,18.509,-2.98202,-10.6454,18.2124,-2.749
54.4825,2.38695,10.9918,19.0696,-0.0659411,12.1226,15.3508,-0.819361,12.4675,14.9935,-0.273729,12.4076,15.2083,-1.20555
5.66951,1.0499,-8.63987,6.58026,4.79411,-6.96201,6.11059,5.8897,-6.91311,5.95591,5.78423,-6.97608,5.87916,5.72467
10.981,1.05584,-3.41369,24.2731,-2.54285,-4.67575,24.199,-0.852965,-3.75518,24.6696,-0.241176,-4.5328,24.1655,-0.405071
5.06672,0.122394,-6.29719,2.04689,0.922862,-5.18883,1.42056,0.986697,-5.54526,1.49472,1.58725,-6.52808,1.95363,1.36191
14.2346,0.141927,0.251344,10.3348,-9.03486,-1.99093,9.76079,-9.01572,2.1972,10.6041,-8.66217,0.830174,10.7704,-8.96584
37.29,0.865563,5.15894,10.1463,7.70261,1.14064,10.6683,8.85704,-1.34038,8.98784,8.88454,-1.6321,9.69809,8.95504
8.9246,0.117497,4.73242,2.17798,-3.69996,5.13556,2.52374,-4.20212,3.82788,1.96403,-4.23712,5.40146,1.89726,-3.01344
3.44851,0.0156987,-6.7722,19.6625,5.35994,-7.02884,19.4559,4.74881,-7.28343,19.3258,4.87611,-7.02693,19.574,5.67335
0.141048,0.00284032,7.87256,2.79854,-1.5325,7.77219,2.78362,-1.69838,7.83193,2.82411,-1.707,7.73664,2.73566,-1.60658
1.72049,0.0922678,-0.850729,8.30007,8.43299,0.00727242,7.82129,8.60111,-0.0603673,7.7976,8.45221,-1.14416,8.2354,8.16623
7.36461,0.298082,8.9452,18.789,-4.40869,9.10682,18.4849,-4.98147,10.1072,18.3309,-4.29659,8.81157,19.9872,-3.9907
1.00654,0.00762013,-5.73767,4.44953,5.91133,-5.54167,4.11964,5.83749,-5.35218,4.50552,6.20602,-5.4805,4.56165,6.15907
1.2148,0.0784063,2.81828,4.2194,-6.81,2.72128,3.92874,-6.71074,3.0362,4.29445,-6.93071,2.47336,4.36562,-7.06271
19.1519,0.184938,-10.2868,16.5054,-3.4219,-8.69017,16.6735,-5.50621,-11.7855,16.2202,-1.97458,-9.48856,17.1172,-4.73887
14.77,0.338633,-2.53434,2.68579,4.88704,-3.55525,2.45338,4.854,-1.60268,2.33986,5.30451,-3.54501,3.17118,5.50795
26.8324,0.551064,-7.42221,16.5519,5.81054,-8.05247,16.9707,5.9787,-6.41809,17.2079,6.77476,-8.15299,13.0506,7.30956
0.712886,0.0779234,-9.54651,4.50147,1.06698,-9.51884,4.31258,1.14244,-9.7141,4.62212,0.864206,-9.80464,4.75603,1.26875
22.5545,0.241601,11.2292,18.1604,-1.44183,11.6571,17.6208,-0.624656,9.89336,18.7055,-4.03932,10.5968,18.2987,-3.55465
35.2935,0.164576,-12.5178,12.1634,-0.215025,-12.6197,14.0146,0.0850869,-12.4958,12.6842,1.09822,-12.4346,13.1098,-1.02438
14.3906,0.131495,1.15636,16.9419,8.43754,4.90274,16.252,7.32487,2.82783,16.6374,8.01896,3.4138,17.3055,7.96774
62.1176,0.737471,10.3828,5.54386,-0.880403,9.35273,4.56863,-2.40035,10.723,7.00303,-3.23092,9.29764,5.0551,-2.93328
26.0328,0.0640404,2.66353,13.373,-9.07665,2.51087,15.6569,-9.09491,3.30534,11.2745,-8.85041,4.11437,11.0183,-8.28699
7.48647,0.198578,-0.89711,1.08095,3.60854,0.877982,0.886717,3.62613,-1.04104,1.06522,3.93505,0.585965,0.692645,3.3594
5.42101,0.269017,4.274,23.7983,1.54784,4.53456,23.6315,0.193739,4.79733,23.7028,0.458005,4.68743,23.6037,0.132534
1.8784,0.323234,-12.3847,13.554,-1.16325,-12.4552,12.5901,-0.930231,-12.323,12.6143,-1.06232,-12.2998,12.9135,-1.28533
8.57124,1.55307,5.81299,19.8941,5.93646,7.33276,20.0364,4.77296,5.85013,21.3097,4.8085,6.97331,20.2302,4.72539
1.35016,0.00187275,-11.1129,18.6246,-0.643222,-10.62,19.2987,-1.07146,-10.6272,19.3131,-0.983576,-10.9066,18.9383,-0.709738
17.3146,0.386215,8.4389,3.5017,0.556865,7.42295,2.99842,0.0309815,9.05634,3.53652,-0.815189,6.61963,2.88104,-0.210292
13.5983,0.0672447,-0.998197,14.3939,8.15041,-4.03254,14.7018,8.41585,-3.86817,15.077,8.24759,-2.06957,14.7949,8.08525
15.1133,0.0731702,-8.8855,8.0689,5.10066,-7.92932,8.05923,5.61888,-10.5614,8.77467,4.20626,-10.807,8.64942,4.00044
4.36008,0.180776,1.41743,22.8197,4.9283,-0.0213854,23.039,4.61364,0.435372,22.8607,4.72697,0.0556666,22.754,4.8369
11.6911,0.282371,8.07132,20.4102,-4.2639,8.44824,17.2883,-5.88241,8.30696,17.4418,-5.68019,8.42316,18.728,-5.07661
42.8991,0.674146,-3.50904,20.3921,-6.93716,-1.34819,18.3202,-8.27968,-6.57164,20.5255,-5.55502,-4.90345,19.5715,-6.67895
3.47768,0.0947553,4.36927,13.9022,-8.81368,5.14717,13.8587,-8.70941,4.19377,14.6226,-8.93948,4.17081,13.7473,-8.9674
1.66695,0.451217,-7.82216,21.7689,-3.31841,-8.35322,21.0513,-3.35353,-8.55889,20.9673,-3.39774,-8.73054,20.9951,-3.28497
0.80731,0.0683097,11.6721,8.89309,1.45953,11.7898,8.8642,1.26618,11.6908,8.66824,1.29745,11.7582,9.03735,1.66865
4.90085,0.172496,-1.84757,22.5188,-5.49207,-0.197686,22.64,-5.922,-2.06555,22.7498,-5.50485,-0.225207,22.8267,-5.78828
32.192,0.695365,-0.0991597,16.7231,8.79504,-3.4874,16.4191,8.64225,-3.45804,15.8541,8.6076,-2.77085,15.7722,8.77369
2.42256,0.0598166,11.4961,7.7715,-0.0841294,11.7529,8.6029,0.0225569,11.3757,7.53788,-0.34895,11.7987,8.56042,-0.398003
15.0924,0.264904,-6.22917,7.27931,6.35466,-7.50009,7.83832,5.62729,-2.06226,6.76999,7.8685,-3.85072,7.02326,7.65708
6.27667,0.0512634,9.23426,11.3499,-6.10788,9.77399,11.1313,-5.97229,7.49145,11.0708,-7.10117,7.55224,11.1529,-7.04616
0.561845,0.178778,-5.00132,24.3525,1.42173,-4.94358,24.436,0.922202,-4.88388,24.473,0.879135,-5.02003,24.4185,0.924013
27.5679,0.319312,7.51569,8.593,6.45822,5.39994,4.50264,5.92805,4.41539,3.22263,6.04733,4.65305,3.25066,5.9319
7.88036,1.55022,-6.94844,12.9599,7.69651,-6.42579,15.07,6.79708,-6.34902,15.0074,6.79072,-6.41171,15.1649,6.829
12.2283,0.186201,9.29938,7.15185,-4.92095,9.43321,7.7302,-5.49596,9.93468,8.45244,-5.31756,11.1447,8.24562,-3.48722
67.3314,0.550789,8.6335,17.1249,-5.50951,11.8448,15.8673,-2.93868,8.44395,18.0179,-5.19422,11.8621,15.9122,-2.611
11.8814,0.528598,-6.73335,11.3433,-7.01708,-7.62649,12.9729,-7.55724,-7.15091,13.1812,-7.64492,-6.25933,10.7096,-7.57041
7.2778,0.0822666,8.73313,20.2779,-3.2429,8.60581,20.1726,-3.91579,7.66553,20.9333,-4.06195,8.36306,20.4128,-3.66873
19.2443,0.370723,3.54517,19.8653,6.17871,3.57869,18.7281,7.4665,4.7599,21.5083,5.28068,3.91342,18.9308,7.27446
11.1739,0.352143,10.0412,12.0001,5.3874,8.89066,11.0192,6.47153,8.47525,10.2764,6.59915,9.03921,10.5691,6.24139
3.17786,0.176424,-4.22784,1.92778,-3.95635,-4.65626,2.59771,-4.27375,-5.15199,2.84397,-4.04325,-5.23016,2.23234,-3.62056
3.70417,0.205058,0.244803,16.3312,-9.16843,0.442896,14.7491,-9.23241,0.618025,14.6349,-9.22466,0.673303,14.7791,-9.23874
2.80906,0.0586293,-2.03682,13.9057,-9.11592,-1.64214,14.0167,-9.25132,-2.50812,14.2569,-9.06572,-2.77768,13.6676,-9.03524
3.54833,0.105303,-5.605,19.1812,-6.36835,-5.43989,20.0018,-6.2728,-6.01099,19.2935,-6.43197,-5.00315,19.8071,-6.34038
24.977,0.521408,-6.98911,3.15474,-0.99645,-7.86839,2.69842,-0.339325,-8.39375,3.34772,-0.93693,-5.03214,1.25284,-1.05365
10.69,0.0138434,-12.1113,9.434,1.18282,-11.7428,8.21714,1.22183,-11.8125,8.1272,0.522439,-12.0244,8.79409,0.487816
4.42274,0.303036,-2.69192,9.23501,8.13002,-1.56967,8.815,8.47933,-1.27854,8.30468,8.15047,-1.46748,8.9079,8.77377
8.1014,0.144419,2.26133,0.403585,-0.38293,2.50083,0.271147,-1.08817,1.61567,0.251289,0.482355,2.05567,0.244198,0.413703
16.2809,0.323002,3.41264,6.70613,-7.39226,3.47211,5.83102,-7.30844,3.55666,8.28905,-8.56203,2.98932,8.3077,-8.57223
22.9598,0.0721456,-5.49758,10.9339,7.50667,-8.31657,11.0893,6.24515,-6.01478,11.757,8.11918,-5.06358,11.2625,8.15996
8.42858,0.0129106,10.5371,6.6133,-3.12817,9.63834,6.65491,-4.56527,9.3575,6.11843,-4.60333,9.73668,5.76834,-3.76387
6.87369,0.509082,11.8611,13.0846,3.24116,12.1998,11.5815,2.42163,11.7012,11.0934,2.58163,11.6526,11.6203,2.6472
0.139233,0.162255,-7.63163,15.7332,6.05718,-7.79304,15.6786,6.26465,-7.7891,15.7705,6.24157,-7.61506,15.8328,6.19917
3.29515,0.685494,-2.02321,22.3528,4.91558,-2.67893,22.0662,4.99978,-2.5296,21.8592,5.1454,-2.50091,21.7931,5.40811
21.7653,0.0571314,-7.26905,23.1644,-0.0175567,-3.93186,24.567,0.0290748,-7.12143,23.2047,-0.818867,-3.84048,24.6427,0.417907
11.5639,0.440526,6.32819,3.36088,-4.23112,3.59788,2.65693,-5.23205,4.36864,2.74757,-4.68749,3.60226,2.65416,-5.28014
8.21023,0.149476,0.409114,6.70199,8.02267,-1.61927,6.87266,7.91878,-0.456482,7.3919,8.05787,-1.72404,7.08342,7.97651
7.23523,0.0803141,11.7701,8.59975,0.267422,12.0618,10.2317,0.293029,12.2152,10.9139,0.372229,12.2051,10.9437,0.751026
2.46324,0.131362,5.62677,11.8847,7.91781,5.0574,11.7528,8.46408,5.69232,12.2439,7.93794,6.10674,11.4541,7.89706
12.5,0.181071,8.77084,5.26866,4.49889,6.25208,5.21929,5.9955,6.23951,5.17772,5.98015,9.56716,5.39765,3.76907
11.2559,0.139367,-11.1634,7.05931,1.40488,-11.7585,8.65882,1.788,-11.7517,8.08245,0.747102,-11.5912,8.25063,2.00258
12.6078,0.284521,9.34535,8.20472,3.80565,9.13559,7.62916,4.08213,9.52228,8.73499,4.24853,11.061,8.71823,3.2288
1.02517,0.130573,-11.4099,10.2976,-2.58848,-11.644,10.4284,-2.51373,-11.4657,10.591,-2.7747,-11.5662,9.94559,-2.54785
19.2342,0.257118,-4.66287,16.9315,-7.86956,-8.701,16.5201,-5.59616,-7.37121,17.5137,-6.64641,-7.44236,16.886,-6.3209
11.682,0.207132,-3.8546,17.0475,7.33884,-4.48866,16.9749,7.12207,-4.55302,16.5872,7.93811,-2.41596,17.8176,8.44821
88.8746,2.10724,-7.05169,20.5188,-5.39855,-8.7372,20.6989,-3.56103,-9.61247,17.4215,-4.54938,-9.50632,17.556,-4.25045
3.05019,0.226818,-4.8511,20.3378,-5.90551,-4.35896,20.4267,-6.4925,-5.26902,20.3714,-5.8979,-4.5935,20.0828,-6.38729
13.611,0.183756,3.05775,17.497,-7.96841,-1.23071,17.4105,-8.23304,-1.40688,17.2489,-8.28416,0.200182,17.3234,-8.24416
18.5268,0.459561,5.11363,16.2661,7.25411,8.26328,15.1185,6.69287,9.71827,15.6849,5.68262,8.50031,15.7498,6.28572
2.38,0.220229,-6.16358,21.9132,2.95585,-4.91801,22.3116,3.52181,-4.87068,22.4645,3.39596,-4.84882,22.3387,3.57128
114.152,0.294799,5.958,17.5164,-6.96345,8.23928,17.2377,-6.26774,5.22456,21.3344,-5.17024,7.38365,20.8777,-4.27114
1.36608,0.079456,-3.85685,15.9243,8.44362,-4.29621,15.8278,8.44286,-3.76752,15.6767,8.51263,-3.51142,16.2395,8.61435
14.737,0.561839,-0.318171,13.6788,8.45142,0.786699,12.778,9.41899,1.50732,12.504,9.57989,-0.759433,11.7958,9.5112
15.8481,0.677984,-3.57775,13.1884,-8.26702,-2.7116,12.1319,-8.75785,-3.19472,13.9682,-8.92479,-4.11804,12.5706,-9.02139
1.40951,0.0234422,-4.92656,7.3472,7.10493,-5.9081,7.35609,6.60482,-6.55009,7.45131,6.35133,-6.60421,7.47339,6.34535
4.9774,0.449757,-11.9461,16.6653,-0.309014,-12.1471,15.7703,1.02163,-12.0712,15.9409,0.481738,-12.0755,15.6298,1.42454
4.99085,0.263598,-2.9459,4.43495,6.23247,-3.46041,4.22207,6.09645,-3.0275,4.57363,6.7244,-1.54291,2.9333,6.06853
5.6709,0.341787,-0.12311,3.70898,-6.24249,-1.48815,2.28883,-4.91556,-1.12701,3.06819,-5.6118,-1.49919,2.44288,-5.11749
0.353264,0.0714001,-6.72857,20.9213,4.21757,-6.89713,21.5742,3.93723,-6.94529,21.5906,3.87665,-6.93076,21.3828,3.95606
1.64571,0.0163387,12.252,10.7902,-0.520681,12.3579,11.166,-1.05831,12.2931,11.0317,0.157488,12.3169,11.1771,0.285609
3.97713,0.236936,2.70417,24.0043,3.38789,4.00812,23.8949,2.73902,4.7961,23.5795,2.96718,4.34087,23.6729,2.96485
5.94746,0.86271,0.0366961,14.3352,8.27755,2.42885,15.5224,8.85333,1.27994,14.4688,9.14055,1.81208,15.2756,8.91927
1.99203,0.0816022,-0.534989,20.6045,6.84728,-0.207808,20.2532,7.05038,-0.810639,20.7404,7.00102,-0.449161,21.1102,6.53184
0.513378,0.00998475,10.7837,19.3303,1.48724,10.9414,19.3699,1.01232,10.8899,19.4209,1.05804,10.9532,19.1896,1.26429
3.75351,0.0834388,-1.45265,15.2834,-9.22833,-2.03315,14.9313,-9.24713,-0.576057,15.6464,-9.46754,-0.753106,15.8902,-9.35529
4.38693,0.192322,-7.08186,13.1452,-7.66802,-7.41198,14.6267,-7.70873,-7.21214,14.1413,-7.67821,-7.18807,14.6203,-7.85735
1.23467,0.302638,4.47179,24.3731,-1.77586,4.68222,24.237,-1.97846,4.89582,24.1103,-1.56821,4.99014,23.9289,-1.3444
5.65794,0.381704,-8.0187,13.2479,-6.95133,-8.78511,13.2375,-6.89391,-7.8275,12.4832,-7.4949,-8.01899,13.8387,-7.44883
2.34429,0.223942,6.61628,14.3326,-7.93437,5.64393,14.1203,-8.40016,5.57377,14.1874,-8.47544,5.34916,13.9714,-8.61076
9.96283,2.13166,9.22814,19.5094,3.75575,6.5249,20.9769,4.33762,6.81918,20.475,4.54516,6.58359,20.8105,4.36634
30.0583,0.0936538,-12.5766,12.9914,0.57516,-12.4346,14.4009,1.01043,-12.1676,14.7569,1.87396,-12.1676,14.6911,1.89459
12.0038,0.0931759,3.31885,24.3088,0.93417,4.07358,24.2103,0.629354,2.48464,24.3468,2.88035,2.6412,24.3143,2.7679
23.3109,0.918579,-11.6373,17.2517,1.34855,-11.0416,18.9612,0.750676,-11.0589,18.8637,0.0971684,-10.8234,19.2278,1.30032
14.2175,0.0506642,-12.2062,11.5751,2.24843,-12.545,12.956,1.20608,-12.4726,12.8383,1.55666,-12.5812,12.3631,0.782235
3.43514,0.569137,-3.45123,23.5877,-3.60547,-0.931994,24.0694,-3.75535,-0.979713,24.039,-3.80509,-1.10503,24.1125,-3.69958
3.54122,2.12089,-1.04027,10.8874,9.01404,1.08721,10.7222,8.89175,1.05994,10.59,8.84919,1.07733,10.676,8.86071
1.53522,0.102971,1.66487,3.66637,6.73141,1.84367,3.97411,7.12751,1.59532,3.4681,6.69842,2.09648,4.06848,7.23414
3.12033,0.116316,8.61515,3.65727,1.31943,8.98795,3.79545,1.80881,9.4673,4.08034,1.79785,8.6361,3.47749,0.786878
14.1657,0.478812,4.02971,8.91859,7.35951,4.48723,9.42906,8.17505,3.64115,7.79204,7.29972,5.20925,8.93731,7.90721
7.27419,0.0674431,-4.68298,19.0417,7.39243,-5.21489,19.1343,7.17744,-4.16206,21.2519,5.82278,-3.99391,21.1972,5.94199
5.69663,0.157385,2.52777,7.0182,8.05704,1.84203,6.09362,8.13369,1.35256,6.9066,8.3238,2.89527,6.71879,8.12758
3.93761,0.00380599,6.47289,21.6578,-4.04611,6.43237,21.5204,-4.23735,7.88672,21.2984,-3.7199,8.24544,21.3971,-3.39631
7.63477,0.0976847,6.59617,11.9185,-7.90403,4.87398,11.6678,-8.22851,5.58638,11.6551,-8.07403,4.62341,11.878,-8.4026
16.2824,0.0973186,-3.24439,22.5951,4.30447,-1.79773,22.7075,4.69054,-4.00496,21.2286,5.89984,-4.30335,23.0742,3.61671
2.25613,0.109891,-6.85998,3.4562,3.96227,-6.26306,2.91088,3.90295,-7.13173,3.48925,3.92262,-6.28961,3.02558,4.25223
6.70746,0.136964,5.19553,15.6688,-8.11625,6.30976,15.7977,-7.87481,4.28878,15.5803,-8.57895,4.19006,15.2493,-8.71047
6.44,0.24635,9.46289,18.8386,3.19845,10.2449,18.9926,2.80908,9.48042,18.3467,3.63112,9.47573,19.5211,3.35997
10.7189,0.136526,-2.60805,20.4612,-7.04278,-0.682687,20.8325,-7.27617,-3.16333,21.4232,-6.48024,-3.13392,21.881,-6.35623
6.90486,0.0981421,-10.9976,13.2324,4.55502,-11.425,12.8785,3.96924,-11.5844,13.7255,3.70775,-11.7824,13.5582,3.34187
12.055,0.606701,10.8776,19.2072,-0.707723,8.77383,20.3925,-3.09629,8.66848,20.4012,-3.18211,10.9117,19.154,-1.47474
1.11155,0.0524417,2.97066,4.67711,7.42989,3.21749,4.40498,7.04108,3.35159,4.45947,7.03757,2.88295,4.49747,7.33906
5.43169,0.20201,6.90559,2.1701,2.6923,7.80337,2.5404,1.71774,7.68446,2.45902,1.43781,6.1259,2.06739,2.308
3.50762,1.30027,6.27997,2.05984,2.09687,6.19154,1.53631,0.565456,6.31321,1.63383,0.559364,6.64187,1.77282,0.653041
17.7733,0.875963,9.71252,12.8919,4.57601,11.2379,12.918,4.34528,10.4183,14.4477,5.25659,10.9953,12.1364,4.50419
10.6525,0.614814,9.57574,5.30764,3.43762,9.93895,5.07904,2.58726,10.0166,5.69128,2.69404,10.4347,5.89791,2.58772
2.22802,0.108297,10.264,10.8562,-5.65707,10.7721,11.8082,-5.27795,9.84458,11.0375,-5.94688,10.748,11.6093,-5.24851
25.4522,0.135634,3.20339,1.2034,3.19484,0.650284,0.713738,3.36648,7.14361,2.31695,3.0616,6.32913,2.11241,2.91128
11.9006,0.445317,3.85978,17.0217,-7.59132,3.25415,17.5187,-7.91407,4.83913,17.423,-7.50761,4.8262,16.8671,-8.13805
48.3698,0.476388,-11.5215,10.8174,3.75701,-12.1891,10.5528,1.38187,-12.483,11.3215,0.346566,-12.4489,10.9399,-0.24659
0.578167,0.24315,7.59213,2.95265,3.97331,7.72688,3.46727,4.3564,7.77418,3.46052,4.23634,7.83703,3.51257,4.26803
0.735655,0.00230246,-2.42474,3.94487,-6.58652,-2.48815,4.56817,-6.98568,-2.39886,4.57193,-7.01803,-2.56438,4.34992,-6.81402
0.915773,0.119283,-4.68908,9.48239,-8.18935,-5.00799,9.66809,-8.12547,-4.53018,9.34133,-8.44327,-4.99208,9.5351,-8.18091
11.6368,0.0206416,-8.98946,20.8572,-2.04757,-10.6293,19.5288,-0.850524,-10.5961,19.4132,-0.957371,-9.43572,21.0256,-1.4422
19.4166,0.365153,-6.21221,10.4627,7.43623,-3.84842,9.93008,8.30816,-5.60741,10.2416,7.3324,-7.09782,8.72862,6.27336
3.33469,0.024955,-5.79731,3.75865,-3.99103,-5.08289,3.13824,-4.53365,-5.17988,2.78804,-3.96529,-5.39865,2.9941,-3.79913
8.31459,0.165936,0.383295,0.305507,-1.73657,-0.451765,0.191664,0.112327,-0.295817,0.429952,-0.906587,-0.780784,0.33865,-0.117429
1.63675,0.0191242,11.5703,17.2611,2.3511,11.1166,17.9152,2.6602,11.6285,17.3194,2.19128,10.9279,17.9968,3.01096
0.386093,0.260685,-11.8089,12.8881,3.41413,-11.4396,12.8018,3.96858,-11.454,12.9404,3.92803,-11.4495,12.8716,3.93338
1.92389,1.14148,6.15854,10.8913,-7.90859,7.42551,11.0916,-7.12579,7.47015,11.2474,-7.15671,7.4136,11.139,-7.12718
8.95215,0.0758524,10.347,7.50933,3.38966,10.628,8.07945,3.18651,11.0926,7.90068,2.41681,10.6642,6.65992,2.87909
1.33868,0.358661,4.29282,23.7835,1.6426,4.28043,23.911,2.54008,4.14823,23.9482,2.45126,4.20099,23.9045,2.59141
4.46467,0.207661,2.43394,0.969088,-2.53964,1.60473,0.687177,-2.71151,4.03764,0.906796,-2.36392,3.17701,0.888607,-2.61088
2.79053,0.0558073,-5.9738,19.4903,6.74812,-5.28806,19.419,7.05736,-6.18529,18.803,6.97368,-6.62578,18.696,6.81884
11.7954,0.446127,9.58402,18.2041,3.67215,9.00902,18.2476,4.20045,9.17897,17.8158,4.25252,9.25628,17.2235,5.47861
2.60479,0.105825,-0.562305,13.9393,-9.42424,0.0974143,14.1632,-9.40942,0.201643,13.9919,-9.3715,-1.62367,13.9257,-9.25136
4.93101,0.148941,-8.43129,21.5906,-1.62376,-8.48529,22.0294,-1.31973,-8.2233,22.2675,-1.46815,-8.99314,21.0311,-1.72322
6.70913,0.127505,2.04884,2.81351,-5.87187,0.68505,2.42199,-5.1622,1.0399,2.26604,-4.95866,0.37527,1.77285,-4.32285
1.07179,0.02202,3.58676,2.76313,6.01948,2.77519,2.7519,6.14103,2.67935,2.80626,6.19248,4.0745,2.85962,5.95939
7.36157,0.121987,-11.1257,16.2877,3.45817,-10.1673,16.3379,4.64186,-10.3631,16.2774,4.41448,-9.73623,16.7004,4.80328
0.592076,0.0683295,3.81192,21.0642,-6.08486,3.93783,20.2384,-6.38973,3.73627,21.3427,-5.87976,3.87794,20.3133,-6.39087
72.9403,0.235929,-3.65435,1.47222,1.38971,-0.578113,0.348483,0.675538,-4.42834,0.85087,-0.528191,-2.67762,0.586112,-0.0412524
10.3302,0.280184,1.05171,7.20113,8.33743,-1.54545,7.97797,7.95674,-1.80396,8.12081,7.93684,-1.91022,7.58949,8.02083
73.042,0.998389,-7.48167,19.2371,3.32765,-8.35615,20.7438,2.93636,-6.05171,21.7596,4.77948,-5.90011,20.7221,5.68644
19.4726,0.477316,-4.27144,1.92421,2.18409,-4.68707,1.4349,0.503612,-4.62908,1.62585,2.55202,-3.68401,1.03391,2.74277
2.53415,0.0146232,-10.1812,18.6036,3.55898,-9.82864,19.2399,3.36654,-9.46112,19.2743,3.75655,-10.0749,19.528,2.79917
23.4148,1.27495,-3.1642,24.7624,0.444756,0.254195,24.933,-0.541174,0.468062,25.0962,-0.219985,-1.60314,24.8186,-1.32928
3.50452,0.183888,4.74151,4.4816,6.61334,5.20162,4.67119,6.27345,3.30295,4.39506,7.00617,2.54846,4.02243,7.17572
4.70136,0.00642697,-9.71756,4.61789,-0.142104,-10.2258,5.22205,0.0955706,-9.95989,5.2055,-1.50057,-9.42056,4.2125,-0.109955
3.84883,0.41493,-6.48025,9.65597,-7.44588,-7.4381,10.3841,-7.15815,-7.2685,9.71149,-7.10312,-7.69682,10.768,-7.20421
9.76717,0.143717,8.50695,4.86265,-3.32745,9.05902,5.00019,-3.1405,7.7404,4.44212,-3.97314,7.77598,4.0656,-3.49282
56.6213,0.191745,0.191843,20.1645,6.84424,3.11864,20.7005,6.31203,0.648449,18.2136,8.34235,1.84443,18.4669,8.00619
13.6877,1.15553,5.94858,19.7372,5.99053,5.49871,18.4752,6.70973,6.62517,18.341,6.61176,5.70382,18.3848,6.66256
63.0638,0.423455,1.54778,24.6428,-0.727765,3.12083,24.5132,-2.58804,4.47184,24.1942,-0.9902,1.34855,25.0883,-1.78265
1.12054,0.1217,5.98482,4.99934,-6.34291,6.03603,4.62625,-5.93035,6.14969,4.71487,-5.87835,6.33804,4.931,-5.91267
4.21744,0.03402,4.9673,8.26649,-8.25374,4.82365,8.86156,-8.49997,6.26567,8.48194,-7.9021,5.44887,8.83882,-8.29799
8.77239,0.258477,3.36535,18.1068,-7.41989,3.30696,17.8528,-7.80043,4.13685,17.9411,-7.63881,2.93692,21.0534,-6.68357
1.2254,0.0147694,8.66749,22.0072,-2.10947,9.10004,21.651,-1.70526,9.18868,21.5037,-1.91541,8.73741,21.8311,-2.41838
8.29284,0.131255,-2.24622,1.91189,-4.17954,-1.55943,2.9669,-5.62811,-1.50208,2.26073,-4.87749,-2.11771,2.7455,-5.2936
20.2395,0.174557,7.77278,7.46176,6.01192,8.53099,5.67846,4.99675,8.87451,5.67958,4.68485,9.25113,7.82433,5.02608
0.946924,0.0700774,-9.44463,20.676,1.25617,-9.34848,20.7588,1.40471,-9.31642,20.9114,1.28793,-10.1719,20.4314,0.826184
3.13842,0.0473063,11.6569,15.8933,-3.45228,10.5795,16.2356,-4.69633,10.5403,16.3415,-4.64111,11.8282,15.8773,-3.09101
16.5344,0.17644,1.9186,21.7034,5.88547,0.3215,21.5666,5.99026,0.251483,20.691,6.60025,0.163272,21.0905,6.30618
2.65427,0.0809038,8.1949,3.00052,2.5764,9.01807,3.596,2.54955,8.91306,3.452,2.32327,7.97763,2.80555,3.00483
2.78684,0.576118,-4.60671,17.0419,7.01274,-5.87053,17.0898,6.64748,-5.76365,16.8812,6.65563,-6.09991,17.0498,6.69489
9.00521,0.07935,2.93757,24.0369,-3.42953,4.28196,23.7338,-3.30987,1.93701,24.0701,-3.61095,4.48546,23.8458,-2.95266
8.04691,0.0141259,6.06093,3.45026,-4.66632,6.79045,4.47315,-5.06665,6.91307,3.85552,-4.2683,6.05361,4.57043,-5.8824
28.2435,0.183678,-5.57051,10.2051,-7.61774,-2.11191,9.65196,-9.02096,-6.7284,10.4055,-7.40836,-1.22879,10.3345,-9.11207
3.96386,0.0321167,4.77235,10.8576,-8.07718,5.9215,10.7256,-7.97378,6.3432,10.7706,-7.83507,4.08463,10.6986,-8.36079
2.11716,0.0120687,7.27876,22.9718,-1.78047,7.72281,22.7159,-2.17649,7.27158,22.9851,-1.53989,7.99986,22.6292,-1.7578
52.8146,0.412078,8.21856,3.28199,-2.32431,4.02813,1.63007,-3.5933,4.43087,0.988496,-2.10905,6.08013,2.52385,-3.57329
0.32807,0.00339234,2.80397,11.7084,9.2748,2.88816,11.4045,9.17125,2.97765,11.4746,9.17765,2.81765,11.4204,9.18661
1.33207,0.0859123,-9.45424,5.6382,-2.64374,-8.95337,4.67789,-2.41559,-9.50212,5.70874,-2.82282,-9.48736,5.28596,-2.39543
14.0753,0.20106,4.03767,13.0172,8.2913,3.33374,12.9227,8.91545,5.51802,13.05,7.71187,3.66481,13.7671,8.63774
7.04525,0.188536,-4.88756,1.13281,-0.916539,-4.9858,1.35575,-0.0793724,-4.71944,1.44242,0.486825,-4.61198,1.37827,0.508525
9.95889,0.12143,9.8241,15.3984,5.60199,11.0894,14.7203,4.46415,9.52326,13.9227,6.35419,11.1216,14.7149,4.42876
5.84122,0.170124,3.74083,1.30566,2.56407,3.57777,1.19785,3.01345,4.3166,1.19488,2.25949,5.7227,1.58841,2.38185
39.934,3.64426,1.17493,25.2728,-0.206386,-2.67219,23.9396,-2.63717,-2.80896,24.1546,-3.13295,-3.15131,24.1774,-2.35935
2.44842,0.151057,1.85187,19.8075,-7.12252,2.06209,18.599,-7.725,1.9934,18.7561,-7.57424,2.0422,18.0367,-7.99127
3.25147,0.170265,3.51686,15.4789,-8.6037,3.51972,15.9905,-8.70938,3.24391,14.9623,-8.94113,3.98107,15.3142,-8.66458
26.9557,0.46048,7.28963,6.26505,-6.26196,3.68438,5.81111,-7.25223,5.53527,6.66718,-7.33965,4.0817,6.43079,-7.49854
5.86219,0.839081,-6.3145,15.236,6.83164,-5.97337,16.4948,6.53133,-5.80721,16.4666,6.57508,-5.71052,16.7392,6.72474
1.46193,0.229347,0.275602,1.62279,4.41656,0.103267,0.95523,3.8129,0.279596,1.07567,3.94627,0.447019,1.01777,4.00934
0.364303,0.0576871,5.00167,7.44928,-7.74298,5.16582,7.37614,-7.73895,5.00961,7.57875,-7.89968,5.07357,7.61024,-7.91139
0.754244,0.0879224,-0.00922231,24.094,3.82688,-0.0600474,23.4382,4.41039,-0.00127362,23.4468,4.41461,-0.0941602,23.53,4.33671
1.58912,0.504167,-1.54863,2.80853,5.91358,-1.03673,2.29108,5.3098,-0.815661,2.3492,5.54404,-0.928309,2.43202,5.49383
6.05107,0.285027,-4.14511,4.36069,5.78673,-4.42935,3.12429,4.7557,-3.56292,4.2822,6.14556,-4.46947,4.33174,6.18976
6.13652,0.565633,4.37271,22.2747,4.35484,2.26079,22.6991,4.86638,2.23365,22.7628,4.80337,2.95387,23.2151,4.29697
29.3088,0.43178,-5.90489,2.57814,3.60854,-3.55643,1.99572,4.03786,-9.59809,5.14608,2.4999,-4.37897,2.1574,3.66331
0.980331,0.00885597,-1.81024,19.706,7.88446,-1.37696,20.0237,7.72515,-1.18913,19.8969,7.82617,-1.60382,19.6269,7.94724
0.950356,0.00888044,-12.0827,9.76772,-1.31457,-12.0185,10.0088,-1.58146,-12.2701,10.2242,-0.836729,-12.0878,10.1851,-1.39529
6.9642,0.690923,-4.14331,3.78902,5.31503,-3.957,2.45558,4.78073,-4.32319,2.23996,3.85922,-4.24314,2.22722,3.94527
31.5006,0.530726,-11.3065,14.4272,3.90225,-11.6254,15.9051,2.42733,-12.23,14.244,2.23633,-12.1926,13.3256,2.50993
2.26043,0.0926528,-0.512834,19.8245,-7.7953,-1.32027,19.6694,-7.85238,-1.42668,19.531,-7.94903,-1.6226,19.9058,-7.72861
7.23154,0.364679,-11.1394,17.9854,2.14678,-11.448,16.0066,2.61506,-11.4963,15.9597,2.90505,-10.9566,17.6387,2.94037
31.5539,0.168357,-6.47654,19.2291,-6.31407,-6.23313,20.3644,-5.63919,-5.64671,17.4486,-7.21736,-4.84915,18.2164,-7.0694
3.85631,0.26091,-8.18252,17.3353,-5.35499,-8.12158,17.2598,-6.10185,-8.82577,16.9077,-5.2275,-8.27606,17.8732,-5.26265
2.9399,0.0488401,-11.0235,13.923,-3.61948,-10.1535,12.7207,-3.34671,-10.8584,12.7283,-3.47105,-10.1021,12.8133,-3.35087
6.7637,0.372795,3.07648,9.13868,-8.3458,2.23211,9.17176,-9.10208,4.05818,9.26928,-8.44576,2.8298,8.47576,-8.61094
1.99997,0.0183123,11.3142,7.45259,-0.360455,10.9113,6.30964,-0.241333,11.3387,7.46452,-1.13286,11.3158,7.40302,-0.941005
1.00518,0.109801,8.03553,22.3516,-0.812654,8.72613,22.1777,-1.10115,8.66297,22.2124,-1.10899,8.46441,22.1882,-0.504668
2.57149,0.335866,7.04666,3.565,-3.93787,7.51156,3.13479,-2.94409,7.43418,3.11616,-2.97391,7.19697,2.95804,-2.99667
17.5266,0.0757376,11.5604,10.2313,2.67177,11.1827,7.14481,1.71221,11.0838,6.75848,1.81545,11.3425,7.09297,1.0985
25.9628,0.129742,-6.66728,2.84292,2.54955,-7.71404,2.73617,0.660392,-7.9211,2.58215,0.0872101,-4.74781,1.68165,2.3546
7.63526,0.102624,0.461226,4.62836,7.29624,0.0998759,3.652,7.00032,-0.130223,5.29733,7.76613,0.735736,3.75977,6.99102
7.28324,0.136184,6.87442,21.2527,3.95465,4.97487,22.5178,4.10665,4.99521,21.9511,4.3465,4.50809,22.1346,4.4072
18.8391,0.967385,-3.51946,19.2357,7.54093,-2.76608,20.5933,6.06598,-2.36099,21.4578,5.87491,-2.73673,21.1938,5.77396
15.6931,0.238025,4.57836,21.4963,-4.63243,3.34639,21.5563,-5.43354,6.35869,21.5414,-4.26415,3.39354,21.4447,-5.55268
12.4093,0.395976,-6.06066,22.047,2.89933,-9.22161,20.8519,1.51666,-8.9741,21.0355,1.49396,-6.95713,21.7982,3.22133
5.16116,0.273724,1.87526,21.4542,-5.50438,2.46554,22.1096,-5.56529,1.56979,21.4708,-5.84927,3.33158,21.5161,-5.46974
10.3285,0.25125,12.2402,11.056,0.410853,12.6904,13.5983,0.780269,12.5467,11.9638,1.10381,12.6146,12.6235,0.635588
17.7976,0.463162,-11.0164,7.72509,2.84493,-9.32424,5.96417,3.96431,-8.68342,6.64149,4.8279,-9.7194,6.78618,4.06115
5.08095,0.0850859,-3.64291,19.3754,-7.41187,-5.28558,18.3061,-6.81399,-4.83021,18.2962,-7.04344,-4.88812,18.4627,-6.9942
7.0685,0.172657,-7.54018,8.01436,5.52783,-8.40158,7.86523,5.45214,-7.13024,8.73689,6.26024,-7.19041,8.09812,5.86123
7.83314,0.124757,-4.38244,1.32094,-1.62778,-5.58059,1.85319,-1.35768,-2.71785,0.882598,-1.87627,-2.652,0.851209,-1.83047
19.2507,0.168939,-2.0721,17.2713,-7.9791,-1.35149,17.2974,-8.25791,-4.48008,17.0432,-7.87304,-5.09485,17.3706,-7.67393
28.2392,0.36216,6.96217,15.7099,-7.52235,7.14283,12.0979,-7.31881,7.27979,11.4594,-7.30312,8.07333,11.5764,-6.90784
15.6401,0.301785,11.7158,9.87273,-0.92161,12.2091,10.6924,-0.558697,11.6082,7.85187,-0.974621,12.1669,10.7326,-1.61954
0.453435,0.0247246,9.16185,17.0583,5.61825,8.84646,17.3638,5.79837,9.05662,17.2257,5.65744,8.84357,17.2973,5.80134
0.791732,0.150595,-10.7428,11.3281,4.45891,-11.257,11.1072,4.15963,-11.2817,11.1354,4.12861,-11.3163,11.4989,4.03537
3.50034,0.000815135,-6.26349,23.4898,-0.81338,-6.71299,22.9414,-1.67362,-6.62728,23.0323,-1.89701,-6.1764,23.6042,-0.370778
2.67467,0.0429494,1.98817,4.87471,-7.38278,0.62328,3.81854,-6.45315,1.03477,4.28609,-6.79637,0.895768,3.90615,-6.56448
2.52278,0.0752668,1.91975,22.7018,4.8312,1.4751,22.7216,5.01114,2.20428,22.7904,4.78775,1.95711,22.2597,5.56031
4.37694,0.15735,11.3559,16.6244,-1.9026,11.5689,16.2604,-1.76452,11.5173,16.3111,-2.25537,11.4079,17.802,-1.62466
9.15016,0.331946,8.0483,5.34632,-4.29643,7.71088,4.68136,-4.3947,7.9475,5.1275,-4.93331,9.28804,5.88332,-4.34483
7.82356,0.141883,2.62111,14.0551,9.06737,4.55812,14.5961,8.43877,3.08321,13.0772,9.03592,2.61725,13.3237,9.22324
6.65539,0.100706,-6.88615,22.6405,-1.97912,-6.25295,23.116,-2.3258,-7.35239,23.0343,-1.08244,-6.59748,22.537,-2.6845
5.62206,0.306234,-0.0985003,22.7505,4.84882,-1.81213,23.2375,4.23505,-1.36727,22.7659,4.71717,-1.68912,22.8052,4.56337
2.62351,0.513168,2.25318,10.6625,-8.64253,3.84993,10.8128,-8.42602,4.06632,10.7851,-8.32888,3.9495,10.6811,-8.40821
42.5323,0.185269,-4.44003,1.87013,3.37351,0.0746766,2.33627,5.52255,-1.31483,0.779309,3.50943,-1.69453,1.08902,3.70561
49.8889,0.591497,0.437593,2.69913,4.81181,0.7928,3.6454,6.89232,4.05759,1.78966,4.81231,0.396194,1.65695,4.48193
10.7808,0.230371,-2.50433,12.0322,-8.87451,0.151855,11.1265,-9.34526,-0.684131,11.6117,-9.28635,-0.0376598,10.9625,-9.30996
1.26437,0.101319,2.81547,21.2113,-6.36159,2.58484,21.4175,-6.29948,2.87553,21.1929,-6.57383,3.18019,21.3435,-6.20597
1.11671,0.144894,-2.86755,4.8142,6.91523,-2.51666,4.58845,7.30278,-3.2391,4.7739,6.9002,-2.97003,4.68573,6.82445
26.2656,0.579869,9.37505,8.94485,4.64469,9.02157,7.03142,4.20238,10.7138,9.19165,4.16533,9.08949,5.56247,4.34444
6.08805,0.147476,0.0549534,0.73787,-2.3787,-1.9401,0.783018,-2.15328,-2.86069,0.885558,-1.98313,-2.72435,0.886279,-1.92275
7.63997,0.100238,5.07733,9.53657,-8.33536,3.9622,8.97801,-8.41021,4.11683,9.32352,-8.45367,6.68295,9.74656,-7.81277
33.4087,0.117283,8.73963,16.8991,5.99222,5.40181,18.3173,6.80397,7.00084,16.6979,6.8964,5.42565,17.4943,7.15896
5.90059,0.0791722,0.628059,24.1076,-3.73307,-0.883959,24.1254,-3.7021,-0.909828,24.0678,-3.76585,1.83532,24.1932,-3.44116
14.2007,0.258235,8.42244,21.3362,0.539955,7.98872,21.7684,1.88638,9.75593,21.1595,-0.770665,7.9317,21.7992,2.63558
106.091,0.99141,4.74047,13.6085,8.12217,7.67836,10.8628,7.33463,8.61993,13.6712,6.9184,9.21437,12.492,6.48837
2.17724,0.219906,-4.04347,4.89035,-6.4105,-3.96454,4.58414,-6.51779,-4.4918,4.56153,-6.27072,-4.1988,5.08822,-6.76318
134.09,0.173029,-0.505366,1.1584,-3.18457,-4.12752,3.14482,-5.32289,0.154324,4.7423,-6.97307,-0.700151,5.65831,-7.86134
15.1274,0.230288,-5.65462,13.1605,-7.84561,-5.9539,15.3217,-8.35833,-5.67058,12.3821,-7.95561,-5.87792,15.3364,-8.40373
13.1487,0.617021,-10.1627,14.4088,5.43499,-9.70067,11.9937,5.5772,-10.1515,12.8616,5.57562,-9.29138,12.9061,6.45574
4.94382,0.510638,-8.8429,11.3933,5.51162,-9.04904,12.2077,6.30212,-8.27825,11.3273,6.34481,-9.14615,12.3085,6.33696
7.37919,0.170079,-8.54192,16.7675,5.39433,-8.19732,16.8677,5.91436,-9.40741,16.7024,4.94986,-10.1366,16.334,4.68028
5.98553,0.544709,11.8371,15.8536,-0.857969,12.0542,15.7703,-2.331,11.8168,15.8317,-1.94401,11.5703,16.2634,-1.72079
26.9343,0.281202,6.44264,8.97281,7.03948,6.17388,6.54129,6.9229,9.40233,8.89887,5.42908,7.63101,9.1171,6.20369
2.9503,0.205938,0.211153,0.726046,-2.36569,1.54709,0.663089,-2.41692,1.86742,0.636764,-2.28237,2.13244,0.706934,-2.377
0.0747284,0.0803297,3.36451,2.27143,-5.03837,3.48404,2.45214,-5.05786,3.37858,2.37934,-5.04391,3.43765,2.42458,-5.00756
0.854518,0.0843193,7.50071,21.9652,2.97648,7.46561,22.0823,2.27336,7.56241,21.9937,2.4725,7.41914,22.1303,2.27331
20.1416,0.683793,-9.72975,12.969,-3.50142,-10.36,13.5006,-3.57624,-10.7139,11.7409,-3.71449,-9.14725,12.5607,-6.13359
0.37713,0.25286,10.9659,6.6422,1.97831,10.9963,6.87751,2.20583,10.9109,6.73404,2.23489,10.9058,6.66374,2.24321
2.41198,0.253938,11.6431,11.1136,2.65238,11.6888,10.1234,2.49652,11.9944,9.93823,2.24398,12.0781,10.339,2.37654
17.9903,0.0755735,3.76,7.39491,7.07716,4.29579,8.51858,7.30517,3.4872,6.00266,7.63452,3.20549,5.21821,7.61705
1.36775,0.0724387,-8.22676,22.5722,-0.280507,-7.79704,22.8333,-0.626071,-8.74001,22.1569,-0.347779,-7.7089,22.8825,-0.576777
2.92023,0.0148379,-11.8178,8.18947,-0.139984,-11.6877,7.90385,0.550506,-11.6493,7.82403,0.621431,-11.5795,7.65731,0.277371
0.734223,0.102675,-11.5249,11.5193,3.63414,-11.4813,11.4937,3.83675,-11.6843,11.4334,3.58912,-11.6596,11.7071,3.68072
19.0789,0.145427,-5.91298,5.82016,6.41787,-3.66428,4.76653,6.78092,-6.90649,6.07738,5.88721,-3.26467,4.84546,7.01946


