
2.67091,0.115245,8.61069,14.3413,8.03655,8.77165,14.6355,7.92139,8.48957,12.863,7.9954,8.6513,13.1395,7.99764
1.73861,0.269806,-9.0155,30.1579,2.44563,-9.83897,30.6687,2.27834,-9.70519,30.5441,2.27253,-9.78004,30.474,2.40022
2.38496,0.162518,1.15704,20.7424,9.0475,0.900658,20.1138,9.38081,2.05421,20.3961,9.22125,1.77713,20.4253,9.17062
3.44167,0.869758,-9.33815,29.042,4.38805,-10.5227,28.692,4.12996,-10.4432,28.7384,4.05103,-10.7401,28.7644,4.20011
2.38743,0.448994,-8.9632,6.77414,4.68821,-8.71601,7.75486,5.5815,-8.82776,7.79325,5.5177,-8.74634,7.74926,5.53776
8.10406,0.0279709,1.17606,15.3892,-9.63486,2.06742,17.5962,-9.65664,1.80848,16.3808,-9.64789,1.73513,17.7756,-9.6774
2.71384,0.581989,-7.25004,5.70653,5.55488,-8.31651,5.8683,5.46988,-8.16895,5.803,5.34315,-8.27534,5.64037,5.28574
0.534061,0.102403,-6.73369,22.9633,-8.67082,-6.39341,23.3748,-8.68452,-6.38481,23.2136,-8.70917,-6.32593,23.5472,-8.65238
29.4695,0.0327983,4.15577,14.4404,-9.33911,4.81139,12.6879,-8.98663,3.3835,11.9356,-9.14589,5.94175,12.2791,-8.71068
2.83742,0.0580669,6.53606,5.54586,-6.79004,6.88312,6.50314,-7.04272,6.58181,6.79518,-7.22685,6.17444,6.66369,-7.3125
0.841485,0.0670464,2.54068,20.2689,-9.36698,2.05904,19.6376,-9.50158,2.2394,19.7353,-9.45825,2.38175,19.6889,-9.45345
11.0482,0.153094,-13.1142,25.0978,4.18872,-11.1189,25.3548,5.40686,-12.456,26.3176,4.39506,-13.6903,24.4688,4.22402
3.91943,0.286551,6.57427,33.183,0.685938,5.30922,33.5565,1.18412,5.02721,33.7127,1.11907,5.65694,33.3641,1.45503
0.0486249,0.0693194,-0.140628,24.9169,-8.80682,-0.264304,24.8846,-8.81853,-0.235552,24.9719,-8.78357,-0.214783,24.9328,-8.77341
0.160516,0.00667167,8.92347,23.9438,-7.70465,8.79918,24.3159,-7.68957,8.94355,24.1769,-7.67428,8.83947,24.3263,-7.67846
7.76484,1.04043,-1.83367,12.3895,-9.32749,-3.07198,11.1414,-9.05263,-3.02031,10.9841,-9.07589,-3.1706,11.2767,-9.05611
15.545,0.218906,4.22513,23.0326,7.92498,7.86422,23.1592,7.22497,4.1362,20.87,8.52205,6.32476,23.1741,7.60673
0.687821,0.128417,-7.12783,29.9753,-6.2552,-7.4068,30.1491,-6.06143,-7.17786,30.1392,-6.09052,-7.07558,30.3009,-6.07559
0.189753,0.0448309,4.10726,5.83677,-7.56199,4.23818,5.81733,-7.49575,4.35859,5.54259,-7.41019,4.31914,5.46939,-7.39532
0.676535,0.242149,7.48644,29.4426,5.50885,7.09536,28.96,5.82421,7.0467,28.9687,5.8065,7.07511,29.1281,5.75989
61.245,0.813431,-10.3744,30.9101,1.30205,-12.6077,27.6454,3.09147,-12.7679,28.3345,1.89252,-11.1434,30.6201,-0.455574
2.16593,0.126865,-3.98137,14.9059,9.20982,-3.05708,14.538,9.40421,-3.14861,14.2787,9.40481,-3.27925,14.585,9.38906
1.68648,0.437598,11.6175,11.7538,-6.4107,12.1856,11.4357,-5.89549,11.9212,11.0562,-5.9561,11.9729,11.2606,-5.93754
4.26438,0.0250794,-15.7962,19.2706,2.40441,-15.9471,19.3894,1.59422,-15.9726,18.8834,1.3918,-15.8651,18.5603,1.84504
17.6276,0.257348,-15.5254,16.0663,-1.54319,-15.4323,15.026,-2.78464,-15.9408,17.2589,-1.93332,-15.6148,16.2914,-3.04671
1.59024,0.059841,-14.4996,11.8462,3.65356,-14.4129,11.4874,3.8199,-14.4622,11.9369,4.01082,-14.7111,11.9019,3.28092
24.8815,0.0403287,10.665,28.5343,3.45044,6.3288,30.0158,5.85607,7.18352,29.9251,4.86469,11.055,28.1269,3.7741
3.73687,0.535059,6.65311,31.6178,3.1806,6.98876,32.174,3.24025,6.02868,32.0694,3.53057,6.98022,31.8108,3.94207
0.847166,0.388498,15.7658,20.9219,-1.8595,15.6096,21.5148,-2.03053,15.5741,21.4476,-2.29681,15.576,21.4484,-2.20631
63.441,0.0353114,5.98201,22.6628,-8.5481,7.41592,20.6502,-8.44656,7.32925,19.3971,-8.60173,5.79803,19.4678,-8.90012
8.08053,0.16482,-9.05107,3.06553,0.638606,-8.17118,2.7018,-0.0594151,-9.15104,3.15177,-0.431605,-8.86146,3.05303,-0.0801394
5.25733,0.0891701,-3.64473,21.4202,8.91156,-3.88971,21.1236,9.05636,-3.73945,19.3591,9.68608,-3.08723,22.2375,8.8484
0.0773932,0.0198676,9.45361,11.163,-7.36693,9.30373,11.3317,-7.48757,9.3974,11.2879,-7.42161,9.34154,11.1817,-7.4089
0.72118,0.00813976,-14.7486,21.2891,-4.84573,-14.9048,20.9902,-4.68022,-14.8196,20.8683,-4.82973,-14.7093,20.9143,-4.98655
31.681,0.101357,-9.63468,7.98351,-6.45391,-11.3919,10.0411,-6.51935,-10.7367,8.46784,-6.09708,-10.8266,10.267,-6.84994
7.26545,0.457463,-3.35775,8.73453,7.89988,-4.07806,8.38356,7.79506,-5.37463,8.55039,7.27965,-5.87905,8.63641,7.22388
5.17168,2.58893,-4.25328,1.86726,2.22554,-6.76995,2.57274,2.1528,-6.78402,2.45082,2.05012,-6.7758,2.49112,2.06362
12.0383,0.00952831,7.31367,26.4208,-7.79255,7.71664,25.6067,-7.82247,6.81,23.804,-8.28102,6.46967,24.2983,-8.29086
9.42788,0.259301,5.87837,30.8713,-6.40095,5.04917,31.4442,-6.08917,3.66143,31.7361,-6.34635,4.54847,31.6719,-6.12865
2.40239,0.124019,-4.77307,32.913,1.15507,-4.96013,33.2812,1.10902,-4.56363,32.4302,1.52172,-4.25525,32.6379,1.49912
25.7912,0.0679302,-9.21856,30.9752,2.21579,-7.88636,32.0301,1.76697,-8.66128,31.8941,0.723061,-8.02808,32.32,0.619407
1.88657,0.00829882,3.06041,11.9785,-9.16332,2.71594,12.4887,-9.33136,2.64439,12.0769,-9.24549,3.20986,12.5446,-9.26442
19.4686,0.589941,-5.75415,2.60961,0.760838,-5.86496,2.43408,-0.572153,-6.19948,2.43971,-1.15453,-5.06711,1.21059,1.20158
2.54289,0.0449321,12.4947,15.5351,6.34552,13.4166,15.6368,5.83474,12.723,15.9227,6.28448,13.0123,15.131,6.04939
2.66247,0.0471198,13.1327,12.2286,-5.38554,13.1865,11.731,-5.17901,13.738,11.5624,-4.51084,13.6005,11.4482,-4.60807
39.9247,0.00843462,5.25435,10.1092,-8.41986,6.19362,7.00719,-7.38005,6.74571,9.18562,-7.78859,4.74934,6.4462,-7.62732
0.188748,0.0305356,-5.03023,23.4662,-8.78225,-4.98196,23.3327,-8.83777,-5.08793,23.6425,-8.78104,-5.17669,23.6476,-8.77813
1.02751,0.214867,-10.2225,23.2638,-7.82182,-9.95772,24.2309,-7.69652,-9.97976,24.3291,-7.63377,-10.1284,24.1598,-7.65335
29.9774,0.124934,-10.2364,14.2611,-7.99778,-7.70064,14.732,-8.63386,-9.70894,15.8538,-8.42599,-8.88993,13.5164,-8.26599
1.45372,0.173259,9.06641,23.1278,6.87733,7.94392,23.1916,7.20642,8.39873,23.1169,7.00703,7.94428,23.0811,7.24027
5.09665,0.219793,1.91229,26.0809,8.13764,4.41509,26.0519,7.87054,3.74364,25.9638,8.04091,4.42045,25.9886,7.89244
5.76926,0.0274633,-10.7488,6.03338,-3.14709,-9.40751,5.10536,-3.85988,-10.9124,5.54896,-2.91534,-10.1052,4.80217,-3.33076
27.7131,0.078689,2.48327,28.8029,6.92822,0.0321937,27.3254,7.89359,0.0174017,27.9644,7.43851,2.53089,27.4388,7.80301
0.0293311,0.0792076,3.68742,7.29932,-8.08079,3.80808,7.52965,-8.12652,3.7727,7.31557,-8.06534,3.76848,7.37245,-8.06206
7.94263,0.407109,-10.1052,16.9415,7.15065,-10.0145,16.2874,6.81595,-9.77482,15.9341,7.13797,-8.72505,16.7764,7.97576
0.396751,0.189728,9.06188,30.0985,-5.54325,8.69655,30.3355,-5.53698,8.65844,30.2882,-5.60644,8.5811,30.302,-5.68958
0.836327,0.197325,2.98861,6.05859,6.63166,2.84446,5.4816,6.56588,2.67447,5.37332,6.54169,2.67812,5.31702,6.50879
1.36218,0.111573,-4.48056,30.05,5.90952,-3.20956,30.2993,6.01539,-5.14134,29.8982,5.62991,-3.21185,30.2621,6.05066
12.9031,0.142836,-2.10499,12.74,8.82595,-3.81566,11.7101,8.98201,-0.499684,12.0699,8.87597,-3.53009,12.9671,9.03351
7.89742,0.0369024,10.1096,14.1191,-7.72803,9.96027,12.7017,-7.50935,11.1252,12.8437,-6.98151,10.0741,12.4479,-7.41092
6.32174,0.0766989,4.19597,1.2437,-0.9812,5.07426,1.00337,-0.0220583,4.82335,0.912793,-1.54348,4.73597,1.1629,-0.166916
102.64,0.012298,5.32834,22.8992,-8.60753,4.00666,26.9027,-8.26432,6.39663,24.9017,-8.25701,4.4577,27.1878,-8.18634
13.4173,0.730914,3.35023,32.6296,2.27989,4.88753,32.7485,2.27046,3.02825,33.9354,1.74864,2.99206,33.3282,3.05897
0.0680897,0.0482193,-5.66332,27.4465,-7.71893,-5.68534,27.244,-7.83652,-5.70014,27.5197,-7.73098,-5.64744,27.6047,-7.72735
4.93097,0.0435447,9.68055,4.11282,3.44219,9.53925,3.78173,2.35133,10.0218,4.07507,2.30771,9.45799,3.91623,3.40853
2.65749,0.0280663,-6.77754,3.42956,4.23612,-6.82063,4.63034,4.77738,-6.73429,3.2746,4.21019,-6.72343,4.53943,4.76028
13.0645,0.137621,-12.6445,16.8691,5.76031,-14.6699,16.6062,4.32734,-14.7874,16.797,4.23754,-10.3185,16.9923,7.06864
5.22097,0.208921,12.3765,28.9523,-0.0220764,11.2971,30.0669,-1.22998,11.1576,30.3933,-0.593731,11.1968,30.2496,-1.08541
10.2499,0.0372412,-3.71593,7.73911,-8.31989,-3.31036,10.545,-9.00595,-4.10355,9.57464,-8.66185,-4.27221,8.68049,-8.44827
1.81106,0.291702,3.31842,7.22058,6.73688,3.01753,6.2665,6.61994,2.80641,6.04448,6.69055,3.03771,6.12654,6.63397
0.20159,0.0545465,6.62439,16.6102,-8.97411,6.53993,16.3677,-8.98477,6.42902,16.4278,-8.98394,6.40457,16.347,-9.00584
43.6131,0.425888,-10.9161,22.2435,6.57997,-8.49275,22.2856,8.31594,-8.32179,23.3903,7.98536,-10.475,23.716,5.7216
5.25319,0.0679882,-10.7772,30.6956,-1.42791,-11.283,30.3446,-1.38766,-10.576,31.0068,-1.30667,-10.856,30.3222,-2.77146
5.83119,0.234498,-0.714291,15.5472,9.41973,-1.5954,16.0756,9.26188,-1.26807,15.3251,9.27087,-0.425818,14.7019,9.66672
32.7105,0.782265,-5.44353,29.6682,5.77357,-3.33656,31.1749,5.22893,-5.1203,31.1486,4.26853,-4.03148,31.0464,5.1728
1.99065,0.801603,3.2622,10.3464,-8.8077,4.28235,10.8041,-8.77589,4.14279,10.8593,-8.80214,4.00037,10.9155,-8.84577
7.00343,0.114757,6.14248,2.24289,2.70409,5.84455,1.86963,2.4097,3.23139,1.49003,2.77094,3.37343,1.6081,2.91917
0.152784,0.0124484,7.48215,23.4586,-8.14949,7.53868,23.2153,-8.16112,7.45294,23.2251,-8.17752,7.39582,23.2771,-8.18166
2.93035,0.273539,9.15006,23.1437,6.84056,11.7127,23.1251,5.91502,11.0718,23.0489,6.19036,11.6312,23.0636,5.925
5.51588,0.245381,-8.1493,3.14458,-3.78446,-7.86106,2.95654,-1.66171,-7.8598,2.99104,-1.86923,-7.72164,2.95286,-1.90387
2.11436,0.165756,5.44383,33.8054,-0.890023,6.4123,33.3802,-1.07816,6.63172,33.3234,-1.33573,6.56036,33.3422,-1.37695
3.49638,0.0221313,3.87578,19.0072,9.36232,4.20728,17.8379,9.33909,4.15768,18.5352,9.35305,3.46523,18.0686,9.40812
14.2354,0.056055,-4.75685,26.693,-8.12173,-5.67737,26.9993,-7.92332,-4.51771,24.1567,-8.72458,-5.07612,24.4635,-8.60862
1.55138,0.00497669,15.8176,15.7753,2.44518,15.7479,16.3893,2.773,15.9446,15.8076,2.0067,15.7608,16.3957,2.73055
0.315765,0.0554203,9.93585,23.7473,-7.42915,9.95977,23.2813,-7.50501,9.86815,23.3872,-7.51709,10.0067,23.2014,-7.50015
43.7423,0.190261,-8.0791,10.5741,-7.95708,-8.28926,13.2223,-8.36623,-6.83109,12.2419,-8.53283,-7.23891,13.8135,-8.60994
1.41519,0.819312,0.332631,33.6357,-4.34789,1.0397,33.2141,-4.97284,1.18053,33.2309,-4.96114,1.32384,33.2669,-4.95708
2.48993,0.00910121,7.29334,19.1571,-8.62337,7.14139,17.3706,-8.82284,7.54444,18.7456,-8.59121,7.20505,17.1542,-8.82782
143.288,0.370238,-5.18158,22.7156,-8.89415,-4.32375,18.9192,-9.43359,-2.05213,19.7814,-9.56227,-2.23004,19.6972,-9.55268
2.84944,0.00686971,-10.7508,19.2194,-8.17407,-9.84069,18.1123,-8.54203,-10.7861,18.1836,-8.17694,-10.6083,18.3119,-8.24436
35.6487,0.0548201,4.95202,9.7367,-8.39427,1.74372,7.48388,-8.43842,2.01103,6.90891,-8.27771,3.09808,9.97673,-8.77067
6.79001,0.0518259,-0.852167,33.9642,1.90411,0.650284,33.918,2.54864,-2.91634,33.6766,1.93779,-2.35493,33.9165,1.65668
4.05529,0.0026736,8.66915,31.958,-2.0706,8.48076,31.6412,-3.52391,8.75708,31.7154,-2.75428,8.26104,31.7091,-3.68794
6.13146,0.219125,-1.4125,0.964971,-0.961587,-0.708466,0.520054,-0.883989,-0.529357,0.20558,-0.616826,-2.3035,0.554448,-0.87526
7.50711,0.476927,0.665218,8.59678,7.47475,0.300901,7.88904,7.79252,1.86428,7.64253,7.61892,2.66388,7.98937,7.66604
2.19539,0.0571829,-12.8748,26.4131,3.77758,-13.3166,25.7105,3.89827,-12.4431,26.7948,4.06277,-12.3877,27.0834,3.91577
5.13191,1.89885,3.18792,16.7819,9.06043,-0.770309,16.8073,9.32055,-0.776173,16.7544,9.3492,-0.738113,16.8429,9.3168
0.621636,0.0683797,8.11992,9.57519,-7.45123,8.17709,9.97431,-7.55168,8.05609,9.8187,-7.53019,7.91683,9.78951,-7.5863
5.93558,1.15139,3.2625,16.7969,9.0437,5.86777,16.7933,8.59071,5.64468,16.6423,8.70519,5.94612,16.667,8.4891
3.63823,0.69247,-2.17519,22.8845,9.06621,-3.18445,22.4904,8.74368,-3.39207,22.835,8.74651,-3.25864,22.2784,8.81074
0.26902,0.0466153,-15.9334,17.2875,0.220683,-15.9964,17.2521,0.0864228,-15.9956,17.4528,0.297311,-15.939,17.2897,0.493484
5.19253,0.234318,-1.05716,19.6664,9.50427,-1.00948,20.995,9.05847,-1.13885,20.9157,9.05797,-0.954738,21.4916,8.98473
6.71466,0.357863,2.74466,24.7071,-8.30009,1.98931,24.6162,-8.76672,3.42038,24.5644,-8.59528,2.28724,24.183,-8.77857
0.39717,0.0142837,-0.391482,17.9252,9.61423,0.00240462,18.0904,9.56456,-0.00207446,18.158,9.55994,-0.0963459,18.2237,9.5672
0.864982,0.0490158,-12.6668,28.7316,0.698065,-12.7036,28.7637,0.574388,-12.6312,28.862,0.908844,-13.1253,28.2005,0.769516
10.4676,0.0401323,-15.8952,22.5968,0.311863,-16.0287,21.8087,0.306222,-16.0082,21.1434,1.03037,-15.8686,22.0612,1.27022
0.813449,0.0157236,11.2492,25.013,-6.5385,11.4376,25.338,-6.29191,11.3365,25.5275,-6.32915,11.3989,25.4967,-6.28625
1.42511,0.00972577,-2.16947,20.3724,9.57425,-2.74454,19.5694,9.67497,-2.84591,19.6973,9.65941,-2.76265,20.2745,9.59224
25.602,0.277145,-8.43554,30.3143,2.38812,-7.58221,31.5822,2.69117,-8.2986,29.8951,3.45537,-7.09024,31.3422,3.50275
19.7344,1.07207,-5.68896,21.7405,8.70846,-5.04761,23.5336,8.64568,-6.32972,23.0955,8.83043,-4.75166,23.3581,8.85426
10.9396,0.0548898,-10.8142,17.9535,-8.1541,-9.97617,16.582,-8.41429,-9.27195,17.5765,-8.67547,-9.36993,17.725,-8.65127
2.52515,0.083345,-0.186272,29.6486,6.87568,0.928002,30.531,6.05984,0.362523,29.9422,6.69132,0.854324,30.3022,6.30898
2.13616,0.0636176,-8.10755,3.75198,3.7863,-8.38583,3.4371,3.27727,-7.67399,3.54513,3.98492,-8.24532,3.86968,3.94086
5.2019,0.221629,-2.29883,32.7015,2.43739,-1.72396,33.2375,2.66757,-2.46089,32.0191,3.44438,-0.930695,33.549,2.94465
7.41149,0.452463,-12.5223,19.8117,6.60989,-9.94058,20.2767,8.1763,-10.2379,20.3269,7.99486,-10.7065,20.4918,7.65217
0.872083,0.185442,-7.40882,24.946,-8.18532,-7.15486,25.3002,-8.19099,-7.01827,25.2974,-8.19933,-7.43122,25.4617,-8.07407
1.1305,1.0548,3.93136,1.71675,-3.08251,2.88773,1.59233,-2.9504,2.85787,1.63726,-3.09264,2.87897,1.63188,-2.98487
66.8346,0.431497,2.30291,21.255,9.00675,2.12162,22.833,8.60318,6.06773,19.6393,8.92177,6.22549,20.6298,8.96982
1.63901,0.125751,-8.00018,4.64368,4.56428,-7.19019,4.48121,4.8667,-8.23148,4.51293,4.55324,-8.23943,4.85157,4.80705
2.41077,0.21995,-6.7197,4.57016,4.78119,-6.70691,5.44213,5.07819,-6.54315,5.74079,5.10275,-6.51318,5.70398,5.09924
15.2556,0.0224775,-8.74305,13.3018,-8.27782,-9.70057,11.4012,-7.64763,-10.0035,12.6458,-7.81688,-9.93788,11.6042,-7.62916
5.56119,0.0607733,7.00687,28.8927,5.83564,5.64526,27.3457,6.73518,5.69261,27.345,6.75957,6.42861,27.829,6.66143
1.00914,0.0539521,0.0846117,22.9742,9.13137,-0.240374,22.9405,8.98178,-0.424561,22.7183,8.87428,0.0138059,22.6844,9.1692
4.84624,0.0469922,2.72421,19.1981,-9.45086,3.66261,17.8784,-9.39637,3.3507,17.6056,-9.45718,2.43466,18.459,-9.5733
4.40243,0.190798,4.24223,4.37929,5.60655,5.53619,4.36777,5.50578,5.99002,4.51775,5.5228,4.00508,4.27313,5.83986
5.04408,0.998627,4.87461,29.9416,6.03154,5.10627,31.2212,4.33793,5.27895,31.3163,4.24113,5.08698,31.1561,4.36948
0.334826,0.206484,9.45402,31.3432,2.19535,9.48229,31.2361,2.42364,9.6645,31.1413,2.35932,9.59517,31.1652,2.36617
9.13197,1.23749,6.70219,8.67891,6.99828,8.57501,7.37485,6.1526,8.2037,6.93429,6.04204,8.93939,7.08476,5.55872
4.68621,0.000326052,15.6839,18.5941,-2.80084,15.5907,19.8958,-2.92674,15.7359,19.5963,-2.55633,15.4714,19.1104,-3.33584
0.0376994,0.0420658,10.1843,21.2902,7.44758,10.1316,21.3628,7.44442,10.2548,21.4945,7.4029,10.1732,21.4286,7.43511
3.08348,0.0758108,7.05178,13.3956,8.35941,6.98316,12.5752,8.23181,7.12476,14.9353,8.3615,7.54114,13.5824,8.40439
2.63622,1.32632,-8.1236,3.1444,1.90273,-6.80579,2.56445,2.10538,-6.80826,2.53616,2.07699,-6.81734,2.59181,2.15327
4.27946,0.196171,11.2851,5.7109,1.38991,11.5925,6.03141,1.09611,11.5164,5.88304,1.65688,11.3351,4.89792,0.456421
4.69787,0.067982,-11.2782,14.8799,6.87731,-12.3115,14.2011,6.38856,-12.0879,14.2204,6.35223,-9.89087,15.4988,7.03179
0,0.0330638,2.95384,17.414,-9.51199,2.95383,17.2474,-9.52831,2.97836,17.3795,-9.49226,2.97803,17.3838,-9.48037
4.52066,0.216551,13.8505,9.81743,-0.520124,13.786,8.09572,-2.05094,13.9908,9.74314,-0.205103,13.8528,8.29807,-2.01782
0.0160321,0.00868558,-15.1242,10.572,0.111722,-15.1441,10.6028,0.10481,-15.133,10.5787,0.155094,-15.1085,10.506,0.156541
15.4082,0.113595,-0.0168429,8.72752,-8.75571,1.122,7.90387,-8.60346,2.70506,8.88448,-8.66876,2.29797,8.0883,-8.53967
14.9262,0.0220652,6.71677,10.3946,-8.11576,6.77905,12.2029,-8.48357,8.07179,11.5829,-7.9945,6.58626,11.6098,-8.41926
1.53625,0.124591,12.6209,10.1539,4.97264,12.6277,10.542,5.38611,12.9162,9.8962,4.34266,12.8249,9.86492,4.27292
2.07934,0.204734,-7.75492,22.1586,8.56858,-6.43831,22.184,8.98206,-6.58695,22.3182,8.93964,-6.66416,22.1517,8.95098
8.14113,0.179748,0.884101,12.2496,8.51406,0.676197,12.095,8.72689,0.86668,13.2278,8.676,2.49396,12.0695,8.48291
6.91529,0.361826,-3.41039,16.743,8.63821,-3.10057,16.2636,8.68337,-3.96164,16.5198,9.17482,-3.25994,17.8453,9.63894
4.80781,0.131089,1.59704,9.05134,-8.79754,0.911984,9.97555,-8.97215,1.26408,10.0816,-8.9399,1.33949,11.7394,-9.29111
4.69459,0.456672,12.5608,27.6476,2.49344,11.1507,28.3266,3.29205,11.0252,28.4064,3.42514,11.0312,28.5245,3.36148
6.71119,0.154657,3.9222,8.11531,6.91903,3.38651,7.58375,6.81377,3.36588,7.21897,6.7266,4.91071,7.64468,7.25716
25.4127,1.03959,11.1684,13.8422,5.4127,12.6481,14.4313,6.03616,12.3553,10.7228,5.61228,11.7295,9.97992,5.75451
0.0189209,0.0263816,-5.56779,16.8522,-9.17338,-5.47745,16.853,-9.18496,-5.55337,16.7978,-9.15628,-5.48757,16.8112,-9.14982
4.91221,0.0159775,-3.23243,17.9916,-9.52525,-3.5312,19.4905,-9.42304,-2.62336,17.6583,-9.56171,-3.71361,18.4938,-9.50579
9.8228,0.0783856,-1.08312,25.8632,-8.62219,-0.342049,28.2028,-7.97128,-0.617492,28.2687,-7.92041,-1.34897,26.936,-8.30717
20.1768,0.0169217,-8.82845,19.4718,-8.68426,-8.92188,21.4116,-8.46398,-10.1706,21.1192,-8.19744,-9.71518,21.9721,-8.22508
13.485,0.0841073,-12.5237,9.32703,4.57041,-10.1067,9.12769,5.81337,-13.6017,9.56141,3.88656,-11.6449,8.51029,4.90905
6.45406,0.0500638,2.23246,34.1539,-2.66548,2.79224,34.0377,-3.1181,2.13704,33.6191,-4.35418,2.65103,33.615,-4.33661
1.48433,0.392183,-12.3323,27.1286,3.95607,-11.7107,27.8853,4.03034,-11.5728,28.2904,3.93385,-11.6477,28.0842,4.00605
9.50399,0.265215,8.65726,15.8441,-8.43232,9.05997,13.5424,-8.08792,8.52268,14.0841,-8.32283,7.94871,14.3539,-8.50113
52.5481,0.197536,-15.3167,14.2982,0.654551,-15.381,14.8632,-2.15092,-15.2546,13.6468,-2.86809,-15.2675,13.2235,-2.19153
1.77343,0.224744,0.955443,13.794,8.52729,1.24593,13.7148,8.49482,0.910222,13.2248,8.63133,0.903719,14.5219,9.43193
2.08873,0.0510372,-3.78873,7.03393,7.00709,-3.51038,7.46949,6.91019,-4.12345,5.7166,6.40027,-4.12964,5.85184,6.49898
0.36188,0.111562,-16.1122,20.6093,-1.9183,-16.1481,20.2884,-1.88801,-16.1344,20.1721,-2.15086,-16.1453,20.2583,-1.97129
20.7799,0.162587,-8.46984,29.2935,4.48304,-8.14031,28.5689,5.87083,-8.61747,28.3192,5.77999,-6.38732,30.0455,5.55397
27.0436,0.57622,12.1794,9.94062,5.06854,12.7033,8.02851,3.42209,11.9156,7.05425,2.78629,11.828,9.18993,5.38233
47.7712,0.0431266,-11.832,29.7784,-1.43675,-11.7585,29.041,-3.54467,-11.2706,30.2754,-1.59587,-10.3571,30.0396,-4.16426
0.808775,0.019614,-0.203702,25.9807,8.11771,-0.461405,26.0458,8.10251,-0.46608,26.1189,8.12228,0.32454,26.5465,8.27801
7.4811,0.0119334,2.60583,18.5621,9.41005,3.32107,19.5878,9.37966,2.98095,17.8242,9.41691,3.5029,19.3914,9.38517
28.1569,1.54238,9.53454,16.9729,-8.14921,10.7158,19.6243,-7.64256,10.2928,19.6753,-7.8184,9.40545,19.6571,-8.10102
0.0262935,0.000533374,-6.00652,10.8846,8.72445,-5.86044,10.9617,8.78279,-5.89121,10.92,8.76584,-5.857,10.8921,8.77075
0.606197,0.12541,-9.49567,22.7636,-8.14028,-9.8649,23.246,-7.94913,-9.82883,23.419,-7.93044,-9.78798,23.5582,-7.91573
20.3617,0.0296184,-2.23788,18.2848,9.7388,-4.25216,19.59,9.63999,-3.54638,19.5418,9.66652,-4.22301,18.3669,9.69626
2.52564,0.0999044,11.142,5.34826,2.18035,11.5896,5.96024,1.92225,11.3558,5.70589,1.5969,11.3934,5.75722,2.10373
19.8356,0.446693,-8.40995,20.1602,-8.70241,-8.91672,16.9101,-8.72349,-7.88499,17.0937,-8.83836,-8.30698,16.5725,-8.73855
3.92949,0.137767,-1.58081,24.7788,8.45643,-0.970537,25.0265,8.34928,-1.32026,25.4229,8.46612,-1.01341,24.3921,8.40116
1.08458,0.325779,5.81758,14.5175,-9.07404,5.50955,14.1327,-9.06247,5.88453,14.0216,-9.00848,5.37353,14.1439,-9.10511
0.429664,0.00852541,6.26084,12.2553,-8.63835,6.57463,12.5098,-8.61127,6.29418,12.5383,-8.67597,6.47478,12.6396,-8.65695
19.2797,0.0512617,-7.57934,8.55956,-7.49425,-7.6256,7.15806,-7.1227,-9.41915,8.08695,-6.5992,-9.58016,8.43555,-6.62962
2.3536,0.0706602,-14.9206,19.6025,4.09135,-14.7375,19.4686,4.52851,-15.2982,19.7533,3.60411,-14.6567,19.7168,4.69724
12.3705,0.524289,-9.88928,25.1832,-7.41383,-8.15942,26.9501,-7.38827,-8.61204,26.8826,-7.29025,-9.10858,26.9105,-7.1108
3.17606,0.0184533,9.40645,14.911,7.14094,9.27577,15.1132,7.23416,8.32639,15.4955,7.58702,8.43031,15.2685,7.46782
0.179874,0.00616476,-8.577,9.79246,7.60786,-8.37389,9.74766,7.67205,-8.40762,9.65351,7.58994,-8.47939,9.63889,7.54337
8.80784,0.00129491,-2.77758,0.46185,-1.3948,-4.48591,1.00006,-1.0543,-4.46729,0.872474,0.686876,-4.87065,1.1473,-1.35503
2.44101,0.186163,-0.230035,12.1749,8.62847,0.112583,12.5673,9.23433,-0.42774,12.1681,8.82645,-0.111752,11.3083,8.21157
6.52037,0.0305952,2.58337,27.0069,-8.29903,2.62223,28.3955,-8.00163,1.81409,26.6692,-8.46076,3.01034,26.685,-8.37794
12.0848,2.29016,4.52916,29.7865,6.25876,2.08217,29.8598,5.74083,1.96224,29.5518,6.01055,1.54752,29.8654,6.55241
0.0553016,0.00160257,1.57938,14.582,-9.66956,1.61396,14.8105,-9.65957,1.66738,14.6671,-9.66491,1.56887,14.806,-9.6597
0.714724,0.375375,15.2274,22.6438,-2.63506,15.3369,22.0931,-2.64261,15.3116,22.0797,-2.74931,15.3583,22.1125,-2.58274
2.22085,0.0859311,-4.80439,10.2543,8.78331,-4.13229,9.68314,8.66787,-4.61486,10.0797,8.68124,-4.05607,9.90625,8.74895
2.05988,0.428329,-10.5389,11.7629,6.56437,-12.2999,10.8554,5.82453,-12.3696,10.7342,5.77354,-12.3193,10.7031,5.80917
6.57162,0.0228337,10.9843,26.2444,-6.28329,10.8209,25.252,-6.70748,10.1302,26.5399,-6.75382,11.0118,25.3668,-6.55477
2.81083,0.0862421,-15.5002,16.0164,-1.43527,-15.5405,15.7285,-0.560944,-15.6963,16.3135,-0.806513,-15.6315,16.0555,-0.589531
17.1818,0.609089,-7.71479,9.24877,-7.60635,-6.74355,7.34603,-7.55349,-4.95634,8.81749,-8.34971,-6.33139,7.87239,-7.8167
8.87447,0.834266,-16.1916,19.9371,-0.384664,-15.9537,20.281,1.65757,-16.0089,20.535,1.29279,-16.0537,20.835,0.786925
15.8044,0.416616,-1.84602,10.6821,9.00093,-2.19877,12.3793,9.14157,-3.7443,11.484,8.89039,-1.60757,12.285,9.09121
0.691781,0.000730411,-8.18873,9.77776,7.77208,-8.04964,10.2547,8.01324,-7.63374,10.1865,8.11633,-8.03673,10.1573,7.97722
28.2756,0.0237218,5.75629,33.5523,0.176534,7.27664,32.9393,0.464371,6.89329,33.0583,-0.511893,7.85703,32.6744,-0.682038
0.0457654,0.0483153,2.53974,5.63568,-7.69132,2.48305,5.63725,-7.7632,2.48163,5.58739,-7.73609,2.55728,5.65433,-7.75365
22.278,1.61557,-1.49044,15.1623,9.1618,-3.12491,13.7834,9.14682,-3.06458,16.6109,8.67932,-3.08656,13.3526,9.02884
62.1661,0.0593594,-2.06953,1.14185,-2.00643,0.273466,1.16753,-2.92338,-0.48967,1.38739,-4.5749,-2.36144,1.47711,-4.42593
6.21865,0.219759,6.46449,6.27002,5.71201,6.24803,5.71,6.07775,8.54174,6.34655,5.51836,6.30897,6.34352,5.95701
12.8733,0.287873,-3.53765,7.7077,6.92694,-1.42246,7.33588,7.13059,-4.16723,8.11861,7.73399,-1.48868,8.03025,7.86604
5.7481,0.251663,-0.941298,15.9158,-9.57702,-0.815903,16.9349,-9.66369,-1.28433,17.2064,-9.6335,-0.199788,16.4579,-9.66491
0.393479,0.00288107,2.17994,20.5349,9.1963,2.26715,20.0687,9.34362,2.33589,20.1324,9.32779,2.38657,20.2823,9.28518
4.00921,1.07156,2.41203,18.7554,9.42205,1.11004,17.8963,9.51013,2.05439,17.3958,9.40462,1.49539,17.6416,9.52229
10.9427,0.356329,1.32645,7.23192,7.03961,1.48724,3.53395,5.83491,1.6348,3.70055,5.92618,1.66066,7.48444,7.58321
0.49234,0.133397,-13.7603,23.7708,4.62573,-13.8215,23.9768,4.40567,-13.7168,24.16,4.45419,-13.7401,24.0974,4.44563
5.43108,0.221935,0.843039,1.48,-2.84834,0.354434,1.16348,-2.838,2.23327,1.52686,-3.70125,2.81166,1.62152,-2.97912
0.238319,0.0329202,-15.6204,19.1798,-3.79113,-15.5985,18.9663,-3.90012,-15.6843,18.9941,-3.74677,-15.6269,19.2531,-3.84601
21.1963,0.078864,-7.02908,14.8067,-8.77339,-6.42357,12.1648,-8.60753,-5.77062,12.5955,-8.77199,-6.5126,12.1644,-8.58967
4.65724,0.276156,-8.66229,31.1632,-4.17676,-9.23193,31.3153,-2.94598,-9.24471,31.3614,-2.87125,-9.74797,31.1054,-2.78978
6.3421,0.358808,14.963,21.7677,2.5578,15.6365,21.2645,1.34453,14.7863,22.9502,2.71412,15.4124,21.6354,1.67455
7.69023,0.0486216,-12.1537,29.5327,-0.676253,-12.5749,28.9948,-1.14741,-12.6614,28.9416,-0.506692,-11.8365,29.8596,0.459478
0.149157,0.00470831,6.03314,26.0359,-8.14575,6.17169,25.8006,-8.17021,6.17061,25.9004,-8.14974,6.12896,25.7276,-8.19122
2.05964,0.0623155,14.4752,25.0625,1.02192,14.399,25.1083,1.57826,14.4736,24.9232,1.66783,14.2629,25.7416,0.738016
39.4974,0.354997,12.8468,27.7942,-2.49135,11.245,29.867,-2.63048,13.5921,26.2281,-2.99337,10.2194,30.9881,-1.97383
3.48651,0.510096,-9.92854,29.1708,3.06608,-8.63241,29.7125,3.44727,-10.5662,29.4004,3.47658,-10.3729,30.0779,2.71912
0.0366925,0.0228479,-5.10048,15.8515,-9.17982,-4.96856,15.8363,-9.20567,-5.10614,15.9082,-9.18793,-5.02261,15.9,-9.18889
9.15013,0.0236815,-6.27492,2.45078,-1.19792,-6.76036,2.45545,-2.24508,-6.3415,2.3027,-2.08573,-6.5578,2.2552,-2.71597
6.28491,0.0631224,3.0333,0.757452,-1.27753,1.73148,0.757921,-1.319,3.94806,0.852281,-1.12056,3.02453,0.9354,-2.40569
14.7136,1.08981,9.01187,6.64363,4.69036,11.8485,7.25234,3.62835,11.7928,7.11448,3.68924,11.2966,7.02865,4.12554
7.5003,0.100333,-11.7025,22.8658,5.65517,-12.6543,22.9214,5.71944,-12.4241,22.7177,5.66479,-11.3807,23.0201,5.83449
2.36636,0.127753,-2.88936,3.07823,4.8285,-1.29078,2.90964,5.23816,-1.31323,3.00107,5.26235,-1.83026,2.85459,5.11074
9.95098,0.0453987,-15.4838,15.7269,-0.238226,-15.622,16.0608,-0.436378,-15.2924,14.5975,-0.68779,-15.4051,15.5961,1.25197
2.74492,0.224773,-0.671713,30.5888,5.69854,-0.821667,30.6746,6.02096,-0.678372,31.175,5.54911,-0.0228472,30.6298,5.63144
5.67312,0.51446,4.2471,6.61644,6.16332,4.0375,7.00302,6.93717,6.39058,6.45952,6.01208,3.96361,6.08065,6.62773
7.93962,1.08993,-11.0532,12.0737,7.10801,-11.8034,14.2018,6.45263,-12.2886,13.8542,6.37493,-12.0063,13.7375,6.35072
4.32139,0.101335,1.42479,30.6819,5.75336,0.0420466,30.5612,5.71107,2.1238,29.9159,5.7127,1.94025,30.4719,5.65732
5.7654,0.400275,-2.80464,3.38751,-5.80766,-5.46788,3.69773,-5.35343,-6.12911,3.94442,-5.26358,-5.38379,3.76085,-5.46209
13.5796,0.0288498,9.11953,9.20513,6.40479,10.0409,8.96412,6.38128,11.7194,9.55393,5.69474,7.06903,9.0718,6.80399
10.6366,0.171396,2.39833,0.733041,-1.62819,0.354593,0.823422,-1.3307,-0.999636,0.904216,-1.30546,-1.46646,1.01209,-1.36882
17.2353,0.0713287,8.83084,19.2678,7.65533,6.2077,19.7805,8.90694,5.34406,19.0892,9.05902,6.58035,19.3195,8.63477
29.0562,0.0995443,15.3296,22.3794,1.49055,14.6069,24.9101,0.940897,14.991,24.2441,-0.254693,14.9799,22.8225,2.22271
7.90973,0.129887,10.8021,16.0123,-7.57221,10.0954,16.9455,-7.93172,10.5363,17.4751,-7.78836,9.77953,16.7242,-8.05897
2.85954,0.559614,9.46212,14.9241,7.14228,10.76,14.3493,6.84232,10.8968,14.4246,6.77964,10.9865,14.305,6.68798
10.4564,0.281656,9.29232,14.0824,-8.00301,9.15884,15.9994,-8.28566,9.20387,16.011,-8.26518,9.7317,15.77,-8.04188
4.35818,1.69595,2.70694,3.44254,-5.74706,-0.00843698,3.36277,-5.93926,-0.0918002,3.26517,-5.82939,-0.00635088,3.35517,-5.89458
2.08049,0.0521455,9.2393,31.5633,-1.88374,9.98491,31.1228,-2.01439,8.85961,31.8631,-1.98698,9.9524,31.1621,-1.85438
1.99239,0.555236,12.6844,28.1489,-2.13197,13.5922,26.8121,-1.91723,13.6544,26.7837,-1.77714,13.5913,26.8069,-1.96357
6.71771,3.02668,-2.90069,8.69388,7.88023,0.290433,8.48343,7.51204,0.299247,8.51464,7.49942,0.352411,8.61665,7.53986
1.29997,0.0409333,10.6845,30.6872,0.988447,11.6354,29.567,1.62387,11.4164,29.9131,1.18369,11.4088,29.9097,1.22965
3.95836,0.337376,0.187583,7.27315,6.99427,0.0940573,6.57793,6.72408,-0.125873,7.35017,7.54233,0.765668,7.21321,7.50036
7.50311,0.169546,-8.3493,15.0056,-8.56667,-8.43692,16.5076,-8.72418,-7.74025,16.2068,-8.67353,-7.85506,16.6133,-8.76107
96.3276,0.246125,-0.801856,11.0178,-9.20776,-2.07539,5.58578,-7.84396,-1.97655,5.44993,-7.81876,-0.409125,6.30173,-8.23323
27.3291,0.109594,1.61534,19.3638,-9.57029,0.964248,22.344,-9.20801,1.62606,22.2616,-9.19791,0.8516,21.0835,-9.42224
56.8775,0.0600285,8.79132,3.90146,3.92834,5.88518,3.51483,4.65124,6.15993,4.50145,5.37918,7.69229,4.66771,5.00926
0.398815,0.116542,-14.8942,10.4335,-1.31962,-14.9013,10.65,-1.44221,-14.9929,10.464,-1.1968,-14.8652,10.6921,-1.43128
3.29121,0.0768097,3.33466,28.7479,7.05516,5.06693,28.8815,6.8061,4.47698,28.9599,6.94073,2.77088,28.6806,6.99792
6.26884,0.514392,11.824,6.06282,-2.73697,7.67818,4.23388,-4.60585,8.07244,4.40465,-4.55248,7.61939,4.20378,-4.60347
17.93,1.01142,1.33019,13.6868,8.49268,3.90954,13.3607,8.56639,3.15715,12.4853,8.71512,3.26548,12.8416,8.72884
9.27426,0.169669,-4.80043,32.3473,2.63899,-4.61588,31.8801,3.96735,-5.09293,31.8567,3.37091,-5.20411,31.1905,4.22723
0.00819687,0.0404842,2.52056,6.82796,-8.18531,2.48765,6.88203,-8.19515,2.47607,6.81839,-8.19103,2.51105,6.95619,-8.21895
0.0255687,0.0130845,-7.69097,28.5708,6.13074,-7.65116,28.4987,6.18611,-7.79465,28.2997,6.272,-7.65473,28.3546,6.29388
16.0214,0.641415,-10.1632,24.3957,5.30799,-9.94619,25.039,6.41874,-10.5293,23.7248,5.66416,-11.7427,24.9459,5.23128
6.78929,2.35891,2.49782,27.295,7.81833,0.157916,26.9198,8.01833,0.125871,27.1939,7.8979,0.150724,26.9915,7.9581
10.1203,0.0364051,11.2763,22.1128,-7.06699,9.80043,22.4472,-7.67565,11.223,21.3134,-7.23127,10.3283,19.8686,-7.78756
42.5029,2.04867,4.44672,7.62013,-7.99947,3.0526,5.17684,-7.53077,2.2919,5.55514,-7.77479,3.39777,4.98114,-7.38387
1.42702,0.049898,1.34991,19.1945,-9.58815,1.92377,18.6291,-9.61827,1.7905,18.5419,-9.63681,1.18644,18.9527,-9.58328
208.855,0.152896,-14.8539,14.8485,3.76824,-15.3753,14.8402,0.440818,-15.9755,17.3298,-0.49306,-16.0948,18.4402,0.438519
3.73511,0.340895,-4.28333,3.19668,4.39795,-4.61872,3.42393,5.07476,-4.43466,2.83671,4.51253,-2.8828,3.03246,4.81317
7.07459,0.189743,-13.6934,26.6709,-2.75894,-13.5724,27.4464,-1.85335,-13.4143,27.6219,-2.02652,-13.9601,26.8898,-1.85876
3.14226,0.707378,2.27404,34.4635,-1.54247,2.09044,34.1943,-2.55698,2.36854,34.2316,-2.41832,2.22641,34.2015,-2.4753
4.65552,0.14846,5.4187,1.18202,0.788163,5.66462,1.40232,2.06793,4.87237,0.777607,0.929475,5.759,1.113,0.470401
3.33552,0.154219,-10.3421,14.2574,7.30606,-10.4472,14.5428,7.40356,-9.73712,14.3905,7.66782,-10.6756,12.7792,7.50859
12.9304,0.179444,-9.81937,7.71971,4.59003,-9.88668,8.54505,5.21184,-9.3891,7.61188,5.28595,-10.5287,7.11592,3.79299
1.31336,0.00522545,15.4882,11.971,1.49182,15.7543,13.0385,1.39041,15.3856,11.5814,1.68344,15.6966,12.8449,1.53484
19.59,0.41879,14.3056,9.88142,1.0854,14.0165,9.73815,-0.167066,12.0415,9.54267,4.29182,14.6651,10.4786,0.181777
3.85765,0.0592214,11.3188,8.4689,-5.24354,11.7116,7.77948,-4.43813,10.642,7.49131,-5.32153,11.8759,8.0074,-4.39339
1.6801,0.0197256,3.99525,16.6204,-9.4159,3.93535,15.9571,-9.43838,3.73482,16.2931,-9.46997,4.33705,16.2169,-9.3835
2.98708,0.102107,9.89846,25.8073,6.27786,7.86551,25.9429,7.10754,8.7142,25.9854,6.76199,7.82632,25.8529,7.16754
36.8247,1.76598,-1.04534,2.59135,5.16464,-0.564365,7.33638,7.62549,-1.02907,7.3522,6.96373,-1.33937,6.50081,6.76125
2.06214,0.0964073,-5.42507,28.8135,5.99995,-5.21148,28.6018,6.08253,-5.65368,29.4175,6.01745,-5.42637,29.3604,5.93335
22.8831,0.789913,1.97277,4.3832,-7.27214,-0.00253217,4.53055,-7.50798,1.53012,5.92097,-8.03154,1.19536,5.50433,-7.91225
21.5995,0.0228906,2.37306,12.0375,-9.27397,3.26961,10.811,-8.95843,2.17734,10.0823,-8.92445,2.49558,10.038,-8.88933
56.3581,0.0955708,-15.3133,21.5814,-3.77949,-15.4555,22.7654,-3.0839,-13.4004,23.3525,-5.87355,-13.1554,25.7317,-4.91608
4.74693,0.164561,5.07931,3.52468,4.78888,3.8972,3.61991,5.47365,4.74393,3.0749,4.92153,5.87421,3.57192,4.69058
13.5447,0.057674,-7.85628,23.5467,7.92599,-8.31625,20.6273,8.50875,-7.58533,22.6389,8.59636,-8.53052,20.332,8.38469
1.53874,0.665355,-7.36606,6.50349,6.16195,-8.39583,6.54478,5.88487,-8.38137,6.76203,5.98411,-8.27504,6.66548,5.88363
5.16202,1.09427,9.49608,20.5497,7.25275,12.4265,19.4989,6.242,12.1397,19.5022,6.39741,12.598,19.532,6.1921
6.22981,0.399666,-2.5174,30.309,5.45857,-2.55354,28.8324,7.08463,-2.19082,29.0907,7.01749,-2.33318,29.0574,6.9254
0.295493,0.120355,11.3342,13.7624,5.24245,11.3648,13.5058,5.37648,11.4596,13.5082,5.39235,11.4859,13.7346,5.39077
2.53065,0.399495,2.78501,3.42505,-5.70893,3.72669,3.40611,-5.5475,3.26729,3.46592,-6.27294,4.10112,3.5877,-5.4645
11.1485,0.914001,-6.40035,7.85851,5.83425,-5.53989,7.66506,7.45119,-6.74341,6.19626,5.59768,-7.08342,8.0086,6.84121
1.29212,0.0415826,4.15587,16.0961,9.38875,3.71081,15.6469,9.46026,3.62346,15.9239,9.46804,4.72063,15.8489,9.38829
2.98872,0.615874,0.179374,4.6916,6.08943,0.183612,2.97814,5.48595,0.309566,3.07871,5.53308,0.632737,3.71621,5.96893
1.52838,0.0147903,-15.9814,19.6882,1.44886,-15.8328,19.8998,2.25588,-15.8497,19.6005,2.22187,-15.8141,19.8378,2.36349
0.215611,0.253592,3.68674,14.5934,-9.43833,3.80083,14.2517,-9.3688,3.71651,14.0993,-9.37093,3.75962,14.1841,-9.36555
7.29929,0.185313,-7.89003,8.90776,6.66522,-7.04558,8.70443,6.88051,-8.59867,9.01403,5.95953,-5.87719,8.69793,7.23486
4.28025,0.117683,-6.3879,5.81606,5.12707,-6.67766,6.14683,5.57288,-4.66833,5.23328,6.13361,-5.4858,5.57563,5.6754
12.5841,0.270332,-4.76826,25.5677,8.03281,-4.29443,23.8908,8.77052,-5.20568,23.7318,8.49215,-5.14372,23.5965,8.58716
4.52853,0.0898602,7.41719,21.2326,7.77993,9.62276,20.3716,7.23797,9.47801,20.5484,7.255,8.76115,20.6627,7.4972
0.885265,0.0817075,13.8053,25.7635,-2.79059,13.8225,25.9433,-2.69081,14.0984,25.4821,-2.68288,13.7479,25.9767,-2.89717
2.01839,0.170735,-0.779133,32.9141,3.11471,-0.889571,32.5746,3.39864,-0.0576215,33.2749,3.40585,-0.973576,33.1821,3.13996
17.9998,0.0874249,5.96395,14.5016,8.33597,5.85491,11.1538,7.36409,6.40627,15.3815,8.43389,5.6837,15.9743,8.66645
8.96734,1.52908,-1.89593,5.25704,6.51486,-2.74357,3.42804,5.52066,-4.4069,5.39382,5.9701,-4.52443,5.23646,6.05313
1.56431,0.00187691,-3.2027,26.4907,-8.34925,-3.58961,25.9123,-8.43768,-3.72563,25.9133,-8.42415,-3.46976,25.1713,-8.6087
12.6533,0.332708,4.20834,8.87126,7.42991,1.84888,8.37888,7.43786,7.00174,8.99699,6.81912,1.38908,8.42024,7.45444
1.94651,0.0675203,-0.569502,9.6021,8.52501,-0.21784,10.8746,8.20981,-0.694931,9.45756,8.53742,-0.240972,11.1709,8.2555
3.62936,0.906206,7.99024,32.341,-2.08523,8.28547,32.4242,-1.06664,8.04257,32.4817,-0.979592,7.81637,32.6531,-0.836939
9.57295,0.0280787,-7.79419,21.4622,-8.71647,-8.25308,20.6263,-8.70748,-7.34312,19.6168,-8.96048,-6.93548,20.4598,-8.98727
1.51675,0.0115424,-12.5807,6.54309,2.23093,-12.2137,6.93121,2.93584,-12.3641,6.59878,2.4497,-12.455,6.90661,2.75794
6.8536,0.255293,-7.31411,2.6666,-2.16141,-7.72047,2.99225,-1.35618,-7.85969,2.81418,-0.800128,-6.76721,2.48679,-2.10505
1.38684,0.150675,-6.32611,24.0499,8.58272,-7.54926,24.1027,8.07788,-7.4465,24.0411,8.1651,-7.10389,23.9957,8.37467
9.98342,1.22821,-2.58882,32.54,2.387,-5.26513,32.4952,2.06063,-4.63842,32.236,1.83535,-4.15635,32.4944,1.65415
0.527841,0.115237,4.10535,1.866,3.71968,4.36683,1.87625,3.67622,4.37002,1.81319,3.57754,4.24981,1.87177,3.59302
4.41063,0.0458713,12.8413,25.7364,3.97569,12.7674,24.831,4.64809,12.8688,24.0146,4.92262,13.2506,25.8188,3.40087
10.9405,0.0550465,6.65691,14.2091,-8.85313,5.88841,13.1718,-8.8785,7.74609,12.7993,-8.3719,6.68962,12.9484,-8.65331
3.25854,0.0620816,9.36827,8.71026,-6.7735,9.573,8.16418,-6.45907,8.43322,8.11115,-7.00907,8.88404,7.81399,-6.70878
0.129876,0.0231632,-1.61473,16.6053,-9.59872,-1.49226,16.819,-9.61386,-1.47784,16.6099,-9.60531,-1.41372,16.7521,-9.60199
0.71667,0.0532596,10.1829,28.1816,4.89397,10.1639,27.7825,5.14893,9.96576,28.7056,4.62877,10.0273,28.6603,4.5933
3.26301,0.106286,-2.75647,6.55337,6.95799,-2.87988,5.52775,6.44254,-2.79367,5.56072,6.51846,-2.68505,7.26902,7.07261
31.205,0.886131,14.4052,24.8781,1.88023,13.2335,24.0555,4.5213,13.9789,22.972,4.13776,14.1906,22.2162,4.16687
10.8217,0.546656,6.34441,10.8728,6.62409,6.1626,10.0616,7.50308,7.2834,11.3174,6.6976,5.54817,11.0083,7.59102
2.139,0.407597,-9.3649,3.86311,-1.39445,-9.61708,3.53563,-1.18761,-9.27241,3.30601,-1.74815,-9.8113,3.69171,-1.70837
4.32715,0.605422,-11.0505,22.1561,6.52347,-12.2041,21.9231,6.02586,-12.5211,21.8924,6.10252,-11.228,20.7052,7.25889
2.76336,0.348017,-7.61818,4.39303,-4.74708,-9.38146,5.13249,-3.89167,-8.98356,4.85241,-4.10374,-9.41438,5.22128,-3.97218
5.29389,0.29394,15.6442,13.3342,-1.46962,15.5172,12.513,-1.32794,15.4437,12.5716,-1.92316,15.6369,12.5204,-0.700725
0.0355045,0.0449127,9.20719,19.9347,-8.13073,8.94336,19.8079,-8.1827,8.88484,19.8761,-8.20279,8.88687,19.7961,-8.20375
0.0059422,0.00564722,-1.81326,28.5738,-7.6896,-1.79012,28.5266,-7.70767,-1.67417,28.5836,-7.69176,-1.67671,28.6657,-7.67023
3.45517,0.0218748,5.62842,3.84702,-5.19544,7.5371,4.23784,-4.68062,7.61493,4.23387,-4.64439,8.13473,4.43981,-4.59457
2.88412,0.139242,-7.95328,23.6784,7.811,-7.59596,24.983,7.34537,-7.46801,25.1199,7.27289,-7.78989,24.6162,7.47426
6.46159,0.107614,-3.84792,16.8694,9.13604,-5.1659,16.6139,8.99853,-6.35862,16.6664,8.90755,-6.30786,16.5862,8.92978
44.061,0.0564338,1.34546,32.7996,3.27505,2.5232,31.6176,5.16223,0.939383,31.0115,5.61434,4.14228,32.5808,4.25179
20.3408,0.0463759,0.674714,20.07,-9.54422,0.958288,17.7941,-9.70022,-0.0649487,19.1546,-9.64554,-0.122114,18.4535,-9.68113
0.944204,0.0477609,14.3759,22.154,3.78105,14.608,22.2032,3.48682,14.5153,21.8474,3.82241,14.3471,22.3373,3.81854
6.20995,0.114552,-0.389191,0.229963,0.975433,0.363484,0.176151,0.648,0.860846,0.326888,1.11025,0.968389,0.0968149,-0.428864
0.0396708,0.00358686,5.33678,10.4708,-8.47497,5.35435,10.6052,-8.51278,5.39963,10.6086,-8.50339,5.40795,10.5371,-8.48126
21.4762,0.766312,-5.1723,25.4582,8.00972,-7.97318,25.4928,6.92971,-7.87216,25.9226,6.84928,-9.6109,25.2257,6.81905
64.2944,1.13407,8.57534,6.88293,5.00818,10.3793,7.20568,5.1118,9.00994,3.92924,3.7954,11.1112,5.3587,2.40787
7.10187,2.43103,-8.73211,16.8223,7.97952,-6.61302,17.3949,9.13671,-6.42463,16.7595,8.90466,-6.39754,16.5787,8.92338
1.25592,0.301149,4.17281,3.62547,-5.48368,5.57438,3.77328,-5.16271,5.48598,3.83306,-5.2807,5.63822,3.81105,-5.15739
5.3844,0.120665,-9.07004,25.8349,6.54294,-10.2125,25.2722,5.99999,-8.04839,25.836,6.87623,-10.2304,25.5653,5.93129
6.31056,2.35606,-6.73229,26.1055,7.30683,-4.41918,26.2217,7.80674,-4.40366,26.0721,7.81799,-4.39832,25.9921,7.84712
239.458,0.592692,4.73465,22.8336,-8.66129,3.44366,18.6772,-9.38881,4.26096,16.8885,-9.37826,4.85437,15.9868,-9.29275
7.52501,1.68067,7.69394,25.9053,7.1525,4.45961,26.0547,7.85787,4.56378,25.8958,7.94332,4.5977,26.6943,7.70354
5.68173,0.176324,6.62516,31.7752,-5.41848,6.53469,32.6063,-3.82051,7.05272,31.9667,-4.84876,6.47311,32.6397,-3.81684
27.639,1.82933,-10.1866,11.9725,6.7098,-8.11453,13.4466,8.32106,-7.93508,12.6139,7.89975,-7.45985,11.9441,8.47667
39.364,0.322497,3.05652,33.9347,-3.35286,5.97158,33.2668,-3.07649,5.82387,33.5595,-2.40924,5.67053,32.9789,-4.22341
0.476148,0.0121052,7.81862,5.93256,-6.36874,7.82717,6.37076,-6.59207,7.98792,6.71501,-6.68717,8.03327,6.72411,-6.67129
7.53455,0.398866,-8.23093,19.9329,8.26085,-6.04443,20.0617,9.21418,-8.8821,20.9476,8.58014,-8.64767,19.6179,8.54986
69.0437,0.0352076,-0.323971,22.9591,-9.15983,-2.44383,23.5617,-8.95781,-1.52655,25.5137,-8.69973,-2.53398,24.5783,-8.80291
11.034,0.0138019,-1.56955,14.1301,-9.46395,-2.48789,15.1802,-9.46207,-1.271,15.301,-9.54422,-2.24167,15.6223,-9.50577
7.94657,0.0681516,1.71323,34.1152,1.63651,3.32197,34.176,0.642577,3.67438,34.1469,0.592305,2.97003,34.1242,1.19087
4.15711,0.32059,-9.57433,9.15904,5.72138,-9.20024,8.97167,6.05777,-10.6391,8.14216,4.70944,-9.48016,9.59526,6.90979
13.3321,0.0812165,-7.69399,2.81909,-0.399125,-7.6775,2.52454,1.07222,-6.8651,2.0208,1.37955,-7.56579,2.73879,-1.06932
2.87703,0.0220544,6.75474,30.6719,5.14456,5.84277,30.5919,5.47813,5.43867,30.6231,5.53309,5.51441,30.7978,5.31236
3.28752,0.581455,2.67171,27.3831,7.79548,4.35811,27.9957,7.53683,4.60602,27.6626,7.53734,4.68258,27.7271,7.48392
0.102689,0.0141442,13.1482,9.43236,2.84979,13.2106,9.10479,3.0211,13.3094,9.32191,2.74412,13.2554,9.13586,2.94908
1.78136,0.0826979,-4.09248,31.4337,4.82243,-4.84859,31.223,4.53347,-3.46512,31.5554,4.83739,-3.54478,31.4871,4.9046
1.43621,0.0892739,14.1644,12.9396,4.70617,14.3404,13.4675,4.75984,14.4518,12.8574,4.51365,14.0807,12.4226,4.82002
11.8893,0.0326639,16.1217,18.5803,0.205101,15.6755,20.2682,1.66024,15.8612,20.5965,0.479861,15.7309,19.8481,1.5589
0.740681,0.0309727,-14.6967,25.935,0.12788,-14.5134,26.3094,0.00876676,-14.7108,25.9356,0.46646,-14.8683,25.7117,0.130984
0.00823159,0.00359716,-1.52121,19.5873,-9.56817,-1.46646,19.5854,-9.58043,-1.49129,19.4812,-9.58529,-1.44316,19.5074,-9.59615
9.21779,0.105763,4.03675,13.4578,8.57263,5.58466,13.4507,8.43947,4.85008,12.4009,8.61653,3.83475,12.6115,8.76189
122.598,0.00292017,-4.54942,14.8313,-9.20018,-6.31238,10.327,-8.40119,-3.20127,11.7771,-9.12314,-4.62588,9.97501,-8.67298
3.98603,0.0810123,-15.2147,11.698,-1.7279,-15.2454,12.069,-1.20438,-14.9614,10.7313,-1.53543,-14.9254,10.6844,-1.87077
1.03645,0.132018,5.33763,27.1945,6.77167,5.63117,27.4937,6.66169,5.51886,26.8781,7.31058,5.25131,27.1989,6.95539
10.2374,0.60748,7.2637,11.4101,6.66978,10.6207,13.1715,6.84392,10.6285,13.0243,6.82171,10.7482,13.3157,6.83758
0.836156,0.0193546,1.95093,12.914,-9.45003,2.29842,13.22,-9.47509,1.88711,13.4155,-9.50705,1.83732,13.2603,-9.49853
18.048,0.230132,5.97251,33.5659,-1.86355,4.24767,34.1576,-0.0657558,6.68224,32.8199,-2.95334,6.89073,32.3574,-4.01698
6.25087,0.0256188,13.5298,7.86997,2.02166,12.7252,7.06091,1.11435,13.9412,8.10592,1.86657,13.0977,7.31664,1.0362
0.0360942,0.0122917,-4.32675,27.3864,-7.93981,-4.32352,27.2835,-7.99315,-4.37823,27.5582,-7.88037,-4.41694,27.3798,-7.94437
1.46537,0.0531288,5.65445,33.5921,-0.439356,5.25686,33.7641,0.0279818,5.91383,33.5453,-0.401578,5.49778,33.7224,-0.58286
9.2371,0.00654108,8.94215,16.9051,7.88676,9.96169,16.7008,7.51955,6.44519,16.703,8.30404,6.66539,16.7545,8.29245
8.33162,0.592905,13.0053,18.9913,5.97038,9.54965,19.3235,7.44307,8.97511,19.1457,7.65126,8.90287,19.2645,7.63527
0.481854,0.258569,13.2998,27.4162,0.868453,13.3077,27.2733,1.12933,13.3365,27.2121,1.12719,13.4733,27.0271,1.14452
8.45008,0.186134,-0.50098,25.9583,8.1302,-4.32146,26.1606,7.81866,-4.35994,26.0774,7.82021,-3.77392,25.9271,7.90608
7.62438,0.0573057,-2.03991,27.1706,-8.18102,-2.69146,26.1849,-8.47602,-1.73884,26.3265,-8.47786,-2.49119,25.7023,-8.61298
8.11455,0.0848241,-6.24988,30.8231,4.58786,-5.7362,30.961,4.75153,-7.5976,29.9929,4.76633,-8.11957,29.919,3.74545
23.2641,1.66964,3.67688,2.64586,4.80504,2.52725,5.00384,6.13926,2.05128,4.87887,6.32609,2.761,5.32666,6.47851
0.527694,0.110935,0.563935,27.0406,-8.3576,0.625566,27.9131,-8.10895,0.671201,27.8345,-8.12511,0.728249,27.5801,-8.20848
3.08606,0.226761,2.52137,12.1185,8.46372,3.53718,12.1374,8.5486,3.81616,12.2052,8.61883,3.56553,11.8791,8.65144
14.787,0.0245018,-1.66686,28.2186,7.58921,-0.872106,29.6645,6.89427,-0.73354,28.2401,7.68076,-1.87692,29.5901,6.85371
4.8105,0.537146,1.80208,26.082,8.14409,-0.185794,25.5825,8.38797,-0.0446682,25.963,8.11824,-0.1229,25.8436,8.18638
0.185718,0.0129142,0.702055,21.3866,-9.3833,0.625194,21.0962,-9.38182,0.580838,21.093,-9.38797,0.573056,21.2139,-9.38867
20.9581,0.0109784,-2.93541,25.4406,-8.6244,-3.34618,23.3322,-8.95643,-1.93728,25.579,-8.65979,-2.50195,22.7434,-9.12051
4.2397,0.00317565,-15.1145,14.4795,-4.10164,-15.6062,16.6093,-3.52779,-15.2273,15.2951,-4.08042,-15.538,16.8013,-3.76302
18.7382,0.295099,11.7573,22.8836,5.87379,6.94226,21.3935,7.86248,6.90985,21.3134,7.96921,9.74952,22.443,6.74762
12.1159,0.0147091,-8.9019,26.128,-7.46626,-8.00824,25.1667,-8.0032,-9.58819,24.1266,-7.84882,-8.53679,24.9249,-7.92183
0.483839,0.088632,-13.7797,7.88342,1.07817,-14.0023,8.31633,1.23053,-14.0471,8.3674,1.18718,-13.995,8.31209,1.27617
7.28633,0.780143,-2.61881,31.6328,3.82109,-2.59849,30.4312,5.35571,-2.36437,30.3555,5.50658,-2.50889,30.4178,5.35118
0.953057,0.0427357,12.3308,6.36078,-2.27912,12.0167,6.14866,-2.59011,12.3878,6.18906,-2.03785,12.0589,6.21875,-2.62284
5.49459,0.528558,-5.62022,21.472,8.76417,-5.52008,19.4189,9.42147,-5.0091,20.3642,9.5619,-5.71511,19.3933,9.35707
0.170044,0.0133518,3.57093,25.7377,-8.47525,3.47841,25.2514,-8.58083,3.69681,25.5145,-8.51636,3.65107,25.5119,-8.51698
9.99804,0.136749,-2.72013,34.3615,-0.545217,-4.66413,33.7833,-0.330038,-4.37097,33.9032,-0.565529,-0.513798,34.6054,-0.397584
12.2749,0.257899,-2.84134,24.9462,8.2546,-1.84364,25.1782,8.50013,-3.44214,22.9012,8.74418,-3.55718,25.4118,8.45093
3.79302,0.3041,-9.65206,4.81529,3.6583,-8.99539,6.66541,4.62829,-9.08063,6.8592,4.67808,-9.0064,6.8612,4.6875
3.4018,0.0489064,0.252735,2.15638,-5.05312,-0.4452,2.22951,-5.27554,-0.30433,2.0807,-5.10556,0.963867,2.79499,-5.71076
14.6383,1.21106,-15.4767,24.1399,-1.6761,-15.9239,22.7335,0.00832299,-15.6274,23.8138,0.16643,-15.8041,23.3438,0.147418
2.30779,0.23809,-8.19301,3.14851,1.86079,-8.803,3.46093,1.91484,-8.77145,3.37246,1.79519,-8.60356,3.3672,1.77864
37.3425,2.18448,-4.74622,15.1149,-9.18537,-1.5102,15.5182,-9.54268,-1.96916,16.4366,-9.57414,-2.33101,17.2342,-9.57563
56.4671,1.46354,-14.5563,16.204,4.4921,-12.179,11.705,6.49013,-11.8188,12.0823,6.85101,-12.9637,11.2295,5.60113
4.02178,0.0266413,-6.10989,3.81701,-5.19249,-7.57725,3.57498,-4.68975,-6.67565,3.37396,-5.00249,-7.58749,4.29684,-4.71407
3.55043,0.00614808,-11.3014,21.28,-7.75986,-11.6213,20.5262,-7.70918,-11.3428,19.4226,-7.92864,-10.9261,19.2263,-8.1073
0,0.00149136,-3.87325,11.4744,-9.00218,-3.80824,11.3889,-9.02559,-3.88906,11.477,-8.99781,-3.85621,11.386,-9.01897
3.42392,0.0651791,6.34141,19.7022,-8.78574,6.38841,17.6266,-8.95924,6.73318,18.2284,-8.81927,6.89549,18.804,-8.71822
1.97744,0.0182091,-1.49091,21.4495,-9.40309,-1.33568,22.1335,-9.30042,-2.17427,22.5075,-9.19122,-1.50522,21.833,-9.34896
0.350438,0.00923705,-1.91742,20.7918,-9.46597,-2.13437,20.5496,-9.47587,-2.05484,20.9595,-9.44252,-2.08522,20.4617,-9.49048
2.96681,0.241242,6.26047,21.6659,8.20209,6.90144,21.396,7.88492,6.1513,21.4567,8.66947,6.36722,22.1634,8.43083
20.459,0.0724438,-1.79669,17.4743,-9.60374,-2.48615,19.3932,-9.5472,-3.06024,19.0479,-9.53433,-2.0112,18.9567,-9.59304
2.01529,0.0390136,6.52384,25.3836,7.99646,6.21927,24.7338,8.2951,6.16736,24.8025,8.28717,6.53277,24.7556,8.21702
7.8393,0.0867733,-9.71369,15.6677,7.07031,-8.56482,13.6653,8.12551,-9.90015,15.5521,7.03338,-8.74101,13.509,7.98605
4.46221,0.252088,1.54723,34.5662,-0.170378,3.97933,34.2673,-0.750156,3.14285,34.4606,-0.602626,0.581882,34.6298,-0.36185
7.71005,0.997141,-14.9822,10.7595,1.66663,-14.7274,10.7899,2.63502,-14.816,11.1462,2.61042,-14.7961,11.0817,2.61395
3.33393,0.199811,13.9108,9.87515,-0.605491,14.5733,10.3669,-0.497353,14.995,10.8455,-0.214496,15.1074,10.9482,-0.00752563
5.02701,0.0852673,-1.83172,13.3434,9.49532,-0.87057,13.9541,9.66965,-2.06636,13.8807,9.54363,-1.63366,14.2672,9.58092
19.2609,0.147916,-0.652734,25.0472,8.28772,-1.06845,22.8665,8.72633,-0.857711,21.4202,8.993,0.0347405,25.1932,8.52362
17.7143,0.62323,6.46187,16.0519,7.61936,8.39305,15.5504,7.60884,5.80201,16.1096,8.48822,8.39384,15.1882,7.52963
52.3889,0.308517,-0.745474,32.3922,3.67352,0.907118,32.498,3.99814,-1.50625,30.5586,6.2008,0.8803,31.631,4.96999
1.08169,0.092259,12.6057,27.7401,1.99645,12.6359,28.0658,1.77566,12.7528,27.5745,2.11121,12.6307,27.5979,2.41048
36.9259,0.247058,-4.30277,14.8771,9.14218,-5.97297,12.5691,8.85481,-3.77555,13.386,9.26294,-3.40039,16.1315,8.89909
6.19703,1.56838,6.05354,28.1499,6.48988,4.95164,29.613,6.15794,4.83911,29.3826,6.18079,4.65361,29.3526,6.48929
1.11009,0.0512877,7.83535,26.9262,6.84986,6.96558,27.465,6.81056,6.74275,27.865,6.64813,6.72087,27.7231,6.72711
23.6673,1.6327,14.0825,8.18409,0.319865,11.6437,6.10159,1.16359,11.9956,5.71345,0.271141,11.992,6.11558,0.39083
48.0877,0.347804,1.41484,23.3894,8.0652,3.49449,23.1419,8.03417,1.537,21.1213,9.02095,4.08379,23.1736,8.08001
11.4463,0.605292,-4.88251,28.4962,6.14898,-5.73585,28.5453,6.70071,-4.90681,28.3202,6.8319,-2.68743,29.1341,6.76507
17.0977,0.255614,7.67142,2.69192,2.32474,11.2349,5.23999,1.69209,11.1071,4.80238,1.44362,9.34337,3.49845,1.91961
12.6443,0.752545,13.705,16.3989,5.62994,10.018,16.7151,7.48367,11.0283,17.154,7.21225,9.96585,16.82,7.50297
0,0.0100717,-3.8,14.2172,-9.19768,-3.80045,14.19,-9.15563,-3.81089,14.2176,-9.21028,-3.7286,14.1345,-9.23429
56.663,0.0352293,-6.69242,32.755,-2.92453,-8.52685,31.4484,-3.78209,-6.26407,33.2225,-2.17326,-8.08211,32.4365,-0.263278
3.84354,2.44207,-2.75208,3.39162,-5.81549,-0.0745885,3.35896,-5.93343,-0.110046,3.24326,-5.81875,-0.0728399,3.34811,-5.88924
1.10412,0.0360527,15.6973,21.445,-0.189341,15.7007,21.7042,-0.237329,15.8109,20.8854,0.273411,15.8097,20.8815,0.173678
36.0353,0.561864,-11.1399,7.46061,2.84835,-9.29446,4.04089,3.51985,-10.6665,8.08412,4.63984,-9.95184,5.44209,3.7153
0.506376,0.0282553,6.82771,26.9725,-7.81995,7.15244,26.9532,-7.7442,6.93107,26.6608,-7.8589,7.15583,26.8668,-7.7551
3.64897,0.0187848,-2.38822,1.53701,2.34265,-4.18191,1.89952,2.2914,-4.11414,1.86439,2.26568,-3.19945,1.72799,2.37343
3.41531,0.0385932,-12.3544,28.8398,-2.20814,-12.3127,28.9067,-2.40117,-12.5052,29.0439,-1.31545,-12.5381,28.9842,-1.323
10.9916,0.0690267,-10.4987,30.9047,-2.03304,-10.0818,31.2144,-1.7077,-9.34124,30.7627,-4.21013,-8.66628,31.8503,-2.49465
23.6258,0.00593337,-0.516505,18.1446,-9.68815,1.42699,17.5366,-9.68101,1.15286,16.692,-9.67954,0.521159,16.5771,-9.67938
34.9406,0.66569,0.220984,34.4096,0.604057,-6.9501,32.8757,0.285245,-4.72784,33.7782,-0.380323,-2.61927,34.1004,0.996156
0.237319,0.00771972,-2.94535,27.8641,7.65907,-2.63939,27.8894,7.67409,-2.68007,27.9539,7.63733,-2.8396,27.7403,7.72423
5.77552,0.0197663,16.2064,17.248,-0.131372,16.1042,15.7465,-0.778562,16.0582,16.1537,-1.46633,16.1837,16.4086,-0.213745
2.23242,0.379434,-2.53855,31.7178,3.76494,-2.07865,32.0813,4.34394,-2.60092,32.0858,3.27249,-2.31172,32.072,3.5651
2.92319,0.429014,11.8258,7.02267,2.8426,11.7613,6.18389,2.02672,11.635,5.99909,1.83135,11.652,6.00454,2.03808
1.83102,0.0790708,12.6735,23.3378,5.32123,11.6465,23.0247,5.90632,12.2766,23.025,5.61336,11.8081,22.9062,5.83886
6.06081,0.126386,0.607779,1.40297,2.84849,3.30468,1.61057,2.96823,3.16367,1.5213,2.80678,1.78028,1.48834,2.74429
0.58041,0.0416372,13.378,26.5226,2.1746,13.4704,26.6488,1.89182,13.5121,26.5912,1.89301,13.4684,26.4074,2.28167
11.6134,0.488865,8.11972,26.4581,6.2873,10.8649,27.0098,4.50626,10.7867,27.0982,4.47772,7.94085,26.9166,6.74349
3.56743,0.378188,8.70771,27.8973,6.05068,8.55774,29.0899,5.34992,8.37003,29.3742,5.14854,8.35675,29.3019,5.25262
36.3367,0.0522083,0.808667,24.3257,-8.88961,1.30679,22.2321,-9.22814,-0.250355,21.4854,-9.36896,0.397093,20.0228,-9.5619
8.12636,0.00178127,-2.34258,1.53138,2.34608,0.884162,1.33295,2.72214,0.53646,1.40773,2.84667,-1.02412,1.48059,2.59644
13.3189,0.816547,-7.68762,31.8709,2.15497,-5.86186,31.7102,3.8729,-5.50462,32.0116,3.41522,-5.57597,31.91,3.56927
2.22678,0.0759821,-8.63874,8.24097,5.63752,-8.49831,8.94437,5.93896,-8.32218,8.78394,6.04323,-8.8317,7.83174,5.53091
58.604,6.00588,6.73831,2.66145,-3.75096,6.71492,2.53712,2.61981,6.99702,2.5417,2.63834,6.2721,2.32519,2.65752
3.85089,0.0644942,0.396334,11.7244,8.36554,-0.176809,10.9462,8.19286,0.800099,11.8297,8.66322,0.968264,11.2758,8.82129
41.7135,0.409895,-11.8464,5.53126,1.07969,-9.78034,4.16117,3.06044,-8.83746,3.43593,1.84539,-8.60395,3.37029,2.30473
4.52759,0.0838989,11.6805,25.4712,5.37744,11.6309,25.9199,5.15342,11.3768,26.8175,4.55785,9.91525,25.7317,6.3456
15.3114,0.164164,-5.1572,16.7696,-9.26161,-4.0515,15.6296,-9.34203,-4.41809,18.0909,-9.44078,-4.74914,18.3841,-9.3607
15.0203,0.398626,2.93957,31.3023,4.81897,3.02306,32.2312,4.9148,4.47201,30.8627,5.35527,2.1891,30.0897,5.68416
9.58456,0.503462,1.42395,33.8224,-3.98838,-1.62545,34.1041,-2.59165,-2.91038,34.0633,-2.54622,-2.14512,34.1287,-2.52142
126.347,0.755612,-7.83415,13.9557,-8.50185,-6.93356,19.5445,-9.03472,-6.11656,19.4158,-9.15428,-5.07312,18.5224,-9.35316
7.35058,0.194882,-15.3578,23.4601,2.00454,-15.603,23.7577,0.539788,-15.7613,23.355,0.277527,-15.7812,23.2844,0.31528
5.28682,0.0273313,-8.3116,32.16,-1.02312,-10.4517,31.1478,-0.420429,-8.58882,32.2003,-0.529102,-10.5124,31.1289,-0.372192
6.44369,0.130989,11.3208,27.1524,3.83147,12.0849,27.6021,3.00762,10.9038,26.9518,4.56826,12.4002,27.4727,2.93933
2.4396,0.103773,10.4806,11.3599,6.97813,9.96094,10.4514,7.01585,9.81625,10.5373,7.09634,10.3077,10.631,6.93903
1.19853,0.0181336,14.4585,20.1378,-4.82103,14.5569,19.1889,-4.78924,14.7561,19.7297,-4.4594,14.6728,18.8873,-4.64777
1.01801,0.109354,-10.7594,16.3692,6.72275,-10.5209,16.3244,6.77,-11.0598,16.3646,6.95484,-10.7639,16.5307,6.79703
4.72826,0.654076,-6.90441,19.7803,-9.03264,-5.85228,20.5757,-9.08508,-5.57837,20.4378,-9.13817,-6.50088,20.867,-8.98512
4.56021,0.879992,5.45907,12.0297,8.32114,3.8562,12.27,8.64484,3.82101,12.1183,8.60423,3.86929,12.0404,8.61175
0.00404828,0.00166269,-5.48737,2.14638,3.54087,-5.38515,2.13215,3.52648,-5.38052,2.14156,3.58255,-5.50878,2.14353,3.49972
2.13069,0.0233334,13.6387,25.2699,-3.93695,13.8099,24.9953,-3.86722,13.4511,24.9612,-4.5993,13.8574,24.0954,-4.47021
8.43872,0.216341,4.0398,1.74026,-3.09649,6.01776,1.93916,-3.01944,6.05331,2.03835,-3.36661,4.51608,1.76334,-3.64563
2.89586,0.14178,0.220483,4.76628,6.1381,0.616064,6.77934,7.29067,0.123357,6.54267,6.72865,0.0807816,5.62013,6.43456
2.84997,0.0448952,-2.10048,17.2011,9.54329,-0.918593,16.827,9.3299,-0.777119,16.8528,9.31863,-0.732997,16.9556,9.34186
25.3669,1.54882,5.0355,31.3701,4.15968,5.59431,33.0358,2.12094,6.19378,32.8695,2.34541,5.31305,32.5819,2.18092
121.214,0.528855,-15.0951,12.1597,-0.351172,-14.9884,10.9281,1.67189,-14.7244,11.8916,3.19269,-14.775,13.6859,3.85864
10.3847,0.67197,-5.22281,12.1981,8.69493,-3.57608,12.9679,9.05029,-4.03704,12.4465,9.11098,-3.66836,11.5165,8.90583
9.45654,0.00112239,12.7675,28.1884,-1.48502,14.3692,25.6406,-0.783096,13.2968,27.4147,-1.60737,14.3295,25.6691,-0.616999
2.23114,0.0196024,-7.94529,31.2218,-4.73664,-7.79879,30.7259,-5.40721,-7.65785,30.9973,-5.15153,-7.68104,30.8383,-5.33605
0.649131,0.362254,-1.16678,32.9115,-5.13731,-1.29528,32.6396,-5.39373,-1.60726,32.7782,-5.19618,-1.37843,32.6673,-5.31844
3.28629,0.0261037,-6.94628,2.49822,-4.0323,-6.69823,2.42164,-2.33312,-6.68619,2.36752,-3.09595,-6.6223,2.3496,-2.75727
2.34919,0.133786,-4.02091,3.90049,5.5554,-4.13639,3.56361,5.25608,-4.05991,3.57437,5.25479,-4.01549,5.12997,5.99173


