{
    "from_gigamesh_info_file": {
        "filename": "HS_0099_GMOCF_r1.50_n4_v512.info.txt",
        "hs_number": "HS 0099",
        "radius_in_mm": "1.5",
        "count_of_radii": "16",
        "rastersize": "512^3",
        "gigamesh_version": "181005",
        "threads_used": "7",
        "input_filename": "HS_0099_GMOCF.ply",
        "output_filename": "HS_0099_GMOCF_r1.50_n4_v512",
        "radii": [
            1.0,
            0.94,
            0.88,
            0.81,
            0.75,
            0.69,
            0.62,
            0.56,
            0.5,
            0.44,
            0.38,
            0.31,
            0.25,
            0.19,
            0.12,
            0.06
        ],
        "model_id": "HS 0099",
        "material": "clay, original",
        "count_of_vertices": "1861103",
        "count_of_faces": "3722202",
        "bounding_box_in_cm": [
            5.5,
            5.6,
            3.0
        ],
        "area_in_cm2": "83.55",
        "volume_dx_in_cm3": "44.71",
        "volume_dy_in_cm3": "44.71",
        "volume_dz_in_cm3": "44.71",
        "processing_began_on": "Sat Dec  1 05:54:08 2018",
        "processing_finished_on": "Sat Dec  1 10:08:47 2018",
        "processing_wall_time_in_s": "15278"
    },
    "from_ply_filename": {
        "filename": "/export/data/vNGG/tmp/Hilprecht_Sammlung/04_MSII_filtered/HS_ALL_MSII_PLY/HS_0099_GMOCF_r1.50_n4_v512.ply",
        "hs_number": "HS 0099",
        "radius_in_mm": "1.50",
        "count_of_radii": 16,
        "rastersize": 512
    },
    "from_hilprecht3d": {
        "hs_number": "HS 0099",
        "tablet_url": "https://hilprecht.mpiwg-berlin.mpg.de/object3d/29933",
        "bibliography": "Unp."
    },
    "from_gigamesh_info_program": {
        "filename": "HS_0099_GMOCF_r1.50_n4_v512",
        "model_id": "HS 0099",
        "model_material": "clay, original",
        "vertices_total": "1861103",
        "vertices_nan": "0",
        "vertices_solo": "0",
        "vertices_polyline": "0",
        "vertices_border": "0",
        "vertices_nonmanifold": "0",
        "vertices_on_inverted_edge": "0",
        "vertices_part_of_zero_face": "0",
        "vertices_synthetic": "1",
        "vertices_manual": "0",
        "vertices_circle_center": "0",
        "vertices_selected": "0",
        "vertices_funcval_finite": "1861103",
        "vertices_funcval_local_min": "39688",
        "vertices_funcval_local_max": "16965",
        "faces_total": "3722202",
        "faces_solo": "0",
        "faces_border": "0",
        "faces_border_dangling": "0",
        "faces_manifold": "3722202",
        "faces_nonmanifold": "0",
        "faces_sticky": "0",
        "faces_zeroarea": "0",
        "faces_inverted": "0",
        "faces_with_synth_vertices": "0",
        "boundingbox_min_x": "-27.3725",
        "boundingbox_min_y": "0",
        "boundingbox_min_z": "-14.9499",
        "boundingbox_max_x": "27.3725",
        "boundingbox_max_y": "55.6774",
        "boundingbox_max_z": "14.9499",
        "boundingbox_width": "5.5",
        "boundingbox_height": "5.6",
        "boundingbox_thick": "3",
        "total_area": "83.55",
        "total_volume_dx": "44710.4",
        "total_volume_dy": "44710.4",
        "total_volume_dz": "44710.4"
    }
}