{
    "from_gigamesh_info_file": {
        "filename": "HS_0271b_GMOCF_r1.50_n4_v512.info.txt",
        "hs_number": "HS 0271b",
        "radius_in_mm": "1.5",
        "count_of_radii": "16",
        "rastersize": "512^3",
        "gigamesh_version": "181005",
        "threads_used": "7",
        "input_filename": "HS_0271b_GMOCF.ply",
        "output_filename": "HS_0271b_GMOCF_r1.50_n4_v512",
        "radii": [
            1.0,
            0.94,
            0.88,
            0.81,
            0.75,
            0.69,
            0.62,
            0.56,
            0.5,
            0.44,
            0.38,
            0.31,
            0.25,
            0.19,
            0.12,
            0.06
        ],
        "model_id": "HS 0271b",
        "material": "clay, original",
        "count_of_vertices": "251638",
        "count_of_faces": "503272",
        "bounding_box_in_cm": [
            2.6,
            4.5,
            2.2
        ],
        "area_in_cm2": "32.38",
        "volume_dx_in_cm3": "10.92",
        "volume_dy_in_cm3": "10.92",
        "volume_dz_in_cm3": "10.92",
        "processing_began_on": "Sat Dec  1 17:07:59 2018",
        "processing_finished_on": "Sat Dec  1 17:27:37 2018",
        "processing_wall_time_in_s": "1178"
    },
    "from_ply_filename": {
        "filename": "/export/data/vNGG/tmp/Hilprecht_Sammlung/04_MSII_filtered/HS_ALL_MSII_PLY/HS_0271b_GMOCF_r1.50_n4_v512.ply",
        "hs_number": "HS 0271b",
        "radius_in_mm": "1.50",
        "count_of_radii": 16,
        "rastersize": 512
    },
    "from_hilprecht3d": {
        "hs_number": "HS 0271b",
        "tablet_url": "https://hilprecht.mpiwg-berlin.mpg.de/object3d/30045",
        "bibliography": ""
    },
    "from_cdli_search_view": {
        "archival_view": "https://cdli.ucla.edu/search/archival_view.php?ObjectID=P229762",
        "primary_publication": "TMH 08, 81",
        "author": "Proust, Christine",
        "publication_date": "2008",
        "secondary_publication": "",
        "collection": "Hilprecht Collection, University of Jena, Germany",
        "museum_number": "HS 0271b",
        "accession_number": "",
        "provenience": "Nippur (mod. Nuffar) ?",
        "excavation_number": "",
        "period": "",
        "dates_referenced": "",
        "object_type": "tablet",
        "remarks": "",
        "material": "clay",
        "language": "Sumerian",
        "genre": "Lexical; Mathematical",
        "sub_genre": "Obv: Not preserved; Rev: Metrological table or list",
        "cdli_comments": "",
        "catalogue_source": "20030911 veldhuis_nippurlexical",
        "atf_source": "no atf",
        "translation": "no translation",
        "ucla_library_ark": "21198/zz001rczmk",
        "composite_number": "",
        "seal_number": "",
        "cdli_number": "P229762"
    },
    "from_cdli_archival_view": {
        "primary_publication": "TMH 08, 81",
        "author": "Proust, Christine",
        "publication_date": "2008",
        "secondary_publications": "",
        "citation": "",
        "author_remarks": "",
        "published_collation": "",
        "cdli_number": "P229762",
        "ucla_library_ark": "21198/zz001rczmk",
        "cdli_comments": "",
        "catalogue": "20030911 veldhuis_nippurlexical",
        "transliteration_remarks": "no atf",
        "translation_remarks": "no translation",
        "owner": "Hilprecht Collection, University of Jena, Germany",
        "museum_number": "HS 0271b",
        "accession_number": "",
        "acquisition_history": "",
        "genre": "Lexical; Mathematical",
        "sub_genre": "Obv: Not preserved; Rev: Metrological table or list",
        "sub_genre_remarks": "Oelsner's list. 'metr? (Gin//2?)'",
        "composite_number": "",
        "language": "Sumerian",
        "material": "clay",
        "object_remarks": "",
        "measurements_in_mm": "? x ? x ?",
        "object_preservation": "",
        "surface_preservation": "",
        "condition_description": "",
        "join_information": "",
        "seal_number": "",
        "seal_information": "",
        "provenience": "Nippur (mod. Nuffar) ?",
        "excavation_number": "",
        "findspot_square": "",
        "elevation": "",
        "stratigraphic_level": "",
        "findspot_remarks": "",
        "period": "",
        "period_remarks": "",
        "date_of_origin": "",
        "dates_referenced": "",
        "alternative_years": "",
        "accounting_period": "",
        "textual_content": "@Tablet",
        "photo_url": "https://cdli.ucla.edu/dl/tn_photo/P229762.jpg"
    },
    "from_gigamesh_info_program": {
        "filename": "HS_0271b_GMOCF_r1.50_n4_v512",
        "model_id": "HS 0271b",
        "model_material": "clay, original",
        "vertices_total": "251638",
        "vertices_nan": "0",
        "vertices_solo": "0",
        "vertices_polyline": "0",
        "vertices_border": "0",
        "vertices_nonmanifold": "0",
        "vertices_on_inverted_edge": "0",
        "vertices_part_of_zero_face": "0",
        "vertices_synthetic": "0",
        "vertices_manual": "0",
        "vertices_circle_center": "0",
        "vertices_selected": "0",
        "vertices_funcval_finite": "251638",
        "vertices_funcval_local_min": "8751",
        "vertices_funcval_local_max": "5865",
        "faces_total": "503272",
        "faces_solo": "0",
        "faces_border": "0",
        "faces_border_dangling": "0",
        "faces_manifold": "503272",
        "faces_nonmanifold": "0",
        "faces_sticky": "0",
        "faces_zeroarea": "0",
        "faces_inverted": "0",
        "faces_with_synth_vertices": "0",
        "boundingbox_min_x": "-12.8932",
        "boundingbox_min_y": "0",
        "boundingbox_min_z": "-10.9622",
        "boundingbox_max_x": "12.8932",
        "boundingbox_max_y": "45.4127",
        "boundingbox_max_z": "10.9622",
        "boundingbox_width": "2.6",
        "boundingbox_height": "4.5",
        "boundingbox_thick": "2.2",
        "total_area": "32.38",
        "total_volume_dx": "10916.6",
        "total_volume_dy": "10916.6",
        "total_volume_dz": "10916.6"
    }
}