{
    "from_gigamesh_info_file": {
        "filename": "HS_0813_GMOCF_r1.50_n4_v512.info.txt",
        "hs_number": "HS 0813",
        "radius_in_mm": "1.5",
        "count_of_radii": "16",
        "rastersize": "512^3",
        "gigamesh_version": "181128",
        "threads_used": "11",
        "input_filename": "HS_0813_GMOCF.ply",
        "output_filename": "HS_0813_GMOCF_r1.50_n4_v512",
        "radii": [
            1.0,
            0.94,
            0.88,
            0.81,
            0.75,
            0.69,
            0.62,
            0.56,
            0.5,
            0.44,
            0.38,
            0.31,
            0.25,
            0.19,
            0.12,
            0.06
        ],
        "model_id": "HS 0813",
        "material": "clay, original",
        "count_of_vertices": "1099207",
        "count_of_faces": "2198414",
        "bounding_box_in_cm": [
            7.6,
            8.5,
            2.5
        ],
        "area_in_cm2": "166.54",
        "volume_dx_in_cm3": "100.95",
        "volume_dy_in_cm3": "100.95",
        "volume_dz_in_cm3": "100.95",
        "processing_began_on": "Sat Dec  1 18:50:00 2018",
        "processing_finished_on": "Sat Dec  1 19:14:23 2018",
        "processing_wall_time_in_s": "1463"
    },
    "from_ply_filename": {
        "filename": "/export/data/vNGG/tmp/Hilprecht_Sammlung/04_MSII_filtered/HS_ALL_MSII_PLY/HS_0813_GMOCF_r1.50_n4_v512.ply",
        "hs_number": "HS 0813",
        "radius_in_mm": "1.50",
        "count_of_radii": 16,
        "rastersize": 512
    },
    "from_hilprecht3d": {
        "hs_number": "HS 0813",
        "tablet_url": "https://hilprecht.mpiwg-berlin.mpg.de/object3d/30196",
        "bibliography": "1935: TMH 5, 063. \u2013 1975: ECTJ 63",
        "cdli_number": "20477"
    },
    "from_cdli_search_view": {
        "archival_view": "https://cdli.ucla.edu/search/archival_view.php?ObjectID=P020477",
        "primary_publication": "TMH 05, 063",
        "author": "Pohl, Alfred",
        "publication_date": "1935",
        "secondary_publication": "A. Westenholz, ECTJ 63",
        "collection": "Hilprecht Collection, University of Jena, Germany",
        "museum_number": "HS 0813",
        "accession_number": "",
        "provenience": "Nippur (mod. Nuffar)",
        "excavation_number": "",
        "period": "Old Akkadian (ca. 2340-2200 BC)",
        "dates_referenced": "",
        "object_type": "tablet",
        "remarks": "",
        "material": "clay",
        "language": "Sumerian",
        "genre": "Administrative",
        "sub_genre": "",
        "cdli_comments": "",
        "catalogue_source": "20040921 krebernik_tmh5",
        "atf_source": "cdlistaff",
        "translation": "no translation",
        "ucla_library_ark": "21198/zz001sqk5f",
        "composite_number": "",
        "seal_number": "",
        "cdli_number": "P020477"
    },
    "from_cdli_archival_view": {
        "primary_publication": "TMH 05, 063",
        "author": "Pohl, Alfred",
        "publication_date": "1935",
        "secondary_publications": "A. Westenholz, ECTJ 63",
        "citation": "",
        "author_remarks": "",
        "published_collation": "",
        "cdli_number": "P020477",
        "ucla_library_ark": "21198/zz001sqk5f",
        "cdli_comments": "",
        "catalogue": "20040921 krebernik_tmh5",
        "transliteration_remarks": "cdlistaff",
        "translation_remarks": "no translation",
        "owner": "Hilprecht Collection, University of Jena, Germany",
        "museum_number": "HS 0813",
        "accession_number": "",
        "acquisition_history": "",
        "genre": "Administrative",
        "sub_genre": "",
        "sub_genre_remarks": "---",
        "composite_number": "",
        "language": "Sumerian",
        "material": "clay",
        "object_remarks": "",
        "measurements_in_mm": "84 x 76 x 25",
        "object_preservation": "",
        "surface_preservation": "",
        "condition_description": "",
        "join_information": "",
        "seal_number": "",
        "seal_information": "",
        "provenience": "Nippur (mod. Nuffar)",
        "excavation_number": "",
        "findspot_square": "",
        "elevation": "",
        "stratigraphic_level": "",
        "findspot_remarks": "",
        "period": "Old Akkadian (ca. 2340-2200 BC)",
        "period_remarks": "",
        "date_of_origin": "",
        "dates_referenced": "",
        "alternative_years": "",
        "accounting_period": "",
        "textual_content": "@Tablet\n@obverse \ncolumn 1 \n1. 1(bur3@c) 1(esze3@c) GAN2 \n2. ur-sa6-ga \n3. sipa-zi \n4. 2(esze3@c) lugal-inim-gi-na nagar \n5. 2(esze3@c) lugal-sag-kal-ga \n6. 1(bur3@c) 1(esze3@c) lugal-szud3 szabra \n7. 1(esze3@c) a-ba-{d}en-lil2# \n8. 1(bur3@c) sipa-{d}en-lil2-le \n9. szabra ensi2 \n10. 1(bur3@c) 1(esze3@c) lugal-da nagar \n11. 1(bur3@c) KA-ku3 dumu ur-nig2 \ncolumn 2 \n1. 1(bur3@c) 1(esze3@c) lugal-iti-da \n2. dumu sipa-{d}en-lil2-le \n3. 1(bur3@c) nin-a-me \n4. szabra \n5. 2(esze3@c) 3(asz@c) al-ri-du5 \n6. 1(bur3@c) szuku-dingir-sag?-du \n7. 1(bur3@c) u2-[...]-x \n8. 1(esze3@c) 2(asz@c) KA-ku3 \n9. [...] ne-sag \n10. 1(esze3@c) 4(asz@c) da-da \n11. dumu a2-gur-ra \n12. 1(esze3@c) u2-da gala \n13. 1(esze3@c) nam-mah# \ncolumn 3 \n1. 1(esze3@c) 3(asz@c) ur-[{d}]inanna \n2. 1(esze3@c) ur-dam \n$ blank space \n3. szunigin 1(bur'u@c) 5(bur3@c) 2(iku@c) GAN2 \n4. GAN2 badx(EZEN){ki}-kam \n5. pa-e3-ra? \n@reverse \n$ blank space \n ",
        "lineart_url": "https://cdli.ucla.edu/dl/tn_lineart/P020477_l.jpg",
        "photo_url": "https://cdli.ucla.edu/dl/tn_photo/P020477.jpg"
    },
    "from_gigamesh_info_program": {
        "filename": "HS_0813_GMOCF_r1.50_n4_v512",
        "model_id": "HS 0813",
        "model_material": "clay, original",
        "vertices_total": "1099207",
        "vertices_nan": "0",
        "vertices_solo": "0",
        "vertices_polyline": "0",
        "vertices_border": "0",
        "vertices_nonmanifold": "0",
        "vertices_on_inverted_edge": "0",
        "vertices_part_of_zero_face": "0",
        "vertices_synthetic": "0",
        "vertices_manual": "0",
        "vertices_circle_center": "0",
        "vertices_selected": "0",
        "vertices_funcval_finite": "1099207",
        "vertices_funcval_local_min": "35646",
        "vertices_funcval_local_max": "23504",
        "faces_total": "2198414",
        "faces_solo": "0",
        "faces_border": "0",
        "faces_border_dangling": "0",
        "faces_manifold": "2198414",
        "faces_nonmanifold": "0",
        "faces_sticky": "0",
        "faces_zeroarea": "0",
        "faces_inverted": "0",
        "faces_with_synth_vertices": "0",
        "boundingbox_min_x": "-37.9813",
        "boundingbox_min_y": "0",
        "boundingbox_min_z": "-12.6032",
        "boundingbox_max_x": "37.9813",
        "boundingbox_max_y": "84.8024",
        "boundingbox_max_z": "12.6032",
        "boundingbox_width": "7.6",
        "boundingbox_height": "8.5",
        "boundingbox_thick": "2.5",
        "total_area": "166.54",
        "total_volume_dx": "100952",
        "total_volume_dy": "100952",
        "total_volume_dz": "100952"
    }
}