{
    "from_gigamesh_info_file": {
        "filename": "HS_0789_GMOCF_r1.50_n4_v512.info.txt",
        "hs_number": "HS 0789",
        "radius_in_mm": "1.5",
        "count_of_radii": "16",
        "rastersize": "512^3",
        "gigamesh_version": "181005",
        "threads_used": "7",
        "input_filename": "HS_0789_GMOCF.ply",
        "output_filename": "HS_0789_GMOCF_r1.50_n4_v512",
        "radii": [
            1.0,
            0.94,
            0.88,
            0.81,
            0.75,
            0.69,
            0.62,
            0.56,
            0.5,
            0.44,
            0.38,
            0.31,
            0.25,
            0.19,
            0.12,
            0.06
        ],
        "model_id": "HS 0789",
        "material": "clay, original",
        "count_of_vertices": "2569546",
        "count_of_faces": "5139096",
        "bounding_box_in_cm": [
            10.6,
            11.4,
            3.3
        ],
        "area_in_cm2": "296.14",
        "volume_dx_in_cm3": "220.00",
        "volume_dy_in_cm3": "220.00",
        "volume_dz_in_cm3": "220.00",
        "processing_began_on": "Mon Dec  3 04:43:49 2018",
        "processing_finished_on": "Mon Dec  3 08:10:48 2018",
        "processing_wall_time_in_s": "12419"
    },
    "from_ply_filename": {
        "filename": "/export/data/vNGG/tmp/Hilprecht_Sammlung/04_MSII_filtered/HS_ALL_MSII_PLY/HS_0789_GMOCF_r1.50_n4_v512.ply",
        "hs_number": "HS 0789",
        "radius_in_mm": "1.50",
        "count_of_radii": 16,
        "rastersize": 512
    },
    "from_hilprecht3d": {
        "hs_number": "HS 0789",
        "tablet_url": "https://hilprecht.mpiwg-berlin.mpg.de/object3d/30190",
        "bibliography": "1935: TMH 5, 039. \u2013 1975: ECTJ 39",
        "cdli_number": "20453"
    },
    "from_cdli_search_view": {
        "archival_view": "https://cdli.ucla.edu/search/archival_view.php?ObjectID=P020453",
        "primary_publication": "TMH 05, 039",
        "author": "Pohl, Alfred",
        "publication_date": "1935",
        "secondary_publication": "A. Westenholz, ECTJ 39",
        "collection": "Hilprecht Collection, University of Jena, Germany",
        "museum_number": "HS 0789",
        "accession_number": "",
        "provenience": "Nippur (mod. Nuffar)",
        "excavation_number": "",
        "period": "Old Akkadian (ca. 2340-2200 BC)",
        "dates_referenced": "",
        "object_type": "tablet",
        "remarks": "",
        "material": "clay",
        "language": "Sumerian",
        "genre": "Administrative",
        "sub_genre": "",
        "cdli_comments": "",
        "catalogue_source": "20040921 krebernik_tmh5",
        "atf_source": "cdlistaff",
        "translation": "no translation",
        "ucla_library_ark": "21198/zz001sb39t",
        "composite_number": "",
        "seal_number": "",
        "cdli_number": "P020453"
    },
    "from_cdli_archival_view": {
        "primary_publication": "TMH 05, 039",
        "author": "Pohl, Alfred",
        "publication_date": "1935",
        "secondary_publications": "A. Westenholz, ECTJ 39",
        "citation": "",
        "author_remarks": "",
        "published_collation": "",
        "cdli_number": "P020453",
        "ucla_library_ark": "21198/zz001sb39t",
        "cdli_comments": "",
        "catalogue": "20040921 krebernik_tmh5",
        "transliteration_remarks": "cdlistaff",
        "translation_remarks": "no translation",
        "owner": "Hilprecht Collection, University of Jena, Germany",
        "museum_number": "HS 0789",
        "accession_number": "",
        "acquisition_history": "",
        "genre": "Administrative",
        "sub_genre": "",
        "sub_genre_remarks": "---",
        "composite_number": "",
        "language": "Sumerian",
        "material": "clay",
        "object_remarks": "",
        "measurements_in_mm": "114 x 105 x 31",
        "object_preservation": "",
        "surface_preservation": "",
        "condition_description": "",
        "join_information": "",
        "seal_number": "",
        "seal_information": "",
        "provenience": "Nippur (mod. Nuffar)",
        "excavation_number": "",
        "findspot_square": "",
        "elevation": "",
        "stratigraphic_level": "",
        "findspot_remarks": "",
        "period": "Old Akkadian (ca. 2340-2200 BC)",
        "period_remarks": "",
        "date_of_origin": "",
        "dates_referenced": "",
        "alternative_years": "",
        "accounting_period": "",
        "textual_content": "@Tablet\n@obverse \ncolumn 1 \n$ beginning broken \n1'. [...] x \n2'. [...]-gesz \n3'. [...] gesz?-nin \n4'. [...]-igi-ma-sze3 \n5'. [...]-zi \n6'. [...] a?-lal3 \n7'. [...]-apin-ne2 \n8'. [...] {d}en-lil2-da \n9'. [...] nin-[...]-sze3 \n10'. [...] sag-[...] \n11'. [...] ur?-nin \n12'. [...] nig2-na-ga \n13'. [...] x-nagar \n14'. [...]-ma \n15'. [...] nin#-masz-e \n16'. [...] lugal#-engar-du10 \n17'. [...] nin-x-me \n18'. [dumu] nu-siki-me \n19'. [...] nin#-inim-gi-na \n20'. [...]-gu \n21'. [...]-sa6-ga \n22'. [...]-ku3 \ncolumn 2 \n$ beginning broken \n1'. x x [...] \n2'. {d}nin-lil2-ama \n3'. na-mu-szi-bar \n4'. nin-geme2-da \n5'. nam-tar-re2 \n6'. KA-ku3 \n7'. nin-x \n8'. a-[li2]-li2# \n9'. a-ba-mu-da-zu \n10'. nin-nig2-zu \n11'. ur-nim \n12'. lugal-an-na-tum2 \n13'. nin-masz-e \n14'. dumu nam-gi-zi \n15'. ur-{d}|NINDA2xGAR3| \n16'. nin-kar-re2 \n17'. ama-tir \n18'. ku3-ba-du10 \n19'. geme2-{d}asznan \n20'. kur-gal \n21'. geme2 zah3-me \n$ blank space \n22'. 1(barig@c) nig2-na-ga \n23'. 1(barig@c) nin-dalla \ncolumn 3 \n$ beginning broken \n1'. [...] nin#-e2-[...] \n2'. 2(ban2@c) ur-gu \n3'. 1(barig@c) igi-e2 \n4'. 1(barig@c) masz-da5 \n5'. 1(barig@c) nin-he2-gal2 \n6'. 2(ban2@c) ur-tag4-ma# \n7'. 2(ban2@c) nin-ad-da-na \n8'. 1(barig@c) nin-ab-gu \n9'. 2(ban2@c) nin-ki-gal-la \n10'. 1(barig@c) GAN-ezem \n11'. 1(barig@c) KA-ku3 \n12'. 2(ban2@c) e2-pa-e3 \n13'. 1(barig@c) nin-a-zu \n14'. dumu lugal-nam2-mah# \n15'. 1(barig@c) nin-nam2-mah \n16'. 2(ban2@c) nam-uszur \n17'. 1(barig@c) nin-e2-gal-e \n18'. 2(ban2@c) sza3-ga-ni \n19'. 2(ban2@c) KA-ku3 \n20'. 1(barig@c) nin-kux(KWU636) \n21'. 2(ban2@c) nin-ur2-ni \n22'. 2(ban2@c) {d}en-lil2-[...] \n23'. dumu nin-e2-[...] \ncolumn 4 \n$ beginning broken \n1'. 2(ban2@c) [...] \n2'. 1(barig@c) x [...] \n3'. 1(barig@c) nin# [...] \n4'. 1(barig@c) x [...] \n5'. 1(barig@c) x [...] \n6'. [...] \n7'. 1(barig@c) nin# [...] \n8'. 1(barig@c) nin# [...] \n9'. 1(barig@c) [...] \n10'. 1(barig@c) nin-hi-li# \n$ blank space \n11'. szunigin 4(u@c) 8(asz@c) usz#-bar 1(barig@c)-[ta] \n12'. [1(asz@c)] usz#-bar 3(ban2@c)-[ta] \n13'. 2(asz@c) um-ma 3(ban2@c)-[ta] \n14'. 8(asz@c) dumu nu-siki 3(ban2@c)-[ta] \n15'. 4(u@c) amar-gaba 2(ban2@c)-[ta] \n16'. sze-bi 1(u@c) 6(asz@c) 2(barig@c) 5(ban2@c) lid2-ga \n17'. ugula lu2-ganun \n18'. 1(barig@c) ama-tir \n$ rest broken \n@reverse \ncolumn 1 \n1. 1(barig@c) [...] \n2. 2(barig@c)? nin-[...] \n3. PAP geme2-[...] \n4. e2-husz#-[ki] \n5. [...] \n6. 1(barig@c) nin-[...] \n7. [...] x [...] \n8. [...] lugal-a-[...] \n9. [...] ur-tur# \n10. [...] \n11. [...] \n12. 1(barig@c) [...] \n13. 1(barig@c) [...] \n14. 2(ban2@c) [...] \n$ rest broken \ncolumn 2 \n1. lu-lil-la nagar \n2. ur-li \n3. ur-ki \n4. nin-du11-ga-ni \n5. ur-{d}nu-{mu4}musz-da \n6. sipa-me \n7. geme2-{d}en-lil2 \n8. gi-ni-dab5 \n9. nin-nu-banda3 \n10. e2-szu \n11. nin-me-du10-ga \n12. lugal-me-du10-ga \n13. a-ga-de3{ki}-a \n14. mu-sze \n15. {sa}sag7-a-ne-ni-ka \n16. ama-e2 \n17. a-ba-{d}en-lil2 \n$ blank space \n18. szunigin [...] \n$ rest broken \ncolumn 15 \n$ blank space \n1. gu2#-an-sze3-bi \n2. [...] 2(u@c) 3(asz@c) 1(barig@c) 2(ban2@c) sze lid2-ga \n3. ganun# mah-a \n4. al#-ba \n$ rest broken \n ",
        "lineart_url": "https://cdli.ucla.edu/dl/tn_lineart/P020453_l.jpg",
        "photo_url": "https://cdli.ucla.edu/dl/tn_photo/P020453.jpg"
    },
    "from_gigamesh_info_program": {
        "filename": "HS_0789_GMOCF_r1.50_n4_v512",
        "model_id": "HS 0789",
        "model_material": "clay, original",
        "vertices_total": "2569546",
        "vertices_nan": "0",
        "vertices_solo": "0",
        "vertices_polyline": "0",
        "vertices_border": "0",
        "vertices_nonmanifold": "0",
        "vertices_on_inverted_edge": "0",
        "vertices_part_of_zero_face": "0",
        "vertices_synthetic": "1",
        "vertices_manual": "0",
        "vertices_circle_center": "0",
        "vertices_selected": "0",
        "vertices_funcval_finite": "2569546",
        "vertices_funcval_local_min": "83296",
        "vertices_funcval_local_max": "47980",
        "faces_total": "5139096",
        "faces_solo": "0",
        "faces_border": "0",
        "faces_border_dangling": "0",
        "faces_manifold": "5139096",
        "faces_nonmanifold": "0",
        "faces_sticky": "0",
        "faces_zeroarea": "0",
        "faces_inverted": "0",
        "faces_with_synth_vertices": "0",
        "boundingbox_min_x": "-53.128",
        "boundingbox_min_y": "0",
        "boundingbox_min_z": "-16.2928",
        "boundingbox_max_x": "53.128",
        "boundingbox_max_y": "114.329",
        "boundingbox_max_z": "16.2928",
        "boundingbox_width": "10.6",
        "boundingbox_height": "11.4",
        "boundingbox_thick": "3.3",
        "total_area": "296.14",
        "total_volume_dx": "220002",
        "total_volume_dy": "220002",
        "total_volume_dz": "220002"
    }
}