{
    "from_gigamesh_info_file": {
        "filename": "HS_0716_GMOCF_r1.50_n4_v512.info.txt",
        "hs_number": "HS 0716",
        "radius_in_mm": "1.5",
        "count_of_radii": "16",
        "rastersize": "512^3",
        "gigamesh_version": "181128",
        "threads_used": "11",
        "input_filename": "HS_0716_GMOCF.ply",
        "output_filename": "HS_0716_GMOCF_r1.50_n4_v512",
        "radii": [
            1.0,
            0.94,
            0.88,
            0.81,
            0.75,
            0.69,
            0.62,
            0.56,
            0.5,
            0.44,
            0.38,
            0.31,
            0.25,
            0.19,
            0.12,
            0.06
        ],
        "model_id": "HS 0716",
        "material": "clay, original",
        "count_of_vertices": "250197",
        "count_of_faces": "500390",
        "bounding_box_in_cm": [
            3.2,
            3.2,
            2.1
        ],
        "area_in_cm2": "33.69",
        "volume_dx_in_cm3": "10.63",
        "volume_dy_in_cm3": "10.63",
        "volume_dz_in_cm3": "10.63",
        "processing_began_on": "Fri Nov 30 22:44:25 2018",
        "processing_finished_on": "Fri Nov 30 22:50:09 2018",
        "processing_wall_time_in_s": "344"
    },
    "from_ply_filename": {
        "filename": "/export/data/vNGG/tmp/Hilprecht_Sammlung/04_MSII_filtered/HS_ALL_MSII_PLY/HS_0716_GMOCF_r1.50_n4_v512.ply",
        "hs_number": "HS 0716",
        "radius_in_mm": "1.50",
        "count_of_radii": 16,
        "rastersize": 512
    },
    "from_hilprecht3d": {
        "hs_number": "HS 0716",
        "tablet_url": "https://hilprecht.mpiwg-berlin.mpg.de/object3d/30152",
        "bibliography": "1933: TMH 2-3, 272"
    },
    "from_gigamesh_info_program": {
        "filename": "HS_0716_GMOCF_r1.50_n4_v512",
        "model_id": "HS 0716",
        "model_material": "clay, original",
        "vertices_total": "250197",
        "vertices_nan": "0",
        "vertices_solo": "0",
        "vertices_polyline": "0",
        "vertices_border": "0",
        "vertices_nonmanifold": "0",
        "vertices_on_inverted_edge": "0",
        "vertices_part_of_zero_face": "0",
        "vertices_synthetic": "1",
        "vertices_manual": "0",
        "vertices_circle_center": "0",
        "vertices_selected": "0",
        "vertices_funcval_finite": "250197",
        "vertices_funcval_local_min": "6435",
        "vertices_funcval_local_max": "3705",
        "faces_total": "500390",
        "faces_solo": "0",
        "faces_border": "0",
        "faces_border_dangling": "0",
        "faces_manifold": "500390",
        "faces_nonmanifold": "0",
        "faces_sticky": "0",
        "faces_zeroarea": "0",
        "faces_inverted": "0",
        "faces_with_synth_vertices": "0",
        "boundingbox_min_x": "-15.9316",
        "boundingbox_min_y": "0",
        "boundingbox_min_z": "-10.6226",
        "boundingbox_max_x": "15.9316",
        "boundingbox_max_y": "31.6847",
        "boundingbox_max_z": "10.6226",
        "boundingbox_width": "3.2",
        "boundingbox_height": "3.2",
        "boundingbox_thick": "2.1",
        "total_area": "33.69",
        "total_volume_dx": "10625.6",
        "total_volume_dy": "10625.6",
        "total_volume_dz": "10625.6"
    }
}