{
    "from_gigamesh_info_file": {
        "filename": "HS_0204_GMOCF_r1.50_n4_v512.info.txt",
        "hs_number": "HS 0204",
        "radius_in_mm": "1.5",
        "count_of_radii": "16",
        "rastersize": "512^3",
        "gigamesh_version": "181005",
        "threads_used": "7",
        "input_filename": "HS_0204_GMOCF.ply",
        "output_filename": "HS_0204_GMOCF_r1.50_n4_v512",
        "radii": [
            1.0,
            0.94,
            0.88,
            0.81,
            0.75,
            0.69,
            0.62,
            0.56,
            0.5,
            0.44,
            0.38,
            0.31,
            0.25,
            0.19,
            0.12,
            0.06
        ],
        "model_id": "HS 0204",
        "material": "clay, original",
        "count_of_vertices": "2835438",
        "count_of_faces": "5670872",
        "bounding_box_in_cm": [
            6.7,
            7.8,
            3.0
        ],
        "area_in_cm2": "133.05",
        "volume_dx_in_cm3": "81.33",
        "volume_dy_in_cm3": "81.33",
        "volume_dz_in_cm3": "81.33",
        "processing_began_on": "Sun Dec  2 01:23:55 2018",
        "processing_finished_on": "Sun Dec  2 07:47:19 2018",
        "processing_wall_time_in_s": "23003"
    },
    "from_ply_filename": {
        "filename": "/export/data/vNGG/tmp/Hilprecht_Sammlung/04_MSII_filtered/HS_ALL_MSII_PLY/HS_0204_GMOCF_r1.50_n4_v512.ply",
        "hs_number": "HS 0204",
        "radius_in_mm": "1.50",
        "count_of_radii": 16,
        "rastersize": 512
    },
    "from_hilprecht3d": {
        "hs_number": "HS 0204",
        "tablet_url": "https://hilprecht.mpiwg-berlin.mpg.de/object3d/30017",
        "bibliography": "2008: TMH 8"
    },
    "from_cdli_search_view": {
        "archival_view": "https://cdli.ucla.edu/search/archival_view.php?ObjectID=P254571",
        "primary_publication": "MKT 1, 011, 52, HS 0204",
        "author": "Neugebauer, Otto E.",
        "publication_date": "1935-1937",
        "secondary_publication": "Proust, Christine, TMH 8 (2008) no. 35",
        "collection": "Hilprecht Collection, University of Jena, Germany",
        "museum_number": "HS 0204",
        "accession_number": "",
        "provenience": "Nippur (mod. Nuffar)",
        "excavation_number": "",
        "period": "uncertain",
        "dates_referenced": "",
        "object_type": "tablet",
        "remarks": "",
        "material": "clay",
        "language": "",
        "genre": "Mathematical",
        "sub_genre": "table - recip., mult.",
        "cdli_comments": "",
        "catalogue_source": "20050201 melville",
        "atf_source": "no atf",
        "translation": "no translation",
        "ucla_library_ark": "21198/zz001sm50q",
        "composite_number": "",
        "seal_number": "",
        "cdli_number": "P254571"
    },
    "from_cdli_archival_view": {
        "primary_publication": "MKT 1, 011, 52, HS 0204",
        "author": "Neugebauer, Otto E.",
        "publication_date": "1935-1937",
        "secondary_publications": "Proust, Christine, TMH 8 (2008) no. 35",
        "citation": "",
        "author_remarks": "",
        "published_collation": "",
        "cdli_number": "P254571",
        "ucla_library_ark": "21198/zz001sm50q",
        "cdli_comments": "",
        "catalogue": "20050201 melville",
        "transliteration_remarks": "no atf",
        "translation_remarks": "no translation",
        "owner": "Hilprecht Collection, University of Jena, Germany",
        "museum_number": "HS 0204",
        "accession_number": "",
        "acquisition_history": "",
        "genre": "Mathematical",
        "sub_genre": "table - recip., mult.",
        "sub_genre_remarks": "",
        "composite_number": "",
        "language": "",
        "material": "clay",
        "object_remarks": "",
        "measurements_in_mm": "? x ? x ?",
        "object_preservation": "",
        "surface_preservation": "",
        "condition_description": "",
        "join_information": "",
        "seal_number": "",
        "seal_information": "",
        "provenience": "Nippur (mod. Nuffar)",
        "excavation_number": "",
        "findspot_square": "",
        "elevation": "",
        "stratigraphic_level": "",
        "findspot_remarks": "",
        "period": "uncertain",
        "period_remarks": "",
        "date_of_origin": "",
        "dates_referenced": "",
        "alternative_years": "",
        "accounting_period": "",
        "textual_content": "@Tablet",
        "photo_url": "https://cdli.ucla.edu/dl/tn_photo/P254571.jpg"
    },
    "from_gigamesh_info_program": {
        "filename": "HS_0204_GMOCF_r1.50_n4_v512",
        "model_id": "HS 0204",
        "model_material": "clay, original",
        "vertices_total": "2835438",
        "vertices_nan": "0",
        "vertices_solo": "0",
        "vertices_polyline": "0",
        "vertices_border": "0",
        "vertices_nonmanifold": "0",
        "vertices_on_inverted_edge": "0",
        "vertices_part_of_zero_face": "0",
        "vertices_synthetic": "2",
        "vertices_manual": "0",
        "vertices_circle_center": "0",
        "vertices_selected": "0",
        "vertices_funcval_finite": "2835438",
        "vertices_funcval_local_min": "62307",
        "vertices_funcval_local_max": "29355",
        "faces_total": "5670872",
        "faces_solo": "0",
        "faces_border": "0",
        "faces_border_dangling": "0",
        "faces_manifold": "5670872",
        "faces_nonmanifold": "0",
        "faces_sticky": "0",
        "faces_zeroarea": "0",
        "faces_inverted": "0",
        "faces_with_synth_vertices": "0",
        "boundingbox_min_x": "-33.6573",
        "boundingbox_min_y": "0",
        "boundingbox_min_z": "-15.0377",
        "boundingbox_max_x": "33.6573",
        "boundingbox_max_y": "78.0221",
        "boundingbox_max_z": "15.0377",
        "boundingbox_width": "6.7",
        "boundingbox_height": "7.8",
        "boundingbox_thick": "3",
        "total_area": "133.05",
        "total_volume_dx": "81328.2",
        "total_volume_dy": "81328.2",
        "total_volume_dz": "81328.2"
    }
}