{
    "from_gigamesh_info_file": {
        "filename": "HS_0292A_GMOCF_r1.50_n4_v512.info.txt",
        "hs_number": "HS 0292A",
        "radius_in_mm": "1.5",
        "count_of_radii": "16",
        "rastersize": "512^3",
        "gigamesh_version": "181128",
        "threads_used": "11",
        "input_filename": "HS_0292A_GMOCF.ply",
        "output_filename": "HS_0292A_GMOCF_r1.50_n4_v512",
        "radii": [
            1.0,
            0.94,
            0.88,
            0.81,
            0.75,
            0.69,
            0.62,
            0.56,
            0.5,
            0.44,
            0.38,
            0.31,
            0.25,
            0.19,
            0.12,
            0.06
        ],
        "model_id": "HS 0292A",
        "material": "clay, original",
        "count_of_vertices": "322028",
        "count_of_faces": "644052",
        "bounding_box_in_cm": [
            4.2,
            3.5,
            1.3
        ],
        "area_in_cm2": "39.23",
        "volume_dx_in_cm3": "11.23",
        "volume_dy_in_cm3": "11.23",
        "volume_dz_in_cm3": "11.23",
        "processing_began_on": "Mon Dec  3 09:48:38 2018",
        "processing_finished_on": "Mon Dec  3 09:56:27 2018",
        "processing_wall_time_in_s": "469"
    },
    "from_ply_filename": {
        "filename": "/export/data/vNGG/tmp/Hilprecht_Sammlung/04_MSII_filtered/HS_ALL_MSII_PLY/HS_0292A_GMOCF_r1.50_n4_v512.ply",
        "hs_number": "HS 0292A",
        "radius_in_mm": "1.50",
        "count_of_radii": 16,
        "rastersize": 512
    },
    "from_hilprecht3d": {
        "hs_number": "HS 0292A",
        "tablet_url": "https://hilprecht.mpiwg-berlin.mpg.de/object3d/30062",
        "bibliography": "1932: TMH 1, Tf. 12b"
    },
    "from_gigamesh_info_program": {
        "filename": "HS_0292A_GMOCF_r1.50_n4_v512",
        "model_id": "HS 0292A",
        "model_material": "clay, original",
        "vertices_total": "322028",
        "vertices_nan": "0",
        "vertices_solo": "0",
        "vertices_polyline": "0",
        "vertices_border": "0",
        "vertices_nonmanifold": "0",
        "vertices_on_inverted_edge": "0",
        "vertices_part_of_zero_face": "0",
        "vertices_synthetic": "2",
        "vertices_manual": "0",
        "vertices_circle_center": "0",
        "vertices_selected": "0",
        "vertices_funcval_finite": "322028",
        "vertices_funcval_local_min": "8900",
        "vertices_funcval_local_max": "4677",
        "faces_total": "644052",
        "faces_solo": "0",
        "faces_border": "0",
        "faces_border_dangling": "0",
        "faces_manifold": "644052",
        "faces_nonmanifold": "0",
        "faces_sticky": "0",
        "faces_zeroarea": "0",
        "faces_inverted": "0",
        "faces_with_synth_vertices": "0",
        "boundingbox_min_x": "-20.7567",
        "boundingbox_min_y": "0",
        "boundingbox_min_z": "-6.4049",
        "boundingbox_max_x": "20.7567",
        "boundingbox_max_y": "35.3547",
        "boundingbox_max_z": "6.4049",
        "boundingbox_width": "4.2",
        "boundingbox_height": "3.5",
        "boundingbox_thick": "1.3",
        "total_area": "39.23",
        "total_volume_dx": "11231",
        "total_volume_dy": "11231",
        "total_volume_dz": "11231"
    }
}