{
    "from_gigamesh_info_file": {
        "filename": "HS_0203_GMOCF_r1.50_n4_v512.info.txt",
        "hs_number": "HS 0203",
        "radius_in_mm": "1.5",
        "count_of_radii": "16",
        "rastersize": "512^3",
        "gigamesh_version": "181128",
        "threads_used": "11",
        "input_filename": "HS_0203_GMOCF.ply",
        "output_filename": "HS_0203_GMOCF_r1.50_n4_v512",
        "radii": [
            1.0,
            0.94,
            0.88,
            0.81,
            0.75,
            0.69,
            0.62,
            0.56,
            0.5,
            0.44,
            0.38,
            0.31,
            0.25,
            0.19,
            0.12,
            0.06
        ],
        "model_id": "HS 0203",
        "material": "clay, original",
        "count_of_vertices": "4139122",
        "count_of_faces": "8278276",
        "bounding_box_in_cm": [
            15.3,
            13.9,
            3.7
        ],
        "area_in_cm2": "604.20",
        "volume_dx_in_cm3": "462.61",
        "volume_dy_in_cm3": "462.61",
        "volume_dz_in_cm3": "462.61",
        "processing_began_on": "Sat Dec  1 06:01:40 2018",
        "processing_finished_on": "Sat Dec  1 07:40:30 2018",
        "processing_wall_time_in_s": "5930"
    },
    "from_ply_filename": {
        "filename": "/export/data/vNGG/tmp/Hilprecht_Sammlung/04_MSII_filtered/HS_ALL_MSII_PLY/HS_0203_GMOCF_r1.50_n4_v512.ply",
        "hs_number": "HS 0203",
        "radius_in_mm": "1.50",
        "count_of_radii": 16,
        "rastersize": 512
    },
    "from_hilprecht3d": {
        "hs_number": "HS 0203",
        "tablet_url": "https://hilprecht.mpiwg-berlin.mpg.de/object3d/30016",
        "bibliography": "2008: TMH 8"
    },
    "from_gigamesh_info_program": {
        "filename": "HS_0203_GMOCF_r1.50_n4_v512",
        "model_id": "HS 0203",
        "model_material": "clay, original",
        "vertices_total": "4139122",
        "vertices_nan": "0",
        "vertices_solo": "0",
        "vertices_polyline": "0",
        "vertices_border": "0",
        "vertices_nonmanifold": "0",
        "vertices_on_inverted_edge": "0",
        "vertices_part_of_zero_face": "0",
        "vertices_synthetic": "2718",
        "vertices_manual": "0",
        "vertices_circle_center": "0",
        "vertices_selected": "0",
        "vertices_funcval_finite": "4139122",
        "vertices_funcval_local_min": "149297",
        "vertices_funcval_local_max": "87258",
        "faces_total": "8278276",
        "faces_solo": "0",
        "faces_border": "0",
        "faces_border_dangling": "0",
        "faces_manifold": "8278276",
        "faces_nonmanifold": "0",
        "faces_sticky": "0",
        "faces_zeroarea": "0",
        "faces_inverted": "0",
        "faces_with_synth_vertices": "4840",
        "boundingbox_min_x": "-76.289",
        "boundingbox_min_y": "0",
        "boundingbox_min_z": "-18.3229",
        "boundingbox_max_x": "76.289",
        "boundingbox_max_y": "139.431",
        "boundingbox_max_z": "18.3229",
        "boundingbox_width": "15.3",
        "boundingbox_height": "13.9",
        "boundingbox_thick": "3.7",
        "total_area": "604.2",
        "total_volume_dx": "462610",
        "total_volume_dy": "462610",
        "total_volume_dz": "462610"
    }
}