{
    "from_gigamesh_info_file": {
        "filename": "HS_0248_GMOCF_r1.50_n4_v512.info.txt",
        "hs_number": "HS 0248",
        "radius_in_mm": "1.5",
        "count_of_radii": "16",
        "rastersize": "512^3",
        "gigamesh_version": "181128",
        "threads_used": "11",
        "input_filename": "HS_0248_GMOCF.ply",
        "output_filename": "HS_0248_GMOCF_r1.50_n4_v512",
        "radii": [
            1.0,
            0.94,
            0.88,
            0.81,
            0.75,
            0.69,
            0.62,
            0.56,
            0.5,
            0.44,
            0.38,
            0.31,
            0.25,
            0.19,
            0.12,
            0.06
        ],
        "model_id": "HS 0248",
        "material": "clay, original",
        "count_of_vertices": "605590",
        "count_of_faces": "1211176",
        "bounding_box_in_cm": [
            5.1,
            7.5,
            2.7
        ],
        "area_in_cm2": "88.29",
        "volume_dx_in_cm3": "46.19",
        "volume_dy_in_cm3": "46.19",
        "volume_dz_in_cm3": "46.19",
        "processing_began_on": "Sun Dec  2 03:46:39 2018",
        "processing_finished_on": "Sun Dec  2 04:00:06 2018",
        "processing_wall_time_in_s": "807"
    },
    "from_ply_filename": {
        "filename": "/export/data/vNGG/tmp/Hilprecht_Sammlung/04_MSII_filtered/HS_ALL_MSII_PLY/HS_0248_GMOCF_r1.50_n4_v512.ply",
        "hs_number": "HS 0248",
        "radius_in_mm": "1.50",
        "count_of_radii": 16,
        "rastersize": 512
    },
    "from_hilprecht3d": {
        "hs_number": "HS 0248",
        "tablet_url": "https://hilprecht.mpiwg-berlin.mpg.de/object3d/30028",
        "bibliography": ""
    },
    "from_gigamesh_info_program": {
        "filename": "HS_0248_GMOCF_r1.50_n4_v512",
        "model_id": "HS 0248",
        "model_material": "clay, original",
        "vertices_total": "605590",
        "vertices_nan": "0",
        "vertices_solo": "0",
        "vertices_polyline": "0",
        "vertices_border": "0",
        "vertices_nonmanifold": "0",
        "vertices_on_inverted_edge": "0",
        "vertices_part_of_zero_face": "0",
        "vertices_synthetic": "0",
        "vertices_manual": "0",
        "vertices_circle_center": "0",
        "vertices_selected": "0",
        "vertices_funcval_finite": "605590",
        "vertices_funcval_local_min": "19670",
        "vertices_funcval_local_max": "10918",
        "faces_total": "1211176",
        "faces_solo": "0",
        "faces_border": "0",
        "faces_border_dangling": "0",
        "faces_manifold": "1211176",
        "faces_nonmanifold": "0",
        "faces_sticky": "0",
        "faces_zeroarea": "0",
        "faces_inverted": "0",
        "faces_with_synth_vertices": "0",
        "boundingbox_min_x": "-25.3176",
        "boundingbox_min_y": "0",
        "boundingbox_min_z": "-13.3474",
        "boundingbox_max_x": "25.3176",
        "boundingbox_max_y": "74.8578",
        "boundingbox_max_z": "13.3474",
        "boundingbox_width": "5.1",
        "boundingbox_height": "7.5",
        "boundingbox_thick": "2.7",
        "total_area": "88.29",
        "total_volume_dx": "46185.9",
        "total_volume_dy": "46185.9",
        "total_volume_dz": "46185.9"
    }
}