{
    "from_gigamesh_info_file": {
        "filename": "HS_0239_GMOCF_r1.50_n4_v512.info.txt",
        "hs_number": "HS 0239",
        "radius_in_mm": "1.5",
        "count_of_radii": "16",
        "rastersize": "512^3",
        "gigamesh_version": "181005",
        "threads_used": "7",
        "input_filename": "HS_0239_GMOCF.ply",
        "output_filename": "HS_0239_GMOCF_r1.50_n4_v512",
        "radii": [
            1.0,
            0.94,
            0.88,
            0.81,
            0.75,
            0.69,
            0.62,
            0.56,
            0.5,
            0.44,
            0.38,
            0.31,
            0.25,
            0.19,
            0.12,
            0.06
        ],
        "model_id": "HS 0239",
        "material": "clay, original",
        "count_of_vertices": "2925061",
        "count_of_faces": "5850118",
        "bounding_box_in_cm": [
            11.7,
            16.0,
            3.5
        ],
        "area_in_cm2": "424.33",
        "volume_dx_in_cm3": "289.00",
        "volume_dy_in_cm3": "289.00",
        "volume_dz_in_cm3": "289.00",
        "processing_began_on": "Sat Dec  1 06:15:53 2018",
        "processing_finished_on": "Sat Dec  1 09:59:39 2018",
        "processing_wall_time_in_s": "13425"
    },
    "from_ply_filename": {
        "filename": "/export/data/vNGG/tmp/Hilprecht_Sammlung/04_MSII_filtered/HS_ALL_MSII_PLY/HS_0239_GMOCF_r1.50_n4_v512.ply",
        "hs_number": "HS 0239",
        "radius_in_mm": "1.50",
        "count_of_radii": 16,
        "rastersize": 512
    },
    "from_hilprecht3d": {
        "hs_number": "HS 0239",
        "tablet_url": "https://hilprecht.mpiwg-berlin.mpg.de/object3d/30025",
        "bibliography": "2008: TMH 8"
    },
    "from_gigamesh_info_program": {
        "filename": "HS_0239_GMOCF_r1.50_n4_v512",
        "model_id": "HS 0239",
        "model_material": "clay, original",
        "vertices_total": "2925061",
        "vertices_nan": "0",
        "vertices_solo": "0",
        "vertices_polyline": "0",
        "vertices_border": "0",
        "vertices_nonmanifold": "0",
        "vertices_on_inverted_edge": "0",
        "vertices_part_of_zero_face": "0",
        "vertices_synthetic": "190",
        "vertices_manual": "0",
        "vertices_circle_center": "0",
        "vertices_selected": "190",
        "vertices_funcval_finite": "2925061",
        "vertices_funcval_local_min": "103387",
        "vertices_funcval_local_max": "66381",
        "faces_total": "5850118",
        "faces_solo": "0",
        "faces_border": "0",
        "faces_border_dangling": "0",
        "faces_manifold": "5850118",
        "faces_nonmanifold": "0",
        "faces_sticky": "0",
        "faces_zeroarea": "0",
        "faces_inverted": "0",
        "faces_with_synth_vertices": "323",
        "boundingbox_min_x": "-58.7355",
        "boundingbox_min_y": "0",
        "boundingbox_min_z": "-17.6088",
        "boundingbox_max_x": "58.7355",
        "boundingbox_max_y": "159.673",
        "boundingbox_max_z": "17.6088",
        "boundingbox_width": "11.7",
        "boundingbox_height": "16",
        "boundingbox_thick": "3.5",
        "total_area": "424.33",
        "total_volume_dx": "288996",
        "total_volume_dy": "288996",
        "total_volume_dz": "288996"
    }
}