{
    "from_gigamesh_info_file": {
        "filename": "HS_0787_GMOCF_r1.50_n4_v512.info.txt",
        "hs_number": "HS 0787",
        "radius_in_mm": "1.5",
        "count_of_radii": "16",
        "rastersize": "512^3",
        "gigamesh_version": "181128",
        "threads_used": "11",
        "input_filename": "HS_0787_GMOCF.ply",
        "output_filename": "HS_0787_GMOCF_r1.50_n4_v512",
        "radii": [
            1.0,
            0.94,
            0.88,
            0.81,
            0.75,
            0.69,
            0.62,
            0.56,
            0.5,
            0.44,
            0.38,
            0.31,
            0.25,
            0.19,
            0.12,
            0.06
        ],
        "model_id": "HS 0787",
        "material": "clay, original",
        "count_of_vertices": "439526",
        "count_of_faces": "879048",
        "bounding_box_in_cm": [
            2.9,
            5.0,
            2.5
        ],
        "area_in_cm2": "50.76",
        "volume_dx_in_cm3": "20.30",
        "volume_dy_in_cm3": "20.30",
        "volume_dz_in_cm3": "20.30",
        "processing_began_on": "Sun Dec  2 09:22:00 2018",
        "processing_finished_on": "Sun Dec  2 09:32:50 2018",
        "processing_wall_time_in_s": "650"
    },
    "from_ply_filename": {
        "filename": "/export/data/vNGG/tmp/Hilprecht_Sammlung/04_MSII_filtered/HS_ALL_MSII_PLY/HS_0787_GMOCF_r1.50_n4_v512.ply",
        "hs_number": "HS 0787",
        "radius_in_mm": "1.50",
        "count_of_radii": 16,
        "rastersize": 512
    },
    "from_hilprecht3d": {
        "hs_number": "HS 0787",
        "tablet_url": "https://hilprecht.mpiwg-berlin.mpg.de/object3d/30189",
        "bibliography": "1935: TMH 5, 037. \u2013 1975: ECTJ 37",
        "cdli_number": "20451"
    },
    "from_cdli_search_view": {
        "archival_view": "https://cdli.ucla.edu/search/archival_view.php?ObjectID=P020451",
        "primary_publication": "TMH 05, 037",
        "author": "Pohl, Alfred",
        "publication_date": "1935",
        "secondary_publication": "A. Westenholz, ECTJ 37",
        "collection": "Hilprecht Collection, University of Jena, Germany",
        "museum_number": "HS 0787",
        "accession_number": "",
        "provenience": "Nippur (mod. Nuffar)",
        "excavation_number": "",
        "period": "Old Akkadian (ca. 2340-2200 BC)",
        "dates_referenced": "",
        "object_type": "tablet",
        "remarks": "",
        "material": "clay",
        "language": "Sumerian",
        "genre": "Administrative",
        "sub_genre": "",
        "cdli_comments": "",
        "catalogue_source": "20040921 krebernik_tmh5",
        "atf_source": "cdlistaff",
        "translation": "no translation",
        "ucla_library_ark": "21198/zz001sb37s",
        "composite_number": "",
        "seal_number": "",
        "cdli_number": "P020451"
    },
    "from_cdli_archival_view": {
        "primary_publication": "TMH 05, 037",
        "author": "Pohl, Alfred",
        "publication_date": "1935",
        "secondary_publications": "A. Westenholz, ECTJ 37",
        "citation": "",
        "author_remarks": "",
        "published_collation": "",
        "cdli_number": "P020451",
        "ucla_library_ark": "21198/zz001sb37s",
        "cdli_comments": "",
        "catalogue": "20040921 krebernik_tmh5",
        "transliteration_remarks": "cdlistaff",
        "translation_remarks": "no translation",
        "owner": "Hilprecht Collection, University of Jena, Germany",
        "museum_number": "HS 0787",
        "accession_number": "",
        "acquisition_history": "",
        "genre": "Administrative",
        "sub_genre": "",
        "sub_genre_remarks": "---",
        "composite_number": "",
        "language": "Sumerian",
        "material": "clay",
        "object_remarks": "",
        "measurements_in_mm": "49 x 29 x 23.5",
        "object_preservation": "",
        "surface_preservation": "",
        "condition_description": "",
        "join_information": "",
        "seal_number": "",
        "seal_information": "",
        "provenience": "Nippur (mod. Nuffar)",
        "excavation_number": "",
        "findspot_square": "",
        "elevation": "",
        "stratigraphic_level": "",
        "findspot_remarks": "",
        "period": "Old Akkadian (ca. 2340-2200 BC)",
        "period_remarks": "period uncertain",
        "date_of_origin": "",
        "dates_referenced": "",
        "alternative_years": "",
        "accounting_period": "",
        "textual_content": "@Tablet\n@obverse \n1. 1(barig@c) sze \n2. he2-li \n3. 1(barig@c) nin-gu-la \n4. 1(barig@c) nin-HAR-ni \n5. 1(barig@c) nin-er2-re2 \n6. [...] nin-gesz \n7. [...] nin-gi7 \n8. [...] e2-i-nu-tuku# \n9. [...] x x [...] \n$ rest broken \n@reverse \n$ beginning broken \n1'. [iti] ziz2-[a] \n2'. mu# na-ra-am-{d}suen sza-ab-bu-nu-um{ki} mu-hul-a \n ",
        "lineart_url": "https://cdli.ucla.edu/dl/tn_lineart/P020451_l.jpg",
        "photo_url": "https://cdli.ucla.edu/dl/tn_photo/P020451.jpg"
    },
    "from_gigamesh_info_program": {
        "filename": "HS_0787_GMOCF_r1.50_n4_v512",
        "model_id": "HS 0787",
        "model_material": "clay, original",
        "vertices_total": "439526",
        "vertices_nan": "0",
        "vertices_solo": "0",
        "vertices_polyline": "0",
        "vertices_border": "0",
        "vertices_nonmanifold": "0",
        "vertices_on_inverted_edge": "0",
        "vertices_part_of_zero_face": "0",
        "vertices_synthetic": "15",
        "vertices_manual": "0",
        "vertices_circle_center": "0",
        "vertices_selected": "15",
        "vertices_funcval_finite": "439526",
        "vertices_funcval_local_min": "12732",
        "vertices_funcval_local_max": "7918",
        "faces_total": "879048",
        "faces_solo": "0",
        "faces_border": "0",
        "faces_border_dangling": "0",
        "faces_manifold": "879048",
        "faces_nonmanifold": "0",
        "faces_sticky": "0",
        "faces_zeroarea": "0",
        "faces_inverted": "0",
        "faces_with_synth_vertices": "11",
        "boundingbox_min_x": "-14.6195",
        "boundingbox_min_y": "0",
        "boundingbox_min_z": "-12.4434",
        "boundingbox_max_x": "14.6195",
        "boundingbox_max_y": "49.6481",
        "boundingbox_max_z": "12.4434",
        "boundingbox_width": "2.9",
        "boundingbox_height": "5",
        "boundingbox_thick": "2.5",
        "total_area": "50.76",
        "total_volume_dx": "20301",
        "total_volume_dy": "20301",
        "total_volume_dz": "20301"
    }
}