{
    "from_gigamesh_info_file": {
        "filename": "HS_0167_GMOCF_r1.50_n4_v512.info.txt",
        "hs_number": "HS 0167",
        "radius_in_mm": "1.5",
        "count_of_radii": "16",
        "rastersize": "512^3",
        "gigamesh_version": "181005",
        "threads_used": "7",
        "input_filename": "HS_0167_GMOCF.ply",
        "output_filename": "HS_0167_GMOCF_r1.50_n4_v512",
        "radii": [
            1.0,
            0.94,
            0.88,
            0.81,
            0.75,
            0.69,
            0.62,
            0.56,
            0.5,
            0.44,
            0.38,
            0.31,
            0.25,
            0.19,
            0.12,
            0.06
        ],
        "model_id": "HS 0167",
        "material": "clay, original",
        "count_of_vertices": "1139919",
        "count_of_faces": "2279834",
        "bounding_box_in_cm": [
            4.5,
            3.8,
            1.8
        ],
        "area_in_cm2": "49.39",
        "volume_dx_in_cm3": "20.32",
        "volume_dy_in_cm3": "20.32",
        "volume_dz_in_cm3": "20.32",
        "processing_began_on": "Sun Dec  2 13:17:12 2018",
        "processing_finished_on": "Sun Dec  2 15:58:16 2018",
        "processing_wall_time_in_s": "9664"
    },
    "from_ply_filename": {
        "filename": "/export/data/vNGG/tmp/Hilprecht_Sammlung/04_MSII_filtered/HS_ALL_MSII_PLY/HS_0167_GMOCF_r1.50_n4_v512.ply",
        "hs_number": "HS 0167",
        "radius_in_mm": "1.50",
        "count_of_radii": 16,
        "rastersize": 512
    },
    "from_hilprecht3d": {
        "hs_number": "HS 0167",
        "tablet_url": "https://hilprecht.mpiwg-berlin.mpg.de/object3d/29993",
        "bibliography": "1974: Petschow, Nr. 45. \u2013 1976: TMHNF 5, 46."
    },
    "from_cdli_search_view": {
        "archival_view": "https://cdli.ucla.edu/search/archival_view.php?ObjectID=P513587",
        "primary_publication": "TMH NF 5, 46",
        "author": "Bernhardt, Inez",
        "publication_date": "1976",
        "secondary_publication": "",
        "collection": "Hilprecht Collection, University of Jena, Germany",
        "museum_number": "HS 0167",
        "accession_number": "",
        "provenience": "Nippur (mod. Nuffar)",
        "excavation_number": "",
        "period": "Middle Babylonian (ca. 1400-1100 BC)",
        "dates_referenced": "",
        "object_type": "tablet",
        "remarks": "",
        "material": "clay",
        "language": "",
        "genre": "Administrative",
        "sub_genre": "",
        "cdli_comments": "",
        "catalogue_source": "20190415 firth",
        "atf_source": "no atf",
        "translation": "no translation",
        "ucla_library_ark": "",
        "composite_number": "",
        "seal_number": "",
        "cdli_number": "P513587"
    },
    "from_cdli_archival_view": {
        "primary_publication": "TMH NF 5, 46",
        "author": "Bernhardt, Inez",
        "publication_date": "1976",
        "secondary_publications": "",
        "citation": "",
        "author_remarks": "",
        "published_collation": "",
        "cdli_number": "P513587",
        "ucla_library_ark": "",
        "cdli_comments": "",
        "catalogue": "20190415 firth",
        "transliteration_remarks": "no atf",
        "translation_remarks": "no translation",
        "owner": "Hilprecht Collection, University of Jena, Germany",
        "museum_number": "HS 0167",
        "accession_number": "",
        "acquisition_history": "",
        "genre": "Administrative",
        "sub_genre": "",
        "sub_genre_remarks": "",
        "composite_number": "",
        "language": "",
        "material": "clay",
        "object_remarks": "",
        "measurements_in_mm": "x  x",
        "object_preservation": "",
        "surface_preservation": "",
        "condition_description": "",
        "join_information": "",
        "seal_number": "",
        "seal_information": "",
        "provenience": "Nippur (mod. Nuffar)",
        "excavation_number": "",
        "findspot_square": "",
        "elevation": "",
        "stratigraphic_level": "",
        "findspot_remarks": "",
        "period": "Middle Babylonian (ca. 1400-1100 BC)",
        "period_remarks": "",
        "date_of_origin": "",
        "dates_referenced": "",
        "alternative_years": "",
        "accounting_period": "",
        "textual_content": "@Tablet"
    },
    "from_gigamesh_info_program": {
        "filename": "HS_0167_GMOCF_r1.50_n4_v512",
        "model_id": "HS 0167",
        "model_material": "clay, original",
        "vertices_total": "1139919",
        "vertices_nan": "0",
        "vertices_solo": "0",
        "vertices_polyline": "0",
        "vertices_border": "0",
        "vertices_nonmanifold": "0",
        "vertices_on_inverted_edge": "0",
        "vertices_part_of_zero_face": "0",
        "vertices_synthetic": "8",
        "vertices_manual": "0",
        "vertices_circle_center": "0",
        "vertices_selected": "8",
        "vertices_funcval_finite": "1139919",
        "vertices_funcval_local_min": "27146",
        "vertices_funcval_local_max": "13465",
        "faces_total": "2279834",
        "faces_solo": "0",
        "faces_border": "0",
        "faces_border_dangling": "0",
        "faces_manifold": "2279834",
        "faces_nonmanifold": "0",
        "faces_sticky": "0",
        "faces_zeroarea": "0",
        "faces_inverted": "0",
        "faces_with_synth_vertices": "5",
        "boundingbox_min_x": "-22.7072",
        "boundingbox_min_y": "0",
        "boundingbox_min_z": "-9.0101",
        "boundingbox_max_x": "22.7072",
        "boundingbox_max_y": "37.6741",
        "boundingbox_max_z": "9.0101",
        "boundingbox_width": "4.5",
        "boundingbox_height": "3.8",
        "boundingbox_thick": "1.8",
        "total_area": "49.39",
        "total_volume_dx": "20323.8",
        "total_volume_dy": "20323.8",
        "total_volume_dz": "20323.8"
    }
}