{
    "from_gigamesh_info_file": {
        "filename": "HS_0475_GMOCF_r1.50_n4_v512.info.txt",
        "hs_number": "HS 0475",
        "radius_in_mm": "1.5",
        "count_of_radii": "16",
        "rastersize": "512^3",
        "gigamesh_version": "181005",
        "threads_used": "7",
        "input_filename": "HS_0475_GMOCF.ply",
        "output_filename": "HS_0475_GMOCF_r1.50_n4_v512",
        "radii": [
            1.0,
            0.94,
            0.88,
            0.81,
            0.75,
            0.69,
            0.62,
            0.56,
            0.5,
            0.44,
            0.38,
            0.31,
            0.25,
            0.19,
            0.12,
            0.06
        ],
        "model_id": "HS 0475",
        "material": "clay, original",
        "count_of_vertices": "260290",
        "count_of_faces": "520576",
        "bounding_box_in_cm": [
            4.8,
            3.3,
            1.5
        ],
        "area_in_cm2": "37.83",
        "volume_dx_in_cm3": "11.88",
        "volume_dy_in_cm3": "11.88",
        "volume_dz_in_cm3": "11.88",
        "processing_began_on": "Sat Dec  1 02:18:20 2018",
        "processing_finished_on": "Sat Dec  1 02:37:24 2018",
        "processing_wall_time_in_s": "1144"
    },
    "from_ply_filename": {
        "filename": "/export/data/vNGG/tmp/Hilprecht_Sammlung/04_MSII_filtered/HS_ALL_MSII_PLY/HS_0475_GMOCF_r1.50_n4_v512.ply",
        "hs_number": "HS 0475",
        "radius_in_mm": "1.50",
        "count_of_radii": 16,
        "rastersize": 512
    },
    "from_hilprecht3d": {
        "hs_number": "HS 0475",
        "tablet_url": "https://hilprecht.mpiwg-berlin.mpg.de/object3d/30105",
        "bibliography": "1933: TMH 2-3, 31"
    },
    "from_gigamesh_info_program": {
        "filename": "HS_0475_GMOCF_r1.50_n4_v512",
        "model_id": "HS 0475",
        "model_material": "clay, original",
        "vertices_total": "260290",
        "vertices_nan": "0",
        "vertices_solo": "0",
        "vertices_polyline": "0",
        "vertices_border": "0",
        "vertices_nonmanifold": "0",
        "vertices_on_inverted_edge": "0",
        "vertices_part_of_zero_face": "0",
        "vertices_synthetic": "0",
        "vertices_manual": "0",
        "vertices_circle_center": "0",
        "vertices_selected": "0",
        "vertices_funcval_finite": "260290",
        "vertices_funcval_local_min": "7957",
        "vertices_funcval_local_max": "4102",
        "faces_total": "520576",
        "faces_solo": "0",
        "faces_border": "0",
        "faces_border_dangling": "0",
        "faces_manifold": "520576",
        "faces_nonmanifold": "0",
        "faces_sticky": "0",
        "faces_zeroarea": "0",
        "faces_inverted": "0",
        "faces_with_synth_vertices": "0",
        "boundingbox_min_x": "-23.878",
        "boundingbox_min_y": "0",
        "boundingbox_min_z": "-7.6277",
        "boundingbox_max_x": "23.878",
        "boundingbox_max_y": "32.8315",
        "boundingbox_max_z": "7.6277",
        "boundingbox_width": "4.8",
        "boundingbox_height": "3.3",
        "boundingbox_thick": "1.5",
        "total_area": "37.83",
        "total_volume_dx": "11878.4",
        "total_volume_dy": "11878.4",
        "total_volume_dz": "11878.4"
    }
}