{
    "from_gigamesh_info_file": {
        "filename": "HS_0184_GMOCF_r1.50_n4_v512.info.txt",
        "hs_number": "HS 0184",
        "radius_in_mm": "1.5",
        "count_of_radii": "16",
        "rastersize": "512^3",
        "gigamesh_version": "181005",
        "threads_used": "7",
        "input_filename": "HS_0184_GMOCF.ply",
        "output_filename": "HS_0184_GMOCF_r1.50_n4_v512",
        "radii": [
            1.0,
            0.94,
            0.88,
            0.81,
            0.75,
            0.69,
            0.62,
            0.56,
            0.5,
            0.44,
            0.38,
            0.31,
            0.25,
            0.19,
            0.12,
            0.06
        ],
        "model_id": "HS 0184",
        "material": "clay, original",
        "count_of_vertices": "536036",
        "count_of_faces": "1072068",
        "bounding_box_in_cm": [
            5.9,
            4.5,
            2.1
        ],
        "area_in_cm2": "65.90",
        "volume_dx_in_cm3": "30.92",
        "volume_dy_in_cm3": "30.92",
        "volume_dz_in_cm3": "30.92",
        "processing_began_on": "Fri Nov 30 22:29:46 2018",
        "processing_finished_on": "Fri Nov 30 23:12:55 2018",
        "processing_wall_time_in_s": "2589"
    },
    "from_ply_filename": {
        "filename": "/export/data/vNGG/tmp/Hilprecht_Sammlung/04_MSII_filtered/HS_ALL_MSII_PLY/HS_0184_GMOCF_r1.50_n4_v512.ply",
        "hs_number": "HS 0184",
        "radius_in_mm": "1.50",
        "count_of_radii": 16,
        "rastersize": 512
    },
    "from_hilprecht3d": {
        "hs_number": "HS 0184",
        "tablet_url": "https://hilprecht.mpiwg-berlin.mpg.de/object3d/30009",
        "bibliography": "1974: Petschow, Nr. 65."
    },
    "from_cdli_search_view": {
        "archival_view": "https://cdli.ucla.edu/search/archival_view.php?ObjectID=P388168",
        "primary_publication": "TMH 08, 48",
        "author": "Proust, Christine",
        "publication_date": "2008",
        "secondary_publication": "",
        "collection": "Hilprecht Collection, University of Jena, Germany",
        "museum_number": "HS 0184",
        "accession_number": "",
        "provenience": "Nippur (mod. Nuffar)",
        "excavation_number": "",
        "period": "Old Babylonian (ca. 1900-1600 BC)",
        "dates_referenced": "",
        "object_type": "tablet",
        "remarks": "",
        "material": "clay",
        "language": "",
        "genre": "Mathematical",
        "sub_genre": "",
        "cdli_comments": "",
        "catalogue_source": "20090124 cdliadmin",
        "atf_source": "no atf",
        "translation": "no translation",
        "ucla_library_ark": "21198/zz0022mwrx",
        "composite_number": "",
        "seal_number": "",
        "cdli_number": "P388168"
    },
    "from_cdli_archival_view": {
        "primary_publication": "TMH 08, 48",
        "author": "Proust, Christine",
        "publication_date": "2008",
        "secondary_publications": "",
        "citation": "",
        "author_remarks": "",
        "published_collation": "",
        "cdli_number": "P388168",
        "ucla_library_ark": "21198/zz0022mwrx",
        "cdli_comments": "",
        "catalogue": "20090124 cdliadmin",
        "transliteration_remarks": "no atf",
        "translation_remarks": "no translation",
        "owner": "Hilprecht Collection, University of Jena, Germany",
        "museum_number": "HS 0184",
        "accession_number": "",
        "acquisition_history": "",
        "genre": "Mathematical",
        "sub_genre": "",
        "sub_genre_remarks": "",
        "composite_number": "",
        "language": "",
        "material": "clay",
        "object_remarks": "",
        "measurements_in_mm": "x  x",
        "object_preservation": "",
        "surface_preservation": "",
        "condition_description": "",
        "join_information": "",
        "seal_number": "",
        "seal_information": "",
        "provenience": "Nippur (mod. Nuffar)",
        "excavation_number": "",
        "findspot_square": "",
        "elevation": "",
        "stratigraphic_level": "",
        "findspot_remarks": "",
        "period": "Old Babylonian (ca. 1900-1600 BC)",
        "period_remarks": "",
        "date_of_origin": "",
        "dates_referenced": "",
        "alternative_years": "",
        "accounting_period": "",
        "textual_content": "@Tablet",
        "photo_url": "https://cdli.ucla.edu/dl/tn_photo/P388168.jpg"
    },
    "from_gigamesh_info_program": {
        "filename": "HS_0184_GMOCF_r1.50_n4_v512",
        "model_id": "HS 0184",
        "model_material": "clay, original",
        "vertices_total": "536036",
        "vertices_nan": "0",
        "vertices_solo": "0",
        "vertices_polyline": "0",
        "vertices_border": "0",
        "vertices_nonmanifold": "0",
        "vertices_on_inverted_edge": "0",
        "vertices_part_of_zero_face": "0",
        "vertices_synthetic": "0",
        "vertices_manual": "0",
        "vertices_circle_center": "0",
        "vertices_selected": "0",
        "vertices_funcval_finite": "536036",
        "vertices_funcval_local_min": "19326",
        "vertices_funcval_local_max": "11363",
        "faces_total": "1072068",
        "faces_solo": "0",
        "faces_border": "0",
        "faces_border_dangling": "0",
        "faces_manifold": "1072068",
        "faces_nonmanifold": "0",
        "faces_sticky": "0",
        "faces_zeroarea": "0",
        "faces_inverted": "0",
        "faces_with_synth_vertices": "0",
        "boundingbox_min_x": "-29.6443",
        "boundingbox_min_y": "0",
        "boundingbox_min_z": "-10.485",
        "boundingbox_max_x": "29.6443",
        "boundingbox_max_y": "45.4553",
        "boundingbox_max_z": "10.485",
        "boundingbox_width": "5.9",
        "boundingbox_height": "4.5",
        "boundingbox_thick": "2.1",
        "total_area": "65.9",
        "total_volume_dx": "30924.9",
        "total_volume_dy": "30924.9",
        "total_volume_dz": "30924.9"
    }
}