{
    "from_gigamesh_info_file": {
        "filename": "HS_0765_GMOCF_r1.50_n4_v512.info.txt",
        "hs_number": "HS 0765",
        "radius_in_mm": "1.5",
        "count_of_radii": "16",
        "rastersize": "512^3",
        "gigamesh_version": "181128",
        "threads_used": "11",
        "input_filename": "HS_0765_GMOCF.ply",
        "output_filename": "HS_0765_GMOCF_r1.50_n4_v512",
        "radii": [
            1.0,
            0.94,
            0.88,
            0.81,
            0.75,
            0.69,
            0.62,
            0.56,
            0.5,
            0.44,
            0.38,
            0.31,
            0.25,
            0.19,
            0.12,
            0.06
        ],
        "model_id": "HS 0765",
        "material": "clay, original",
        "count_of_vertices": "845955",
        "count_of_faces": "1691906",
        "bounding_box_in_cm": [
            6.1,
            6.3,
            2.2
        ],
        "area_in_cm2": "98.20",
        "volume_dx_in_cm3": "45.07",
        "volume_dy_in_cm3": "45.07",
        "volume_dz_in_cm3": "45.07",
        "processing_began_on": "Sat Dec  1 02:30:15 2018",
        "processing_finished_on": "Sat Dec  1 02:51:18 2018",
        "processing_wall_time_in_s": "1263"
    },
    "from_ply_filename": {
        "filename": "/export/data/vNGG/tmp/Hilprecht_Sammlung/04_MSII_filtered/HS_ALL_MSII_PLY/HS_0765_GMOCF_r1.50_n4_v512.ply",
        "hs_number": "HS 0765",
        "radius_in_mm": "1.50",
        "count_of_radii": 16,
        "rastersize": 512
    },
    "from_hilprecht3d": {
        "hs_number": "HS 0765",
        "tablet_url": "https://hilprecht.mpiwg-berlin.mpg.de/object3d/30185",
        "bibliography": "1935: TMH 5, 015. \u2013 1975: ECTJ 15",
        "cdli_number": "20429"
    },
    "from_cdli_search_view": {
        "archival_view": "https://cdli.ucla.edu/search/archival_view.php?ObjectID=P020429",
        "primary_publication": "TMH 05, 015",
        "author": "Pohl, Alfred",
        "publication_date": "1935",
        "secondary_publication": "A. Westenholz, ECTJ 15",
        "collection": "Hilprecht Collection, University of Jena, Germany",
        "museum_number": "HS 0765",
        "accession_number": "",
        "provenience": "Nippur (mod. Nuffar)",
        "excavation_number": "",
        "period": "ED IIIb (ca. 2500-2340 BC)",
        "dates_referenced": "",
        "object_type": "tablet",
        "remarks": "",
        "material": "clay",
        "language": "Sumerian",
        "genre": "Administrative",
        "sub_genre": "",
        "cdli_comments": "",
        "catalogue_source": "20040921 krebernik_tmh5",
        "atf_source": "cdlistaff",
        "translation": "no translation",
        "ucla_library_ark": "21198/zz001td5tv",
        "composite_number": "",
        "seal_number": "",
        "cdli_number": "P020429"
    },
    "from_cdli_archival_view": {
        "primary_publication": "TMH 05, 015",
        "author": "Pohl, Alfred",
        "publication_date": "1935",
        "secondary_publications": "A. Westenholz, ECTJ 15",
        "citation": "",
        "author_remarks": "",
        "published_collation": "",
        "cdli_number": "P020429",
        "ucla_library_ark": "21198/zz001td5tv",
        "cdli_comments": "",
        "catalogue": "20040921 krebernik_tmh5",
        "transliteration_remarks": "cdlistaff",
        "translation_remarks": "no translation",
        "owner": "Hilprecht Collection, University of Jena, Germany",
        "museum_number": "HS 0765",
        "accession_number": "",
        "acquisition_history": "",
        "genre": "Administrative",
        "sub_genre": "",
        "sub_genre_remarks": "---",
        "composite_number": "",
        "language": "Sumerian",
        "material": "clay",
        "object_remarks": "",
        "measurements_in_mm": "63 x 61 x 21",
        "object_preservation": "",
        "surface_preservation": "",
        "condition_description": "",
        "join_information": "",
        "seal_number": "",
        "seal_information": "",
        "provenience": "Nippur (mod. Nuffar)",
        "excavation_number": "",
        "findspot_square": "",
        "elevation": "",
        "stratigraphic_level": "",
        "findspot_remarks": "",
        "period": "ED IIIb (ca. 2500-2340 BC)",
        "period_remarks": "",
        "date_of_origin": "",
        "dates_referenced": "",
        "alternative_years": "",
        "accounting_period": "",
        "textual_content": "@Tablet\n@obverse \ncolumn 1 \n1. 1(asz@c) lugal-KA#-NE \n2. 1(asz@c) i*-ni-lum \n3. 1(asz@c) lu2-UN-da \n4. 1(asz@c) lugal-sza3 \n5. 1(asz@c) ur-{d}en-lil2 \n6. dumu LUL-LUL \n7. 1(asz@c) ad-da-[x] \n8. 1(asz@c) a-ba-[...] \ncolumn 2 \n1. 1(asz@c) ur-{d}gir16 \n2. 1(asz@c) ur-{d}da-mu \n3. [1(asz@c) ur]-ur tur \n4. [1(asz@c)] ur#-e-ga \n5. 1(asz@c) ur-szubur \n6. 1(asz@c) ur-{d}[...]-da \n7. 1(asz@c) lugal-engar#-[du10] \n8. 1(asz@c) ur-{d}en-lil2 \n@reverse \ncolumn 1 \n1. [1(asz@c)] giri3#-ni ",
        "lineart_url": "https://cdli.ucla.edu/dl/tn_lineart/P020429_l.jpg",
        "photo_url": "https://cdli.ucla.edu/dl/tn_photo/P020429.jpg"
    },
    "from_gigamesh_info_program": {
        "filename": "HS_0765_GMOCF_r1.50_n4_v512",
        "model_id": "HS 0765",
        "model_material": "clay, original",
        "vertices_total": "845955",
        "vertices_nan": "0",
        "vertices_solo": "0",
        "vertices_polyline": "0",
        "vertices_border": "0",
        "vertices_nonmanifold": "0",
        "vertices_on_inverted_edge": "0",
        "vertices_part_of_zero_face": "0",
        "vertices_synthetic": "0",
        "vertices_manual": "0",
        "vertices_circle_center": "0",
        "vertices_selected": "0",
        "vertices_funcval_finite": "845955",
        "vertices_funcval_local_min": "24338",
        "vertices_funcval_local_max": "15942",
        "faces_total": "1691906",
        "faces_solo": "0",
        "faces_border": "0",
        "faces_border_dangling": "0",
        "faces_manifold": "1691906",
        "faces_nonmanifold": "0",
        "faces_sticky": "0",
        "faces_zeroarea": "0",
        "faces_inverted": "0",
        "faces_with_synth_vertices": "0",
        "boundingbox_min_x": "-30.5792",
        "boundingbox_min_y": "0",
        "boundingbox_min_z": "-10.7782",
        "boundingbox_max_x": "30.5792",
        "boundingbox_max_y": "63.0542",
        "boundingbox_max_z": "10.7782",
        "boundingbox_width": "6.1",
        "boundingbox_height": "6.3",
        "boundingbox_thick": "2.2",
        "total_area": "98.2",
        "total_volume_dx": "45070.3",
        "total_volume_dy": "45070.3",
        "total_volume_dz": "45070.3"
    }
}