{
    "from_gigamesh_info_file": {
        "filename": "HS_0312_GMOCF_r1.50_n4_v512.info.txt",
        "hs_number": "HS 0312",
        "radius_in_mm": "1.5",
        "count_of_radii": "16",
        "rastersize": "512^3",
        "gigamesh_version": "181005",
        "threads_used": "7",
        "input_filename": "HS_0312_GMOCF.ply",
        "output_filename": "HS_0312_GMOCF_r1.50_n4_v512",
        "radii": [
            1.0,
            0.94,
            0.88,
            0.81,
            0.75,
            0.69,
            0.62,
            0.56,
            0.5,
            0.44,
            0.38,
            0.31,
            0.25,
            0.19,
            0.12,
            0.06
        ],
        "model_id": "HS 0312",
        "material": "clay, original",
        "count_of_vertices": "92710",
        "count_of_faces": "185416",
        "bounding_box_in_cm": [
            2.4,
            2.2,
            0.6
        ],
        "area_in_cm2": "11.80",
        "volume_dx_in_cm3": "1.81",
        "volume_dy_in_cm3": "1.81",
        "volume_dz_in_cm3": "1.81",
        "processing_began_on": "Mon Dec  3 05:56:09 2018",
        "processing_finished_on": "Mon Dec  3 06:04:26 2018",
        "processing_wall_time_in_s": "496"
    },
    "from_ply_filename": {
        "filename": "/export/data/vNGG/tmp/Hilprecht_Sammlung/04_MSII_filtered/HS_ALL_MSII_PLY/HS_0312_GMOCF_r1.50_n4_v512.ply",
        "hs_number": "HS 0312",
        "radius_in_mm": "1.50",
        "count_of_radii": 16,
        "rastersize": 512
    },
    "from_hilprecht3d": {
        "hs_number": "HS 0312",
        "tablet_url": "https://hilprecht.mpiwg-berlin.mpg.de/object3d/30068",
        "bibliography": "1932: TMH 1, Tf. 34g"
    },
    "from_gigamesh_info_program": {
        "filename": "HS_0312_GMOCF_r1.50_n4_v512",
        "model_id": "HS 0312",
        "model_material": "clay, original",
        "vertices_total": "92710",
        "vertices_nan": "0",
        "vertices_solo": "0",
        "vertices_polyline": "0",
        "vertices_border": "0",
        "vertices_nonmanifold": "0",
        "vertices_on_inverted_edge": "0",
        "vertices_part_of_zero_face": "0",
        "vertices_synthetic": "0",
        "vertices_manual": "0",
        "vertices_circle_center": "0",
        "vertices_selected": "0",
        "vertices_funcval_finite": "92710",
        "vertices_funcval_local_min": "2900",
        "vertices_funcval_local_max": "1804",
        "faces_total": "185416",
        "faces_solo": "0",
        "faces_border": "0",
        "faces_border_dangling": "0",
        "faces_manifold": "185416",
        "faces_nonmanifold": "0",
        "faces_sticky": "0",
        "faces_zeroarea": "0",
        "faces_inverted": "0",
        "faces_with_synth_vertices": "0",
        "boundingbox_min_x": "-12.1879",
        "boundingbox_min_y": "0",
        "boundingbox_min_z": "-3.1504",
        "boundingbox_max_x": "12.1879",
        "boundingbox_max_y": "22.1872",
        "boundingbox_max_z": "3.1504",
        "boundingbox_width": "2.4",
        "boundingbox_height": "2.2",
        "boundingbox_thick": "0.6",
        "total_area": "11.8",
        "total_volume_dx": "1807.46",
        "total_volume_dy": "1807.46",
        "total_volume_dz": "1807.46"
    }
}