{
    "from_gigamesh_info_file": {
        "filename": "HS_0761_GMOCF_r1.50_n4_v512.info.txt",
        "hs_number": "HS 0761",
        "radius_in_mm": "1.5",
        "count_of_radii": "16",
        "rastersize": "512^3",
        "gigamesh_version": "181128",
        "threads_used": "11",
        "input_filename": "HS_0761_GMOCF.ply",
        "output_filename": "HS_0761_GMOCF_r1.50_n4_v512",
        "radii": [
            1.0,
            0.94,
            0.88,
            0.81,
            0.75,
            0.69,
            0.62,
            0.56,
            0.5,
            0.44,
            0.38,
            0.31,
            0.25,
            0.19,
            0.12,
            0.06
        ],
        "model_id": "HS 0761",
        "material": "clay, original",
        "count_of_vertices": "1302279",
        "count_of_faces": "2604562",
        "bounding_box_in_cm": [
            7.7,
            7.3,
            2.4
        ],
        "area_in_cm2": "143.09",
        "volume_dx_in_cm3": "76.86",
        "volume_dy_in_cm3": "76.86",
        "volume_dz_in_cm3": "76.86",
        "processing_began_on": "Sat Dec  1 02:53:25 2018",
        "processing_finished_on": "Sat Dec  1 03:26:45 2018",
        "processing_wall_time_in_s": "1999"
    },
    "from_ply_filename": {
        "filename": "/export/data/vNGG/tmp/Hilprecht_Sammlung/04_MSII_filtered/HS_ALL_MSII_PLY/HS_0761_GMOCF_r1.50_n4_v512.ply",
        "hs_number": "HS 0761",
        "radius_in_mm": "1.50",
        "count_of_radii": 16,
        "rastersize": 512
    },
    "from_hilprecht3d": {
        "hs_number": "HS 0761",
        "tablet_url": "https://hilprecht.mpiwg-berlin.mpg.de/object3d/30183",
        "bibliography": "1935: TMH 5, 011. \u2013 1975: ECTJ 011",
        "cdli_number": "20425"
    },
    "from_cdli_search_view": {
        "archival_view": "https://cdli.ucla.edu/search/archival_view.php?ObjectID=P020425",
        "primary_publication": "TMH 05, 011",
        "author": "Pohl, Alfred",
        "publication_date": "1935",
        "secondary_publication": "A. Westenholz, ECTJ 11",
        "collection": "Hilprecht Collection, University of Jena, Germany",
        "museum_number": "HS 0761",
        "accession_number": "",
        "provenience": "Nippur (mod. Nuffar)",
        "excavation_number": "",
        "period": "ED IIIb (ca. 2500-2340 BC)",
        "dates_referenced": "",
        "object_type": "tablet",
        "remarks": "",
        "material": "clay",
        "language": "Sumerian",
        "genre": "Administrative",
        "sub_genre": "",
        "cdli_comments": "",
        "catalogue_source": "20040921 krebernik_tmh5",
        "atf_source": "cdlistaff",
        "translation": "no translation",
        "ucla_library_ark": "21198/zz001td3n9",
        "composite_number": "",
        "seal_number": "",
        "cdli_number": "P020425"
    },
    "from_cdli_archival_view": {
        "primary_publication": "TMH 05, 011",
        "author": "Pohl, Alfred",
        "publication_date": "1935",
        "secondary_publications": "A. Westenholz, ECTJ 11",
        "citation": "",
        "author_remarks": "",
        "published_collation": "",
        "cdli_number": "P020425",
        "ucla_library_ark": "21198/zz001td3n9",
        "cdli_comments": "",
        "catalogue": "20040921 krebernik_tmh5",
        "transliteration_remarks": "cdlistaff",
        "translation_remarks": "no translation",
        "owner": "Hilprecht Collection, University of Jena, Germany",
        "museum_number": "HS 0761",
        "accession_number": "",
        "acquisition_history": "",
        "genre": "Administrative",
        "sub_genre": "",
        "sub_genre_remarks": "---",
        "composite_number": "",
        "language": "Sumerian",
        "material": "clay",
        "object_remarks": "",
        "measurements_in_mm": "73.5 x 77 x 23",
        "object_preservation": "",
        "surface_preservation": "",
        "condition_description": "",
        "join_information": "",
        "seal_number": "",
        "seal_information": "",
        "provenience": "Nippur (mod. Nuffar)",
        "excavation_number": "",
        "findspot_square": "",
        "elevation": "",
        "stratigraphic_level": "",
        "findspot_remarks": "",
        "period": "ED IIIb (ca. 2500-2340 BC)",
        "period_remarks": "",
        "date_of_origin": "",
        "dates_referenced": "",
        "alternative_years": "",
        "accounting_period": "",
        "textual_content": "@Tablet\n@obverse \ncolumn 1 \n1. [x] ma2 1(gesz2@c) \n2. lugal#-ki-gal-la \n3. lugal-nig2-zu \n4. 1(gesz2@c) lugal-uszur3-mu \n5. lugal-nig2-bara4-du10 \n6. 1(gesz2@c) lugal-ur-sag \n7. dumu lugal-engar-du10 \n8. 1(gesz2@c) a-ba-mu-zu \n9. ur-{d}nusku# \n10. 1(gesz2@c) ne-sag \ncolumn 2 \n1. dumu [...] \n2. 1(gesz2@c) ad#?-da#? \n3. dumu lugal-an-na-tum2 \n4. ur-{d}nin-urta \n5. dumu lu:gal-ezem \n6. 1(gesz2@c) ad-da \n7. lu2 u5 \n8. amar-abzu \n9. 1(gesz2@c) ma2-gur8-si \n10. ur-ur \n11. iszib {d}tu \n12. 1(gesz2@c) {d}en-lil2-la2 \ncolumn 3 \n1. dumu ba6-ma-ma \n2. lu:gal-sipa \n3. TAR-si \n4. 1(gesz2@c) usz-bum \n5. dumu-gi7-ra \n6. lugal-GAN2 \n7. lugal-kar \n8. KAL-edin \n9. 1(gesz2@c) im-ta \n10. muhaldim gal \n11. 1(gesz2@c) ur-{d}en-lil2 \n@reverse \ncolumn 1 \n1. dumu-nita tur \n2. mu-ni-lal3 \n3. 1(gesz2@c) ur-{d}AB-si-sag \n4. ARAD-su2-ni \n5. 1(gesz2@c) ur-{d}szul-pa-e3 \n6. x-la \n7. 1(gesz2@c) giri3-ni \n8. nam-zi \n9. 1(gesz2@c) lugal-lu2 \n10. i-pi-i3-lum \ncolumn 2 \n1. 1(gesz2@c) masz-da5 \n2. 1(gesz2@c) isz-me-i3-lum \n3. {d}en-lil2-al-sa6 \n$ 1 line blank \n4. 1(gesz2@c) a#-ba#-{d}en-lil2 \n5. dumu-ni \n6. 1(gesz2@c) e2-da \n7. 1(gesz2@c) giri3-ni \n8. lugal-nig2-zu \n9. dumu ur-ur \n10. 1(gesz2@c) sag-KID2-ma \n11. lugal-sza3 \n12. sag sa10-a \ncolumn 3 \n1. 1(gesz2@c) ur-dam \n2. lugal-gub-ba-ni \n3. ad-da-be6# \n4. 1(gesz2@c) ad-da-gu-la \n5. ne-sag \n6. lugal-lu2 \n7. 1(gesz2@c) e2-sa6-ga \n8. nun-AG-AG \n9. HA-za-ambar-sur-ra \n$ 1 line blank \n10. [szu-nigin2] 2(u@c) 5(asz@c) ma2 1(gesz2@c) \n11. [...] x x [...] x x \n12. [...] x x ",
        "lineart_url": "https://cdli.ucla.edu/dl/tn_lineart/P020425_l.jpg",
        "photo_url": "https://cdli.ucla.edu/dl/tn_photo/P020425.jpg"
    },
    "from_gigamesh_info_program": {
        "filename": "HS_0761_GMOCF_r1.50_n4_v512",
        "model_id": "HS 0761",
        "model_material": "clay, original",
        "vertices_total": "1302279",
        "vertices_nan": "0",
        "vertices_solo": "0",
        "vertices_polyline": "0",
        "vertices_border": "0",
        "vertices_nonmanifold": "0",
        "vertices_on_inverted_edge": "0",
        "vertices_part_of_zero_face": "0",
        "vertices_synthetic": "0",
        "vertices_manual": "0",
        "vertices_circle_center": "0",
        "vertices_selected": "0",
        "vertices_funcval_finite": "1302279",
        "vertices_funcval_local_min": "36366",
        "vertices_funcval_local_max": "20520",
        "faces_total": "2604562",
        "faces_solo": "0",
        "faces_border": "0",
        "faces_border_dangling": "0",
        "faces_manifold": "2604562",
        "faces_nonmanifold": "0",
        "faces_sticky": "0",
        "faces_zeroarea": "0",
        "faces_inverted": "0",
        "faces_with_synth_vertices": "0",
        "boundingbox_min_x": "-38.3321",
        "boundingbox_min_y": "0",
        "boundingbox_min_z": "-11.7891",
        "boundingbox_max_x": "38.3321",
        "boundingbox_max_y": "73.2266",
        "boundingbox_max_z": "11.7891",
        "boundingbox_width": "7.7",
        "boundingbox_height": "7.3",
        "boundingbox_thick": "2.4",
        "total_area": "143.09",
        "total_volume_dx": "76863.2",
        "total_volume_dy": "76863.2",
        "total_volume_dz": "76863.2"
    }
}