{
    "from_gigamesh_info_file": {
        "filename": "HS_0114_GMOCF_r1.50_n4_v512.info.txt",
        "hs_number": "HS 0114",
        "radius_in_mm": "1.5",
        "count_of_radii": "16",
        "rastersize": "512^3",
        "gigamesh_version": "181005",
        "threads_used": "7",
        "input_filename": "HS_0114_GMOCF.ply",
        "output_filename": "HS_0114_GMOCF_r1.50_n4_v512",
        "radii": [
            1.0,
            0.94,
            0.88,
            0.81,
            0.75,
            0.69,
            0.62,
            0.56,
            0.5,
            0.44,
            0.38,
            0.31,
            0.25,
            0.19,
            0.12,
            0.06
        ],
        "model_id": "HS 0114",
        "material": "clay, original",
        "count_of_vertices": "4486839",
        "count_of_faces": "8973674",
        "bounding_box_in_cm": [
            9.0,
            7.7,
            3.7
        ],
        "area_in_cm2": "200.49",
        "volume_dx_in_cm3": "153.59",
        "volume_dy_in_cm3": "153.59",
        "volume_dz_in_cm3": "153.59",
        "processing_began_on": "Mon Dec  3 18:52:17 2018",
        "processing_finished_on": "Tue Dec  4 05:12:30 2018",
        "processing_wall_time_in_s": "37212"
    },
    "from_ply_filename": {
        "filename": "/export/data/vNGG/tmp/Hilprecht_Sammlung/04_MSII_filtered/HS_ALL_MSII_PLY/HS_0114_GMOCF_r1.50_n4_v512.ply",
        "hs_number": "HS 0114",
        "radius_in_mm": "1.50",
        "count_of_radii": 16,
        "rastersize": 512
    },
    "from_hilprecht3d": {
        "hs_number": "HS 0114",
        "tablet_url": "https://hilprecht.mpiwg-berlin.mpg.de/object3d/29947",
        "bibliography": "1958-59: Bernhard + Aro."
    },
    "from_gigamesh_info_program": {
        "filename": "HS_0114_GMOCF_r1.50_n4_v512",
        "model_id": "HS 0114",
        "model_material": "clay, original",
        "vertices_total": "4486839",
        "vertices_nan": "0",
        "vertices_solo": "0",
        "vertices_polyline": "0",
        "vertices_border": "0",
        "vertices_nonmanifold": "0",
        "vertices_on_inverted_edge": "0",
        "vertices_part_of_zero_face": "0",
        "vertices_synthetic": "0",
        "vertices_manual": "0",
        "vertices_circle_center": "0",
        "vertices_selected": "0",
        "vertices_funcval_finite": "4486839",
        "vertices_funcval_local_min": "101171",
        "vertices_funcval_local_max": "40899",
        "faces_total": "8973674",
        "faces_solo": "0",
        "faces_border": "0",
        "faces_border_dangling": "0",
        "faces_manifold": "8973674",
        "faces_nonmanifold": "0",
        "faces_sticky": "0",
        "faces_zeroarea": "0",
        "faces_inverted": "0",
        "faces_with_synth_vertices": "0",
        "boundingbox_min_x": "-44.9234",
        "boundingbox_min_y": "0",
        "boundingbox_min_z": "-18.468",
        "boundingbox_max_x": "44.9234",
        "boundingbox_max_y": "76.8469",
        "boundingbox_max_z": "18.468",
        "boundingbox_width": "9",
        "boundingbox_height": "7.7",
        "boundingbox_thick": "3.7",
        "total_area": "200.49",
        "total_volume_dx": "153594",
        "total_volume_dy": "153594",
        "total_volume_dz": "153594"
    }
}