{
    "from_gigamesh_info_file": {
        "filename": "HS_0956_GMOCF_r1.50_n4_v512.info.txt",
        "hs_number": "HS 0956",
        "radius_in_mm": "1.5",
        "count_of_radii": "16",
        "rastersize": "512^3",
        "gigamesh_version": "181128",
        "threads_used": "11",
        "input_filename": "HS_0956_GMOCF.ply",
        "output_filename": "HS_0956_GMOCF_r1.50_n4_v512",
        "radii": [
            1.0,
            0.94,
            0.88,
            0.81,
            0.75,
            0.69,
            0.62,
            0.56,
            0.5,
            0.44,
            0.38,
            0.31,
            0.25,
            0.19,
            0.12,
            0.06
        ],
        "model_id": "HS 0956",
        "material": "clay, original",
        "count_of_vertices": "339062",
        "count_of_faces": "678128",
        "bounding_box_in_cm": [
            4.0,
            5.1,
            2.0
        ],
        "area_in_cm2": "49.73",
        "volume_dx_in_cm3": "11.15",
        "volume_dy_in_cm3": "11.15",
        "volume_dz_in_cm3": "11.15",
        "processing_began_on": "Sun Dec  2 22:26:13 2018",
        "processing_finished_on": "Sun Dec  2 22:33:57 2018",
        "processing_wall_time_in_s": "464"
    },
    "from_ply_filename": {
        "filename": "/export/data/vNGG/tmp/Hilprecht_Sammlung/04_MSII_filtered/HS_ALL_MSII_PLY/HS_0956_GMOCF_r1.50_n4_v512.ply",
        "hs_number": "HS 0956",
        "radius_in_mm": "1.50",
        "count_of_radii": 16,
        "rastersize": 512
    },
    "from_hilprecht3d": {
        "hs_number": "HS 0956",
        "tablet_url": "https://hilprecht.mpiwg-berlin.mpg.de/object3d/30217",
        "bibliography": "1935: TMH 5, 206",
        "cdli_number": "300044"
    },
    "from_gigamesh_info_program": {
        "filename": "HS_0956_GMOCF_r1.50_n4_v512",
        "model_id": "HS 0956",
        "model_material": "clay, original",
        "vertices_total": "339062",
        "vertices_nan": "0",
        "vertices_solo": "0",
        "vertices_polyline": "0",
        "vertices_border": "0",
        "vertices_nonmanifold": "0",
        "vertices_on_inverted_edge": "0",
        "vertices_part_of_zero_face": "0",
        "vertices_synthetic": "0",
        "vertices_manual": "0",
        "vertices_circle_center": "0",
        "vertices_selected": "0",
        "vertices_funcval_finite": "339062",
        "vertices_funcval_local_min": "9376",
        "vertices_funcval_local_max": "5255",
        "faces_total": "678128",
        "faces_solo": "0",
        "faces_border": "0",
        "faces_border_dangling": "0",
        "faces_manifold": "678128",
        "faces_nonmanifold": "0",
        "faces_sticky": "0",
        "faces_zeroarea": "0",
        "faces_inverted": "0",
        "faces_with_synth_vertices": "0",
        "boundingbox_min_x": "-20.2188",
        "boundingbox_min_y": "0",
        "boundingbox_min_z": "-9.9468",
        "boundingbox_max_x": "20.2188",
        "boundingbox_max_y": "50.7545",
        "boundingbox_max_z": "9.9468",
        "boundingbox_width": "4",
        "boundingbox_height": "5.1",
        "boundingbox_thick": "2",
        "total_area": "49.73",
        "total_volume_dx": "11151.9",
        "total_volume_dy": "11151.9",
        "total_volume_dz": "11151.9"
    }
}