{
    "from_gigamesh_info_file": {
        "filename": "HS_0589_GMOCF_r1.50_n4_v512.info.txt",
        "hs_number": "HS 0589",
        "radius_in_mm": "1.5",
        "count_of_radii": "16",
        "rastersize": "512^3",
        "gigamesh_version": "181005",
        "threads_used": "7",
        "input_filename": "HS_0589_GMOCF.ply",
        "output_filename": "HS_0589_GMOCF_r1.50_n4_v512",
        "radii": [
            1.0,
            0.94,
            0.88,
            0.81,
            0.75,
            0.69,
            0.62,
            0.56,
            0.5,
            0.44,
            0.38,
            0.31,
            0.25,
            0.19,
            0.12,
            0.06
        ],
        "model_id": "HS 0589",
        "material": "clay, original",
        "count_of_vertices": "923230",
        "count_of_faces": "1846464",
        "bounding_box_in_cm": [
            9.3,
            4.2,
            3.1
        ],
        "area_in_cm2": "125.25",
        "volume_dx_in_cm3": "75.12",
        "volume_dy_in_cm3": "75.12",
        "volume_dz_in_cm3": "75.12",
        "processing_began_on": "Mon Dec  3 00:15:11 2018",
        "processing_finished_on": "Mon Dec  3 01:26:14 2018",
        "processing_wall_time_in_s": "4262"
    },
    "from_ply_filename": {
        "filename": "/export/data/vNGG/tmp/Hilprecht_Sammlung/04_MSII_filtered/HS_ALL_MSII_PLY/HS_0589_GMOCF_r1.50_n4_v512.ply",
        "hs_number": "HS 0589",
        "radius_in_mm": "1.50",
        "count_of_radii": 16,
        "rastersize": 512
    },
    "from_hilprecht3d": {
        "hs_number": "HS 0589",
        "tablet_url": "https://hilprecht.mpiwg-berlin.mpg.de/object3d/30123",
        "bibliography": "1933: TMH 2-3, 145"
    },
    "from_gigamesh_info_program": {
        "filename": "HS_0589_GMOCF_r1.50_n4_v512",
        "model_id": "HS 0589",
        "model_material": "clay, original",
        "vertices_total": "923230",
        "vertices_nan": "0",
        "vertices_solo": "0",
        "vertices_polyline": "0",
        "vertices_border": "0",
        "vertices_nonmanifold": "0",
        "vertices_on_inverted_edge": "0",
        "vertices_part_of_zero_face": "0",
        "vertices_synthetic": "278",
        "vertices_manual": "0",
        "vertices_circle_center": "0",
        "vertices_selected": "0",
        "vertices_funcval_finite": "923230",
        "vertices_funcval_local_min": "32030",
        "vertices_funcval_local_max": "18401",
        "faces_total": "1846464",
        "faces_solo": "0",
        "faces_border": "0",
        "faces_border_dangling": "0",
        "faces_manifold": "1846464",
        "faces_nonmanifold": "0",
        "faces_sticky": "0",
        "faces_zeroarea": "0",
        "faces_inverted": "0",
        "faces_with_synth_vertices": "446",
        "boundingbox_min_x": "-46.5014",
        "boundingbox_min_y": "0",
        "boundingbox_min_z": "-15.6831",
        "boundingbox_max_x": "46.5014",
        "boundingbox_max_y": "42.0148",
        "boundingbox_max_z": "15.6831",
        "boundingbox_width": "9.3",
        "boundingbox_height": "4.2",
        "boundingbox_thick": "3.1",
        "total_area": "125.25",
        "total_volume_dx": "75122.2",
        "total_volume_dy": "75122.2",
        "total_volume_dz": "75122.2"
    }
}