{
    "from_gigamesh_info_file": {
        "filename": "HS_1121_GMOCF_r1.50_n4_v512.info.txt",
        "hs_number": "HS 1121",
        "radius_in_mm": "1.5",
        "count_of_radii": "16",
        "rastersize": "512^3",
        "gigamesh_version": "181005",
        "threads_used": "7",
        "input_filename": "HS_1121_GMOCF.ply",
        "output_filename": "HS_1121_GMOCF_r1.50_n4_v512",
        "radii": [
            1.0,
            0.94,
            0.88,
            0.81,
            0.75,
            0.69,
            0.62,
            0.56,
            0.5,
            0.44,
            0.38,
            0.31,
            0.25,
            0.19,
            0.12,
            0.06
        ],
        "model_id": "HS 1121",
        "material": "clay, original",
        "count_of_vertices": "1609065",
        "count_of_faces": "3218126",
        "bounding_box_in_cm": [
            4.1,
            6.6,
            2.0
        ],
        "area_in_cm2": "77.71",
        "volume_dx_in_cm3": "34.27",
        "volume_dy_in_cm3": "34.27",
        "volume_dz_in_cm3": "34.27",
        "processing_began_on": "Fri Dec  7 23:46:34 2018",
        "processing_finished_on": "Sat Dec  8 03:14:56 2018",
        "processing_wall_time_in_s": "12501"
    },
    "from_ply_filename": {
        "filename": "/export/data/vNGG/tmp/Hilprecht_Sammlung/04_MSII_filtered/HS_ALL_MSII_PLY/HS_1121_GMOCF_r1.50_n4_v512.ply",
        "hs_number": "HS 1121",
        "radius_in_mm": "1.50",
        "count_of_radii": 16,
        "rastersize": 512
    },
    "from_hilprecht3d": {
        "hs_number": "HS 1121",
        "tablet_url": "https://hilprecht.mpiwg-berlin.mpg.de/object3d/30373",
        "bibliography": "1937: TMH NF 1-2, 121",
        "cdli_number": "134433"
    },
    "from_cdli_search_view": {
        "archival_view": "https://cdli.ucla.edu/search/archival_view.php?ObjectID=P134433",
        "primary_publication": "TMH NF 1-2, 121",
        "author": "Pohl, Alfred",
        "publication_date": "1937",
        "secondary_publication": "",
        "collection": "Hilprecht Collection, University of Jena, Germany",
        "museum_number": "HS 1121",
        "accession_number": "",
        "provenience": "Nippur (mod. Nuffar)",
        "excavation_number": "",
        "period": "Ur III (ca. 2100-2000 BC)",
        "dates_referenced": "00.00.05.17, 00.00.05.30, 00.00.06.25",
        "object_type": "tablet",
        "remarks": "",
        "material": "clay",
        "language": "Sumerian",
        "genre": "Administrative",
        "sub_genre": "",
        "cdli_comments": "",
        "catalogue_source": "20011220 ur3_catalogue",
        "atf_source": "cdlistaff",
        "translation": "no translation",
        "ucla_library_ark": "21198/zz001xqdqz",
        "composite_number": "",
        "seal_number": "",
        "cdli_number": "P134433"
    },
    "from_cdli_archival_view": {
        "primary_publication": "TMH NF 1-2, 121",
        "author": "Pohl, Alfred",
        "publication_date": "1937",
        "secondary_publications": "",
        "citation": "Waetzoldt, Hartmut, Compensation 120 n. 24",
        "author_remarks": "",
        "published_collation": "OrAnt 15, 320 + 326",
        "cdli_number": "P134433",
        "ucla_library_ark": "21198/zz001xqdqz",
        "cdli_comments": "",
        "catalogue": "20011220 ur3_catalogue",
        "transliteration_remarks": "cdlistaff",
        "translation_remarks": "no translation",
        "owner": "Hilprecht Collection, University of Jena, Germany",
        "museum_number": "HS 1121",
        "accession_number": "",
        "acquisition_history": "",
        "genre": "Administrative",
        "sub_genre": "",
        "sub_genre_remarks": "",
        "composite_number": "",
        "language": "Sumerian",
        "material": "clay",
        "object_remarks": "",
        "measurements_in_mm": "? x ? x ?",
        "object_preservation": "",
        "surface_preservation": "",
        "condition_description": "",
        "join_information": "",
        "seal_number": "",
        "seal_information": "",
        "provenience": "Nippur (mod. Nuffar)",
        "excavation_number": "",
        "findspot_square": "",
        "elevation": "",
        "stratigraphic_level": "",
        "findspot_remarks": "",
        "period": "Ur III (ca. 2100-2000 BC)",
        "period_remarks": "",
        "date_of_origin": "00.00.06.25",
        "dates_referenced": "00.00.05.17, 00.00.05.30, 00.00.06.25",
        "alternative_years": "",
        "accounting_period": "00.00.05.17 to 00.00.06.25",
        "textual_content": "@Tablet\n@obverse \n1. 2(ban2) nig2-ar3-ra 1(ban2) 2(disz) sila3 munu4 \n2. 1(ban2) zi3-gu 1(ban2) 4(disz) sila3 dabin \n3. 6(disz) sila3 zi3 gazx(KUM) sag ninda-sze3 \n4. 1(disz) sila3 zi3 sig15 ninda i3 de2-a \n5. 2(disz) sila3 ar-za-na \n6. 2(disz) sila3 sze ku6-sze3 \n7. giri3 ezem-{d}li9-si4-na \n8. 2(disz) ad-kup4 u4 6(disz)-sze3 [...] \n9. a2-bi 5(disz) sila3-ta# [...] \n10. sza3-gal-bi 4(disz) sila3-ta \n11. sze-bi 1(barig) 2(ban2) 4(disz) sila3 \n12. 1(ban2) 5(disz) sila3 nig2-sa10 gi SZIM \n13. 1(ban2) zi3 sig15 2(disz) sila3 esza \n14. 1(barig) kasz sze-bi 1(ban2) n 4(disz) sila3 \n@reverse \n1. {d}dam-gal-nun#-[na] \n2. 3(disz) sila3 zi3 sig15 2(disz) sila3 [...] \n3. 1(disz) sila3 zi3 dub-dub 3(disz) sila3 nig2#-ar3#-ra-bi \n4. 4(disz) sila3 sze nig2-sa10 gi \n5. ur3-sze3 u3 sza3 e2-a \n6. nig2-ezem NE-NE-gar-ra \n7. 3(disz) sila3 zi3-gu 3(disz) sila3 dabin \n8. nig2 se3-ga e2-u4 1(u) 5(disz) \n9. 6(disz) sila3 sze nig2-sa10 gi ma-sim zi3-gu \n10. iti NE-NE-gar-ra u4 1(u) 7(disz) zal-la-ta \n11. u4 3(u) zal-la-sze3 1(disz) sila3 zi3-gu 2(disz) sila3 dabin-ta \n12. sze-bi 3(ban2) 2(disz) sila3 \n13. iti NE-NE-gar u4 3(u) zal-la-ta \n14. iti kin-{d}inanna u4 2(u) 5(disz) zal-la \n15. 2(disz) sila3 zi3-gu 2(disz) sila3 dabin-sze3-ta \n@left \ncolumn 1 \n1. sze-bi 2(barig) 4(ban2) \n2. 3(u) 1(disz) 8(disz) sila3 sze ku6 \n3. x \n4. 3(u) 1(disz) 4(disz) sila3 nig2-ar3-ra \n5. 3(u) 1(disz) 1(ban2) zi3 a-gar-sze3 \ncolumn 2 \n1. ba-zi \n2. iti NE-NE-gar ",
        "lineart_url": "https://cdli.ucla.edu/dl/tn_lineart/P134433_l.jpg",
        "photo_url": "https://cdli.ucla.edu/dl/tn_photo/P134433.jpg"
    },
    "from_gigamesh_info_program": {
        "filename": "HS_1121_GMOCF_r1.50_n4_v512",
        "model_id": "HS 1121",
        "model_material": "clay, original",
        "vertices_total": "1609065",
        "vertices_nan": "0",
        "vertices_solo": "0",
        "vertices_polyline": "0",
        "vertices_border": "0",
        "vertices_nonmanifold": "0",
        "vertices_on_inverted_edge": "0",
        "vertices_part_of_zero_face": "0",
        "vertices_synthetic": "0",
        "vertices_manual": "0",
        "vertices_circle_center": "0",
        "vertices_selected": "0",
        "vertices_funcval_finite": "1609065",
        "vertices_funcval_local_min": "33944",
        "vertices_funcval_local_max": "12547",
        "faces_total": "3218126",
        "faces_solo": "0",
        "faces_border": "0",
        "faces_border_dangling": "0",
        "faces_manifold": "3218126",
        "faces_nonmanifold": "0",
        "faces_sticky": "0",
        "faces_zeroarea": "0",
        "faces_inverted": "0",
        "faces_with_synth_vertices": "0",
        "boundingbox_min_x": "-20.7098",
        "boundingbox_min_y": "0",
        "boundingbox_min_z": "-9.9372",
        "boundingbox_max_x": "20.7098",
        "boundingbox_max_y": "65.8657",
        "boundingbox_max_z": "9.9372",
        "boundingbox_width": "4.1",
        "boundingbox_height": "6.6",
        "boundingbox_thick": "2",
        "total_area": "77.71",
        "total_volume_dx": "34268.3",
        "total_volume_dy": "34268.3",
        "total_volume_dz": "34268.3"
    }
}