{
    "from_gigamesh_info_file": {
        "filename": "HS_1263_GMOCF_r1.50_n4_v512.info.txt",
        "hs_number": "HS 1263",
        "radius_in_mm": "1.5",
        "count_of_radii": "16",
        "rastersize": "512^3",
        "gigamesh_version": "181204",
        "threads_used": "11",
        "input_filename": "HS_1263_GMOCF.ply",
        "output_filename": "HS_1263_GMOCF_r1.50_n4_v512",
        "radii": [
            1.0,
            0.94,
            0.88,
            0.81,
            0.75,
            0.69,
            0.62,
            0.56,
            0.5,
            0.44,
            0.38,
            0.31,
            0.25,
            0.19,
            0.12,
            0.06
        ],
        "model_id": "HS 1263",
        "material": "clay, original",
        "count_of_vertices": "1689576",
        "count_of_faces": "3379148",
        "bounding_box_in_cm": [
            4.4,
            7.3,
            1.9
        ],
        "area_in_cm2": "84.08",
        "volume_dx_in_cm3": "38.66",
        "volume_dy_in_cm3": "38.66",
        "volume_dz_in_cm3": "38.66",
        "processing_began_on": "Thu Dec  6 14:04:27 2018",
        "processing_finished_on": "Thu Dec  6 15:16:52 2018",
        "processing_wall_time_in_s": "4345"
    },
    "from_ply_filename": {
        "filename": "/export/data/vNGG/tmp/Hilprecht_Sammlung/04_MSII_filtered/HS_ALL_MSII_PLY/HS_1263_GMOCF_r1.50_n4_v512.ply",
        "hs_number": "HS 1263",
        "radius_in_mm": "1.50",
        "count_of_radii": 16,
        "rastersize": 512
    },
    "from_hilprecht3d": {
        "hs_number": "HS 1263",
        "tablet_url": "https://hilprecht.mpiwg-berlin.mpg.de/object3d/30525",
        "bibliography": "1937: TMH NF 1-2, 263",
        "cdli_number": "134574"
    },
    "from_cdli_search_view": {
        "archival_view": "https://cdli.ucla.edu/search/archival_view.php?ObjectID=P134574",
        "primary_publication": "TMH NF 1-2, 263",
        "author": "Pohl, Alfred",
        "publication_date": "1937",
        "secondary_publication": "",
        "collection": "Hilprecht Collection, University of Jena, Germany",
        "museum_number": "HS 1263",
        "accession_number": "",
        "provenience": "Nippur (mod. Nuffar)",
        "excavation_number": "",
        "period": "Ur III (ca. 2100-2000 BC)",
        "dates_referenced": "\u0160\u016b-Suen.01.04.30",
        "object_type": "tablet",
        "remarks": "",
        "material": "clay",
        "language": "Sumerian",
        "genre": "Administrative",
        "sub_genre": "",
        "cdli_comments": "",
        "catalogue_source": "20011220 ur3_catalogue",
        "atf_source": "cdlistaff",
        "translation": "no translation",
        "ucla_library_ark": "21198/zz001rps7h",
        "composite_number": "",
        "seal_number": "",
        "cdli_number": "P134574"
    },
    "from_cdli_archival_view": {
        "primary_publication": "TMH NF 1-2, 263",
        "author": "Pohl, Alfred",
        "publication_date": "1937",
        "secondary_publications": "",
        "citation": "",
        "author_remarks": "",
        "published_collation": "OrAnt 15, 322",
        "cdli_number": "P134574",
        "ucla_library_ark": "21198/zz001rps7h",
        "cdli_comments": "",
        "catalogue": "20011220 ur3_catalogue",
        "transliteration_remarks": "cdlistaff",
        "translation_remarks": "no translation",
        "owner": "Hilprecht Collection, University of Jena, Germany",
        "museum_number": "HS 1263",
        "accession_number": "",
        "acquisition_history": "",
        "genre": "Administrative",
        "sub_genre": "",
        "sub_genre_remarks": "",
        "composite_number": "",
        "language": "Sumerian",
        "material": "clay",
        "object_remarks": "",
        "measurements_in_mm": "? x ? x ?",
        "object_preservation": "",
        "surface_preservation": "",
        "condition_description": "",
        "join_information": "",
        "seal_number": "",
        "seal_information": "",
        "provenience": "Nippur (mod. Nuffar)",
        "excavation_number": "",
        "findspot_square": "",
        "elevation": "",
        "stratigraphic_level": "",
        "findspot_remarks": "",
        "period": "Ur III (ca. 2100-2000 BC)",
        "period_remarks": "",
        "date_of_origin": "\u0160\u016b-Suen.01.04.30",
        "dates_referenced": "\u0160\u016b-Suen.01.04.30",
        "alternative_years": "",
        "accounting_period": "",
        "textual_content": "@Tablet\n@obverse \n1. 8(disz) udu 2(disz) [x] \n2. 2(disz) 2/3(disz) sila3 5(disz) gin2 i3-nun \n3. 2/3(disz) sila3 ga-ar3 \n4. 5(ban2) 1(disz) sila3 zu2-lum \n5. 2(barig) 5(ban2) [...] 4(disz) sila3 zi3# sig15# \n6. 5(ban2) [...] esza# \n7. 2(asz) 1(barig) 2(ban2) 4(disz) sila3 dabin gur \n8. 2(asz) 3(ban2) 5(disz) sila3 kasz du gur \n9. ba-zi \n@reverse \n1. sza3 uri5{ki} \n2. giri3 nin-he2-x-[x] \n3. iti szu-numun-a \n4. u4 3(u) ba-zal \n5. mu {d}szu-{d}suen lugal \n$ blank space ",
        "lineart_url": "https://cdli.ucla.edu/dl/tn_lineart/P134574_l.jpg",
        "photo_url": "https://cdli.ucla.edu/dl/tn_photo/P134574.jpg"
    },
    "from_gigamesh_info_program": {
        "filename": "HS_1263_GMOCF_r1.50_n4_v512",
        "model_id": "HS 1263",
        "model_material": "clay, original",
        "vertices_total": "1689576",
        "vertices_nan": "0",
        "vertices_solo": "0",
        "vertices_polyline": "0",
        "vertices_border": "0",
        "vertices_nonmanifold": "0",
        "vertices_on_inverted_edge": "0",
        "vertices_part_of_zero_face": "0",
        "vertices_synthetic": "0",
        "vertices_manual": "0",
        "vertices_circle_center": "0",
        "vertices_selected": "0",
        "vertices_funcval_finite": "1689576",
        "vertices_funcval_local_min": "38128",
        "vertices_funcval_local_max": "19551",
        "faces_total": "3379148",
        "faces_solo": "0",
        "faces_border": "0",
        "faces_border_dangling": "0",
        "faces_manifold": "3379148",
        "faces_nonmanifold": "0",
        "faces_sticky": "0",
        "faces_zeroarea": "0",
        "faces_inverted": "0",
        "faces_with_synth_vertices": "0",
        "boundingbox_min_x": "-22.1207",
        "boundingbox_min_y": "0",
        "boundingbox_min_z": "-9.6236",
        "boundingbox_max_x": "22.1207",
        "boundingbox_max_y": "72.6068",
        "boundingbox_max_z": "9.6236",
        "boundingbox_width": "4.4",
        "boundingbox_height": "7.3",
        "boundingbox_thick": "1.9",
        "total_area": "84.08",
        "total_volume_dx": "38663.7",
        "total_volume_dy": "38663.7",
        "total_volume_dz": "38663.7"
    }
}