{
    "from_gigamesh_info_file": {
        "filename": "HS_1480_GMOCF_r1.50_n4_v512.info.txt",
        "hs_number": "HS 1480",
        "radius_in_mm": "1.5",
        "count_of_radii": "16",
        "rastersize": "512^3",
        "input_filename": "HS_1480_GMOCF.ply",
        "output_filename": "HS_1480_GMOCF_r1.50_n4_v512",
        "radii": [
            1.0,
            0.94,
            0.88,
            0.81,
            0.75,
            0.69,
            0.62,
            0.56,
            0.5,
            0.44,
            0.38,
            0.31,
            0.25,
            0.19,
            0.12,
            0.06
        ],
        "model_id": "HS 1480",
        "material": "clay, original",
        "count_of_vertices": "4534168",
        "count_of_faces": "9068344",
        "bounding_box_in_cm": [
            13.3,
            18.6,
            3.9
        ],
        "area_in_cm2": "580.12",
        "volume_dx_in_cm3": "519.74",
        "volume_dy_in_cm3": "519.74",
        "volume_dz_in_cm3": "519.74",
        "processing_began_on": "Fri Dec  7 13:50:42 2018",
        "processing_finished_on": "Fri Dec  7 14:25:49 2018",
        "processing_wall_time_in_s": "2103"
    },
    "from_ply_filename": {
        "filename": "/export/data/vNGG/tmp/Hilprecht_Sammlung/04_MSII_filtered/HS_ALL_MSII_PLY/HS_1480_GMOCF_r1.50_n4_v512.ply",
        "hs_number": "HS 1480",
        "radius_in_mm": "1.50",
        "count_of_radii": 16,
        "rastersize": 512
    },
    "from_hilprecht3d": {
        "hs_number": "HS 1480",
        "tablet_url": "https://hilprecht.mpiwg-berlin.mpg.de/object3d/30739",
        "bibliography": "1955-56: Bernhardt + Kramer. \u2013 1961: TMHNF 3, 2. \u2013 1976: Wilcke, KSLT, S. 13."
    },
    "from_gigamesh_info_program": {
        "filename": "HS_1480_GMOCF_r1.50_n4_v512",
        "model_id": "HS 1480",
        "model_material": "clay, original",
        "vertices_total": "4534168",
        "vertices_nan": "0",
        "vertices_solo": "0",
        "vertices_polyline": "0",
        "vertices_border": "0",
        "vertices_nonmanifold": "0",
        "vertices_on_inverted_edge": "0",
        "vertices_part_of_zero_face": "0",
        "vertices_synthetic": "1",
        "vertices_manual": "0",
        "vertices_circle_center": "0",
        "vertices_selected": "1",
        "vertices_funcval_finite": "4534168",
        "vertices_funcval_local_min": "135078",
        "vertices_funcval_local_max": "57742",
        "faces_total": "9068344",
        "faces_solo": "0",
        "faces_border": "0",
        "faces_border_dangling": "0",
        "faces_manifold": "9068344",
        "faces_nonmanifold": "0",
        "faces_sticky": "0",
        "faces_zeroarea": "0",
        "faces_inverted": "0",
        "faces_with_synth_vertices": "0",
        "boundingbox_min_x": "-66.3815",
        "boundingbox_min_y": "0",
        "boundingbox_min_z": "-19.4216",
        "boundingbox_max_x": "66.3815",
        "boundingbox_max_y": "186.119",
        "boundingbox_max_z": "19.4216",
        "boundingbox_width": "13.3",
        "boundingbox_height": "18.6",
        "boundingbox_thick": "3.9",
        "total_area": "580.12",
        "total_volume_dx": "519741",
        "total_volume_dy": "519741",
        "total_volume_dz": "519741"
    }
}