{
    "from_gigamesh_info_file": {
        "filename": "HS_1654_GMOCF_r1.50_n4_v512.info.txt",
        "hs_number": "HS 1654",
        "radius_in_mm": "1.5",
        "count_of_radii": "16",
        "rastersize": "512^3",
        "input_filename": "HS_1654_GMOCF.ply",
        "output_filename": "HS_1654_GMOCF_r1.50_n4_v512",
        "radii": [
            1.0,
            0.94,
            0.88,
            0.81,
            0.75,
            0.69,
            0.62,
            0.56,
            0.5,
            0.44,
            0.38,
            0.31,
            0.25,
            0.19,
            0.12,
            0.06
        ],
        "model_id": "HS 1654",
        "material": "clay, original",
        "count_of_vertices": "4120734",
        "count_of_faces": "8241464",
        "bounding_box_in_cm": [
            10.3,
            7.0,
            3.0
        ],
        "area_in_cm2": "162.92",
        "volume_dx_in_cm3": "108.88",
        "volume_dy_in_cm3": "108.88",
        "volume_dz_in_cm3": "108.88",
        "processing_began_on": "Sun Dec  9 21:16:58 2018",
        "processing_finished_on": "Sun Dec  9 22:00:31 2018",
        "processing_wall_time_in_s": "2612"
    },
    "from_ply_filename": {
        "filename": "/export/data/vNGG/tmp/Hilprecht_Sammlung/04_MSII_filtered/HS_ALL_MSII_PLY/HS_1654_GMOCF_r1.50_n4_v512.ply",
        "hs_number": "HS 1654",
        "radius_in_mm": "1.50",
        "count_of_radii": 16,
        "rastersize": 512
    },
    "from_hilprecht3d": {
        "hs_number": "HS 1654",
        "tablet_url": "https://hilprecht.mpiwg-berlin.mpg.de/object3d/30869",
        "bibliography": ""
    },
    "from_cdli_search_view": {
        "archival_view": "https://cdli.ucla.edu/search/archival_view.php?ObjectID=P229789",
        "primary_publication": "unpublished unassigned ?",
        "author": "nn",
        "publication_date": "nd",
        "secondary_publication": "",
        "collection": "Hilprecht Collection, University of Jena, Germany",
        "museum_number": "HS 1654",
        "accession_number": "",
        "provenience": "Nippur (mod. Nuffar) ?",
        "excavation_number": "",
        "period": "Old Babylonian (ca. 1900-1600 BC)",
        "dates_referenced": "",
        "object_type": "tablet",
        "remarks": "",
        "material": "clay",
        "language": "Sumerian",
        "genre": "Lexical",
        "sub_genre": "Obv: OB Hh4  (stones, plants, fish, birds, clothing: Hh 16-19); Rev: OB Hh3  (an",
        "cdli_comments": "",
        "catalogue_source": "20030911 veldhuis_nippurlexical",
        "atf_source": "Veldhuis, Niek (dcclt)",
        "translation": "no translation",
        "ucla_library_ark": "21198/zz001rd2dc",
        "composite_number": "<a target=\"_blank\" href = \"search_results.php?CompositeNumber=Q000001\">Q000001</a> (<a target=\"_blank\" href = \"http://cdli.ucla.edu/tools/scores/Q000001.html\">score</a>) ",
        "seal_number": "",
        "cdli_number": "P229789"
    },
    "from_cdli_archival_view": {
        "primary_publication": "unpublished unassigned ?",
        "author": "nn",
        "publication_date": "nd",
        "secondary_publications": "",
        "citation": "",
        "author_remarks": "",
        "published_collation": "",
        "cdli_number": "P229789",
        "ucla_library_ark": "21198/zz001rd2dc",
        "cdli_comments": "",
        "catalogue": "20030911 veldhuis_nippurlexical",
        "transliteration_remarks": "Veldhuis, Niek (dcclt)",
        "translation_remarks": "no translation",
        "owner": "Hilprecht Collection, University of Jena, Germany",
        "museum_number": "HS 1654",
        "accession_number": "",
        "acquisition_history": "",
        "genre": "Lexical",
        "sub_genre": "Obv: OB Hh4  (stones, plants, fish, birds, clothing: Hh 16-19); Rev: OB Hh3  (an",
        "sub_genre_remarks": "Upper right corner of type II tablet. Obverse, traces, most probably birds (parts of mu#en visible 2x). Reverse UDU. Very dirty. Small and good writing.",
        "composite_number": "Q000001",
        "language": "Sumerian",
        "material": "clay",
        "object_remarks": "",
        "measurements_in_mm": "? x ? x ?",
        "object_preservation": "",
        "surface_preservation": "",
        "condition_description": "",
        "join_information": "",
        "seal_number": "",
        "seal_information": "",
        "provenience": "Nippur (mod. Nuffar) ?",
        "excavation_number": "",
        "findspot_square": "",
        "elevation": "",
        "stratigraphic_level": "",
        "findspot_remarks": "",
        "period": "Old Babylonian (ca. 1900-1600 BC)",
        "period_remarks": "",
        "date_of_origin": "",
        "dates_referenced": "",
        "alternative_years": "",
        "accounting_period": "",
        "textual_content": "@Tablet\n@reverse\ncolumn 1\n1'. udu kur-[...]\n&gt;&gt;A 21\n2'. udu HI-gi-[...]\n&gt;&gt;A 22\n3'. udu dingir-e gu7-[...]\n&gt;&gt;A 23\n4'. udu ur-mah-e gu7-[...]\n&gt;&gt;A 24\n5'. udu ur-bar-ra gu7-[...]\n&gt;&gt;A 25\n6'. udu gag szub-ba\n&gt;&gt;A 27\n7'. udu ur5 szub-ba\n&gt;&gt;A 28\n8'. udu ga szub-ba\n&gt;&gt;A 29\n9'. udu ib2 gig\n&gt;&gt;A 30\n10'. udu szag4 an-sur#\n&gt;&gt;A 31\n11'. udu du7-[...]\n&gt;&gt;A 32\n12'. udu gur4-[...]\n&gt;&gt;A 33\n13'. udu ur3#-[...]\n&gt;&gt;A 34\ncolumn 2\n1'. [...] gaba#\n&gt;&gt;A 58\n2'. [...]-ri#-a\n&gt;&gt;A 59\n3'. [...] duh#-a\n&gt;&gt;A 60\n4'. [...]-ri#-a\n&gt;&gt;A 61\n5'. [...] za3# [...]-ri#-a\n&gt;&gt;A 62\n6'. udu bala za3 [...]-ri-a\n&gt;&gt;A 63\n7'. udu ri-ri-a\n&gt;&gt;A 64\n8'. udu si-si-ga\n&gt;&gt;A 65\n9'. udu a-ak\n&gt;&gt;A 66\n10'. udu lipisz\n&gt;&gt;A 67\ncolumn 3\n1'. udu [...]\n2'. udu [...]\n3'. udu [...]-ansze\n&gt;&gt;A 100\n4'. [...] babbar\n&gt;&gt;A 101\n5'. [...] kukku5\n&gt;&gt;A 102"
    },
    "from_gigamesh_info_program": {
        "filename": "HS_1654_GMOCF_r1.50_n4_v512",
        "model_id": "HS 1654",
        "model_material": "clay, original",
        "vertices_total": "4120734",
        "vertices_nan": "0",
        "vertices_solo": "0",
        "vertices_polyline": "0",
        "vertices_border": "0",
        "vertices_nonmanifold": "0",
        "vertices_on_inverted_edge": "0",
        "vertices_part_of_zero_face": "0",
        "vertices_synthetic": "267",
        "vertices_manual": "0",
        "vertices_circle_center": "0",
        "vertices_selected": "267",
        "vertices_funcval_finite": "4120734",
        "vertices_funcval_local_min": "106148",
        "vertices_funcval_local_max": "57909",
        "faces_total": "8241464",
        "faces_solo": "0",
        "faces_border": "0",
        "faces_border_dangling": "0",
        "faces_manifold": "8241464",
        "faces_nonmanifold": "0",
        "faces_sticky": "0",
        "faces_zeroarea": "0",
        "faces_inverted": "0",
        "faces_with_synth_vertices": "337",
        "boundingbox_min_x": "-51.6933",
        "boundingbox_min_y": "0",
        "boundingbox_min_z": "-14.9006",
        "boundingbox_max_x": "51.6933",
        "boundingbox_max_y": "69.7755",
        "boundingbox_max_z": "14.9006",
        "boundingbox_width": "10.3",
        "boundingbox_height": "7",
        "boundingbox_thick": "3",
        "total_area": "162.92",
        "total_volume_dx": "108883",
        "total_volume_dy": "108883",
        "total_volume_dz": "108883"
    }
}