{
    "from_gigamesh_info_file": {
        "filename": "HS_1166_GMOCF_r1.50_n4_v512.info.txt",
        "hs_number": "HS 1166",
        "radius_in_mm": "1.5",
        "count_of_radii": "16",
        "rastersize": "512^3",
        "gigamesh_version": "181204",
        "threads_used": "11",
        "input_filename": "HS_1166_GMOCF.ply",
        "output_filename": "HS_1166_GMOCF_r1.50_n4_v512",
        "radii": [
            1.0,
            0.94,
            0.88,
            0.81,
            0.75,
            0.69,
            0.62,
            0.56,
            0.5,
            0.44,
            0.38,
            0.31,
            0.25,
            0.19,
            0.12,
            0.06
        ],
        "model_id": "HS 1166",
        "material": "clay, original",
        "count_of_vertices": "826009",
        "count_of_faces": "1652014",
        "bounding_box_in_cm": [
            3.4,
            3.6,
            1.6
        ],
        "area_in_cm2": "38.14",
        "volume_dx_in_cm3": "11.50",
        "volume_dy_in_cm3": "11.50",
        "volume_dz_in_cm3": "11.50",
        "processing_began_on": "Thu Dec  6 19:19:53 2018",
        "processing_finished_on": "Thu Dec  6 19:55:04 2018",
        "processing_wall_time_in_s": "2111"
    },
    "from_ply_filename": {
        "filename": "/export/data/vNGG/tmp/Hilprecht_Sammlung/04_MSII_filtered/HS_ALL_MSII_PLY/HS_1166_GMOCF_r1.50_n4_v512.ply",
        "hs_number": "HS 1166",
        "radius_in_mm": "1.50",
        "count_of_radii": 16,
        "rastersize": 512
    },
    "from_hilprecht3d": {
        "hs_number": "HS 1166",
        "tablet_url": "https://hilprecht.mpiwg-berlin.mpg.de/object3d/30419",
        "bibliography": "1937: TMH NF 1-2, 166",
        "cdli_number": "134477"
    },
    "from_cdli_search_view": {
        "archival_view": "https://cdli.ucla.edu/search/archival_view.php?ObjectID=P134477",
        "primary_publication": "TMH NF 1-2, 166",
        "author": "Pohl, Alfred",
        "publication_date": "1937",
        "secondary_publication": "",
        "collection": "Hilprecht Collection, University of Jena, Germany",
        "museum_number": "HS 1166",
        "accession_number": "",
        "provenience": "Nippur (mod. Nuffar)",
        "excavation_number": "",
        "period": "Ur III (ca. 2100-2000 BC)",
        "dates_referenced": "Amar-Suen.09.02.00",
        "object_type": "tablet",
        "remarks": "",
        "material": "clay",
        "language": "Sumerian",
        "genre": "Administrative",
        "sub_genre": "",
        "cdli_comments": "",
        "catalogue_source": "20011220 ur3_catalogue",
        "atf_source": "cdlistaff",
        "translation": "no translation",
        "ucla_library_ark": "21198/zz001z2cgr",
        "composite_number": "",
        "seal_number": "",
        "cdli_number": "P134477"
    },
    "from_cdli_archival_view": {
        "primary_publication": "TMH NF 1-2, 166",
        "author": "Pohl, Alfred",
        "publication_date": "1937",
        "secondary_publications": "",
        "citation": "",
        "author_remarks": "",
        "published_collation": "OrAnt 15, 321",
        "cdli_number": "P134477",
        "ucla_library_ark": "21198/zz001z2cgr",
        "cdli_comments": "",
        "catalogue": "20011220 ur3_catalogue",
        "transliteration_remarks": "cdlistaff",
        "translation_remarks": "no translation",
        "owner": "Hilprecht Collection, University of Jena, Germany",
        "museum_number": "HS 1166",
        "accession_number": "",
        "acquisition_history": "",
        "genre": "Administrative",
        "sub_genre": "",
        "sub_genre_remarks": "",
        "composite_number": "",
        "language": "Sumerian",
        "material": "clay",
        "object_remarks": "",
        "measurements_in_mm": "? x ? x ?",
        "object_preservation": "",
        "surface_preservation": "",
        "condition_description": "",
        "join_information": "",
        "seal_number": "",
        "seal_information": "",
        "provenience": "Nippur (mod. Nuffar)",
        "excavation_number": "",
        "findspot_square": "",
        "elevation": "",
        "stratigraphic_level": "",
        "findspot_remarks": "",
        "period": "Ur III (ca. 2100-2000 BC)",
        "period_remarks": "",
        "date_of_origin": "Amar-Suen.09.02.00",
        "dates_referenced": "Amar-Suen.09.02.00",
        "alternative_years": "",
        "accounting_period": "",
        "textual_content": "@Tablet\n@obverse \n1. [...] u4 1(disz)-sze3 \n2. [...] ib2#-ur3 \n3. [...] he2-ri-ri \n4. [...] mi-ri2-za?(A) \n5. [...] ur#-{d}da-mu \n@reverse \n1. zi3 gur8? {d#}[...] \n2. ki lugal-[...]-re-ta \n3. ba-zi iti gu4-si-su \n4. mu en ga-esz{ki} ba-hun ",
        "lineart_url": "https://cdli.ucla.edu/dl/tn_lineart/P134477_l.jpg",
        "photo_url": "https://cdli.ucla.edu/dl/tn_photo/P134477.jpg"
    },
    "from_gigamesh_info_program": {
        "filename": "HS_1166_GMOCF_r1.50_n4_v512",
        "model_id": "HS 1166",
        "model_material": "clay, original",
        "vertices_total": "826009",
        "vertices_nan": "0",
        "vertices_solo": "0",
        "vertices_polyline": "0",
        "vertices_border": "0",
        "vertices_nonmanifold": "0",
        "vertices_on_inverted_edge": "0",
        "vertices_part_of_zero_face": "0",
        "vertices_synthetic": "0",
        "vertices_manual": "0",
        "vertices_circle_center": "0",
        "vertices_selected": "0",
        "vertices_funcval_finite": "826009",
        "vertices_funcval_local_min": "16135",
        "vertices_funcval_local_max": "7352",
        "faces_total": "1652014",
        "faces_solo": "0",
        "faces_border": "0",
        "faces_border_dangling": "0",
        "faces_manifold": "1652014",
        "faces_nonmanifold": "0",
        "faces_sticky": "0",
        "faces_zeroarea": "0",
        "faces_inverted": "0",
        "faces_with_synth_vertices": "0",
        "boundingbox_min_x": "-16.9797",
        "boundingbox_min_y": "0",
        "boundingbox_min_z": "-7.7758",
        "boundingbox_max_x": "16.9797",
        "boundingbox_max_y": "36.0894",
        "boundingbox_max_z": "7.7758",
        "boundingbox_width": "3.4",
        "boundingbox_height": "3.6",
        "boundingbox_thick": "1.6",
        "total_area": "38.14",
        "total_volume_dx": "11496.8",
        "total_volume_dy": "11496.8",
        "total_volume_dz": "11496.8"
    }
}