{
    "from_gigamesh_info_file": {
        "filename": "HS_1191_GMOCF_r1.50_n4_v512.info.txt",
        "hs_number": "HS 1191",
        "radius_in_mm": "1.5",
        "count_of_radii": "16",
        "rastersize": "512^3",
        "gigamesh_version": "181005",
        "threads_used": "7",
        "input_filename": "HS_1191_GMOCF.ply",
        "output_filename": "HS_1191_GMOCF_r1.50_n4_v512",
        "radii": [
            1.0,
            0.94,
            0.88,
            0.81,
            0.75,
            0.69,
            0.62,
            0.56,
            0.5,
            0.44,
            0.38,
            0.31,
            0.25,
            0.19,
            0.12,
            0.06
        ],
        "model_id": "HS 1191",
        "material": "clay, original",
        "count_of_vertices": "615592",
        "count_of_faces": "1231180",
        "bounding_box_in_cm": [
            3.1,
            3.3,
            1.7
        ],
        "area_in_cm2": "30.86",
        "volume_dx_in_cm3": "11.23",
        "volume_dy_in_cm3": "11.23",
        "volume_dz_in_cm3": "11.23",
        "processing_began_on": "Wed Dec  5 22:58:50 2018",
        "processing_finished_on": "Thu Dec  6 00:17:52 2018",
        "processing_wall_time_in_s": "4742"
    },
    "from_ply_filename": {
        "filename": "/export/data/vNGG/tmp/Hilprecht_Sammlung/04_MSII_filtered/HS_ALL_MSII_PLY/HS_1191_GMOCF_r1.50_n4_v512.ply",
        "hs_number": "HS 1191",
        "radius_in_mm": "1.50",
        "count_of_radii": 16,
        "rastersize": 512
    },
    "from_hilprecht3d": {
        "hs_number": "HS 1191",
        "tablet_url": "https://hilprecht.mpiwg-berlin.mpg.de/object3d/30444",
        "bibliography": "1937: TMH NF 1-2, 191",
        "cdli_number": "134502"
    },
    "from_cdli_search_view": {
        "archival_view": "https://cdli.ucla.edu/search/archival_view.php?ObjectID=P134502",
        "primary_publication": "TMH NF 1-2, 191",
        "author": "Pohl, Alfred",
        "publication_date": "1937",
        "secondary_publication": "",
        "collection": "Hilprecht Collection, University of Jena, Germany",
        "museum_number": "HS 1191",
        "accession_number": "",
        "provenience": "Nippur (mod. Nuffar)",
        "excavation_number": "",
        "period": "Ur III (ca. 2100-2000 BC)",
        "dates_referenced": "Amar-Suen.09.03.00",
        "object_type": "tablet",
        "remarks": "",
        "material": "clay",
        "language": "Sumerian",
        "genre": "Administrative",
        "sub_genre": "",
        "cdli_comments": "",
        "catalogue_source": "20011220 ur3_catalogue",
        "atf_source": "cdlistaff",
        "translation": "no translation",
        "ucla_library_ark": "21198/zz001xv286",
        "composite_number": "",
        "seal_number": "",
        "cdli_number": "P134502"
    },
    "from_cdli_archival_view": {
        "primary_publication": "TMH NF 1-2, 191",
        "author": "Pohl, Alfred",
        "publication_date": "1937",
        "secondary_publications": "",
        "citation": "",
        "author_remarks": "",
        "published_collation": "OrAnt 15, 321",
        "cdli_number": "P134502",
        "ucla_library_ark": "21198/zz001xv286",
        "cdli_comments": "",
        "catalogue": "20011220 ur3_catalogue",
        "transliteration_remarks": "cdlistaff",
        "translation_remarks": "no translation",
        "owner": "Hilprecht Collection, University of Jena, Germany",
        "museum_number": "HS 1191",
        "accession_number": "",
        "acquisition_history": "",
        "genre": "Administrative",
        "sub_genre": "",
        "sub_genre_remarks": "",
        "composite_number": "",
        "language": "Sumerian",
        "material": "clay",
        "object_remarks": "",
        "measurements_in_mm": "? x ? x ?",
        "object_preservation": "",
        "surface_preservation": "",
        "condition_description": "",
        "join_information": "",
        "seal_number": "",
        "seal_information": "",
        "provenience": "Nippur (mod. Nuffar)",
        "excavation_number": "",
        "findspot_square": "",
        "elevation": "",
        "stratigraphic_level": "",
        "findspot_remarks": "",
        "period": "Ur III (ca. 2100-2000 BC)",
        "period_remarks": "",
        "date_of_origin": "Amar-Suen.09.03.00",
        "dates_referenced": "Amar-Suen.09.03.00",
        "alternative_years": "",
        "accounting_period": "",
        "textual_content": "@Tablet\n@obverse \n1. 4(disz) 1/2(disz) ma-na siki igi-nim \n2. ki lugal-ma2-gur8!-re \n3. um-mi-t,a-bat5 \n4. szu ba-ti \n@reverse \n1. iti sig4-a \n2. mu {d}nanna kar!-zi-da ba-hun ",
        "lineart_url": "https://cdli.ucla.edu/dl/tn_lineart/P134502_l.jpg",
        "photo_url": "https://cdli.ucla.edu/dl/tn_photo/P134502.jpg"
    },
    "from_gigamesh_info_program": {
        "filename": "HS_1191_GMOCF_r1.50_n4_v512",
        "model_id": "HS 1191",
        "model_material": "clay, original",
        "vertices_total": "615592",
        "vertices_nan": "0",
        "vertices_solo": "0",
        "vertices_polyline": "0",
        "vertices_border": "0",
        "vertices_nonmanifold": "0",
        "vertices_on_inverted_edge": "0",
        "vertices_part_of_zero_face": "0",
        "vertices_synthetic": "0",
        "vertices_manual": "0",
        "vertices_circle_center": "0",
        "vertices_selected": "0",
        "vertices_funcval_finite": "615592",
        "vertices_funcval_local_min": "12083",
        "vertices_funcval_local_max": "6071",
        "faces_total": "1231180",
        "faces_solo": "0",
        "faces_border": "0",
        "faces_border_dangling": "0",
        "faces_manifold": "1231180",
        "faces_nonmanifold": "0",
        "faces_sticky": "0",
        "faces_zeroarea": "0",
        "faces_inverted": "0",
        "faces_with_synth_vertices": "0",
        "boundingbox_min_x": "-15.2679",
        "boundingbox_min_y": "0",
        "boundingbox_min_z": "-8.4402",
        "boundingbox_max_x": "15.2679",
        "boundingbox_max_y": "33.3652",
        "boundingbox_max_z": "8.4402",
        "boundingbox_width": "3.1",
        "boundingbox_height": "3.3",
        "boundingbox_thick": "1.7",
        "total_area": "30.86",
        "total_volume_dx": "11231.1",
        "total_volume_dy": "11231.1",
        "total_volume_dz": "11231.1"
    }
}