{
    "from_gigamesh_info_file": {
        "filename": "HS_1250_GMOCF_r1.50_n4_v512.info.txt",
        "hs_number": "HS 1250",
        "radius_in_mm": "1.5",
        "count_of_radii": "16",
        "rastersize": "512^3",
        "gigamesh_version": "181005",
        "threads_used": "7",
        "input_filename": "HS_1250_GMOCF.ply",
        "output_filename": "HS_1250_GMOCF_r1.50_n4_v512",
        "radii": [
            1.0,
            0.94,
            0.88,
            0.81,
            0.75,
            0.69,
            0.62,
            0.56,
            0.5,
            0.44,
            0.38,
            0.31,
            0.25,
            0.19,
            0.12,
            0.06
        ],
        "model_id": "HS 1250",
        "material": "clay, original",
        "count_of_vertices": "939623",
        "count_of_faces": "1879242",
        "bounding_box_in_cm": [
            3.5,
            3.9,
            1.6
        ],
        "area_in_cm2": "40.79",
        "volume_dx_in_cm3": "15.23",
        "volume_dy_in_cm3": "15.23",
        "volume_dz_in_cm3": "15.23",
        "processing_began_on": "Thu Dec  6 10:37:18 2018",
        "processing_finished_on": "Thu Dec  6 12:57:24 2018",
        "processing_wall_time_in_s": "8406"
    },
    "from_ply_filename": {
        "filename": "/export/data/vNGG/tmp/Hilprecht_Sammlung/04_MSII_filtered/HS_ALL_MSII_PLY/HS_1250_GMOCF_r1.50_n4_v512.ply",
        "hs_number": "HS 1250",
        "radius_in_mm": "1.50",
        "count_of_radii": 16,
        "rastersize": 512
    },
    "from_hilprecht3d": {
        "hs_number": "HS 1250",
        "tablet_url": "https://hilprecht.mpiwg-berlin.mpg.de/object3d/30512",
        "bibliography": "1937: TMH NF 1-2, 250. \u2013 1951: Kraus, JCS 3, 137f. \u2013 1976: WO 8, 185ff. (Feldpachtvertrag)",
        "cdli_number": "134561"
    },
    "from_cdli_search_view": {
        "archival_view": "https://cdli.ucla.edu/search/archival_view.php?ObjectID=P134561",
        "primary_publication": "TMH NF 1-2, 250",
        "author": "Pohl, Alfred",
        "publication_date": "1937",
        "secondary_publication": "see Kraus, JCS 3, 137f.; WO 8, 185ff. (Feldpachtvertrag)",
        "collection": "Hilprecht Collection, University of Jena, Germany",
        "museum_number": "HS 1250",
        "accession_number": "",
        "provenience": "Nippur (mod. Nuffar)",
        "excavation_number": "",
        "period": "Ur III (ca. 2100-2000 BC)",
        "dates_referenced": "\u0160\u016b-Suen.05.10.00 (us2-us2 year) (Reichskalender)",
        "object_type": "tablet",
        "remarks": "",
        "material": "clay",
        "language": "Sumerian",
        "genre": "Legal",
        "sub_genre": "",
        "cdli_comments": "",
        "catalogue_source": "20011220 ur3_catalogue",
        "atf_source": "cdlistaff",
        "translation": "no translation",
        "ucla_library_ark": "21198/zz001z1ffr",
        "composite_number": "",
        "seal_number": "",
        "cdli_number": "P134561"
    },
    "from_cdli_archival_view": {
        "primary_publication": "TMH NF 1-2, 250",
        "author": "Pohl, Alfred",
        "publication_date": "1937",
        "secondary_publications": "see Kraus, JCS 3, 137f.; WO 8, 185ff. (Feldpachtvertrag)",
        "citation": "P. Steinkeller, in R. Westbrook & R. Jasnow, eds., Security for Debt ... (Boston 2001) 59 no. 16",
        "author_remarks": "",
        "published_collation": "OrAnt 15, 322 + OrAnt 17, 60",
        "cdli_number": "P134561",
        "ucla_library_ark": "21198/zz001z1ffr",
        "cdli_comments": "",
        "catalogue": "20011220 ur3_catalogue",
        "transliteration_remarks": "cdlistaff",
        "translation_remarks": "no translation",
        "owner": "Hilprecht Collection, University of Jena, Germany",
        "museum_number": "HS 1250",
        "accession_number": "",
        "acquisition_history": "",
        "genre": "Legal",
        "sub_genre": "",
        "sub_genre_remarks": "",
        "composite_number": "",
        "language": "Sumerian",
        "material": "clay",
        "object_remarks": "",
        "measurements_in_mm": "? x ? x ?",
        "object_preservation": "",
        "surface_preservation": "",
        "condition_description": "",
        "join_information": "",
        "seal_number": "",
        "seal_information": "",
        "provenience": "Nippur (mod. Nuffar)",
        "excavation_number": "",
        "findspot_square": "",
        "elevation": "",
        "stratigraphic_level": "",
        "findspot_remarks": "",
        "period": "Ur III (ca. 2100-2000 BC)",
        "period_remarks": "",
        "date_of_origin": "\u0160\u016b-Suen.05.10.00 (us2-us2 year) (Reichskalender)",
        "dates_referenced": "\u0160\u016b-Suen.05.10.00 (us2-us2 year) (Reichskalender)",
        "alternative_years": "",
        "accounting_period": "",
        "textual_content": "@Tablet\n@obverse \n1. 4(iku) GAN2 a-sza3 {d}szul-pa-e3 \n2. szuku {d}igi-an-na-ke4-zu \n3. ur-me-me i3-dab5 \n4. masz2-bi 2(barig) sze \n5. igi-an-na-ke4-zu \n@reverse \n1. szu ba-ti \n2. iti ezem-mah-ta \n3. mu us2-sa {d}szu-{d}suen lugal uri5{ki}-ma-ke4 bad3 mar-tu mu-du3-ta mu us2-sa-a-ba \n5. uru4-de3 \n6. mu lugal-bi in-pa3 \n@left \ncolumn 1 \n1. igi ka5-a-sze3 \n2. igi gu2-i3-na-kal \n3. igi lugal-an-ki \ncolumn 2 \n1. kiszib3 diri ib2-ra ",
        "lineart_url": "https://cdli.ucla.edu/dl/tn_lineart/P134561_l.jpg",
        "photo_url": "https://cdli.ucla.edu/dl/tn_photo/P134561.jpg"
    },
    "from_gigamesh_info_program": {
        "filename": "HS_1250_GMOCF_r1.50_n4_v512",
        "model_id": "HS 1250",
        "model_material": "clay, original",
        "vertices_total": "939623",
        "vertices_nan": "0",
        "vertices_solo": "0",
        "vertices_polyline": "0",
        "vertices_border": "0",
        "vertices_nonmanifold": "0",
        "vertices_on_inverted_edge": "0",
        "vertices_part_of_zero_face": "0",
        "vertices_synthetic": "0",
        "vertices_manual": "0",
        "vertices_circle_center": "0",
        "vertices_selected": "0",
        "vertices_funcval_finite": "939623",
        "vertices_funcval_local_min": "18054",
        "vertices_funcval_local_max": "8528",
        "faces_total": "1879242",
        "faces_solo": "0",
        "faces_border": "0",
        "faces_border_dangling": "0",
        "faces_manifold": "1879242",
        "faces_nonmanifold": "0",
        "faces_sticky": "0",
        "faces_zeroarea": "0",
        "faces_inverted": "0",
        "faces_with_synth_vertices": "0",
        "boundingbox_min_x": "-17.7035",
        "boundingbox_min_y": "0",
        "boundingbox_min_z": "-8.005",
        "boundingbox_max_x": "17.7035",
        "boundingbox_max_y": "39.4052",
        "boundingbox_max_z": "8.005",
        "boundingbox_width": "3.5",
        "boundingbox_height": "3.9",
        "boundingbox_thick": "1.6",
        "total_area": "40.79",
        "total_volume_dx": "15233.9",
        "total_volume_dy": "15233.9",
        "total_volume_dz": "15233.9"
    }
}