{
    "from_gigamesh_info_file": {
        "filename": "HS_1224_GMOCF_r1.50_n4_v512.info.txt",
        "hs_number": "HS 1224",
        "radius_in_mm": "1.5",
        "count_of_radii": "16",
        "rastersize": "512^3",
        "gigamesh_version": "181204",
        "threads_used": "11",
        "input_filename": "HS_1224_GMOCF.ply",
        "output_filename": "HS_1224_GMOCF_r1.50_n4_v512",
        "radii": [
            1.0,
            0.94,
            0.88,
            0.81,
            0.75,
            0.69,
            0.62,
            0.56,
            0.5,
            0.44,
            0.38,
            0.31,
            0.25,
            0.19,
            0.12,
            0.06
        ],
        "model_id": "HS 1224",
        "material": "clay, original",
        "count_of_vertices": "731861",
        "count_of_faces": "1463718",
        "bounding_box_in_cm": [
            3.1,
            3.4,
            1.5
        ],
        "area_in_cm2": "32.31",
        "volume_dx_in_cm3": "10.71",
        "volume_dy_in_cm3": "10.71",
        "volume_dz_in_cm3": "10.71",
        "processing_began_on": "Sat Dec  8 01:36:02 2018",
        "processing_finished_on": "Sat Dec  8 02:22:23 2018",
        "processing_wall_time_in_s": "2780"
    },
    "from_ply_filename": {
        "filename": "/export/data/vNGG/tmp/Hilprecht_Sammlung/04_MSII_filtered/HS_ALL_MSII_PLY/HS_1224_GMOCF_r1.50_n4_v512.ply",
        "hs_number": "HS 1224",
        "radius_in_mm": "1.50",
        "count_of_radii": 16,
        "rastersize": 512
    },
    "from_hilprecht3d": {
        "hs_number": "HS 1224",
        "tablet_url": "https://hilprecht.mpiwg-berlin.mpg.de/object3d/30483",
        "bibliography": "1937: TMH NF 1-2, 224",
        "cdli_number": "134535"
    },
    "from_cdli_search_view": {
        "archival_view": "https://cdli.ucla.edu/search/archival_view.php?ObjectID=P134535",
        "primary_publication": "TMH NF 1-2, 224",
        "author": "Pohl, Alfred",
        "publication_date": "1937",
        "secondary_publication": "",
        "collection": "Hilprecht Collection, University of Jena, Germany",
        "museum_number": "HS 1224",
        "accession_number": "",
        "provenience": "Nippur (mod. Nuffar)",
        "excavation_number": "",
        "period": "Ur III (ca. 2100-2000 BC)",
        "dates_referenced": "Amar-Suen.08.02.07",
        "object_type": "tablet",
        "remarks": "",
        "material": "clay",
        "language": "Sumerian",
        "genre": "Administrative",
        "sub_genre": "",
        "cdli_comments": "",
        "catalogue_source": "20011220 ur3_catalogue",
        "atf_source": "cdlistaff",
        "translation": "no translation",
        "ucla_library_ark": "21198/zz001z1bnd",
        "composite_number": "",
        "seal_number": "",
        "cdli_number": "P134535"
    },
    "from_cdli_archival_view": {
        "primary_publication": "TMH NF 1-2, 224",
        "author": "Pohl, Alfred",
        "publication_date": "1937",
        "secondary_publications": "",
        "citation": "",
        "author_remarks": "",
        "published_collation": "OrAnt 15, 322",
        "cdli_number": "P134535",
        "ucla_library_ark": "21198/zz001z1bnd",
        "cdli_comments": "",
        "catalogue": "20011220 ur3_catalogue",
        "transliteration_remarks": "cdlistaff",
        "translation_remarks": "no translation",
        "owner": "Hilprecht Collection, University of Jena, Germany",
        "museum_number": "HS 1224",
        "accession_number": "",
        "acquisition_history": "",
        "genre": "Administrative",
        "sub_genre": "",
        "sub_genre_remarks": "",
        "composite_number": "",
        "language": "Sumerian",
        "material": "clay",
        "object_remarks": "",
        "measurements_in_mm": "? x ? x ?",
        "object_preservation": "",
        "surface_preservation": "",
        "condition_description": "",
        "join_information": "",
        "seal_number": "",
        "seal_information": "",
        "provenience": "Nippur (mod. Nuffar)",
        "excavation_number": "",
        "findspot_square": "",
        "elevation": "",
        "stratigraphic_level": "",
        "findspot_remarks": "",
        "period": "Ur III (ca. 2100-2000 BC)",
        "period_remarks": "",
        "date_of_origin": "Amar-Suen.08.02.07",
        "dates_referenced": "Amar-Suen.08.02.07",
        "alternative_years": "",
        "accounting_period": "",
        "textual_content": "@Tablet\n@obverse \n1. 1(disz) tug2 ba-tab duh-hu-um tur 4(disz) us2 \n2. 1(disz) tug2 gu2-e3 nig2-lam2 4(disz) us2 \n3. ki-la2-bi 1(disz) ma-na 3(disz) gin2 \n@reverse \n1. ki lugal-ma2-gur8-re-ta \n2. mu-kux(DU) \n3. mu gu4-si-su \n4. u4 7(disz) ba-zal \n5. mu en {d}nanna-&lt;&lt;a#&gt;&gt;-{d}amar-{d}suen-ra-ki-ag2 ba-hun ",
        "lineart_url": "https://cdli.ucla.edu/dl/tn_lineart/P134535_l.jpg",
        "photo_url": "https://cdli.ucla.edu/dl/tn_photo/P134535.jpg"
    },
    "from_gigamesh_info_program": {
        "filename": "HS_1224_GMOCF_r1.50_n4_v512",
        "model_id": "HS 1224",
        "model_material": "clay, original",
        "vertices_total": "731861",
        "vertices_nan": "0",
        "vertices_solo": "0",
        "vertices_polyline": "0",
        "vertices_border": "0",
        "vertices_nonmanifold": "0",
        "vertices_on_inverted_edge": "0",
        "vertices_part_of_zero_face": "0",
        "vertices_synthetic": "0",
        "vertices_manual": "0",
        "vertices_circle_center": "0",
        "vertices_selected": "0",
        "vertices_funcval_finite": "731861",
        "vertices_funcval_local_min": "13305",
        "vertices_funcval_local_max": "5766",
        "faces_total": "1463718",
        "faces_solo": "0",
        "faces_border": "0",
        "faces_border_dangling": "0",
        "faces_manifold": "1463718",
        "faces_nonmanifold": "0",
        "faces_sticky": "0",
        "faces_zeroarea": "0",
        "faces_inverted": "0",
        "faces_with_synth_vertices": "0",
        "boundingbox_min_x": "-15.2572",
        "boundingbox_min_y": "0",
        "boundingbox_min_z": "-7.3583",
        "boundingbox_max_x": "15.2572",
        "boundingbox_max_y": "33.5967",
        "boundingbox_max_z": "7.3583",
        "boundingbox_width": "3.1",
        "boundingbox_height": "3.4",
        "boundingbox_thick": "1.5",
        "total_area": "32.31",
        "total_volume_dx": "10709.3",
        "total_volume_dy": "10709.3",
        "total_volume_dz": "10709.3"
    }
}