{
    "from_gigamesh_info_file": {
        "filename": "HS_1081_GMOCF_r1.50_n4_v512.info.txt",
        "hs_number": "HS 1081",
        "radius_in_mm": "1.5",
        "count_of_radii": "16",
        "rastersize": "512^3",
        "gigamesh_version": "181005",
        "threads_used": "7",
        "input_filename": "HS_1081_GMOCF.ply",
        "output_filename": "HS_1081_GMOCF_r1.50_n4_v512",
        "radii": [
            1.0,
            0.94,
            0.88,
            0.81,
            0.75,
            0.69,
            0.62,
            0.56,
            0.5,
            0.44,
            0.38,
            0.31,
            0.25,
            0.19,
            0.12,
            0.06
        ],
        "model_id": "HS 1081",
        "material": "clay, original",
        "count_of_vertices": "707681",
        "count_of_faces": "1415358",
        "bounding_box_in_cm": [
            3.3,
            3.6,
            1.5
        ],
        "area_in_cm2": "33.49",
        "volume_dx_in_cm3": "11.01",
        "volume_dy_in_cm3": "11.01",
        "volume_dz_in_cm3": "11.01",
        "processing_began_on": "Wed Dec  5 12:04:42 2018",
        "processing_finished_on": "Wed Dec  5 13:38:52 2018",
        "processing_wall_time_in_s": "5649"
    },
    "from_ply_filename": {
        "filename": "/export/data/vNGG/tmp/Hilprecht_Sammlung/04_MSII_filtered/HS_ALL_MSII_PLY/HS_1081_GMOCF_r1.50_n4_v512.ply",
        "hs_number": "HS 1081",
        "radius_in_mm": "1.50",
        "count_of_radii": 16,
        "rastersize": 512
    },
    "from_hilprecht3d": {
        "hs_number": "HS 1081",
        "tablet_url": "https://hilprecht.mpiwg-berlin.mpg.de/object3d/30332",
        "bibliography": "1937: TMH NF 1-2, 081",
        "cdli_number": "134393"
    },
    "from_cdli_search_view": {
        "archival_view": "https://cdli.ucla.edu/search/archival_view.php?ObjectID=P134393",
        "primary_publication": "TMH NF 1-2, 081",
        "author": "Pohl, Alfred",
        "publication_date": "1937",
        "secondary_publication": "",
        "collection": "Hilprecht Collection, University of Jena, Germany",
        "museum_number": "HS 1081",
        "accession_number": "",
        "provenience": "Nippur (mod. Nuffar)",
        "excavation_number": "",
        "period": "Ur III (ca. 2100-2000 BC)",
        "dates_referenced": "\u0160\u016b-Suen.05.10.00 (us2 year) (Reichskalender)",
        "object_type": "tablet",
        "remarks": "",
        "material": "clay",
        "language": "Sumerian",
        "genre": "Administrative",
        "sub_genre": "",
        "cdli_comments": "",
        "catalogue_source": "20011220 ur3_catalogue",
        "atf_source": "cdlistaff",
        "translation": "no translation",
        "ucla_library_ark": "21198/zz001xfw6c",
        "composite_number": "",
        "seal_number": "",
        "cdli_number": "P134393"
    },
    "from_cdli_archival_view": {
        "primary_publication": "TMH NF 1-2, 081",
        "author": "Pohl, Alfred",
        "publication_date": "1937",
        "secondary_publications": "",
        "citation": "",
        "author_remarks": "",
        "published_collation": "OrAnt 15, 326",
        "cdli_number": "P134393",
        "ucla_library_ark": "21198/zz001xfw6c",
        "cdli_comments": "",
        "catalogue": "20011220 ur3_catalogue",
        "transliteration_remarks": "cdlistaff",
        "translation_remarks": "no translation",
        "owner": "Hilprecht Collection, University of Jena, Germany",
        "museum_number": "HS 1081",
        "accession_number": "",
        "acquisition_history": "",
        "genre": "Administrative",
        "sub_genre": "",
        "sub_genre_remarks": "",
        "composite_number": "",
        "language": "Sumerian",
        "material": "clay",
        "object_remarks": "",
        "measurements_in_mm": "? x ? x ?",
        "object_preservation": "",
        "surface_preservation": "",
        "condition_description": "",
        "join_information": "",
        "seal_number": "",
        "seal_information": "",
        "provenience": "Nippur (mod. Nuffar)",
        "excavation_number": "",
        "findspot_square": "",
        "elevation": "",
        "stratigraphic_level": "",
        "findspot_remarks": "",
        "period": "Ur III (ca. 2100-2000 BC)",
        "period_remarks": "",
        "date_of_origin": "\u0160\u016b-Suen.05.10.00 (us2 year) (Reichskalender)",
        "dates_referenced": "\u0160\u016b-Suen.05.10.00 (us2 year) (Reichskalender)",
        "alternative_years": "",
        "accounting_period": "",
        "textual_content": "@Tablet\n@obverse \n1. 1(barig) sze \n2. a-sza3 lu2-{d}ha-ia3 bala-e-de3 \n3. ki ur-me-me-ta \n4. ur-{d}ba-ba6 engar \n5. kiszib3 nu-tuku \n@reverse \n1. szu ba-an-ti \n2. giri3 ka5-a \n3. e2 LAGAB-min-ta \n4. iti ezem-mah \n5. mu us2-sa bad3 mar-tu ba-du3 ",
        "lineart_url": "https://cdli.ucla.edu/dl/tn_lineart/P134393_l.jpg",
        "photo_url": "https://cdli.ucla.edu/dl/tn_photo/P134393.jpg"
    },
    "from_gigamesh_info_program": {
        "filename": "HS_1081_GMOCF_r1.50_n4_v512",
        "model_id": "HS 1081",
        "model_material": "clay, original",
        "vertices_total": "707681",
        "vertices_nan": "0",
        "vertices_solo": "0",
        "vertices_polyline": "0",
        "vertices_border": "0",
        "vertices_nonmanifold": "0",
        "vertices_on_inverted_edge": "0",
        "vertices_part_of_zero_face": "0",
        "vertices_synthetic": "0",
        "vertices_manual": "0",
        "vertices_circle_center": "0",
        "vertices_selected": "0",
        "vertices_funcval_finite": "707681",
        "vertices_funcval_local_min": "13826",
        "vertices_funcval_local_max": "8064",
        "faces_total": "1415358",
        "faces_solo": "0",
        "faces_border": "0",
        "faces_border_dangling": "0",
        "faces_manifold": "1415358",
        "faces_nonmanifold": "0",
        "faces_sticky": "0",
        "faces_zeroarea": "0",
        "faces_inverted": "0",
        "faces_with_synth_vertices": "0",
        "boundingbox_min_x": "-16.2831",
        "boundingbox_min_y": "0",
        "boundingbox_min_z": "-7.2941",
        "boundingbox_max_x": "16.2831",
        "boundingbox_max_y": "35.9642",
        "boundingbox_max_z": "7.2941",
        "boundingbox_width": "3.3",
        "boundingbox_height": "3.6",
        "boundingbox_thick": "1.5",
        "total_area": "33.49",
        "total_volume_dx": "11008.4",
        "total_volume_dy": "11008.4",
        "total_volume_dz": "11008.4"
    }
}