{
    "from_gigamesh_info_file": {
        "filename": "HS_1665_GMOCF_r1.50_n4_v512.info.txt",
        "hs_number": "HS 1665",
        "radius_in_mm": "1.5",
        "count_of_radii": "16",
        "rastersize": "512^3",
        "input_filename": "HS_1665_GMOCF.ply",
        "output_filename": "HS_1665_GMOCF_r1.50_n4_v512",
        "radii": [
            1.0,
            0.94,
            0.88,
            0.81,
            0.75,
            0.69,
            0.62,
            0.56,
            0.5,
            0.44,
            0.38,
            0.31,
            0.25,
            0.19,
            0.12,
            0.06
        ],
        "model_id": "HS 1665",
        "material": "clay, original",
        "count_of_vertices": "4153198",
        "count_of_faces": "8306392",
        "bounding_box_in_cm": [
            7.9,
            7.5,
            3.5
        ],
        "area_in_cm2": "173.95",
        "volume_dx_in_cm3": "121.03",
        "volume_dy_in_cm3": "121.03",
        "volume_dz_in_cm3": "121.03",
        "processing_began_on": "Sat Dec  8 19:49:03 2018",
        "processing_finished_on": "Sat Dec  8 20:52:30 2018",
        "processing_wall_time_in_s": "3804"
    },
    "from_ply_filename": {
        "filename": "/export/data/vNGG/tmp/Hilprecht_Sammlung/04_MSII_filtered/HS_ALL_MSII_PLY/HS_1665_GMOCF_r1.50_n4_v512.ply",
        "hs_number": "HS 1665",
        "radius_in_mm": "1.50",
        "count_of_radii": 16,
        "rastersize": 512
    },
    "from_hilprecht3d": {
        "hs_number": "HS 1665",
        "tablet_url": "https://hilprecht.mpiwg-berlin.mpg.de/object3d/30881",
        "bibliography": ""
    },
    "from_cdli_search_view": {
        "archival_view": "https://cdli.ucla.edu/search/archival_view.php?ObjectID=P229800",
        "primary_publication": "EEN 313, HS 1665",
        "author": "Veldhuis, Niek",
        "publication_date": "1997",
        "secondary_publication": "",
        "collection": "Hilprecht Collection, University of Jena, Germany",
        "museum_number": "HS 1665",
        "accession_number": "",
        "provenience": "Nippur (mod. Nuffar) ?",
        "excavation_number": "",
        "period": "Old Babylonian (ca. 1900-1600 BC)",
        "dates_referenced": "",
        "object_type": "tablet",
        "remarks": "",
        "material": "clay",
        "language": "",
        "genre": "Lexical",
        "sub_genre": "",
        "cdli_comments": "HS 1629 + HS 1834 (+) HS 1665 ?",
        "catalogue_source": "20030911 veldhuis_nippurlexical",
        "atf_source": "Veldhuis, Niek (dcclt)",
        "translation": "no translation",
        "ucla_library_ark": "21198/zz001rkk15",
        "composite_number": "<a target=\"_blank\" href = \"search_results.php?CompositeNumber=Q000039\">Q000039</a> (<a target=\"_blank\" href = \"http://cdli.ucla.edu/tools/scores/Q000039.html\">score</a>) ",
        "seal_number": "",
        "cdli_number": "P229800"
    },
    "from_cdli_archival_view": {
        "primary_publication": "EEN 313, HS 1665",
        "author": "Veldhuis, Niek",
        "publication_date": "1997",
        "secondary_publications": "",
        "citation": "",
        "author_remarks": "",
        "published_collation": "",
        "cdli_number": "P229800",
        "ucla_library_ark": "21198/zz001rkk15",
        "cdli_comments": "HS 1629 + HS 1834 (+) HS 1665 ?",
        "catalogue": "20030911 veldhuis_nippurlexical",
        "transliteration_remarks": "Veldhuis, Niek (dcclt)",
        "translation_remarks": "no translation",
        "owner": "Hilprecht Collection, University of Jena, Germany",
        "museum_number": "HS 1665",
        "accession_number": "",
        "acquisition_history": "",
        "genre": "Lexical",
        "sub_genre": "",
        "sub_genre_remarks": "",
        "composite_number": "Q000039",
        "language": "",
        "material": "clay",
        "object_remarks": "",
        "measurements_in_mm": "? x ? x ?",
        "object_preservation": "",
        "surface_preservation": "",
        "condition_description": "",
        "join_information": "P229769; quasi-join proposed by Veldhuis EEN 312/313",
        "seal_number": "",
        "seal_information": "",
        "provenience": "Nippur (mod. Nuffar) ?",
        "excavation_number": "",
        "findspot_square": "",
        "elevation": "",
        "stratigraphic_level": "",
        "findspot_remarks": "",
        "period": "Old Babylonian (ca. 1900-1600 BC)",
        "period_remarks": "",
        "date_of_origin": "",
        "dates_referenced": "",
        "alternative_years": "",
        "accounting_period": "",
        "textual_content": "@Tablet@reverse\ncolumn 1\n1'. gesz [...]\n2'. gesz ti-a-[...]\n&gt;&gt;A 60\n||B 260\n3'. gesz ri-a-nu-[...]\n&gt;&gt;A 61\n||B 250\n4'. gesz ur-zi-[...]\n&gt;&gt;A 62\n||B 255\n5'. gesz mi-ri-isz-[...]\n&gt;&gt;A 63\n6'. gesz isimu2#\n&gt;&gt;A 64\n||B 265\n7'. gesz# nimbar#\n&gt;&gt;A 65\n||B 280\ncolumn 2\n1'. gesz nimbar-al#-[...]-ga\n2'. gesz sza3-nimbar\n&gt;&gt;A 81\n||B 351\n3'. gesz suhur-nimbar\n&gt;&gt;A 82\n||B 355\n4'. gesz ama-nimbar#\n&gt;&gt;A 83\n||B 293\n5'. gesz |UMUMxKASKAL|-nimbar\n&gt;&gt;A 84\n6'. gesz pa#-nimbar\n&gt;&gt;A 86\n||B 356\n7'. gesz pa-ku5-nimbar\n&gt;&gt;A 87\n||B 357"
    },
    "from_gigamesh_info_program": {
        "filename": "HS_1665_GMOCF_r1.50_n4_v512",
        "model_id": "HS 1665",
        "model_material": "clay, original",
        "vertices_total": "4153198",
        "vertices_nan": "0",
        "vertices_solo": "0",
        "vertices_polyline": "0",
        "vertices_border": "0",
        "vertices_nonmanifold": "0",
        "vertices_on_inverted_edge": "0",
        "vertices_part_of_zero_face": "0",
        "vertices_synthetic": "38",
        "vertices_manual": "0",
        "vertices_circle_center": "0",
        "vertices_selected": "38",
        "vertices_funcval_finite": "4153198",
        "vertices_funcval_local_min": "94532",
        "vertices_funcval_local_max": "45876",
        "faces_total": "8306392",
        "faces_solo": "0",
        "faces_border": "0",
        "faces_border_dangling": "0",
        "faces_manifold": "8306392",
        "faces_nonmanifold": "0",
        "faces_sticky": "0",
        "faces_zeroarea": "0",
        "faces_inverted": "0",
        "faces_with_synth_vertices": "16",
        "boundingbox_min_x": "-39.6257",
        "boundingbox_min_y": "0",
        "boundingbox_min_z": "-17.4805",
        "boundingbox_max_x": "39.6257",
        "boundingbox_max_y": "74.8861",
        "boundingbox_max_z": "17.4805",
        "boundingbox_width": "7.9",
        "boundingbox_height": "7.5",
        "boundingbox_thick": "3.5",
        "total_area": "173.95",
        "total_volume_dx": "121027",
        "total_volume_dy": "121027",
        "total_volume_dz": "121027"
    }
}