{
    "from_gigamesh_info_file": {
        "filename": "HS_1203_GMOCF_r1.50_n4_v512.info.txt",
        "hs_number": "HS 1203",
        "radius_in_mm": "1.5",
        "count_of_radii": "16",
        "rastersize": "512^3",
        "gigamesh_version": "181204",
        "threads_used": "11",
        "input_filename": "HS_1203_GMOCF.ply",
        "output_filename": "HS_1203_GMOCF_r1.50_n4_v512",
        "radii": [
            1.0,
            0.94,
            0.88,
            0.81,
            0.75,
            0.69,
            0.62,
            0.56,
            0.5,
            0.44,
            0.38,
            0.31,
            0.25,
            0.19,
            0.12,
            0.06
        ],
        "model_id": "HS 1203",
        "material": "clay, original",
        "count_of_vertices": "692746",
        "count_of_faces": "1385488",
        "bounding_box_in_cm": [
            3.7,
            3.8,
            1.3
        ],
        "area_in_cm2": "33.87",
        "volume_dx_in_cm3": "11.11",
        "volume_dy_in_cm3": "11.11",
        "volume_dz_in_cm3": "11.11",
        "processing_began_on": "Fri Dec  7 11:55:50 2018",
        "processing_finished_on": "Fri Dec  7 12:24:49 2018",
        "processing_wall_time_in_s": "1739"
    },
    "from_ply_filename": {
        "filename": "/export/data/vNGG/tmp/Hilprecht_Sammlung/04_MSII_filtered/HS_ALL_MSII_PLY/HS_1203_GMOCF_r1.50_n4_v512.ply",
        "hs_number": "HS 1203",
        "radius_in_mm": "1.50",
        "count_of_radii": 16,
        "rastersize": 512
    },
    "from_hilprecht3d": {
        "hs_number": "HS 1203",
        "tablet_url": "https://hilprecht.mpiwg-berlin.mpg.de/object3d/30459",
        "bibliography": "1937: TMH NF 1-2, 203",
        "cdli_number": "134514"
    },
    "from_cdli_search_view": {
        "archival_view": "https://cdli.ucla.edu/search/archival_view.php?ObjectID=P134514",
        "primary_publication": "TMH NF 1-2, 203",
        "author": "Pohl, Alfred",
        "publication_date": "1937",
        "secondary_publication": "",
        "collection": "Hilprecht Collection, University of Jena, Germany",
        "museum_number": "HS 1203",
        "accession_number": "",
        "provenience": "Nippur (mod. Nuffar)",
        "excavation_number": "",
        "period": "Ur III (ca. 2100-2000 BC)",
        "dates_referenced": "\u0160\u016b-Suen.01.03.00",
        "object_type": "tablet",
        "remarks": "",
        "material": "clay",
        "language": "Sumerian",
        "genre": "Administrative",
        "sub_genre": "",
        "cdli_comments": "",
        "catalogue_source": "20011220 ur3_catalogue",
        "atf_source": "cdlistaff",
        "translation": "no translation",
        "ucla_library_ark": "21198/zz001xv2pd",
        "composite_number": "",
        "seal_number": "S004048",
        "cdli_number": "P134514"
    },
    "from_cdli_archival_view": {
        "primary_publication": "TMH NF 1-2, 203",
        "author": "Pohl, Alfred",
        "publication_date": "1937",
        "secondary_publications": "",
        "citation": "",
        "author_remarks": "",
        "published_collation": "",
        "cdli_number": "P134514",
        "ucla_library_ark": "21198/zz001xv2pd",
        "cdli_comments": "",
        "catalogue": "20011220 ur3_catalogue",
        "transliteration_remarks": "cdlistaff",
        "translation_remarks": "no translation",
        "owner": "Hilprecht Collection, University of Jena, Germany",
        "museum_number": "HS 1203",
        "accession_number": "",
        "acquisition_history": "",
        "genre": "Administrative",
        "sub_genre": "",
        "sub_genre_remarks": "",
        "composite_number": "",
        "language": "Sumerian",
        "material": "clay",
        "object_remarks": "",
        "measurements_in_mm": "? x ? x ?",
        "object_preservation": "",
        "surface_preservation": "",
        "condition_description": "",
        "join_information": "",
        "seal_number": "S004048",
        "seal_information": "",
        "provenience": "Nippur (mod. Nuffar)",
        "excavation_number": "",
        "findspot_square": "",
        "elevation": "",
        "stratigraphic_level": "",
        "findspot_remarks": "",
        "period": "Ur III (ca. 2100-2000 BC)",
        "period_remarks": "",
        "date_of_origin": "\u0160\u016b-Suen.01.03.00",
        "dates_referenced": "\u0160\u016b-Suen.01.03.00",
        "alternative_years": "",
        "accounting_period": "",
        "textual_content": "@Tablet\n@obverse \n1. [...] 2(u) 7(disz) ma-na siki \n2. ki lugal-ma2-gur8-re-ta \n3. um-mi-t,a-bat5-e \n@reverse \n1. szu ba-ti \n2. iti sig4-ga \n$ blank space \n3. mu {d}szu-{d}suen lugal \n@seal 1 \n1. sza-at-{d}suen \n2. dumu-munus lugal \n3. um-mi-du10 \n4. geme2-ni ",
        "lineart_url": "https://cdli.ucla.edu/dl/tn_lineart/P134514_l.jpg",
        "photo_url": "https://cdli.ucla.edu/dl/tn_photo/P134514.jpg"
    },
    "from_gigamesh_info_program": {
        "filename": "HS_1203_GMOCF_r1.50_n4_v512",
        "model_id": "HS 1203",
        "model_material": "clay, original",
        "vertices_total": "692746",
        "vertices_nan": "0",
        "vertices_solo": "0",
        "vertices_polyline": "0",
        "vertices_border": "0",
        "vertices_nonmanifold": "0",
        "vertices_on_inverted_edge": "0",
        "vertices_part_of_zero_face": "0",
        "vertices_synthetic": "0",
        "vertices_manual": "0",
        "vertices_circle_center": "0",
        "vertices_selected": "0",
        "vertices_funcval_finite": "692746",
        "vertices_funcval_local_min": "14931",
        "vertices_funcval_local_max": "7675",
        "faces_total": "1385488",
        "faces_solo": "0",
        "faces_border": "0",
        "faces_border_dangling": "0",
        "faces_manifold": "1385488",
        "faces_nonmanifold": "0",
        "faces_sticky": "0",
        "faces_zeroarea": "0",
        "faces_inverted": "0",
        "faces_with_synth_vertices": "0",
        "boundingbox_min_x": "-18.6254",
        "boundingbox_min_y": "0",
        "boundingbox_min_z": "-6.3806",
        "boundingbox_max_x": "18.6254",
        "boundingbox_max_y": "38.3798",
        "boundingbox_max_z": "6.3806",
        "boundingbox_width": "3.7",
        "boundingbox_height": "3.8",
        "boundingbox_thick": "1.3",
        "total_area": "33.87",
        "total_volume_dx": "11108",
        "total_volume_dy": "11108",
        "total_volume_dz": "11108"
    }
}