{
    "from_gigamesh_info_file": {
        "filename": "HS_1011a_GMOCF_r1.50_n4_v512.info.txt",
        "hs_number": "HS 1011a",
        "radius_in_mm": "1.5",
        "count_of_radii": "16",
        "rastersize": "512^3",
        "gigamesh_version": "181204",
        "threads_used": "11",
        "input_filename": "HS_1011a_GMOCF.ply",
        "output_filename": "HS_1011a_GMOCF_r1.50_n4_v512",
        "radii": [
            1.0,
            0.94,
            0.88,
            0.81,
            0.75,
            0.69,
            0.62,
            0.56,
            0.5,
            0.44,
            0.38,
            0.31,
            0.25,
            0.19,
            0.12,
            0.06
        ],
        "model_id": "HS 1011a",
        "material": "clay, original",
        "count_of_vertices": "294322",
        "count_of_faces": "588640",
        "bounding_box_in_cm": [
            3.1,
            3.2,
            1.6
        ],
        "area_in_cm2": "30.40",
        "volume_dx_in_cm3": "10.53",
        "volume_dy_in_cm3": "10.53",
        "volume_dz_in_cm3": "10.53",
        "processing_began_on": "Thu Dec  6 13:56:08 2018",
        "processing_finished_on": "Thu Dec  6 14:04:11 2018",
        "processing_wall_time_in_s": "483"
    },
    "from_ply_filename": {
        "filename": "/export/data/vNGG/tmp/Hilprecht_Sammlung/04_MSII_filtered/HS_ALL_MSII_PLY/HS_1011a_GMOCF_r1.50_n4_v512.ply",
        "hs_number": "HS 1011a",
        "radius_in_mm": "1.50",
        "count_of_radii": 16,
        "rastersize": 512
    },
    "from_hilprecht3d": {
        "hs_number": "HS 1011a",
        "tablet_url": "https://hilprecht.mpiwg-berlin.mpg.de/object3d/30245",
        "bibliography": "1937: TMH NF 1-2, 011"
    },
    "from_gigamesh_info_program": {
        "filename": "HS_1011a_GMOCF_r1.50_n4_v512",
        "model_id": "HS 1011a",
        "model_material": "clay, original",
        "vertices_total": "294322",
        "vertices_nan": "0",
        "vertices_solo": "0",
        "vertices_polyline": "0",
        "vertices_border": "0",
        "vertices_nonmanifold": "0",
        "vertices_on_inverted_edge": "0",
        "vertices_part_of_zero_face": "0",
        "vertices_synthetic": "0",
        "vertices_manual": "0",
        "vertices_circle_center": "0",
        "vertices_selected": "0",
        "vertices_funcval_finite": "294322",
        "vertices_funcval_local_min": "7211",
        "vertices_funcval_local_max": "4169",
        "faces_total": "588640",
        "faces_solo": "0",
        "faces_border": "0",
        "faces_border_dangling": "0",
        "faces_manifold": "588640",
        "faces_nonmanifold": "0",
        "faces_sticky": "0",
        "faces_zeroarea": "0",
        "faces_inverted": "0",
        "faces_with_synth_vertices": "0",
        "boundingbox_min_x": "-15.4473",
        "boundingbox_min_y": "0",
        "boundingbox_min_z": "-7.8275",
        "boundingbox_max_x": "15.4473",
        "boundingbox_max_y": "32.1498",
        "boundingbox_max_z": "7.8275",
        "boundingbox_width": "3.1",
        "boundingbox_height": "3.2",
        "boundingbox_thick": "1.6",
        "total_area": "30.4",
        "total_volume_dx": "10525.7",
        "total_volume_dy": "10525.7",
        "total_volume_dz": "10525.7"
    }
}