{
    "from_gigamesh_info_file": {
        "filename": "HS_1417_GMOCF_r1.50_n4_v512.info.txt",
        "hs_number": "HS 1417",
        "radius_in_mm": "1.5",
        "count_of_radii": "16",
        "rastersize": "512^3",
        "input_filename": "HS_1417_GMOCF.ply",
        "output_filename": "HS_1417_GMOCF_r1.50_n4_v512",
        "radii": [
            1.0,
            0.94,
            0.88,
            0.81,
            0.75,
            0.69,
            0.62,
            0.56,
            0.5,
            0.44,
            0.38,
            0.31,
            0.25,
            0.19,
            0.12,
            0.06
        ],
        "model_id": "HS 1417",
        "material": "clay, original",
        "count_of_vertices": "3310180",
        "count_of_faces": "6620360",
        "bounding_box_in_cm": [
            8.5,
            8.6,
            3.5
        ],
        "area_in_cm2": "150.41",
        "volume_dx_in_cm3": "113.96",
        "volume_dy_in_cm3": "113.96",
        "volume_dz_in_cm3": "113.96",
        "processing_began_on": "Mon Dec 10 00:21:29 2018",
        "processing_finished_on": "Mon Dec 10 00:52:55 2018",
        "processing_wall_time_in_s": "1884"
    },
    "from_ply_filename": {
        "filename": "/export/data/vNGG/tmp/Hilprecht_Sammlung/04_MSII_filtered/HS_ALL_MSII_PLY/HS_1417_GMOCF_r1.50_n4_v512.ply",
        "hs_number": "HS 1417",
        "radius_in_mm": "1.50",
        "count_of_radii": 16,
        "rastersize": 512
    },
    "from_hilprecht3d": {
        "hs_number": "HS 1417",
        "tablet_url": "https://hilprecht.mpiwg-berlin.mpg.de/object3d/30685",
        "bibliography": ""
    },
    "from_gigamesh_info_program": {
        "filename": "HS_1417_GMOCF_r1.50_n4_v512",
        "model_id": "HS 1417",
        "model_material": "clay, original",
        "vertices_total": "3310180",
        "vertices_nan": "0",
        "vertices_solo": "0",
        "vertices_polyline": "0",
        "vertices_border": "0",
        "vertices_nonmanifold": "0",
        "vertices_on_inverted_edge": "0",
        "vertices_part_of_zero_face": "0",
        "vertices_synthetic": "44",
        "vertices_manual": "0",
        "vertices_circle_center": "0",
        "vertices_selected": "0",
        "vertices_funcval_finite": "3310180",
        "vertices_funcval_local_min": "79522",
        "vertices_funcval_local_max": "32396",
        "faces_total": "6620360",
        "faces_solo": "0",
        "faces_border": "0",
        "faces_border_dangling": "0",
        "faces_manifold": "6620360",
        "faces_nonmanifold": "0",
        "faces_sticky": "0",
        "faces_zeroarea": "0",
        "faces_inverted": "0",
        "faces_with_synth_vertices": "26",
        "boundingbox_min_x": "-42.2587",
        "boundingbox_min_y": "0",
        "boundingbox_min_z": "-17.7315",
        "boundingbox_max_x": "42.2587",
        "boundingbox_max_y": "85.7885",
        "boundingbox_max_z": "17.7315",
        "boundingbox_width": "8.5",
        "boundingbox_height": "8.6",
        "boundingbox_thick": "3.5",
        "total_area": "150.41",
        "total_volume_dx": "113958",
        "total_volume_dy": "113958",
        "total_volume_dz": "113958"
    }
}