{
    "from_gigamesh_info_file": {
        "filename": "HS_1459_GMOCF_r1.50_n4_v512.info.txt",
        "hs_number": "HS 1459",
        "radius_in_mm": "1.5",
        "count_of_radii": "16",
        "rastersize": "512^3",
        "input_filename": "HS_1459_GMOCF.ply",
        "output_filename": "HS_1459_GMOCF_r1.50_n4_v512",
        "radii": [
            1.0,
            0.94,
            0.88,
            0.81,
            0.75,
            0.69,
            0.62,
            0.56,
            0.5,
            0.44,
            0.38,
            0.31,
            0.25,
            0.19,
            0.12,
            0.06
        ],
        "model_id": "HS 1459",
        "material": "clay, original",
        "count_of_vertices": "1645511",
        "count_of_faces": "3291018",
        "bounding_box_in_cm": [
            6.5,
            11.3,
            3.5
        ],
        "area_in_cm2": "233.67",
        "volume_dx_in_cm3": "156.08",
        "volume_dy_in_cm3": "156.08",
        "volume_dz_in_cm3": "156.08",
        "processing_began_on": "Mon Dec 10 08:59:48 2018",
        "processing_finished_on": "Mon Dec 10 09:08:07 2018",
        "processing_wall_time_in_s": "498"
    },
    "from_ply_filename": {
        "filename": "/export/data/vNGG/tmp/Hilprecht_Sammlung/04_MSII_filtered/HS_ALL_MSII_PLY/HS_1459_GMOCF_r1.50_n4_v512.ply",
        "hs_number": "HS 1459",
        "radius_in_mm": "1.50",
        "count_of_radii": 16,
        "rastersize": 512
    },
    "from_hilprecht3d": {
        "hs_number": "HS 1459",
        "tablet_url": "https://hilprecht.mpiwg-berlin.mpg.de/object3d/30723",
        "bibliography": "1955-56: Bernhardt + Kramer. \u2013 1961: TMHNF 3, 39. \u2013 1976: Wilcke, KSLT, S. 35. \u2013 199X: van Dijk, 46."
    },
    "from_cdli_search_view": {
        "archival_view": "https://cdli.ucla.edu/search/archival_view.php?ObjectID=P345634",
        "primary_publication": "CDLI Literary needed, ex. nn ?",
        "author": "CDLI",
        "publication_date": "2014ff.",
        "secondary_publication": "Bernhardt, Inez &amp; Kramer, Samuel N., TMH NF 3 (1961) 39; Sjoberg JCS 25, 108",
        "collection": "Hilprecht Collection, University of Jena, Germany",
        "museum_number": "HS 1459",
        "accession_number": "",
        "provenience": "Nippur (mod. Nuffar)",
        "excavation_number": "",
        "period": "Old Babylonian (ca. 1900-1600 BC)",
        "dates_referenced": "",
        "object_type": "tablet",
        "remarks": "",
        "material": "clay",
        "language": "Sumerian",
        "genre": "Literary",
        "sub_genre": "ETCSL 5.01.02 Edubba B (witness)",
        "cdli_comments": "",
        "catalogue_source": "20061112 noname",
        "atf_source": "no atf",
        "translation": "no translation",
        "ucla_library_ark": "21198/zz00209dtb",
        "composite_number": "<a target=\"_blank\" href = \"search_results.php?CompositeNumber=needed\">needed</a> ",
        "seal_number": "",
        "cdli_number": "P345634"
    },
    "from_cdli_archival_view": {
        "primary_publication": "CDLI Literary needed, ex. nn ?",
        "author": "CDLI",
        "publication_date": "2014ff.",
        "secondary_publications": "Bernhardt, Inez & Kramer, Samuel N., TMH NF 3 (1961) 39; Sjoberg JCS 25, 108",
        "citation": "",
        "author_remarks": "",
        "published_collation": "",
        "cdli_number": "P345634",
        "ucla_library_ark": "21198/zz00209dtb",
        "cdli_comments": "",
        "catalogue": "20061112 noname",
        "transliteration_remarks": "no atf",
        "translation_remarks": "no translation",
        "owner": "Hilprecht Collection, University of Jena, Germany",
        "museum_number": "HS 1459",
        "accession_number": "",
        "acquisition_history": "",
        "genre": "Literary",
        "sub_genre": "ETCSL 5.01.02 Edubba B (witness)",
        "sub_genre_remarks": "",
        "composite_number": "needed",
        "language": "Sumerian",
        "material": "clay",
        "object_remarks": "",
        "measurements_in_mm": "x  x",
        "object_preservation": "",
        "surface_preservation": "",
        "condition_description": "",
        "join_information": "",
        "seal_number": "",
        "seal_information": "",
        "provenience": "Nippur (mod. Nuffar)",
        "excavation_number": "",
        "findspot_square": "",
        "elevation": "",
        "stratigraphic_level": "",
        "findspot_remarks": "",
        "period": "Old Babylonian (ca. 1900-1600 BC)",
        "period_remarks": "",
        "date_of_origin": "",
        "dates_referenced": "",
        "alternative_years": "",
        "accounting_period": "",
        "textual_content": "@Tablet"
    },
    "from_gigamesh_info_program": {
        "filename": "HS_1459_GMOCF_r1.50_n4_v512",
        "model_id": "HS 1459",
        "model_material": "clay, original",
        "vertices_total": "1645511",
        "vertices_nan": "0",
        "vertices_solo": "0",
        "vertices_polyline": "0",
        "vertices_border": "0",
        "vertices_nonmanifold": "0",
        "vertices_on_inverted_edge": "0",
        "vertices_part_of_zero_face": "0",
        "vertices_synthetic": "0",
        "vertices_manual": "0",
        "vertices_circle_center": "0",
        "vertices_selected": "0",
        "vertices_funcval_finite": "1645511",
        "vertices_funcval_local_min": "52535",
        "vertices_funcval_local_max": "27265",
        "faces_total": "3291018",
        "faces_solo": "0",
        "faces_border": "0",
        "faces_border_dangling": "0",
        "faces_manifold": "3291018",
        "faces_nonmanifold": "0",
        "faces_sticky": "0",
        "faces_zeroarea": "0",
        "faces_inverted": "0",
        "faces_with_synth_vertices": "0",
        "boundingbox_min_x": "-32.4189",
        "boundingbox_min_y": "0",
        "boundingbox_min_z": "-17.6441",
        "boundingbox_max_x": "32.4189",
        "boundingbox_max_y": "112.71",
        "boundingbox_max_z": "17.6441",
        "boundingbox_width": "6.5",
        "boundingbox_height": "11.3",
        "boundingbox_thick": "3.5",
        "total_area": "233.67",
        "total_volume_dx": "156076",
        "total_volume_dy": "156076",
        "total_volume_dz": "156076"
    }
}