{
    "from_gigamesh_info_file": {
        "filename": "HS_1483_GMOCF_r1.50_n4_v512.info.txt",
        "hs_number": "HS 1483",
        "radius_in_mm": "1.5",
        "count_of_radii": "16",
        "rastersize": "512^3",
        "input_filename": "HS_1483_GMOCF.ply",
        "output_filename": "HS_1483_GMOCF_r1.50_n4_v512",
        "radii": [
            1.0,
            0.94,
            0.88,
            0.81,
            0.75,
            0.69,
            0.62,
            0.56,
            0.5,
            0.44,
            0.38,
            0.31,
            0.25,
            0.19,
            0.12,
            0.06
        ],
        "model_id": "HS 1483",
        "material": "clay, original",
        "count_of_vertices": "3507276",
        "count_of_faces": "7014564",
        "bounding_box_in_cm": [
            12.5,
            13.7,
            3.3
        ],
        "area_in_cm2": "471.92",
        "volume_dx_in_cm3": "345.21",
        "volume_dy_in_cm3": "345.21",
        "volume_dz_in_cm3": "345.21",
        "processing_began_on": "Sun Dec  9 05:53:57 2018",
        "processing_finished_on": "Sun Dec  9 06:13:19 2018",
        "processing_wall_time_in_s": "1160"
    },
    "from_ply_filename": {
        "filename": "/export/data/vNGG/tmp/Hilprecht_Sammlung/04_MSII_filtered/HS_ALL_MSII_PLY/HS_1483_GMOCF_r1.50_n4_v512.ply",
        "hs_number": "HS 1483",
        "radius_in_mm": "1.50",
        "count_of_radii": 16,
        "rastersize": 512
    },
    "from_hilprecht3d": {
        "hs_number": "HS 1483",
        "tablet_url": "https://hilprecht.mpiwg-berlin.mpg.de/object3d/30742",
        "bibliography": "1955-56: Bernhardt + Kramer. \u2013 1961: TMHNF 3, 36. \u2013 1976: Wilcke, KSLT, S. 34."
    },
    "from_cdli_search_view": {
        "archival_view": "https://cdli.ucla.edu/search/archival_view.php?ObjectID=P345631",
        "primary_publication": "CDLI Literary 000765, ex. 002",
        "author": "CDLI",
        "publication_date": "2014ff.",
        "secondary_publication": "Bernhardt, Inez &amp; Kramer, Samuel N., TMH NF 3 (1961) 36",
        "collection": "Hilprecht Collection, University of Jena, Germany",
        "museum_number": "HS 1483",
        "accession_number": "",
        "provenience": "Nippur (mod. Nuffar)",
        "excavation_number": "",
        "period": "Old Babylonian (ca. 1900-1600 BC)",
        "dates_referenced": "",
        "object_type": "tablet",
        "remarks": "",
        "material": "clay",
        "language": "Sumerian",
        "genre": "Literary",
        "sub_genre": "ETCSL 5.03.06 Debate between Copper and Silver (witness)",
        "cdli_comments": "",
        "catalogue_source": "20061112 noname",
        "atf_source": "no atf",
        "translation": "no translation",
        "ucla_library_ark": "21198/zz00209dqs",
        "composite_number": "<a target=\"_blank\" href = \"search_results.php?CompositeNumber=Q000765\">Q000765</a> ",
        "seal_number": "",
        "cdli_number": "P345631"
    },
    "from_cdli_archival_view": {
        "primary_publication": "CDLI Literary 000765, ex. 002",
        "author": "CDLI",
        "publication_date": "2014ff.",
        "secondary_publications": "Bernhardt, Inez & Kramer, Samuel N., TMH NF 3 (1961) 36",
        "citation": "",
        "author_remarks": "",
        "published_collation": "",
        "cdli_number": "P345631",
        "ucla_library_ark": "21198/zz00209dqs",
        "cdli_comments": "",
        "catalogue": "20061112 noname",
        "transliteration_remarks": "no atf",
        "translation_remarks": "no translation",
        "owner": "Hilprecht Collection, University of Jena, Germany",
        "museum_number": "HS 1483",
        "accession_number": "",
        "acquisition_history": "",
        "genre": "Literary",
        "sub_genre": "ETCSL 5.03.06 Debate between Copper and Silver (witness)",
        "sub_genre_remarks": "",
        "composite_number": "Q000765",
        "language": "Sumerian",
        "material": "clay",
        "object_remarks": "",
        "measurements_in_mm": "x  x",
        "object_preservation": "",
        "surface_preservation": "",
        "condition_description": "",
        "join_information": "",
        "seal_number": "",
        "seal_information": "",
        "provenience": "Nippur (mod. Nuffar)",
        "excavation_number": "",
        "findspot_square": "",
        "elevation": "",
        "stratigraphic_level": "",
        "findspot_remarks": "",
        "period": "Old Babylonian (ca. 1900-1600 BC)",
        "period_remarks": "",
        "date_of_origin": "",
        "dates_referenced": "",
        "alternative_years": "",
        "accounting_period": "",
        "textual_content": "@Tablet"
    },
    "from_gigamesh_info_program": {
        "filename": "HS_1483_GMOCF_r1.50_n4_v512",
        "model_id": "HS 1483",
        "model_material": "clay, original",
        "vertices_total": "3507276",
        "vertices_nan": "0",
        "vertices_solo": "0",
        "vertices_polyline": "0",
        "vertices_border": "0",
        "vertices_nonmanifold": "0",
        "vertices_on_inverted_edge": "0",
        "vertices_part_of_zero_face": "0",
        "vertices_synthetic": "1",
        "vertices_manual": "0",
        "vertices_circle_center": "0",
        "vertices_selected": "1",
        "vertices_funcval_finite": "3507276",
        "vertices_funcval_local_min": "103468",
        "vertices_funcval_local_max": "49823",
        "faces_total": "7014564",
        "faces_solo": "0",
        "faces_border": "0",
        "faces_border_dangling": "0",
        "faces_manifold": "7014564",
        "faces_nonmanifold": "0",
        "faces_sticky": "0",
        "faces_zeroarea": "0",
        "faces_inverted": "0",
        "faces_with_synth_vertices": "0",
        "boundingbox_min_x": "-62.2536",
        "boundingbox_min_y": "0",
        "boundingbox_min_z": "-16.6749",
        "boundingbox_max_x": "62.2536",
        "boundingbox_max_y": "136.98",
        "boundingbox_max_z": "16.6749",
        "boundingbox_width": "12.5",
        "boundingbox_height": "13.7",
        "boundingbox_thick": "3.3",
        "total_area": "471.92",
        "total_volume_dx": "345212",
        "total_volume_dy": "345212",
        "total_volume_dz": "345212"
    }
}