{
    "from_gigamesh_info_file": {
        "filename": "HS_1010_GMOCF_r1.50_n4_v512.info.txt",
        "hs_number": "HS 1010",
        "radius_in_mm": "1.5",
        "count_of_radii": "16",
        "rastersize": "512^3",
        "gigamesh_version": "181204",
        "threads_used": "11",
        "input_filename": "HS_1010_GMOCF.ply",
        "output_filename": "HS_1010_GMOCF_r1.50_n4_v512",
        "radii": [
            1.0,
            0.94,
            0.88,
            0.81,
            0.75,
            0.69,
            0.62,
            0.56,
            0.5,
            0.44,
            0.38,
            0.31,
            0.25,
            0.19,
            0.12,
            0.06
        ],
        "model_id": "HS 1010",
        "material": "clay, original",
        "count_of_vertices": "899904",
        "count_of_faces": "1799804",
        "bounding_box_in_cm": [
            3.5,
            4.0,
            1.4
        ],
        "area_in_cm2": "37.81",
        "volume_dx_in_cm3": "13.13",
        "volume_dy_in_cm3": "13.13",
        "volume_dz_in_cm3": "13.13",
        "processing_began_on": "Wed Dec  5 19:48:36 2018",
        "processing_finished_on": "Wed Dec  5 20:31:46 2018",
        "processing_wall_time_in_s": "2590"
    },
    "from_ply_filename": {
        "filename": "/export/data/vNGG/tmp/Hilprecht_Sammlung/04_MSII_filtered/HS_ALL_MSII_PLY/HS_1010_GMOCF_r1.50_n4_v512.ply",
        "hs_number": "HS 1010",
        "radius_in_mm": "1.50",
        "count_of_radii": 16,
        "rastersize": 512
    },
    "from_hilprecht3d": {
        "hs_number": "HS 1010",
        "tablet_url": "https://hilprecht.mpiwg-berlin.mpg.de/object3d/30244",
        "bibliography": "1937: TMH NF 1-2, 010",
        "cdli_number": "134322"
    },
    "from_cdli_search_view": {
        "archival_view": "https://cdli.ucla.edu/search/archival_view.php?ObjectID=P134322",
        "primary_publication": "TMH NF 1-2, 010",
        "author": "Pohl, Alfred",
        "publication_date": "1937",
        "secondary_publication": "",
        "collection": "Hilprecht Collection, University of Jena, Germany",
        "museum_number": "HS 1010",
        "accession_number": "",
        "provenience": "Nippur (mod. Nuffar)",
        "excavation_number": "",
        "period": "Ur III (ca. 2100-2000 BC)",
        "dates_referenced": "Amar-Suen.08.04.00",
        "object_type": "tablet",
        "remarks": "",
        "material": "clay",
        "language": "Sumerian",
        "genre": "Administrative",
        "sub_genre": "",
        "cdli_comments": "",
        "catalogue_source": "20011220 ur3_catalogue",
        "atf_source": "cdlistaff",
        "translation": "no translation",
        "ucla_library_ark": "21198/zz001z1r70",
        "composite_number": "",
        "seal_number": "S001929",
        "cdli_number": "P134322"
    },
    "from_cdli_archival_view": {
        "primary_publication": "TMH NF 1-2, 010",
        "author": "Pohl, Alfred",
        "publication_date": "1937",
        "secondary_publications": "",
        "citation": "",
        "author_remarks": "",
        "published_collation": "OrAnt 15, 324",
        "cdli_number": "P134322",
        "ucla_library_ark": "21198/zz001z1r70",
        "cdli_comments": "",
        "catalogue": "20011220 ur3_catalogue",
        "transliteration_remarks": "cdlistaff",
        "translation_remarks": "no translation",
        "owner": "Hilprecht Collection, University of Jena, Germany",
        "museum_number": "HS 1010",
        "accession_number": "",
        "acquisition_history": "",
        "genre": "Administrative",
        "sub_genre": "",
        "sub_genre_remarks": "",
        "composite_number": "",
        "language": "Sumerian",
        "material": "clay",
        "object_remarks": "",
        "measurements_in_mm": "? x ? x ?",
        "object_preservation": "",
        "surface_preservation": "",
        "condition_description": "",
        "join_information": "",
        "seal_number": "S001929",
        "seal_information": "",
        "provenience": "Nippur (mod. Nuffar)",
        "excavation_number": "",
        "findspot_square": "",
        "elevation": "",
        "stratigraphic_level": "",
        "findspot_remarks": "",
        "period": "Ur III (ca. 2100-2000 BC)",
        "period_remarks": "",
        "date_of_origin": "Amar-Suen.08.04.00",
        "dates_referenced": "Amar-Suen.08.04.00",
        "alternative_years": "",
        "accounting_period": "",
        "textual_content": "@Tablet\n@obverse \n1. 1(disz) ku3-babbar gin2 \n2. ki lu2-bala-sa6-ga-ta \n3. ad-da-kal-la \n4. szu ba-ti \n5. masz ga2-ga2-dam \n@reverse \n1. igi lugal-ezem \n2. igi szu-esz18-dar \n3. igi ur-nig2 \n4. iti szu-numun \n5. mu en eridu{ki}-ga ba-hun \n@seal 1 \n1. ad-da-kal-la \n2. dumu lugal-[ku3-ga-ni]  \n3. [masz2-e-pa3-da {d}szara2] ",
        "lineart_url": "https://cdli.ucla.edu/dl/tn_lineart/P134322_l.jpg",
        "photo_url": "https://cdli.ucla.edu/dl/tn_photo/P134322.jpg"
    },
    "from_gigamesh_info_program": {
        "filename": "HS_1010_GMOCF_r1.50_n4_v512",
        "model_id": "HS 1010",
        "model_material": "clay, original",
        "vertices_total": "899904",
        "vertices_nan": "0",
        "vertices_solo": "0",
        "vertices_polyline": "0",
        "vertices_border": "0",
        "vertices_nonmanifold": "0",
        "vertices_on_inverted_edge": "0",
        "vertices_part_of_zero_face": "0",
        "vertices_synthetic": "0",
        "vertices_manual": "0",
        "vertices_circle_center": "0",
        "vertices_selected": "0",
        "vertices_funcval_finite": "899904",
        "vertices_funcval_local_min": "19116",
        "vertices_funcval_local_max": "10248",
        "faces_total": "1799804",
        "faces_solo": "0",
        "faces_border": "0",
        "faces_border_dangling": "0",
        "faces_manifold": "1799804",
        "faces_nonmanifold": "0",
        "faces_sticky": "0",
        "faces_zeroarea": "0",
        "faces_inverted": "0",
        "faces_with_synth_vertices": "0",
        "boundingbox_min_x": "-17.5874",
        "boundingbox_min_y": "0",
        "boundingbox_min_z": "-6.9083",
        "boundingbox_max_x": "17.5874",
        "boundingbox_max_y": "40.386",
        "boundingbox_max_z": "6.9083",
        "boundingbox_width": "3.5",
        "boundingbox_height": "4",
        "boundingbox_thick": "1.4",
        "total_area": "37.81",
        "total_volume_dx": "13130.7",
        "total_volume_dy": "13130.7",
        "total_volume_dz": "13130.7"
    }
}