{
    "from_gigamesh_info_file": {
        "filename": "HS_1344_GMOCF_r1.50_n4_v512.info.txt",
        "hs_number": "HS 1344",
        "radius_in_mm": "1.5",
        "count_of_radii": "16",
        "rastersize": "512^3",
        "gigamesh_version": "181204",
        "threads_used": "11",
        "input_filename": "HS_1344_GMOCF.ply",
        "output_filename": "HS_1344_GMOCF_r1.50_n4_v512",
        "radii": [
            1.0,
            0.94,
            0.88,
            0.81,
            0.75,
            0.69,
            0.62,
            0.56,
            0.5,
            0.44,
            0.38,
            0.31,
            0.25,
            0.19,
            0.12,
            0.06
        ],
        "model_id": "HS 1344",
        "material": "clay, original",
        "count_of_vertices": "1183754",
        "count_of_faces": "2367504",
        "bounding_box_in_cm": [
            4.7,
            4.6,
            1.6
        ],
        "area_in_cm2": "47.63",
        "volume_dx_in_cm3": "14.54",
        "volume_dy_in_cm3": "14.54",
        "volume_dz_in_cm3": "14.54",
        "processing_began_on": "Wed Dec  5 11:34:02 2018",
        "processing_finished_on": "Wed Dec  5 12:31:57 2018",
        "processing_wall_time_in_s": "3474"
    },
    "from_ply_filename": {
        "filename": "/export/data/vNGG/tmp/Hilprecht_Sammlung/04_MSII_filtered/HS_ALL_MSII_PLY/HS_1344_GMOCF_r1.50_n4_v512.ply",
        "hs_number": "HS 1344",
        "radius_in_mm": "1.50",
        "count_of_radii": 16,
        "rastersize": 512
    },
    "from_hilprecht3d": {
        "hs_number": "HS 1344",
        "tablet_url": "https://hilprecht.mpiwg-berlin.mpg.de/object3d/30606",
        "bibliography": "1937: TMH NF 1-2, 344",
        "cdli_number": "134655"
    },
    "from_cdli_search_view": {
        "archival_view": "https://cdli.ucla.edu/search/archival_view.php?ObjectID=P134655",
        "primary_publication": "TMH NF 1-2, 344",
        "author": "Pohl, Alfred",
        "publication_date": "1937",
        "secondary_publication": "",
        "collection": "Hilprecht Collection, University of Jena, Germany",
        "museum_number": "HS 1344",
        "accession_number": "",
        "provenience": "Nippur (mod. Nuffar)",
        "excavation_number": "",
        "period": "Ur III (ca. 2100-2000 BC)",
        "dates_referenced": "--.--.00.00",
        "object_type": "tablet",
        "remarks": "",
        "material": "clay",
        "language": "Sumerian",
        "genre": "Administrative",
        "sub_genre": "",
        "cdli_comments": "",
        "catalogue_source": "20011220 ur3_catalogue",
        "atf_source": "cdlistaff",
        "translation": "no translation",
        "ucla_library_ark": "21198/zz001xc748",
        "composite_number": "",
        "seal_number": "",
        "cdli_number": "P134655"
    },
    "from_cdli_archival_view": {
        "primary_publication": "TMH NF 1-2, 344",
        "author": "Pohl, Alfred",
        "publication_date": "1937",
        "secondary_publications": "",
        "citation": "",
        "author_remarks": "",
        "published_collation": "",
        "cdli_number": "P134655",
        "ucla_library_ark": "21198/zz001xc748",
        "cdli_comments": "",
        "catalogue": "20011220 ur3_catalogue",
        "transliteration_remarks": "cdlistaff",
        "translation_remarks": "no translation",
        "owner": "Hilprecht Collection, University of Jena, Germany",
        "museum_number": "HS 1344",
        "accession_number": "",
        "acquisition_history": "",
        "genre": "Administrative",
        "sub_genre": "",
        "sub_genre_remarks": "",
        "composite_number": "",
        "language": "Sumerian",
        "material": "clay",
        "object_remarks": "",
        "measurements_in_mm": "? x ? x ?",
        "object_preservation": "",
        "surface_preservation": "",
        "condition_description": "",
        "join_information": "",
        "seal_number": "",
        "seal_information": "",
        "provenience": "Nippur (mod. Nuffar)",
        "excavation_number": "",
        "findspot_square": "",
        "elevation": "",
        "stratigraphic_level": "",
        "findspot_remarks": "",
        "period": "Ur III (ca. 2100-2000 BC)",
        "period_remarks": "",
        "date_of_origin": "--.--.00.00",
        "dates_referenced": "--.--.00.00",
        "alternative_years": "",
        "accounting_period": "",
        "textual_content": "@Tablet\n@obverse \n1. [x] ma2-lah6-bi-e \n2. [x] gir2 kun si-sa2 \n3. [x]-da#? de2-am3 \n4. [x] x x-ta \n5. [...] x \n$ rest broken \n@reverse \n$ beginning broken \n1'. [...] AN \n2'. [...] \n3'. [...] x \n4'. [...]-ta# \n5'. [...] AN ",
        "lineart_url": "https://cdli.ucla.edu/dl/tn_lineart/P134655_l.jpg",
        "photo_url": "https://cdli.ucla.edu/dl/tn_photo/P134655.jpg"
    },
    "from_gigamesh_info_program": {
        "filename": "HS_1344_GMOCF_r1.50_n4_v512",
        "model_id": "HS 1344",
        "model_material": "clay, original",
        "vertices_total": "1183754",
        "vertices_nan": "0",
        "vertices_solo": "0",
        "vertices_polyline": "0",
        "vertices_border": "0",
        "vertices_nonmanifold": "0",
        "vertices_on_inverted_edge": "0",
        "vertices_part_of_zero_face": "0",
        "vertices_synthetic": "0",
        "vertices_manual": "0",
        "vertices_circle_center": "0",
        "vertices_selected": "0",
        "vertices_funcval_finite": "1183754",
        "vertices_funcval_local_min": "22316",
        "vertices_funcval_local_max": "11140",
        "faces_total": "2367504",
        "faces_solo": "0",
        "faces_border": "0",
        "faces_border_dangling": "0",
        "faces_manifold": "2367504",
        "faces_nonmanifold": "0",
        "faces_sticky": "0",
        "faces_zeroarea": "0",
        "faces_inverted": "0",
        "faces_with_synth_vertices": "0",
        "boundingbox_min_x": "-23.7326",
        "boundingbox_min_y": "0",
        "boundingbox_min_z": "-7.9584",
        "boundingbox_max_x": "23.7326",
        "boundingbox_max_y": "45.6433",
        "boundingbox_max_z": "7.9584",
        "boundingbox_width": "4.7",
        "boundingbox_height": "4.6",
        "boundingbox_thick": "1.6",
        "total_area": "47.63",
        "total_volume_dx": "14543.7",
        "total_volume_dy": "14543.7",
        "total_volume_dz": "14543.7"
    }
}