{
    "from_gigamesh_info_file": {
        "filename": "HS_1039_GMOCF_r1.50_n4_v512.info.txt",
        "hs_number": "HS 1039",
        "radius_in_mm": "1.5",
        "count_of_radii": "16",
        "rastersize": "512^3",
        "gigamesh_version": "181204",
        "threads_used": "11",
        "input_filename": "HS_1039_GMOCF.ply",
        "output_filename": "HS_1039_GMOCF_r1.50_n4_v512",
        "radii": [
            1.0,
            0.94,
            0.88,
            0.81,
            0.75,
            0.69,
            0.62,
            0.56,
            0.5,
            0.44,
            0.38,
            0.31,
            0.25,
            0.19,
            0.12,
            0.06
        ],
        "model_id": "HS 1039",
        "material": "clay, original",
        "count_of_vertices": "782534",
        "count_of_faces": "1565064",
        "bounding_box_in_cm": [
            3.6,
            4.2,
            1.4
        ],
        "area_in_cm2": "39.49",
        "volume_dx_in_cm3": "14.03",
        "volume_dy_in_cm3": "14.03",
        "volume_dz_in_cm3": "14.03",
        "processing_began_on": "Fri Dec  7 02:20:50 2018",
        "processing_finished_on": "Fri Dec  7 02:54:51 2018",
        "processing_wall_time_in_s": "2041"
    },
    "from_ply_filename": {
        "filename": "/export/data/vNGG/tmp/Hilprecht_Sammlung/04_MSII_filtered/HS_ALL_MSII_PLY/HS_1039_GMOCF_r1.50_n4_v512.ply",
        "hs_number": "HS 1039",
        "radius_in_mm": "1.50",
        "count_of_radii": 16,
        "rastersize": 512
    },
    "from_hilprecht3d": {
        "hs_number": "HS 1039",
        "tablet_url": "https://hilprecht.mpiwg-berlin.mpg.de/object3d/30282",
        "bibliography": "1937: TMH NF 1-2, 039",
        "cdli_number": "134351"
    },
    "from_cdli_search_view": {
        "archival_view": "https://cdli.ucla.edu/search/archival_view.php?ObjectID=P134351",
        "primary_publication": "TMH NF 1-2, 039",
        "author": "Pohl, Alfred",
        "publication_date": "1937",
        "secondary_publication": "",
        "collection": "Hilprecht Collection, University of Jena, Germany",
        "museum_number": "HS 1039",
        "accession_number": "",
        "provenience": "Nippur (mod. Nuffar)",
        "excavation_number": "",
        "period": "Ur III (ca. 2100-2000 BC)",
        "dates_referenced": "Ibbi-Suen.02.00.00",
        "object_type": "tablet",
        "remarks": "",
        "material": "clay",
        "language": "Sumerian",
        "genre": "Administrative",
        "sub_genre": "",
        "cdli_comments": "",
        "catalogue_source": "20011220 ur3_catalogue",
        "atf_source": "cdlistaff",
        "translation": "no translation",
        "ucla_library_ark": "21198/zz001xfj72",
        "composite_number": "",
        "seal_number": "Sx",
        "cdli_number": "P134351"
    },
    "from_cdli_archival_view": {
        "primary_publication": "TMH NF 1-2, 039",
        "author": "Pohl, Alfred",
        "publication_date": "1937",
        "secondary_publications": "",
        "citation": "",
        "author_remarks": "",
        "published_collation": "OrAnt 15, 319 + 325",
        "cdli_number": "P134351",
        "ucla_library_ark": "21198/zz001xfj72",
        "cdli_comments": "",
        "catalogue": "20011220 ur3_catalogue",
        "transliteration_remarks": "cdlistaff",
        "translation_remarks": "no translation",
        "owner": "Hilprecht Collection, University of Jena, Germany",
        "museum_number": "HS 1039",
        "accession_number": "",
        "acquisition_history": "",
        "genre": "Administrative",
        "sub_genre": "",
        "sub_genre_remarks": "",
        "composite_number": "",
        "language": "Sumerian",
        "material": "clay",
        "object_remarks": "",
        "measurements_in_mm": "? x ? x ?",
        "object_preservation": "",
        "surface_preservation": "",
        "condition_description": "",
        "join_information": "",
        "seal_number": "Sx",
        "seal_information": "",
        "provenience": "Nippur (mod. Nuffar)",
        "excavation_number": "",
        "findspot_square": "",
        "elevation": "",
        "stratigraphic_level": "",
        "findspot_remarks": "",
        "period": "Ur III (ca. 2100-2000 BC)",
        "period_remarks": "",
        "date_of_origin": "Ibbi-Suen.02.00.00",
        "dates_referenced": "Ibbi-Suen.02.00.00",
        "alternative_years": "",
        "accounting_period": "",
        "textual_content": "@Tablet\n@obverse \n1. 1(disz) gin2 ku3-babbar \n2. masz2 5(disz) gin2 1(disz) gin2 \n3. ki lugal-engar-ta \n4. mu nin9-du10-ga \n5. ur-{d}szul-pa-e3 \n@reverse \n1. szu ba-ti \n2. igi lu2-gir-gi-lu{ki}-sze3 \n3. igi er3-du10-sze3 \n4. igi ur-{d}nin-nim-du6-ga \n5. lu2-inim-ma-bi-me \n6. &lt;mu&gt; en {d}inanna unu{ki}-ga masz2-e i3-pa3 \n@seal 1 \n1. [...] \n2. ARAD2? [...] ",
        "lineart_url": "https://cdli.ucla.edu/dl/tn_lineart/P134351_l.jpg",
        "photo_url": "https://cdli.ucla.edu/dl/tn_photo/P134351.jpg"
    },
    "from_gigamesh_info_program": {
        "filename": "HS_1039_GMOCF_r1.50_n4_v512",
        "model_id": "HS 1039",
        "model_material": "clay, original",
        "vertices_total": "782534",
        "vertices_nan": "0",
        "vertices_solo": "0",
        "vertices_polyline": "0",
        "vertices_border": "0",
        "vertices_nonmanifold": "0",
        "vertices_on_inverted_edge": "0",
        "vertices_part_of_zero_face": "0",
        "vertices_synthetic": "0",
        "vertices_manual": "0",
        "vertices_circle_center": "0",
        "vertices_selected": "0",
        "vertices_funcval_finite": "782534",
        "vertices_funcval_local_min": "15559",
        "vertices_funcval_local_max": "8026",
        "faces_total": "1565064",
        "faces_solo": "0",
        "faces_border": "0",
        "faces_border_dangling": "0",
        "faces_manifold": "1565064",
        "faces_nonmanifold": "0",
        "faces_sticky": "0",
        "faces_zeroarea": "0",
        "faces_inverted": "0",
        "faces_with_synth_vertices": "0",
        "boundingbox_min_x": "-17.752",
        "boundingbox_min_y": "0",
        "boundingbox_min_z": "-6.9802",
        "boundingbox_max_x": "17.752",
        "boundingbox_max_y": "42.4924",
        "boundingbox_max_z": "6.9802",
        "boundingbox_width": "3.6",
        "boundingbox_height": "4.2",
        "boundingbox_thick": "1.4",
        "total_area": "39.49",
        "total_volume_dx": "14026.3",
        "total_volume_dy": "14026.3",
        "total_volume_dz": "14026.3"
    }
}