{
    "from_gigamesh_info_file": {
        "filename": "HS_1389_GMOCF_r1.50_n4_v512.info.txt",
        "hs_number": "HS 1389",
        "radius_in_mm": "1.5",
        "count_of_radii": "16",
        "rastersize": "512^3",
        "gigamesh_version": "181005",
        "threads_used": "7",
        "input_filename": "HS_1389_GMOCF.ply",
        "output_filename": "HS_1389_GMOCF_r1.50_n4_v512",
        "radii": [
            1.0,
            0.94,
            0.88,
            0.81,
            0.75,
            0.69,
            0.62,
            0.56,
            0.5,
            0.44,
            0.38,
            0.31,
            0.25,
            0.19,
            0.12,
            0.06
        ],
        "model_id": "HS 1389",
        "material": "clay, original",
        "count_of_vertices": "2251251",
        "count_of_faces": "4502498",
        "bounding_box_in_cm": [
            7.4,
            7.7,
            3.0
        ],
        "area_in_cm2": "115.80",
        "volume_dx_in_cm3": "72.26",
        "volume_dy_in_cm3": "72.26",
        "volume_dz_in_cm3": "72.26",
        "processing_began_on": "Wed Dec  5 02:08:43 2018",
        "processing_finished_on": "Wed Dec  5 07:08:21 2018",
        "processing_wall_time_in_s": "17978"
    },
    "from_ply_filename": {
        "filename": "/export/data/vNGG/tmp/Hilprecht_Sammlung/04_MSII_filtered/HS_ALL_MSII_PLY/HS_1389_GMOCF_r1.50_n4_v512.ply",
        "hs_number": "HS 1389",
        "radius_in_mm": "1.50",
        "count_of_radii": 16,
        "rastersize": 512
    },
    "from_hilprecht3d": {
        "hs_number": "HS 1389",
        "tablet_url": "https://hilprecht.mpiwg-berlin.mpg.de/object3d/30655",
        "bibliography": ""
    },
    "from_gigamesh_info_program": {
        "filename": "HS_1389_GMOCF_r1.50_n4_v512",
        "model_id": "HS 1389",
        "model_material": "clay, original",
        "vertices_total": "2251251",
        "vertices_nan": "0",
        "vertices_solo": "0",
        "vertices_polyline": "0",
        "vertices_border": "0",
        "vertices_nonmanifold": "0",
        "vertices_on_inverted_edge": "0",
        "vertices_part_of_zero_face": "0",
        "vertices_synthetic": "285",
        "vertices_manual": "0",
        "vertices_circle_center": "0",
        "vertices_selected": "0",
        "vertices_funcval_finite": "2251251",
        "vertices_funcval_local_min": "64590",
        "vertices_funcval_local_max": "36288",
        "faces_total": "4502498",
        "faces_solo": "0",
        "faces_border": "0",
        "faces_border_dangling": "0",
        "faces_manifold": "4502498",
        "faces_nonmanifold": "0",
        "faces_sticky": "0",
        "faces_zeroarea": "0",
        "faces_inverted": "0",
        "faces_with_synth_vertices": "393",
        "boundingbox_min_x": "-37.2078",
        "boundingbox_min_y": "0",
        "boundingbox_min_z": "-14.884",
        "boundingbox_max_x": "37.2078",
        "boundingbox_max_y": "76.841",
        "boundingbox_max_z": "14.884",
        "boundingbox_width": "7.4",
        "boundingbox_height": "7.7",
        "boundingbox_thick": "3",
        "total_area": "115.8",
        "total_volume_dx": "72260.3",
        "total_volume_dy": "72260.3",
        "total_volume_dz": "72260.3"
    }
}