{
    "from_gigamesh_info_file": {
        "filename": "HS_1074_GMOCF_r1.50_n4_v512.info.txt",
        "hs_number": "HS 1074",
        "radius_in_mm": "1.5",
        "count_of_radii": "16",
        "rastersize": "512^3",
        "gigamesh_version": "181204",
        "threads_used": "11",
        "input_filename": "HS_1074_GMOCF.ply",
        "output_filename": "HS_1074_GMOCF_r1.50_n4_v512",
        "radii": [
            1.0,
            0.94,
            0.88,
            0.81,
            0.75,
            0.69,
            0.62,
            0.56,
            0.5,
            0.44,
            0.38,
            0.31,
            0.25,
            0.19,
            0.12,
            0.06
        ],
        "model_id": "HS 1074",
        "material": "clay, original",
        "count_of_vertices": "653563",
        "count_of_faces": "1307122",
        "bounding_box_in_cm": [
            3.3,
            3.3,
            1.4
        ],
        "area_in_cm2": "29.26",
        "volume_dx_in_cm3": "10.18",
        "volume_dy_in_cm3": "10.18",
        "volume_dz_in_cm3": "10.18",
        "processing_began_on": "Fri Dec  7 12:26:42 2018",
        "processing_finished_on": "Fri Dec  7 13:06:44 2018",
        "processing_wall_time_in_s": "2401"
    },
    "from_ply_filename": {
        "filename": "/export/data/vNGG/tmp/Hilprecht_Sammlung/04_MSII_filtered/HS_ALL_MSII_PLY/HS_1074_GMOCF_r1.50_n4_v512.ply",
        "hs_number": "HS 1074",
        "radius_in_mm": "1.50",
        "count_of_radii": 16,
        "rastersize": 512
    },
    "from_hilprecht3d": {
        "hs_number": "HS 1074",
        "tablet_url": "https://hilprecht.mpiwg-berlin.mpg.de/object3d/30323",
        "bibliography": "1937: TMH NF 1-2, 074",
        "cdli_number": "134386"
    },
    "from_cdli_search_view": {
        "archival_view": "https://cdli.ucla.edu/search/archival_view.php?ObjectID=P134386",
        "primary_publication": "TMH NF 1-2, 074",
        "author": "Pohl, Alfred",
        "publication_date": "1937",
        "secondary_publication": "",
        "collection": "Hilprecht Collection, University of Jena, Germany",
        "museum_number": "HS 1074",
        "accession_number": "",
        "provenience": "Nippur (mod. Nuffar)",
        "excavation_number": "",
        "period": "Ur III (ca. 2100-2000 BC)",
        "dates_referenced": "\u0160\u016b-Suen.01.02.00",
        "object_type": "tablet",
        "remarks": "",
        "material": "clay",
        "language": "Sumerian",
        "genre": "Administrative",
        "sub_genre": "",
        "cdli_comments": "",
        "catalogue_source": "20011220 ur3_catalogue",
        "atf_source": "cdlistaff",
        "translation": "no translation",
        "ucla_library_ark": "21198/zz001xvbzd",
        "composite_number": "",
        "seal_number": "Sx",
        "cdli_number": "P134386"
    },
    "from_cdli_archival_view": {
        "primary_publication": "TMH NF 1-2, 074",
        "author": "Pohl, Alfred",
        "publication_date": "1937",
        "secondary_publications": "",
        "citation": "",
        "author_remarks": "",
        "published_collation": "",
        "cdli_number": "P134386",
        "ucla_library_ark": "21198/zz001xvbzd",
        "cdli_comments": "",
        "catalogue": "20011220 ur3_catalogue",
        "transliteration_remarks": "cdlistaff",
        "translation_remarks": "no translation",
        "owner": "Hilprecht Collection, University of Jena, Germany",
        "museum_number": "HS 1074",
        "accession_number": "",
        "acquisition_history": "",
        "genre": "Administrative",
        "sub_genre": "",
        "sub_genre_remarks": "",
        "composite_number": "",
        "language": "Sumerian",
        "material": "clay",
        "object_remarks": "",
        "measurements_in_mm": "? x ? x ?",
        "object_preservation": "",
        "surface_preservation": "",
        "condition_description": "",
        "join_information": "",
        "seal_number": "Sx",
        "seal_information": "",
        "provenience": "Nippur (mod. Nuffar)",
        "excavation_number": "",
        "findspot_square": "",
        "elevation": "",
        "stratigraphic_level": "",
        "findspot_remarks": "",
        "period": "Ur III (ca. 2100-2000 BC)",
        "period_remarks": "",
        "date_of_origin": "\u0160\u016b-Suen.01.02.00",
        "dates_referenced": "\u0160\u016b-Suen.01.02.00",
        "alternative_years": "",
        "accounting_period": "",
        "textual_content": "@Tablet\n@obverse\n1. 5(asz) sze gur\n2. ki lu2-dingir-ra-ta\n3. mu-kux(DU)\n4. geme2-abzu-ke4\n@reverse\n1. szu ba-ti\n$ blank space\n# seal impression\n2. iti gu4-si-su\n3. mu {d}szu-{d}suen lugal-am3\n@seal 1\ncolumn 1\n1. {d}amar#-{d}suen#\n2. nita kal-ga\n3. lugal uri5{ki}-ma\n4. [lugal an-ub-da limmu2-ba]\ncolumn 2\n1. [...]\n2. [...]\n3. dumu [...]\n4. [ARAD2-zu]",
        "lineart_url": "https://cdli.ucla.edu/dl/tn_lineart/P134386_l.jpg",
        "photo_url": "https://cdli.ucla.edu/dl/tn_photo/P134386.jpg"
    },
    "from_gigamesh_info_program": {
        "filename": "HS_1074_GMOCF_r1.50_n4_v512",
        "model_id": "HS 1074",
        "model_material": "clay, original",
        "vertices_total": "653563",
        "vertices_nan": "0",
        "vertices_solo": "0",
        "vertices_polyline": "0",
        "vertices_border": "0",
        "vertices_nonmanifold": "0",
        "vertices_on_inverted_edge": "0",
        "vertices_part_of_zero_face": "0",
        "vertices_synthetic": "0",
        "vertices_manual": "0",
        "vertices_circle_center": "0",
        "vertices_selected": "0",
        "vertices_funcval_finite": "653563",
        "vertices_funcval_local_min": "16866",
        "vertices_funcval_local_max": "9469",
        "faces_total": "1307122",
        "faces_solo": "0",
        "faces_border": "0",
        "faces_border_dangling": "0",
        "faces_manifold": "1307122",
        "faces_nonmanifold": "0",
        "faces_sticky": "0",
        "faces_zeroarea": "0",
        "faces_inverted": "0",
        "faces_with_synth_vertices": "0",
        "boundingbox_min_x": "-16.546",
        "boundingbox_min_y": "0",
        "boundingbox_min_z": "-6.989",
        "boundingbox_max_x": "16.546",
        "boundingbox_max_y": "33.3687",
        "boundingbox_max_z": "6.989",
        "boundingbox_width": "3.3",
        "boundingbox_height": "3.3",
        "boundingbox_thick": "1.4",
        "total_area": "29.26",
        "total_volume_dx": "10175.5",
        "total_volume_dy": "10175.5",
        "total_volume_dz": "10175.5"
    }
}