{
    "from_gigamesh_info_file": {
        "filename": "HS_1451_GMOCF_r1.50_n4_v512.info.txt",
        "hs_number": "HS 1451",
        "radius_in_mm": "1.5",
        "count_of_radii": "16",
        "rastersize": "512^3",
        "input_filename": "HS_1451_GMOCF.ply",
        "output_filename": "HS_1451_GMOCF_r1.50_n4_v512",
        "radii": [
            1.0,
            0.94,
            0.88,
            0.81,
            0.75,
            0.69,
            0.62,
            0.56,
            0.5,
            0.44,
            0.38,
            0.31,
            0.25,
            0.19,
            0.12,
            0.06
        ],
        "model_id": "HS 1451",
        "material": "clay, original",
        "count_of_vertices": "3187685",
        "count_of_faces": "6375378",
        "bounding_box_in_cm": [
            5.3,
            7.2,
            3.2
        ],
        "area_in_cm2": "122.20",
        "volume_dx_in_cm3": "70.93",
        "volume_dy_in_cm3": "70.93",
        "volume_dz_in_cm3": "70.93",
        "processing_began_on": "Fri Dec  7 11:00:28 2018",
        "processing_finished_on": "Fri Dec  7 11:54:21 2018",
        "processing_wall_time_in_s": "3229"
    },
    "from_ply_filename": {
        "filename": "/export/data/vNGG/tmp/Hilprecht_Sammlung/04_MSII_filtered/HS_ALL_MSII_PLY/HS_1451_GMOCF_r1.50_n4_v512.ply",
        "hs_number": "HS 1451",
        "radius_in_mm": "1.50",
        "count_of_radii": 16,
        "rastersize": 512
    },
    "from_hilprecht3d": {
        "hs_number": "HS 1451",
        "tablet_url": "https://hilprecht.mpiwg-berlin.mpg.de/object3d/30716",
        "bibliography": ""
    },
    "from_cdli_search_view": {
        "archival_view": "https://cdli.ucla.edu/search/archival_view.php?ObjectID=P229764",
        "primary_publication": "TMH 11, 08",
        "author": "Spada, Gabriella",
        "publication_date": "2018",
        "secondary_publication": "",
        "collection": "Hilprecht Collection, University of Jena, Germany",
        "museum_number": "HS 1451",
        "accession_number": "",
        "provenience": "Nippur (mod. Nuffar) ?",
        "excavation_number": "",
        "period": "Old Babylonian (ca. 1900-1600 BC)",
        "dates_referenced": "",
        "object_type": "tablet",
        "remarks": "",
        "material": "clay",
        "language": "Sumerian",
        "genre": "Lexical; School",
        "sub_genre": "obv: model contract; rev: OB Hh5  (geographical names and stars: Hh 20-22)",
        "cdli_comments": "",
        "catalogue_source": "20030911 veldhuis_nippurlexical",
        "atf_source": "dccltstaff",
        "translation": "no translation",
        "ucla_library_ark": "21198/zz001rczpm",
        "composite_number": "",
        "seal_number": "",
        "cdli_number": "P229764"
    },
    "from_cdli_archival_view": {
        "primary_publication": "TMH 11, 08",
        "author": "Spada, Gabriella",
        "publication_date": "2018",
        "secondary_publications": "",
        "citation": "",
        "author_remarks": "",
        "published_collation": "",
        "cdli_number": "P229764",
        "ucla_library_ark": "21198/zz001rczpm",
        "cdli_comments": "",
        "catalogue": "20030911 veldhuis_nippurlexical",
        "transliteration_remarks": "dccltstaff",
        "translation_remarks": "no translation",
        "owner": "Hilprecht Collection, University of Jena, Germany",
        "museum_number": "HS 1451",
        "accession_number": "",
        "acquisition_history": "",
        "genre": "Lexical; School",
        "sub_genre": "obv: model contract; rev: OB Hh5  (geographical names and stars: Hh 20-22)",
        "sub_genre_remarks": "Oelsner's list: 'Hh XXff (bis MSL XI, 102f).",
        "composite_number": "",
        "language": "Sumerian",
        "material": "clay",
        "object_remarks": "",
        "measurements_in_mm": "? x ? x ?",
        "object_preservation": "",
        "surface_preservation": "",
        "condition_description": "",
        "join_information": "",
        "seal_number": "",
        "seal_information": "",
        "provenience": "Nippur (mod. Nuffar) ?",
        "excavation_number": "",
        "findspot_square": "",
        "elevation": "",
        "stratigraphic_level": "",
        "findspot_remarks": "",
        "period": "Old Babylonian (ca. 1900-1600 BC)",
        "period_remarks": "",
        "date_of_origin": "",
        "dates_referenced": "",
        "alternative_years": "",
        "accounting_period": "",
        "textual_content": "@Tablet"
    },
    "from_gigamesh_info_program": {
        "filename": "HS_1451_GMOCF_r1.50_n4_v512",
        "model_id": "HS 1451",
        "model_material": "clay, original",
        "vertices_total": "3187685",
        "vertices_nan": "0",
        "vertices_solo": "0",
        "vertices_polyline": "0",
        "vertices_border": "0",
        "vertices_nonmanifold": "0",
        "vertices_on_inverted_edge": "0",
        "vertices_part_of_zero_face": "0",
        "vertices_synthetic": "1788",
        "vertices_manual": "0",
        "vertices_circle_center": "0",
        "vertices_selected": "0",
        "vertices_funcval_finite": "3187685",
        "vertices_funcval_local_min": "70467",
        "vertices_funcval_local_max": "36943",
        "faces_total": "6375378",
        "faces_solo": "0",
        "faces_border": "0",
        "faces_border_dangling": "0",
        "faces_manifold": "6375378",
        "faces_nonmanifold": "0",
        "faces_sticky": "0",
        "faces_zeroarea": "0",
        "faces_inverted": "0",
        "faces_with_synth_vertices": "2786",
        "boundingbox_min_x": "-26.3643",
        "boundingbox_min_y": "0",
        "boundingbox_min_z": "-15.8996",
        "boundingbox_max_x": "26.3643",
        "boundingbox_max_y": "71.7595",
        "boundingbox_max_z": "15.8996",
        "boundingbox_width": "5.3",
        "boundingbox_height": "7.2",
        "boundingbox_thick": "3.2",
        "total_area": "122.2",
        "total_volume_dx": "70932",
        "total_volume_dy": "70932",
        "total_volume_dz": "70932"
    }
}