{
    "from_gigamesh_info_file": {
        "filename": "HS_1181_GMOCF_r1.50_n4_v512.info.txt",
        "hs_number": "HS 1181",
        "radius_in_mm": "1.5",
        "count_of_radii": "16",
        "rastersize": "512^3",
        "gigamesh_version": "181204",
        "threads_used": "11",
        "input_filename": "HS_1181_GMOCF.ply",
        "output_filename": "HS_1181_GMOCF_r1.50_n4_v512",
        "radii": [
            1.0,
            0.94,
            0.88,
            0.81,
            0.75,
            0.69,
            0.62,
            0.56,
            0.5,
            0.44,
            0.38,
            0.31,
            0.25,
            0.19,
            0.12,
            0.06
        ],
        "model_id": "HS 1181",
        "material": "clay, original",
        "count_of_vertices": "1272855",
        "count_of_faces": "2545706",
        "bounding_box_in_cm": [
            3.9,
            5.3,
            1.8
        ],
        "area_in_cm2": "58.82",
        "volume_dx_in_cm3": "23.94",
        "volume_dy_in_cm3": "23.94",
        "volume_dz_in_cm3": "23.94",
        "processing_began_on": "Fri Dec  7 07:19:25 2018",
        "processing_finished_on": "Fri Dec  7 08:15:52 2018",
        "processing_wall_time_in_s": "3387"
    },
    "from_ply_filename": {
        "filename": "/export/data/vNGG/tmp/Hilprecht_Sammlung/04_MSII_filtered/HS_ALL_MSII_PLY/HS_1181_GMOCF_r1.50_n4_v512.ply",
        "hs_number": "HS 1181",
        "radius_in_mm": "1.50",
        "count_of_radii": 16,
        "rastersize": 512
    },
    "from_hilprecht3d": {
        "hs_number": "HS 1181",
        "tablet_url": "https://hilprecht.mpiwg-berlin.mpg.de/object3d/30434",
        "bibliography": "1937: TMH NF 1-2, 181",
        "cdli_number": "134492"
    },
    "from_cdli_search_view": {
        "archival_view": "https://cdli.ucla.edu/search/archival_view.php?ObjectID=P134492",
        "primary_publication": "TMH NF 1-2, 181",
        "author": "Pohl, Alfred",
        "publication_date": "1937",
        "secondary_publication": "",
        "collection": "Hilprecht Collection, University of Jena, Germany",
        "museum_number": "HS 1181",
        "accession_number": "",
        "provenience": "Nippur (mod. Nuffar)",
        "excavation_number": "",
        "period": "Ur III (ca. 2100-2000 BC)",
        "dates_referenced": "Amar-Suen.07.10.00",
        "object_type": "tablet",
        "remarks": "",
        "material": "clay",
        "language": "Sumerian",
        "genre": "Administrative",
        "sub_genre": "",
        "cdli_comments": "",
        "catalogue_source": "20011220 ur3_catalogue",
        "atf_source": "cdlistaff",
        "translation": "no translation",
        "ucla_library_ark": "21198/zz001xf1mh",
        "composite_number": "",
        "seal_number": "",
        "cdli_number": "P134492"
    },
    "from_cdli_archival_view": {
        "primary_publication": "TMH NF 1-2, 181",
        "author": "Pohl, Alfred",
        "publication_date": "1937",
        "secondary_publications": "",
        "citation": "",
        "author_remarks": "",
        "published_collation": "OrAnt 15, 321",
        "cdli_number": "P134492",
        "ucla_library_ark": "21198/zz001xf1mh",
        "cdli_comments": "",
        "catalogue": "20011220 ur3_catalogue",
        "transliteration_remarks": "cdlistaff",
        "translation_remarks": "no translation",
        "owner": "Hilprecht Collection, University of Jena, Germany",
        "museum_number": "HS 1181",
        "accession_number": "",
        "acquisition_history": "",
        "genre": "Administrative",
        "sub_genre": "",
        "sub_genre_remarks": "",
        "composite_number": "",
        "language": "Sumerian",
        "material": "clay",
        "object_remarks": "",
        "measurements_in_mm": "? x ? x ?",
        "object_preservation": "",
        "surface_preservation": "",
        "condition_description": "",
        "join_information": "",
        "seal_number": "",
        "seal_information": "",
        "provenience": "Nippur (mod. Nuffar)",
        "excavation_number": "",
        "findspot_square": "",
        "elevation": "",
        "stratigraphic_level": "",
        "findspot_remarks": "",
        "period": "Ur III (ca. 2100-2000 BC)",
        "period_remarks": "",
        "date_of_origin": "Amar-Suen.07.10.00",
        "dates_referenced": "Amar-Suen.07.10.00",
        "alternative_years": "",
        "accounting_period": "",
        "textual_content": "@Tablet\n@obverse \n1. 1(u) 2(disz) 1/2(disz) gin2 siki nig2-lam2 3(disz)-kam us2 \n2. 1(u) gin2 siki ba-tab duh-hu-um 4(disz)-kam us2 \n3. 1(disz) 5/6(disz) ma-na siki nig2-lam2 4(disz)-kam us2 \n4. 2/3(disz) ma-na 7(disz) 1/2(disz) gin2 siki guz-za 4(disz)-kam us2 \n@reverse \n1. 2(disz) ma-na siki nig2-lam2 3(disz)-kam us2 \n$ blank space \n2. szunigin 5(disz) ma-na siki \n3. ki lugal-ma2-gur8-rex(HU) igi-nim-ma \n4. e2-gal-ta \n5. ur-tum-al-ke4 \n6. szu ba-ti \n7. iti! ku3-SZIM \n8. mu hu-uh2-nu-rix(HU){ki} ba-hul \n ",
        "lineart_url": "https://cdli.ucla.edu/dl/tn_lineart/P134492_l.jpg",
        "photo_url": "https://cdli.ucla.edu/dl/tn_photo/P134492.jpg"
    },
    "from_gigamesh_info_program": {
        "filename": "HS_1181_GMOCF_r1.50_n4_v512",
        "model_id": "HS 1181",
        "model_material": "clay, original",
        "vertices_total": "1272855",
        "vertices_nan": "0",
        "vertices_solo": "0",
        "vertices_polyline": "0",
        "vertices_border": "0",
        "vertices_nonmanifold": "0",
        "vertices_on_inverted_edge": "0",
        "vertices_part_of_zero_face": "0",
        "vertices_synthetic": "0",
        "vertices_manual": "0",
        "vertices_circle_center": "0",
        "vertices_selected": "0",
        "vertices_funcval_finite": "1272855",
        "vertices_funcval_local_min": "24038",
        "vertices_funcval_local_max": "12005",
        "faces_total": "2545706",
        "faces_solo": "0",
        "faces_border": "0",
        "faces_border_dangling": "0",
        "faces_manifold": "2545706",
        "faces_nonmanifold": "0",
        "faces_sticky": "0",
        "faces_zeroarea": "0",
        "faces_inverted": "0",
        "faces_with_synth_vertices": "0",
        "boundingbox_min_x": "-19.6429",
        "boundingbox_min_y": "0",
        "boundingbox_min_z": "-8.8165",
        "boundingbox_max_x": "19.6429",
        "boundingbox_max_y": "53.026",
        "boundingbox_max_z": "8.8165",
        "boundingbox_width": "3.9",
        "boundingbox_height": "5.3",
        "boundingbox_thick": "1.8",
        "total_area": "58.82",
        "total_volume_dx": "23938",
        "total_volume_dy": "23938",
        "total_volume_dz": "23938"
    }
}