{
    "from_gigamesh_info_file": {
        "filename": "HS_1264_GMOCF_r1.50_n4_v512.info.txt",
        "hs_number": "HS 1264",
        "radius_in_mm": "1.5",
        "count_of_radii": "16",
        "rastersize": "512^3",
        "gigamesh_version": "181204",
        "threads_used": "11",
        "input_filename": "HS_1264_GMOCF.ply",
        "output_filename": "HS_1264_GMOCF_r1.50_n4_v512",
        "radii": [
            1.0,
            0.94,
            0.88,
            0.81,
            0.75,
            0.69,
            0.62,
            0.56,
            0.5,
            0.44,
            0.38,
            0.31,
            0.25,
            0.19,
            0.12,
            0.06
        ],
        "model_id": "HS 1264",
        "material": "clay, original",
        "count_of_vertices": "1555269",
        "count_of_faces": "3110534",
        "bounding_box_in_cm": [
            4.4,
            5.9,
            2.0
        ],
        "area_in_cm2": "73.54",
        "volume_dx_in_cm3": "33.69",
        "volume_dy_in_cm3": "33.69",
        "volume_dz_in_cm3": "33.69",
        "processing_began_on": "Wed Dec 12 00:13:01 2018",
        "processing_finished_on": "Wed Dec 12 01:17:57 2018",
        "processing_wall_time_in_s": "3896"
    },
    "from_ply_filename": {
        "filename": "/export/data/vNGG/tmp/Hilprecht_Sammlung/04_MSII_filtered/HS_ALL_MSII_PLY/HS_1264_GMOCF_r1.50_n4_v512.ply",
        "hs_number": "HS 1264",
        "radius_in_mm": "1.50",
        "count_of_radii": 16,
        "rastersize": 512
    },
    "from_hilprecht3d": {
        "hs_number": "HS 1264",
        "tablet_url": "https://hilprecht.mpiwg-berlin.mpg.de/object3d/30526",
        "bibliography": "1937: TMH NF 1-2, 264",
        "cdli_number": "134575"
    },
    "from_cdli_search_view": {
        "archival_view": "https://cdli.ucla.edu/search/archival_view.php?ObjectID=P134575",
        "primary_publication": "TMH NF 1-2, 264",
        "author": "Pohl, Alfred",
        "publication_date": "1937",
        "secondary_publication": "",
        "collection": "Hilprecht Collection, University of Jena, Germany",
        "museum_number": "HS 1264",
        "accession_number": "",
        "provenience": "Nippur (mod. Nuffar)",
        "excavation_number": "",
        "period": "Ur III (ca. 2100-2000 BC)",
        "dates_referenced": "\u0160\u016b-Suen.08.04.11 (Reichskalender)",
        "object_type": "tablet",
        "remarks": "",
        "material": "clay",
        "language": "Sumerian",
        "genre": "Administrative",
        "sub_genre": "",
        "cdli_comments": "",
        "catalogue_source": "20011220 ur3_catalogue",
        "atf_source": "cdlistaff",
        "translation": "no translation",
        "ucla_library_ark": "21198/zz001rps81",
        "composite_number": "",
        "seal_number": "",
        "cdli_number": "P134575"
    },
    "from_cdli_archival_view": {
        "primary_publication": "TMH NF 1-2, 264",
        "author": "Pohl, Alfred",
        "publication_date": "1937",
        "secondary_publications": "",
        "citation": "",
        "author_remarks": "",
        "published_collation": "OrAnt. 17, 60",
        "cdli_number": "P134575",
        "ucla_library_ark": "21198/zz001rps81",
        "cdli_comments": "",
        "catalogue": "20011220 ur3_catalogue",
        "transliteration_remarks": "cdlistaff",
        "translation_remarks": "no translation",
        "owner": "Hilprecht Collection, University of Jena, Germany",
        "museum_number": "HS 1264",
        "accession_number": "",
        "acquisition_history": "",
        "genre": "Administrative",
        "sub_genre": "",
        "sub_genre_remarks": "",
        "composite_number": "",
        "language": "Sumerian",
        "material": "clay",
        "object_remarks": "",
        "measurements_in_mm": "? x ? x ?",
        "object_preservation": "",
        "surface_preservation": "",
        "condition_description": "",
        "join_information": "",
        "seal_number": "",
        "seal_information": "",
        "provenience": "Nippur (mod. Nuffar)",
        "excavation_number": "",
        "findspot_square": "",
        "elevation": "",
        "stratigraphic_level": "",
        "findspot_remarks": "",
        "period": "Ur III (ca. 2100-2000 BC)",
        "period_remarks": "",
        "date_of_origin": "\u0160\u016b-Suen.08.04.11 (Reichskalender)",
        "dates_referenced": "\u0160\u016b-Suen.08.04.11 (Reichskalender)",
        "alternative_years": "",
        "accounting_period": "",
        "textual_content": "@Tablet\n@obverse \n1. 1(disz) gu4 niga {d}en-lil2 \n2. 1(disz) gu4 niga {d}nin-lil2 \n3. lugal kux(KWU636)-ra \n4. a2 ge6-ba-a \n5. sza3 a2-ki-ti szu-numun-a \n6. 1(disz) gu4 u2 {d}en-lil2 \n7. 1(disz) gu4 u2 {d}nin-lil2 \n8. gu4 ge6-kam \n9. a-tu sagi maszkim \n@reverse \n1. u4 1(u) 1(disz)-kam \n2. ki puzur4-{d}en-lil2-ta \n3. ba-zi \n4. giri3 ip-qu2-sza szar2-ra-ab-du \n5. iti u5-bi2{muszen}-gu7 \n6. [mu] {d}szu-{d}suen lugal uri5{ki#}-ma-ke4 ma2#-gur8-mah {d}en-lil2 {d}nin-lil2-ra mu-ne-dim2 \n@left \n1. 4(disz) gu4 ",
        "lineart_url": "https://cdli.ucla.edu/dl/tn_lineart/P134575_l.jpg",
        "photo_url": "https://cdli.ucla.edu/dl/tn_photo/P134575.jpg"
    },
    "from_gigamesh_info_program": {
        "filename": "HS_1264_GMOCF_r1.50_n4_v512",
        "model_id": "HS 1264",
        "model_material": "clay, original",
        "vertices_total": "1555269",
        "vertices_nan": "0",
        "vertices_solo": "0",
        "vertices_polyline": "0",
        "vertices_border": "0",
        "vertices_nonmanifold": "0",
        "vertices_on_inverted_edge": "0",
        "vertices_part_of_zero_face": "0",
        "vertices_synthetic": "0",
        "vertices_manual": "0",
        "vertices_circle_center": "0",
        "vertices_selected": "0",
        "vertices_funcval_finite": "1555269",
        "vertices_funcval_local_min": "28519",
        "vertices_funcval_local_max": "12859",
        "faces_total": "3110534",
        "faces_solo": "0",
        "faces_border": "0",
        "faces_border_dangling": "0",
        "faces_manifold": "3110534",
        "faces_nonmanifold": "0",
        "faces_sticky": "0",
        "faces_zeroarea": "0",
        "faces_inverted": "0",
        "faces_with_synth_vertices": "0",
        "boundingbox_min_x": "-21.963",
        "boundingbox_min_y": "0",
        "boundingbox_min_z": "-10.1614",
        "boundingbox_max_x": "21.963",
        "boundingbox_max_y": "59.0366",
        "boundingbox_max_z": "10.1614",
        "boundingbox_width": "4.4",
        "boundingbox_height": "5.9",
        "boundingbox_thick": "2",
        "total_area": "73.54",
        "total_volume_dx": "33689",
        "total_volume_dy": "33689",
        "total_volume_dz": "33689"
    }
}