{
    "from_gigamesh_info_file": {
        "filename": "HS_1222_GMOCF_r1.50_n4_v512.info.txt",
        "hs_number": "HS 1222",
        "radius_in_mm": "1.5",
        "count_of_radii": "16",
        "rastersize": "512^3",
        "gigamesh_version": "181204",
        "threads_used": "11",
        "input_filename": "HS_1222_GMOCF.ply",
        "output_filename": "HS_1222_GMOCF_r1.50_n4_v512",
        "radii": [
            1.0,
            0.94,
            0.88,
            0.81,
            0.75,
            0.69,
            0.62,
            0.56,
            0.5,
            0.44,
            0.38,
            0.31,
            0.25,
            0.19,
            0.12,
            0.06
        ],
        "model_id": "HS 1222",
        "material": "clay, original",
        "count_of_vertices": "661188",
        "count_of_faces": "1322372",
        "bounding_box_in_cm": [
            3.0,
            3.2,
            1.4
        ],
        "area_in_cm2": "29.06",
        "volume_dx_in_cm3": "9.08",
        "volume_dy_in_cm3": "9.08",
        "volume_dz_in_cm3": "9.08",
        "processing_began_on": "Wed Dec  5 23:22:54 2018",
        "processing_finished_on": "Wed Dec  5 23:53:07 2018",
        "processing_wall_time_in_s": "1812"
    },
    "from_ply_filename": {
        "filename": "/export/data/vNGG/tmp/Hilprecht_Sammlung/04_MSII_filtered/HS_ALL_MSII_PLY/HS_1222_GMOCF_r1.50_n4_v512.ply",
        "hs_number": "HS 1222",
        "radius_in_mm": "1.50",
        "count_of_radii": 16,
        "rastersize": 512
    },
    "from_hilprecht3d": {
        "hs_number": "HS 1222",
        "tablet_url": "https://hilprecht.mpiwg-berlin.mpg.de/object3d/30481",
        "bibliography": "1937: TMH NF 1-2, 222",
        "cdli_number": "134533"
    },
    "from_cdli_search_view": {
        "archival_view": "https://cdli.ucla.edu/search/archival_view.php?ObjectID=P134533",
        "primary_publication": "TMH NF 1-2, 222",
        "author": "Pohl, Alfred",
        "publication_date": "1937",
        "secondary_publication": "",
        "collection": "Hilprecht Collection, University of Jena, Germany",
        "museum_number": "HS 1222",
        "accession_number": "",
        "provenience": "Nippur (mod. Nuffar)",
        "excavation_number": "",
        "period": "Ur III (ca. 2100-2000 BC)",
        "dates_referenced": "Amar-Suen.08.06.19",
        "object_type": "tablet",
        "remarks": "",
        "material": "clay",
        "language": "Sumerian",
        "genre": "Administrative",
        "sub_genre": "",
        "cdli_comments": "",
        "catalogue_source": "20011220 ur3_catalogue",
        "atf_source": "cdlistaff",
        "translation": "no translation",
        "ucla_library_ark": "21198/zz001z1bkc",
        "composite_number": "",
        "seal_number": "",
        "cdli_number": "P134533"
    },
    "from_cdli_archival_view": {
        "primary_publication": "TMH NF 1-2, 222",
        "author": "Pohl, Alfred",
        "publication_date": "1937",
        "secondary_publications": "",
        "citation": "",
        "author_remarks": "",
        "published_collation": "",
        "cdli_number": "P134533",
        "ucla_library_ark": "21198/zz001z1bkc",
        "cdli_comments": "",
        "catalogue": "20011220 ur3_catalogue",
        "transliteration_remarks": "cdlistaff",
        "translation_remarks": "no translation",
        "owner": "Hilprecht Collection, University of Jena, Germany",
        "museum_number": "HS 1222",
        "accession_number": "",
        "acquisition_history": "",
        "genre": "Administrative",
        "sub_genre": "",
        "sub_genre_remarks": "",
        "composite_number": "",
        "language": "Sumerian",
        "material": "clay",
        "object_remarks": "",
        "measurements_in_mm": "? x ? x ?",
        "object_preservation": "",
        "surface_preservation": "",
        "condition_description": "",
        "join_information": "",
        "seal_number": "",
        "seal_information": "",
        "provenience": "Nippur (mod. Nuffar)",
        "excavation_number": "",
        "findspot_square": "",
        "elevation": "",
        "stratigraphic_level": "",
        "findspot_remarks": "",
        "period": "Ur III (ca. 2100-2000 BC)",
        "period_remarks": "",
        "date_of_origin": "Amar-Suen.08.06.19",
        "dates_referenced": "Amar-Suen.08.06.19",
        "alternative_years": "",
        "accounting_period": "",
        "textual_content": "@Tablet\n@obverse \n1. 1/3(disz) ma-na 9(disz) gin2 SZID tug2 guz-za 4(disz)-kam!(ESZ) us2 \n2. ub-bi 8(disz) \n3. kin nu-um-be2-a \n4. ki lugal-ma2-gur8-re-ta \n@reverse \n1. um-mi-t,a-bat5 \n2. szu ba-ti \n3. iti kin-{d}inanna \n4. u4 1(u) 9(disz) ba-zal \n5. mu en eridu{ki} ba-hun ",
        "lineart_url": "https://cdli.ucla.edu/dl/tn_lineart/P134533_l.jpg",
        "photo_url": "https://cdli.ucla.edu/dl/tn_photo/P134533.jpg"
    },
    "from_gigamesh_info_program": {
        "filename": "HS_1222_GMOCF_r1.50_n4_v512",
        "model_id": "HS 1222",
        "model_material": "clay, original",
        "vertices_total": "661188",
        "vertices_nan": "0",
        "vertices_solo": "0",
        "vertices_polyline": "0",
        "vertices_border": "0",
        "vertices_nonmanifold": "0",
        "vertices_on_inverted_edge": "0",
        "vertices_part_of_zero_face": "0",
        "vertices_synthetic": "0",
        "vertices_manual": "0",
        "vertices_circle_center": "0",
        "vertices_selected": "0",
        "vertices_funcval_finite": "661188",
        "vertices_funcval_local_min": "12718",
        "vertices_funcval_local_max": "6237",
        "faces_total": "1322372",
        "faces_solo": "0",
        "faces_border": "0",
        "faces_border_dangling": "0",
        "faces_manifold": "1322372",
        "faces_nonmanifold": "0",
        "faces_sticky": "0",
        "faces_zeroarea": "0",
        "faces_inverted": "0",
        "faces_with_synth_vertices": "0",
        "boundingbox_min_x": "-14.7824",
        "boundingbox_min_y": "0",
        "boundingbox_min_z": "-6.8079",
        "boundingbox_max_x": "14.7824",
        "boundingbox_max_y": "31.8588",
        "boundingbox_max_z": "6.8079",
        "boundingbox_width": "3",
        "boundingbox_height": "3.2",
        "boundingbox_thick": "1.4",
        "total_area": "29.06",
        "total_volume_dx": "9076.73",
        "total_volume_dy": "9076.73",
        "total_volume_dz": "9076.73"
    }
}