{
    "from_gigamesh_info_file": {
        "filename": "HS_1356_GMOCF_r1.50_n4_v512.info.txt",
        "hs_number": "HS 1356",
        "radius_in_mm": "1.5",
        "count_of_radii": "16",
        "rastersize": "512^3",
        "gigamesh_version": "181005",
        "threads_used": "7",
        "input_filename": "HS_1356_GMOCF.ply",
        "output_filename": "HS_1356_GMOCF_r1.50_n4_v512",
        "radii": [
            1.0,
            0.94,
            0.88,
            0.81,
            0.75,
            0.69,
            0.62,
            0.56,
            0.5,
            0.44,
            0.38,
            0.31,
            0.25,
            0.19,
            0.12,
            0.06
        ],
        "model_id": "HS 1356",
        "material": "clay, original",
        "count_of_vertices": "962476",
        "count_of_faces": "1924948",
        "bounding_box_in_cm": [
            4.3,
            5.4,
            1.0
        ],
        "area_in_cm2": "45.33",
        "volume_dx_in_cm3": "10.39",
        "volume_dy_in_cm3": "10.39",
        "volume_dz_in_cm3": "10.39",
        "processing_began_on": "Wed Dec  5 09:51:46 2018",
        "processing_finished_on": "Wed Dec  5 12:04:33 2018",
        "processing_wall_time_in_s": "7967"
    },
    "from_ply_filename": {
        "filename": "/export/data/vNGG/tmp/Hilprecht_Sammlung/04_MSII_filtered/HS_ALL_MSII_PLY/HS_1356_GMOCF_r1.50_n4_v512.ply",
        "hs_number": "HS 1356",
        "radius_in_mm": "1.50",
        "count_of_radii": 16,
        "rastersize": 512
    },
    "from_hilprecht3d": {
        "hs_number": "HS 1356",
        "tablet_url": "https://hilprecht.mpiwg-berlin.mpg.de/object3d/30620",
        "bibliography": "1937: TMH NF 1-2, 356. \u2013 1966: TCS 1, 342",
        "cdli_number": "134666"
    },
    "from_cdli_search_view": {
        "archival_view": "https://cdli.ucla.edu/search/archival_view.php?ObjectID=P134666",
        "primary_publication": "TMH NF 1-2, 356",
        "author": "Pohl, Alfred",
        "publication_date": "1937",
        "secondary_publication": "TCS 1, 342",
        "collection": "Hilprecht Collection, University of Jena, Germany",
        "museum_number": "HS 1356",
        "accession_number": "",
        "provenience": "Nippur (mod. Nuffar)",
        "excavation_number": "",
        "period": "Ur III (ca. 2100-2000 BC)",
        "dates_referenced": "--.--.00.00",
        "object_type": "tablet",
        "remarks": "",
        "material": "clay",
        "language": "Sumerian",
        "genre": "Letter",
        "sub_genre": "",
        "cdli_comments": "",
        "catalogue_source": "20011220 ur3_catalogue",
        "atf_source": "cdlistaff",
        "translation": "no translation",
        "ucla_library_ark": "21198/zz001xc7hz",
        "composite_number": "",
        "seal_number": "",
        "cdli_number": "P134666"
    },
    "from_cdli_archival_view": {
        "primary_publication": "TMH NF 1-2, 356",
        "author": "Pohl, Alfred",
        "publication_date": "1937",
        "secondary_publications": "TCS 1, 342",
        "citation": "",
        "author_remarks": "",
        "published_collation": "",
        "cdli_number": "P134666",
        "ucla_library_ark": "21198/zz001xc7hz",
        "cdli_comments": "",
        "catalogue": "20011220 ur3_catalogue",
        "transliteration_remarks": "cdlistaff",
        "translation_remarks": "no translation",
        "owner": "Hilprecht Collection, University of Jena, Germany",
        "museum_number": "HS 1356",
        "accession_number": "",
        "acquisition_history": "",
        "genre": "Letter",
        "sub_genre": "",
        "sub_genre_remarks": "",
        "composite_number": "",
        "language": "Sumerian",
        "material": "clay",
        "object_remarks": "",
        "measurements_in_mm": "? x ? x ?",
        "object_preservation": "",
        "surface_preservation": "",
        "condition_description": "",
        "join_information": "",
        "seal_number": "",
        "seal_information": "",
        "provenience": "Nippur (mod. Nuffar)",
        "excavation_number": "",
        "findspot_square": "",
        "elevation": "",
        "stratigraphic_level": "",
        "findspot_remarks": "",
        "period": "Ur III (ca. 2100-2000 BC)",
        "period_remarks": "",
        "date_of_origin": "--.--.00.00",
        "dates_referenced": "--.--.00.00",
        "alternative_years": "",
        "accounting_period": "",
        "textual_content": "@Tablet\n@obverse \n$ broken \n@reverse \n$ beginning broken \n1'. [he2]-ne-ab-[zi-zi] \n2'. u3# ugula-gesz2-da \n3'. ha-mu-na-a-ga2-[ga2] \n4'. {gi}asz-LAGAB e2-a i3#-gal2-la# \n5'. u3 dim-bi \n6'. he2-ma-ab-se3-ge \n7'. u3 nita-ra \n8'. u3-na-a-du11 \n9'. a-na-asz2 \n10'. 5(disz) sila3 szah2 x-[x-x] \n$ rest broken ",
        "lineart_url": "https://cdli.ucla.edu/dl/tn_lineart/P134666_l.jpg",
        "photo_url": "https://cdli.ucla.edu/dl/tn_photo/P134666.jpg"
    },
    "from_gigamesh_info_program": {
        "filename": "HS_1356_GMOCF_r1.50_n4_v512",
        "model_id": "HS 1356",
        "model_material": "clay, original",
        "vertices_total": "962476",
        "vertices_nan": "0",
        "vertices_solo": "0",
        "vertices_polyline": "0",
        "vertices_border": "0",
        "vertices_nonmanifold": "0",
        "vertices_on_inverted_edge": "0",
        "vertices_part_of_zero_face": "0",
        "vertices_synthetic": "0",
        "vertices_manual": "0",
        "vertices_circle_center": "0",
        "vertices_selected": "0",
        "vertices_funcval_finite": "962476",
        "vertices_funcval_local_min": "22135",
        "vertices_funcval_local_max": "9272",
        "faces_total": "1924948",
        "faces_solo": "0",
        "faces_border": "0",
        "faces_border_dangling": "0",
        "faces_manifold": "1924948",
        "faces_nonmanifold": "0",
        "faces_sticky": "0",
        "faces_zeroarea": "0",
        "faces_inverted": "0",
        "faces_with_synth_vertices": "0",
        "boundingbox_min_x": "-21.497",
        "boundingbox_min_y": "0",
        "boundingbox_min_z": "-5.1899",
        "boundingbox_max_x": "21.497",
        "boundingbox_max_y": "53.7964",
        "boundingbox_max_z": "5.1899",
        "boundingbox_width": "4.3",
        "boundingbox_height": "5.4",
        "boundingbox_thick": "1",
        "total_area": "45.33",
        "total_volume_dx": "10394",
        "total_volume_dy": "10394",
        "total_volume_dz": "10394"
    }
}