{
    "from_gigamesh_info_file": {
        "filename": "HS_1934_GMOCF_r1.50_n4_v512.info.txt",
        "hs_number": "HS 1934",
        "radius_in_mm": "1.5",
        "count_of_radii": "16",
        "rastersize": "512^3",
        "input_filename": "HS_1934_GMOCF.ply",
        "output_filename": "HS_1934_GMOCF_r1.50_n4_v512",
        "radii": [
            1.0,
            0.94,
            0.88,
            0.81,
            0.75,
            0.69,
            0.62,
            0.56,
            0.5,
            0.44,
            0.38,
            0.31,
            0.25,
            0.19,
            0.12,
            0.06
        ],
        "model_id": "HS 1934",
        "material": "clay, original",
        "count_of_vertices": "2014910",
        "count_of_faces": "4029816",
        "bounding_box_in_cm": [
            5.0,
            6.8,
            2.6
        ],
        "area_in_cm2": "94.14",
        "volume_dx_in_cm3": "50.08",
        "volume_dy_in_cm3": "50.08",
        "volume_dz_in_cm3": "50.08",
        "processing_began_on": "Thu Dec  6 02:51:02 2018",
        "processing_finished_on": "Thu Dec  6 03:37:55 2018",
        "processing_wall_time_in_s": "2811"
    },
    "from_ply_filename": {
        "filename": "/export/data/vNGG/tmp/Hilprecht_Sammlung/04_MSII_filtered/HS_ALL_MSII_PLY/HS_1934_GMOCF_r1.50_n4_v512.ply",
        "hs_number": "HS 1934",
        "radius_in_mm": "1.50",
        "count_of_radii": 16,
        "rastersize": 512
    },
    "from_hilprecht3d": {
        "hs_number": "HS 1934",
        "tablet_url": "https://hilprecht.mpiwg-berlin.mpg.de/object3d/31092",
        "bibliography": ""
    },
    "from_gigamesh_info_program": {
        "filename": "HS_1934_GMOCF_r1.50_n4_v512",
        "model_id": "HS 1934",
        "model_material": "clay, original",
        "vertices_total": "2014910",
        "vertices_nan": "0",
        "vertices_solo": "0",
        "vertices_polyline": "0",
        "vertices_border": "0",
        "vertices_nonmanifold": "0",
        "vertices_on_inverted_edge": "0",
        "vertices_part_of_zero_face": "0",
        "vertices_synthetic": "0",
        "vertices_manual": "0",
        "vertices_circle_center": "0",
        "vertices_selected": "0",
        "vertices_funcval_finite": "2014910",
        "vertices_funcval_local_min": "46919",
        "vertices_funcval_local_max": "19568",
        "faces_total": "4029816",
        "faces_solo": "0",
        "faces_border": "0",
        "faces_border_dangling": "0",
        "faces_manifold": "4029816",
        "faces_nonmanifold": "0",
        "faces_sticky": "0",
        "faces_zeroarea": "0",
        "faces_inverted": "0",
        "faces_with_synth_vertices": "0",
        "boundingbox_min_x": "-24.9416",
        "boundingbox_min_y": "0",
        "boundingbox_min_z": "-12.999",
        "boundingbox_max_x": "24.9416",
        "boundingbox_max_y": "67.9472",
        "boundingbox_max_z": "12.999",
        "boundingbox_width": "5",
        "boundingbox_height": "6.8",
        "boundingbox_thick": "2.6",
        "total_area": "94.14",
        "total_volume_dx": "50077.9",
        "total_volume_dy": "50077.9",
        "total_volume_dz": "50077.9"
    }
}