{
    "from_gigamesh_info_file": {
        "filename": "HS_1309_GMOCF_r1.50_n4_v512.info.txt",
        "hs_number": "HS 1309",
        "radius_in_mm": "1.5",
        "count_of_radii": "16",
        "rastersize": "512^3",
        "gigamesh_version": "181005",
        "threads_used": "7",
        "input_filename": "HS_1309_GMOCF.ply",
        "output_filename": "HS_1309_GMOCF_r1.50_n4_v512",
        "radii": [
            1.0,
            0.94,
            0.88,
            0.81,
            0.75,
            0.69,
            0.62,
            0.56,
            0.5,
            0.44,
            0.38,
            0.31,
            0.25,
            0.19,
            0.12,
            0.06
        ],
        "model_id": "HS 1309",
        "material": "clay, original",
        "count_of_vertices": "1517141",
        "count_of_faces": "3034278",
        "bounding_box_in_cm": [
            4.1,
            5.7,
            1.9
        ],
        "area_in_cm2": "69.28",
        "volume_dx_in_cm3": "28.87",
        "volume_dy_in_cm3": "28.87",
        "volume_dz_in_cm3": "28.87",
        "processing_began_on": "Fri Dec  7 22:07:40 2018",
        "processing_finished_on": "Sat Dec  8 01:32:00 2018",
        "processing_wall_time_in_s": "12260"
    },
    "from_ply_filename": {
        "filename": "/export/data/vNGG/tmp/Hilprecht_Sammlung/04_MSII_filtered/HS_ALL_MSII_PLY/HS_1309_GMOCF_r1.50_n4_v512.ply",
        "hs_number": "HS 1309",
        "radius_in_mm": "1.50",
        "count_of_radii": 16,
        "rastersize": 512
    },
    "from_hilprecht3d": {
        "hs_number": "HS 1309",
        "tablet_url": "https://hilprecht.mpiwg-berlin.mpg.de/object3d/30575",
        "bibliography": "1937: TMH NF 1-2, 309",
        "cdli_number": "134619"
    },
    "from_cdli_search_view": {
        "archival_view": "https://cdli.ucla.edu/search/archival_view.php?ObjectID=P134619",
        "primary_publication": "TMH NF 1-2, 309",
        "author": "Pohl, Alfred",
        "publication_date": "1937",
        "secondary_publication": "",
        "collection": "Hilprecht Collection, University of Jena, Germany",
        "museum_number": "HS 1309",
        "accession_number": "",
        "provenience": "Nippur (mod. Nuffar)",
        "excavation_number": "",
        "period": "Ur III (ca. 2100-2000 BC)",
        "dates_referenced": "--.--.00.00",
        "object_type": "tablet",
        "remarks": "",
        "material": "clay",
        "language": "Sumerian",
        "genre": "Administrative",
        "sub_genre": "",
        "cdli_comments": "",
        "catalogue_source": "20011220 ur3_catalogue",
        "atf_source": "cdlistaff",
        "translation": "no translation",
        "ucla_library_ark": "21198/zz001z0c35",
        "composite_number": "",
        "seal_number": "",
        "cdli_number": "P134619"
    },
    "from_cdli_archival_view": {
        "primary_publication": "TMH NF 1-2, 309",
        "author": "Pohl, Alfred",
        "publication_date": "1937",
        "secondary_publications": "",
        "citation": "",
        "author_remarks": "",
        "published_collation": "OrAnt 15, 323",
        "cdli_number": "P134619",
        "ucla_library_ark": "21198/zz001z0c35",
        "cdli_comments": "",
        "catalogue": "20011220 ur3_catalogue",
        "transliteration_remarks": "cdlistaff",
        "translation_remarks": "no translation",
        "owner": "Hilprecht Collection, University of Jena, Germany",
        "museum_number": "HS 1309",
        "accession_number": "",
        "acquisition_history": "",
        "genre": "Administrative",
        "sub_genre": "",
        "sub_genre_remarks": "",
        "composite_number": "",
        "language": "Sumerian",
        "material": "clay",
        "object_remarks": "",
        "measurements_in_mm": "? x ? x ?",
        "object_preservation": "",
        "surface_preservation": "",
        "condition_description": "",
        "join_information": "",
        "seal_number": "",
        "seal_information": "",
        "provenience": "Nippur (mod. Nuffar)",
        "excavation_number": "",
        "findspot_square": "",
        "elevation": "",
        "stratigraphic_level": "",
        "findspot_remarks": "",
        "period": "Ur III (ca. 2100-2000 BC)",
        "period_remarks": "",
        "date_of_origin": "--.--.00.00",
        "dates_referenced": "--.--.00.00",
        "alternative_years": "",
        "accounting_period": "",
        "textual_content": "@Tablet\n@obverse \n$ beginning broken \n1'. 2(barig) 2(ban2) GA2 BI 1(disz) x \n2'. 2(barig) 4(ban2) e2-en# \n3'. ba-an-si-a ab-gaz#-a-ta \n4'. 3(barig) 1(ban2) 1(disz) sila3 dug \n5'. 2(barig) 5(ban2) 2(disz) sila3 \n6'. 2(barig) 2(ban2) 8(disz) 2/3(disz) sila3 \n7'. 1(barig) 2(ban2) 8(disz) sila3 1(u) gin2 \n8'. 2(barig) 2(ban2) 8(disz)# sila3 \n9'. 2(barig) 1(ban2) 6(disz) sila3 x \n10'. 2(barig) 1(ban2) \n11'. 1(barig) 3(disz) sila3 \n12'. 2(barig) 2(disz) sila3 1(u) gin2# \n@reverse \n1. 1(barig) 5(ban2) 8(disz) sila3 [...] \n2. 1(barig) 5(ban2) 7(disz)#? [sila3 ...] \n3. 1(barig) 5(ban2) 6(disz)#? [sila3 ...] \n4. 1(barig) 5(ban2) 3(disz)#? [sila3 ...] \n5. 1(barig) 5(ban2) 1(disz) sila3 1(u) gin2 \n6. 1(barig) 4(ban2)# 8(disz) 5/6(disz) sila3 \n7. 1(barig) 4(ban2) 7(disz) sila3 \n8. 1(barig) 4(ban2) 6(disz) 2/3(disz) sila3 \n9. 1(barig) 4(ban2) 4(disz) sila3 \n10. 1(barig) 4(ban2) 3(disz) sila3 1(u) gin2 \n11. 1(barig) 4(ban2) la2 1/3(disz) sila3 \n12. 1(barig) 3(ban2) 9(disz) sila3 \n$ 1 line blank \n@left \ncolumn 1 \n1. [...] ab-us2-sa \ncolumn 2 \n1. a [...] bala# \n2. 3(barig) sahar# [...] 2(disz) kam-ma \ncolumn 3 \n1. 1(barig) 2(ban2) \n2. sza3? 4(barig)# 3(ban2)# ",
        "lineart_url": "https://cdli.ucla.edu/dl/tn_lineart/P134619_l.jpg",
        "photo_url": "https://cdli.ucla.edu/dl/tn_photo/P134619.jpg"
    },
    "from_gigamesh_info_program": {
        "filename": "HS_1309_GMOCF_r1.50_n4_v512",
        "model_id": "HS 1309",
        "model_material": "clay, original",
        "vertices_total": "1517141",
        "vertices_nan": "0",
        "vertices_solo": "0",
        "vertices_polyline": "0",
        "vertices_border": "0",
        "vertices_nonmanifold": "0",
        "vertices_on_inverted_edge": "0",
        "vertices_part_of_zero_face": "0",
        "vertices_synthetic": "0",
        "vertices_manual": "0",
        "vertices_circle_center": "0",
        "vertices_selected": "0",
        "vertices_funcval_finite": "1517141",
        "vertices_funcval_local_min": "28696",
        "vertices_funcval_local_max": "12378",
        "faces_total": "3034278",
        "faces_solo": "0",
        "faces_border": "0",
        "faces_border_dangling": "0",
        "faces_manifold": "3034278",
        "faces_nonmanifold": "0",
        "faces_sticky": "0",
        "faces_zeroarea": "0",
        "faces_inverted": "0",
        "faces_with_synth_vertices": "0",
        "boundingbox_min_x": "-20.5581",
        "boundingbox_min_y": "0",
        "boundingbox_min_z": "-9.6347",
        "boundingbox_max_x": "20.5581",
        "boundingbox_max_y": "57.4721",
        "boundingbox_max_z": "9.6347",
        "boundingbox_width": "4.1",
        "boundingbox_height": "5.7",
        "boundingbox_thick": "1.9",
        "total_area": "69.28",
        "total_volume_dx": "28872.6",
        "total_volume_dy": "28872.6",
        "total_volume_dz": "28872.6"
    }
}