{
    "from_gigamesh_info_file": {
        "filename": "HS_1462_GMOCF_r1.50_n4_v512.info.txt",
        "hs_number": "HS 1462",
        "radius_in_mm": "1.5",
        "count_of_radii": "16",
        "rastersize": "512^3",
        "input_filename": "HS_1462_GMOCF.ply",
        "output_filename": "HS_1462_GMOCF_r1.50_n4_v512",
        "radii": [
            1.0,
            0.94,
            0.88,
            0.81,
            0.75,
            0.69,
            0.62,
            0.56,
            0.5,
            0.44,
            0.38,
            0.31,
            0.25,
            0.19,
            0.12,
            0.06
        ],
        "model_id": "HS 1462",
        "material": "clay, original",
        "count_of_vertices": "4449444",
        "count_of_faces": "8898884",
        "bounding_box_in_cm": [
            5.9,
            12.4,
            3.3
        ],
        "area_in_cm2": "214.13",
        "volume_dx_in_cm3": "153.34",
        "volume_dy_in_cm3": "153.34",
        "volume_dz_in_cm3": "153.34",
        "processing_began_on": "Sat Dec  8 05:44:04 2018",
        "processing_finished_on": "Sat Dec  8 06:45:05 2018",
        "processing_wall_time_in_s": "3658"
    },
    "from_ply_filename": {
        "filename": "/export/data/vNGG/tmp/Hilprecht_Sammlung/04_MSII_filtered/HS_ALL_MSII_PLY/HS_1462_GMOCF_r1.50_n4_v512.ply",
        "hs_number": "HS 1462",
        "radius_in_mm": "1.50",
        "count_of_radii": 16,
        "rastersize": 512
    },
    "from_hilprecht3d": {
        "hs_number": "HS 1462",
        "tablet_url": "https://hilprecht.mpiwg-berlin.mpg.de/object3d/30726",
        "bibliography": "1955-56: Bernhardt + Kramer. \u2013 1961: TMHNF 3, 20. \u2013 1976: Wilcke, KSLT, S. 25."
    },
    "from_cdli_search_view": {
        "archival_view": "https://cdli.ucla.edu/search/archival_view.php?ObjectID=P345615",
        "primary_publication": "CDLI Literary 000690, ex. 034",
        "author": "CDLI",
        "publication_date": "2014ff.",
        "secondary_publication": "Bernhardt, Inez &amp; Kramer, Samuel N., TMH NF 3 (1961) 20; Wilcke Kollationen 25",
        "collection": "Hilprecht Collection, University of Jena, Germany",
        "museum_number": "HS 1462",
        "accession_number": "",
        "provenience": "Nippur (mod. Nuffar)",
        "excavation_number": "",
        "period": "Old Babylonian (ca. 1900-1600 BC)",
        "dates_referenced": "",
        "object_type": "tablet",
        "remarks": "",
        "material": "clay",
        "language": "Sumerian",
        "genre": "Literary",
        "sub_genre": "ETCSL 4.14.01 Nanshe A (witness)",
        "cdli_comments": "",
        "catalogue_source": "20061112 noname",
        "atf_source": "no atf",
        "translation": "no translation",
        "ucla_library_ark": "21198/zz001zf0hw",
        "composite_number": "<a target=\"_blank\" href = \"search_results.php?CompositeNumber=Q000690\">Q000690</a> (<a target=\"_blank\" href = \"http://cdli.ucla.edu/tools/scores/Q000690.html\">score</a>) ",
        "seal_number": "",
        "cdli_number": "P345615"
    },
    "from_cdli_archival_view": {
        "primary_publication": "CDLI Literary 000690, ex. 034",
        "author": "CDLI",
        "publication_date": "2014ff.",
        "secondary_publications": "Bernhardt, Inez & Kramer, Samuel N., TMH NF 3 (1961) 20; Wilcke Kollationen 25",
        "citation": "",
        "author_remarks": "",
        "published_collation": "",
        "cdli_number": "P345615",
        "ucla_library_ark": "21198/zz001zf0hw",
        "cdli_comments": "",
        "catalogue": "20061112 noname",
        "transliteration_remarks": "no atf",
        "translation_remarks": "no translation",
        "owner": "Hilprecht Collection, University of Jena, Germany",
        "museum_number": "HS 1462",
        "accession_number": "",
        "acquisition_history": "",
        "genre": "Literary",
        "sub_genre": "ETCSL 4.14.01 Nanshe A (witness)",
        "sub_genre_remarks": "Nanshe Hymn A",
        "composite_number": "Q000690",
        "language": "Sumerian",
        "material": "clay",
        "object_remarks": "",
        "measurements_in_mm": "x  x",
        "object_preservation": "",
        "surface_preservation": "",
        "condition_description": "",
        "join_information": "",
        "seal_number": "",
        "seal_information": "",
        "provenience": "Nippur (mod. Nuffar)",
        "excavation_number": "",
        "findspot_square": "",
        "elevation": "",
        "stratigraphic_level": "",
        "findspot_remarks": "",
        "period": "Old Babylonian (ca. 1900-1600 BC)",
        "period_remarks": "",
        "date_of_origin": "",
        "dates_referenced": "",
        "alternative_years": "",
        "accounting_period": "",
        "textual_content": "@Tablet"
    },
    "from_gigamesh_info_program": {
        "filename": "HS_1462_GMOCF_r1.50_n4_v512",
        "model_id": "HS 1462",
        "model_material": "clay, original",
        "vertices_total": "4449444",
        "vertices_nan": "0",
        "vertices_solo": "0",
        "vertices_polyline": "0",
        "vertices_border": "0",
        "vertices_nonmanifold": "0",
        "vertices_on_inverted_edge": "0",
        "vertices_part_of_zero_face": "0",
        "vertices_synthetic": "8",
        "vertices_manual": "0",
        "vertices_circle_center": "0",
        "vertices_selected": "0",
        "vertices_funcval_finite": "4449444",
        "vertices_funcval_local_min": "87395",
        "vertices_funcval_local_max": "29333",
        "faces_total": "8898884",
        "faces_solo": "0",
        "faces_border": "0",
        "faces_border_dangling": "0",
        "faces_manifold": "8898884",
        "faces_nonmanifold": "0",
        "faces_sticky": "0",
        "faces_zeroarea": "0",
        "faces_inverted": "0",
        "faces_with_synth_vertices": "5",
        "boundingbox_min_x": "-29.7018",
        "boundingbox_min_y": "0",
        "boundingbox_min_z": "-16.3465",
        "boundingbox_max_x": "29.7018",
        "boundingbox_max_y": "124.071",
        "boundingbox_max_z": "16.3465",
        "boundingbox_width": "5.9",
        "boundingbox_height": "12.4",
        "boundingbox_thick": "3.3",
        "total_area": "214.13",
        "total_volume_dx": "153345",
        "total_volume_dy": "153345",
        "total_volume_dz": "153345"
    }
}