{
    "from_gigamesh_info_file": {
        "filename": "HS_1030_GMOCF_r1.50_n4_v512.info.txt",
        "hs_number": "HS 1030",
        "radius_in_mm": "1.5",
        "count_of_radii": "16",
        "rastersize": "512^3",
        "gigamesh_version": "181204",
        "threads_used": "11",
        "input_filename": "HS_1030_GMOCF.ply",
        "output_filename": "HS_1030_GMOCF_r1.50_n4_v512",
        "radii": [
            1.0,
            0.94,
            0.88,
            0.81,
            0.75,
            0.69,
            0.62,
            0.56,
            0.5,
            0.44,
            0.38,
            0.31,
            0.25,
            0.19,
            0.12,
            0.06
        ],
        "model_id": "HS 1030",
        "material": "clay, original",
        "count_of_vertices": "877342",
        "count_of_faces": "1754680",
        "bounding_box_in_cm": [
            3.9,
            4.6,
            1.6
        ],
        "area_in_cm2": "40.25",
        "volume_dx_in_cm3": "15.07",
        "volume_dy_in_cm3": "15.07",
        "volume_dz_in_cm3": "15.07",
        "processing_began_on": "Fri Dec  7 02:55:38 2018",
        "processing_finished_on": "Fri Dec  7 03:35:37 2018",
        "processing_wall_time_in_s": "2399"
    },
    "from_ply_filename": {
        "filename": "/export/data/vNGG/tmp/Hilprecht_Sammlung/04_MSII_filtered/HS_ALL_MSII_PLY/HS_1030_GMOCF_r1.50_n4_v512.ply",
        "hs_number": "HS 1030",
        "radius_in_mm": "1.50",
        "count_of_radii": 16,
        "rastersize": 512
    },
    "from_hilprecht3d": {
        "hs_number": "HS 1030",
        "tablet_url": "https://hilprecht.mpiwg-berlin.mpg.de/object3d/30270",
        "bibliography": "1937: TMH NF 1-2, 030",
        "cdli_number": "134342"
    },
    "from_cdli_search_view": {
        "archival_view": "https://cdli.ucla.edu/search/archival_view.php?ObjectID=P134342",
        "primary_publication": "TMH NF 1-2, 030",
        "author": "Pohl, Alfred",
        "publication_date": "1937",
        "secondary_publication": "",
        "collection": "Hilprecht Collection, University of Jena, Germany",
        "museum_number": "HS 1030",
        "accession_number": "",
        "provenience": "Nippur (mod. Nuffar)",
        "excavation_number": "",
        "period": "Ur III (ca. 2100-2000 BC)",
        "dates_referenced": "Ibbi-Suen.01.12.00",
        "object_type": "tablet",
        "remarks": "",
        "material": "clay",
        "language": "Sumerian",
        "genre": "Administrative",
        "sub_genre": "",
        "cdli_comments": "",
        "catalogue_source": "20011220 ur3_catalogue",
        "atf_source": "cdlistaff",
        "translation": "no translation",
        "ucla_library_ark": "21198/zz001xfg0g",
        "composite_number": "",
        "seal_number": "",
        "cdli_number": "P134342"
    },
    "from_cdli_archival_view": {
        "primary_publication": "TMH NF 1-2, 030",
        "author": "Pohl, Alfred",
        "publication_date": "1937",
        "secondary_publications": "",
        "citation": "",
        "author_remarks": "",
        "published_collation": "OrAnt 15, 318 + 325",
        "cdli_number": "P134342",
        "ucla_library_ark": "21198/zz001xfg0g",
        "cdli_comments": "",
        "catalogue": "20011220 ur3_catalogue",
        "transliteration_remarks": "cdlistaff",
        "translation_remarks": "no translation",
        "owner": "Hilprecht Collection, University of Jena, Germany",
        "museum_number": "HS 1030",
        "accession_number": "",
        "acquisition_history": "",
        "genre": "Administrative",
        "sub_genre": "",
        "sub_genre_remarks": "",
        "composite_number": "",
        "language": "Sumerian",
        "material": "clay",
        "object_remarks": "",
        "measurements_in_mm": "? x ? x ?",
        "object_preservation": "",
        "surface_preservation": "",
        "condition_description": "",
        "join_information": "",
        "seal_number": "",
        "seal_information": "sealed; TMH NF 1-2, 21*",
        "provenience": "Nippur (mod. Nuffar)",
        "excavation_number": "",
        "findspot_square": "",
        "elevation": "",
        "stratigraphic_level": "",
        "findspot_remarks": "",
        "period": "Ur III (ca. 2100-2000 BC)",
        "period_remarks": "",
        "date_of_origin": "Ibbi-Suen.01.12.00",
        "dates_referenced": "Ibbi-Suen.01.12.00",
        "alternative_years": "",
        "accounting_period": "",
        "textual_content": "@Tablet\n@obverse \n1. 1(disz) 2/3(disz) gin2 ku3-[babbar] \n2. masz2-bi masz2 MUNUS [...] \n3. ki lu2-bala-[sa6]-ga \n@reverse \n1. lu2-{d}x-[...] \n2. szu ba-ti \n3. igi nam-mah-sze3 \n4. igi ur-nigar-sze3 \n5. igi ur-{d}nin-gesz-zi-da# \n6. iti sze-sag11-ku5 \n7. mu {d}i-bi2-{d}suen lugal ",
        "lineart_url": "https://cdli.ucla.edu/dl/tn_lineart/P134342_l.jpg",
        "photo_url": "https://cdli.ucla.edu/dl/tn_photo/P134342.jpg"
    },
    "from_gigamesh_info_program": {
        "filename": "HS_1030_GMOCF_r1.50_n4_v512",
        "model_id": "HS 1030",
        "model_material": "clay, original",
        "vertices_total": "877342",
        "vertices_nan": "0",
        "vertices_solo": "0",
        "vertices_polyline": "0",
        "vertices_border": "0",
        "vertices_nonmanifold": "0",
        "vertices_on_inverted_edge": "0",
        "vertices_part_of_zero_face": "0",
        "vertices_synthetic": "0",
        "vertices_manual": "0",
        "vertices_circle_center": "0",
        "vertices_selected": "0",
        "vertices_funcval_finite": "877342",
        "vertices_funcval_local_min": "20464",
        "vertices_funcval_local_max": "9193",
        "faces_total": "1754680",
        "faces_solo": "0",
        "faces_border": "0",
        "faces_border_dangling": "0",
        "faces_manifold": "1754680",
        "faces_nonmanifold": "0",
        "faces_sticky": "0",
        "faces_zeroarea": "0",
        "faces_inverted": "0",
        "faces_with_synth_vertices": "0",
        "boundingbox_min_x": "-19.2537",
        "boundingbox_min_y": "0",
        "boundingbox_min_z": "-7.9364",
        "boundingbox_max_x": "19.2537",
        "boundingbox_max_y": "45.5428",
        "boundingbox_max_z": "7.9364",
        "boundingbox_width": "3.9",
        "boundingbox_height": "4.6",
        "boundingbox_thick": "1.6",
        "total_area": "40.25",
        "total_volume_dx": "15072",
        "total_volume_dy": "15072",
        "total_volume_dz": "15072"
    }
}