{
    "from_gigamesh_info_file": {
        "filename": "HS_1912_GMOCF_r1.50_n4_v512.info.txt",
        "hs_number": "HS 1912",
        "radius_in_mm": "1.5",
        "count_of_radii": "16",
        "rastersize": "512^3",
        "input_filename": "HS_1912_GMOCF.ply",
        "output_filename": "HS_1912_GMOCF_r1.50_n4_v512",
        "radii": [
            1.0,
            0.94,
            0.88,
            0.81,
            0.75,
            0.69,
            0.62,
            0.56,
            0.5,
            0.44,
            0.38,
            0.31,
            0.25,
            0.19,
            0.12,
            0.06
        ],
        "model_id": "HS 1912",
        "material": "clay, original",
        "count_of_vertices": "3214370",
        "count_of_faces": "6428736",
        "bounding_box_in_cm": [
            7.0,
            8.0,
            3.4
        ],
        "area_in_cm2": "157.16",
        "volume_dx_in_cm3": "106.68",
        "volume_dy_in_cm3": "106.68",
        "volume_dz_in_cm3": "106.68",
        "processing_began_on": "Sun Dec  9 08:43:06 2018",
        "processing_finished_on": "Sun Dec  9 09:12:27 2018",
        "processing_wall_time_in_s": "1761"
    },
    "from_ply_filename": {
        "filename": "/export/data/vNGG/tmp/Hilprecht_Sammlung/04_MSII_filtered/HS_ALL_MSII_PLY/HS_1912_GMOCF_r1.50_n4_v512.ply",
        "hs_number": "HS 1912",
        "radius_in_mm": "1.50",
        "count_of_radii": 16,
        "rastersize": 512
    },
    "from_hilprecht3d": {
        "hs_number": "HS 1912",
        "tablet_url": "https://hilprecht.mpiwg-berlin.mpg.de/object3d/31080",
        "bibliography": ""
    },
    "from_gigamesh_info_program": {
        "filename": "HS_1912_GMOCF_r1.50_n4_v512",
        "model_id": "HS 1912",
        "model_material": "clay, original",
        "vertices_total": "3214370",
        "vertices_nan": "0",
        "vertices_solo": "0",
        "vertices_polyline": "0",
        "vertices_border": "0",
        "vertices_nonmanifold": "0",
        "vertices_on_inverted_edge": "0",
        "vertices_part_of_zero_face": "0",
        "vertices_synthetic": "25",
        "vertices_manual": "0",
        "vertices_circle_center": "0",
        "vertices_selected": "0",
        "vertices_funcval_finite": "3214370",
        "vertices_funcval_local_min": "67379",
        "vertices_funcval_local_max": "27705",
        "faces_total": "6428736",
        "faces_solo": "0",
        "faces_border": "0",
        "faces_border_dangling": "0",
        "faces_manifold": "6428736",
        "faces_nonmanifold": "0",
        "faces_sticky": "0",
        "faces_zeroarea": "0",
        "faces_inverted": "0",
        "faces_with_synth_vertices": "24",
        "boundingbox_min_x": "-34.9604",
        "boundingbox_min_y": "0",
        "boundingbox_min_z": "-17.0186",
        "boundingbox_max_x": "34.9604",
        "boundingbox_max_y": "80.3594",
        "boundingbox_max_z": "17.0186",
        "boundingbox_width": "7",
        "boundingbox_height": "8",
        "boundingbox_thick": "3.4",
        "total_area": "157.16",
        "total_volume_dx": "106675",
        "total_volume_dy": "106675",
        "total_volume_dz": "106675"
    }
}