{
    "from_gigamesh_info_file": {
        "filename": "HS_1098_GMOCF_r1.50_n4_v512.info.txt",
        "hs_number": "HS 1098",
        "radius_in_mm": "1.5",
        "count_of_radii": "16",
        "rastersize": "512^3",
        "gigamesh_version": "181204",
        "threads_used": "11",
        "input_filename": "HS_1098_GMOCF.ply",
        "output_filename": "HS_1098_GMOCF_r1.50_n4_v512",
        "radii": [
            1.0,
            0.94,
            0.88,
            0.81,
            0.75,
            0.69,
            0.62,
            0.56,
            0.5,
            0.44,
            0.38,
            0.31,
            0.25,
            0.19,
            0.12,
            0.06
        ],
        "model_id": "HS 1098",
        "material": "clay, original",
        "count_of_vertices": "1075996",
        "count_of_faces": "2151988",
        "bounding_box_in_cm": [
            4.3,
            4.5,
            1.7
        ],
        "area_in_cm2": "50.89",
        "volume_dx_in_cm3": "21.55",
        "volume_dy_in_cm3": "21.55",
        "volume_dz_in_cm3": "21.55",
        "processing_began_on": "Fri Dec  7 15:52:04 2018",
        "processing_finished_on": "Fri Dec  7 16:36:50 2018",
        "processing_wall_time_in_s": "2686"
    },
    "from_ply_filename": {
        "filename": "/export/data/vNGG/tmp/Hilprecht_Sammlung/04_MSII_filtered/HS_ALL_MSII_PLY/HS_1098_GMOCF_r1.50_n4_v512.ply",
        "hs_number": "HS 1098",
        "radius_in_mm": "1.50",
        "count_of_radii": 16,
        "rastersize": 512
    },
    "from_hilprecht3d": {
        "hs_number": "HS 1098",
        "tablet_url": "https://hilprecht.mpiwg-berlin.mpg.de/object3d/30350",
        "bibliography": "1937: TMH NF 1-2, 098",
        "cdli_number": "134410"
    },
    "from_cdli_search_view": {
        "archival_view": "https://cdli.ucla.edu/search/archival_view.php?ObjectID=P134410",
        "primary_publication": "TMH NF 1-2, 098",
        "author": "Pohl, Alfred",
        "publication_date": "1937",
        "secondary_publication": "",
        "collection": "Hilprecht Collection, University of Jena, Germany",
        "museum_number": "HS 1098",
        "accession_number": "",
        "provenience": "Nippur (mod. Nuffar)",
        "excavation_number": "",
        "period": "Ur III (ca. 2100-2000 BC)",
        "dates_referenced": "\u0160\u016b-Suen.08.11.11, \u0160\u016b-Suen.09.03.00",
        "object_type": "tablet",
        "remarks": "",
        "material": "clay",
        "language": "Sumerian",
        "genre": "Administrative",
        "sub_genre": "",
        "cdli_comments": "",
        "catalogue_source": "20011220 ur3_catalogue",
        "atf_source": "cdlistaff",
        "translation": "no translation",
        "ucla_library_ark": "21198/zz001xfzpk",
        "composite_number": "",
        "seal_number": "S002858",
        "cdli_number": "P134410"
    },
    "from_cdli_archival_view": {
        "primary_publication": "TMH NF 1-2, 098",
        "author": "Pohl, Alfred",
        "publication_date": "1937",
        "secondary_publications": "",
        "citation": "",
        "author_remarks": "",
        "published_collation": "OrAnt 15, 319",
        "cdli_number": "P134410",
        "ucla_library_ark": "21198/zz001xfzpk",
        "cdli_comments": "",
        "catalogue": "20011220 ur3_catalogue",
        "transliteration_remarks": "cdlistaff",
        "translation_remarks": "no translation",
        "owner": "Hilprecht Collection, University of Jena, Germany",
        "museum_number": "HS 1098",
        "accession_number": "",
        "acquisition_history": "",
        "genre": "Administrative",
        "sub_genre": "",
        "sub_genre_remarks": "",
        "composite_number": "",
        "language": "Sumerian",
        "material": "clay",
        "object_remarks": "",
        "measurements_in_mm": "? x ? x ?",
        "object_preservation": "",
        "surface_preservation": "",
        "condition_description": "",
        "join_information": "",
        "seal_number": "S002858",
        "seal_information": "sealed; TMH NF 1-2, 68*",
        "provenience": "Nippur (mod. Nuffar)",
        "excavation_number": "",
        "findspot_square": "",
        "elevation": "",
        "stratigraphic_level": "",
        "findspot_remarks": "",
        "period": "Ur III (ca. 2100-2000 BC)",
        "period_remarks": "",
        "date_of_origin": "\u0160\u016b-Suen.09.03.00",
        "dates_referenced": "\u0160\u016b-Suen.08.11.11, \u0160\u016b-Suen.09.03.00",
        "alternative_years": "",
        "accounting_period": "\u0160\u016b-Suen.08.11.11 to \u0160\u016b-Suen.09.03.00",
        "textual_content": "@Tablet\n@obverse \n1. 1(asz) 2(barig) 3(ban2) sze gur ur5-sze3 \n2. masz2 1(asz) gur-a 1(barig) 4(ban2)-ta \n3. ki ad-da-kal-la-ta \n4. ur-{d}dumu-zi-da-ke4 \n5. szu ba-ti \n6. 1(disz) lu2-{d}en-lil2-la2 \n@reverse \n1. 1(disz) a2-la-mu \n2. lu2-inim-ma-bi-me \n3. iti sig4-ga su-su-da \n4. mu lugal in-pa3 \n$ seal impression \n5. iti udru{duru5} u4 1(u) 1(disz) ba-zal \n6. mu ma2-gur8-mah ba-dim2 \n@seal 1\n1. ur-{d}dumu-zi \n2. dumu lu-ru-mu ",
        "lineart_url": "https://cdli.ucla.edu/dl/tn_lineart/P134410_l.jpg",
        "photo_url": "https://cdli.ucla.edu/dl/tn_photo/P134410.jpg"
    },
    "from_gigamesh_info_program": {
        "filename": "HS_1098_GMOCF_r1.50_n4_v512",
        "model_id": "HS 1098",
        "model_material": "clay, original",
        "vertices_total": "1075996",
        "vertices_nan": "0",
        "vertices_solo": "0",
        "vertices_polyline": "0",
        "vertices_border": "0",
        "vertices_nonmanifold": "0",
        "vertices_on_inverted_edge": "0",
        "vertices_part_of_zero_face": "0",
        "vertices_synthetic": "0",
        "vertices_manual": "0",
        "vertices_circle_center": "0",
        "vertices_selected": "0",
        "vertices_funcval_finite": "1075996",
        "vertices_funcval_local_min": "22232",
        "vertices_funcval_local_max": "10698",
        "faces_total": "2151988",
        "faces_solo": "0",
        "faces_border": "0",
        "faces_border_dangling": "0",
        "faces_manifold": "2151988",
        "faces_nonmanifold": "0",
        "faces_sticky": "0",
        "faces_zeroarea": "0",
        "faces_inverted": "0",
        "faces_with_synth_vertices": "0",
        "boundingbox_min_x": "-21.2836",
        "boundingbox_min_y": "0",
        "boundingbox_min_z": "-8.7081",
        "boundingbox_max_x": "21.2836",
        "boundingbox_max_y": "44.9229",
        "boundingbox_max_z": "8.7081",
        "boundingbox_width": "4.3",
        "boundingbox_height": "4.5",
        "boundingbox_thick": "1.7",
        "total_area": "50.89",
        "total_volume_dx": "21551.1",
        "total_volume_dy": "21551.1",
        "total_volume_dz": "21551.1"
    }
}