{
    "from_gigamesh_info_file": {
        "filename": "HS_1477_GMOCF_r1.50_n4_v512.info.txt",
        "hs_number": "HS 1477",
        "radius_in_mm": "1.5",
        "count_of_radii": "16",
        "rastersize": "512^3",
        "input_filename": "HS_1477_GMOCF.ply",
        "output_filename": "HS_1477_GMOCF_r1.50_n4_v512",
        "radii": [
            1.0,
            0.94,
            0.88,
            0.81,
            0.75,
            0.69,
            0.62,
            0.56,
            0.5,
            0.44,
            0.38,
            0.31,
            0.25,
            0.19,
            0.12,
            0.06
        ],
        "model_id": "HS 1477",
        "material": "clay, original",
        "count_of_vertices": "3644749",
        "count_of_faces": "7289494",
        "bounding_box_in_cm": [
            5.6,
            11.5,
            2.3
        ],
        "area_in_cm2": "161.99",
        "volume_dx_in_cm3": "90.46",
        "volume_dy_in_cm3": "90.46",
        "volume_dz_in_cm3": "90.46",
        "processing_began_on": "Sat Dec  8 22:53:59 2018",
        "processing_finished_on": "Sat Dec  8 23:48:24 2018",
        "processing_wall_time_in_s": "3262"
    },
    "from_ply_filename": {
        "filename": "/export/data/vNGG/tmp/Hilprecht_Sammlung/04_MSII_filtered/HS_ALL_MSII_PLY/HS_1477_GMOCF_r1.50_n4_v512.ply",
        "hs_number": "HS 1477",
        "radius_in_mm": "1.50",
        "count_of_radii": 16,
        "rastersize": 512
    },
    "from_hilprecht3d": {
        "hs_number": "HS 1477",
        "tablet_url": "https://hilprecht.mpiwg-berlin.mpg.de/object3d/30738",
        "bibliography": "1956-57: Bernhardt + Kramer. \u2013 1961: TMHNF 3, 53. \u2013 1976: Wilcke, KSLT, S. 41"
    },
    "from_gigamesh_info_program": {
        "filename": "HS_1477_GMOCF_r1.50_n4_v512",
        "model_id": "HS 1477",
        "model_material": "clay, original",
        "vertices_total": "3644749",
        "vertices_nan": "0",
        "vertices_solo": "0",
        "vertices_polyline": "0",
        "vertices_border": "0",
        "vertices_nonmanifold": "0",
        "vertices_on_inverted_edge": "0",
        "vertices_part_of_zero_face": "0",
        "vertices_synthetic": "2",
        "vertices_manual": "0",
        "vertices_circle_center": "0",
        "vertices_selected": "2",
        "vertices_funcval_finite": "3644749",
        "vertices_funcval_local_min": "76719",
        "vertices_funcval_local_max": "34110",
        "faces_total": "7289494",
        "faces_solo": "0",
        "faces_border": "0",
        "faces_border_dangling": "0",
        "faces_manifold": "7289494",
        "faces_nonmanifold": "0",
        "faces_sticky": "0",
        "faces_zeroarea": "0",
        "faces_inverted": "0",
        "faces_with_synth_vertices": "0",
        "boundingbox_min_x": "-27.9403",
        "boundingbox_min_y": "0",
        "boundingbox_min_z": "-11.7228",
        "boundingbox_max_x": "27.9403",
        "boundingbox_max_y": "114.929",
        "boundingbox_max_z": "11.7228",
        "boundingbox_width": "5.6",
        "boundingbox_height": "11.5",
        "boundingbox_thick": "2.3",
        "total_area": "161.99",
        "total_volume_dx": "90456.9",
        "total_volume_dy": "90456.9",
        "total_volume_dz": "90456.9"
    }
}