{
    "from_gigamesh_info_file": {
        "filename": "HS_1163_GMOCF_r1.50_n4_v512.info.txt",
        "hs_number": "HS 1163",
        "radius_in_mm": "1.5",
        "count_of_radii": "16",
        "rastersize": "512^3",
        "gigamesh_version": "181204",
        "threads_used": "11",
        "input_filename": "HS_1163_GMOCF.ply",
        "output_filename": "HS_1163_GMOCF_r1.50_n4_v512",
        "radii": [
            1.0,
            0.94,
            0.88,
            0.81,
            0.75,
            0.69,
            0.62,
            0.56,
            0.5,
            0.44,
            0.38,
            0.31,
            0.25,
            0.19,
            0.12,
            0.06
        ],
        "model_id": "HS 1163",
        "material": "clay, original",
        "count_of_vertices": "3256187",
        "count_of_faces": "6512370",
        "bounding_box_in_cm": [
            5.1,
            9.6,
            2.6
        ],
        "area_in_cm2": "136.33",
        "volume_dx_in_cm3": "80.59",
        "volume_dy_in_cm3": "80.59",
        "volume_dz_in_cm3": "80.59",
        "processing_began_on": "Fri Dec  7 20:25:55 2018",
        "processing_finished_on": "Fri Dec  7 22:59:31 2018",
        "processing_wall_time_in_s": "9216"
    },
    "from_ply_filename": {
        "filename": "/export/data/vNGG/tmp/Hilprecht_Sammlung/04_MSII_filtered/HS_ALL_MSII_PLY/HS_1163_GMOCF_r1.50_n4_v512.ply",
        "hs_number": "HS 1163",
        "radius_in_mm": "1.50",
        "count_of_radii": 16,
        "rastersize": 512
    },
    "from_hilprecht3d": {
        "hs_number": "HS 1163",
        "tablet_url": "https://hilprecht.mpiwg-berlin.mpg.de/object3d/30416",
        "bibliography": "1937: TMH NF 1-2, 163",
        "cdli_number": "134474"
    },
    "from_cdli_search_view": {
        "archival_view": "https://cdli.ucla.edu/search/archival_view.php?ObjectID=P134474",
        "primary_publication": "TMH NF 1-2, 163",
        "author": "Pohl, Alfred",
        "publication_date": "1937",
        "secondary_publication": "",
        "collection": "Hilprecht Collection, University of Jena, Germany",
        "museum_number": "HS 1163",
        "accession_number": "",
        "provenience": "Girsu (mod. Tello)",
        "excavation_number": "",
        "period": "Ur III (ca. 2100-2000 BC)",
        "dates_referenced": "\u0160\u016b-Suen.06.12.00",
        "object_type": "tablet",
        "remarks": "",
        "material": "clay",
        "language": "Sumerian",
        "genre": "Administrative",
        "sub_genre": "",
        "cdli_comments": "",
        "catalogue_source": "20011220 ur3_catalogue",
        "atf_source": "cdlistaff",
        "translation": "no translation",
        "ucla_library_ark": "21198/zz001z2cc6",
        "composite_number": "",
        "seal_number": "",
        "cdli_number": "P134474"
    },
    "from_cdli_archival_view": {
        "primary_publication": "TMH NF 1-2, 163",
        "author": "Pohl, Alfred",
        "publication_date": "1937",
        "secondary_publications": "",
        "citation": "",
        "author_remarks": "",
        "published_collation": "OrAnt 15, 321",
        "cdli_number": "P134474",
        "ucla_library_ark": "21198/zz001z2cc6",
        "cdli_comments": "",
        "catalogue": "20011220 ur3_catalogue",
        "transliteration_remarks": "cdlistaff",
        "translation_remarks": "no translation",
        "owner": "Hilprecht Collection, University of Jena, Germany",
        "museum_number": "HS 1163",
        "accession_number": "",
        "acquisition_history": "",
        "genre": "Administrative",
        "sub_genre": "",
        "sub_genre_remarks": "",
        "composite_number": "",
        "language": "Sumerian",
        "material": "clay",
        "object_remarks": "",
        "measurements_in_mm": "? x ? x ?",
        "object_preservation": "",
        "surface_preservation": "",
        "condition_description": "",
        "join_information": "",
        "seal_number": "",
        "seal_information": "",
        "provenience": "Girsu (mod. Tello)",
        "excavation_number": "",
        "findspot_square": "",
        "elevation": "",
        "stratigraphic_level": "",
        "findspot_remarks": "",
        "period": "Ur III (ca. 2100-2000 BC)",
        "period_remarks": "",
        "date_of_origin": "\u0160\u016b-Suen.06.12.00",
        "dates_referenced": "\u0160\u016b-Suen.06.12.00",
        "alternative_years": "",
        "accounting_period": "",
        "textual_content": "@Tablet\n@obverse \n1. 1(szar2) 5(gesz2) 5(u) la2 1(disz) sa gu \n2. ur-bara2-si-ga \n3. 1(szar2) 7(gesz2) 1(u) la2 1(disz) ur-nigar{gar} \n4. 1(szar2) 3(gesz2) 5(u) lugal-he2-gal2 \n5. 1(szar2) 9(gesz2) 3(u) 1(disz) lugal-sza3-la2 \n6. 1(szar2) 2(gesz'u) 8(gesz2) 2(u) 6(disz) ur-{gesz}dar-du3 \n7. 5(szar2) 5(gesz'u) 4(gesz2) 3(u) 5(disz) sa# \n8. ur-bara2-si-ga um-mi-a \n9. 1(szar2) 2(gesz'u) 8(gesz2) 2(u) 5(disz) i3-kal-la \n10. 4(gesz'u) 3(gesz2) 5(u) 2(disz) an-na-hi-li \n11. 1(szar2) 2(gesz'u) 4(gesz2) 1(u) 8(disz) ur-{d}iszkur \n12. 1(szar2) 2(gesz'u) 7(gesz2) n sza3-da-nu-szar2 \n13. 1(szar2) 1(gesz'u) 4(gesz2) 4(u) n ARAD2 \n14. 1(szar2) 1(gesz'u) 1(gesz2) 1(u) 6(disz) e3-e3 \n15. 7(szar2) 2(gesz'u) 9(gesz2) 3(u) sa# \n16. ur-{d}iszkur um-mi-a \n@reverse \n1. 1(szar2) 2(gesz2) 3(u) 5(disz) lugal-nu-banda3 \n2. 1(szar2) 1(gesz'u) 6(gesz2) a-tu \n3. 1(szar2) 1(gesz'u) 2(gesz2) 2(u) 4(disz) ur-gu2-en-na \n4. 1(szar2) 6(gesz2) 5(disz) lu2-{d}na-ru2-a \n5. 1(szar2) 3(gesz2) 3(u) 7(disz) ur-{d}lamma \n6. 5(szar2) 4(gesz'u) 4(u) 1(disz) sa \n7. a-tu um-mi-a \n8. 1(szar'u) 9(szar2) 4(gesz2) 3(u) 2(disz) n [sa] \n9. [x]-x-da# gala? x \n10. [...] gal2-la ka-tar-[... dumu] lu2-{d}utu \n11. [x x] szu ba-ti \n12. [x] kab2# du11-ga \n$ single ruling \n13. [(x)] n 7(szar2) 2(gesz'u) 6(gesz2) 2(u) 6(disz) sa \n14. gu szid-da a-sza3 esz2-dam \n15. ugula# lu2-{d}utu \n16. iti# sze-il2-la \n17. mu na-ru2-a-mah ba-du3 ",
        "lineart_url": "https://cdli.ucla.edu/dl/tn_lineart/P134474_l.jpg",
        "photo_url": "https://cdli.ucla.edu/dl/tn_photo/P134474.jpg"
    },
    "from_gigamesh_info_program": {
        "filename": "HS_1163_GMOCF_r1.50_n4_v512",
        "model_id": "HS 1163",
        "model_material": "clay, original",
        "vertices_total": "3256187",
        "vertices_nan": "0",
        "vertices_solo": "0",
        "vertices_polyline": "0",
        "vertices_border": "0",
        "vertices_nonmanifold": "0",
        "vertices_on_inverted_edge": "0",
        "vertices_part_of_zero_face": "0",
        "vertices_synthetic": "2",
        "vertices_manual": "0",
        "vertices_circle_center": "0",
        "vertices_selected": "0",
        "vertices_funcval_finite": "3256187",
        "vertices_funcval_local_min": "60636",
        "vertices_funcval_local_max": "25858",
        "faces_total": "6512370",
        "faces_solo": "0",
        "faces_border": "0",
        "faces_border_dangling": "0",
        "faces_manifold": "6512370",
        "faces_nonmanifold": "0",
        "faces_sticky": "0",
        "faces_zeroarea": "0",
        "faces_inverted": "0",
        "faces_with_synth_vertices": "0",
        "boundingbox_min_x": "-25.5835",
        "boundingbox_min_y": "0",
        "boundingbox_min_z": "-12.9226",
        "boundingbox_max_x": "25.5835",
        "boundingbox_max_y": "96.3439",
        "boundingbox_max_z": "12.9226",
        "boundingbox_width": "5.1",
        "boundingbox_height": "9.6",
        "boundingbox_thick": "2.6",
        "total_area": "136.33",
        "total_volume_dx": "80588.8",
        "total_volume_dy": "80588.8",
        "total_volume_dz": "80588.8"
    }
}