{
    "from_gigamesh_info_file": {
        "filename": "HS_1238_GMOCF_r1.50_n4_v512.info.txt",
        "hs_number": "HS 1238",
        "radius_in_mm": "1.5",
        "count_of_radii": "16",
        "rastersize": "512^3",
        "gigamesh_version": "181204",
        "threads_used": "11",
        "input_filename": "HS_1238_GMOCF.ply",
        "output_filename": "HS_1238_GMOCF_r1.50_n4_v512",
        "radii": [
            1.0,
            0.94,
            0.88,
            0.81,
            0.75,
            0.69,
            0.62,
            0.56,
            0.5,
            0.44,
            0.38,
            0.31,
            0.25,
            0.19,
            0.12,
            0.06
        ],
        "model_id": "HS 1238",
        "material": "clay, original",
        "count_of_vertices": "1476139",
        "count_of_faces": "2952274",
        "bounding_box_in_cm": [
            4.0,
            5.7,
            1.7
        ],
        "area_in_cm2": "66.00",
        "volume_dx_in_cm3": "26.38",
        "volume_dy_in_cm3": "26.38",
        "volume_dz_in_cm3": "26.38",
        "processing_began_on": "Thu Dec  6 09:36:08 2018",
        "processing_finished_on": "Thu Dec  6 10:38:16 2018",
        "processing_wall_time_in_s": "3727"
    },
    "from_ply_filename": {
        "filename": "/export/data/vNGG/tmp/Hilprecht_Sammlung/04_MSII_filtered/HS_ALL_MSII_PLY/HS_1238_GMOCF_r1.50_n4_v512.ply",
        "hs_number": "HS 1238",
        "radius_in_mm": "1.50",
        "count_of_radii": 16,
        "rastersize": 512
    },
    "from_hilprecht3d": {
        "hs_number": "HS 1238",
        "tablet_url": "https://hilprecht.mpiwg-berlin.mpg.de/object3d/30497",
        "bibliography": "1937: TMH NF 1-2, 238",
        "cdli_number": "134549"
    },
    "from_cdli_search_view": {
        "archival_view": "https://cdli.ucla.edu/search/archival_view.php?ObjectID=P134549",
        "primary_publication": "TMH NF 1-2, 238",
        "author": "Pohl, Alfred",
        "publication_date": "1937",
        "secondary_publication": "Hattori diss. p. 386 (seal)",
        "collection": "Hilprecht Collection, University of Jena, Germany",
        "museum_number": "HS 1238",
        "accession_number": "",
        "provenience": "Nippur (mod. Nuffar)",
        "excavation_number": "",
        "period": "Ur III (ca. 2100-2000 BC)",
        "dates_referenced": "\u0160\u016b-Suen.01.05.06",
        "object_type": "tablet",
        "remarks": "",
        "material": "clay",
        "language": "Sumerian",
        "genre": "Administrative",
        "sub_genre": "",
        "cdli_comments": "",
        "catalogue_source": "20011220 ur3_catalogue",
        "atf_source": "cdlistaff; Firth, Richard",
        "translation": "no translation",
        "ucla_library_ark": "21198/zz001z1c44",
        "composite_number": "",
        "seal_number": "",
        "cdli_number": "P134549"
    },
    "from_cdli_archival_view": {
        "primary_publication": "TMH NF 1-2, 238",
        "author": "Pohl, Alfred",
        "publication_date": "1937",
        "secondary_publications": "Hattori diss. p. 386 (seal)",
        "citation": "",
        "author_remarks": "",
        "published_collation": "OrAnt 15, 322",
        "cdli_number": "P134549",
        "ucla_library_ark": "21198/zz001z1c44",
        "cdli_comments": "",
        "catalogue": "20011220 ur3_catalogue",
        "transliteration_remarks": "cdlistaff; Firth, Richard",
        "translation_remarks": "no translation",
        "owner": "Hilprecht Collection, University of Jena, Germany",
        "museum_number": "HS 1238",
        "accession_number": "",
        "acquisition_history": "",
        "genre": "Administrative",
        "sub_genre": "",
        "sub_genre_remarks": "",
        "composite_number": "",
        "language": "Sumerian",
        "material": "clay",
        "object_remarks": "",
        "measurements_in_mm": "? x ? x ?",
        "object_preservation": "",
        "surface_preservation": "",
        "condition_description": "",
        "join_information": "",
        "seal_number": "",
        "seal_information": "",
        "provenience": "Nippur (mod. Nuffar)",
        "excavation_number": "",
        "findspot_square": "",
        "elevation": "",
        "stratigraphic_level": "",
        "findspot_remarks": "",
        "period": "Ur III (ca. 2100-2000 BC)",
        "period_remarks": "",
        "date_of_origin": "\u0160\u016b-Suen.01.05.06",
        "dates_referenced": "\u0160\u016b-Suen.01.05.06",
        "alternative_years": "",
        "accounting_period": "",
        "textual_content": "@Tablet\n@obverse \n1. 2(disz) tug2 nig2-lam2 du \n2. ki-la2-bi 3(disz) 2/3(disz) ma-na \n3. 2(disz) tug2 ug3-IL2 \n4. ki-la2-bi 7(disz) ma-na 1(u) gin2 \n5. szunigin 1(u) 5/6(disz) ma-na \n6. ki lugal-ma2-gur8-re-ta \n7. 1(disz) tug2 nig2-lam2 3(disz) us2 \n8. 1(disz) tug2 nig2-lam2 4(disz) us2 \n9. iti NE-NE-gar u4 6(disz) ba-zal \n10. mu {d}szu-{d}suen \n@reverse \n1. 5(disz) tug2 nig2-lam2 tur 4(disz) us2 \n2. 2(disz) tug2 x ba-tab duh-um 4(disz) us2 \n3. ki-la2-bi 1(u) ma-na 5(disz) gin2 \n4. 1(disz) tug2 gu2-e3 ba-tab duh-um 4(disz) us2 \n5. 1(disz) tug2 nig2-|SAGxDU3|-a-gal 3(disz) us2 \n6. 2(disz) tug2 bar-si-bu-ra 3(disz) us2 \n7. ki-la2-bi 1/3(disz) ma-na 5(disz) gin2 \n8. 5(disz) tug2 ug3-IL2 \n9. ki-la2-bi 1(u) 8(disz) 5/6(disz) ma-na \n10. 2(disz) tug2 usz-bar ki-la2-bi 9(disz) 1/2(disz) ma-na \n11. 2(disz) tug2 a-bala ki-la2-bi 8(disz) ma-na \n@left \n1. szunigin 4(u) 6(disz) 5/6(disz) ma-na 8(disz) gin2 ki um-mi-t,a-bat5-ta 1(barig) 2(ban2) sze ki-la2-bi 2(disz) ma 1(u) gin2 ",
        "lineart_url": "https://cdli.ucla.edu/dl/tn_lineart/P134549_l.jpg"
    },
    "from_gigamesh_info_program": {
        "filename": "HS_1238_GMOCF_r1.50_n4_v512",
        "model_id": "HS 1238",
        "model_material": "clay, original",
        "vertices_total": "1476139",
        "vertices_nan": "0",
        "vertices_solo": "0",
        "vertices_polyline": "0",
        "vertices_border": "0",
        "vertices_nonmanifold": "0",
        "vertices_on_inverted_edge": "0",
        "vertices_part_of_zero_face": "0",
        "vertices_synthetic": "0",
        "vertices_manual": "0",
        "vertices_circle_center": "0",
        "vertices_selected": "0",
        "vertices_funcval_finite": "1476139",
        "vertices_funcval_local_min": "26633",
        "vertices_funcval_local_max": "10199",
        "faces_total": "2952274",
        "faces_solo": "0",
        "faces_border": "0",
        "faces_border_dangling": "0",
        "faces_manifold": "2952274",
        "faces_nonmanifold": "0",
        "faces_sticky": "0",
        "faces_zeroarea": "0",
        "faces_inverted": "0",
        "faces_with_synth_vertices": "0",
        "boundingbox_min_x": "-20.2236",
        "boundingbox_min_y": "0",
        "boundingbox_min_z": "-8.5196",
        "boundingbox_max_x": "20.2236",
        "boundingbox_max_y": "56.7415",
        "boundingbox_max_z": "8.5196",
        "boundingbox_width": "4",
        "boundingbox_height": "5.7",
        "boundingbox_thick": "1.7",
        "total_area": "66",
        "total_volume_dx": "26375.8",
        "total_volume_dy": "26375.8",
        "total_volume_dz": "26375.8"
    }
}