{
    "from_gigamesh_info_file": {
        "filename": "HS_1003_GMOCF_r1.50_n4_v512.info.txt",
        "hs_number": "HS 1003",
        "radius_in_mm": "1.5",
        "count_of_radii": "16",
        "rastersize": "512^3",
        "gigamesh_version": "181204",
        "threads_used": "11",
        "input_filename": "HS_1003_GMOCF.ply",
        "output_filename": "HS_1003_GMOCF_r1.50_n4_v512",
        "radii": [
            1.0,
            0.94,
            0.88,
            0.81,
            0.75,
            0.69,
            0.62,
            0.56,
            0.5,
            0.44,
            0.38,
            0.31,
            0.25,
            0.19,
            0.12,
            0.06
        ],
        "model_id": "HS 1003",
        "material": "clay, original",
        "count_of_vertices": "1225600",
        "count_of_faces": "2451196",
        "bounding_box_in_cm": [
            3.9,
            4.4,
            1.5
        ],
        "area_in_cm2": "44.98",
        "volume_dx_in_cm3": "16.78",
        "volume_dy_in_cm3": "16.78",
        "volume_dz_in_cm3": "16.78",
        "processing_began_on": "Fri Dec  7 14:12:32 2018",
        "processing_finished_on": "Fri Dec  7 15:13:19 2018",
        "processing_wall_time_in_s": "3647"
    },
    "from_ply_filename": {
        "filename": "/export/data/vNGG/tmp/Hilprecht_Sammlung/04_MSII_filtered/HS_ALL_MSII_PLY/HS_1003_GMOCF_r1.50_n4_v512.ply",
        "hs_number": "HS 1003",
        "radius_in_mm": "1.50",
        "count_of_radii": 16,
        "rastersize": 512
    },
    "from_hilprecht3d": {
        "hs_number": "HS 1003",
        "tablet_url": "https://hilprecht.mpiwg-berlin.mpg.de/object3d/30236",
        "bibliography": "1937: TMH NF 1-2, 003. \u2013 1939: Fs.Koschaker, SDJD 2, HS 1003",
        "cdli_number": "134315"
    },
    "from_cdli_search_view": {
        "archival_view": "https://cdli.ucla.edu/search/archival_view.php?ObjectID=P134315",
        "primary_publication": "TMH NF 1-2, 003",
        "author": "Pohl, Alfred",
        "publication_date": "1937",
        "secondary_publication": "Fs.Koschaker, SDJD 2 HS 1003",
        "collection": "Hilprecht Collection, University of Jena, Germany",
        "museum_number": "HS 1003",
        "accession_number": "",
        "provenience": "Nippur (mod. Nuffar)",
        "excavation_number": "",
        "period": "Ur III (ca. 2100-2000 BC)",
        "dates_referenced": "Ibbi-Suen.05.07.00",
        "object_type": "tablet",
        "remarks": "",
        "material": "clay",
        "language": "Sumerian",
        "genre": "Administrative",
        "sub_genre": "",
        "cdli_comments": "",
        "catalogue_source": "20011220 ur3_catalogue",
        "atf_source": "cdlistaff",
        "translation": "no translation",
        "ucla_library_ark": "21198/zz001z1r0c",
        "composite_number": "",
        "seal_number": "S005183",
        "cdli_number": "P134315"
    },
    "from_cdli_archival_view": {
        "primary_publication": "TMH NF 1-2, 003",
        "author": "Pohl, Alfred",
        "publication_date": "1937",
        "secondary_publications": "Fs.Koschaker, SDJD 2 HS 1003",
        "citation": "",
        "author_remarks": "",
        "published_collation": "OrAnt 15, 318",
        "cdli_number": "P134315",
        "ucla_library_ark": "21198/zz001z1r0c",
        "cdli_comments": "",
        "catalogue": "20011220 ur3_catalogue",
        "transliteration_remarks": "cdlistaff",
        "translation_remarks": "no translation",
        "owner": "Hilprecht Collection, University of Jena, Germany",
        "museum_number": "HS 1003",
        "accession_number": "",
        "acquisition_history": "",
        "genre": "Administrative",
        "sub_genre": "",
        "sub_genre_remarks": "",
        "composite_number": "",
        "language": "Sumerian",
        "material": "clay",
        "object_remarks": "",
        "measurements_in_mm": "? x ? x ?",
        "object_preservation": "",
        "surface_preservation": "",
        "condition_description": "",
        "join_information": "",
        "seal_number": "S005183",
        "seal_information": "",
        "provenience": "Nippur (mod. Nuffar)",
        "excavation_number": "",
        "findspot_square": "",
        "elevation": "",
        "stratigraphic_level": "",
        "findspot_remarks": "",
        "period": "Ur III (ca. 2100-2000 BC)",
        "period_remarks": "",
        "date_of_origin": "Ibbi-Suen.05.07.00",
        "dates_referenced": "Ibbi-Suen.05.07.00",
        "alternative_years": "",
        "accounting_period": "",
        "textual_content": "@Tablet\n@obverse \n1. 2(disz) gin2 ku3-babbar \n2. 2(ban2) sze \n3. ki a2-zi-da-ta \n4. ur-{d}nin-a-zu \n5. szu ba-ti \n6. iti du6-ku3 \n@reverse \n1. ki-lu-ti-im-ba \n2. szum2-mu-dam \n3. mu dumu-lugal ensi2 za-ab-sza-li{ki}-ke4 ba-an-tuku \n@seal 1 \n1. ur-{d}nin-a-zu \n2. dumu lugal-ku3-zu \n3. gu-za-la2 ",
        "lineart_url": "https://cdli.ucla.edu/dl/tn_lineart/P134315_l.jpg",
        "photo_url": "https://cdli.ucla.edu/dl/tn_photo/P134315.jpg"
    },
    "from_gigamesh_info_program": {
        "filename": "HS_1003_GMOCF_r1.50_n4_v512",
        "model_id": "HS 1003",
        "model_material": "clay, original",
        "vertices_total": "1225600",
        "vertices_nan": "0",
        "vertices_solo": "0",
        "vertices_polyline": "0",
        "vertices_border": "0",
        "vertices_nonmanifold": "0",
        "vertices_on_inverted_edge": "0",
        "vertices_part_of_zero_face": "0",
        "vertices_synthetic": "0",
        "vertices_manual": "0",
        "vertices_circle_center": "0",
        "vertices_selected": "0",
        "vertices_funcval_finite": "1225600",
        "vertices_funcval_local_min": "25018",
        "vertices_funcval_local_max": "11726",
        "faces_total": "2451196",
        "faces_solo": "0",
        "faces_border": "0",
        "faces_border_dangling": "0",
        "faces_manifold": "2451196",
        "faces_nonmanifold": "0",
        "faces_sticky": "0",
        "faces_zeroarea": "0",
        "faces_inverted": "0",
        "faces_with_synth_vertices": "0",
        "boundingbox_min_x": "-19.5719",
        "boundingbox_min_y": "0",
        "boundingbox_min_z": "-7.2948",
        "boundingbox_max_x": "19.5719",
        "boundingbox_max_y": "43.7086",
        "boundingbox_max_z": "7.2948",
        "boundingbox_width": "3.9",
        "boundingbox_height": "4.4",
        "boundingbox_thick": "1.5",
        "total_area": "44.98",
        "total_volume_dx": "16781.3",
        "total_volume_dy": "16781.3",
        "total_volume_dz": "16781.3"
    }
}