{
    "from_gigamesh_info_file": {
        "filename": "HS_1748_GMOCF_r1.50_n4_v512.info.txt",
        "hs_number": "HS 1748",
        "radius_in_mm": "1.5",
        "count_of_radii": "16",
        "rastersize": "512^3",
        "input_filename": "HS_1748_GMOCF.ply",
        "output_filename": "HS_1748_GMOCF_r1.50_n4_v512",
        "radii": [
            1.0,
            0.94,
            0.88,
            0.81,
            0.75,
            0.69,
            0.62,
            0.56,
            0.5,
            0.44,
            0.38,
            0.31,
            0.25,
            0.19,
            0.12,
            0.06
        ],
        "model_id": "HS 1748",
        "material": "clay, original",
        "count_of_vertices": "2074895",
        "count_of_faces": "4149786",
        "bounding_box_in_cm": [
            6.5,
            4.9,
            2.6
        ],
        "area_in_cm2": "82.13",
        "volume_dx_in_cm3": "40.39",
        "volume_dy_in_cm3": "40.39",
        "volume_dz_in_cm3": "40.39",
        "processing_began_on": "Sun Dec  9 20:23:16 2018",
        "processing_finished_on": "Sun Dec  9 20:45:35 2018",
        "processing_wall_time_in_s": "1335"
    },
    "from_ply_filename": {
        "filename": "/export/data/vNGG/tmp/Hilprecht_Sammlung/04_MSII_filtered/HS_ALL_MSII_PLY/HS_1748_GMOCF_r1.50_n4_v512.ply",
        "hs_number": "HS 1748",
        "radius_in_mm": "1.50",
        "count_of_radii": 16,
        "rastersize": 512
    },
    "from_hilprecht3d": {
        "hs_number": "HS 1748",
        "tablet_url": "https://hilprecht.mpiwg-berlin.mpg.de/object3d/30949",
        "bibliography": ""
    },
    "from_cdli_search_view": {
        "archival_view": "https://cdli.ucla.edu/search/archival_view.php?ObjectID=P229930",
        "primary_publication": "unpublished unassigned ?",
        "author": "nn",
        "publication_date": "nd",
        "secondary_publication": "",
        "collection": "Hilprecht Collection, University of Jena, Germany",
        "museum_number": "HS 1748",
        "accession_number": "",
        "provenience": "Nippur (mod. Nuffar) ?",
        "excavation_number": "",
        "period": "",
        "dates_referenced": "",
        "object_type": "tablet",
        "remarks": "",
        "material": "clay",
        "language": "Sumerian",
        "genre": "Lexical",
        "sub_genre": "",
        "cdli_comments": "",
        "catalogue_source": "20030911 veldhuis_nippurlexical",
        "atf_source": "no atf",
        "translation": "no translation",
        "ucla_library_ark": "21198/zz001rf4sg",
        "composite_number": "",
        "seal_number": "",
        "cdli_number": "P229930"
    },
    "from_cdli_archival_view": {
        "primary_publication": "unpublished unassigned ?",
        "author": "nn",
        "publication_date": "nd",
        "secondary_publications": "",
        "citation": "",
        "author_remarks": "",
        "published_collation": "",
        "cdli_number": "P229930",
        "ucla_library_ark": "21198/zz001rf4sg",
        "cdli_comments": "",
        "catalogue": "20030911 veldhuis_nippurlexical",
        "transliteration_remarks": "no atf",
        "translation_remarks": "no translation",
        "owner": "Hilprecht Collection, University of Jena, Germany",
        "museum_number": "HS 1748",
        "accession_number": "",
        "acquisition_history": "",
        "genre": "Lexical",
        "sub_genre": "",
        "sub_genre_remarks": "Unidentified.",
        "composite_number": "",
        "language": "Sumerian",
        "material": "clay",
        "object_remarks": "",
        "measurements_in_mm": "? x ? x ?",
        "object_preservation": "",
        "surface_preservation": "",
        "condition_description": "",
        "join_information": "",
        "seal_number": "",
        "seal_information": "",
        "provenience": "Nippur (mod. Nuffar) ?",
        "excavation_number": "",
        "findspot_square": "",
        "elevation": "",
        "stratigraphic_level": "",
        "findspot_remarks": "",
        "period": "",
        "period_remarks": "",
        "date_of_origin": "",
        "dates_referenced": "",
        "alternative_years": "",
        "accounting_period": "",
        "textual_content": "@Tablet"
    },
    "from_gigamesh_info_program": {
        "filename": "HS_1748_GMOCF_r1.50_n4_v512",
        "model_id": "HS 1748",
        "model_material": "clay, original",
        "vertices_total": "2074895",
        "vertices_nan": "0",
        "vertices_solo": "0",
        "vertices_polyline": "0",
        "vertices_border": "0",
        "vertices_nonmanifold": "0",
        "vertices_on_inverted_edge": "0",
        "vertices_part_of_zero_face": "0",
        "vertices_synthetic": "1",
        "vertices_manual": "0",
        "vertices_circle_center": "0",
        "vertices_selected": "1",
        "vertices_funcval_finite": "2074895",
        "vertices_funcval_local_min": "43697",
        "vertices_funcval_local_max": "18395",
        "faces_total": "4149786",
        "faces_solo": "0",
        "faces_border": "0",
        "faces_border_dangling": "0",
        "faces_manifold": "4149786",
        "faces_nonmanifold": "0",
        "faces_sticky": "0",
        "faces_zeroarea": "0",
        "faces_inverted": "0",
        "faces_with_synth_vertices": "0",
        "boundingbox_min_x": "-32.4861",
        "boundingbox_min_y": "0",
        "boundingbox_min_z": "-12.9281",
        "boundingbox_max_x": "32.4861",
        "boundingbox_max_y": "48.7025",
        "boundingbox_max_z": "12.9281",
        "boundingbox_width": "6.5",
        "boundingbox_height": "4.9",
        "boundingbox_thick": "2.6",
        "total_area": "82.13",
        "total_volume_dx": "40385.3",
        "total_volume_dy": "40385.3",
        "total_volume_dz": "40385.3"
    }
}