{
    "from_gigamesh_info_file": {
        "filename": "HS_1300_GMOCF_r1.50_n4_v512.info.txt",
        "hs_number": "HS 1300",
        "radius_in_mm": "1.5",
        "count_of_radii": "16",
        "rastersize": "512^3",
        "gigamesh_version": "181005",
        "threads_used": "7",
        "input_filename": "HS_1300_GMOCF.ply",
        "output_filename": "HS_1300_GMOCF_r1.50_n4_v512",
        "radii": [
            1.0,
            0.94,
            0.88,
            0.81,
            0.75,
            0.69,
            0.62,
            0.56,
            0.5,
            0.44,
            0.38,
            0.31,
            0.25,
            0.19,
            0.12,
            0.06
        ],
        "model_id": "HS 1300",
        "material": "clay, original",
        "count_of_vertices": "2389855",
        "count_of_faces": "4779706",
        "bounding_box_in_cm": [
            4.7,
            9.2,
            2.3
        ],
        "area_in_cm2": "123.43",
        "volume_dx_in_cm3": "67.59",
        "volume_dy_in_cm3": "67.59",
        "volume_dz_in_cm3": "67.59",
        "processing_began_on": "Wed Dec  5 17:18:59 2018",
        "processing_finished_on": "Wed Dec  5 22:28:19 2018",
        "processing_wall_time_in_s": "18560"
    },
    "from_ply_filename": {
        "filename": "/export/data/vNGG/tmp/Hilprecht_Sammlung/04_MSII_filtered/HS_ALL_MSII_PLY/HS_1300_GMOCF_r1.50_n4_v512.ply",
        "hs_number": "HS 1300",
        "radius_in_mm": "1.50",
        "count_of_radii": 16,
        "rastersize": 512
    },
    "from_hilprecht3d": {
        "hs_number": "HS 1300",
        "tablet_url": "https://hilprecht.mpiwg-berlin.mpg.de/object3d/30566",
        "bibliography": "1937: TMH NF 1-2, 300",
        "cdli_number": "134610"
    },
    "from_cdli_search_view": {
        "archival_view": "https://cdli.ucla.edu/search/archival_view.php?ObjectID=P134610",
        "primary_publication": "TMH NF 1-2, 300",
        "author": "Pohl, Alfred",
        "publication_date": "1937",
        "secondary_publication": "",
        "collection": "Hilprecht Collection, University of Jena, Germany",
        "museum_number": "HS 1300",
        "accession_number": "",
        "provenience": "Nippur (mod. Nuffar)",
        "excavation_number": "",
        "period": "Ur III (ca. 2100-2000 BC)",
        "dates_referenced": "\u0160\u016b-Suen.08.06.12",
        "object_type": "tablet",
        "remarks": "",
        "material": "clay",
        "language": "Sumerian",
        "genre": "Administrative",
        "sub_genre": "",
        "cdli_comments": "",
        "catalogue_source": "20011220 ur3_catalogue",
        "atf_source": "cdlistaff",
        "translation": "no translation",
        "ucla_library_ark": "21198/zz001z08wm",
        "composite_number": "",
        "seal_number": "",
        "cdli_number": "P134610"
    },
    "from_cdli_archival_view": {
        "primary_publication": "TMH NF 1-2, 300",
        "author": "Pohl, Alfred",
        "publication_date": "1937",
        "secondary_publications": "",
        "citation": "",
        "author_remarks": "",
        "published_collation": "",
        "cdli_number": "P134610",
        "ucla_library_ark": "21198/zz001z08wm",
        "cdli_comments": "",
        "catalogue": "20011220 ur3_catalogue",
        "transliteration_remarks": "cdlistaff",
        "translation_remarks": "no translation",
        "owner": "Hilprecht Collection, University of Jena, Germany",
        "museum_number": "HS 1300",
        "accession_number": "",
        "acquisition_history": "",
        "genre": "Administrative",
        "sub_genre": "",
        "sub_genre_remarks": "",
        "composite_number": "",
        "language": "Sumerian",
        "material": "clay",
        "object_remarks": "",
        "measurements_in_mm": "? x ? x ?",
        "object_preservation": "",
        "surface_preservation": "",
        "condition_description": "",
        "join_information": "",
        "seal_number": "",
        "seal_information": "",
        "provenience": "Nippur (mod. Nuffar)",
        "excavation_number": "",
        "findspot_square": "",
        "elevation": "",
        "stratigraphic_level": "",
        "findspot_remarks": "",
        "period": "Ur III (ca. 2100-2000 BC)",
        "period_remarks": "",
        "date_of_origin": "\u0160\u016b-Suen.08.06.12",
        "dates_referenced": "\u0160\u016b-Suen.08.06.12",
        "alternative_years": "",
        "accounting_period": "",
        "textual_content": "@Tablet\n@obverse \n1. 1(u) gu4 apin 1(u) 8(disz) gurusz sza3-gu4 \n2. 4(u) 8(disz) gurusz lu2 hun-ga2 \n3. 4(u) 4(disz) gurusz ugula ur-e2-an-na \n4. 4(u) la2 1(disz) gurusz ugula i3-li2-mu \n5. erin2 e2-mar-za{ki}-ka \n6. nu-banda3 lugal-{d}isztaran \n7. 5(disz) gu4 2(u) 1(disz) gurusz sza3-gu4 \n8. 3(u) 8(disz) gurusz lu2 hun-ga2 \n9. nu-banda3 lugal-inim-gi-na \n10. 1(u) gu4 2(u) la2 1(disz) gurusz sza3-gu4 \n11. 4(u) 3(disz) gurusz lu2 hun-ga2 [(x)] \n12. 2(u) 9(disz) gurusz erin2 si-ma-num2{ki} \n13. nu-banda3 ka-sa6-sa6 \n14. 5(disz) gu4 1(u) 2(disz) gurusz sza3-gu4 \n15. 3(u) 4(disz) gurusz lu2 hun-ga2 \n@reverse \n1. 1(u) 5(disz) gurusz erin2 e2-mar-za{ki} \n2. ugula ur-e2-an-na \n3. nu-banda3 ur-{d}da-mu \n$ blank space \n4. szunigin 3(u) gu4 apin \n5. szunigin 1(gesz2) 1(u) gurusz sza3-gu4 \n6. szunigin 5(u) la2 1(disz) gurusz erin2 si-ma-num2{ki} \n7. szunigin 1(gesz2) 3(u) 8(disz) gurusz erin2 e2-mar-za{ki} \n8. szunigin 2(gesz2) 4(u) 3(disz) gurusz lu2 hun-ga2 \n9. gub-ba-am3 \n10. gurum2 ak u4 1(disz)-kam \n11. iti kin-{d}inanna u4 1(u) 2(disz) ba-zal \n12. mu {d}szu-{d}suen lugal-e ma2-gur8-mah {d}en-lil2 {d}nin-lil2-ra mu-ne-du8 \n ",
        "lineart_url": "https://cdli.ucla.edu/dl/tn_lineart/P134610_l.jpg",
        "photo_url": "https://cdli.ucla.edu/dl/tn_photo/P134610.jpg"
    },
    "from_gigamesh_info_program": {
        "filename": "HS_1300_GMOCF_r1.50_n4_v512",
        "model_id": "HS 1300",
        "model_material": "clay, original",
        "vertices_total": "2389855",
        "vertices_nan": "0",
        "vertices_solo": "0",
        "vertices_polyline": "0",
        "vertices_border": "0",
        "vertices_nonmanifold": "0",
        "vertices_on_inverted_edge": "0",
        "vertices_part_of_zero_face": "0",
        "vertices_synthetic": "0",
        "vertices_manual": "0",
        "vertices_circle_center": "0",
        "vertices_selected": "0",
        "vertices_funcval_finite": "2389855",
        "vertices_funcval_local_min": "52181",
        "vertices_funcval_local_max": "21637",
        "faces_total": "4779706",
        "faces_solo": "0",
        "faces_border": "0",
        "faces_border_dangling": "0",
        "faces_manifold": "4779706",
        "faces_nonmanifold": "0",
        "faces_sticky": "0",
        "faces_zeroarea": "0",
        "faces_inverted": "0",
        "faces_with_synth_vertices": "0",
        "boundingbox_min_x": "-23.727",
        "boundingbox_min_y": "0",
        "boundingbox_min_z": "-11.3639",
        "boundingbox_max_x": "23.727",
        "boundingbox_max_y": "91.6588",
        "boundingbox_max_z": "11.3639",
        "boundingbox_width": "4.7",
        "boundingbox_height": "9.2",
        "boundingbox_thick": "2.3",
        "total_area": "123.43",
        "total_volume_dx": "67586.3",
        "total_volume_dy": "67586.3",
        "total_volume_dz": "67586.3"
    }
}