{
    "from_gigamesh_info_file": {
        "filename": "HS_1153_GMOCF_r1.50_n4_v512.info.txt",
        "hs_number": "HS 1153",
        "radius_in_mm": "1.5",
        "count_of_radii": "16",
        "rastersize": "512^3",
        "gigamesh_version": "181005",
        "threads_used": "7",
        "input_filename": "HS_1153_GMOCF.ply",
        "output_filename": "HS_1153_GMOCF_r1.50_n4_v512",
        "radii": [
            1.0,
            0.94,
            0.88,
            0.81,
            0.75,
            0.69,
            0.62,
            0.56,
            0.5,
            0.44,
            0.38,
            0.31,
            0.25,
            0.19,
            0.12,
            0.06
        ],
        "model_id": "HS 1153",
        "material": "clay, original",
        "count_of_vertices": "2345218",
        "count_of_faces": "4690432",
        "bounding_box_in_cm": [
            4.6,
            8.4,
            2.1
        ],
        "area_in_cm2": "106.41",
        "volume_dx_in_cm3": "53.81",
        "volume_dy_in_cm3": "53.81",
        "volume_dz_in_cm3": "53.81",
        "processing_began_on": "Fri Dec  7 15:34:33 2018",
        "processing_finished_on": "Fri Dec  7 20:54:33 2018",
        "processing_wall_time_in_s": "19199"
    },
    "from_ply_filename": {
        "filename": "/export/data/vNGG/tmp/Hilprecht_Sammlung/04_MSII_filtered/HS_ALL_MSII_PLY/HS_1153_GMOCF_r1.50_n4_v512.ply",
        "hs_number": "HS 1153",
        "radius_in_mm": "1.50",
        "count_of_radii": 16,
        "rastersize": 512
    },
    "from_hilprecht3d": {
        "hs_number": "HS 1153",
        "tablet_url": "https://hilprecht.mpiwg-berlin.mpg.de/object3d/30406",
        "bibliography": "1937: TMH NF 1-2, 153",
        "cdli_number": "134464"
    },
    "from_cdli_search_view": {
        "archival_view": "https://cdli.ucla.edu/search/archival_view.php?ObjectID=P134464",
        "primary_publication": "TMH NF 1-2, 153",
        "author": "Pohl, Alfred",
        "publication_date": "1937",
        "secondary_publication": "",
        "collection": "Hilprecht Collection, University of Jena, Germany",
        "museum_number": "HS 1153",
        "accession_number": "",
        "provenience": "Nippur (mod. Nuffar)",
        "excavation_number": "",
        "period": "Ur III (ca. 2100-2000 BC)",
        "dates_referenced": "\u0160\u016b-Suen.05.11.00 (us2 year) (Reichskalender)",
        "object_type": "tablet",
        "remarks": "",
        "material": "clay",
        "language": "Sumerian",
        "genre": "Administrative",
        "sub_genre": "",
        "cdli_comments": "",
        "catalogue_source": "20011220 ur3_catalogue",
        "atf_source": "cdlistaff",
        "translation": "no translation",
        "ucla_library_ark": "21198/zz001z2c11",
        "composite_number": "",
        "seal_number": "",
        "cdli_number": "P134464"
    },
    "from_cdli_archival_view": {
        "primary_publication": "TMH NF 1-2, 153",
        "author": "Pohl, Alfred",
        "publication_date": "1937",
        "secondary_publications": "",
        "citation": "",
        "author_remarks": "",
        "published_collation": "OrAnt 15, 320",
        "cdli_number": "P134464",
        "ucla_library_ark": "21198/zz001z2c11",
        "cdli_comments": "",
        "catalogue": "20011220 ur3_catalogue",
        "transliteration_remarks": "cdlistaff",
        "translation_remarks": "no translation",
        "owner": "Hilprecht Collection, University of Jena, Germany",
        "museum_number": "HS 1153",
        "accession_number": "",
        "acquisition_history": "",
        "genre": "Administrative",
        "sub_genre": "",
        "sub_genre_remarks": "",
        "composite_number": "",
        "language": "Sumerian",
        "material": "clay",
        "object_remarks": "",
        "measurements_in_mm": "? x ? x ?",
        "object_preservation": "",
        "surface_preservation": "",
        "condition_description": "",
        "join_information": "",
        "seal_number": "",
        "seal_information": "",
        "provenience": "Nippur (mod. Nuffar)",
        "excavation_number": "",
        "findspot_square": "",
        "elevation": "",
        "stratigraphic_level": "",
        "findspot_remarks": "",
        "period": "Ur III (ca. 2100-2000 BC)",
        "period_remarks": "",
        "date_of_origin": "\u0160\u016b-Suen.05.11.00 (us2 year) (Reichskalender)",
        "dates_referenced": "\u0160\u016b-Suen.05.11.00 (us2 year) (Reichskalender)",
        "alternative_years": "",
        "accounting_period": "",
        "textual_content": "@Tablet\n@obverse \n1. 1(asz) sze ab-ba-kal-la \n2. 1(asz) 1(barig) 3(ban2) ARAD2 \n3. 1(asz) lu2-dingir-ra \n4. 4(barig) lu2-{d}iszkur \n5. 1(asz) 1(barig) lu2-{d}suen \n6. 4(barig) lu2-dingir-ra \n7. 1(asz) lu2-{d}inanna \n8. 4(barig) ur-sipa-da \n9. 4(barig) a-za-am3 \n10. 1(asz) szesz-ki-lu5#-la#? \n11. 1(barig) e2 te? x e \n12. 2(barig) lugal-HAR \n13. 1(barig) 3(ban2) lugal-eb2-gu-ul \n14. 1(barig) du10-ur2 \n15. 1(barig) lugal-pa-e3 \n16. 2(ban2) dingir-du11-ga \n$ 1 line blank \n@reverse \n1. 1(u) 1(asz) 1(barig) sze! \n2. 1(barig) e2-gurum2{um}-e \n3. 1(barig) {d}iszkur-an-dul3 \n4. 3(ban2) nin-ki-ni \n5. 1(barig) 3(ban2) szesz-kal-la \n6. 1(barig) 3(ban2) du-du \n7. 1(barig) lugal-si-sa2 \n8. 1(barig) lu2-kal-la \n9. 1(barig) 2(ban2) a-a-kal-la \n10. 1(barig) 3(ban2) lu2-{d}ba-ba6 \n11. 1(barig) nu-ur2-{d}iszkur \n12. 1(barig) 3(ban2) szu-ma-ma \n13. 1(barig) 1(ban2) a2-du-u2 \n14. 1(barig) u2-ga \n15. 2(ban2) szesz-kal-la \n16. 2(ban2) ur-{d}al-la \n17. 2(ban2) ur-{d}lamma \n@left \ncolumn 1 \n1. 3(ban2) ama szesz-kal-la \n2. dumu sza3-gu2-bi \ncolumn 2 \n1. 1(asz) igi-an-na-ke4-zu \n2. sze-ba iti ezem-an-na \n# some text moved to next line \n3. mu us2-sa bad3 mar-tu ba-du3 ",
        "lineart_url": "https://cdli.ucla.edu/dl/tn_lineart/P134464_l.jpg",
        "photo_url": "https://cdli.ucla.edu/dl/tn_photo/P134464.jpg"
    },
    "from_gigamesh_info_program": {
        "filename": "HS_1153_GMOCF_r1.50_n4_v512",
        "model_id": "HS 1153",
        "model_material": "clay, original",
        "vertices_total": "2345218",
        "vertices_nan": "0",
        "vertices_solo": "0",
        "vertices_polyline": "0",
        "vertices_border": "0",
        "vertices_nonmanifold": "0",
        "vertices_on_inverted_edge": "0",
        "vertices_part_of_zero_face": "0",
        "vertices_synthetic": "0",
        "vertices_manual": "0",
        "vertices_circle_center": "0",
        "vertices_selected": "0",
        "vertices_funcval_finite": "2345218",
        "vertices_funcval_local_min": "45799",
        "vertices_funcval_local_max": "21513",
        "faces_total": "4690432",
        "faces_solo": "0",
        "faces_border": "0",
        "faces_border_dangling": "0",
        "faces_manifold": "4690432",
        "faces_nonmanifold": "0",
        "faces_sticky": "0",
        "faces_zeroarea": "0",
        "faces_inverted": "0",
        "faces_with_synth_vertices": "0",
        "boundingbox_min_x": "-23.0583",
        "boundingbox_min_y": "0",
        "boundingbox_min_z": "-10.4899",
        "boundingbox_max_x": "23.0583",
        "boundingbox_max_y": "84.2696",
        "boundingbox_max_z": "10.4899",
        "boundingbox_width": "4.6",
        "boundingbox_height": "8.4",
        "boundingbox_thick": "2.1",
        "total_area": "106.41",
        "total_volume_dx": "53812.3",
        "total_volume_dy": "53812.3",
        "total_volume_dz": "53812.3"
    }
}