{
    "from_gigamesh_info_file": {
        "filename": "HS_1186_GMOCF_r1.50_n4_v512.info.txt",
        "hs_number": "HS 1186",
        "radius_in_mm": "1.5",
        "count_of_radii": "16",
        "rastersize": "512^3",
        "gigamesh_version": "181204",
        "threads_used": "11",
        "input_filename": "HS_1186_GMOCF.ply",
        "output_filename": "HS_1186_GMOCF_r1.50_n4_v512",
        "radii": [
            1.0,
            0.94,
            0.88,
            0.81,
            0.75,
            0.69,
            0.62,
            0.56,
            0.5,
            0.44,
            0.38,
            0.31,
            0.25,
            0.19,
            0.12,
            0.06
        ],
        "model_id": "HS 1186",
        "material": "clay, original",
        "count_of_vertices": "527675",
        "count_of_faces": "1055346",
        "bounding_box_in_cm": [
            2.7,
            2.9,
            1.3
        ],
        "area_in_cm2": "24.27",
        "volume_dx_in_cm3": "7.27",
        "volume_dy_in_cm3": "7.27",
        "volume_dz_in_cm3": "7.27",
        "processing_began_on": "Fri Dec  7 18:01:06 2018",
        "processing_finished_on": "Fri Dec  7 18:23:39 2018",
        "processing_wall_time_in_s": "1353"
    },
    "from_ply_filename": {
        "filename": "/export/data/vNGG/tmp/Hilprecht_Sammlung/04_MSII_filtered/HS_ALL_MSII_PLY/HS_1186_GMOCF_r1.50_n4_v512.ply",
        "hs_number": "HS 1186",
        "radius_in_mm": "1.50",
        "count_of_radii": 16,
        "rastersize": 512
    },
    "from_hilprecht3d": {
        "hs_number": "HS 1186",
        "tablet_url": "https://hilprecht.mpiwg-berlin.mpg.de/object3d/30439",
        "bibliography": "1937: TMH NF 1-2, 186",
        "cdli_number": "134497"
    },
    "from_cdli_search_view": {
        "archival_view": "https://cdli.ucla.edu/search/archival_view.php?ObjectID=P134497",
        "primary_publication": "TMH NF 1-2, 186",
        "author": "Pohl, Alfred",
        "publication_date": "1937",
        "secondary_publication": "",
        "collection": "Hilprecht Collection, University of Jena, Germany",
        "museum_number": "HS 1186",
        "accession_number": "",
        "provenience": "Nippur (mod. Nuffar)",
        "excavation_number": "",
        "period": "Ur III (ca. 2100-2000 BC)",
        "dates_referenced": "Amar-Suen.08.08.09",
        "object_type": "tablet",
        "remarks": "",
        "material": "clay",
        "language": "Sumerian",
        "genre": "Administrative",
        "sub_genre": "",
        "cdli_comments": "",
        "catalogue_source": "20011220 ur3_catalogue",
        "atf_source": "cdlistaff",
        "translation": "no translation",
        "ucla_library_ark": "21198/zz001xf1s3",
        "composite_number": "",
        "seal_number": "",
        "cdli_number": "P134497"
    },
    "from_cdli_archival_view": {
        "primary_publication": "TMH NF 1-2, 186",
        "author": "Pohl, Alfred",
        "publication_date": "1937",
        "secondary_publications": "",
        "citation": "",
        "author_remarks": "",
        "published_collation": "OrAnt 15, 321",
        "cdli_number": "P134497",
        "ucla_library_ark": "21198/zz001xf1s3",
        "cdli_comments": "",
        "catalogue": "20011220 ur3_catalogue",
        "transliteration_remarks": "cdlistaff",
        "translation_remarks": "no translation",
        "owner": "Hilprecht Collection, University of Jena, Germany",
        "museum_number": "HS 1186",
        "accession_number": "",
        "acquisition_history": "",
        "genre": "Administrative",
        "sub_genre": "",
        "sub_genre_remarks": "",
        "composite_number": "",
        "language": "Sumerian",
        "material": "clay",
        "object_remarks": "",
        "measurements_in_mm": "? x ? x ?",
        "object_preservation": "",
        "surface_preservation": "",
        "condition_description": "",
        "join_information": "",
        "seal_number": "",
        "seal_information": "",
        "provenience": "Nippur (mod. Nuffar)",
        "excavation_number": "",
        "findspot_square": "",
        "elevation": "",
        "stratigraphic_level": "",
        "findspot_remarks": "",
        "period": "Ur III (ca. 2100-2000 BC)",
        "period_remarks": "",
        "date_of_origin": "Amar-Suen.08.08.09",
        "dates_referenced": "Amar-Suen.08.08.09",
        "alternative_years": "",
        "accounting_period": "",
        "textual_content": "@Tablet\n@obverse \n1. 2(u) ma-na siki \n2. nin9-kal-la \n3. 4(u) 3(disz) 1/3(disz) ma-na siki# \n4. um-mi-t,a-bat5 \n@reverse \n1. ki lugal-ma2-gur8-re-ta \n2. szu ba-ti-esz# \n3. iti {gesz}apin-du8-a \n4. u4 9(disz) zal-la \n5. mu en eridu{ki} ba-hun ",
        "lineart_url": "https://cdli.ucla.edu/dl/tn_lineart/P134497_l.jpg",
        "photo_url": "https://cdli.ucla.edu/dl/tn_photo/P134497.jpg"
    },
    "from_gigamesh_info_program": {
        "filename": "HS_1186_GMOCF_r1.50_n4_v512",
        "model_id": "HS 1186",
        "model_material": "clay, original",
        "vertices_total": "527675",
        "vertices_nan": "0",
        "vertices_solo": "0",
        "vertices_polyline": "0",
        "vertices_border": "0",
        "vertices_nonmanifold": "0",
        "vertices_on_inverted_edge": "0",
        "vertices_part_of_zero_face": "0",
        "vertices_synthetic": "0",
        "vertices_manual": "0",
        "vertices_circle_center": "0",
        "vertices_selected": "0",
        "vertices_funcval_finite": "527675",
        "vertices_funcval_local_min": "9645",
        "vertices_funcval_local_max": "4754",
        "faces_total": "1055346",
        "faces_solo": "0",
        "faces_border": "0",
        "faces_border_dangling": "0",
        "faces_manifold": "1055346",
        "faces_nonmanifold": "0",
        "faces_sticky": "0",
        "faces_zeroarea": "0",
        "faces_inverted": "0",
        "faces_with_synth_vertices": "0",
        "boundingbox_min_x": "-13.4649",
        "boundingbox_min_y": "0",
        "boundingbox_min_z": "-6.6523",
        "boundingbox_max_x": "13.4649",
        "boundingbox_max_y": "29.0849",
        "boundingbox_max_z": "6.6523",
        "boundingbox_width": "2.7",
        "boundingbox_height": "2.9",
        "boundingbox_thick": "1.3",
        "total_area": "24.27",
        "total_volume_dx": "7271.98",
        "total_volume_dy": "7271.98",
        "total_volume_dz": "7271.98"
    }
}