{
    "from_gigamesh_info_file": {
        "filename": "HS_1595_GMOCF_r1.50_n4_v512.info.txt",
        "hs_number": "HS 1595",
        "radius_in_mm": "1.5",
        "count_of_radii": "16",
        "rastersize": "512^3",
        "input_filename": "HS_1595_GMOCF.ply",
        "output_filename": "HS_1595_GMOCF_r1.50_n4_v512",
        "radii": [
            1.0,
            0.94,
            0.88,
            0.81,
            0.75,
            0.69,
            0.62,
            0.56,
            0.5,
            0.44,
            0.38,
            0.31,
            0.25,
            0.19,
            0.12,
            0.06
        ],
        "model_id": "HS 1595",
        "material": "clay, original",
        "count_of_vertices": "4216673",
        "count_of_faces": "8433382",
        "bounding_box_in_cm": [
            6.7,
            8.8,
            3.1
        ],
        "area_in_cm2": "162.23",
        "volume_dx_in_cm3": "106.12",
        "volume_dy_in_cm3": "106.12",
        "volume_dz_in_cm3": "106.12",
        "processing_began_on": "Fri Dec  7 22:02:29 2018",
        "processing_finished_on": "Fri Dec  7 23:11:50 2018",
        "processing_wall_time_in_s": "4159"
    },
    "from_ply_filename": {
        "filename": "/export/data/vNGG/tmp/Hilprecht_Sammlung/04_MSII_filtered/HS_ALL_MSII_PLY/HS_1595_GMOCF_r1.50_n4_v512.ply",
        "hs_number": "HS 1595",
        "radius_in_mm": "1.50",
        "count_of_radii": 16,
        "rastersize": 512
    },
    "from_hilprecht3d": {
        "hs_number": "HS 1595",
        "tablet_url": "https://hilprecht.mpiwg-berlin.mpg.de/object3d/30821",
        "bibliography": "1955-56: Bernhardt + Kramer."
    },
    "from_gigamesh_info_program": {
        "filename": "HS_1595_GMOCF_r1.50_n4_v512",
        "model_id": "HS 1595",
        "model_material": "clay, original",
        "vertices_total": "4216673",
        "vertices_nan": "0",
        "vertices_solo": "0",
        "vertices_polyline": "0",
        "vertices_border": "0",
        "vertices_nonmanifold": "0",
        "vertices_on_inverted_edge": "0",
        "vertices_part_of_zero_face": "0",
        "vertices_synthetic": "2014",
        "vertices_manual": "0",
        "vertices_circle_center": "0",
        "vertices_selected": "0",
        "vertices_funcval_finite": "4216673",
        "vertices_funcval_local_min": "80557",
        "vertices_funcval_local_max": "38714",
        "faces_total": "8433382",
        "faces_solo": "0",
        "faces_border": "0",
        "faces_border_dangling": "0",
        "faces_manifold": "8433382",
        "faces_nonmanifold": "0",
        "faces_sticky": "0",
        "faces_zeroarea": "0",
        "faces_inverted": "0",
        "faces_with_synth_vertices": "3301",
        "boundingbox_min_x": "-33.6902",
        "boundingbox_min_y": "0",
        "boundingbox_min_z": "-15.6554",
        "boundingbox_max_x": "33.6902",
        "boundingbox_max_y": "88.4753",
        "boundingbox_max_z": "15.6554",
        "boundingbox_width": "6.7",
        "boundingbox_height": "8.8",
        "boundingbox_thick": "3.1",
        "total_area": "162.23",
        "total_volume_dx": "106116",
        "total_volume_dy": "106116",
        "total_volume_dz": "106116"
    }
}