{
    "from_gigamesh_info_file": {
        "filename": "HS_1198b_2_GMOCF_r1.50_n4_v512.info.txt",
        "hs_number": "HS 1198b_2",
        "radius_in_mm": "1.5",
        "count_of_radii": "16",
        "rastersize": "512^3",
        "gigamesh_version": "181005",
        "threads_used": "7",
        "input_filename": "HS_1198b_2_GMOCF.ply",
        "output_filename": "HS_1198b_2_GMOCF_r1.50_n4_v512",
        "radii": [
            1.0,
            0.94,
            0.88,
            0.81,
            0.75,
            0.69,
            0.62,
            0.56,
            0.5,
            0.44,
            0.38,
            0.31,
            0.25,
            0.19,
            0.12,
            0.06
        ],
        "model_id": "HS 1198b 2",
        "material": "clay, original",
        "count_of_vertices": "1172189",
        "count_of_faces": "2344374",
        "bounding_box_in_cm": [
            3.8,
            4.4,
            1.8
        ],
        "area_in_cm2": "55.72",
        "volume_dx_in_cm3": "12.25",
        "volume_dy_in_cm3": "12.25",
        "volume_dz_in_cm3": "12.25",
        "processing_began_on": "Fri Dec  7 14:36:15 2018",
        "processing_finished_on": "Fri Dec  7 17:16:19 2018",
        "processing_wall_time_in_s": "9604"
    },
    "from_ply_filename": {
        "filename": "/export/data/vNGG/tmp/Hilprecht_Sammlung/04_MSII_filtered/HS_ALL_MSII_PLY/HS_1198b_2_GMOCF_r1.50_n4_v512.ply",
        "hs_number": "HS 1198b_2",
        "radius_in_mm": "1.50",
        "count_of_radii": 16,
        "rastersize": 512
    },
    "from_hilprecht3d": {
        "hs_number": "HS 1198b_2",
        "tablet_url": "https://hilprecht.mpiwg-berlin.mpg.de/object3d/30454",
        "bibliography": ""
    },
    "from_gigamesh_info_program": {
        "filename": "HS_1198b_2_GMOCF_r1.50_n4_v512",
        "model_id": "HS 1198b 2",
        "model_material": "clay, original",
        "vertices_total": "1172189",
        "vertices_nan": "0",
        "vertices_solo": "0",
        "vertices_polyline": "0",
        "vertices_border": "0",
        "vertices_nonmanifold": "0",
        "vertices_on_inverted_edge": "0",
        "vertices_part_of_zero_face": "0",
        "vertices_synthetic": "1",
        "vertices_manual": "0",
        "vertices_circle_center": "0",
        "vertices_selected": "1",
        "vertices_funcval_finite": "1172189",
        "vertices_funcval_local_min": "25351",
        "vertices_funcval_local_max": "12573",
        "faces_total": "2344374",
        "faces_solo": "0",
        "faces_border": "0",
        "faces_border_dangling": "0",
        "faces_manifold": "2344374",
        "faces_nonmanifold": "0",
        "faces_sticky": "0",
        "faces_zeroarea": "0",
        "faces_inverted": "0",
        "faces_with_synth_vertices": "0",
        "boundingbox_min_x": "-19.2327",
        "boundingbox_min_y": "0",
        "boundingbox_min_z": "-8.9071",
        "boundingbox_max_x": "19.2327",
        "boundingbox_max_y": "44.1888",
        "boundingbox_max_z": "8.9071",
        "boundingbox_width": "3.8",
        "boundingbox_height": "4.4",
        "boundingbox_thick": "1.8",
        "total_area": "55.72",
        "total_volume_dx": "12249.1",
        "total_volume_dy": "12249.1",
        "total_volume_dz": "12249.1"
    }
}