{
    "from_gigamesh_info_file": {
        "filename": "HS_1881_GMOCF_r1.50_n4_v512.info.txt",
        "hs_number": "HS 1881",
        "radius_in_mm": "1.5",
        "count_of_radii": "16",
        "rastersize": "512^3",
        "input_filename": "HS_1881_GMOCF.ply",
        "output_filename": "HS_1881_GMOCF_r1.50_n4_v512",
        "radii": [
            1.0,
            0.94,
            0.88,
            0.81,
            0.75,
            0.69,
            0.62,
            0.56,
            0.5,
            0.44,
            0.38,
            0.31,
            0.25,
            0.19,
            0.12,
            0.06
        ],
        "model_id": "HS 1881",
        "material": "clay, original",
        "count_of_vertices": "934599",
        "count_of_faces": "1869194",
        "bounding_box_in_cm": [
            2.8,
            5.5,
            1.7
        ],
        "area_in_cm2": "41.32",
        "volume_dx_in_cm3": "13.67",
        "volume_dy_in_cm3": "13.67",
        "volume_dz_in_cm3": "13.67",
        "processing_began_on": "Fri Dec  7 17:49:30 2018",
        "processing_finished_on": "Fri Dec  7 17:58:40 2018",
        "processing_wall_time_in_s": "549"
    },
    "from_ply_filename": {
        "filename": "/export/data/vNGG/tmp/Hilprecht_Sammlung/04_MSII_filtered/HS_ALL_MSII_PLY/HS_1881_GMOCF_r1.50_n4_v512.ply",
        "hs_number": "HS 1881",
        "radius_in_mm": "1.50",
        "count_of_radii": 16,
        "rastersize": 512
    },
    "from_hilprecht3d": {
        "hs_number": "HS 1881",
        "tablet_url": "https://hilprecht.mpiwg-berlin.mpg.de/object3d/31050",
        "bibliography": ""
    },
    "from_gigamesh_info_program": {
        "filename": "HS_1881_GMOCF_r1.50_n4_v512",
        "model_id": "HS 1881",
        "model_material": "clay, original",
        "vertices_total": "934599",
        "vertices_nan": "0",
        "vertices_solo": "0",
        "vertices_polyline": "0",
        "vertices_border": "0",
        "vertices_nonmanifold": "0",
        "vertices_on_inverted_edge": "0",
        "vertices_part_of_zero_face": "0",
        "vertices_synthetic": "0",
        "vertices_manual": "0",
        "vertices_circle_center": "0",
        "vertices_selected": "0",
        "vertices_funcval_finite": "934599",
        "vertices_funcval_local_min": "20828",
        "vertices_funcval_local_max": "10555",
        "faces_total": "1869194",
        "faces_solo": "0",
        "faces_border": "0",
        "faces_border_dangling": "0",
        "faces_manifold": "1869194",
        "faces_nonmanifold": "0",
        "faces_sticky": "0",
        "faces_zeroarea": "0",
        "faces_inverted": "0",
        "faces_with_synth_vertices": "0",
        "boundingbox_min_x": "-14.2009",
        "boundingbox_min_y": "0",
        "boundingbox_min_z": "-8.3712",
        "boundingbox_max_x": "14.2009",
        "boundingbox_max_y": "55.0001",
        "boundingbox_max_z": "8.3712",
        "boundingbox_width": "2.8",
        "boundingbox_height": "5.5",
        "boundingbox_thick": "1.7",
        "total_area": "41.32",
        "total_volume_dx": "13674.8",
        "total_volume_dy": "13674.8",
        "total_volume_dz": "13674.8"
    }
}