{
    "from_gigamesh_info_file": {
        "filename": "HS_1211_GMOCF_r1.50_n4_v512.info.txt",
        "hs_number": "HS 1211",
        "radius_in_mm": "1.5",
        "count_of_radii": "16",
        "rastersize": "512^3",
        "gigamesh_version": "181204",
        "threads_used": "11",
        "input_filename": "HS_1211_GMOCF.ply",
        "output_filename": "HS_1211_GMOCF_r1.50_n4_v512",
        "radii": [
            1.0,
            0.94,
            0.88,
            0.81,
            0.75,
            0.69,
            0.62,
            0.56,
            0.5,
            0.44,
            0.38,
            0.31,
            0.25,
            0.19,
            0.12,
            0.06
        ],
        "model_id": "HS 1211",
        "material": "clay, original",
        "count_of_vertices": "525925",
        "count_of_faces": "1051846",
        "bounding_box_in_cm": [
            2.7,
            2.9,
            1.7
        ],
        "area_in_cm2": "27.31",
        "volume_dx_in_cm3": "9.18",
        "volume_dy_in_cm3": "9.18",
        "volume_dz_in_cm3": "9.18",
        "processing_began_on": "Tue Dec  4 22:55:46 2018",
        "processing_finished_on": "Tue Dec  4 23:17:44 2018",
        "processing_wall_time_in_s": "1318"
    },
    "from_ply_filename": {
        "filename": "/export/data/vNGG/tmp/Hilprecht_Sammlung/04_MSII_filtered/HS_ALL_MSII_PLY/HS_1211_GMOCF_r1.50_n4_v512.ply",
        "hs_number": "HS 1211",
        "radius_in_mm": "1.50",
        "count_of_radii": 16,
        "rastersize": 512
    },
    "from_hilprecht3d": {
        "hs_number": "HS 1211",
        "tablet_url": "https://hilprecht.mpiwg-berlin.mpg.de/object3d/30467",
        "bibliography": "1937: TMH NF 1-2, 211",
        "cdli_number": "134522"
    },
    "from_cdli_search_view": {
        "archival_view": "https://cdli.ucla.edu/search/archival_view.php?ObjectID=P134522",
        "primary_publication": "TMH NF 1-2, 211",
        "author": "Pohl, Alfred",
        "publication_date": "1937",
        "secondary_publication": "",
        "collection": "Hilprecht Collection, University of Jena, Germany",
        "museum_number": "HS 1211",
        "accession_number": "",
        "provenience": "Nippur (mod. Nuffar)",
        "excavation_number": "",
        "period": "Ur III (ca. 2100-2000 BC)",
        "dates_referenced": "\u0160\u016b-Suen.01.11.16",
        "object_type": "tablet",
        "remarks": "",
        "material": "clay",
        "language": "Sumerian",
        "genre": "Administrative",
        "sub_genre": "",
        "cdli_comments": "",
        "catalogue_source": "20011220 ur3_catalogue",
        "atf_source": "cdlistaff",
        "translation": "no translation",
        "ucla_library_ark": "21198/zz001xv4wg",
        "composite_number": "",
        "seal_number": "",
        "cdli_number": "P134522"
    },
    "from_cdli_archival_view": {
        "primary_publication": "TMH NF 1-2, 211",
        "author": "Pohl, Alfred",
        "publication_date": "1937",
        "secondary_publications": "",
        "citation": "",
        "author_remarks": "",
        "published_collation": "OrAnt 15, 321",
        "cdli_number": "P134522",
        "ucla_library_ark": "21198/zz001xv4wg",
        "cdli_comments": "",
        "catalogue": "20011220 ur3_catalogue",
        "transliteration_remarks": "cdlistaff",
        "translation_remarks": "no translation",
        "owner": "Hilprecht Collection, University of Jena, Germany",
        "museum_number": "HS 1211",
        "accession_number": "",
        "acquisition_history": "",
        "genre": "Administrative",
        "sub_genre": "",
        "sub_genre_remarks": "",
        "composite_number": "",
        "language": "Sumerian",
        "material": "clay",
        "object_remarks": "",
        "measurements_in_mm": "? x ? x ?",
        "object_preservation": "",
        "surface_preservation": "",
        "condition_description": "",
        "join_information": "",
        "seal_number": "",
        "seal_information": "",
        "provenience": "Nippur (mod. Nuffar)",
        "excavation_number": "",
        "findspot_square": "",
        "elevation": "",
        "stratigraphic_level": "",
        "findspot_remarks": "",
        "period": "Ur III (ca. 2100-2000 BC)",
        "period_remarks": "",
        "date_of_origin": "\u0160\u016b-Suen.01.11.16",
        "dates_referenced": "\u0160\u016b-Suen.01.11.16",
        "alternative_years": "",
        "accounting_period": "",
        "textual_content": "@Tablet\n@obverse \n1. 2(asz) gu2 siki \n2. siki geme2 hul2?-ma-ka \n3. ki lugal-zi-mu-ta \n4. lugal-ma2-gur8-re \n@reverse \n1. szu ba-ti \n2. iti udru{duru5} \n3. u4 1(u) 6(disz) ba-zal \n4. mu {d}szu-{d}suen lugal ",
        "lineart_url": "https://cdli.ucla.edu/dl/tn_lineart/P134522_l.jpg",
        "photo_url": "https://cdli.ucla.edu/dl/tn_photo/P134522.jpg"
    },
    "from_gigamesh_info_program": {
        "filename": "HS_1211_GMOCF_r1.50_n4_v512",
        "model_id": "HS 1211",
        "model_material": "clay, original",
        "vertices_total": "525925",
        "vertices_nan": "0",
        "vertices_solo": "0",
        "vertices_polyline": "0",
        "vertices_border": "0",
        "vertices_nonmanifold": "0",
        "vertices_on_inverted_edge": "0",
        "vertices_part_of_zero_face": "0",
        "vertices_synthetic": "0",
        "vertices_manual": "0",
        "vertices_circle_center": "0",
        "vertices_selected": "0",
        "vertices_funcval_finite": "525925",
        "vertices_funcval_local_min": "10329",
        "vertices_funcval_local_max": "4934",
        "faces_total": "1051846",
        "faces_solo": "0",
        "faces_border": "0",
        "faces_border_dangling": "0",
        "faces_manifold": "1051846",
        "faces_nonmanifold": "0",
        "faces_sticky": "0",
        "faces_zeroarea": "0",
        "faces_inverted": "0",
        "faces_with_synth_vertices": "0",
        "boundingbox_min_x": "-13.5601",
        "boundingbox_min_y": "0",
        "boundingbox_min_z": "-8.5365",
        "boundingbox_max_x": "13.5601",
        "boundingbox_max_y": "29.4153",
        "boundingbox_max_z": "8.5365",
        "boundingbox_width": "2.7",
        "boundingbox_height": "2.9",
        "boundingbox_thick": "1.7",
        "total_area": "27.31",
        "total_volume_dx": "9177.64",
        "total_volume_dy": "9177.64",
        "total_volume_dz": "9177.64"
    }
}