{
    "from_gigamesh_info_file": {
        "filename": "HS_195_GMOCF_r1.50_n4_v512.info.txt",
        "hs_number": "HS 195",
        "radius_in_mm": "1.5",
        "count_of_radii": "16",
        "rastersize": "512^3",
        "input_filename": "HS_195_GMOCF.ply",
        "output_filename": "HS_195_GMOCF_r1.50_n4_v512",
        "radii": [
            1.0,
            0.94,
            0.88,
            0.81,
            0.75,
            0.69,
            0.62,
            0.56,
            0.5,
            0.44,
            0.38,
            0.31,
            0.25,
            0.19,
            0.12,
            0.06
        ],
        "model_id": "HS 195",
        "material": "clay, original",
        "count_of_vertices": "2703056",
        "count_of_faces": "5406108",
        "bounding_box_in_cm": [
            4.9,
            9.1,
            2.5
        ],
        "area_in_cm2": "117.16",
        "volume_dx_in_cm3": "62.70",
        "volume_dy_in_cm3": "62.70",
        "volume_dz_in_cm3": "62.70",
        "processing_began_on": "Fri Dec  7 05:40:58 2018",
        "processing_finished_on": "Fri Dec  7 06:52:22 2018",
        "processing_wall_time_in_s": "4282"
    },
    "from_ply_filename": {
        "filename": "/export/data/vNGG/tmp/Hilprecht_Sammlung/04_MSII_filtered/HS_ALL_MSII_PLY/HS_195_GMOCF_r1.50_n4_v512.ply",
        "hs_number": "HS 195",
        "radius_in_mm": "1.50",
        "count_of_radii": 16,
        "rastersize": 512
    },
    "from_hilprecht3d": {
        "hs_number": "HS 0195",
        "tablet_url": "https://hilprecht.mpiwg-berlin.mpg.de/object3d/31103",
        "bibliography": "1993: RIME2.1.5.4.; Oelsner Fs. Sj\u00f6berg (1989) 404ff. = WZJ 18/5 51ff. Nr. 12"
    },
    "from_cdli_search_view": {
        "archival_view": "https://cdli.ucla.edu/search/archival_view.php?ObjectID=P227530",
        "primary_publication": "RIME 2.01.05.04, ex. 01",
        "author": "Frayne, Douglas R.",
        "publication_date": "1993",
        "secondary_publication": "",
        "collection": "Hilprecht Collection, University of Jena, Germany",
        "museum_number": "HS 0195",
        "accession_number": "",
        "provenience": "Nippur (mod. Nuffar) ?",
        "excavation_number": "",
        "period": "Old Akkadian (ca. 2340-2200 BC)",
        "dates_referenced": "Shar-kali-sharri.00.00.00",
        "object_type": "tablet",
        "remarks": "",
        "material": "clay",
        "language": "",
        "genre": "Royal/Monumental",
        "sub_genre": "witness",
        "cdli_comments": "",
        "catalogue_source": "20030812 johnsonjc",
        "atf_source": "Foxvog, Daniel A.",
        "translation": "no translation",
        "ucla_library_ark": "21198/zz001r5tz4",
        "composite_number": "<a target=\"_blank\" href = \"search_results.php?CompositeNumber=Q001431\">Q001431</a> ",
        "seal_number": "",
        "cdli_number": "P227530"
    },
    "from_cdli_archival_view": {
        "primary_publication": "RIME 2.01.05.04, ex. 01",
        "author": "Frayne, Douglas R.",
        "publication_date": "1993",
        "secondary_publications": "",
        "citation": "",
        "author_remarks": "",
        "published_collation": "",
        "cdli_number": "P227530",
        "ucla_library_ark": "21198/zz001r5tz4",
        "cdli_comments": "",
        "catalogue": "20030812 johnsonjc",
        "transliteration_remarks": "Foxvog, Daniel A.",
        "translation_remarks": "no translation",
        "owner": "Hilprecht Collection, University of Jena, Germany",
        "museum_number": "HS 0195",
        "accession_number": "",
        "acquisition_history": "",
        "genre": "Royal/Monumental",
        "sub_genre": "witness",
        "sub_genre_remarks": "",
        "composite_number": "Q001431",
        "language": "",
        "material": "clay",
        "object_remarks": "",
        "measurements_in_mm": "? x ? x ?",
        "object_preservation": "",
        "surface_preservation": "",
        "condition_description": "",
        "join_information": "",
        "seal_number": "",
        "seal_information": "",
        "provenience": "Nippur (mod. Nuffar) ?",
        "excavation_number": "",
        "findspot_square": "",
        "elevation": "",
        "stratigraphic_level": "",
        "findspot_remarks": "",
        "period": "Old Akkadian (ca. 2340-2200 BC)",
        "period_remarks": "",
        "date_of_origin": "Shar-kali-sharri.00.00.00",
        "dates_referenced": "Shar-kali-sharri.00.00.00",
        "alternative_years": "",
        "accounting_period": "",
        "textual_content": "@Tablet\n$ (vertical dividing line between Sumerian and Akkadian)\n@obverse\n1. {d}en-lil2-le %a [{d}en-lil2]\n2. bi2-du11 %a [u-kal2-lim]\n$ single ruling\n3. {d}szar-ka3-li2-szar3-ri2 %a {d}[szar-ka3-li2-szar3-ri2]\n4. lugal %a da#!-[num2]\n5. kal-ga %a [...]\n6. sagi %a [_sagi_]\n7. {d}en-lil2-la2 %a [{d}en-lil2]\n8. lugal %a [_lugal_]\n9. a-ga-de3{ki} %a a-ka3-[de3{ki}]\n10. lugal %a u3\n11. ug3! %a [bu3-u2-la-ti]\n12. {d}en-lil2-la2\n13. igi en-na %a [...]\n14. x nigin2-ta %a [...]\n$ single ruling\n15. nigin2#-ta %a x [...]\n16. in-na-an-szum2 %a i#-[di3-sum6]\n$ single ruling\n17. u4 nag-bu %a [i3-nu na-gab2]\n18. i7 %a [_idigna_]\n19. idigna %a [_i7_]\n20. i7 %a [_buranun_]\n21. buranun-na-bi-da %a [_i7_]\n22. sa2-du11-ga %a [ik-su-du2]\n23. a-ne2 {d}en-lil2-ra %a a-[na {d}en-lil2]\n24. nibru{ki} %a in [nibru{ki}]\n25. a mu-ru %a _a mu#-[ru]_\n$ single ruling\n@colophon 1\n1. 6(asz)-am3 szid-bi\n@colophon 2\n1. mu-sar-ra\n2. %a sza {d}[szar-ka3-li2-szar3-ri2]"
    },
    "from_gigamesh_info_program": {
        "filename": "HS_195_GMOCF_r1.50_n4_v512",
        "model_id": "HS 195",
        "model_material": "clay, original",
        "vertices_total": "2703056",
        "vertices_nan": "0",
        "vertices_solo": "0",
        "vertices_polyline": "0",
        "vertices_border": "0",
        "vertices_nonmanifold": "0",
        "vertices_on_inverted_edge": "0",
        "vertices_part_of_zero_face": "0",
        "vertices_synthetic": "0",
        "vertices_manual": "0",
        "vertices_circle_center": "0",
        "vertices_selected": "0",
        "vertices_funcval_finite": "2703056",
        "vertices_funcval_local_min": "61926",
        "vertices_funcval_local_max": "34128",
        "faces_total": "5406108",
        "faces_solo": "0",
        "faces_border": "0",
        "faces_border_dangling": "0",
        "faces_manifold": "5406108",
        "faces_nonmanifold": "0",
        "faces_sticky": "0",
        "faces_zeroarea": "0",
        "faces_inverted": "0",
        "faces_with_synth_vertices": "0",
        "boundingbox_min_x": "-24.6373",
        "boundingbox_min_y": "0",
        "boundingbox_min_z": "-12.7095",
        "boundingbox_max_x": "24.6373",
        "boundingbox_max_y": "91.3181",
        "boundingbox_max_z": "12.7095",
        "boundingbox_width": "4.9",
        "boundingbox_height": "9.1",
        "boundingbox_thick": "2.5",
        "total_area": "117.16",
        "total_volume_dx": "62704.8",
        "total_volume_dy": "62704.8",
        "total_volume_dz": "62704.8"
    }
}