{
    "from_gigamesh_info_file": {
        "filename": "HS_1915_GMOCF_r1.50_n4_v512.info.txt",
        "hs_number": "HS 1915",
        "radius_in_mm": "1.5",
        "count_of_radii": "16",
        "rastersize": "512^3",
        "input_filename": "HS_1915_GMOCF.ply",
        "output_filename": "HS_1915_GMOCF_r1.50_n4_v512",
        "radii": [
            1.0,
            0.94,
            0.88,
            0.81,
            0.75,
            0.69,
            0.62,
            0.56,
            0.5,
            0.44,
            0.38,
            0.31,
            0.25,
            0.19,
            0.12,
            0.06
        ],
        "model_id": "HS 1915",
        "material": "clay, original",
        "count_of_vertices": "2010975",
        "count_of_faces": "4021946",
        "bounding_box_in_cm": [
            4.4,
            5.5,
            3.1
        ],
        "area_in_cm2": "83.17",
        "volume_dx_in_cm3": "34.45",
        "volume_dy_in_cm3": "34.45",
        "volume_dz_in_cm3": "34.45",
        "processing_began_on": "Sat Dec  8 03:45:58 2018",
        "processing_finished_on": "Sat Dec  8 04:19:00 2018",
        "processing_wall_time_in_s": "1979"
    },
    "from_ply_filename": {
        "filename": "/export/data/vNGG/tmp/Hilprecht_Sammlung/04_MSII_filtered/HS_ALL_MSII_PLY/HS_1915_GMOCF_r1.50_n4_v512.ply",
        "hs_number": "HS 1915",
        "radius_in_mm": "1.50",
        "count_of_radii": 16,
        "rastersize": 512
    },
    "from_hilprecht3d": {
        "hs_number": "HS 1915",
        "tablet_url": "https://hilprecht.mpiwg-berlin.mpg.de/object3d/31083",
        "bibliography": ""
    },
    "from_gigamesh_info_program": {
        "filename": "HS_1915_GMOCF_r1.50_n4_v512",
        "model_id": "HS 1915",
        "model_material": "clay, original",
        "vertices_total": "2010975",
        "vertices_nan": "0",
        "vertices_solo": "0",
        "vertices_polyline": "0",
        "vertices_border": "0",
        "vertices_nonmanifold": "0",
        "vertices_on_inverted_edge": "0",
        "vertices_part_of_zero_face": "0",
        "vertices_synthetic": "618",
        "vertices_manual": "0",
        "vertices_circle_center": "0",
        "vertices_selected": "0",
        "vertices_funcval_finite": "2010975",
        "vertices_funcval_local_min": "41517",
        "vertices_funcval_local_max": "18586",
        "faces_total": "4021946",
        "faces_solo": "0",
        "faces_border": "0",
        "faces_border_dangling": "0",
        "faces_manifold": "4021946",
        "faces_nonmanifold": "0",
        "faces_sticky": "0",
        "faces_zeroarea": "0",
        "faces_inverted": "0",
        "faces_with_synth_vertices": "967",
        "boundingbox_min_x": "-21.8167",
        "boundingbox_min_y": "0",
        "boundingbox_min_z": "-15.5498",
        "boundingbox_max_x": "21.8167",
        "boundingbox_max_y": "54.7074",
        "boundingbox_max_z": "15.5498",
        "boundingbox_width": "4.4",
        "boundingbox_height": "5.5",
        "boundingbox_thick": "3.1",
        "total_area": "83.17",
        "total_volume_dx": "34446.4",
        "total_volume_dy": "34446.4",
        "total_volume_dz": "34446.4"
    }
}