{
    "from_gigamesh_info_file": {
        "filename": "HS_1747_GMOCF_r1.50_n4_v512.info.txt",
        "hs_number": "HS 1747",
        "radius_in_mm": "1.5",
        "count_of_radii": "16",
        "rastersize": "512^3",
        "input_filename": "HS_1747_GMOCF.ply",
        "output_filename": "HS_1747_GMOCF_r1.50_n4_v512",
        "radii": [
            1.0,
            0.94,
            0.88,
            0.81,
            0.75,
            0.69,
            0.62,
            0.56,
            0.5,
            0.44,
            0.38,
            0.31,
            0.25,
            0.19,
            0.12,
            0.06
        ],
        "model_id": "HS 1747",
        "material": "clay, original",
        "count_of_vertices": "2439557",
        "count_of_faces": "4879162",
        "bounding_box_in_cm": [
            6.0,
            5.6,
            3.2
        ],
        "area_in_cm2": "101.78",
        "volume_dx_in_cm3": "53.52",
        "volume_dy_in_cm3": "53.52",
        "volume_dz_in_cm3": "53.52",
        "processing_began_on": "Thu Dec  6 13:23:51 2018",
        "processing_finished_on": "Thu Dec  6 13:49:03 2018",
        "processing_wall_time_in_s": "1512"
    },
    "from_ply_filename": {
        "filename": "/export/data/vNGG/tmp/Hilprecht_Sammlung/04_MSII_filtered/HS_ALL_MSII_PLY/HS_1747_GMOCF_r1.50_n4_v512.ply",
        "hs_number": "HS 1747",
        "radius_in_mm": "1.50",
        "count_of_radii": 16,
        "rastersize": 512
    },
    "from_hilprecht3d": {
        "hs_number": "HS 1747",
        "tablet_url": "https://hilprecht.mpiwg-berlin.mpg.de/object3d/30947",
        "bibliography": ""
    },
    "from_cdli_search_view": {
        "archival_view": "https://cdli.ucla.edu/search/archival_view.php?ObjectID=P229929",
        "primary_publication": "unpublished unassigned ?",
        "author": "nn",
        "publication_date": "nd",
        "secondary_publication": "",
        "collection": "Hilprecht Collection, University of Jena, Germany",
        "museum_number": "HS 1747",
        "accession_number": "",
        "provenience": "Nippur (mod. Nuffar) ?",
        "excavation_number": "",
        "period": "",
        "dates_referenced": "",
        "object_type": "tablet",
        "remarks": "",
        "material": "clay",
        "language": "Sumerian",
        "genre": "Lexical",
        "sub_genre": "Obv: Syllabary B; Rev: list of PN's (unidentified/general)",
        "cdli_comments": "",
        "catalogue_source": "20030911 veldhuis_nippurlexical",
        "atf_source": "no atf",
        "translation": "no translation",
        "ucla_library_ark": "21198/zz001rf4rz",
        "composite_number": "",
        "seal_number": "",
        "cdli_number": "P229929"
    },
    "from_cdli_archival_view": {
        "primary_publication": "unpublished unassigned ?",
        "author": "nn",
        "publication_date": "nd",
        "secondary_publications": "",
        "citation": "",
        "author_remarks": "",
        "published_collation": "",
        "cdli_number": "P229929",
        "ucla_library_ark": "21198/zz001rf4rz",
        "cdli_comments": "",
        "catalogue": "20030911 veldhuis_nippurlexical",
        "transliteration_remarks": "no atf",
        "translation_remarks": "no translation",
        "owner": "Hilprecht Collection, University of Jena, Germany",
        "museum_number": "HS 1747",
        "accession_number": "",
        "acquisition_history": "",
        "genre": "Lexical",
        "sub_genre": "Obv: Syllabary B; Rev: list of PN's (unidentified/general)",
        "sub_genre_remarks": "Obv. Syll. B 104ff, rev. PN.",
        "composite_number": "",
        "language": "Sumerian",
        "material": "clay",
        "object_remarks": "",
        "measurements_in_mm": "? x ? x ?",
        "object_preservation": "",
        "surface_preservation": "",
        "condition_description": "",
        "join_information": "",
        "seal_number": "",
        "seal_information": "",
        "provenience": "Nippur (mod. Nuffar) ?",
        "excavation_number": "",
        "findspot_square": "",
        "elevation": "",
        "stratigraphic_level": "",
        "findspot_remarks": "",
        "period": "",
        "period_remarks": "",
        "date_of_origin": "",
        "dates_referenced": "",
        "alternative_years": "",
        "accounting_period": "",
        "textual_content": "@Tablet"
    },
    "from_gigamesh_info_program": {
        "filename": "HS_1747_GMOCF_r1.50_n4_v512",
        "model_id": "HS 1747",
        "model_material": "clay, original",
        "vertices_total": "2439557",
        "vertices_nan": "0",
        "vertices_solo": "0",
        "vertices_polyline": "0",
        "vertices_border": "0",
        "vertices_nonmanifold": "0",
        "vertices_on_inverted_edge": "0",
        "vertices_part_of_zero_face": "0",
        "vertices_synthetic": "24763",
        "vertices_manual": "0",
        "vertices_circle_center": "0",
        "vertices_selected": "0",
        "vertices_funcval_finite": "2439557",
        "vertices_funcval_local_min": "54217",
        "vertices_funcval_local_max": "28484",
        "faces_total": "4879162",
        "faces_solo": "0",
        "faces_border": "0",
        "faces_border_dangling": "0",
        "faces_manifold": "4879162",
        "faces_nonmanifold": "0",
        "faces_sticky": "0",
        "faces_zeroarea": "0",
        "faces_inverted": "0",
        "faces_with_synth_vertices": "45579",
        "boundingbox_min_x": "-29.8425",
        "boundingbox_min_y": "0",
        "boundingbox_min_z": "-16.0787",
        "boundingbox_max_x": "29.8425",
        "boundingbox_max_y": "55.8087",
        "boundingbox_max_z": "16.0787",
        "boundingbox_width": "6",
        "boundingbox_height": "5.6",
        "boundingbox_thick": "3.2",
        "total_area": "101.78",
        "total_volume_dx": "53519",
        "total_volume_dy": "53519",
        "total_volume_dz": "53519"
    }
}