{
    "from_gigamesh_info_file": {
        "filename": "HS_1884_GMOCF_r1.50_n4_v512.info.txt",
        "hs_number": "HS 1884",
        "radius_in_mm": "1.5",
        "count_of_radii": "16",
        "rastersize": "512^3",
        "input_filename": "HS_1884_GMOCF.ply",
        "output_filename": "HS_1884_GMOCF_r1.50_n4_v512",
        "radii": [
            1.0,
            0.94,
            0.88,
            0.81,
            0.75,
            0.69,
            0.62,
            0.56,
            0.5,
            0.44,
            0.38,
            0.31,
            0.25,
            0.19,
            0.12,
            0.06
        ],
        "model_id": "HS 1884",
        "material": "clay, original",
        "count_of_vertices": "5993031",
        "count_of_faces": "11986062",
        "bounding_box_in_cm": [
            8.9,
            12.9,
            3.8
        ],
        "area_in_cm2": "265.05",
        "volume_dx_in_cm3": "181.59",
        "volume_dy_in_cm3": "181.59",
        "volume_dz_in_cm3": "181.59",
        "processing_began_on": "Sun Dec  9 21:16:54 2018",
        "processing_finished_on": "Sun Dec  9 22:46:50 2018",
        "processing_wall_time_in_s": "5392"
    },
    "from_ply_filename": {
        "filename": "/export/data/vNGG/tmp/Hilprecht_Sammlung/04_MSII_filtered/HS_ALL_MSII_PLY/HS_1884_GMOCF_r1.50_n4_v512.ply",
        "hs_number": "HS 1884",
        "radius_in_mm": "1.50",
        "count_of_radii": 16,
        "rastersize": 512
    },
    "from_hilprecht3d": {
        "hs_number": "HS 1884",
        "tablet_url": "https://hilprecht.mpiwg-berlin.mpg.de/object3d/31052",
        "bibliography": ""
    },
    "from_cdli_search_view": {
        "archival_view": "https://cdli.ucla.edu/search/archival_view.php?ObjectID=P513534",
        "primary_publication": "AfO 50, 011-020",
        "author": "nn",
        "publication_date": "2003-2004",
        "secondary_publication": "",
        "collection": "Hilprecht Collection, University of Jena, Germany",
        "museum_number": "HS 1884",
        "accession_number": "",
        "provenience": "Nippur (mod. Nuffar) ?",
        "excavation_number": "",
        "period": "Old Babylonian (ca. 1900-1600 BC)",
        "dates_referenced": "",
        "object_type": "tablet",
        "remarks": "",
        "material": "clay",
        "language": "",
        "genre": "Prayer/Incantation",
        "sub_genre": "Mama",
        "cdli_comments": "",
        "catalogue_source": "20190315 cdliadmin_ulsh\u00f6fer",
        "atf_source": "no atf",
        "translation": "",
        "ucla_library_ark": "",
        "composite_number": "",
        "seal_number": "",
        "cdli_number": "P513534"
    },
    "from_cdli_archival_view": {
        "primary_publication": "AfO 50, 011-020",
        "author": "nn",
        "publication_date": "2003-2004",
        "secondary_publications": "",
        "citation": "",
        "author_remarks": "",
        "published_collation": "",
        "cdli_number": "P513534",
        "ucla_library_ark": "",
        "cdli_comments": "",
        "catalogue": "20190315 cdliadmin_ulsh\u00f6fer",
        "transliteration_remarks": "no atf",
        "translation_remarks": "",
        "owner": "Hilprecht Collection, University of Jena, Germany",
        "museum_number": "HS 1884",
        "accession_number": "",
        "acquisition_history": "",
        "genre": "Prayer/Incantation",
        "sub_genre": "Mama",
        "sub_genre_remarks": "",
        "composite_number": "",
        "language": "",
        "material": "clay",
        "object_remarks": "",
        "measurements_in_mm": "116 x 89 x 37",
        "object_preservation": "",
        "surface_preservation": "",
        "condition_description": "",
        "join_information": "",
        "seal_number": "",
        "seal_information": "",
        "provenience": "Nippur (mod. Nuffar) ?",
        "excavation_number": "",
        "findspot_square": "",
        "elevation": "",
        "stratigraphic_level": "",
        "findspot_remarks": "",
        "period": "Old Babylonian (ca. 1900-1600 BC)",
        "period_remarks": "",
        "date_of_origin": "",
        "dates_referenced": "",
        "alternative_years": "",
        "accounting_period": "",
        "textual_content": "@Tablet"
    },
    "from_gigamesh_info_program": {
        "filename": "HS_1884_GMOCF_r1.50_n4_v512",
        "model_id": "HS 1884",
        "model_material": "clay, original",
        "vertices_total": "5993031",
        "vertices_nan": "0",
        "vertices_solo": "0",
        "vertices_polyline": "0",
        "vertices_border": "0",
        "vertices_nonmanifold": "0",
        "vertices_on_inverted_edge": "0",
        "vertices_part_of_zero_face": "0",
        "vertices_synthetic": "468",
        "vertices_manual": "0",
        "vertices_circle_center": "0",
        "vertices_selected": "0",
        "vertices_funcval_finite": "5993031",
        "vertices_funcval_local_min": "118204",
        "vertices_funcval_local_max": "41816",
        "faces_total": "11986062",
        "faces_solo": "0",
        "faces_border": "0",
        "faces_border_dangling": "0",
        "faces_manifold": "11986062",
        "faces_nonmanifold": "0",
        "faces_sticky": "0",
        "faces_zeroarea": "0",
        "faces_inverted": "0",
        "faces_with_synth_vertices": "626",
        "boundingbox_min_x": "-44.6369",
        "boundingbox_min_y": "0",
        "boundingbox_min_z": "-19.205",
        "boundingbox_max_x": "44.6369",
        "boundingbox_max_y": "129.373",
        "boundingbox_max_z": "19.205",
        "boundingbox_width": "8.9",
        "boundingbox_height": "12.9",
        "boundingbox_thick": "3.8",
        "total_area": "265.05",
        "total_volume_dx": "181591",
        "total_volume_dy": "181591",
        "total_volume_dz": "181591"
    }
}