{
    "from_gigamesh_info_file": {
        "filename": "HS_1369_GMOCF_r1.50_n4_v512.info.txt",
        "hs_number": "HS 1369",
        "radius_in_mm": "1.5",
        "count_of_radii": "16",
        "rastersize": "512^3",
        "gigamesh_version": "181005",
        "threads_used": "7",
        "input_filename": "HS_1369_GMOCF.ply",
        "output_filename": "HS_1369_GMOCF_r1.50_n4_v512",
        "radii": [
            1.0,
            0.94,
            0.88,
            0.81,
            0.75,
            0.69,
            0.62,
            0.56,
            0.5,
            0.44,
            0.38,
            0.31,
            0.25,
            0.19,
            0.12,
            0.06
        ],
        "model_id": "HS 1369",
        "material": "clay, original",
        "count_of_vertices": "2815607",
        "count_of_faces": "5631210",
        "bounding_box_in_cm": [
            8.1,
            7.6,
            2.4
        ],
        "area_in_cm2": "128.43",
        "volume_dx_in_cm3": "64.73",
        "volume_dy_in_cm3": "64.73",
        "volume_dz_in_cm3": "64.73",
        "processing_began_on": "Wed Dec  5 07:16:12 2018",
        "processing_finished_on": "Wed Dec  5 13:41:02 2018",
        "processing_wall_time_in_s": "23090"
    },
    "from_ply_filename": {
        "filename": "/export/data/vNGG/tmp/Hilprecht_Sammlung/04_MSII_filtered/HS_ALL_MSII_PLY/HS_1369_GMOCF_r1.50_n4_v512.ply",
        "hs_number": "HS 1369",
        "radius_in_mm": "1.50",
        "count_of_radii": 16,
        "rastersize": 512
    },
    "from_hilprecht3d": {
        "hs_number": "HS 1369",
        "tablet_url": "https://hilprecht.mpiwg-berlin.mpg.de/object3d/30633",
        "bibliography": ""
    },
    "from_gigamesh_info_program": {
        "filename": "HS_1369_GMOCF_r1.50_n4_v512",
        "model_id": "HS 1369",
        "model_material": "clay, original",
        "vertices_total": "2815607",
        "vertices_nan": "0",
        "vertices_solo": "0",
        "vertices_polyline": "0",
        "vertices_border": "0",
        "vertices_nonmanifold": "0",
        "vertices_on_inverted_edge": "0",
        "vertices_part_of_zero_face": "0",
        "vertices_synthetic": "0",
        "vertices_manual": "0",
        "vertices_circle_center": "0",
        "vertices_selected": "0",
        "vertices_funcval_finite": "2815607",
        "vertices_funcval_local_min": "64058",
        "vertices_funcval_local_max": "26640",
        "faces_total": "5631210",
        "faces_solo": "0",
        "faces_border": "0",
        "faces_border_dangling": "0",
        "faces_manifold": "5631210",
        "faces_nonmanifold": "0",
        "faces_sticky": "0",
        "faces_zeroarea": "0",
        "faces_inverted": "0",
        "faces_with_synth_vertices": "0",
        "boundingbox_min_x": "-40.6726",
        "boundingbox_min_y": "0",
        "boundingbox_min_z": "-12.1679",
        "boundingbox_max_x": "40.6726",
        "boundingbox_max_y": "75.9389",
        "boundingbox_max_z": "12.1679",
        "boundingbox_width": "8.1",
        "boundingbox_height": "7.6",
        "boundingbox_thick": "2.4",
        "total_area": "128.43",
        "total_volume_dx": "64731.3",
        "total_volume_dy": "64731.3",
        "total_volume_dz": "64731.3"
    }
}