{
    "from_gigamesh_info_file": {
        "filename": "HS_1916_GMOCF_r1.50_n4_v512.info.txt",
        "hs_number": "HS 1916",
        "radius_in_mm": "1.5",
        "count_of_radii": "16",
        "rastersize": "512^3",
        "input_filename": "HS_1916_GMOCF.ply",
        "output_filename": "HS_1916_GMOCF_r1.50_n4_v512",
        "radii": [
            1.0,
            0.94,
            0.88,
            0.81,
            0.75,
            0.69,
            0.62,
            0.56,
            0.5,
            0.44,
            0.38,
            0.31,
            0.25,
            0.19,
            0.12,
            0.06
        ],
        "model_id": "HS 1916",
        "material": "clay, original",
        "count_of_vertices": "1896233",
        "count_of_faces": "3792462",
        "bounding_box_in_cm": [
            5.5,
            7.4,
            2.9
        ],
        "area_in_cm2": "98.48",
        "volume_dx_in_cm3": "48.47",
        "volume_dy_in_cm3": "48.47",
        "volume_dz_in_cm3": "48.47",
        "processing_began_on": "Thu Dec  6 00:57:02 2018",
        "processing_finished_on": "Thu Dec  6 01:16:17 2018",
        "processing_wall_time_in_s": "1154"
    },
    "from_ply_filename": {
        "filename": "/export/data/vNGG/tmp/Hilprecht_Sammlung/04_MSII_filtered/HS_ALL_MSII_PLY/HS_1916_GMOCF_r1.50_n4_v512.ply",
        "hs_number": "HS 1916",
        "radius_in_mm": "1.50",
        "count_of_radii": 16,
        "rastersize": 512
    },
    "from_hilprecht3d": {
        "hs_number": "HS 1916",
        "tablet_url": "https://hilprecht.mpiwg-berlin.mpg.de/object3d/31084",
        "bibliography": ""
    },
    "from_gigamesh_info_program": {
        "filename": "HS_1916_GMOCF_r1.50_n4_v512",
        "model_id": "HS 1916",
        "model_material": "clay, original",
        "vertices_total": "1896233",
        "vertices_nan": "0",
        "vertices_solo": "0",
        "vertices_polyline": "0",
        "vertices_border": "0",
        "vertices_nonmanifold": "0",
        "vertices_on_inverted_edge": "0",
        "vertices_part_of_zero_face": "0",
        "vertices_synthetic": "0",
        "vertices_manual": "0",
        "vertices_circle_center": "0",
        "vertices_selected": "0",
        "vertices_funcval_finite": "1896233",
        "vertices_funcval_local_min": "39249",
        "vertices_funcval_local_max": "14347",
        "faces_total": "3792462",
        "faces_solo": "0",
        "faces_border": "0",
        "faces_border_dangling": "0",
        "faces_manifold": "3792462",
        "faces_nonmanifold": "0",
        "faces_sticky": "0",
        "faces_zeroarea": "0",
        "faces_inverted": "0",
        "faces_with_synth_vertices": "0",
        "boundingbox_min_x": "-27.6638",
        "boundingbox_min_y": "0",
        "boundingbox_min_z": "-14.2996",
        "boundingbox_max_x": "27.6638",
        "boundingbox_max_y": "74.1764",
        "boundingbox_max_z": "14.2996",
        "boundingbox_width": "5.5",
        "boundingbox_height": "7.4",
        "boundingbox_thick": "2.9",
        "total_area": "98.48",
        "total_volume_dx": "48473",
        "total_volume_dy": "48473",
        "total_volume_dz": "48473"
    }
}