{
    "from_gigamesh_info_file": {
        "filename": "HS_1395_GMOCF_r1.50_n4_v512.info.txt",
        "hs_number": "HS 1395",
        "radius_in_mm": "1.5",
        "count_of_radii": "16",
        "rastersize": "512^3",
        "gigamesh_version": "181128",
        "threads_used": "11",
        "input_filename": "HS_1395_GMOCF.ply",
        "output_filename": "HS_1395_GMOCF_r1.50_n4_v512",
        "radii": [
            1.0,
            0.94,
            0.88,
            0.81,
            0.75,
            0.69,
            0.62,
            0.56,
            0.5,
            0.44,
            0.38,
            0.31,
            0.25,
            0.19,
            0.12,
            0.06
        ],
        "model_id": "HS 1395",
        "material": "clay, original",
        "count_of_vertices": "3050698",
        "count_of_faces": "6101392",
        "bounding_box_in_cm": [
            8.2,
            8.8,
            3.3
        ],
        "area_in_cm2": "154.95",
        "volume_dx_in_cm3": "119.34",
        "volume_dy_in_cm3": "119.34",
        "volume_dz_in_cm3": "119.34",
        "processing_began_on": "Tue Dec  4 18:31:24 2018",
        "processing_finished_on": "Tue Dec  4 20:38:50 2018",
        "processing_wall_time_in_s": "7646"
    },
    "from_ply_filename": {
        "filename": "/export/data/vNGG/tmp/Hilprecht_Sammlung/04_MSII_filtered/HS_ALL_MSII_PLY/HS_1395_GMOCF_r1.50_n4_v512.ply",
        "hs_number": "HS 1395",
        "radius_in_mm": "1.50",
        "count_of_radii": 16,
        "rastersize": 512
    },
    "from_hilprecht3d": {
        "hs_number": "HS 1395",
        "tablet_url": "https://hilprecht.mpiwg-berlin.mpg.de/object3d/30661",
        "bibliography": ""
    },
    "from_gigamesh_info_program": {
        "filename": "HS_1395_GMOCF_r1.50_n4_v512",
        "model_id": "HS 1395",
        "model_material": "clay, original",
        "vertices_total": "3050698",
        "vertices_nan": "0",
        "vertices_solo": "0",
        "vertices_polyline": "0",
        "vertices_border": "0",
        "vertices_nonmanifold": "0",
        "vertices_on_inverted_edge": "0",
        "vertices_part_of_zero_face": "0",
        "vertices_synthetic": "56",
        "vertices_manual": "0",
        "vertices_circle_center": "0",
        "vertices_selected": "0",
        "vertices_funcval_finite": "3050698",
        "vertices_funcval_local_min": "80307",
        "vertices_funcval_local_max": "44467",
        "faces_total": "6101392",
        "faces_solo": "0",
        "faces_border": "0",
        "faces_border_dangling": "0",
        "faces_manifold": "6101392",
        "faces_nonmanifold": "0",
        "faces_sticky": "0",
        "faces_zeroarea": "0",
        "faces_inverted": "0",
        "faces_with_synth_vertices": "54",
        "boundingbox_min_x": "-40.884",
        "boundingbox_min_y": "0",
        "boundingbox_min_z": "-16.6872",
        "boundingbox_max_x": "40.884",
        "boundingbox_max_y": "87.6704",
        "boundingbox_max_z": "16.6872",
        "boundingbox_width": "8.2",
        "boundingbox_height": "8.8",
        "boundingbox_thick": "3.3",
        "total_area": "154.95",
        "total_volume_dx": "119340",
        "total_volume_dy": "119340",
        "total_volume_dz": "119340"
    }
}