{
    "from_gigamesh_info_file": {
        "filename": "HS_1839_GMOCF_r1.50_n4_v512.info.txt",
        "hs_number": "HS 1839",
        "radius_in_mm": "1.5",
        "count_of_radii": "16",
        "rastersize": "512^3",
        "input_filename": "HS_1839_GMOCF.ply",
        "output_filename": "HS_1839_GMOCF_r1.50_n4_v512",
        "radii": [
            1.0,
            0.94,
            0.88,
            0.81,
            0.75,
            0.69,
            0.62,
            0.56,
            0.5,
            0.44,
            0.38,
            0.31,
            0.25,
            0.19,
            0.12,
            0.06
        ],
        "model_id": "HS 1839",
        "material": "clay, original",
        "count_of_vertices": "2924085",
        "count_of_faces": "5848166",
        "bounding_box_in_cm": [
            7.2,
            6.0,
            3.4
        ],
        "area_in_cm2": "123.28",
        "volume_dx_in_cm3": "81.21",
        "volume_dy_in_cm3": "81.21",
        "volume_dz_in_cm3": "81.21",
        "processing_began_on": "Sun Dec  9 05:23:30 2018",
        "processing_finished_on": "Sun Dec  9 05:52:02 2018",
        "processing_wall_time_in_s": "1712"
    },
    "from_ply_filename": {
        "filename": "/export/data/vNGG/tmp/Hilprecht_Sammlung/04_MSII_filtered/HS_ALL_MSII_PLY/HS_1839_GMOCF_r1.50_n4_v512.ply",
        "hs_number": "HS 1839",
        "radius_in_mm": "1.50",
        "count_of_radii": 16,
        "rastersize": 512
    },
    "from_hilprecht3d": {
        "hs_number": "HS 1839",
        "tablet_url": "https://hilprecht.mpiwg-berlin.mpg.de/object3d/31015",
        "bibliography": ""
    },
    "from_cdli_search_view": {
        "archival_view": "https://cdli.ucla.edu/search/archival_view.php?ObjectID=P229989",
        "primary_publication": "unpublished unassigned ?",
        "author": "nn",
        "publication_date": "nd",
        "secondary_publication": "",
        "collection": "Hilprecht Collection, University of Jena, Germany",
        "museum_number": "HS 1839",
        "accession_number": "",
        "provenience": "Nippur (mod. Nuffar) ?",
        "excavation_number": "",
        "period": "Old Babylonian (ca. 1900-1600 BC)",
        "dates_referenced": "",
        "object_type": "tablet",
        "remarks": "",
        "material": "clay",
        "language": "",
        "genre": "Lexical",
        "sub_genre": "Obv: OB Hh3  (animals, uzu: Hh 13-15); Rev: list of PN's (unidentified/general)",
        "cdli_comments": "",
        "catalogue_source": "20030911 veldhuis_nippurlexical",
        "atf_source": "dccltstaff",
        "translation": "no translation",
        "ucla_library_ark": "21198/zz001s775b",
        "composite_number": "<a target=\"_blank\" href = \"search_results.php?CompositeNumber=Q000001\">Q000001</a> (<a target=\"_blank\" href = \"http://cdli.ucla.edu/tools/scores/Q000001.html\">score</a>) ",
        "seal_number": "",
        "cdli_number": "P229989"
    },
    "from_cdli_archival_view": {
        "primary_publication": "unpublished unassigned ?",
        "author": "nn",
        "publication_date": "nd",
        "secondary_publications": "",
        "citation": "",
        "author_remarks": "",
        "published_collation": "",
        "cdli_number": "P229989",
        "ucla_library_ark": "21198/zz001s775b",
        "cdli_comments": "",
        "catalogue": "20030911 veldhuis_nippurlexical",
        "transliteration_remarks": "dccltstaff",
        "translation_remarks": "no translation",
        "owner": "Hilprecht Collection, University of Jena, Germany",
        "museum_number": "HS 1839",
        "accession_number": "",
        "acquisition_history": "",
        "genre": "Lexical",
        "sub_genre": "Obv: OB Hh3  (animals, uzu: Hh 13-15); Rev: list of PN's (unidentified/general)",
        "sub_genre_remarks": "Obv. amar-babbar to amar-gun//3-a.",
        "composite_number": "Q000001",
        "language": "",
        "material": "clay",
        "object_remarks": "",
        "measurements_in_mm": "? x ? x ?",
        "object_preservation": "",
        "surface_preservation": "",
        "condition_description": "",
        "join_information": "",
        "seal_number": "",
        "seal_information": "",
        "provenience": "Nippur (mod. Nuffar) ?",
        "excavation_number": "",
        "findspot_square": "",
        "elevation": "",
        "stratigraphic_level": "",
        "findspot_remarks": "",
        "period": "Old Babylonian (ca. 1900-1600 BC)",
        "period_remarks": "",
        "date_of_origin": "",
        "dates_referenced": "",
        "alternative_years": "",
        "accounting_period": "",
        "textual_content": "@Tablet"
    },
    "from_gigamesh_info_program": {
        "filename": "HS_1839_GMOCF_r1.50_n4_v512",
        "model_id": "HS 1839",
        "model_material": "clay, original",
        "vertices_total": "2924085",
        "vertices_nan": "0",
        "vertices_solo": "0",
        "vertices_polyline": "0",
        "vertices_border": "0",
        "vertices_nonmanifold": "0",
        "vertices_on_inverted_edge": "0",
        "vertices_part_of_zero_face": "0",
        "vertices_synthetic": "0",
        "vertices_manual": "0",
        "vertices_circle_center": "0",
        "vertices_selected": "0",
        "vertices_funcval_finite": "2924085",
        "vertices_funcval_local_min": "70932",
        "vertices_funcval_local_max": "33423",
        "faces_total": "5848166",
        "faces_solo": "0",
        "faces_border": "0",
        "faces_border_dangling": "0",
        "faces_manifold": "5848166",
        "faces_nonmanifold": "0",
        "faces_sticky": "0",
        "faces_zeroarea": "0",
        "faces_inverted": "0",
        "faces_with_synth_vertices": "0",
        "boundingbox_min_x": "-35.776",
        "boundingbox_min_y": "0",
        "boundingbox_min_z": "-16.8418",
        "boundingbox_max_x": "35.776",
        "boundingbox_max_y": "60.1699",
        "boundingbox_max_z": "16.8418",
        "boundingbox_width": "7.2",
        "boundingbox_height": "6",
        "boundingbox_thick": "3.4",
        "total_area": "123.28",
        "total_volume_dx": "81213.2",
        "total_volume_dy": "81213.2",
        "total_volume_dz": "81213.2"
    }
}