{
    "from_gigamesh_info_file": {
        "filename": "HS_1885_GMOCF_r1.50_n4_v512.info.txt",
        "hs_number": "HS 1885",
        "radius_in_mm": "1.5",
        "count_of_radii": "16",
        "rastersize": "512^3",
        "input_filename": "HS_1885_GMOCF.ply",
        "output_filename": "HS_1885_GMOCF_r1.50_n4_v512",
        "radii": [
            1.0,
            0.94,
            0.88,
            0.81,
            0.75,
            0.69,
            0.62,
            0.56,
            0.5,
            0.44,
            0.38,
            0.31,
            0.25,
            0.19,
            0.12,
            0.06
        ],
        "model_id": "HS 1885",
        "material": "clay, original",
        "count_of_vertices": "8118104",
        "count_of_faces": "16236404",
        "bounding_box_in_cm": [
            10.2,
            16.7,
            3.5
        ],
        "area_in_cm2": "314.98",
        "volume_dx_in_cm3": "185.32",
        "volume_dy_in_cm3": "185.32",
        "volume_dz_in_cm3": "185.32",
        "processing_began_on": "Sat Dec  8 19:41:42 2018",
        "processing_finished_on": "Sat Dec  8 21:10:13 2018",
        "processing_wall_time_in_s": "5310"
    },
    "from_ply_filename": {
        "filename": "/export/data/vNGG/tmp/Hilprecht_Sammlung/04_MSII_filtered/HS_ALL_MSII_PLY/HS_1885_GMOCF_r1.50_n4_v512.ply",
        "hs_number": "HS 1885",
        "radius_in_mm": "1.50",
        "count_of_radii": 16,
        "rastersize": 512
    },
    "from_hilprecht3d": {
        "hs_number": "HS 1885",
        "tablet_url": "https://hilprecht.mpiwg-berlin.mpg.de/object3d/31053",
        "bibliography": ""
    },
    "from_gigamesh_info_program": {
        "filename": "HS_1885_GMOCF_r1.50_n4_v512",
        "model_id": "HS 1885",
        "model_material": "clay, original",
        "vertices_total": "8118104",
        "vertices_nan": "0",
        "vertices_solo": "0",
        "vertices_polyline": "0",
        "vertices_border": "0",
        "vertices_nonmanifold": "0",
        "vertices_on_inverted_edge": "0",
        "vertices_part_of_zero_face": "0",
        "vertices_synthetic": "7814",
        "vertices_manual": "0",
        "vertices_circle_center": "0",
        "vertices_selected": "0",
        "vertices_funcval_finite": "8118104",
        "vertices_funcval_local_min": "184325",
        "vertices_funcval_local_max": "99143",
        "faces_total": "16236404",
        "faces_solo": "0",
        "faces_border": "0",
        "faces_border_dangling": "0",
        "faces_manifold": "16236404",
        "faces_nonmanifold": "0",
        "faces_sticky": "0",
        "faces_zeroarea": "0",
        "faces_inverted": "0",
        "faces_with_synth_vertices": "13270",
        "boundingbox_min_x": "-51.0346",
        "boundingbox_min_y": "0",
        "boundingbox_min_z": "-17.6116",
        "boundingbox_max_x": "51.0346",
        "boundingbox_max_y": "167.325",
        "boundingbox_max_z": "17.6116",
        "boundingbox_width": "10.2",
        "boundingbox_height": "16.7",
        "boundingbox_thick": "3.5",
        "total_area": "314.98",
        "total_volume_dx": "185315",
        "total_volume_dy": "185315",
        "total_volume_dz": "185315"
    }
}