{
    "from_gigamesh_info_file": {
        "filename": "HS_1216_GMOCF_r1.50_n4_v512.info.txt",
        "hs_number": "HS 1216",
        "radius_in_mm": "1.5",
        "count_of_radii": "16",
        "rastersize": "512^3",
        "gigamesh_version": "181204",
        "threads_used": "11",
        "input_filename": "HS_1216_GMOCF.ply",
        "output_filename": "HS_1216_GMOCF_r1.50_n4_v512",
        "radii": [
            1.0,
            0.94,
            0.88,
            0.81,
            0.75,
            0.69,
            0.62,
            0.56,
            0.5,
            0.44,
            0.38,
            0.31,
            0.25,
            0.19,
            0.12,
            0.06
        ],
        "model_id": "HS 1216",
        "material": "clay, original",
        "count_of_vertices": "890570",
        "count_of_faces": "1781136",
        "bounding_box_in_cm": [
            4.0,
            4.3,
            1.5
        ],
        "area_in_cm2": "41.61",
        "volume_dx_in_cm3": "14.06",
        "volume_dy_in_cm3": "14.06",
        "volume_dz_in_cm3": "14.06",
        "processing_began_on": "Fri Dec  7 15:13:59 2018",
        "processing_finished_on": "Fri Dec  7 15:51:33 2018",
        "processing_wall_time_in_s": "2254"
    },
    "from_ply_filename": {
        "filename": "/export/data/vNGG/tmp/Hilprecht_Sammlung/04_MSII_filtered/HS_ALL_MSII_PLY/HS_1216_GMOCF_r1.50_n4_v512.ply",
        "hs_number": "HS 1216",
        "radius_in_mm": "1.50",
        "count_of_radii": 16,
        "rastersize": 512
    },
    "from_hilprecht3d": {
        "hs_number": "HS 1216",
        "tablet_url": "https://hilprecht.mpiwg-berlin.mpg.de/object3d/30472",
        "bibliography": "1937: TMH NF 1-2, 216",
        "cdli_number": "134527"
    },
    "from_cdli_search_view": {
        "archival_view": "https://cdli.ucla.edu/search/archival_view.php?ObjectID=P134527",
        "primary_publication": "TMH NF 1-2, 216",
        "author": "Pohl, Alfred",
        "publication_date": "1937",
        "secondary_publication": "",
        "collection": "Hilprecht Collection, University of Jena, Germany",
        "museum_number": "HS 1216",
        "accession_number": "",
        "provenience": "Nippur (mod. Nuffar)",
        "excavation_number": "",
        "period": "Ur III (ca. 2100-2000 BC)",
        "dates_referenced": "\u0160\u016b-Suen.01.03.00",
        "object_type": "tablet",
        "remarks": "",
        "material": "clay",
        "language": "Sumerian",
        "genre": "Administrative",
        "sub_genre": "",
        "cdli_comments": "",
        "catalogue_source": "20011220 ur3_catalogue",
        "atf_source": "cdlistaff",
        "translation": "no translation",
        "ucla_library_ark": "21198/zz001xv52j",
        "composite_number": "",
        "seal_number": "S002781",
        "cdli_number": "P134527"
    },
    "from_cdli_archival_view": {
        "primary_publication": "TMH NF 1-2, 216",
        "author": "Pohl, Alfred",
        "publication_date": "1937",
        "secondary_publications": "",
        "citation": "",
        "author_remarks": "",
        "published_collation": "",
        "cdli_number": "P134527",
        "ucla_library_ark": "21198/zz001xv52j",
        "cdli_comments": "",
        "catalogue": "20011220 ur3_catalogue",
        "transliteration_remarks": "cdlistaff",
        "translation_remarks": "no translation",
        "owner": "Hilprecht Collection, University of Jena, Germany",
        "museum_number": "HS 1216",
        "accession_number": "",
        "acquisition_history": "",
        "genre": "Administrative",
        "sub_genre": "",
        "sub_genre_remarks": "",
        "composite_number": "",
        "language": "Sumerian",
        "material": "clay",
        "object_remarks": "",
        "measurements_in_mm": "? x ? x ?",
        "object_preservation": "",
        "surface_preservation": "",
        "condition_description": "",
        "join_information": "",
        "seal_number": "S002781",
        "seal_information": "",
        "provenience": "Nippur (mod. Nuffar)",
        "excavation_number": "",
        "findspot_square": "",
        "elevation": "",
        "stratigraphic_level": "",
        "findspot_remarks": "",
        "period": "Ur III (ca. 2100-2000 BC)",
        "period_remarks": "",
        "date_of_origin": "\u0160\u016b-Suen.01.03.00",
        "dates_referenced": "\u0160\u016b-Suen.01.03.00",
        "alternative_years": "",
        "accounting_period": "",
        "textual_content": "@Tablet\n@obverse \n1. 1(disz) [...] \n2. siki sza3 tug2 x x x \n3. geme2 x-ma-ka u3 ensi2-ka ib2-pesz5 \n@reverse \n1. ki lugal-ma2-gur8-re-ta \n2. ba-zi \n$ blank space \n3. iti sig4-ga [u4 x ba-zal] \n4. mu {d}szu-{d}suen [...] \n@seal 1 \n1. lu2-dingir-ra \n2. dub-sar \n3. dumu ur-{d}dun ",
        "lineart_url": "https://cdli.ucla.edu/dl/tn_lineart/P134527_l.jpg",
        "photo_url": "https://cdli.ucla.edu/dl/tn_photo/P134527.jpg"
    },
    "from_gigamesh_info_program": {
        "filename": "HS_1216_GMOCF_r1.50_n4_v512",
        "model_id": "HS 1216",
        "model_material": "clay, original",
        "vertices_total": "890570",
        "vertices_nan": "0",
        "vertices_solo": "0",
        "vertices_polyline": "0",
        "vertices_border": "0",
        "vertices_nonmanifold": "0",
        "vertices_on_inverted_edge": "0",
        "vertices_part_of_zero_face": "0",
        "vertices_synthetic": "7",
        "vertices_manual": "0",
        "vertices_circle_center": "0",
        "vertices_selected": "0",
        "vertices_funcval_finite": "890570",
        "vertices_funcval_local_min": "18350",
        "vertices_funcval_local_max": "8165",
        "faces_total": "1781136",
        "faces_solo": "0",
        "faces_border": "0",
        "faces_border_dangling": "0",
        "faces_manifold": "1781136",
        "faces_nonmanifold": "0",
        "faces_sticky": "0",
        "faces_zeroarea": "0",
        "faces_inverted": "0",
        "faces_with_synth_vertices": "1",
        "boundingbox_min_x": "-19.8212",
        "boundingbox_min_y": "0",
        "boundingbox_min_z": "-7.3194",
        "boundingbox_max_x": "19.8212",
        "boundingbox_max_y": "42.9697",
        "boundingbox_max_z": "7.3194",
        "boundingbox_width": "4",
        "boundingbox_height": "4.3",
        "boundingbox_thick": "1.5",
        "total_area": "41.61",
        "total_volume_dx": "14056.4",
        "total_volume_dy": "14056.4",
        "total_volume_dz": "14056.4"
    }
}