{
    "from_gigamesh_info_file": {
        "filename": "HS_1410_GMOCF_r1.50_n4_v512.info.txt",
        "hs_number": "HS 1410",
        "radius_in_mm": "1.5",
        "count_of_radii": "16",
        "rastersize": "512^3",
        "input_filename": "HS_1410_GMOCF.ply",
        "output_filename": "HS_1410_GMOCF_r1.50_n4_v512",
        "radii": [
            1.0,
            0.94,
            0.88,
            0.81,
            0.75,
            0.69,
            0.62,
            0.56,
            0.5,
            0.44,
            0.38,
            0.31,
            0.25,
            0.19,
            0.12,
            0.06
        ],
        "model_id": "HS 1410",
        "material": "clay, original",
        "count_of_vertices": "2341778",
        "count_of_faces": "4683576",
        "bounding_box_in_cm": [
            7.7,
            6.4,
            3.1
        ],
        "area_in_cm2": "100.78",
        "volume_dx_in_cm3": "60.12",
        "volume_dy_in_cm3": "60.12",
        "volume_dz_in_cm3": "60.12",
        "processing_began_on": "Sat Dec  8 04:49:02 2018",
        "processing_finished_on": "Sat Dec  8 05:24:49 2018",
        "processing_wall_time_in_s": "2143"
    },
    "from_ply_filename": {
        "filename": "/export/data/vNGG/tmp/Hilprecht_Sammlung/04_MSII_filtered/HS_ALL_MSII_PLY/HS_1410_GMOCF_r1.50_n4_v512.ply",
        "hs_number": "HS 1410",
        "radius_in_mm": "1.50",
        "count_of_radii": 16,
        "rastersize": 512
    },
    "from_hilprecht3d": {
        "hs_number": "HS 1410",
        "tablet_url": "https://hilprecht.mpiwg-berlin.mpg.de/object3d/30678",
        "bibliography": ""
    },
    "from_gigamesh_info_program": {
        "filename": "HS_1410_GMOCF_r1.50_n4_v512",
        "model_id": "HS 1410",
        "model_material": "clay, original",
        "vertices_total": "2341778",
        "vertices_nan": "0",
        "vertices_solo": "0",
        "vertices_polyline": "0",
        "vertices_border": "0",
        "vertices_nonmanifold": "0",
        "vertices_on_inverted_edge": "0",
        "vertices_part_of_zero_face": "0",
        "vertices_synthetic": "549",
        "vertices_manual": "0",
        "vertices_circle_center": "0",
        "vertices_selected": "0",
        "vertices_funcval_finite": "2341778",
        "vertices_funcval_local_min": "48254",
        "vertices_funcval_local_max": "22742",
        "faces_total": "4683576",
        "faces_solo": "0",
        "faces_border": "0",
        "faces_border_dangling": "0",
        "faces_manifold": "4683576",
        "faces_nonmanifold": "0",
        "faces_sticky": "0",
        "faces_zeroarea": "0",
        "faces_inverted": "0",
        "faces_with_synth_vertices": "727",
        "boundingbox_min_x": "-38.2824",
        "boundingbox_min_y": "0",
        "boundingbox_min_z": "-15.5359",
        "boundingbox_max_x": "38.2824",
        "boundingbox_max_y": "63.5174",
        "boundingbox_max_z": "15.5359",
        "boundingbox_width": "7.7",
        "boundingbox_height": "6.4",
        "boundingbox_thick": "3.1",
        "total_area": "100.78",
        "total_volume_dx": "60116.3",
        "total_volume_dy": "60116.3",
        "total_volume_dz": "60116.3"
    }
}