{
    "from_gigamesh_info_file": {
        "filename": "HS_1150_GMOCF_r1.50_n4_v512.info.txt",
        "hs_number": "HS 1150",
        "radius_in_mm": "1.5",
        "count_of_radii": "16",
        "rastersize": "512^3",
        "gigamesh_version": "181005",
        "threads_used": "7",
        "input_filename": "HS_1150_GMOCF.ply",
        "output_filename": "HS_1150_GMOCF_r1.50_n4_v512",
        "radii": [
            1.0,
            0.94,
            0.88,
            0.81,
            0.75,
            0.69,
            0.62,
            0.56,
            0.5,
            0.44,
            0.38,
            0.31,
            0.25,
            0.19,
            0.12,
            0.06
        ],
        "model_id": "HS 1150",
        "material": "clay, original",
        "count_of_vertices": "919269",
        "count_of_faces": "1838534",
        "bounding_box_in_cm": [
            3.7,
            4.1,
            1.9
        ],
        "area_in_cm2": "44.59",
        "volume_dx_in_cm3": "19.63",
        "volume_dy_in_cm3": "19.63",
        "volume_dz_in_cm3": "19.63",
        "processing_began_on": "Tue Dec  4 23:31:52 2018",
        "processing_finished_on": "Wed Dec  5 01:35:02 2018",
        "processing_wall_time_in_s": "7390"
    },
    "from_ply_filename": {
        "filename": "/export/data/vNGG/tmp/Hilprecht_Sammlung/04_MSII_filtered/HS_ALL_MSII_PLY/HS_1150_GMOCF_r1.50_n4_v512.ply",
        "hs_number": "HS 1150",
        "radius_in_mm": "1.50",
        "count_of_radii": 16,
        "rastersize": 512
    },
    "from_hilprecht3d": {
        "hs_number": "HS 1150",
        "tablet_url": "https://hilprecht.mpiwg-berlin.mpg.de/object3d/30403",
        "bibliography": "1937: TMH NF 1-2, 150",
        "cdli_number": "134461"
    },
    "from_cdli_search_view": {
        "archival_view": "https://cdli.ucla.edu/search/archival_view.php?ObjectID=P134461",
        "primary_publication": "TMH NF 1-2, 150",
        "author": "Pohl, Alfred",
        "publication_date": "1937",
        "secondary_publication": "",
        "collection": "Hilprecht Collection, University of Jena, Germany",
        "museum_number": "HS 1150",
        "accession_number": "",
        "provenience": "Nippur (mod. Nuffar)",
        "excavation_number": "",
        "period": "Ur III (ca. 2100-2000 BC)",
        "dates_referenced": "\u0160\u016b-Suen.05.09.00, \u0160\u016b-Suen.05.10.00 (us2 year) (Reichskalender)",
        "object_type": "tablet",
        "remarks": "",
        "material": "clay",
        "language": "Sumerian",
        "genre": "Administrative",
        "sub_genre": "",
        "cdli_comments": "",
        "catalogue_source": "20011220 ur3_catalogue",
        "atf_source": "cdlistaff",
        "translation": "no translation",
        "ucla_library_ark": "21198/zz001z290j",
        "composite_number": "",
        "seal_number": "",
        "cdli_number": "P134461"
    },
    "from_cdli_archival_view": {
        "primary_publication": "TMH NF 1-2, 150",
        "author": "Pohl, Alfred",
        "publication_date": "1937",
        "secondary_publications": "",
        "citation": "",
        "author_remarks": "",
        "published_collation": "",
        "cdli_number": "P134461",
        "ucla_library_ark": "21198/zz001z290j",
        "cdli_comments": "",
        "catalogue": "20011220 ur3_catalogue",
        "transliteration_remarks": "cdlistaff",
        "translation_remarks": "no translation",
        "owner": "Hilprecht Collection, University of Jena, Germany",
        "museum_number": "HS 1150",
        "accession_number": "",
        "acquisition_history": "",
        "genre": "Administrative",
        "sub_genre": "",
        "sub_genre_remarks": "",
        "composite_number": "",
        "language": "Sumerian",
        "material": "clay",
        "object_remarks": "",
        "measurements_in_mm": "? x ? x ?",
        "object_preservation": "",
        "surface_preservation": "",
        "condition_description": "",
        "join_information": "",
        "seal_number": "",
        "seal_information": "",
        "provenience": "Nippur (mod. Nuffar)",
        "excavation_number": "",
        "findspot_square": "",
        "elevation": "",
        "stratigraphic_level": "",
        "findspot_remarks": "",
        "period": "Ur III (ca. 2100-2000 BC)",
        "period_remarks": "",
        "date_of_origin": "\u0160\u016b-Suen.05.10.00 (us2 year) (Reichskalender)",
        "dates_referenced": "\u0160\u016b-Suen.05.09.00, \u0160\u016b-Suen.05.10.00 (us2 year) (Reichskalender)",
        "alternative_years": "",
        "accounting_period": "\u0160\u016b-Suen.05.09.00 to \u0160\u016b-Suen.05.10.00 (us2 year) (Reichskalender)",
        "textual_content": "@Tablet\n@obverse \n1. 1(barig) sze lugal-kam \n2. da-a-a-ti \n3. 1(barig) i-ri-ib \n4. 4(ban2) szesz-kal-la \n5. sza3-gu4 ur-{d}ab-u2 engar-me \n6. 8(disz) sila3 dumu sza3-gu2-bi ba-usz2 \n@reverse \n1. 8(disz) sila3 ur-{d}dumu-zi-da dumu iri-ni-ba-ag2 \n2. sze-ba iti ezem-mah \n3. sza3 iti szu-esz5-sza \n4. mu us2-sa bad3 mar-tu ba-du3 ",
        "lineart_url": "https://cdli.ucla.edu/dl/tn_lineart/P134461_l.jpg",
        "photo_url": "https://cdli.ucla.edu/dl/tn_photo/P134461.jpg"
    },
    "from_gigamesh_info_program": {
        "filename": "HS_1150_GMOCF_r1.50_n4_v512",
        "model_id": "HS 1150",
        "model_material": "clay, original",
        "vertices_total": "919269",
        "vertices_nan": "0",
        "vertices_solo": "0",
        "vertices_polyline": "0",
        "vertices_border": "0",
        "vertices_nonmanifold": "0",
        "vertices_on_inverted_edge": "0",
        "vertices_part_of_zero_face": "0",
        "vertices_synthetic": "0",
        "vertices_manual": "0",
        "vertices_circle_center": "0",
        "vertices_selected": "0",
        "vertices_funcval_finite": "919269",
        "vertices_funcval_local_min": "18677",
        "vertices_funcval_local_max": "9912",
        "faces_total": "1838534",
        "faces_solo": "0",
        "faces_border": "0",
        "faces_border_dangling": "0",
        "faces_manifold": "1838534",
        "faces_nonmanifold": "0",
        "faces_sticky": "0",
        "faces_zeroarea": "0",
        "faces_inverted": "0",
        "faces_with_synth_vertices": "0",
        "boundingbox_min_x": "-18.4893",
        "boundingbox_min_y": "0",
        "boundingbox_min_z": "-9.7207",
        "boundingbox_max_x": "18.4893",
        "boundingbox_max_y": "41.1692",
        "boundingbox_max_z": "9.7207",
        "boundingbox_width": "3.7",
        "boundingbox_height": "4.1",
        "boundingbox_thick": "1.9",
        "total_area": "44.59",
        "total_volume_dx": "19625.5",
        "total_volume_dy": "19625.5",
        "total_volume_dz": "19625.5"
    }
}