{
    "from_gigamesh_info_file": {
        "filename": "HS_1061_GMOCF_r1.50_n4_v512.info.txt",
        "hs_number": "HS 1061",
        "radius_in_mm": "1.5",
        "count_of_radii": "16",
        "rastersize": "512^3",
        "gigamesh_version": "181005",
        "threads_used": "7",
        "input_filename": "HS_1061_GMOCF.ply",
        "output_filename": "HS_1061_GMOCF_r1.50_n4_v512",
        "radii": [
            1.0,
            0.94,
            0.88,
            0.81,
            0.75,
            0.69,
            0.62,
            0.56,
            0.5,
            0.44,
            0.38,
            0.31,
            0.25,
            0.19,
            0.12,
            0.06
        ],
        "model_id": "HS 1061",
        "material": "clay, original",
        "count_of_vertices": "278825",
        "count_of_faces": "557646",
        "bounding_box_in_cm": [
            3.7,
            5.0,
            1.6
        ],
        "area_in_cm2": "35.78",
        "volume_dx_in_cm3": "6.59",
        "volume_dy_in_cm3": "6.59",
        "volume_dz_in_cm3": "6.59",
        "processing_began_on": "Fri Dec  7 18:49:57 2018",
        "processing_finished_on": "Fri Dec  7 19:12:04 2018",
        "processing_wall_time_in_s": "1326"
    },
    "from_ply_filename": {
        "filename": "/export/data/vNGG/tmp/Hilprecht_Sammlung/04_MSII_filtered/HS_ALL_MSII_PLY/HS_1061_GMOCF_r1.50_n4_v512.ply",
        "hs_number": "HS 1061",
        "radius_in_mm": "1.50",
        "count_of_radii": 16,
        "rastersize": 512
    },
    "from_hilprecht3d": {
        "hs_number": "HS 1061",
        "tablet_url": "https://hilprecht.mpiwg-berlin.mpg.de/object3d/30306",
        "bibliography": "1937: TMH NF 1-2, 061",
        "cdli_number": "134373"
    },
    "from_cdli_search_view": {
        "archival_view": "https://cdli.ucla.edu/search/archival_view.php?ObjectID=P134373",
        "primary_publication": "TMH NF 1-2, 061",
        "author": "Pohl, Alfred",
        "publication_date": "1937",
        "secondary_publication": "",
        "collection": "Hilprecht Collection, University of Jena, Germany",
        "museum_number": "HS 1061",
        "accession_number": "",
        "provenience": "Nippur (mod. Nuffar)",
        "excavation_number": "",
        "period": "Ur III (ca. 2100-2000 BC)",
        "dates_referenced": "--.--.00.00",
        "object_type": "tablet &amp; envelope",
        "remarks": "",
        "material": "clay",
        "language": "Sumerian",
        "genre": "Administrative",
        "sub_genre": "",
        "cdli_comments": "",
        "catalogue_source": "20011220 ur3_catalogue",
        "atf_source": "cdlistaff",
        "translation": "no translation",
        "ucla_library_ark": "21198/zz001xv8j7",
        "composite_number": "",
        "seal_number": "Sx",
        "cdli_number": "P134373"
    },
    "from_cdli_archival_view": {
        "primary_publication": "TMH NF 1-2, 061",
        "author": "Pohl, Alfred",
        "publication_date": "1937",
        "secondary_publications": "",
        "citation": "",
        "author_remarks": "",
        "published_collation": "OrAnt 15, 319",
        "cdli_number": "P134373",
        "ucla_library_ark": "21198/zz001xv8j7",
        "cdli_comments": "",
        "catalogue": "20011220 ur3_catalogue",
        "transliteration_remarks": "cdlistaff",
        "translation_remarks": "no translation",
        "owner": "Hilprecht Collection, University of Jena, Germany",
        "museum_number": "HS 1061",
        "accession_number": "",
        "acquisition_history": "",
        "genre": "Administrative",
        "sub_genre": "",
        "sub_genre_remarks": "",
        "composite_number": "",
        "language": "Sumerian",
        "material": "clay",
        "object_remarks": "",
        "measurements_in_mm": "? x ? x ?",
        "object_preservation": "",
        "surface_preservation": "",
        "condition_description": "",
        "join_information": "P134373 lead, single entry",
        "seal_number": "Sx",
        "seal_information": "sealed; TMH NF 1-2, 43*",
        "provenience": "Nippur (mod. Nuffar)",
        "excavation_number": "",
        "findspot_square": "",
        "elevation": "",
        "stratigraphic_level": "",
        "findspot_remarks": "",
        "period": "Ur III (ca. 2100-2000 BC)",
        "period_remarks": "",
        "date_of_origin": "--.--.00.00",
        "dates_referenced": "--.--.00.00",
        "alternative_years": "",
        "accounting_period": "",
        "textual_content": "@Tablet & envelope\n\n$ (lost)  \n@obverse \n$ beginning broken \n1'. [...] 1(barig) 4(ban2)-ta \n2'. [...] masz2 nu-tuku \n3'. [...] x gin2 ku3-babbar \n4'. [...] 5(disz) gin2 1(disz) gin2-ta \n5'. [...] gin2# 1(u) 2(disz) sze ku3-babbar \n$ rest broken \n@reverse \n$ broken ",
        "lineart_url": "https://cdli.ucla.edu/dl/tn_lineart/P134373_l.jpg",
        "photo_url": "https://cdli.ucla.edu/dl/tn_photo/P134373.jpg"
    },
    "from_gigamesh_info_program": {
        "filename": "HS_1061_GMOCF_r1.50_n4_v512",
        "model_id": "HS 1061",
        "model_material": "clay, original",
        "vertices_total": "278825",
        "vertices_nan": "0",
        "vertices_solo": "0",
        "vertices_polyline": "0",
        "vertices_border": "0",
        "vertices_nonmanifold": "0",
        "vertices_on_inverted_edge": "0",
        "vertices_part_of_zero_face": "0",
        "vertices_synthetic": "0",
        "vertices_manual": "0",
        "vertices_circle_center": "0",
        "vertices_selected": "0",
        "vertices_funcval_finite": "278825",
        "vertices_funcval_local_min": "8776",
        "vertices_funcval_local_max": "6113",
        "faces_total": "557646",
        "faces_solo": "0",
        "faces_border": "0",
        "faces_border_dangling": "0",
        "faces_manifold": "557646",
        "faces_nonmanifold": "0",
        "faces_sticky": "0",
        "faces_zeroarea": "0",
        "faces_inverted": "0",
        "faces_with_synth_vertices": "0",
        "boundingbox_min_x": "-18.2779",
        "boundingbox_min_y": "0",
        "boundingbox_min_z": "-7.7975",
        "boundingbox_max_x": "18.2779",
        "boundingbox_max_y": "50.006",
        "boundingbox_max_z": "7.7975",
        "boundingbox_width": "3.7",
        "boundingbox_height": "5",
        "boundingbox_thick": "1.6",
        "total_area": "35.78",
        "total_volume_dx": "6585.78",
        "total_volume_dy": "6585.78",
        "total_volume_dz": "6585.78"
    }
}