{
    "from_gigamesh_info_file": {
        "filename": "HS_1218_GMOCF_r1.50_n4_v512.info.txt",
        "hs_number": "HS 1218",
        "radius_in_mm": "1.5",
        "count_of_radii": "16",
        "rastersize": "512^3",
        "gigamesh_version": "181204",
        "threads_used": "11",
        "input_filename": "HS_1218_GMOCF.ply",
        "output_filename": "HS_1218_GMOCF_r1.50_n4_v512",
        "radii": [
            1.0,
            0.94,
            0.88,
            0.81,
            0.75,
            0.69,
            0.62,
            0.56,
            0.5,
            0.44,
            0.38,
            0.31,
            0.25,
            0.19,
            0.12,
            0.06
        ],
        "model_id": "HS 1218",
        "material": "clay, original",
        "count_of_vertices": "2217234",
        "count_of_faces": "4434464",
        "bounding_box_in_cm": [
            4.7,
            8.0,
            1.9
        ],
        "area_in_cm2": "103.94",
        "volume_dx_in_cm3": "47.55",
        "volume_dy_in_cm3": "47.55",
        "volume_dz_in_cm3": "47.55",
        "processing_began_on": "Thu Dec  6 04:11:10 2018",
        "processing_finished_on": "Thu Dec  6 05:41:31 2018",
        "processing_wall_time_in_s": "5421"
    },
    "from_ply_filename": {
        "filename": "/export/data/vNGG/tmp/Hilprecht_Sammlung/04_MSII_filtered/HS_ALL_MSII_PLY/HS_1218_GMOCF_r1.50_n4_v512.ply",
        "hs_number": "HS 1218",
        "radius_in_mm": "1.50",
        "count_of_radii": 16,
        "rastersize": 512
    },
    "from_hilprecht3d": {
        "hs_number": "HS 1218",
        "tablet_url": "https://hilprecht.mpiwg-berlin.mpg.de/object3d/30477",
        "bibliography": "1937: TMH NF 1-2, 218",
        "cdli_number": "134529"
    },
    "from_cdli_search_view": {
        "archival_view": "https://cdli.ucla.edu/search/archival_view.php?ObjectID=P134529",
        "primary_publication": "TMH NF 1-2, 218",
        "author": "Pohl, Alfred",
        "publication_date": "1937",
        "secondary_publication": "",
        "collection": "Hilprecht Collection, University of Jena, Germany",
        "museum_number": "HS 1218",
        "accession_number": "",
        "provenience": "Nippur (mod. Nuffar)",
        "excavation_number": "",
        "period": "Ur III (ca. 2100-2000 BC)",
        "dates_referenced": "Amar-Suen.09.12.07",
        "object_type": "tablet",
        "remarks": "",
        "material": "clay",
        "language": "Sumerian",
        "genre": "Administrative",
        "sub_genre": "",
        "cdli_comments": "",
        "catalogue_source": "20011220 ur3_catalogue",
        "atf_source": "cdlistaff",
        "translation": "no translation",
        "ucla_library_ark": "21198/zz001xv54k",
        "composite_number": "",
        "seal_number": "",
        "cdli_number": "P134529"
    },
    "from_cdli_archival_view": {
        "primary_publication": "TMH NF 1-2, 218",
        "author": "Pohl, Alfred",
        "publication_date": "1937",
        "secondary_publications": "",
        "citation": "",
        "author_remarks": "",
        "published_collation": "OrAnt 15, 321",
        "cdli_number": "P134529",
        "ucla_library_ark": "21198/zz001xv54k",
        "cdli_comments": "",
        "catalogue": "20011220 ur3_catalogue",
        "transliteration_remarks": "cdlistaff",
        "translation_remarks": "no translation",
        "owner": "Hilprecht Collection, University of Jena, Germany",
        "museum_number": "HS 1218",
        "accession_number": "",
        "acquisition_history": "",
        "genre": "Administrative",
        "sub_genre": "",
        "sub_genre_remarks": "",
        "composite_number": "",
        "language": "Sumerian",
        "material": "clay",
        "object_remarks": "",
        "measurements_in_mm": "? x ? x ?",
        "object_preservation": "",
        "surface_preservation": "",
        "condition_description": "",
        "join_information": "",
        "seal_number": "",
        "seal_information": "",
        "provenience": "Nippur (mod. Nuffar)",
        "excavation_number": "",
        "findspot_square": "",
        "elevation": "",
        "stratigraphic_level": "",
        "findspot_remarks": "",
        "period": "Ur III (ca. 2100-2000 BC)",
        "period_remarks": "",
        "date_of_origin": "Amar-Suen.09.12.07",
        "dates_referenced": "Amar-Suen.09.12.07",
        "alternative_years": "",
        "accounting_period": "",
        "textual_content": "@Tablet\n@obverse \n1. [n] n 1/3(disz) ma-na [n] 5(disz) siki \n2. si-i3-tum \n3. 3(u) 8(disz) 1/3(disz) ma-na 8(disz) gin2 \n4. nig2 ze2?-a siki {gesz}garigx(|ZUM.SI|) ak u3 siki al-pesz5-a \n5. bi2-gu7-bi 3(disz) 5/6(disz) ma-na 5/6(disz) gin2 \n6. 2(asz) gu2 4(u) 6(disz) 1/2(disz) ma-na 9(disz) gin2 siki \n$ blank space \n7. szunigin 4(asz) gu2 4(u) 6(disz) 2/3(disz) ma-na 2(disz) 5/6(disz) gin2 siki \n8. sag#-nig2-gur11-ra-kam sza3-bi-ta \n@reverse \n1. 2(u) 7(disz) tug2 hi-a \n2. ki-la2-bi 1(asz) gu2 3(u) 8(disz) 1/2(disz) ma-na 2(disz) gin2 \n3. bi2-gu7-bi 9(disz) 5/6(disz) ma-na 1(disz) gin2 \n4. 3(disz) ma-na 1(u) gin2 siki {gesz}garigx(|ZUM.SI|) ak \n5. bi2-gu7-bi 9(disz) gin2 \n6. 1(asz) gu2 3(u) 1/3(disz) siki \n7. 5(disz) tug2 gesz a-gal2-la \n8. ki-la2-bi 1(u) 3(disz) 1/3(disz) ma-na 2(disz) gin2 \n9. bi2-gu7-bi 1(disz) 1/3(disz) ma-na \n10. 5(u) 4(disz) ma-na 1(u) 8(disz) gin2 siki {gesz}garigx(|ZUM.SI|) ak u3 nig2 ze2?-a \n11. bi2-gu7-bi 5(disz) 1/3(disz) ma-na 5(disz) 5/6(disz) gin2 \n12. szunigin# 4(asz) gu2 9(disz) 1/2(disz) ma-na 7(disz) 5/6(disz) gin2 \n13. zi#-ga#-am3 \n14. la2#-ia3#? 3(u) 6(disz) 2/3(disz) ma-na 5(disz) gin2 [...] \n15. x x [x]-usz-szi \n@left \n1. [iti sze]-sag11#-ku5 u4 7(disz) ba-zal \n2. mu en ga-esz5{ki} ba-hun \n ",
        "lineart_url": "https://cdli.ucla.edu/dl/tn_lineart/P134529_l.jpg",
        "photo_url": "https://cdli.ucla.edu/dl/tn_photo/P134529.jpg"
    },
    "from_gigamesh_info_program": {
        "filename": "HS_1218_GMOCF_r1.50_n4_v512",
        "model_id": "HS 1218",
        "model_material": "clay, original",
        "vertices_total": "2217234",
        "vertices_nan": "0",
        "vertices_solo": "0",
        "vertices_polyline": "0",
        "vertices_border": "0",
        "vertices_nonmanifold": "0",
        "vertices_on_inverted_edge": "0",
        "vertices_part_of_zero_face": "0",
        "vertices_synthetic": "0",
        "vertices_manual": "0",
        "vertices_circle_center": "0",
        "vertices_selected": "0",
        "vertices_funcval_finite": "2217234",
        "vertices_funcval_local_min": "44286",
        "vertices_funcval_local_max": "16744",
        "faces_total": "4434464",
        "faces_solo": "0",
        "faces_border": "0",
        "faces_border_dangling": "0",
        "faces_manifold": "4434464",
        "faces_nonmanifold": "0",
        "faces_sticky": "0",
        "faces_zeroarea": "0",
        "faces_inverted": "0",
        "faces_with_synth_vertices": "0",
        "boundingbox_min_x": "-23.4768",
        "boundingbox_min_y": "0",
        "boundingbox_min_z": "-9.5161",
        "boundingbox_max_x": "23.4768",
        "boundingbox_max_y": "80.2819",
        "boundingbox_max_z": "9.5161",
        "boundingbox_width": "4.7",
        "boundingbox_height": "8",
        "boundingbox_thick": "1.9",
        "total_area": "103.94",
        "total_volume_dx": "47551.9",
        "total_volume_dy": "47551.9",
        "total_volume_dz": "47551.9"
    }
}