{
    "from_gigamesh_info_file": {
        "filename": "HS_1354_GMOCF_r1.50_n4_v512.info.txt",
        "hs_number": "HS 1354",
        "radius_in_mm": "1.5",
        "count_of_radii": "16",
        "rastersize": "512^3",
        "gigamesh_version": "181005",
        "threads_used": "7",
        "input_filename": "HS_1354_GMOCF.ply",
        "output_filename": "HS_1354_GMOCF_r1.50_n4_v512",
        "radii": [
            1.0,
            0.94,
            0.88,
            0.81,
            0.75,
            0.69,
            0.62,
            0.56,
            0.5,
            0.44,
            0.38,
            0.31,
            0.25,
            0.19,
            0.12,
            0.06
        ],
        "model_id": "HS 1354",
        "material": "clay, original",
        "count_of_vertices": "909838",
        "count_of_faces": "1819672",
        "bounding_box_in_cm": [
            3.9,
            4.8,
            1.9
        ],
        "area_in_cm2": "53.11",
        "volume_dx_in_cm3": "22.38",
        "volume_dy_in_cm3": "22.38",
        "volume_dz_in_cm3": "22.38",
        "processing_began_on": "Fri Dec  7 09:33:34 2018",
        "processing_finished_on": "Fri Dec  7 11:22:13 2018",
        "processing_wall_time_in_s": "6519"
    },
    "from_ply_filename": {
        "filename": "/export/data/vNGG/tmp/Hilprecht_Sammlung/04_MSII_filtered/HS_ALL_MSII_PLY/HS_1354_GMOCF_r1.50_n4_v512.ply",
        "hs_number": "HS 1354",
        "radius_in_mm": "1.50",
        "count_of_radii": 16,
        "rastersize": 512
    },
    "from_hilprecht3d": {
        "hs_number": "HS 1354",
        "tablet_url": "https://hilprecht.mpiwg-berlin.mpg.de/object3d/30618",
        "bibliography": "1937: TMH NF 1-2, 354. \u2013 1966: TCS 1, 139",
        "cdli_number": "134664"
    },
    "from_cdli_search_view": {
        "archival_view": "https://cdli.ucla.edu/search/archival_view.php?ObjectID=P134664",
        "primary_publication": "TMH NF 1-2, 354",
        "author": "Pohl, Alfred",
        "publication_date": "1937",
        "secondary_publication": "TCS 1, 139",
        "collection": "Hilprecht Collection, University of Jena, Germany",
        "museum_number": "HS 1354",
        "accession_number": "",
        "provenience": "Nippur (mod. Nuffar)",
        "excavation_number": "",
        "period": "Ur III (ca. 2100-2000 BC)",
        "dates_referenced": "--.--.00.00",
        "object_type": "tablet",
        "remarks": "",
        "material": "clay",
        "language": "Sumerian",
        "genre": "Letter",
        "sub_genre": "",
        "cdli_comments": "",
        "catalogue_source": "20011220 ur3_catalogue",
        "atf_source": "cdlistaff",
        "translation": "no translation",
        "ucla_library_ark": "21198/zz001xc7fx",
        "composite_number": "",
        "seal_number": "",
        "cdli_number": "P134664"
    },
    "from_cdli_archival_view": {
        "primary_publication": "TMH NF 1-2, 354",
        "author": "Pohl, Alfred",
        "publication_date": "1937",
        "secondary_publications": "TCS 1, 139",
        "citation": "",
        "author_remarks": "",
        "published_collation": "",
        "cdli_number": "P134664",
        "ucla_library_ark": "21198/zz001xc7fx",
        "cdli_comments": "",
        "catalogue": "20011220 ur3_catalogue",
        "transliteration_remarks": "cdlistaff",
        "translation_remarks": "no translation",
        "owner": "Hilprecht Collection, University of Jena, Germany",
        "museum_number": "HS 1354",
        "accession_number": "",
        "acquisition_history": "",
        "genre": "Letter",
        "sub_genre": "",
        "sub_genre_remarks": "",
        "composite_number": "",
        "language": "Sumerian",
        "material": "clay",
        "object_remarks": "",
        "measurements_in_mm": "? x ? x ?",
        "object_preservation": "",
        "surface_preservation": "",
        "condition_description": "",
        "join_information": "",
        "seal_number": "",
        "seal_information": "",
        "provenience": "Nippur (mod. Nuffar)",
        "excavation_number": "",
        "findspot_square": "",
        "elevation": "",
        "stratigraphic_level": "",
        "findspot_remarks": "",
        "period": "Ur III (ca. 2100-2000 BC)",
        "period_remarks": "",
        "date_of_origin": "--.--.00.00",
        "dates_referenced": "--.--.00.00",
        "alternative_years": "",
        "accounting_period": "",
        "textual_content": "@Tablet\n@obverse \n1. lugal-a2-zi-da \n2. u3-na-a-du11 \n3. ur-me-me \n4. mu-mu-sze3 \n@reverse \n1. he2-em-ma-gub \n2. a-ba szesz-mu-gin7 ",
        "lineart_url": "https://cdli.ucla.edu/dl/tn_lineart/P134664_l.jpg",
        "photo_url": "https://cdli.ucla.edu/dl/tn_photo/P134664.jpg"
    },
    "from_gigamesh_info_program": {
        "filename": "HS_1354_GMOCF_r1.50_n4_v512",
        "model_id": "HS 1354",
        "model_material": "clay, original",
        "vertices_total": "909838",
        "vertices_nan": "0",
        "vertices_solo": "0",
        "vertices_polyline": "0",
        "vertices_border": "0",
        "vertices_nonmanifold": "0",
        "vertices_on_inverted_edge": "0",
        "vertices_part_of_zero_face": "0",
        "vertices_synthetic": "0",
        "vertices_manual": "0",
        "vertices_circle_center": "0",
        "vertices_selected": "0",
        "vertices_funcval_finite": "909838",
        "vertices_funcval_local_min": "17072",
        "vertices_funcval_local_max": "8967",
        "faces_total": "1819672",
        "faces_solo": "0",
        "faces_border": "0",
        "faces_border_dangling": "0",
        "faces_manifold": "1819672",
        "faces_nonmanifold": "0",
        "faces_sticky": "0",
        "faces_zeroarea": "0",
        "faces_inverted": "0",
        "faces_with_synth_vertices": "0",
        "boundingbox_min_x": "-19.5572",
        "boundingbox_min_y": "0",
        "boundingbox_min_z": "-9.3971",
        "boundingbox_max_x": "19.5572",
        "boundingbox_max_y": "47.5671",
        "boundingbox_max_z": "9.3971",
        "boundingbox_width": "3.9",
        "boundingbox_height": "4.8",
        "boundingbox_thick": "1.9",
        "total_area": "53.11",
        "total_volume_dx": "22378.9",
        "total_volume_dy": "22378.9",
        "total_volume_dz": "22378.9"
    }
}