{
    "from_gigamesh_info_file": {
        "filename": "HS_1415_GMOCF_r1.50_n4_v512.info.txt",
        "hs_number": "HS 1415",
        "radius_in_mm": "1.5",
        "count_of_radii": "16",
        "rastersize": "512^3",
        "input_filename": "HS_1415_GMOCF.ply",
        "output_filename": "HS_1415_GMOCF_r1.50_n4_v512",
        "radii": [
            1.0,
            0.94,
            0.88,
            0.81,
            0.75,
            0.69,
            0.62,
            0.56,
            0.5,
            0.44,
            0.38,
            0.31,
            0.25,
            0.19,
            0.12,
            0.06
        ],
        "model_id": "HS 1415",
        "material": "clay, original",
        "count_of_vertices": "4097560",
        "count_of_faces": "8195116",
        "bounding_box_in_cm": [
            9.7,
            9.0,
            4.1
        ],
        "area_in_cm2": "194.04",
        "volume_dx_in_cm3": "158.89",
        "volume_dy_in_cm3": "158.89",
        "volume_dz_in_cm3": "158.89",
        "processing_began_on": "Mon Dec 10 03:04:11 2018",
        "processing_finished_on": "Mon Dec 10 04:02:39 2018",
        "processing_wall_time_in_s": "3505"
    },
    "from_ply_filename": {
        "filename": "/export/data/vNGG/tmp/Hilprecht_Sammlung/04_MSII_filtered/HS_ALL_MSII_PLY/HS_1415_GMOCF_r1.50_n4_v512.ply",
        "hs_number": "HS 1415",
        "radius_in_mm": "1.50",
        "count_of_radii": 16,
        "rastersize": 512
    },
    "from_hilprecht3d": {
        "hs_number": "HS 1415",
        "tablet_url": "https://hilprecht.mpiwg-berlin.mpg.de/object3d/30683",
        "bibliography": ""
    },
    "from_gigamesh_info_program": {
        "filename": "HS_1415_GMOCF_r1.50_n4_v512",
        "model_id": "HS 1415",
        "model_material": "clay, original",
        "vertices_total": "4097560",
        "vertices_nan": "0",
        "vertices_solo": "0",
        "vertices_polyline": "0",
        "vertices_border": "0",
        "vertices_nonmanifold": "0",
        "vertices_on_inverted_edge": "0",
        "vertices_part_of_zero_face": "0",
        "vertices_synthetic": "4",
        "vertices_manual": "0",
        "vertices_circle_center": "0",
        "vertices_selected": "4",
        "vertices_funcval_finite": "4097560",
        "vertices_funcval_local_min": "100990",
        "vertices_funcval_local_max": "42734",
        "faces_total": "8195116",
        "faces_solo": "0",
        "faces_border": "0",
        "faces_border_dangling": "0",
        "faces_manifold": "8195116",
        "faces_nonmanifold": "0",
        "faces_sticky": "0",
        "faces_zeroarea": "0",
        "faces_inverted": "0",
        "faces_with_synth_vertices": "0",
        "boundingbox_min_x": "-48.431",
        "boundingbox_min_y": "0",
        "boundingbox_min_z": "-20.4632",
        "boundingbox_max_x": "48.431",
        "boundingbox_max_y": "89.6754",
        "boundingbox_max_z": "20.4632",
        "boundingbox_width": "9.7",
        "boundingbox_height": "9",
        "boundingbox_thick": "4.1",
        "total_area": "194.04",
        "total_volume_dx": "158891",
        "total_volume_dy": "158891",
        "total_volume_dz": "158891"
    }
}