{
    "from_gigamesh_info_file": {
        "filename": "HS_1228_GMOCF_r1.50_n4_v512.info.txt",
        "hs_number": "HS 1228",
        "radius_in_mm": "1.5",
        "count_of_radii": "16",
        "rastersize": "512^3",
        "gigamesh_version": "181204",
        "threads_used": "11",
        "input_filename": "HS_1228_GMOCF.ply",
        "output_filename": "HS_1228_GMOCF_r1.50_n4_v512",
        "radii": [
            1.0,
            0.94,
            0.88,
            0.81,
            0.75,
            0.69,
            0.62,
            0.56,
            0.5,
            0.44,
            0.38,
            0.31,
            0.25,
            0.19,
            0.12,
            0.06
        ],
        "model_id": "HS 1228",
        "material": "clay, original",
        "count_of_vertices": "814580",
        "count_of_faces": "1629156",
        "bounding_box_in_cm": [
            3.8,
            3.7,
            1.2
        ],
        "area_in_cm2": "33.86",
        "volume_dx_in_cm3": "10.45",
        "volume_dy_in_cm3": "10.45",
        "volume_dz_in_cm3": "10.45",
        "processing_began_on": "Wed Dec  5 04:39:45 2018",
        "processing_finished_on": "Wed Dec  5 05:18:55 2018",
        "processing_wall_time_in_s": "2350"
    },
    "from_ply_filename": {
        "filename": "/export/data/vNGG/tmp/Hilprecht_Sammlung/04_MSII_filtered/HS_ALL_MSII_PLY/HS_1228_GMOCF_r1.50_n4_v512.ply",
        "hs_number": "HS 1228",
        "radius_in_mm": "1.50",
        "count_of_radii": 16,
        "rastersize": 512
    },
    "from_hilprecht3d": {
        "hs_number": "HS 1228",
        "tablet_url": "https://hilprecht.mpiwg-berlin.mpg.de/object3d/30487",
        "bibliography": "1937: TMH NF 1-2, 228",
        "cdli_number": "134539"
    },
    "from_cdli_search_view": {
        "archival_view": "https://cdli.ucla.edu/search/archival_view.php?ObjectID=P134539",
        "primary_publication": "TMH NF 1-2, 228",
        "author": "Pohl, Alfred",
        "publication_date": "1937",
        "secondary_publication": "Frayne, Douglas R., RIME 3/2.01.03.x2004, ex. 003",
        "collection": "Hilprecht Collection, University of Jena, Germany",
        "museum_number": "HS 1228",
        "accession_number": "",
        "provenience": "Nippur (mod. Nuffar)",
        "excavation_number": "",
        "period": "Ur III (ca. 2100-2000 BC)",
        "dates_referenced": "Amar-Suen.09.12.07",
        "object_type": "tablet",
        "remarks": "",
        "material": "clay",
        "language": "Sumerian",
        "genre": "Administrative",
        "sub_genre": "",
        "cdli_comments": "",
        "catalogue_source": "20011220 ur3_catalogue",
        "atf_source": "cdlistaff",
        "translation": "no translation",
        "ucla_library_ark": "21198/zz001z1bsg",
        "composite_number": "",
        "seal_number": "S005819",
        "cdli_number": "P134539"
    },
    "from_cdli_archival_view": {
        "primary_publication": "TMH NF 1-2, 228",
        "author": "Pohl, Alfred",
        "publication_date": "1937",
        "secondary_publications": "Frayne, Douglas R., RIME 3/2.01.03.x2004, ex. 003",
        "citation": "",
        "author_remarks": "",
        "published_collation": "",
        "cdli_number": "P134539",
        "ucla_library_ark": "21198/zz001z1bsg",
        "cdli_comments": "",
        "catalogue": "20011220 ur3_catalogue",
        "transliteration_remarks": "cdlistaff",
        "translation_remarks": "no translation",
        "owner": "Hilprecht Collection, University of Jena, Germany",
        "museum_number": "HS 1228",
        "accession_number": "",
        "acquisition_history": "",
        "genre": "Administrative",
        "sub_genre": "",
        "sub_genre_remarks": "",
        "composite_number": "",
        "language": "Sumerian",
        "material": "clay",
        "object_remarks": "",
        "measurements_in_mm": "? x ? x ?",
        "object_preservation": "",
        "surface_preservation": "",
        "condition_description": "",
        "join_information": "",
        "seal_number": "S005819",
        "seal_information": "",
        "provenience": "Nippur (mod. Nuffar)",
        "excavation_number": "",
        "findspot_square": "",
        "elevation": "",
        "stratigraphic_level": "",
        "findspot_remarks": "",
        "period": "Ur III (ca. 2100-2000 BC)",
        "period_remarks": "",
        "date_of_origin": "Amar-Suen.09.12.07",
        "dates_referenced": "Amar-Suen.09.12.07",
        "alternative_years": "",
        "accounting_period": "",
        "textual_content": "@Tablet\n@obverse \n1. 2(u) 5(disz) tug2 hi-a \n2. ki-la2-bi 1(asz) gu2 8(disz) \n3. 1/3(disz) ma-na 8(disz) gin2 siki \n4. ki um-mi-t,a-bat5-ta \n@reverse \n1. mu-kux(DU) iti sze-sag11#-ku5# \n2. u4 5(disz) ba-zal \n$ blank space \n3. mu en ga-esz5{ki} ba-hun \n@seal 1 \ncolumn 1 \n1. lugal-me-lam2 \n2. ensi2 \n3. nibru{ki} \ncolumn 2 \n1. lugal-ma2-gur8-re \n2. dub-sar \n3. ARAD2-zu ",
        "lineart_url": "https://cdli.ucla.edu/dl/tn_lineart/P134539_l.jpg",
        "photo_url": "https://cdli.ucla.edu/dl/tn_photo/P134539.jpg"
    },
    "from_gigamesh_info_program": {
        "filename": "HS_1228_GMOCF_r1.50_n4_v512",
        "model_id": "HS 1228",
        "model_material": "clay, original",
        "vertices_total": "814580",
        "vertices_nan": "0",
        "vertices_solo": "0",
        "vertices_polyline": "0",
        "vertices_border": "0",
        "vertices_nonmanifold": "0",
        "vertices_on_inverted_edge": "0",
        "vertices_part_of_zero_face": "0",
        "vertices_synthetic": "0",
        "vertices_manual": "0",
        "vertices_circle_center": "0",
        "vertices_selected": "0",
        "vertices_funcval_finite": "814580",
        "vertices_funcval_local_min": "19529",
        "vertices_funcval_local_max": "10944",
        "faces_total": "1629156",
        "faces_solo": "0",
        "faces_border": "0",
        "faces_border_dangling": "0",
        "faces_manifold": "1629156",
        "faces_nonmanifold": "0",
        "faces_sticky": "0",
        "faces_zeroarea": "0",
        "faces_inverted": "0",
        "faces_with_synth_vertices": "0",
        "boundingbox_min_x": "-18.9423",
        "boundingbox_min_y": "0",
        "boundingbox_min_z": "-5.9485",
        "boundingbox_max_x": "18.9423",
        "boundingbox_max_y": "36.8737",
        "boundingbox_max_z": "5.9485",
        "boundingbox_width": "3.8",
        "boundingbox_height": "3.7",
        "boundingbox_thick": "1.2",
        "total_area": "33.86",
        "total_volume_dx": "10453.2",
        "total_volume_dy": "10453.2",
        "total_volume_dz": "10453.2"
    }
}