{
    "from_gigamesh_info_file": {
        "filename": "HS_1411_GMOCF_r1.50_n4_v512.info.txt",
        "hs_number": "HS 1411",
        "radius_in_mm": "1.5",
        "count_of_radii": "16",
        "rastersize": "512^3",
        "input_filename": "HS_1411_GMOCF.ply",
        "output_filename": "HS_1411_GMOCF_r1.50_n4_v512",
        "radii": [
            1.0,
            0.94,
            0.88,
            0.81,
            0.75,
            0.69,
            0.62,
            0.56,
            0.5,
            0.44,
            0.38,
            0.31,
            0.25,
            0.19,
            0.12,
            0.06
        ],
        "model_id": "HS 1411",
        "material": "clay, original",
        "count_of_vertices": "1807811",
        "count_of_faces": "3615618",
        "bounding_box_in_cm": [
            6.2,
            5.6,
            2.4
        ],
        "area_in_cm2": "74.86",
        "volume_dx_in_cm3": "39.14",
        "volume_dy_in_cm3": "39.14",
        "volume_dz_in_cm3": "39.14",
        "processing_began_on": "Sat Dec  8 07:31:03 2018",
        "processing_finished_on": "Sat Dec  8 08:00:10 2018",
        "processing_wall_time_in_s": "1745"
    },
    "from_ply_filename": {
        "filename": "/export/data/vNGG/tmp/Hilprecht_Sammlung/04_MSII_filtered/HS_ALL_MSII_PLY/HS_1411_GMOCF_r1.50_n4_v512.ply",
        "hs_number": "HS 1411",
        "radius_in_mm": "1.50",
        "count_of_radii": 16,
        "rastersize": 512
    },
    "from_hilprecht3d": {
        "hs_number": "HS 1411",
        "tablet_url": "https://hilprecht.mpiwg-berlin.mpg.de/object3d/30679",
        "bibliography": ""
    },
    "from_gigamesh_info_program": {
        "filename": "HS_1411_GMOCF_r1.50_n4_v512",
        "model_id": "HS 1411",
        "model_material": "clay, original",
        "vertices_total": "1807811",
        "vertices_nan": "0",
        "vertices_solo": "0",
        "vertices_polyline": "0",
        "vertices_border": "0",
        "vertices_nonmanifold": "0",
        "vertices_on_inverted_edge": "0",
        "vertices_part_of_zero_face": "0",
        "vertices_synthetic": "4",
        "vertices_manual": "0",
        "vertices_circle_center": "0",
        "vertices_selected": "0",
        "vertices_funcval_finite": "1807811",
        "vertices_funcval_local_min": "36859",
        "vertices_funcval_local_max": "16428",
        "faces_total": "3615618",
        "faces_solo": "0",
        "faces_border": "0",
        "faces_border_dangling": "0",
        "faces_manifold": "3615618",
        "faces_nonmanifold": "0",
        "faces_sticky": "0",
        "faces_zeroarea": "0",
        "faces_inverted": "0",
        "faces_with_synth_vertices": "0",
        "boundingbox_min_x": "-30.7614",
        "boundingbox_min_y": "0",
        "boundingbox_min_z": "-11.9776",
        "boundingbox_max_x": "30.7614",
        "boundingbox_max_y": "56.1135",
        "boundingbox_max_z": "11.9776",
        "boundingbox_width": "6.2",
        "boundingbox_height": "5.6",
        "boundingbox_thick": "2.4",
        "total_area": "74.86",
        "total_volume_dx": "39140.6",
        "total_volume_dy": "39140.6",
        "total_volume_dz": "39140.6"
    }
}