{
    "from_gigamesh_info_file": {
        "filename": "HS_2672_GMOCF_r1.50_n4_v512.info.txt",
        "hs_number": "HS 2672",
        "radius_in_mm": "1.5",
        "count_of_radii": "16",
        "rastersize": "512^3",
        "input_filename": "HS_2672_GMOCF.ply",
        "output_filename": "HS_2672_GMOCF_r1.50_n4_v512",
        "radii": [
            1.0,
            0.94,
            0.88,
            0.81,
            0.75,
            0.69,
            0.62,
            0.56,
            0.5,
            0.44,
            0.38,
            0.31,
            0.25,
            0.19,
            0.12,
            0.06
        ],
        "model_id": "HS 2672",
        "material": "clay, original",
        "count_of_vertices": "242342",
        "count_of_faces": "484680",
        "bounding_box_in_cm": [
            2.1,
            3.6,
            2.4
        ],
        "area_in_cm2": "25.74",
        "volume_dx_in_cm3": "8.20",
        "volume_dy_in_cm3": "8.20",
        "volume_dz_in_cm3": "8.20",
        "processing_began_on": "Thu Dec 13 00:36:42 2018",
        "processing_finished_on": "Thu Dec 13 00:39:56 2018",
        "processing_wall_time_in_s": "193"
    },
    "from_ply_filename": {
        "filename": "/export/data/vNGG/tmp/Hilprecht_Sammlung/04_MSII_filtered/HS_ALL_MSII_PLY/HS_2672_GMOCF_r1.50_n4_v512.ply",
        "hs_number": "HS 2672",
        "radius_in_mm": "1.50",
        "count_of_radii": 16,
        "rastersize": 512
    },
    "from_hilprecht3d": {
        "hs_number": "HS 2672",
        "tablet_url": "https://hilprecht.mpiwg-berlin.mpg.de/object3d/31672",
        "bibliography": ""
    },
    "from_gigamesh_info_program": {
        "filename": "HS_2672_GMOCF_r1.50_n4_v512",
        "model_id": "HS 2672",
        "model_material": "clay, original",
        "vertices_total": "242342",
        "vertices_nan": "0",
        "vertices_solo": "0",
        "vertices_polyline": "0",
        "vertices_border": "0",
        "vertices_nonmanifold": "0",
        "vertices_on_inverted_edge": "0",
        "vertices_part_of_zero_face": "0",
        "vertices_synthetic": "0",
        "vertices_manual": "0",
        "vertices_circle_center": "0",
        "vertices_selected": "0",
        "vertices_funcval_finite": "242342",
        "vertices_funcval_local_min": "6654",
        "vertices_funcval_local_max": "3886",
        "faces_total": "484680",
        "faces_solo": "0",
        "faces_border": "0",
        "faces_border_dangling": "0",
        "faces_manifold": "484680",
        "faces_nonmanifold": "0",
        "faces_sticky": "0",
        "faces_zeroarea": "0",
        "faces_inverted": "0",
        "faces_with_synth_vertices": "0",
        "boundingbox_min_x": "-10.4401",
        "boundingbox_min_y": "0",
        "boundingbox_min_z": "-12.1876",
        "boundingbox_max_x": "10.4401",
        "boundingbox_max_y": "35.7274",
        "boundingbox_max_z": "12.1876",
        "boundingbox_width": "2.1",
        "boundingbox_height": "3.6",
        "boundingbox_thick": "2.4",
        "total_area": "25.74",
        "total_volume_dx": "8198.39",
        "total_volume_dy": "8198.39",
        "total_volume_dz": "8198.39"
    }
}