{
    "from_gigamesh_info_file": {
        "filename": "HS_2366_GMOCF_r1.50_n4_v512.info.txt",
        "hs_number": "HS 2366",
        "radius_in_mm": "1.5",
        "count_of_radii": "16",
        "rastersize": "512^3",
        "gigamesh_version": "181204",
        "threads_used": "11",
        "input_filename": "HS_2366_GMOCF.ply",
        "output_filename": "HS_2366_GMOCF_r1.50_n4_v512",
        "radii": [
            1.0,
            0.94,
            0.88,
            0.81,
            0.75,
            0.69,
            0.62,
            0.56,
            0.5,
            0.44,
            0.38,
            0.31,
            0.25,
            0.19,
            0.12,
            0.06
        ],
        "model_id": "HS 2366",
        "material": "clay, original",
        "count_of_vertices": "1986308",
        "count_of_faces": "3972612",
        "bounding_box_in_cm": [
            4.9,
            6.7,
            2.3
        ],
        "area_in_cm2": "85.84",
        "volume_dx_in_cm3": "45.10",
        "volume_dy_in_cm3": "45.10",
        "volume_dz_in_cm3": "45.10",
        "processing_began_on": "Sun Dec  9 17:40:44 2018",
        "processing_finished_on": "Sun Dec  9 19:12:46 2018",
        "processing_wall_time_in_s": "5521"
    },
    "from_ply_filename": {
        "filename": "/export/data/vNGG/tmp/Hilprecht_Sammlung/04_MSII_filtered/HS_ALL_MSII_PLY/HS_2366_GMOCF_r1.50_n4_v512.ply",
        "hs_number": "HS 2366",
        "radius_in_mm": "1.50",
        "count_of_radii": 16,
        "rastersize": 512
    },
    "from_hilprecht3d": {
        "hs_number": "HS 2366",
        "tablet_url": "https://hilprecht.mpiwg-berlin.mpg.de/object3d/31399",
        "bibliography": "2016: TMH 10,"
    },
    "from_cdli_search_view": {
        "archival_view": "https://cdli.ucla.edu/search/archival_view.php?ObjectID=P512668",
        "primary_publication": "TMH 10, 139",
        "author": "Goddeeris, Anne",
        "publication_date": "2016",
        "secondary_publication": "",
        "collection": "Hilprecht Collection, University of Jena, Germany",
        "museum_number": "HS 2366",
        "accession_number": "",
        "provenience": "Nippur (mod. Nuffar)",
        "excavation_number": "",
        "period": "Old Babylonian (ca. 1900-1600 BC)",
        "dates_referenced": "",
        "object_type": "tablet",
        "remarks": "",
        "material": "clay",
        "language": "Sumerian",
        "genre": "Administrative",
        "sub_genre": "",
        "cdli_comments": "",
        "catalogue_source": "jagersma",
        "atf_source": "no atf",
        "translation": "no translation",
        "ucla_library_ark": "",
        "composite_number": "",
        "seal_number": "",
        "cdli_number": "P512668"
    },
    "from_cdli_archival_view": {
        "primary_publication": "TMH 10, 139",
        "author": "Goddeeris, Anne",
        "publication_date": "2016",
        "secondary_publications": "",
        "citation": "",
        "author_remarks": "",
        "published_collation": "",
        "cdli_number": "P512668",
        "ucla_library_ark": "",
        "cdli_comments": "",
        "catalogue": "jagersma",
        "transliteration_remarks": "no atf",
        "translation_remarks": "no translation",
        "owner": "Hilprecht Collection, University of Jena, Germany",
        "museum_number": "HS 2366",
        "accession_number": "",
        "acquisition_history": "",
        "genre": "Administrative",
        "sub_genre": "",
        "sub_genre_remarks": "",
        "composite_number": "",
        "language": "Sumerian",
        "material": "clay",
        "object_remarks": "",
        "measurements_in_mm": "x  x",
        "object_preservation": "",
        "surface_preservation": "",
        "condition_description": "",
        "join_information": "",
        "seal_number": "",
        "seal_information": "",
        "provenience": "Nippur (mod. Nuffar)",
        "excavation_number": "",
        "findspot_square": "",
        "elevation": "",
        "stratigraphic_level": "",
        "findspot_remarks": "",
        "period": "Old Babylonian (ca. 1900-1600 BC)",
        "period_remarks": "",
        "date_of_origin": "",
        "dates_referenced": "",
        "alternative_years": "",
        "accounting_period": "",
        "textual_content": "@Tablet"
    },
    "from_gigamesh_info_program": {
        "filename": "HS_2366_GMOCF_r1.50_n4_v512",
        "model_id": "HS 2366",
        "model_material": "clay, original",
        "vertices_total": "1986308",
        "vertices_nan": "0",
        "vertices_solo": "0",
        "vertices_polyline": "0",
        "vertices_border": "0",
        "vertices_nonmanifold": "0",
        "vertices_on_inverted_edge": "0",
        "vertices_part_of_zero_face": "0",
        "vertices_synthetic": "0",
        "vertices_manual": "0",
        "vertices_circle_center": "0",
        "vertices_selected": "0",
        "vertices_funcval_finite": "1986308",
        "vertices_funcval_local_min": "41524",
        "vertices_funcval_local_max": "17447",
        "faces_total": "3972612",
        "faces_solo": "0",
        "faces_border": "0",
        "faces_border_dangling": "0",
        "faces_manifold": "3972612",
        "faces_nonmanifold": "0",
        "faces_sticky": "0",
        "faces_zeroarea": "0",
        "faces_inverted": "0",
        "faces_with_synth_vertices": "0",
        "boundingbox_min_x": "-24.4213",
        "boundingbox_min_y": "0",
        "boundingbox_min_z": "-11.4367",
        "boundingbox_max_x": "24.4213",
        "boundingbox_max_y": "67.1853",
        "boundingbox_max_z": "11.4367",
        "boundingbox_width": "4.9",
        "boundingbox_height": "6.7",
        "boundingbox_thick": "2.3",
        "total_area": "85.84",
        "total_volume_dx": "45104.2",
        "total_volume_dy": "45104.2",
        "total_volume_dz": "45104.2"
    }
}