{
    "from_gigamesh_info_file": {
        "filename": "HS_2123_GMOCF_r1.50_n4_v512.info.txt",
        "hs_number": "HS 2123",
        "radius_in_mm": "1.5",
        "count_of_radii": "16",
        "rastersize": "512^3",
        "gigamesh_version": "181005",
        "threads_used": "7",
        "input_filename": "HS_2123_GMOCF.ply",
        "output_filename": "HS_2123_GMOCF_r1.50_n4_v512",
        "radii": [
            1.0,
            0.94,
            0.88,
            0.81,
            0.75,
            0.69,
            0.62,
            0.56,
            0.5,
            0.44,
            0.38,
            0.31,
            0.25,
            0.19,
            0.12,
            0.06
        ],
        "model_id": "HS 2123",
        "material": "clay, original",
        "count_of_vertices": "1221741",
        "count_of_faces": "2443478",
        "bounding_box_in_cm": [
            5.0,
            4.1,
            1.9
        ],
        "area_in_cm2": "53.09",
        "volume_dx_in_cm3": "23.12",
        "volume_dy_in_cm3": "23.12",
        "volume_dz_in_cm3": "23.12",
        "processing_began_on": "Sat Dec  8 23:11:46 2018",
        "processing_finished_on": "Sun Dec  9 02:07:39 2018",
        "processing_wall_time_in_s": "10553"
    },
    "from_ply_filename": {
        "filename": "/export/data/vNGG/tmp/Hilprecht_Sammlung/04_MSII_filtered/HS_ALL_MSII_PLY/HS_2123_GMOCF_r1.50_n4_v512.ply",
        "hs_number": "HS 2123",
        "radius_in_mm": "1.50",
        "count_of_radii": 16,
        "rastersize": 512
    },
    "from_hilprecht3d": {
        "hs_number": "HS 2123",
        "tablet_url": "https://hilprecht.mpiwg-berlin.mpg.de/object3d/31209",
        "bibliography": ""
    },
    "from_gigamesh_info_program": {
        "filename": "HS_2123_GMOCF_r1.50_n4_v512",
        "model_id": "HS 2123",
        "model_material": "clay, original",
        "vertices_total": "1221741",
        "vertices_nan": "0",
        "vertices_solo": "0",
        "vertices_polyline": "0",
        "vertices_border": "0",
        "vertices_nonmanifold": "0",
        "vertices_on_inverted_edge": "0",
        "vertices_part_of_zero_face": "0",
        "vertices_synthetic": "0",
        "vertices_manual": "0",
        "vertices_circle_center": "0",
        "vertices_selected": "0",
        "vertices_funcval_finite": "1221741",
        "vertices_funcval_local_min": "27318",
        "vertices_funcval_local_max": "10987",
        "faces_total": "2443478",
        "faces_solo": "0",
        "faces_border": "0",
        "faces_border_dangling": "0",
        "faces_manifold": "2443478",
        "faces_nonmanifold": "0",
        "faces_sticky": "0",
        "faces_zeroarea": "0",
        "faces_inverted": "0",
        "faces_with_synth_vertices": "0",
        "boundingbox_min_x": "-25.2024",
        "boundingbox_min_y": "0",
        "boundingbox_min_z": "-9.4646",
        "boundingbox_max_x": "25.2024",
        "boundingbox_max_y": "40.8056",
        "boundingbox_max_z": "9.4646",
        "boundingbox_width": "5",
        "boundingbox_height": "4.1",
        "boundingbox_thick": "1.9",
        "total_area": "53.09",
        "total_volume_dx": "23124.9",
        "total_volume_dy": "23124.9",
        "total_volume_dz": "23124.9"
    }
}