{
    "from_gigamesh_info_file": {
        "filename": "HS_2072_GMOCF_r1.50_n4_v512.info.txt",
        "hs_number": "HS 2072",
        "radius_in_mm": "1.5",
        "count_of_radii": "16",
        "rastersize": "512^3",
        "input_filename": "HS_2072_GMOCF.ply",
        "output_filename": "HS_2072_GMOCF_r1.50_n4_v512",
        "radii": [
            1.0,
            0.94,
            0.88,
            0.81,
            0.75,
            0.69,
            0.62,
            0.56,
            0.5,
            0.44,
            0.38,
            0.31,
            0.25,
            0.19,
            0.12,
            0.06
        ],
        "model_id": "HS 2072",
        "material": "clay, original",
        "count_of_vertices": "2275821",
        "count_of_faces": "4551638",
        "bounding_box_in_cm": [
            4.3,
            7.3,
            2.6
        ],
        "area_in_cm2": "98.42",
        "volume_dx_in_cm3": "54.04",
        "volume_dy_in_cm3": "54.04",
        "volume_dz_in_cm3": "54.04",
        "processing_began_on": "Sat Dec 15 14:17:16 2018",
        "processing_finished_on": "Sat Dec 15 14:51:37 2018",
        "processing_wall_time_in_s": "2060"
    },
    "from_ply_filename": {
        "filename": "/export/data/vNGG/tmp/Hilprecht_Sammlung/04_MSII_filtered/HS_ALL_MSII_PLY/HS_2072_GMOCF_r1.50_n4_v512.ply",
        "hs_number": "HS 2072",
        "radius_in_mm": "1.50",
        "count_of_radii": 16,
        "rastersize": 512
    },
    "from_hilprecht3d": {
        "hs_number": "HS 2072",
        "tablet_url": "https://hilprecht.mpiwg-berlin.mpg.de/object3d/31168",
        "bibliography": "2016: TMH 10,"
    },
    "from_gigamesh_info_program": {
        "filename": "HS_2072_GMOCF_r1.50_n4_v512",
        "model_id": "HS 2072",
        "model_material": "clay, original",
        "vertices_total": "2275821",
        "vertices_nan": "0",
        "vertices_solo": "0",
        "vertices_polyline": "0",
        "vertices_border": "0",
        "vertices_nonmanifold": "0",
        "vertices_on_inverted_edge": "0",
        "vertices_part_of_zero_face": "0",
        "vertices_synthetic": "1",
        "vertices_manual": "0",
        "vertices_circle_center": "0",
        "vertices_selected": "0",
        "vertices_funcval_finite": "2275821",
        "vertices_funcval_local_min": "44496",
        "vertices_funcval_local_max": "18023",
        "faces_total": "4551638",
        "faces_solo": "0",
        "faces_border": "0",
        "faces_border_dangling": "0",
        "faces_manifold": "4551638",
        "faces_nonmanifold": "0",
        "faces_sticky": "0",
        "faces_zeroarea": "0",
        "faces_inverted": "0",
        "faces_with_synth_vertices": "0",
        "boundingbox_min_x": "-21.5542",
        "boundingbox_min_y": "0",
        "boundingbox_min_z": "-12.8344",
        "boundingbox_max_x": "21.5542",
        "boundingbox_max_y": "72.5181",
        "boundingbox_max_z": "12.8344",
        "boundingbox_width": "4.3",
        "boundingbox_height": "7.3",
        "boundingbox_thick": "2.6",
        "total_area": "98.42",
        "total_volume_dx": "54042.4",
        "total_volume_dy": "54042.4",
        "total_volume_dz": "54042.4"
    }
}