{
    "from_gigamesh_info_file": {
        "filename": "HS_296_GMOCF_r1.50_n4_v512.info.txt",
        "hs_number": "HS 296",
        "radius_in_mm": "1.5",
        "count_of_radii": "16",
        "rastersize": "512^3",
        "input_filename": "HS_296_GMOCF.ply",
        "output_filename": "HS_296_GMOCF_r1.50_n4_v512",
        "radii": [
            1.0,
            0.94,
            0.88,
            0.81,
            0.75,
            0.69,
            0.62,
            0.56,
            0.5,
            0.44,
            0.38,
            0.31,
            0.25,
            0.19,
            0.12,
            0.06
        ],
        "model_id": "HS 296",
        "material": "clay, original",
        "count_of_vertices": "157257",
        "count_of_faces": "314510",
        "bounding_box_in_cm": [
            4.4,
            4.6,
            2.2
        ],
        "area_in_cm2": "48.74",
        "volume_dx_in_cm3": "17.99",
        "volume_dy_in_cm3": "17.99",
        "volume_dz_in_cm3": "17.99",
        "processing_began_on": "Wed Dec 12 14:28:12 2018",
        "processing_finished_on": "Wed Dec 12 14:29:21 2018",
        "processing_wall_time_in_s": "68"
    },
    "from_ply_filename": {
        "filename": "/export/data/vNGG/tmp/Hilprecht_Sammlung/04_MSII_filtered/HS_ALL_MSII_PLY/HS_296_GMOCF_r1.50_n4_v512.ply",
        "hs_number": "HS 296",
        "radius_in_mm": "1.50",
        "count_of_radii": 16,
        "rastersize": 512
    },
    "from_hilprecht3d": {
        "hs_number": "HS 0296",
        "tablet_url": "https://hilprecht.mpiwg-berlin.mpg.de/object3d/32153",
        "bibliography": "1932: TMH 1, Tf. 24a"
    },
    "from_gigamesh_info_program": {
        "filename": "HS_296_GMOCF_r1.50_n4_v512",
        "model_id": "HS 296",
        "model_material": "clay, original",
        "vertices_total": "157257",
        "vertices_nan": "0",
        "vertices_solo": "0",
        "vertices_polyline": "0",
        "vertices_border": "0",
        "vertices_nonmanifold": "0",
        "vertices_on_inverted_edge": "0",
        "vertices_part_of_zero_face": "0",
        "vertices_synthetic": "0",
        "vertices_manual": "0",
        "vertices_circle_center": "0",
        "vertices_selected": "0",
        "vertices_funcval_finite": "157257",
        "vertices_funcval_local_min": "6485",
        "vertices_funcval_local_max": "2617",
        "faces_total": "314510",
        "faces_solo": "0",
        "faces_border": "0",
        "faces_border_dangling": "0",
        "faces_manifold": "314510",
        "faces_nonmanifold": "0",
        "faces_sticky": "0",
        "faces_zeroarea": "0",
        "faces_inverted": "0",
        "faces_with_synth_vertices": "0",
        "boundingbox_min_x": "-22.1269",
        "boundingbox_min_y": "0",
        "boundingbox_min_z": "-10.9853",
        "boundingbox_max_x": "22.1269",
        "boundingbox_max_y": "45.7959",
        "boundingbox_max_z": "10.9853",
        "boundingbox_width": "4.4",
        "boundingbox_height": "4.6",
        "boundingbox_thick": "2.2",
        "total_area": "48.74",
        "total_volume_dx": "17992.4",
        "total_volume_dy": "17992.4",
        "total_volume_dz": "17992.4"
    }
}