{
    "from_gigamesh_info_file": {
        "filename": "HS_2384_GMOCF_r1.50_n4_v512.info.txt",
        "hs_number": "HS 2384",
        "radius_in_mm": "1.5",
        "count_of_radii": "16",
        "rastersize": "512^3",
        "gigamesh_version": "181204",
        "threads_used": "11",
        "input_filename": "HS_2384_GMOCF.ply",
        "output_filename": "HS_2384_GMOCF_r1.50_n4_v512",
        "radii": [
            1.0,
            0.94,
            0.88,
            0.81,
            0.75,
            0.69,
            0.62,
            0.56,
            0.5,
            0.44,
            0.38,
            0.31,
            0.25,
            0.19,
            0.12,
            0.06
        ],
        "model_id": "HS 2384",
        "material": "clay, original",
        "count_of_vertices": "2440542",
        "count_of_faces": "4881080",
        "bounding_box_in_cm": [
            5.5,
            7.8,
            3.0
        ],
        "area_in_cm2": "130.50",
        "volume_dx_in_cm3": "82.27",
        "volume_dy_in_cm3": "82.27",
        "volume_dz_in_cm3": "82.27",
        "processing_began_on": "Mon Dec 10 20:45:42 2018",
        "processing_finished_on": "Mon Dec 10 22:27:05 2018",
        "processing_wall_time_in_s": "6082"
    },
    "from_ply_filename": {
        "filename": "/export/data/vNGG/tmp/Hilprecht_Sammlung/04_MSII_filtered/HS_ALL_MSII_PLY/HS_2384_GMOCF_r1.50_n4_v512.ply",
        "hs_number": "HS 2384",
        "radius_in_mm": "1.50",
        "count_of_radii": 16,
        "rastersize": 512
    },
    "from_hilprecht3d": {
        "hs_number": "HS 2384",
        "tablet_url": "https://hilprecht.mpiwg-berlin.mpg.de/object3d/31419",
        "bibliography": ""
    },
    "from_gigamesh_info_program": {
        "filename": "HS_2384_GMOCF_r1.50_n4_v512",
        "model_id": "HS 2384",
        "model_material": "clay, original",
        "vertices_total": "2440542",
        "vertices_nan": "0",
        "vertices_solo": "0",
        "vertices_polyline": "0",
        "vertices_border": "0",
        "vertices_nonmanifold": "0",
        "vertices_on_inverted_edge": "0",
        "vertices_part_of_zero_face": "0",
        "vertices_synthetic": "0",
        "vertices_manual": "0",
        "vertices_circle_center": "0",
        "vertices_selected": "0",
        "vertices_funcval_finite": "2440542",
        "vertices_funcval_local_min": "48113",
        "vertices_funcval_local_max": "24319",
        "faces_total": "4881080",
        "faces_solo": "0",
        "faces_border": "0",
        "faces_border_dangling": "0",
        "faces_manifold": "4881080",
        "faces_nonmanifold": "0",
        "faces_sticky": "0",
        "faces_zeroarea": "0",
        "faces_inverted": "0",
        "faces_with_synth_vertices": "0",
        "boundingbox_min_x": "-27.3475",
        "boundingbox_min_y": "0",
        "boundingbox_min_z": "-14.8538",
        "boundingbox_max_x": "27.3475",
        "boundingbox_max_y": "78.0378",
        "boundingbox_max_z": "14.8538",
        "boundingbox_width": "5.5",
        "boundingbox_height": "7.8",
        "boundingbox_thick": "3",
        "total_area": "130.5",
        "total_volume_dx": "82267.3",
        "total_volume_dy": "82267.3",
        "total_volume_dz": "82267.3"
    }
}