{
    "from_gigamesh_info_file": {
        "filename": "HS_2363_GMOCF_r1.50_n4_v512.info.txt",
        "hs_number": "HS 2363",
        "radius_in_mm": "1.5",
        "count_of_radii": "16",
        "rastersize": "512^3",
        "gigamesh_version": "181204",
        "threads_used": "11",
        "input_filename": "HS_2363_GMOCF.ply",
        "output_filename": "HS_2363_GMOCF_r1.50_n4_v512",
        "radii": [
            1.0,
            0.94,
            0.88,
            0.81,
            0.75,
            0.69,
            0.62,
            0.56,
            0.5,
            0.44,
            0.38,
            0.31,
            0.25,
            0.19,
            0.12,
            0.06
        ],
        "model_id": "HS 2363",
        "material": "clay, original",
        "count_of_vertices": "481420",
        "count_of_faces": "962836",
        "bounding_box_in_cm": [
            5.1,
            7.8,
            2.4
        ],
        "area_in_cm2": "114.10",
        "volume_dx_in_cm3": "63.55",
        "volume_dy_in_cm3": "63.55",
        "volume_dz_in_cm3": "63.55",
        "processing_began_on": "Mon Dec 10 04:09:47 2018",
        "processing_finished_on": "Mon Dec 10 04:19:25 2018",
        "processing_wall_time_in_s": "578"
    },
    "from_ply_filename": {
        "filename": "/export/data/vNGG/tmp/Hilprecht_Sammlung/04_MSII_filtered/HS_ALL_MSII_PLY/HS_2363_GMOCF_r1.50_n4_v512.ply",
        "hs_number": "HS 2363",
        "radius_in_mm": "1.50",
        "count_of_radii": 16,
        "rastersize": 512
    },
    "from_hilprecht3d": {
        "hs_number": "HS 2363",
        "tablet_url": "https://hilprecht.mpiwg-berlin.mpg.de/object3d/31393",
        "bibliography": "2016: TMH 10,"
    },
    "from_cdli_search_view": {
        "archival_view": "https://cdli.ucla.edu/search/archival_view.php?ObjectID=P504401",
        "primary_publication": "TMH 10, 007b",
        "author": "Goddeeris, Anne",
        "publication_date": "2016",
        "secondary_publication": "",
        "collection": "Hilprecht Collection, University of Jena, Germany",
        "museum_number": "HS 2363",
        "accession_number": "",
        "provenience": "Nippur (mod. Nuffar)",
        "excavation_number": "",
        "period": "Old Babylonian (ca. 1900-1600 BC)",
        "dates_referenced": "Rim-Sin.57.11.00",
        "object_type": "tablet",
        "remarks": "",
        "material": "clay",
        "language": "",
        "genre": "Legal",
        "sub_genre": "adoption contract",
        "cdli_comments": "",
        "catalogue_source": "20171108 firth",
        "atf_source": "no atf",
        "translation": "no translation",
        "ucla_library_ark": "",
        "composite_number": "",
        "seal_number": "Sx",
        "cdli_number": "P504401"
    },
    "from_cdli_archival_view": {
        "primary_publication": "TMH 10, 007b",
        "author": "Goddeeris, Anne",
        "publication_date": "2016",
        "secondary_publications": "",
        "citation": "",
        "author_remarks": "cf. TMH 007a, 007c",
        "published_collation": "",
        "cdli_number": "P504401",
        "ucla_library_ark": "",
        "cdli_comments": "",
        "catalogue": "20171108 firth",
        "transliteration_remarks": "no atf",
        "translation_remarks": "no translation",
        "owner": "Hilprecht Collection, University of Jena, Germany",
        "museum_number": "HS 2363",
        "accession_number": "",
        "acquisition_history": "",
        "genre": "Legal",
        "sub_genre": "adoption contract",
        "sub_genre_remarks": "",
        "composite_number": "",
        "language": "",
        "material": "clay",
        "object_remarks": "",
        "measurements_in_mm": "78 x 47 x 24",
        "object_preservation": "complete",
        "surface_preservation": "",
        "condition_description": "",
        "join_information": "",
        "seal_number": "Sx",
        "seal_information": "bur-gul seal",
        "provenience": "Nippur (mod. Nuffar)",
        "excavation_number": "",
        "findspot_square": "",
        "elevation": "",
        "stratigraphic_level": "",
        "findspot_remarks": "",
        "period": "Old Babylonian (ca. 1900-1600 BC)",
        "period_remarks": "",
        "date_of_origin": "Rim-Sin.57.11.00",
        "dates_referenced": "Rim-Sin.57.11.00",
        "alternative_years": "",
        "accounting_period": "",
        "textual_content": "@Tablet"
    },
    "from_gigamesh_info_program": {
        "filename": "HS_2363_GMOCF_r1.50_n4_v512",
        "model_id": "HS 2363",
        "model_material": "clay, original",
        "vertices_total": "481420",
        "vertices_nan": "0",
        "vertices_solo": "0",
        "vertices_polyline": "0",
        "vertices_border": "0",
        "vertices_nonmanifold": "0",
        "vertices_on_inverted_edge": "0",
        "vertices_part_of_zero_face": "0",
        "vertices_synthetic": "0",
        "vertices_manual": "0",
        "vertices_circle_center": "0",
        "vertices_selected": "0",
        "vertices_funcval_finite": "481420",
        "vertices_funcval_local_min": "17085",
        "vertices_funcval_local_max": "6872",
        "faces_total": "962836",
        "faces_solo": "0",
        "faces_border": "0",
        "faces_border_dangling": "0",
        "faces_manifold": "962836",
        "faces_nonmanifold": "0",
        "faces_sticky": "0",
        "faces_zeroarea": "0",
        "faces_inverted": "0",
        "faces_with_synth_vertices": "0",
        "boundingbox_min_x": "-25.5568",
        "boundingbox_min_y": "0",
        "boundingbox_min_z": "-12.1713",
        "boundingbox_max_x": "25.5568",
        "boundingbox_max_y": "78.0217",
        "boundingbox_max_z": "12.1713",
        "boundingbox_width": "5.1",
        "boundingbox_height": "7.8",
        "boundingbox_thick": "2.4",
        "total_area": "114.1",
        "total_volume_dx": "63549.7",
        "total_volume_dy": "63549.7",
        "total_volume_dz": "63549.7"
    }
}