{
    "from_gigamesh_info_file": {
        "filename": "HS_2274_GMOCF_r1.50_n4_v512.info.txt",
        "hs_number": "HS 2274",
        "radius_in_mm": "1.5",
        "count_of_radii": "16",
        "rastersize": "512^3",
        "gigamesh_version": "181204",
        "threads_used": "11",
        "input_filename": "HS_2274_GMOCF.ply",
        "output_filename": "HS_2274_GMOCF_r1.50_n4_v512",
        "radii": [
            1.0,
            0.94,
            0.88,
            0.81,
            0.75,
            0.69,
            0.62,
            0.56,
            0.5,
            0.44,
            0.38,
            0.31,
            0.25,
            0.19,
            0.12,
            0.06
        ],
        "model_id": "HS 2274",
        "material": "clay, original",
        "count_of_vertices": "543268",
        "count_of_faces": "1086532",
        "bounding_box_in_cm": [
            2.8,
            3.2,
            1.6
        ],
        "area_in_cm2": "26.25",
        "volume_dx_in_cm3": "8.87",
        "volume_dy_in_cm3": "8.87",
        "volume_dz_in_cm3": "8.87",
        "processing_began_on": "Mon Dec 10 06:36:43 2018",
        "processing_finished_on": "Mon Dec 10 07:00:38 2018",
        "processing_wall_time_in_s": "1434"
    },
    "from_ply_filename": {
        "filename": "/export/data/vNGG/tmp/Hilprecht_Sammlung/04_MSII_filtered/HS_ALL_MSII_PLY/HS_2274_GMOCF_r1.50_n4_v512.ply",
        "hs_number": "HS 2274",
        "radius_in_mm": "1.50",
        "count_of_radii": 16,
        "rastersize": 512
    },
    "from_hilprecht3d": {
        "hs_number": "HS 2274",
        "tablet_url": "https://hilprecht.mpiwg-berlin.mpg.de/object3d/31302",
        "bibliography": "",
        "cdli_number": "300080"
    },
    "from_cdli_search_view": {
        "archival_view": "https://cdli.ucla.edu/search/archival_view.php?ObjectID=P235910",
        "primary_publication": "unpublished unassigned ?",
        "author": "nn",
        "publication_date": "nd",
        "secondary_publication": "",
        "collection": "Hilprecht Collection, University of Jena, Germany",
        "museum_number": "HS 2274",
        "accession_number": "",
        "provenience": "Puzri\u0161-Dagan (mod. Drehem)",
        "excavation_number": "",
        "period": "Ur III (ca. 2100-2000 BC)",
        "dates_referenced": "\u0160ulgi.--.04.21",
        "object_type": "tablet",
        "remarks": "",
        "material": "clay",
        "language": "Sumerian",
        "genre": "Administrative",
        "sub_genre": "",
        "cdli_comments": "",
        "catalogue_source": "20040921 fitzgerald_jena",
        "atf_source": "Liu Changyu",
        "translation": "no translation",
        "ucla_library_ark": "21198/zz001swk5p",
        "composite_number": "",
        "seal_number": "",
        "cdli_number": "P235910"
    },
    "from_cdli_archival_view": {
        "primary_publication": "unpublished unassigned ?",
        "author": "nn",
        "publication_date": "nd",
        "secondary_publications": "",
        "citation": "",
        "author_remarks": "",
        "published_collation": "",
        "cdli_number": "P235910",
        "ucla_library_ark": "21198/zz001swk5p",
        "cdli_comments": "",
        "catalogue": "20040921 fitzgerald_jena",
        "transliteration_remarks": "Liu Changyu",
        "translation_remarks": "no translation",
        "owner": "Hilprecht Collection, University of Jena, Germany",
        "museum_number": "HS 2274",
        "accession_number": "",
        "acquisition_history": "",
        "genre": "Administrative",
        "sub_genre": "",
        "sub_genre_remarks": "",
        "composite_number": "",
        "language": "Sumerian",
        "material": "clay",
        "object_remarks": "",
        "measurements_in_mm": "? x ? x ?",
        "object_preservation": "",
        "surface_preservation": "",
        "condition_description": "",
        "join_information": "",
        "seal_number": "",
        "seal_information": "",
        "provenience": "Puzri\u0161-Dagan (mod. Drehem)",
        "excavation_number": "",
        "findspot_square": "",
        "elevation": "",
        "stratigraphic_level": "",
        "findspot_remarks": "",
        "period": "Ur III (ca. 2100-2000 BC)",
        "period_remarks": "",
        "date_of_origin": "\u0160ulgi.--.04.21",
        "dates_referenced": "\u0160ulgi.--.04.21",
        "alternative_years": "",
        "accounting_period": "",
        "textual_content": "@Tablet\n@obverse  \n1. 1(disz) gu4 e2-muhaldim u4 2(u) 2(disz)-kam \n$ blank space \n2. zi-ga \n3. {d}en-lil2-la2 \n@reverse \n1. iti-ta u4 2(u) 1(disz) ba-ra-zal \n2. iti ki-siki-{d}nin-a-zu \n3. mu us2#-[...] ba#?-NI [...] \n ",
        "photo_url": "https://cdli.ucla.edu/dl/tn_photo/P235910.jpg"
    },
    "from_gigamesh_info_program": {
        "filename": "HS_2274_GMOCF_r1.50_n4_v512",
        "model_id": "HS 2274",
        "model_material": "clay, original",
        "vertices_total": "543268",
        "vertices_nan": "0",
        "vertices_solo": "0",
        "vertices_polyline": "0",
        "vertices_border": "0",
        "vertices_nonmanifold": "0",
        "vertices_on_inverted_edge": "0",
        "vertices_part_of_zero_face": "0",
        "vertices_synthetic": "0",
        "vertices_manual": "0",
        "vertices_circle_center": "0",
        "vertices_selected": "0",
        "vertices_funcval_finite": "543268",
        "vertices_funcval_local_min": "11423",
        "vertices_funcval_local_max": "6092",
        "faces_total": "1086532",
        "faces_solo": "0",
        "faces_border": "0",
        "faces_border_dangling": "0",
        "faces_manifold": "1086532",
        "faces_nonmanifold": "0",
        "faces_sticky": "0",
        "faces_zeroarea": "0",
        "faces_inverted": "0",
        "faces_with_synth_vertices": "0",
        "boundingbox_min_x": "-13.8088",
        "boundingbox_min_y": "0",
        "boundingbox_min_z": "-7.8447",
        "boundingbox_max_x": "13.8088",
        "boundingbox_max_y": "31.6983",
        "boundingbox_max_z": "7.8447",
        "boundingbox_width": "2.8",
        "boundingbox_height": "3.2",
        "boundingbox_thick": "1.6",
        "total_area": "26.25",
        "total_volume_dx": "8868.89",
        "total_volume_dy": "8868.89",
        "total_volume_dz": "8868.89"
    }
}