{
    "from_gigamesh_info_file": {
        "filename": "HS_2265_GMOCF_r1.50_n4_v512.info.txt",
        "hs_number": "HS 2265",
        "radius_in_mm": "1.5",
        "count_of_radii": "16",
        "rastersize": "512^3",
        "gigamesh_version": "181005",
        "threads_used": "7",
        "input_filename": "HS_2265_GMOCF.ply",
        "output_filename": "HS_2265_GMOCF_r1.50_n4_v512",
        "radii": [
            1.0,
            0.94,
            0.88,
            0.81,
            0.75,
            0.69,
            0.62,
            0.56,
            0.5,
            0.44,
            0.38,
            0.31,
            0.25,
            0.19,
            0.12,
            0.06
        ],
        "model_id": "HS 2265",
        "material": "clay, original",
        "count_of_vertices": "547040",
        "count_of_faces": "1094076",
        "bounding_box_in_cm": [
            2.9,
            3.4,
            1.4
        ],
        "area_in_cm2": "28.40",
        "volume_dx_in_cm3": "9.32",
        "volume_dy_in_cm3": "9.32",
        "volume_dz_in_cm3": "9.32",
        "processing_began_on": "Sat Dec  8 11:02:58 2018",
        "processing_finished_on": "Sat Dec  8 12:13:13 2018",
        "processing_wall_time_in_s": "4215"
    },
    "from_ply_filename": {
        "filename": "/export/data/vNGG/tmp/Hilprecht_Sammlung/04_MSII_filtered/HS_ALL_MSII_PLY/HS_2265_GMOCF_r1.50_n4_v512.ply",
        "hs_number": "HS 2265",
        "radius_in_mm": "1.50",
        "count_of_radii": 16,
        "rastersize": 512
    },
    "from_hilprecht3d": {
        "hs_number": "HS 2265",
        "tablet_url": "https://hilprecht.mpiwg-berlin.mpg.de/object3d/31292",
        "bibliography": "",
        "cdli_number": "300122"
    },
    "from_cdli_search_view": {
        "archival_view": "https://cdli.ucla.edu/search/archival_view.php?ObjectID=P235952",
        "primary_publication": "unpublished unassigned ?",
        "author": "nn",
        "publication_date": "nd",
        "secondary_publication": "",
        "collection": "Hilprecht Collection, University of Jena, Germany",
        "museum_number": "HS 2265",
        "accession_number": "",
        "provenience": "Puzri\u0161-Dagan (mod. Drehem)",
        "excavation_number": "",
        "period": "Ur III (ca. 2100-2000 BC)",
        "dates_referenced": "Amar-Suen.05.05.30",
        "object_type": "tablet",
        "remarks": "",
        "material": "clay",
        "language": "Sumerian",
        "genre": "Administrative",
        "sub_genre": "",
        "cdli_comments": "",
        "catalogue_source": "20040921 fitzgerald_jena",
        "atf_source": "Liu Changyu",
        "translation": "no translation",
        "ucla_library_ark": "21198/zz001t76qj",
        "composite_number": "",
        "seal_number": "",
        "cdli_number": "P235952"
    },
    "from_cdli_archival_view": {
        "primary_publication": "unpublished unassigned ?",
        "author": "nn",
        "publication_date": "nd",
        "secondary_publications": "",
        "citation": "",
        "author_remarks": "",
        "published_collation": "",
        "cdli_number": "P235952",
        "ucla_library_ark": "21198/zz001t76qj",
        "cdli_comments": "",
        "catalogue": "20040921 fitzgerald_jena",
        "transliteration_remarks": "Liu Changyu",
        "translation_remarks": "no translation",
        "owner": "Hilprecht Collection, University of Jena, Germany",
        "museum_number": "HS 2265",
        "accession_number": "",
        "acquisition_history": "",
        "genre": "Administrative",
        "sub_genre": "",
        "sub_genre_remarks": "",
        "composite_number": "",
        "language": "Sumerian",
        "material": "clay",
        "object_remarks": "",
        "measurements_in_mm": "? x ? x ?",
        "object_preservation": "",
        "surface_preservation": "",
        "condition_description": "",
        "join_information": "",
        "seal_number": "",
        "seal_information": "",
        "provenience": "Puzri\u0161-Dagan (mod. Drehem)",
        "excavation_number": "",
        "findspot_square": "",
        "elevation": "",
        "stratigraphic_level": "",
        "findspot_remarks": "",
        "period": "Ur III (ca. 2100-2000 BC)",
        "period_remarks": "",
        "date_of_origin": "Amar-Suen.05.05.30",
        "dates_referenced": "Amar-Suen.05.05.30",
        "alternative_years": "",
        "accounting_period": "",
        "textual_content": "@Tablet\n@obverse  \n1. 2(u) la2 1(disz@t) udu niga \n2. 5(disz) masz2-gal niga \n3. u4 3(u)-kam \n4. ki ab-ba-sa6-ga-ta \n5. a-hu-we-er \n6. i3-dab5 \n@reverse \n$ blank space \n1. iti ezem-{d}nin-a-zu \n2. mu en-unu6-gal {d}inanna unu{ki} ba-hun \n@left \n1. 2(u) 4(disz) \n ",
        "photo_url": "https://cdli.ucla.edu/dl/tn_photo/P235952.jpg"
    },
    "from_gigamesh_info_program": {
        "filename": "HS_2265_GMOCF_r1.50_n4_v512",
        "model_id": "HS 2265",
        "model_material": "clay, original",
        "vertices_total": "547040",
        "vertices_nan": "0",
        "vertices_solo": "0",
        "vertices_polyline": "0",
        "vertices_border": "0",
        "vertices_nonmanifold": "0",
        "vertices_on_inverted_edge": "0",
        "vertices_part_of_zero_face": "0",
        "vertices_synthetic": "0",
        "vertices_manual": "0",
        "vertices_circle_center": "0",
        "vertices_selected": "0",
        "vertices_funcval_finite": "547040",
        "vertices_funcval_local_min": "11020",
        "vertices_funcval_local_max": "5428",
        "faces_total": "1094076",
        "faces_solo": "0",
        "faces_border": "0",
        "faces_border_dangling": "0",
        "faces_manifold": "1094076",
        "faces_nonmanifold": "0",
        "faces_sticky": "0",
        "faces_zeroarea": "0",
        "faces_inverted": "0",
        "faces_with_synth_vertices": "0",
        "boundingbox_min_x": "-14.5141",
        "boundingbox_min_y": "0",
        "boundingbox_min_z": "-7.1157",
        "boundingbox_max_x": "14.5141",
        "boundingbox_max_y": "33.9977",
        "boundingbox_max_z": "7.1157",
        "boundingbox_width": "2.9",
        "boundingbox_height": "3.4",
        "boundingbox_thick": "1.4",
        "total_area": "28.4",
        "total_volume_dx": "9315.59",
        "total_volume_dy": "9315.59",
        "total_volume_dz": "9315.59"
    }
}