{
    "from_gigamesh_info_file": {
        "filename": "HS_2638_GMOCF_r1.50_n4_v512.info.txt",
        "hs_number": "HS 2638",
        "radius_in_mm": "1.5",
        "count_of_radii": "16",
        "rastersize": "512^3",
        "input_filename": "HS_2638_GMOCF.ply",
        "output_filename": "HS_2638_GMOCF_r1.50_n4_v512",
        "radii": [
            1.0,
            0.94,
            0.88,
            0.81,
            0.75,
            0.69,
            0.62,
            0.56,
            0.5,
            0.44,
            0.38,
            0.31,
            0.25,
            0.19,
            0.12,
            0.06
        ],
        "model_id": "HS 2638",
        "material": "clay, original",
        "count_of_vertices": "804649",
        "count_of_faces": "1609294",
        "bounding_box_in_cm": [
            3.6,
            3.6,
            2.0
        ],
        "area_in_cm2": "37.73",
        "volume_dx_in_cm3": "14.39",
        "volume_dy_in_cm3": "14.39",
        "volume_dz_in_cm3": "14.39",
        "processing_began_on": "Wed Dec 12 15:20:01 2018",
        "processing_finished_on": "Wed Dec 12 15:28:35 2018",
        "processing_wall_time_in_s": "511"
    },
    "from_ply_filename": {
        "filename": "/export/data/vNGG/tmp/Hilprecht_Sammlung/04_MSII_filtered/HS_ALL_MSII_PLY/HS_2638_GMOCF_r1.50_n4_v512.ply",
        "hs_number": "HS 2638",
        "radius_in_mm": "1.50",
        "count_of_radii": 16,
        "rastersize": 512
    },
    "from_hilprecht3d": {
        "hs_number": "HS 2638",
        "tablet_url": "https://hilprecht.mpiwg-berlin.mpg.de/object3d/31647",
        "bibliography": ""
    },
    "from_cdli_search_view": {
        "archival_view": "https://cdli.ucla.edu/search/archival_view.php?ObjectID=P388155",
        "primary_publication": "TMH 08, 24",
        "author": "Proust, Christine",
        "publication_date": "2008",
        "secondary_publication": "",
        "collection": "Hilprecht Collection, University of Jena, Germany",
        "museum_number": "HS 2638",
        "accession_number": "",
        "provenience": "Nippur (mod. Nuffar)",
        "excavation_number": "",
        "period": "Old Babylonian (ca. 1900-1600 BC)",
        "dates_referenced": "",
        "object_type": "tablet",
        "remarks": "",
        "material": "clay",
        "language": "",
        "genre": "Mathematical",
        "sub_genre": "",
        "cdli_comments": "",
        "catalogue_source": "20090124 cdliadmin",
        "atf_source": "no atf",
        "translation": "no translation",
        "ucla_library_ark": "21198/zz0020ph1t",
        "composite_number": "",
        "seal_number": "",
        "cdli_number": "P388155"
    },
    "from_cdli_archival_view": {
        "primary_publication": "TMH 08, 24",
        "author": "Proust, Christine",
        "publication_date": "2008",
        "secondary_publications": "",
        "citation": "",
        "author_remarks": "",
        "published_collation": "",
        "cdli_number": "P388155",
        "ucla_library_ark": "21198/zz0020ph1t",
        "cdli_comments": "",
        "catalogue": "20090124 cdliadmin",
        "transliteration_remarks": "no atf",
        "translation_remarks": "no translation",
        "owner": "Hilprecht Collection, University of Jena, Germany",
        "museum_number": "HS 2638",
        "accession_number": "",
        "acquisition_history": "",
        "genre": "Mathematical",
        "sub_genre": "",
        "sub_genre_remarks": "",
        "composite_number": "",
        "language": "",
        "material": "clay",
        "object_remarks": "",
        "measurements_in_mm": "x  x",
        "object_preservation": "",
        "surface_preservation": "",
        "condition_description": "",
        "join_information": "",
        "seal_number": "",
        "seal_information": "",
        "provenience": "Nippur (mod. Nuffar)",
        "excavation_number": "",
        "findspot_square": "",
        "elevation": "",
        "stratigraphic_level": "",
        "findspot_remarks": "",
        "period": "Old Babylonian (ca. 1900-1600 BC)",
        "period_remarks": "",
        "date_of_origin": "",
        "dates_referenced": "",
        "alternative_years": "",
        "accounting_period": "",
        "textual_content": "@Tablet",
        "photo_url": "https://cdli.ucla.edu/dl/tn_photo/P388155.jpg"
    },
    "from_gigamesh_info_program": {
        "filename": "HS_2638_GMOCF_r1.50_n4_v512",
        "model_id": "HS 2638",
        "model_material": "clay, original",
        "vertices_total": "804649",
        "vertices_nan": "0",
        "vertices_solo": "0",
        "vertices_polyline": "0",
        "vertices_border": "0",
        "vertices_nonmanifold": "0",
        "vertices_on_inverted_edge": "0",
        "vertices_part_of_zero_face": "0",
        "vertices_synthetic": "0",
        "vertices_manual": "0",
        "vertices_circle_center": "0",
        "vertices_selected": "0",
        "vertices_funcval_finite": "804649",
        "vertices_funcval_local_min": "16917",
        "vertices_funcval_local_max": "7575",
        "faces_total": "1609294",
        "faces_solo": "0",
        "faces_border": "0",
        "faces_border_dangling": "0",
        "faces_manifold": "1609294",
        "faces_nonmanifold": "0",
        "faces_sticky": "0",
        "faces_zeroarea": "0",
        "faces_inverted": "0",
        "faces_with_synth_vertices": "0",
        "boundingbox_min_x": "-18.1641",
        "boundingbox_min_y": "0",
        "boundingbox_min_z": "-9.9241",
        "boundingbox_max_x": "18.1641",
        "boundingbox_max_y": "36.2634",
        "boundingbox_max_z": "9.9241",
        "boundingbox_width": "3.6",
        "boundingbox_height": "3.6",
        "boundingbox_thick": "2",
        "total_area": "37.73",
        "total_volume_dx": "14386.6",
        "total_volume_dy": "14386.6",
        "total_volume_dz": "14386.6"
    }
}