{
    "from_gigamesh_info_file": {
        "filename": "HS_2559_GMOCF_r1.50_n4_v512.info.txt",
        "hs_number": "HS 2559",
        "radius_in_mm": "1.5",
        "count_of_radii": "16",
        "rastersize": "512^3",
        "input_filename": "HS_2559_GMOCF.ply",
        "output_filename": "HS_2559_GMOCF_r1.50_n4_v512",
        "radii": [
            1.0,
            0.94,
            0.88,
            0.81,
            0.75,
            0.69,
            0.62,
            0.56,
            0.5,
            0.44,
            0.38,
            0.31,
            0.25,
            0.19,
            0.12,
            0.06
        ],
        "model_id": "HS 2559",
        "material": "clay, original",
        "count_of_vertices": "1252435",
        "count_of_faces": "2504866",
        "bounding_box_in_cm": [
            6.5,
            3.6,
            1.7
        ],
        "area_in_cm2": "56.08",
        "volume_dx_in_cm3": "19.44",
        "volume_dy_in_cm3": "19.44",
        "volume_dz_in_cm3": "19.44",
        "processing_began_on": "Wed Dec 12 23:02:12 2018",
        "processing_finished_on": "Wed Dec 12 23:13:42 2018",
        "processing_wall_time_in_s": "687"
    },
    "from_ply_filename": {
        "filename": "/export/data/vNGG/tmp/Hilprecht_Sammlung/04_MSII_filtered/HS_ALL_MSII_PLY/HS_2559_GMOCF_r1.50_n4_v512.ply",
        "hs_number": "HS 2559",
        "radius_in_mm": "1.50",
        "count_of_radii": 16,
        "rastersize": 512
    },
    "from_hilprecht3d": {
        "hs_number": "HS 2559",
        "tablet_url": "https://hilprecht.mpiwg-berlin.mpg.de/object3d/31576",
        "bibliography": ""
    },
    "from_gigamesh_info_program": {
        "filename": "HS_2559_GMOCF_r1.50_n4_v512",
        "model_id": "HS 2559",
        "model_material": "clay, original",
        "vertices_total": "1252435",
        "vertices_nan": "0",
        "vertices_solo": "0",
        "vertices_polyline": "0",
        "vertices_border": "0",
        "vertices_nonmanifold": "0",
        "vertices_on_inverted_edge": "0",
        "vertices_part_of_zero_face": "0",
        "vertices_synthetic": "6",
        "vertices_manual": "0",
        "vertices_circle_center": "0",
        "vertices_selected": "0",
        "vertices_funcval_finite": "1252435",
        "vertices_funcval_local_min": "24738",
        "vertices_funcval_local_max": "10512",
        "faces_total": "2504866",
        "faces_solo": "0",
        "faces_border": "0",
        "faces_border_dangling": "0",
        "faces_manifold": "2504866",
        "faces_nonmanifold": "0",
        "faces_sticky": "0",
        "faces_zeroarea": "0",
        "faces_inverted": "0",
        "faces_with_synth_vertices": "3",
        "boundingbox_min_x": "-32.3395",
        "boundingbox_min_y": "0",
        "boundingbox_min_z": "-8.4594",
        "boundingbox_max_x": "32.3395",
        "boundingbox_max_y": "36.085",
        "boundingbox_max_z": "8.4594",
        "boundingbox_width": "6.5",
        "boundingbox_height": "3.6",
        "boundingbox_thick": "1.7",
        "total_area": "56.08",
        "total_volume_dx": "19441.2",
        "total_volume_dy": "19441.2",
        "total_volume_dz": "19441.2"
    }
}