{
    "from_gigamesh_info_file": {
        "filename": "HS_2438_GMOCF_r1.50_n4_v512.info.txt",
        "hs_number": "HS 2438",
        "radius_in_mm": "1.5",
        "count_of_radii": "16",
        "rastersize": "512^3",
        "input_filename": "HS_2438_GMOCF.ply",
        "output_filename": "HS_2438_GMOCF_r1.50_n4_v512",
        "radii": [
            1.0,
            0.94,
            0.88,
            0.81,
            0.75,
            0.69,
            0.62,
            0.56,
            0.5,
            0.44,
            0.38,
            0.31,
            0.25,
            0.19,
            0.12,
            0.06
        ],
        "model_id": "HS 2438",
        "material": "clay, original",
        "count_of_vertices": "2254508",
        "count_of_faces": "4509012",
        "bounding_box_in_cm": [
            4.4,
            8.8,
            2.4
        ],
        "area_in_cm2": "109.04",
        "volume_dx_in_cm3": "58.81",
        "volume_dy_in_cm3": "58.81",
        "volume_dz_in_cm3": "58.81",
        "processing_began_on": "Wed Dec 19 02:35:45 2018",
        "processing_finished_on": "Wed Dec 19 03:07:19 2018",
        "processing_wall_time_in_s": "1892"
    },
    "from_ply_filename": {
        "filename": "/export/data/vNGG/tmp/Hilprecht_Sammlung/04_MSII_filtered/HS_ALL_MSII_PLY/HS_2438_GMOCF_r1.50_n4_v512.ply",
        "hs_number": "HS 2438",
        "radius_in_mm": "1.50",
        "count_of_radii": 16,
        "rastersize": 512
    },
    "from_hilprecht3d": {
        "hs_number": "HS 2438",
        "tablet_url": "https://hilprecht.mpiwg-berlin.mpg.de/object3d/31471",
        "bibliography": ""
    },
    "from_cdli_search_view": {
        "archival_view": "https://cdli.ucla.edu/search/archival_view.php?ObjectID=P273911",
        "primary_publication": "TMH 06, 01a",
        "author": "van Dijk, Johannes J. A. &amp; Geller, Markham J.",
        "publication_date": "2003",
        "secondary_publication": "",
        "collection": "Hilprecht Collection, University of Jena, Germany",
        "museum_number": "HS 2438",
        "accession_number": "",
        "provenience": "Nippur (mod. Nuffar)",
        "excavation_number": "",
        "period": "Ur III (ca. 2100-2000 BC)",
        "dates_referenced": "",
        "object_type": "tablet",
        "remarks": "",
        "material": "clay",
        "language": "Sumerian",
        "genre": "Literary",
        "sub_genre": "incantations",
        "cdli_comments": "",
        "catalogue_source": "20050810 cdliadmin",
        "atf_source": "cdlistaff",
        "translation": "no translation",
        "ucla_library_ark": "21198/zz001vfwtv",
        "composite_number": "",
        "seal_number": "",
        "cdli_number": "P273911"
    },
    "from_cdli_archival_view": {
        "primary_publication": "TMH 06, 01a",
        "author": "van Dijk, Johannes J. A. & Geller, Markham J.",
        "publication_date": "2003",
        "secondary_publications": "",
        "citation": "",
        "author_remarks": "",
        "published_collation": "",
        "cdli_number": "P273911",
        "ucla_library_ark": "21198/zz001vfwtv",
        "cdli_comments": "",
        "catalogue": "20050810 cdliadmin",
        "transliteration_remarks": "cdlistaff",
        "translation_remarks": "no translation",
        "owner": "Hilprecht Collection, University of Jena, Germany",
        "museum_number": "HS 2438",
        "accession_number": "",
        "acquisition_history": "",
        "genre": "Literary",
        "sub_genre": "incantations",
        "sub_genre_remarks": "",
        "composite_number": "",
        "language": "Sumerian",
        "material": "clay",
        "object_remarks": "",
        "measurements_in_mm": "90 x 45 x 25",
        "object_preservation": "",
        "surface_preservation": "",
        "condition_description": "",
        "join_information": "",
        "seal_number": "",
        "seal_information": "",
        "provenience": "Nippur (mod. Nuffar)",
        "excavation_number": "",
        "findspot_square": "",
        "elevation": "",
        "stratigraphic_level": "",
        "findspot_remarks": "",
        "period": "Ur III (ca. 2100-2000 BC)",
        "period_remarks": "",
        "date_of_origin": "",
        "dates_referenced": "",
        "alternative_years": "",
        "accounting_period": "",
        "textual_content": "@Tablet\n@obverse \n1. enuru{+e2-nu-ru} \n2. lu2-ra sag-gig-ge sze3-mu-ga2-ga2 \n3. sag-gig-ge gu2-sa gig-ge-de3 sze3-mu-ga2-ga2 \n4. ig-tur-am3 gal5-la2 nu-la2 \n5. sag-gig-ga-a nig2-la2 nu-la2 \n6. gurusz-am3 sag-gig-ge i3-dab5 \n7. ki-sikil-tur-am3 gu2-sa gi-a sze3-mu-gu4-gu4 \n8. {d}asar-lu-hi a-ni {d}en-ki-sze3 lu2 ba-da-ra-szi-gi4 \n9. a-a-mu-ra u3-na-[a]-du11# \n10. sag#-gig-ge [lu2-ra sze3-mu-ga2-ga2] \n11. [gu2-sa] gig#-ge#-[de3 sze3-mu-ga2-ga2] \n12. [{d}en-ki-ke4] dumu#-ni [inim ...-gi4-gi4] \n@reverse \n1. dumu#-mu [...] x \n2. a#-na-sze3 i3-[...]-NE-gar a-na i3-ma-szi-tak4 \n3. a sikil na-ri-ga szu ma-ti \n4. i3 ab2 ku3-ga a-ba-da-ru \n5. sag {d}amar-{d}suen-ke4 a sikil he2-ma-sub6-e \n6. i3-bi he2-ma-ur3-e \n7. {d}asal-lu-hi dumu {d}en-ki-ke4 \n8. sag-gig u2-gu2-na pesz10 he2-ma-szi-dar-e \n9. dug u4-sakar-gin7 he2-ma-ta-gaz-e \n10. tu6-du11-ga {d}nin-girim-[ma] \n11. nam-szub eridu{ki} esz3 {d}en-ki ",
        "lineart_url": "https://cdli.ucla.edu/dl/tn_lineart/P273911_l.jpg",
        "photo_url": "https://cdli.ucla.edu/dl/tn_photo/P273911.jpg"
    },
    "from_gigamesh_info_program": {
        "filename": "HS_2438_GMOCF_r1.50_n4_v512",
        "model_id": "HS 2438",
        "model_material": "clay, original",
        "vertices_total": "2254508",
        "vertices_nan": "0",
        "vertices_solo": "0",
        "vertices_polyline": "0",
        "vertices_border": "0",
        "vertices_nonmanifold": "0",
        "vertices_on_inverted_edge": "0",
        "vertices_part_of_zero_face": "0",
        "vertices_synthetic": "0",
        "vertices_manual": "0",
        "vertices_circle_center": "0",
        "vertices_selected": "0",
        "vertices_funcval_finite": "2254508",
        "vertices_funcval_local_min": "46511",
        "vertices_funcval_local_max": "18508",
        "faces_total": "4509012",
        "faces_solo": "0",
        "faces_border": "0",
        "faces_border_dangling": "0",
        "faces_manifold": "4509012",
        "faces_nonmanifold": "0",
        "faces_sticky": "0",
        "faces_zeroarea": "0",
        "faces_inverted": "0",
        "faces_with_synth_vertices": "0",
        "boundingbox_min_x": "-22.1108",
        "boundingbox_min_y": "0",
        "boundingbox_min_z": "-12.0026",
        "boundingbox_max_x": "22.1108",
        "boundingbox_max_y": "87.7227",
        "boundingbox_max_z": "12.0026",
        "boundingbox_width": "4.4",
        "boundingbox_height": "8.8",
        "boundingbox_thick": "2.4",
        "total_area": "109.04",
        "total_volume_dx": "58805.4",
        "total_volume_dy": "58805.4",
        "total_volume_dz": "58805.4"
    }
}