{
    "from_gigamesh_info_file": {
        "filename": "HS_2259_GMOCF_r1.50_n4_v512.info.txt",
        "hs_number": "HS 2259",
        "radius_in_mm": "1.5",
        "count_of_radii": "16",
        "rastersize": "512^3",
        "gigamesh_version": "181005",
        "threads_used": "7",
        "input_filename": "HS_2259_GMOCF.ply",
        "output_filename": "HS_2259_GMOCF_r1.50_n4_v512",
        "radii": [
            1.0,
            0.94,
            0.88,
            0.81,
            0.75,
            0.69,
            0.62,
            0.56,
            0.5,
            0.44,
            0.38,
            0.31,
            0.25,
            0.19,
            0.12,
            0.06
        ],
        "model_id": "HS 2259",
        "material": "clay, original",
        "count_of_vertices": "572044",
        "count_of_faces": "1144084",
        "bounding_box_in_cm": [
            3.0,
            3.4,
            1.5
        ],
        "area_in_cm2": "29.08",
        "volume_dx_in_cm3": "10.59",
        "volume_dy_in_cm3": "10.59",
        "volume_dz_in_cm3": "10.59",
        "processing_began_on": "Sat Dec  8 14:03:11 2018",
        "processing_finished_on": "Sat Dec  8 15:16:14 2018",
        "processing_wall_time_in_s": "4383"
    },
    "from_ply_filename": {
        "filename": "/export/data/vNGG/tmp/Hilprecht_Sammlung/04_MSII_filtered/HS_ALL_MSII_PLY/HS_2259_GMOCF_r1.50_n4_v512.ply",
        "hs_number": "HS 2259",
        "radius_in_mm": "1.50",
        "count_of_radii": 16,
        "rastersize": 512
    },
    "from_hilprecht3d": {
        "hs_number": "HS 2259",
        "tablet_url": "https://hilprecht.mpiwg-berlin.mpg.de/object3d/31286",
        "bibliography": "",
        "cdli_number": "300115"
    },
    "from_cdli_search_view": {
        "archival_view": "https://cdli.ucla.edu/search/archival_view.php?ObjectID=P235945",
        "primary_publication": "unpublished unassigned ?",
        "author": "nn",
        "publication_date": "nd",
        "secondary_publication": "",
        "collection": "Hilprecht Collection, University of Jena, Germany",
        "museum_number": "HS 2259",
        "accession_number": "",
        "provenience": "Puzri\u0161-Dagan (mod. Drehem)",
        "excavation_number": "",
        "period": "Ur III (ca. 2100-2000 BC)",
        "dates_referenced": "Amar-Suen.05.11.22",
        "object_type": "tablet",
        "remarks": "",
        "material": "clay",
        "language": "Sumerian",
        "genre": "Administrative",
        "sub_genre": "",
        "cdli_comments": "",
        "catalogue_source": "20040921 fitzgerald_jena",
        "atf_source": "Liu Changyu",
        "translation": "no translation",
        "ucla_library_ark": "21198/zz001t76gx",
        "composite_number": "",
        "seal_number": "",
        "cdli_number": "P235945"
    },
    "from_cdli_archival_view": {
        "primary_publication": "unpublished unassigned ?",
        "author": "nn",
        "publication_date": "nd",
        "secondary_publications": "",
        "citation": "",
        "author_remarks": "",
        "published_collation": "",
        "cdli_number": "P235945",
        "ucla_library_ark": "21198/zz001t76gx",
        "cdli_comments": "",
        "catalogue": "20040921 fitzgerald_jena",
        "transliteration_remarks": "Liu Changyu",
        "translation_remarks": "no translation",
        "owner": "Hilprecht Collection, University of Jena, Germany",
        "museum_number": "HS 2259",
        "accession_number": "",
        "acquisition_history": "",
        "genre": "Administrative",
        "sub_genre": "",
        "sub_genre_remarks": "",
        "composite_number": "",
        "language": "Sumerian",
        "material": "clay",
        "object_remarks": "",
        "measurements_in_mm": "? x ? x ?",
        "object_preservation": "",
        "surface_preservation": "",
        "condition_description": "",
        "join_information": "",
        "seal_number": "",
        "seal_information": "",
        "provenience": "Puzri\u0161-Dagan (mod. Drehem)",
        "excavation_number": "",
        "findspot_square": "",
        "elevation": "",
        "stratigraphic_level": "",
        "findspot_remarks": "",
        "period": "Ur III (ca. 2100-2000 BC)",
        "period_remarks": "",
        "date_of_origin": "Amar-Suen.05.11.22",
        "dates_referenced": "Amar-Suen.05.11.22",
        "alternative_years": "",
        "accounting_period": "",
        "textual_content": "@Tablet\n@obverse  \n$ (first three lines on dry clay over erasure) \n1. 2(disz)? dur3 niga \n2. bi ad a x su x ga2-ni? \n3. x x x ki ba-ga2-ga2\n4. 1(u) 5(disz) masz-da3 \n5. u4 2(u) 2(disz)-kam \n6. ki ab-ba-sa6-ga-ta \n7. lu2-dingir-ra \n@reverse \n1. i3-dab5 \n$ blank space \n2. iti# ezem-me-ki-gal2 \n3. mu en-unu6-gal {d}inanna ba-hun \n@left \n1. 1(u) 5(disz) \n ",
        "photo_url": "https://cdli.ucla.edu/dl/tn_photo/P235945.jpg"
    },
    "from_gigamesh_info_program": {
        "filename": "HS_2259_GMOCF_r1.50_n4_v512",
        "model_id": "HS 2259",
        "model_material": "clay, original",
        "vertices_total": "572044",
        "vertices_nan": "0",
        "vertices_solo": "0",
        "vertices_polyline": "0",
        "vertices_border": "0",
        "vertices_nonmanifold": "0",
        "vertices_on_inverted_edge": "0",
        "vertices_part_of_zero_face": "0",
        "vertices_synthetic": "0",
        "vertices_manual": "0",
        "vertices_circle_center": "0",
        "vertices_selected": "0",
        "vertices_funcval_finite": "572044",
        "vertices_funcval_local_min": "11757",
        "vertices_funcval_local_max": "5970",
        "faces_total": "1144084",
        "faces_solo": "0",
        "faces_border": "0",
        "faces_border_dangling": "0",
        "faces_manifold": "1144084",
        "faces_nonmanifold": "0",
        "faces_sticky": "0",
        "faces_zeroarea": "0",
        "faces_inverted": "0",
        "faces_with_synth_vertices": "0",
        "boundingbox_min_x": "-15.1894",
        "boundingbox_min_y": "0",
        "boundingbox_min_z": "-7.5757",
        "boundingbox_max_x": "15.1894",
        "boundingbox_max_y": "34.4668",
        "boundingbox_max_z": "7.5757",
        "boundingbox_width": "3",
        "boundingbox_height": "3.4",
        "boundingbox_thick": "1.5",
        "total_area": "29.08",
        "total_volume_dx": "10592.9",
        "total_volume_dy": "10592.9",
        "total_volume_dz": "10592.9"
    }
}