{
    "from_gigamesh_info_file": {
        "filename": "HS_2535_GMOCF_r1.50_n4_v512.info.txt",
        "hs_number": "HS 2535",
        "radius_in_mm": "1.5",
        "count_of_radii": "16",
        "rastersize": "512^3",
        "input_filename": "HS_2535_GMOCF.ply",
        "output_filename": "HS_2535_GMOCF_r1.50_n4_v512",
        "radii": [
            1.0,
            0.94,
            0.88,
            0.81,
            0.75,
            0.69,
            0.62,
            0.56,
            0.5,
            0.44,
            0.38,
            0.31,
            0.25,
            0.19,
            0.12,
            0.06
        ],
        "model_id": "HS 2535",
        "material": "clay, original",
        "count_of_vertices": "1152196",
        "count_of_faces": "2304388",
        "bounding_box_in_cm": [
            3.4,
            5.8,
            2.6
        ],
        "area_in_cm2": "52.56",
        "volume_dx_in_cm3": "23.19",
        "volume_dy_in_cm3": "23.19",
        "volume_dz_in_cm3": "23.19",
        "processing_began_on": "Wed Dec 12 17:05:38 2018",
        "processing_finished_on": "Wed Dec 12 18:32:52 2018",
        "processing_wall_time_in_s": "5232"
    },
    "from_ply_filename": {
        "filename": "/export/data/vNGG/tmp/Hilprecht_Sammlung/04_MSII_filtered/HS_ALL_MSII_PLY/HS_2535_GMOCF_r1.50_n4_v512.ply",
        "hs_number": "HS 2535",
        "radius_in_mm": "1.50",
        "count_of_radii": 16,
        "rastersize": 512
    },
    "from_hilprecht3d": {
        "hs_number": "HS 2535",
        "tablet_url": "https://hilprecht.mpiwg-berlin.mpg.de/object3d/31558",
        "bibliography": ""
    },
    "from_gigamesh_info_program": {
        "filename": "HS_2535_GMOCF_r1.50_n4_v512",
        "model_id": "HS 2535",
        "model_material": "clay, original",
        "vertices_total": "1152196",
        "vertices_nan": "0",
        "vertices_solo": "0",
        "vertices_polyline": "0",
        "vertices_border": "0",
        "vertices_nonmanifold": "0",
        "vertices_on_inverted_edge": "0",
        "vertices_part_of_zero_face": "0",
        "vertices_synthetic": "1",
        "vertices_manual": "0",
        "vertices_circle_center": "0",
        "vertices_selected": "1",
        "vertices_funcval_finite": "1152196",
        "vertices_funcval_local_min": "23774",
        "vertices_funcval_local_max": "10065",
        "faces_total": "2304388",
        "faces_solo": "0",
        "faces_border": "0",
        "faces_border_dangling": "0",
        "faces_manifold": "2304388",
        "faces_nonmanifold": "0",
        "faces_sticky": "0",
        "faces_zeroarea": "0",
        "faces_inverted": "0",
        "faces_with_synth_vertices": "0",
        "boundingbox_min_x": "-16.8125",
        "boundingbox_min_y": "0",
        "boundingbox_min_z": "-13.2318",
        "boundingbox_max_x": "16.8125",
        "boundingbox_max_y": "57.7891",
        "boundingbox_max_z": "13.2318",
        "boundingbox_width": "3.4",
        "boundingbox_height": "5.8",
        "boundingbox_thick": "2.6",
        "total_area": "52.56",
        "total_volume_dx": "23194.4",
        "total_volume_dy": "23194.4",
        "total_volume_dz": "23194.4"
    }
}