{
    "from_gigamesh_info_file": {
        "filename": "HS_217a_GMOCF_r1.50_n4_v512.info.txt",
        "hs_number": "HS 217a",
        "radius_in_mm": "1.5",
        "count_of_radii": "16",
        "rastersize": "512^3",
        "gigamesh_version": "181204",
        "threads_used": "11",
        "input_filename": "HS_217a_GMOCF.ply",
        "output_filename": "HS_217a_GMOCF_r1.50_n4_v512",
        "radii": [
            1.0,
            0.94,
            0.88,
            0.81,
            0.75,
            0.69,
            0.62,
            0.56,
            0.5,
            0.44,
            0.38,
            0.31,
            0.25,
            0.19,
            0.12,
            0.06
        ],
        "model_id": "HS 217a",
        "material": "clay, original",
        "count_of_vertices": "1308159",
        "count_of_faces": "2616314",
        "bounding_box_in_cm": [
            3.5,
            5.3,
            2.1
        ],
        "area_in_cm2": "54.88",
        "volume_dx_in_cm3": "24.92",
        "volume_dy_in_cm3": "24.92",
        "volume_dz_in_cm3": "24.92",
        "processing_began_on": "Sun Dec  9 00:22:03 2018",
        "processing_finished_on": "Sun Dec  9 01:21:23 2018",
        "processing_wall_time_in_s": "3560"
    },
    "from_ply_filename": {
        "filename": "/export/data/vNGG/tmp/Hilprecht_Sammlung/04_MSII_filtered/HS_ALL_MSII_PLY/HS_217a_GMOCF_r1.50_n4_v512.ply",
        "hs_number": "HS 217a",
        "radius_in_mm": "1.50",
        "count_of_radii": 16,
        "rastersize": 512
    },
    "from_hilprecht3d": {
        "hs_number": "HS 0217a",
        "tablet_url": "https://hilprecht.mpiwg-berlin.mpg.de/object3d/31240",
        "bibliography": "2008: TMH 8"
    },
    "from_cdli_search_view": {
        "archival_view": "https://cdli.ucla.edu/search/archival_view.php?ObjectID=P254585",
        "primary_publication": "MKT 1, 039, HS 0217a",
        "author": "Neugebauer, Otto E.",
        "publication_date": "1935-1937",
        "secondary_publication": "BE 20/1, 15; Proust, Christine, TMH 8 (2008) no. 56",
        "collection": "Hilprecht Collection, University of Jena, Germany",
        "museum_number": "HS 0217a",
        "accession_number": "",
        "provenience": "Nippur (mod. Nuffar)",
        "excavation_number": "",
        "period": "Middle Babylonian (ca. 1400-1100 BC)",
        "dates_referenced": "",
        "object_type": "tablet",
        "remarks": "",
        "material": "clay",
        "language": "",
        "genre": "Mathematical",
        "sub_genre": "table - mult. 9",
        "cdli_comments": "",
        "catalogue_source": "20050201 melville",
        "atf_source": "no atf",
        "translation": "no translation",
        "ucla_library_ark": "21198/zz001sm5gz",
        "composite_number": "<a target=\"_blank\" href = \"search_results.php?CompositeNumber=Q002454\">Q002454</a> ",
        "seal_number": "",
        "cdli_number": "P254585"
    },
    "from_cdli_archival_view": {
        "primary_publication": "MKT 1, 039, HS 0217a",
        "author": "Neugebauer, Otto E.",
        "publication_date": "1935-1937",
        "secondary_publications": "BE 20/1, 15; Proust, Christine, TMH 8 (2008) no. 56",
        "citation": "",
        "author_remarks": "",
        "published_collation": "",
        "cdli_number": "P254585",
        "ucla_library_ark": "21198/zz001sm5gz",
        "cdli_comments": "",
        "catalogue": "20050201 melville",
        "transliteration_remarks": "no atf",
        "translation_remarks": "no translation",
        "owner": "Hilprecht Collection, University of Jena, Germany",
        "museum_number": "HS 0217a",
        "accession_number": "",
        "acquisition_history": "4th Nippur expedition (BE 20/1, p. 59)",
        "genre": "Mathematical",
        "sub_genre": "table - mult. 9",
        "sub_genre_remarks": "",
        "composite_number": "Q002454",
        "language": "",
        "material": "clay",
        "object_remarks": "",
        "measurements_in_mm": "? x ? x ?",
        "object_preservation": "",
        "surface_preservation": "",
        "condition_description": "",
        "join_information": "",
        "seal_number": "",
        "seal_information": "",
        "provenience": "Nippur (mod. Nuffar)",
        "excavation_number": "",
        "findspot_square": "",
        "elevation": "",
        "stratigraphic_level": "",
        "findspot_remarks": "",
        "period": "Middle Babylonian (ca. 1400-1100 BC)",
        "period_remarks": "",
        "date_of_origin": "",
        "dates_referenced": "",
        "alternative_years": "",
        "accounting_period": "",
        "textual_content": "@Tablet",
        "lineart_url": "https://cdli.ucla.edu/dl/tn_lineart/P254585_l.jpg",
        "photo_url": "https://cdli.ucla.edu/dl/tn_photo/P254585.jpg"
    },
    "from_gigamesh_info_program": {
        "filename": "HS_217a_GMOCF_r1.50_n4_v512",
        "model_id": "HS 217a",
        "model_material": "clay, original",
        "vertices_total": "1308159",
        "vertices_nan": "0",
        "vertices_solo": "0",
        "vertices_polyline": "0",
        "vertices_border": "0",
        "vertices_nonmanifold": "0",
        "vertices_on_inverted_edge": "0",
        "vertices_part_of_zero_face": "0",
        "vertices_synthetic": "0",
        "vertices_manual": "0",
        "vertices_circle_center": "0",
        "vertices_selected": "0",
        "vertices_funcval_finite": "1308159",
        "vertices_funcval_local_min": "31070",
        "vertices_funcval_local_max": "19872",
        "faces_total": "2616314",
        "faces_solo": "0",
        "faces_border": "0",
        "faces_border_dangling": "0",
        "faces_manifold": "2616314",
        "faces_nonmanifold": "0",
        "faces_sticky": "0",
        "faces_zeroarea": "0",
        "faces_inverted": "0",
        "faces_with_synth_vertices": "0",
        "boundingbox_min_x": "-17.3537",
        "boundingbox_min_y": "0",
        "boundingbox_min_z": "-10.415",
        "boundingbox_max_x": "17.3537",
        "boundingbox_max_y": "53.3379",
        "boundingbox_max_z": "10.415",
        "boundingbox_width": "3.5",
        "boundingbox_height": "5.3",
        "boundingbox_thick": "2.1",
        "total_area": "54.88",
        "total_volume_dx": "24922.3",
        "total_volume_dy": "24922.3",
        "total_volume_dz": "24922.3"
    }
}