{
    "from_gigamesh_info_file": {
        "filename": "HS_2684_GMOCF_r1.50_n4_v512.info.txt",
        "hs_number": "HS 2684",
        "radius_in_mm": "1.5",
        "count_of_radii": "16",
        "rastersize": "512^3",
        "input_filename": "HS_2684_GMOCF.ply",
        "output_filename": "HS_2684_GMOCF_r1.50_n4_v512",
        "radii": [
            1.0,
            0.94,
            0.88,
            0.81,
            0.75,
            0.69,
            0.62,
            0.56,
            0.5,
            0.44,
            0.38,
            0.31,
            0.25,
            0.19,
            0.12,
            0.06
        ],
        "model_id": "HS 2684",
        "material": "clay, original",
        "count_of_vertices": "914381",
        "count_of_faces": "1828758",
        "bounding_box_in_cm": [
            4.2,
            8.2,
            3.2
        ],
        "area_in_cm2": "93.16",
        "volume_dx_in_cm3": "51.32",
        "volume_dy_in_cm3": "51.32",
        "volume_dz_in_cm3": "51.32",
        "processing_began_on": "Wed Dec 12 21:28:47 2018",
        "processing_finished_on": "Wed Dec 12 21:36:13 2018",
        "processing_wall_time_in_s": "444"
    },
    "from_ply_filename": {
        "filename": "/export/data/vNGG/tmp/Hilprecht_Sammlung/04_MSII_filtered/HS_ALL_MSII_PLY/HS_2684_GMOCF_r1.50_n4_v512.ply",
        "hs_number": "HS 2684",
        "radius_in_mm": "1.50",
        "count_of_radii": 16,
        "rastersize": 512
    },
    "from_hilprecht3d": {
        "hs_number": "HS 2684",
        "tablet_url": "https://hilprecht.mpiwg-berlin.mpg.de/object3d/31678",
        "bibliography": ""
    },
    "from_gigamesh_info_program": {
        "filename": "HS_2684_GMOCF_r1.50_n4_v512",
        "model_id": "HS 2684",
        "model_material": "clay, original",
        "vertices_total": "914381",
        "vertices_nan": "0",
        "vertices_solo": "0",
        "vertices_polyline": "0",
        "vertices_border": "0",
        "vertices_nonmanifold": "0",
        "vertices_on_inverted_edge": "0",
        "vertices_part_of_zero_face": "0",
        "vertices_synthetic": "0",
        "vertices_manual": "0",
        "vertices_circle_center": "0",
        "vertices_selected": "0",
        "vertices_funcval_finite": "914381",
        "vertices_funcval_local_min": "25733",
        "vertices_funcval_local_max": "13821",
        "faces_total": "1828758",
        "faces_solo": "0",
        "faces_border": "0",
        "faces_border_dangling": "0",
        "faces_manifold": "1828758",
        "faces_nonmanifold": "0",
        "faces_sticky": "0",
        "faces_zeroarea": "0",
        "faces_inverted": "0",
        "faces_with_synth_vertices": "0",
        "boundingbox_min_x": "-20.7505",
        "boundingbox_min_y": "0",
        "boundingbox_min_z": "-15.9362",
        "boundingbox_max_x": "20.7505",
        "boundingbox_max_y": "81.8888",
        "boundingbox_max_z": "15.9362",
        "boundingbox_width": "4.2",
        "boundingbox_height": "8.2",
        "boundingbox_thick": "3.2",
        "total_area": "93.16",
        "total_volume_dx": "51315.9",
        "total_volume_dy": "51315.9",
        "total_volume_dz": "51315.9"
    }
}