{
    "from_gigamesh_info_file": {
        "filename": "HS_2430_GMOCF_r1.50_n4_v512.info.txt",
        "hs_number": "HS 2430",
        "radius_in_mm": "1.5",
        "count_of_radii": "16",
        "rastersize": "512^3",
        "input_filename": "HS_2430_GMOCF.ply",
        "output_filename": "HS_2430_GMOCF_r1.50_n4_v512",
        "radii": [
            1.0,
            0.94,
            0.88,
            0.81,
            0.75,
            0.69,
            0.62,
            0.56,
            0.5,
            0.44,
            0.38,
            0.31,
            0.25,
            0.19,
            0.12,
            0.06
        ],
        "model_id": "HS 2430",
        "material": "clay, original",
        "count_of_vertices": "814345",
        "count_of_faces": "1628686",
        "bounding_box_in_cm": [
            3.9,
            2.6,
            1.7
        ],
        "area_in_cm2": "32.98",
        "volume_dx_in_cm3": "10.80",
        "volume_dy_in_cm3": "10.80",
        "volume_dz_in_cm3": "10.80",
        "processing_began_on": "Wed Dec 19 03:08:48 2018",
        "processing_finished_on": "Wed Dec 19 03:18:45 2018",
        "processing_wall_time_in_s": "597"
    },
    "from_ply_filename": {
        "filename": "/export/data/vNGG/tmp/Hilprecht_Sammlung/04_MSII_filtered/HS_ALL_MSII_PLY/HS_2430_GMOCF_r1.50_n4_v512.ply",
        "hs_number": "HS 2430",
        "radius_in_mm": "1.50",
        "count_of_radii": 16,
        "rastersize": 512
    },
    "from_hilprecht3d": {
        "hs_number": "HS 2430",
        "tablet_url": "https://hilprecht.mpiwg-berlin.mpg.de/object3d/31464",
        "bibliography": "",
        "cdli_number": "300138"
    },
    "from_cdli_search_view": {
        "archival_view": "https://cdli.ucla.edu/search/archival_view.php?ObjectID=P235968",
        "primary_publication": "unpublished unassigned ?",
        "author": "nn",
        "publication_date": "nd",
        "secondary_publication": "",
        "collection": "Hilprecht Collection, University of Jena, Germany",
        "museum_number": "HS 2430",
        "accession_number": "",
        "provenience": "Puzri\u0161-Dagan (mod. Drehem)",
        "excavation_number": "",
        "period": "Ur III (ca. 2100-2000 BC)",
        "dates_referenced": "IB.02.00.00, IB.03.00.00",
        "object_type": "tablet",
        "remarks": "",
        "material": "clay",
        "language": "Sumerian",
        "genre": "Administrative",
        "sub_genre": "",
        "cdli_comments": "",
        "catalogue_source": "20040921 fitzgerald_jena",
        "atf_source": "no atf",
        "translation": "no translation",
        "ucla_library_ark": "21198/zz001t78z4",
        "composite_number": "",
        "seal_number": "",
        "cdli_number": "P235968"
    },
    "from_cdli_archival_view": {
        "primary_publication": "unpublished unassigned ?",
        "author": "nn",
        "publication_date": "nd",
        "secondary_publications": "",
        "citation": "",
        "author_remarks": "",
        "published_collation": "",
        "cdli_number": "P235968",
        "ucla_library_ark": "21198/zz001t78z4",
        "cdli_comments": "",
        "catalogue": "20040921 fitzgerald_jena",
        "transliteration_remarks": "no atf",
        "translation_remarks": "no translation",
        "owner": "Hilprecht Collection, University of Jena, Germany",
        "museum_number": "HS 2430",
        "accession_number": "",
        "acquisition_history": "",
        "genre": "Administrative",
        "sub_genre": "",
        "sub_genre_remarks": "",
        "composite_number": "",
        "language": "Sumerian",
        "material": "clay",
        "object_remarks": "",
        "measurements_in_mm": "? x ? x ?",
        "object_preservation": "",
        "surface_preservation": "",
        "condition_description": "",
        "join_information": "",
        "seal_number": "",
        "seal_information": "",
        "provenience": "Puzri\u0161-Dagan (mod. Drehem)",
        "excavation_number": "",
        "findspot_square": "",
        "elevation": "",
        "stratigraphic_level": "",
        "findspot_remarks": "",
        "period": "Ur III (ca. 2100-2000 BC)",
        "period_remarks": "",
        "date_of_origin": "IB.03.00.00",
        "dates_referenced": "IB.02.00.00, IB.03.00.00",
        "alternative_years": "",
        "accounting_period": "IB.02.00.00 to IB.03.00.00",
        "textual_content": "@Tablet"
    },
    "from_gigamesh_info_program": {
        "filename": "HS_2430_GMOCF_r1.50_n4_v512",
        "model_id": "HS 2430",
        "model_material": "clay, original",
        "vertices_total": "814345",
        "vertices_nan": "0",
        "vertices_solo": "0",
        "vertices_polyline": "0",
        "vertices_border": "0",
        "vertices_nonmanifold": "0",
        "vertices_on_inverted_edge": "0",
        "vertices_part_of_zero_face": "0",
        "vertices_synthetic": "0",
        "vertices_manual": "0",
        "vertices_circle_center": "0",
        "vertices_selected": "0",
        "vertices_funcval_finite": "814345",
        "vertices_funcval_local_min": "12642",
        "vertices_funcval_local_max": "6230",
        "faces_total": "1628686",
        "faces_solo": "0",
        "faces_border": "0",
        "faces_border_dangling": "0",
        "faces_manifold": "1628686",
        "faces_nonmanifold": "0",
        "faces_sticky": "0",
        "faces_zeroarea": "0",
        "faces_inverted": "0",
        "faces_with_synth_vertices": "0",
        "boundingbox_min_x": "-19.6771",
        "boundingbox_min_y": "0",
        "boundingbox_min_z": "-8.6213",
        "boundingbox_max_x": "19.6771",
        "boundingbox_max_y": "25.9917",
        "boundingbox_max_z": "8.6213",
        "boundingbox_width": "3.9",
        "boundingbox_height": "2.6",
        "boundingbox_thick": "1.7",
        "total_area": "32.98",
        "total_volume_dx": "10803.6",
        "total_volume_dy": "10803.6",
        "total_volume_dz": "10803.6"
    }
}