{
    "from_gigamesh_info_file": {
        "filename": "HS_2308_GMOCF_r1.50_n4_v512.info.txt",
        "hs_number": "HS 2308",
        "radius_in_mm": "1.5",
        "count_of_radii": "16",
        "rastersize": "512^3",
        "gigamesh_version": "181005",
        "threads_used": "7",
        "input_filename": "HS_2308_GMOCF.ply",
        "output_filename": "HS_2308_GMOCF_r1.50_n4_v512",
        "radii": [
            1.0,
            0.94,
            0.88,
            0.81,
            0.75,
            0.69,
            0.62,
            0.56,
            0.5,
            0.44,
            0.38,
            0.31,
            0.25,
            0.19,
            0.12,
            0.06
        ],
        "model_id": "HS 2308",
        "material": "clay, original",
        "count_of_vertices": "568626",
        "count_of_faces": "1137248",
        "bounding_box_in_cm": [
            3.0,
            3.2,
            1.7
        ],
        "area_in_cm2": "28.64",
        "volume_dx_in_cm3": "10.74",
        "volume_dy_in_cm3": "10.74",
        "volume_dz_in_cm3": "10.74",
        "processing_began_on": "Tue Dec 11 00:50:16 2018",
        "processing_finished_on": "Tue Dec 11 02:09:28 2018",
        "processing_wall_time_in_s": "4751"
    },
    "from_ply_filename": {
        "filename": "/export/data/vNGG/tmp/Hilprecht_Sammlung/04_MSII_filtered/HS_ALL_MSII_PLY/HS_2308_GMOCF_r1.50_n4_v512.ply",
        "hs_number": "HS 2308",
        "radius_in_mm": "1.50",
        "count_of_radii": 16,
        "rastersize": 512
    },
    "from_hilprecht3d": {
        "hs_number": "HS 2308",
        "tablet_url": "https://hilprecht.mpiwg-berlin.mpg.de/object3d/31338",
        "bibliography": "",
        "cdli_number": "300073"
    },
    "from_cdli_search_view": {
        "archival_view": "https://cdli.ucla.edu/search/archival_view.php?ObjectID=P235903",
        "primary_publication": "unpublished unassigned ?",
        "author": "nn",
        "publication_date": "nd",
        "secondary_publication": "",
        "collection": "Hilprecht Collection, University of Jena, Germany",
        "museum_number": "HS 2308",
        "accession_number": "",
        "provenience": "Puzri\u0161-Dagan (mod. Drehem)",
        "excavation_number": "",
        "period": "Ur III (ca. 2100-2000 BC)",
        "dates_referenced": "\u0160ulgi.46.01.05",
        "object_type": "tablet",
        "remarks": "",
        "material": "clay",
        "language": "Sumerian",
        "genre": "Administrative",
        "sub_genre": "",
        "cdli_comments": "",
        "catalogue_source": "20040921 fitzgerald_jena",
        "atf_source": "Liu Changyu",
        "translation": "no translation",
        "ucla_library_ark": "21198/zz001swjxk",
        "composite_number": "",
        "seal_number": "",
        "cdli_number": "P235903"
    },
    "from_cdli_archival_view": {
        "primary_publication": "unpublished unassigned ?",
        "author": "nn",
        "publication_date": "nd",
        "secondary_publications": "",
        "citation": "",
        "author_remarks": "",
        "published_collation": "",
        "cdli_number": "P235903",
        "ucla_library_ark": "21198/zz001swjxk",
        "cdli_comments": "",
        "catalogue": "20040921 fitzgerald_jena",
        "transliteration_remarks": "Liu Changyu",
        "translation_remarks": "no translation",
        "owner": "Hilprecht Collection, University of Jena, Germany",
        "museum_number": "HS 2308",
        "accession_number": "",
        "acquisition_history": "",
        "genre": "Administrative",
        "sub_genre": "",
        "sub_genre_remarks": "",
        "composite_number": "",
        "language": "Sumerian",
        "material": "clay",
        "object_remarks": "",
        "measurements_in_mm": "? x ? x ?",
        "object_preservation": "",
        "surface_preservation": "",
        "condition_description": "",
        "join_information": "",
        "seal_number": "",
        "seal_information": "",
        "provenience": "Puzri\u0161-Dagan (mod. Drehem)",
        "excavation_number": "",
        "findspot_square": "",
        "elevation": "",
        "stratigraphic_level": "",
        "findspot_remarks": "",
        "period": "Ur III (ca. 2100-2000 BC)",
        "period_remarks": "",
        "date_of_origin": "\u0160ulgi.46.01.05",
        "dates_referenced": "\u0160ulgi.46.01.05",
        "alternative_years": "",
        "accounting_period": "",
        "textual_content": "@Tablet\n@obverse \n1. 2(disz) gu4 niga sag-gu4 \n2. 2(disz) gu4 niga \n3. esz3-esz3 e2-u4-7(disz) \n4. 1(disz) gu4 a-sza3 \n5. uri5{ki}-sze3 \n6. iti u4 5(disz) ba-zal \n@reverse \n1. ki a-hu-ni-ta \n2. na-sa6 i3-dab5 \n$ blank space \n3. iti masz-da3-gu7 \n4. mu us2-sa ur-bi2-lum{ki} ba-hul \n ",
        "photo_url": "https://cdli.ucla.edu/dl/tn_photo/P235903.jpg"
    },
    "from_gigamesh_info_program": {
        "filename": "HS_2308_GMOCF_r1.50_n4_v512",
        "model_id": "HS 2308",
        "model_material": "clay, original",
        "vertices_total": "568626",
        "vertices_nan": "0",
        "vertices_solo": "0",
        "vertices_polyline": "0",
        "vertices_border": "0",
        "vertices_nonmanifold": "0",
        "vertices_on_inverted_edge": "0",
        "vertices_part_of_zero_face": "0",
        "vertices_synthetic": "0",
        "vertices_manual": "0",
        "vertices_circle_center": "0",
        "vertices_selected": "0",
        "vertices_funcval_finite": "568626",
        "vertices_funcval_local_min": "11502",
        "vertices_funcval_local_max": "4888",
        "faces_total": "1137248",
        "faces_solo": "0",
        "faces_border": "0",
        "faces_border_dangling": "0",
        "faces_manifold": "1137248",
        "faces_nonmanifold": "0",
        "faces_sticky": "0",
        "faces_zeroarea": "0",
        "faces_inverted": "0",
        "faces_with_synth_vertices": "0",
        "boundingbox_min_x": "-14.7964",
        "boundingbox_min_y": "0",
        "boundingbox_min_z": "-8.7423",
        "boundingbox_max_x": "14.7964",
        "boundingbox_max_y": "31.5101",
        "boundingbox_max_z": "8.7423",
        "boundingbox_width": "3",
        "boundingbox_height": "3.2",
        "boundingbox_thick": "1.7",
        "total_area": "28.64",
        "total_volume_dx": "10740.8",
        "total_volume_dy": "10740.8",
        "total_volume_dz": "10740.8"
    }
}