{
    "from_gigamesh_info_file": {
        "filename": "HS_2341_GMOCF_r1.50_n4_v512.info.txt",
        "hs_number": "HS 2341",
        "radius_in_mm": "1.5",
        "count_of_radii": "16",
        "rastersize": "512^3",
        "gigamesh_version": "181005",
        "threads_used": "7",
        "input_filename": "HS_2341_GMOCF.ply",
        "output_filename": "HS_2341_GMOCF_r1.50_n4_v512",
        "radii": [
            1.0,
            0.94,
            0.88,
            0.81,
            0.75,
            0.69,
            0.62,
            0.56,
            0.5,
            0.44,
            0.38,
            0.31,
            0.25,
            0.19,
            0.12,
            0.06
        ],
        "model_id": "HS 2341",
        "material": "clay, original",
        "count_of_vertices": "2899209",
        "count_of_faces": "5798414",
        "bounding_box_in_cm": [
            5.0,
            6.6,
            2.1
        ],
        "area_in_cm2": "80.61",
        "volume_dx_in_cm3": "37.92",
        "volume_dy_in_cm3": "37.92",
        "volume_dz_in_cm3": "37.92",
        "processing_began_on": "Tue Dec 11 06:36:29 2018",
        "processing_finished_on": "Tue Dec 11 15:38:11 2018",
        "processing_wall_time_in_s": "32501"
    },
    "from_ply_filename": {
        "filename": "/export/data/vNGG/tmp/Hilprecht_Sammlung/04_MSII_filtered/HS_ALL_MSII_PLY/HS_2341_GMOCF_r1.50_n4_v512.ply",
        "hs_number": "HS 2341",
        "radius_in_mm": "1.50",
        "count_of_radii": 16,
        "rastersize": 512
    },
    "from_hilprecht3d": {
        "hs_number": "HS 2341",
        "tablet_url": "https://hilprecht.mpiwg-berlin.mpg.de/object3d/31369",
        "bibliography": ""
    },
    "from_gigamesh_info_program": {
        "filename": "HS_2341_GMOCF_r1.50_n4_v512",
        "model_id": "HS 2341",
        "model_material": "clay, original",
        "vertices_total": "2899209",
        "vertices_nan": "0",
        "vertices_solo": "0",
        "vertices_polyline": "0",
        "vertices_border": "0",
        "vertices_nonmanifold": "0",
        "vertices_on_inverted_edge": "0",
        "vertices_part_of_zero_face": "0",
        "vertices_synthetic": "1",
        "vertices_manual": "0",
        "vertices_circle_center": "0",
        "vertices_selected": "0",
        "vertices_funcval_finite": "2899209",
        "vertices_funcval_local_min": "40587",
        "vertices_funcval_local_max": "21018",
        "faces_total": "5798414",
        "faces_solo": "0",
        "faces_border": "0",
        "faces_border_dangling": "0",
        "faces_manifold": "5798414",
        "faces_nonmanifold": "0",
        "faces_sticky": "0",
        "faces_zeroarea": "0",
        "faces_inverted": "0",
        "faces_with_synth_vertices": "0",
        "boundingbox_min_x": "-24.9275",
        "boundingbox_min_y": "0",
        "boundingbox_min_z": "-10.5998",
        "boundingbox_max_x": "24.9275",
        "boundingbox_max_y": "66.1268",
        "boundingbox_max_z": "10.5998",
        "boundingbox_width": "5",
        "boundingbox_height": "6.6",
        "boundingbox_thick": "2.1",
        "total_area": "80.61",
        "total_volume_dx": "37923.4",
        "total_volume_dy": "37923.4",
        "total_volume_dz": "37923.4"
    }
}