{
    "from_gigamesh_info_file": {
        "filename": "HS_2306_GMOCF_r1.50_n4_v512.info.txt",
        "hs_number": "HS 2306",
        "radius_in_mm": "1.5",
        "count_of_radii": "16",
        "rastersize": "512^3",
        "gigamesh_version": "181005",
        "threads_used": "7",
        "input_filename": "HS_2306_GMOCF.ply",
        "output_filename": "HS_2306_GMOCF_r1.50_n4_v512",
        "radii": [
            1.0,
            0.94,
            0.88,
            0.81,
            0.75,
            0.69,
            0.62,
            0.56,
            0.5,
            0.44,
            0.38,
            0.31,
            0.25,
            0.19,
            0.12,
            0.06
        ],
        "model_id": "HS 2306",
        "material": "clay, original",
        "count_of_vertices": "403771",
        "count_of_faces": "807538",
        "bounding_box_in_cm": [
            2.7,
            3.0,
            1.3
        ],
        "area_in_cm2": "22.15",
        "volume_dx_in_cm3": "6.51",
        "volume_dy_in_cm3": "6.51",
        "volume_dz_in_cm3": "6.51",
        "processing_began_on": "Sun Dec  9 12:38:52 2018",
        "processing_finished_on": "Sun Dec  9 13:28:21 2018",
        "processing_wall_time_in_s": "2969"
    },
    "from_ply_filename": {
        "filename": "/export/data/vNGG/tmp/Hilprecht_Sammlung/04_MSII_filtered/HS_ALL_MSII_PLY/HS_2306_GMOCF_r1.50_n4_v512.ply",
        "hs_number": "HS 2306",
        "radius_in_mm": "1.50",
        "count_of_radii": 16,
        "rastersize": 512
    },
    "from_hilprecht3d": {
        "hs_number": "HS 2306",
        "tablet_url": "https://hilprecht.mpiwg-berlin.mpg.de/object3d/31336",
        "bibliography": "",
        "cdli_number": "300071"
    },
    "from_cdli_search_view": {
        "archival_view": "https://cdli.ucla.edu/search/archival_view.php?ObjectID=P235901",
        "primary_publication": "unpublished unassigned ?",
        "author": "nn",
        "publication_date": "nd",
        "secondary_publication": "",
        "collection": "Hilprecht Collection, University of Jena, Germany",
        "museum_number": "HS 2306",
        "accession_number": "",
        "provenience": "Puzri\u0161-Dagan (mod. Drehem)",
        "excavation_number": "",
        "period": "Ur III (ca. 2100-2000 BC)",
        "dates_referenced": "Amar-Suen.05.01.22",
        "object_type": "tablet",
        "remarks": "",
        "material": "clay",
        "language": "Sumerian",
        "genre": "Administrative",
        "sub_genre": "",
        "cdli_comments": "",
        "catalogue_source": "20040921 fitzgerald_jena",
        "atf_source": "Liu Changyu",
        "translation": "no translation",
        "ucla_library_ark": "21198/zz001swjvj",
        "composite_number": "",
        "seal_number": "",
        "cdli_number": "P235901"
    },
    "from_cdli_archival_view": {
        "primary_publication": "unpublished unassigned ?",
        "author": "nn",
        "publication_date": "nd",
        "secondary_publications": "",
        "citation": "",
        "author_remarks": "",
        "published_collation": "",
        "cdli_number": "P235901",
        "ucla_library_ark": "21198/zz001swjvj",
        "cdli_comments": "",
        "catalogue": "20040921 fitzgerald_jena",
        "transliteration_remarks": "Liu Changyu",
        "translation_remarks": "no translation",
        "owner": "Hilprecht Collection, University of Jena, Germany",
        "museum_number": "HS 2306",
        "accession_number": "",
        "acquisition_history": "",
        "genre": "Administrative",
        "sub_genre": "",
        "sub_genre_remarks": "",
        "composite_number": "",
        "language": "Sumerian",
        "material": "clay",
        "object_remarks": "",
        "measurements_in_mm": "? x ? x ?",
        "object_preservation": "",
        "surface_preservation": "",
        "condition_description": "",
        "join_information": "",
        "seal_number": "",
        "seal_information": "",
        "provenience": "Puzri\u0161-Dagan (mod. Drehem)",
        "excavation_number": "",
        "findspot_square": "",
        "elevation": "",
        "stratigraphic_level": "",
        "findspot_remarks": "",
        "period": "Ur III (ca. 2100-2000 BC)",
        "period_remarks": "",
        "date_of_origin": "Amar-Suen.05.01.22",
        "dates_referenced": "Amar-Suen.05.01.22",
        "alternative_years": "",
        "accounting_period": "",
        "textual_content": "@Tablet\n@obverse  \n1. 1(disz) amar masz-da3 \n2. u4 2(u) 2(disz)-kam \n3. ki ab-ba-sa6-ga-ta \n4. lu2-dingir-ra \n@reverse \n1. i3-dab5 \n$ blank space \n2. iti masz-da3-gu7 \n3. mu en-unu6-gal {d}inanna unu{ki} ba-hun \n ",
        "photo_url": "https://cdli.ucla.edu/dl/tn_photo/P235901.jpg"
    },
    "from_gigamesh_info_program": {
        "filename": "HS_2306_GMOCF_r1.50_n4_v512",
        "model_id": "HS 2306",
        "model_material": "clay, original",
        "vertices_total": "403771",
        "vertices_nan": "0",
        "vertices_solo": "0",
        "vertices_polyline": "0",
        "vertices_border": "0",
        "vertices_nonmanifold": "0",
        "vertices_on_inverted_edge": "0",
        "vertices_part_of_zero_face": "0",
        "vertices_synthetic": "0",
        "vertices_manual": "0",
        "vertices_circle_center": "0",
        "vertices_selected": "0",
        "vertices_funcval_finite": "403771",
        "vertices_funcval_local_min": "7239",
        "vertices_funcval_local_max": "2955",
        "faces_total": "807538",
        "faces_solo": "0",
        "faces_border": "0",
        "faces_border_dangling": "0",
        "faces_manifold": "807538",
        "faces_nonmanifold": "0",
        "faces_sticky": "0",
        "faces_zeroarea": "0",
        "faces_inverted": "0",
        "faces_with_synth_vertices": "0",
        "boundingbox_min_x": "-13.3785",
        "boundingbox_min_y": "0",
        "boundingbox_min_z": "-6.6152",
        "boundingbox_max_x": "13.3785",
        "boundingbox_max_y": "29.6544",
        "boundingbox_max_z": "6.6152",
        "boundingbox_width": "2.7",
        "boundingbox_height": "3",
        "boundingbox_thick": "1.3",
        "total_area": "22.15",
        "total_volume_dx": "6513.83",
        "total_volume_dy": "6513.83",
        "total_volume_dz": "6513.83"
    }
}