{
    "from_gigamesh_info_file": {
        "filename": "HS_2061_GMOCF_r1.50_n4_v512.info.txt",
        "hs_number": "HS 2061",
        "radius_in_mm": "1.5",
        "count_of_radii": "16",
        "rastersize": "512^3",
        "gigamesh_version": "181204",
        "threads_used": "11",
        "input_filename": "HS_2061_GMOCF.ply",
        "output_filename": "HS_2061_GMOCF_r1.50_n4_v512",
        "radii": [
            1.0,
            0.94,
            0.88,
            0.81,
            0.75,
            0.69,
            0.62,
            0.56,
            0.5,
            0.44,
            0.38,
            0.31,
            0.25,
            0.19,
            0.12,
            0.06
        ],
        "model_id": "HS 2061",
        "material": "clay, original",
        "count_of_vertices": "2874379",
        "count_of_faces": "5748754",
        "bounding_box_in_cm": [
            4.9,
            8.2,
            2.8
        ],
        "area_in_cm2": "124.47",
        "volume_dx_in_cm3": "65.98",
        "volume_dy_in_cm3": "65.98",
        "volume_dz_in_cm3": "65.98",
        "processing_began_on": "Mon Dec 10 04:19:52 2018",
        "processing_finished_on": "Mon Dec 10 06:33:49 2018",
        "processing_wall_time_in_s": "8036"
    },
    "from_ply_filename": {
        "filename": "/export/data/vNGG/tmp/Hilprecht_Sammlung/04_MSII_filtered/HS_ALL_MSII_PLY/HS_2061_GMOCF_r1.50_n4_v512.ply",
        "hs_number": "HS 2061",
        "radius_in_mm": "1.50",
        "count_of_radii": 16,
        "rastersize": 512
    },
    "from_hilprecht3d": {
        "hs_number": "HS 2061",
        "tablet_url": "https://hilprecht.mpiwg-berlin.mpg.de/object3d/31159",
        "bibliography": "2016: TMH 10,"
    },
    "from_gigamesh_info_program": {
        "filename": "HS_2061_GMOCF_r1.50_n4_v512",
        "model_id": "HS 2061",
        "model_material": "clay, original",
        "vertices_total": "2874379",
        "vertices_nan": "0",
        "vertices_solo": "0",
        "vertices_polyline": "0",
        "vertices_border": "0",
        "vertices_nonmanifold": "0",
        "vertices_on_inverted_edge": "0",
        "vertices_part_of_zero_face": "0",
        "vertices_synthetic": "12",
        "vertices_manual": "0",
        "vertices_circle_center": "0",
        "vertices_selected": "0",
        "vertices_funcval_finite": "2874379",
        "vertices_funcval_local_min": "53264",
        "vertices_funcval_local_max": "21060",
        "faces_total": "5748754",
        "faces_solo": "0",
        "faces_border": "0",
        "faces_border_dangling": "0",
        "faces_manifold": "5748754",
        "faces_nonmanifold": "0",
        "faces_sticky": "0",
        "faces_zeroarea": "0",
        "faces_inverted": "0",
        "faces_with_synth_vertices": "1",
        "boundingbox_min_x": "-24.5454",
        "boundingbox_min_y": "0",
        "boundingbox_min_z": "-13.7756",
        "boundingbox_max_x": "24.5454",
        "boundingbox_max_y": "82.1625",
        "boundingbox_max_z": "13.7756",
        "boundingbox_width": "4.9",
        "boundingbox_height": "8.2",
        "boundingbox_thick": "2.8",
        "total_area": "124.47",
        "total_volume_dx": "65975.4",
        "total_volume_dy": "65975.4",
        "total_volume_dz": "65975.4"
    }
}