{
    "from_gigamesh_info_file": {
        "filename": "HS_2272_GMOCF_r1.50_n4_v512.info.txt",
        "hs_number": "HS 2272",
        "radius_in_mm": "1.5",
        "count_of_radii": "16",
        "rastersize": "512^3",
        "gigamesh_version": "181005",
        "threads_used": "7",
        "input_filename": "HS_2272_GMOCF.ply",
        "output_filename": "HS_2272_GMOCF_r1.50_n4_v512",
        "radii": [
            1.0,
            0.94,
            0.88,
            0.81,
            0.75,
            0.69,
            0.62,
            0.56,
            0.5,
            0.44,
            0.38,
            0.31,
            0.25,
            0.19,
            0.12,
            0.06
        ],
        "model_id": "HS 2272",
        "material": "clay, original",
        "count_of_vertices": "720954",
        "count_of_faces": "1441904",
        "bounding_box_in_cm": [
            3.2,
            3.6,
            1.6
        ],
        "area_in_cm2": "34.21",
        "volume_dx_in_cm3": "12.76",
        "volume_dy_in_cm3": "12.76",
        "volume_dz_in_cm3": "12.76",
        "processing_began_on": "Sat Dec  8 09:53:09 2018",
        "processing_finished_on": "Sat Dec  8 11:28:52 2018",
        "processing_wall_time_in_s": "5742"
    },
    "from_ply_filename": {
        "filename": "/export/data/vNGG/tmp/Hilprecht_Sammlung/04_MSII_filtered/HS_ALL_MSII_PLY/HS_2272_GMOCF_r1.50_n4_v512.ply",
        "hs_number": "HS 2272",
        "radius_in_mm": "1.50",
        "count_of_radii": 16,
        "rastersize": 512
    },
    "from_hilprecht3d": {
        "hs_number": "HS 2272",
        "tablet_url": "https://hilprecht.mpiwg-berlin.mpg.de/object3d/31300",
        "bibliography": "",
        "cdli_number": "300106"
    },
    "from_cdli_search_view": {
        "archival_view": "https://cdli.ucla.edu/search/archival_view.php?ObjectID=P235936",
        "primary_publication": "unpublished unassigned ?",
        "author": "nn",
        "publication_date": "nd",
        "secondary_publication": "",
        "collection": "Hilprecht Collection, University of Jena, Germany",
        "museum_number": "HS 2272",
        "accession_number": "",
        "provenience": "Puzri\u0161-Dagan (mod. Drehem)",
        "excavation_number": "",
        "period": "Ur III (ca. 2100-2000 BC)",
        "dates_referenced": "\u0160ulgi.46.01.01",
        "object_type": "tablet",
        "remarks": "",
        "material": "clay",
        "language": "Sumerian",
        "genre": "Administrative",
        "sub_genre": "",
        "cdli_comments": "",
        "catalogue_source": "20040921 fitzgerald_jena",
        "atf_source": "Liu Changyu",
        "translation": "no translation",
        "ucla_library_ark": "21198/zz001swnsz",
        "composite_number": "",
        "seal_number": "",
        "cdli_number": "P235936"
    },
    "from_cdli_archival_view": {
        "primary_publication": "unpublished unassigned ?",
        "author": "nn",
        "publication_date": "nd",
        "secondary_publications": "",
        "citation": "",
        "author_remarks": "",
        "published_collation": "",
        "cdli_number": "P235936",
        "ucla_library_ark": "21198/zz001swnsz",
        "cdli_comments": "",
        "catalogue": "20040921 fitzgerald_jena",
        "transliteration_remarks": "Liu Changyu",
        "translation_remarks": "no translation",
        "owner": "Hilprecht Collection, University of Jena, Germany",
        "museum_number": "HS 2272",
        "accession_number": "",
        "acquisition_history": "",
        "genre": "Administrative",
        "sub_genre": "",
        "sub_genre_remarks": "",
        "composite_number": "",
        "language": "Sumerian",
        "material": "clay",
        "object_remarks": "",
        "measurements_in_mm": "? x ? x ?",
        "object_preservation": "",
        "surface_preservation": "",
        "condition_description": "",
        "join_information": "",
        "seal_number": "",
        "seal_information": "",
        "provenience": "Puzri\u0161-Dagan (mod. Drehem)",
        "excavation_number": "",
        "findspot_square": "",
        "elevation": "",
        "stratigraphic_level": "",
        "findspot_remarks": "",
        "period": "Ur III (ca. 2100-2000 BC)",
        "period_remarks": "",
        "date_of_origin": "\u0160ulgi.46.01.01",
        "dates_referenced": "\u0160ulgi.46.01.01",
        "alternative_years": "",
        "accounting_period": "",
        "textual_content": "@Tablet\n@obverse \n1. 1(disz) amar masz-da3 \n2. lu2-{d}nanna \n3. 1(u) la2 1(disz@t) amar masz-da3 \n4. e2-a-i3-li2 \n5. 1(u) sila4 szar-ru-um-ba-ni \n6. 2(disz) amar masz-da3 \n@reverse \n1. te-te \n2. 1(disz) amar masz-da3 \n3. en {d}inanna \n$ blank space \n4. mu-kux(DU) \n5. iti masz-da3-gu7 \n6. mu ki-masz{ki} u3 hu-ur5-ti{ki} ba-hul \n@left \n1. u4 1(disz)-kam \n \n \n ",
        "photo_url": "https://cdli.ucla.edu/dl/tn_photo/P235936.jpg"
    },
    "from_gigamesh_info_program": {
        "filename": "HS_2272_GMOCF_r1.50_n4_v512",
        "model_id": "HS 2272",
        "model_material": "clay, original",
        "vertices_total": "720954",
        "vertices_nan": "0",
        "vertices_solo": "0",
        "vertices_polyline": "0",
        "vertices_border": "0",
        "vertices_nonmanifold": "0",
        "vertices_on_inverted_edge": "0",
        "vertices_part_of_zero_face": "0",
        "vertices_synthetic": "0",
        "vertices_manual": "0",
        "vertices_circle_center": "0",
        "vertices_selected": "0",
        "vertices_funcval_finite": "720954",
        "vertices_funcval_local_min": "13584",
        "vertices_funcval_local_max": "6969",
        "faces_total": "1441904",
        "faces_solo": "0",
        "faces_border": "0",
        "faces_border_dangling": "0",
        "faces_manifold": "1441904",
        "faces_nonmanifold": "0",
        "faces_sticky": "0",
        "faces_zeroarea": "0",
        "faces_inverted": "0",
        "faces_with_synth_vertices": "0",
        "boundingbox_min_x": "-16.0505",
        "boundingbox_min_y": "0",
        "boundingbox_min_z": "-8.1786",
        "boundingbox_max_x": "16.0505",
        "boundingbox_max_y": "35.8867",
        "boundingbox_max_z": "8.1786",
        "boundingbox_width": "3.2",
        "boundingbox_height": "3.6",
        "boundingbox_thick": "1.6",
        "total_area": "34.21",
        "total_volume_dx": "12758.5",
        "total_volume_dy": "12758.5",
        "total_volume_dz": "12758.5"
    }
}