{
    "from_gigamesh_info_file": {
        "filename": "HS_2410_GMOCF_r1.50_n4_v512.info.txt",
        "hs_number": "HS 2410",
        "radius_in_mm": "1.5",
        "count_of_radii": "16",
        "rastersize": "512^3",
        "gigamesh_version": "181005",
        "threads_used": "7",
        "input_filename": "HS_2410_GMOCF.ply",
        "output_filename": "HS_2410_GMOCF_r1.50_n4_v512",
        "radii": [
            1.0,
            0.94,
            0.88,
            0.81,
            0.75,
            0.69,
            0.62,
            0.56,
            0.5,
            0.44,
            0.38,
            0.31,
            0.25,
            0.19,
            0.12,
            0.06
        ],
        "model_id": "HS 2410",
        "material": "clay, original",
        "count_of_vertices": "2770107",
        "count_of_faces": "5540210",
        "bounding_box_in_cm": [
            6.2,
            6.8,
            2.7
        ],
        "area_in_cm2": "123.14",
        "volume_dx_in_cm3": "64.39",
        "volume_dy_in_cm3": "64.39",
        "volume_dz_in_cm3": "64.39",
        "processing_began_on": "Sat Dec  8 13:03:32 2018",
        "processing_finished_on": "Sat Dec  8 19:35:25 2018",
        "processing_wall_time_in_s": "23513"
    },
    "from_ply_filename": {
        "filename": "/export/data/vNGG/tmp/Hilprecht_Sammlung/04_MSII_filtered/HS_ALL_MSII_PLY/HS_2410_GMOCF_r1.50_n4_v512.ply",
        "hs_number": "HS 2410",
        "radius_in_mm": "1.50",
        "count_of_radii": 16,
        "rastersize": 512
    },
    "from_hilprecht3d": {
        "hs_number": "HS 2410",
        "tablet_url": "https://hilprecht.mpiwg-berlin.mpg.de/object3d/31443",
        "bibliography": ""
    },
    "from_gigamesh_info_program": {
        "filename": "HS_2410_GMOCF_r1.50_n4_v512",
        "model_id": "HS 2410",
        "model_material": "clay, original",
        "vertices_total": "2770107",
        "vertices_nan": "0",
        "vertices_solo": "0",
        "vertices_polyline": "0",
        "vertices_border": "0",
        "vertices_nonmanifold": "0",
        "vertices_on_inverted_edge": "0",
        "vertices_part_of_zero_face": "0",
        "vertices_synthetic": "39",
        "vertices_manual": "0",
        "vertices_circle_center": "0",
        "vertices_selected": "0",
        "vertices_funcval_finite": "2770107",
        "vertices_funcval_local_min": "55559",
        "vertices_funcval_local_max": "18818",
        "faces_total": "5540210",
        "faces_solo": "0",
        "faces_border": "0",
        "faces_border_dangling": "0",
        "faces_manifold": "5540210",
        "faces_nonmanifold": "0",
        "faces_sticky": "0",
        "faces_zeroarea": "0",
        "faces_inverted": "0",
        "faces_with_synth_vertices": "6",
        "boundingbox_min_x": "-30.8353",
        "boundingbox_min_y": "0",
        "boundingbox_min_z": "-13.3255",
        "boundingbox_max_x": "30.8353",
        "boundingbox_max_y": "67.5255",
        "boundingbox_max_z": "13.3255",
        "boundingbox_width": "6.2",
        "boundingbox_height": "6.8",
        "boundingbox_thick": "2.7",
        "total_area": "123.14",
        "total_volume_dx": "64393.4",
        "total_volume_dy": "64393.4",
        "total_volume_dz": "64393.4"
    }
}