{
    "from_gigamesh_info_file": {
        "filename": "HS_2092_GMOCF_r1.50_n4_v512.info.txt",
        "hs_number": "HS 2092",
        "radius_in_mm": "1.5",
        "count_of_radii": "16",
        "rastersize": "512^3",
        "gigamesh_version": "181005",
        "threads_used": "7",
        "input_filename": "HS_2092_GMOCF.ply",
        "output_filename": "HS_2092_GMOCF_r1.50_n4_v512",
        "radii": [
            1.0,
            0.94,
            0.88,
            0.81,
            0.75,
            0.69,
            0.62,
            0.56,
            0.5,
            0.44,
            0.38,
            0.31,
            0.25,
            0.19,
            0.12,
            0.06
        ],
        "model_id": "HS 2092",
        "material": "clay, original",
        "count_of_vertices": "1243181",
        "count_of_faces": "2486358",
        "bounding_box_in_cm": [
            3.8,
            5.9,
            2.0
        ],
        "area_in_cm2": "61.96",
        "volume_dx_in_cm3": "28.27",
        "volume_dy_in_cm3": "28.27",
        "volume_dz_in_cm3": "28.27",
        "processing_began_on": "Sat Dec  8 10:14:41 2018",
        "processing_finished_on": "Sat Dec  8 12:56:26 2018",
        "processing_wall_time_in_s": "9704"
    },
    "from_ply_filename": {
        "filename": "/export/data/vNGG/tmp/Hilprecht_Sammlung/04_MSII_filtered/HS_ALL_MSII_PLY/HS_2092_GMOCF_r1.50_n4_v512.ply",
        "hs_number": "HS 2092",
        "radius_in_mm": "1.50",
        "count_of_radii": 16,
        "rastersize": 512
    },
    "from_hilprecht3d": {
        "hs_number": "HS 2092",
        "tablet_url": "https://hilprecht.mpiwg-berlin.mpg.de/object3d/31189",
        "bibliography": ""
    },
    "from_gigamesh_info_program": {
        "filename": "HS_2092_GMOCF_r1.50_n4_v512",
        "model_id": "HS 2092",
        "model_material": "clay, original",
        "vertices_total": "1243181",
        "vertices_nan": "0",
        "vertices_solo": "0",
        "vertices_polyline": "0",
        "vertices_border": "0",
        "vertices_nonmanifold": "0",
        "vertices_on_inverted_edge": "0",
        "vertices_part_of_zero_face": "0",
        "vertices_synthetic": "0",
        "vertices_manual": "0",
        "vertices_circle_center": "0",
        "vertices_selected": "0",
        "vertices_funcval_finite": "1243181",
        "vertices_funcval_local_min": "25450",
        "vertices_funcval_local_max": "12313",
        "faces_total": "2486358",
        "faces_solo": "0",
        "faces_border": "0",
        "faces_border_dangling": "0",
        "faces_manifold": "2486358",
        "faces_nonmanifold": "0",
        "faces_sticky": "0",
        "faces_zeroarea": "0",
        "faces_inverted": "0",
        "faces_with_synth_vertices": "0",
        "boundingbox_min_x": "-18.947",
        "boundingbox_min_y": "0",
        "boundingbox_min_z": "-10.0629",
        "boundingbox_max_x": "18.947",
        "boundingbox_max_y": "58.6465",
        "boundingbox_max_z": "10.0629",
        "boundingbox_width": "3.8",
        "boundingbox_height": "5.9",
        "boundingbox_thick": "2",
        "total_area": "61.96",
        "total_volume_dx": "28268.9",
        "total_volume_dy": "28268.9",
        "total_volume_dz": "28268.9"
    }
}