{
    "from_gigamesh_info_file": {
        "filename": "HS_2488a_GMOCF_r1.50_n4_v512.info.txt",
        "hs_number": "HS 2488a",
        "radius_in_mm": "1.5",
        "count_of_radii": "16",
        "rastersize": "512^3",
        "gigamesh_version": "181005",
        "threads_used": "7",
        "input_filename": "HS_2488a_GMOCF.ply",
        "output_filename": "HS_2488a_GMOCF_r1.50_n4_v512",
        "radii": [
            1.0,
            0.94,
            0.88,
            0.81,
            0.75,
            0.69,
            0.62,
            0.56,
            0.5,
            0.44,
            0.38,
            0.31,
            0.25,
            0.19,
            0.12,
            0.06
        ],
        "model_id": "HS 2488a",
        "material": "clay, original",
        "count_of_vertices": "754254",
        "count_of_faces": "1508504",
        "bounding_box_in_cm": [
            5.7,
            7.7,
            3.3
        ],
        "area_in_cm2": "102.98",
        "volume_dx_in_cm3": "59.89",
        "volume_dy_in_cm3": "59.89",
        "volume_dz_in_cm3": "59.89",
        "processing_began_on": "Sat Dec  8 18:34:36 2018",
        "processing_finished_on": "Sat Dec  8 19:32:00 2018",
        "processing_wall_time_in_s": "3443"
    },
    "from_ply_filename": {
        "filename": "/export/data/vNGG/tmp/Hilprecht_Sammlung/04_MSII_filtered/HS_ALL_MSII_PLY/HS_2488a_GMOCF_r1.50_n4_v512.ply",
        "hs_number": "HS 2488a",
        "radius_in_mm": "1.50",
        "count_of_radii": 16,
        "rastersize": 512
    },
    "from_hilprecht3d": {
        "hs_number": "HS 2488a",
        "tablet_url": "https://hilprecht.mpiwg-berlin.mpg.de/object3d/31519",
        "bibliography": ""
    },
    "from_gigamesh_info_program": {
        "filename": "HS_2488a_GMOCF_r1.50_n4_v512",
        "model_id": "HS 2488a",
        "model_material": "clay, original",
        "vertices_total": "754254",
        "vertices_nan": "0",
        "vertices_solo": "0",
        "vertices_polyline": "0",
        "vertices_border": "0",
        "vertices_nonmanifold": "0",
        "vertices_on_inverted_edge": "0",
        "vertices_part_of_zero_face": "0",
        "vertices_synthetic": "0",
        "vertices_manual": "0",
        "vertices_circle_center": "0",
        "vertices_selected": "0",
        "vertices_funcval_finite": "754254",
        "vertices_funcval_local_min": "19524",
        "vertices_funcval_local_max": "6445",
        "faces_total": "1508504",
        "faces_solo": "0",
        "faces_border": "0",
        "faces_border_dangling": "0",
        "faces_manifold": "1508504",
        "faces_nonmanifold": "0",
        "faces_sticky": "0",
        "faces_zeroarea": "0",
        "faces_inverted": "0",
        "faces_with_synth_vertices": "0",
        "boundingbox_min_x": "-28.592",
        "boundingbox_min_y": "0",
        "boundingbox_min_z": "-16.5486",
        "boundingbox_max_x": "28.592",
        "boundingbox_max_y": "77.4732",
        "boundingbox_max_z": "16.5486",
        "boundingbox_width": "5.7",
        "boundingbox_height": "7.7",
        "boundingbox_thick": "3.3",
        "total_area": "102.98",
        "total_volume_dx": "59894.1",
        "total_volume_dy": "59894.1",
        "total_volume_dz": "59894.1"
    }
}