{
    "from_gigamesh_info_file": {
        "filename": "HS_386_GMOCF_r1.50_n4_v512.info.txt",
        "hs_number": "HS 386",
        "radius_in_mm": "1.5",
        "count_of_radii": "16",
        "rastersize": "512^3",
        "input_filename": "HS_386_GMOCF.ply",
        "output_filename": "HS_386_GMOCF_r1.50_n4_v512",
        "radii": [
            1.0,
            0.94,
            0.88,
            0.81,
            0.75,
            0.69,
            0.62,
            0.56,
            0.5,
            0.44,
            0.38,
            0.31,
            0.25,
            0.19,
            0.12,
            0.06
        ],
        "model_id": "HS 386",
        "material": "clay, original",
        "count_of_vertices": "712190",
        "count_of_faces": "1424376",
        "bounding_box_in_cm": [
            3.6,
            2.8,
            1.6
        ],
        "area_in_cm2": "26.11",
        "volume_dx_in_cm3": "8.60",
        "volume_dy_in_cm3": "8.60",
        "volume_dz_in_cm3": "8.60",
        "processing_began_on": "Mon Dec 17 20:57:08 2018",
        "processing_finished_on": "Mon Dec 17 21:56:24 2018",
        "processing_wall_time_in_s": "3555"
    },
    "from_ply_filename": {
        "filename": "/export/data/vNGG/tmp/Hilprecht_Sammlung/04_MSII_filtered/HS_ALL_MSII_PLY/HS_386_GMOCF_r1.50_n4_v512.ply",
        "hs_number": "HS 386",
        "radius_in_mm": "1.50",
        "count_of_radii": 16,
        "rastersize": 512
    },
    "from_hilprecht3d": {
        "hs_number": "HS 0386",
        "tablet_url": "https://hilprecht.mpiwg-berlin.mpg.de/object3d/31727",
        "bibliography": "1932: TMH 1, Tf. 27c"
    },
    "from_cdli_search_view": {
        "archival_view": "https://cdli.ucla.edu/search/archival_view.php?ObjectID=P358138",
        "primary_publication": "TMH 01, 27c",
        "author": "Lewy, Julius",
        "publication_date": "1932",
        "secondary_publication": "Ulsh\u00f6fer, FAOS Beih 4, 495",
        "collection": "Hilprecht Collection, University of Jena, Germany",
        "museum_number": "HS 0386",
        "accession_number": "",
        "provenience": "Kanesh (mod. K\u00fcltepe)",
        "excavation_number": "",
        "period": "Old Assyrian (ca. 1950-1850 BC)",
        "dates_referenced": "",
        "object_type": "tablet",
        "remarks": "",
        "material": "clay",
        "language": "",
        "genre": "",
        "sub_genre": "",
        "cdli_comments": "",
        "catalogue_source": "20070209 dahl",
        "atf_source": "Old Assyrian Text Project",
        "translation": "no translation",
        "ucla_library_ark": "21198/zz0021wgg5",
        "composite_number": "",
        "seal_number": "",
        "cdli_number": "P358138"
    },
    "from_cdli_archival_view": {
        "primary_publication": "TMH 01, 27c",
        "author": "Lewy, Julius",
        "publication_date": "1932",
        "secondary_publications": "Ulsh\u00f6fer, FAOS Beih 4, 495",
        "citation": "",
        "author_remarks": "",
        "published_collation": "",
        "cdli_number": "P358138",
        "ucla_library_ark": "21198/zz0021wgg5",
        "cdli_comments": "",
        "catalogue": "20070209 dahl",
        "transliteration_remarks": "Old Assyrian Text Project",
        "translation_remarks": "no translation",
        "owner": "Hilprecht Collection, University of Jena, Germany",
        "museum_number": "HS 0386",
        "accession_number": "",
        "acquisition_history": "",
        "genre": "",
        "sub_genre": "",
        "sub_genre_remarks": "",
        "composite_number": "",
        "language": "",
        "material": "clay",
        "object_remarks": "",
        "measurements_in_mm": "x  x",
        "object_preservation": "",
        "surface_preservation": "",
        "condition_description": "",
        "join_information": "",
        "seal_number": "",
        "seal_information": "",
        "provenience": "Kanesh (mod. K\u00fcltepe)",
        "excavation_number": "",
        "findspot_square": "",
        "elevation": "",
        "stratigraphic_level": "",
        "findspot_remarks": "",
        "period": "Old Assyrian (ca. 1950-1850 BC)",
        "period_remarks": "",
        "date_of_origin": "",
        "dates_referenced": "",
        "alternative_years": "",
        "accounting_period": "",
        "textual_content": "@Tablet\n@obverse \n1. 3(u) 6(disz) _tug2 hi-a_ \n2. sza szu-esz18-dar \n3. sza isz-tu3 \n4. za-al-pa2 \n5. ub-lu-ni-ni \n@reverse \n1. i-na 7(disz) \n2. na-ru-qa2-tim \n3. dar-ku "
    },
    "from_gigamesh_info_program": {
        "filename": "HS_386_GMOCF_r1.50_n4_v512",
        "model_id": "HS 386",
        "model_material": "clay, original",
        "vertices_total": "712190",
        "vertices_nan": "0",
        "vertices_solo": "0",
        "vertices_polyline": "0",
        "vertices_border": "0",
        "vertices_nonmanifold": "0",
        "vertices_on_inverted_edge": "0",
        "vertices_part_of_zero_face": "0",
        "vertices_synthetic": "0",
        "vertices_manual": "0",
        "vertices_circle_center": "0",
        "vertices_selected": "0",
        "vertices_funcval_finite": "712190",
        "vertices_funcval_local_min": "13896",
        "vertices_funcval_local_max": "6460",
        "faces_total": "1424376",
        "faces_solo": "0",
        "faces_border": "0",
        "faces_border_dangling": "0",
        "faces_manifold": "1424376",
        "faces_nonmanifold": "0",
        "faces_sticky": "0",
        "faces_zeroarea": "0",
        "faces_inverted": "0",
        "faces_with_synth_vertices": "0",
        "boundingbox_min_x": "-18.2468",
        "boundingbox_min_y": "0",
        "boundingbox_min_z": "-7.973",
        "boundingbox_max_x": "18.2468",
        "boundingbox_max_y": "27.858",
        "boundingbox_max_z": "7.973",
        "boundingbox_width": "3.6",
        "boundingbox_height": "2.8",
        "boundingbox_thick": "1.6",
        "total_area": "26.11",
        "total_volume_dx": "8598.7",
        "total_volume_dy": "8598.7",
        "total_volume_dz": "8598.7"
    }
}