{
    "from_gigamesh_info_file": {
        "filename": "HS_365_GMOCF_r1.50_n4_v512.info.txt",
        "hs_number": "HS 365",
        "radius_in_mm": "1.5",
        "count_of_radii": "16",
        "rastersize": "512^3",
        "input_filename": "HS_365_GMOCF.ply",
        "output_filename": "HS_365_GMOCF_r1.50_n4_v512",
        "radii": [
            1.0,
            0.94,
            0.88,
            0.81,
            0.75,
            0.69,
            0.62,
            0.56,
            0.5,
            0.44,
            0.38,
            0.31,
            0.25,
            0.19,
            0.12,
            0.06
        ],
        "model_id": "HS 365",
        "material": "clay, original",
        "count_of_vertices": "1595495",
        "count_of_faces": "3190986",
        "bounding_box_in_cm": [
            6.1,
            4.9,
            1.4
        ],
        "area_in_cm2": "67.93",
        "volume_dx_in_cm3": "21.00",
        "volume_dy_in_cm3": "21.00",
        "volume_dz_in_cm3": "21.00",
        "processing_began_on": "Mon Dec 17 20:44:20 2018",
        "processing_finished_on": "Mon Dec 17 21:10:26 2018",
        "processing_wall_time_in_s": "1565"
    },
    "from_ply_filename": {
        "filename": "/export/data/vNGG/tmp/Hilprecht_Sammlung/04_MSII_filtered/HS_ALL_MSII_PLY/HS_365_GMOCF_r1.50_n4_v512.ply",
        "hs_number": "HS 365",
        "radius_in_mm": "1.50",
        "count_of_radii": 16,
        "rastersize": 512
    },
    "from_hilprecht3d": {
        "hs_number": "HS 0365",
        "tablet_url": "https://hilprecht.mpiwg-berlin.mpg.de/object3d/31722",
        "bibliography": "1932: TMH 1, Tf. 07d"
    },
    "from_cdli_search_view": {
        "archival_view": "https://cdli.ucla.edu/search/archival_view.php?ObjectID=P358074",
        "primary_publication": "TMH 01, 07d",
        "author": "Lewy, Julius",
        "publication_date": "1932",
        "secondary_publication": "",
        "collection": "Hilprecht Collection, University of Jena, Germany",
        "museum_number": "HS 0365",
        "accession_number": "",
        "provenience": "Kanesh (mod. K\u00fcltepe)",
        "excavation_number": "",
        "period": "Old Assyrian (ca. 1950-1850 BC)",
        "dates_referenced": "",
        "object_type": "tablet",
        "remarks": "",
        "material": "clay",
        "language": "",
        "genre": "",
        "sub_genre": "",
        "cdli_comments": "20091124 oatp: e. 1': broken",
        "catalogue_source": "20070209 dahl",
        "atf_source": "Old Assyrian Text Project",
        "translation": "no translation",
        "ucla_library_ark": "21198/zz0021sksx",
        "composite_number": "",
        "seal_number": "",
        "cdli_number": "P358074"
    },
    "from_cdli_archival_view": {
        "primary_publication": "TMH 01, 07d",
        "author": "Lewy, Julius",
        "publication_date": "1932",
        "secondary_publications": "",
        "citation": "",
        "author_remarks": "",
        "published_collation": "",
        "cdli_number": "P358074",
        "ucla_library_ark": "21198/zz0021sksx",
        "cdli_comments": "20091124 oatp: e. 1': broken",
        "catalogue": "20070209 dahl",
        "transliteration_remarks": "Old Assyrian Text Project",
        "translation_remarks": "no translation",
        "owner": "Hilprecht Collection, University of Jena, Germany",
        "museum_number": "HS 0365",
        "accession_number": "",
        "acquisition_history": "",
        "genre": "",
        "sub_genre": "",
        "sub_genre_remarks": "",
        "composite_number": "",
        "language": "",
        "material": "clay",
        "object_remarks": "",
        "measurements_in_mm": "x  x",
        "object_preservation": "",
        "surface_preservation": "",
        "condition_description": "",
        "join_information": "",
        "seal_number": "",
        "seal_information": "",
        "provenience": "Kanesh (mod. K\u00fcltepe)",
        "excavation_number": "",
        "findspot_square": "",
        "elevation": "",
        "stratigraphic_level": "",
        "findspot_remarks": "",
        "period": "Old Assyrian (ca. 1950-1850 BC)",
        "period_remarks": "",
        "date_of_origin": "",
        "dates_referenced": "",
        "alternative_years": "",
        "accounting_period": "",
        "textual_content": "@Tablet\n@obverse \n1'. a-na ga-ri#-x-[...] \n2'. u2-la2 i-tu3-wa-[ar] \n3'. da-mu-szu-nu / asz2-[...] \n4'. a-pu-tum ki-ma t,up-[pi2] \n5'. ta-asz2-me-a-ni \n6'. 1(disz) _gir2_ sza {d}a-szur3# \n7'. sze2-s,i2-a-ma / la2 x [...] \n8'. szi2-la2-ti? \n9'. x-ni-a-tim \n10'. x x ar x [...] \n@edge \n1'. [...] _ku3#-babbar#_ i# ga# ri "
    },
    "from_gigamesh_info_program": {
        "filename": "HS_365_GMOCF_r1.50_n4_v512",
        "model_id": "HS 365",
        "model_material": "clay, original",
        "vertices_total": "1595495",
        "vertices_nan": "0",
        "vertices_solo": "0",
        "vertices_polyline": "0",
        "vertices_border": "0",
        "vertices_nonmanifold": "0",
        "vertices_on_inverted_edge": "0",
        "vertices_part_of_zero_face": "0",
        "vertices_synthetic": "0",
        "vertices_manual": "0",
        "vertices_circle_center": "0",
        "vertices_selected": "0",
        "vertices_funcval_finite": "1595495",
        "vertices_funcval_local_min": "30181",
        "vertices_funcval_local_max": "13605",
        "faces_total": "3190986",
        "faces_solo": "0",
        "faces_border": "0",
        "faces_border_dangling": "0",
        "faces_manifold": "3190986",
        "faces_nonmanifold": "0",
        "faces_sticky": "0",
        "faces_zeroarea": "0",
        "faces_inverted": "0",
        "faces_with_synth_vertices": "0",
        "boundingbox_min_x": "-30.3049",
        "boundingbox_min_y": "0",
        "boundingbox_min_z": "-7.155",
        "boundingbox_max_x": "30.3049",
        "boundingbox_max_y": "48.7071",
        "boundingbox_max_z": "7.155",
        "boundingbox_width": "6.1",
        "boundingbox_height": "4.9",
        "boundingbox_thick": "1.4",
        "total_area": "67.93",
        "total_volume_dx": "21001.6",
        "total_volume_dy": "21001.6",
        "total_volume_dz": "21001.6"
    }
}