{
    "from_gigamesh_info_file": {
        "filename": "HS_360_GMOCF_r1.50_n4_v512.info.txt",
        "hs_number": "HS 360",
        "radius_in_mm": "1.5",
        "count_of_radii": "16",
        "rastersize": "512^3",
        "input_filename": "HS_360_GMOCF.ply",
        "output_filename": "HS_360_GMOCF_r1.50_n4_v512",
        "radii": [
            1.0,
            0.94,
            0.88,
            0.81,
            0.75,
            0.69,
            0.62,
            0.56,
            0.5,
            0.44,
            0.38,
            0.31,
            0.25,
            0.19,
            0.12,
            0.06
        ],
        "model_id": "HS 360",
        "material": "clay, original",
        "count_of_vertices": "1314072",
        "count_of_faces": "2628140",
        "bounding_box_in_cm": [
            4.7,
            4.4,
            1.8
        ],
        "area_in_cm2": "51.84",
        "volume_dx_in_cm3": "18.17",
        "volume_dy_in_cm3": "18.17",
        "volume_dz_in_cm3": "18.17",
        "processing_began_on": "Mon Dec 17 20:30:56 2018",
        "processing_finished_on": "Mon Dec 17 20:45:38 2018",
        "processing_wall_time_in_s": "879"
    },
    "from_ply_filename": {
        "filename": "/export/data/vNGG/tmp/Hilprecht_Sammlung/04_MSII_filtered/HS_ALL_MSII_PLY/HS_360_GMOCF_r1.50_n4_v512.ply",
        "hs_number": "HS 360",
        "radius_in_mm": "1.50",
        "count_of_radii": 16,
        "rastersize": 512
    },
    "from_hilprecht3d": {
        "hs_number": "HS 0360",
        "tablet_url": "https://hilprecht.mpiwg-berlin.mpg.de/object3d/31720",
        "bibliography": "1932: TMH 1, Tf. 05c"
    },
    "from_cdli_search_view": {
        "archival_view": "https://cdli.ucla.edu/search/archival_view.php?ObjectID=P358064",
        "primary_publication": "TMH 01, 05c",
        "author": "Lewy, Julius",
        "publication_date": "1932",
        "secondary_publication": "Michel, Innaya 115",
        "collection": "Hilprecht Collection, University of Jena, Germany",
        "museum_number": "HS 0360",
        "accession_number": "",
        "provenience": "Kanesh (mod. K\u00fcltepe)",
        "excavation_number": "",
        "period": "Old Assyrian (ca. 1950-1850 BC)",
        "dates_referenced": "",
        "object_type": "tablet",
        "remarks": "",
        "material": "clay",
        "language": "",
        "genre": "",
        "sub_genre": "",
        "cdli_comments": "",
        "catalogue_source": "20070209 dahl",
        "atf_source": "Old Assyrian Text Project",
        "translation": "no translation",
        "ucla_library_ark": "21198/zz00200wt2",
        "composite_number": "",
        "seal_number": "",
        "cdli_number": "P358064"
    },
    "from_cdli_archival_view": {
        "primary_publication": "TMH 01, 05c",
        "author": "Lewy, Julius",
        "publication_date": "1932",
        "secondary_publications": "Michel, Innaya 115",
        "citation": "",
        "author_remarks": "",
        "published_collation": "",
        "cdli_number": "P358064",
        "ucla_library_ark": "21198/zz00200wt2",
        "cdli_comments": "",
        "catalogue": "20070209 dahl",
        "transliteration_remarks": "Old Assyrian Text Project",
        "translation_remarks": "no translation",
        "owner": "Hilprecht Collection, University of Jena, Germany",
        "museum_number": "HS 0360",
        "accession_number": "",
        "acquisition_history": "",
        "genre": "",
        "sub_genre": "",
        "sub_genre_remarks": "",
        "composite_number": "",
        "language": "",
        "material": "clay",
        "object_remarks": "",
        "measurements_in_mm": "x  x",
        "object_preservation": "",
        "surface_preservation": "",
        "condition_description": "",
        "join_information": "",
        "seal_number": "",
        "seal_information": "",
        "provenience": "Kanesh (mod. K\u00fcltepe)",
        "excavation_number": "",
        "findspot_square": "",
        "elevation": "",
        "stratigraphic_level": "",
        "findspot_remarks": "",
        "period": "Old Assyrian (ca. 1950-1850 BC)",
        "period_remarks": "",
        "date_of_origin": "",
        "dates_referenced": "",
        "alternative_years": "",
        "accounting_period": "",
        "textual_content": "@Tablet\n@obverse \n1'. [a]-na [... ni-ka3-si2] \n2'. ni-si2 5(u)#? [...] \n3'. 1(disz) 1/2(disz) _ma-na ku3#-[babbar_ a-szur3-_gal_] \n4'. ma-ha-i / u2-sze2-[bi-la2-ku-nu-ti2] \n5'. _ku3-babbar_ a-mi3-a-am / a-na#-[ku] \n6'. u3 a-szur3-_gal_ ma-ha-[i (...)] \n7'. a-na szal2-ma-a-szur _dumu_ i-tur4-[_dingir_] \n8'. ha-bu-la2-a-ni t,up-pi2 \n9'. la2-pi2-it / _ki_ i-na-a \n10'. _dumu_ e-la2-li2 / i-ba-szi2 \n11'. t,up-pi2 am-ra-ma szu-ma \n@reverse \n1'. u4-mu-u2-a e-ti2-qu2 \n2'. s,i2-ib-tam2 sza-hi-t,a2-ma# \n3'. szu-ma i-la2-qe2 2(disz) 1/2(disz) ma-[na _ku3-babbar_] \n4'. sza a-szur3-_gal_ u2-sze2-[bi-la2-ku-nu-ti2-ni] \n5'. szu-uq-la2-szu-ma u3 szu-[ma ...] \n6'. bu-tu3-qa2-u2 _ku3-babbar#_ [i-ba-szi2-u2] \n7'. a-szur3-gal _dumu_ a-gu5-za# \n8. t,up-pi2 / _ki_ i-[na-a _dumu_ e-la2-li2] \n9. sze2-s,i2-a-[ma i-li-bi t,up-pi2-a] \n10. szu-[uk-na-szu] \n$ (broken) \n@left \n1. [a-na szal2-ma-a]-szur3 sze2-s,i2-a-ma \n2. [_ki_] a-szur3-gal _dumu_ a-gu5-za li-ib-szi2 "
    },
    "from_gigamesh_info_program": {
        "filename": "HS_360_GMOCF_r1.50_n4_v512",
        "model_id": "HS 360",
        "model_material": "clay, original",
        "vertices_total": "1314072",
        "vertices_nan": "0",
        "vertices_solo": "0",
        "vertices_polyline": "0",
        "vertices_border": "0",
        "vertices_nonmanifold": "0",
        "vertices_on_inverted_edge": "0",
        "vertices_part_of_zero_face": "0",
        "vertices_synthetic": "11",
        "vertices_manual": "0",
        "vertices_circle_center": "0",
        "vertices_selected": "11",
        "vertices_funcval_finite": "1314072",
        "vertices_funcval_local_min": "26124",
        "vertices_funcval_local_max": "11030",
        "faces_total": "2628140",
        "faces_solo": "0",
        "faces_border": "0",
        "faces_border_dangling": "0",
        "faces_manifold": "2628140",
        "faces_nonmanifold": "0",
        "faces_sticky": "0",
        "faces_zeroarea": "0",
        "faces_inverted": "0",
        "faces_with_synth_vertices": "3",
        "boundingbox_min_x": "-23.3087",
        "boundingbox_min_y": "0",
        "boundingbox_min_z": "-9.0754",
        "boundingbox_max_x": "23.3087",
        "boundingbox_max_y": "44.2552",
        "boundingbox_max_z": "9.0754",
        "boundingbox_width": "4.7",
        "boundingbox_height": "4.4",
        "boundingbox_thick": "1.8",
        "total_area": "51.84",
        "total_volume_dx": "18166.8",
        "total_volume_dy": "18166.8",
        "total_volume_dz": "18166.8"
    }
}