{
    "from_gigamesh_info_file": {
        "filename": "HS_484_GMOCF_r1.50_n4_v512.info.txt",
        "hs_number": "HS 484",
        "radius_in_mm": "1.5",
        "count_of_radii": "16",
        "rastersize": "512^3",
        "input_filename": "HS_484_GMOCF.ply",
        "output_filename": "HS_484_GMOCF_r1.50_n4_v512",
        "radii": [
            1.0,
            0.94,
            0.88,
            0.81,
            0.75,
            0.69,
            0.62,
            0.56,
            0.5,
            0.44,
            0.38,
            0.31,
            0.25,
            0.19,
            0.12,
            0.06
        ],
        "model_id": "HS 484",
        "material": "clay, original",
        "count_of_vertices": "1137153",
        "count_of_faces": "2274302",
        "bounding_box_in_cm": [
            5.0,
            3.4,
            2.0
        ],
        "area_in_cm2": "47.50",
        "volume_dx_in_cm3": "18.52",
        "volume_dy_in_cm3": "18.52",
        "volume_dz_in_cm3": "18.52",
        "processing_began_on": "Tue Dec 18 00:17:15 2018",
        "processing_finished_on": "Tue Dec 18 00:29:12 2018",
        "processing_wall_time_in_s": "714"
    },
    "from_ply_filename": {
        "filename": "/export/data/vNGG/tmp/Hilprecht_Sammlung/04_MSII_filtered/HS_ALL_MSII_PLY/HS_484_GMOCF_r1.50_n4_v512.ply",
        "hs_number": "HS 484",
        "radius_in_mm": "1.50",
        "count_of_radii": 16,
        "rastersize": 512
    },
    "from_hilprecht3d": {
        "hs_number": "HS 0484",
        "tablet_url": "https://hilprecht.mpiwg-berlin.mpg.de/object3d/31777",
        "bibliography": "1933: TMH 2-3, 40"
    },
    "from_gigamesh_info_program": {
        "filename": "HS_484_GMOCF_r1.50_n4_v512",
        "model_id": "HS 484",
        "model_material": "clay, original",
        "vertices_total": "1137153",
        "vertices_nan": "0",
        "vertices_solo": "0",
        "vertices_polyline": "0",
        "vertices_border": "0",
        "vertices_nonmanifold": "0",
        "vertices_on_inverted_edge": "0",
        "vertices_part_of_zero_face": "0",
        "vertices_synthetic": "1",
        "vertices_manual": "0",
        "vertices_circle_center": "0",
        "vertices_selected": "0",
        "vertices_funcval_finite": "1137153",
        "vertices_funcval_local_min": "20263",
        "vertices_funcval_local_max": "8632",
        "faces_total": "2274302",
        "faces_solo": "0",
        "faces_border": "0",
        "faces_border_dangling": "0",
        "faces_manifold": "2274302",
        "faces_nonmanifold": "0",
        "faces_sticky": "0",
        "faces_zeroarea": "0",
        "faces_inverted": "0",
        "faces_with_synth_vertices": "0",
        "boundingbox_min_x": "-24.815",
        "boundingbox_min_y": "0",
        "boundingbox_min_z": "-10.0363",
        "boundingbox_max_x": "24.815",
        "boundingbox_max_y": "33.781",
        "boundingbox_max_z": "10.0363",
        "boundingbox_width": "5",
        "boundingbox_height": "3.4",
        "boundingbox_thick": "2",
        "total_area": "47.5",
        "total_volume_dx": "18515.7",
        "total_volume_dy": "18515.7",
        "total_volume_dz": "18515.7"
    }
}