{
    "from_gigamesh_info_file": {
        "filename": "HS_461_GMOCF_r1.50_n4_v512.info.txt",
        "hs_number": "HS 461",
        "radius_in_mm": "1.5",
        "count_of_radii": "16",
        "rastersize": "512^3",
        "input_filename": "HS_461_GMOCF.ply",
        "output_filename": "HS_461_GMOCF_r1.50_n4_v512",
        "radii": [
            1.0,
            0.94,
            0.88,
            0.81,
            0.75,
            0.69,
            0.62,
            0.56,
            0.5,
            0.44,
            0.38,
            0.31,
            0.25,
            0.19,
            0.12,
            0.06
        ],
        "model_id": "HS 461",
        "material": "clay, original",
        "count_of_vertices": "1880409",
        "count_of_faces": "3760814",
        "bounding_box_in_cm": [
            4.2,
            6.2,
            2.2
        ],
        "area_in_cm2": "79.89",
        "volume_dx_in_cm3": "39.38",
        "volume_dy_in_cm3": "39.38",
        "volume_dz_in_cm3": "39.38",
        "processing_began_on": "Mon Dec 17 22:43:46 2018",
        "processing_finished_on": "Mon Dec 17 23:13:24 2018",
        "processing_wall_time_in_s": "1776"
    },
    "from_ply_filename": {
        "filename": "/export/data/vNGG/tmp/Hilprecht_Sammlung/04_MSII_filtered/HS_ALL_MSII_PLY/HS_461_GMOCF_r1.50_n4_v512.ply",
        "hs_number": "HS 461",
        "radius_in_mm": "1.50",
        "count_of_radii": 16,
        "rastersize": 512
    },
    "from_hilprecht3d": {
        "hs_number": "HS 0461",
        "tablet_url": "https://hilprecht.mpiwg-berlin.mpg.de/object3d/31759",
        "bibliography": "1933: TMH 2-3, 17"
    },
    "from_gigamesh_info_program": {
        "filename": "HS_461_GMOCF_r1.50_n4_v512",
        "model_id": "HS 461",
        "model_material": "clay, original",
        "vertices_total": "1880409",
        "vertices_nan": "0",
        "vertices_solo": "0",
        "vertices_polyline": "0",
        "vertices_border": "0",
        "vertices_nonmanifold": "0",
        "vertices_on_inverted_edge": "0",
        "vertices_part_of_zero_face": "0",
        "vertices_synthetic": "25",
        "vertices_manual": "0",
        "vertices_circle_center": "0",
        "vertices_selected": "25",
        "vertices_funcval_finite": "1880409",
        "vertices_funcval_local_min": "44000",
        "vertices_funcval_local_max": "20390",
        "faces_total": "3760814",
        "faces_solo": "0",
        "faces_border": "0",
        "faces_border_dangling": "0",
        "faces_manifold": "3760814",
        "faces_nonmanifold": "0",
        "faces_sticky": "0",
        "faces_zeroarea": "0",
        "faces_inverted": "0",
        "faces_with_synth_vertices": "20",
        "boundingbox_min_x": "-21.0363",
        "boundingbox_min_y": "0",
        "boundingbox_min_z": "-11.1872",
        "boundingbox_max_x": "21.0363",
        "boundingbox_max_y": "62.3926",
        "boundingbox_max_z": "11.1872",
        "boundingbox_width": "4.2",
        "boundingbox_height": "6.2",
        "boundingbox_thick": "2.2",
        "total_area": "79.89",
        "total_volume_dx": "39379",
        "total_volume_dy": "39379",
        "total_volume_dz": "39379"
    }
}