{
    "from_gigamesh_info_file": {
        "filename": "HS_460_GMOCF_r1.50_n4_v512.info.txt",
        "hs_number": "HS 460",
        "radius_in_mm": "1.5",
        "count_of_radii": "16",
        "rastersize": "512^3",
        "input_filename": "HS_460_GMOCF.ply",
        "output_filename": "HS_460_GMOCF_r1.50_n4_v512",
        "radii": [
            1.0,
            0.94,
            0.88,
            0.81,
            0.75,
            0.69,
            0.62,
            0.56,
            0.5,
            0.44,
            0.38,
            0.31,
            0.25,
            0.19,
            0.12,
            0.06
        ],
        "model_id": "HS 460",
        "material": "clay, original",
        "count_of_vertices": "1887429",
        "count_of_faces": "3774854",
        "bounding_box_in_cm": [
            5.2,
            6.3,
            2.4
        ],
        "area_in_cm2": "86.36",
        "volume_dx_in_cm3": "44.06",
        "volume_dy_in_cm3": "44.06",
        "volume_dz_in_cm3": "44.06",
        "processing_began_on": "Mon Dec 17 22:40:03 2018",
        "processing_finished_on": "Mon Dec 17 22:58:34 2018",
        "processing_wall_time_in_s": "1107"
    },
    "from_ply_filename": {
        "filename": "/export/data/vNGG/tmp/Hilprecht_Sammlung/04_MSII_filtered/HS_ALL_MSII_PLY/HS_460_GMOCF_r1.50_n4_v512.ply",
        "hs_number": "HS 460",
        "radius_in_mm": "1.50",
        "count_of_radii": 16,
        "rastersize": 512
    },
    "from_hilprecht3d": {
        "hs_number": "HS 0460",
        "tablet_url": "https://hilprecht.mpiwg-berlin.mpg.de/object3d/31758",
        "bibliography": "1933: TMH 2-3, 16"
    },
    "from_gigamesh_info_program": {
        "filename": "HS_460_GMOCF_r1.50_n4_v512",
        "model_id": "HS 460",
        "model_material": "clay, original",
        "vertices_total": "1887429",
        "vertices_nan": "0",
        "vertices_solo": "0",
        "vertices_polyline": "0",
        "vertices_border": "0",
        "vertices_nonmanifold": "0",
        "vertices_on_inverted_edge": "0",
        "vertices_part_of_zero_face": "0",
        "vertices_synthetic": "0",
        "vertices_manual": "0",
        "vertices_circle_center": "0",
        "vertices_selected": "0",
        "vertices_funcval_finite": "1887429",
        "vertices_funcval_local_min": "37303",
        "vertices_funcval_local_max": "17741",
        "faces_total": "3774854",
        "faces_solo": "0",
        "faces_border": "0",
        "faces_border_dangling": "0",
        "faces_manifold": "3774854",
        "faces_nonmanifold": "0",
        "faces_sticky": "0",
        "faces_zeroarea": "0",
        "faces_inverted": "0",
        "faces_with_synth_vertices": "0",
        "boundingbox_min_x": "-26.1392",
        "boundingbox_min_y": "0",
        "boundingbox_min_z": "-12.2119",
        "boundingbox_max_x": "26.1392",
        "boundingbox_max_y": "62.5089",
        "boundingbox_max_z": "12.2119",
        "boundingbox_width": "5.2",
        "boundingbox_height": "6.3",
        "boundingbox_thick": "2.4",
        "total_area": "86.36",
        "total_volume_dx": "44055.8",
        "total_volume_dy": "44055.8",
        "total_volume_dz": "44055.8"
    }
}