{
    "from_gigamesh_info_file": {
        "filename": "HS_481_GMOCF_r1.50_n4_v512.info.txt",
        "hs_number": "HS 481",
        "radius_in_mm": "1.5",
        "count_of_radii": "16",
        "rastersize": "512^3",
        "input_filename": "HS_481_GMOCF.ply",
        "output_filename": "HS_481_GMOCF_r1.50_n4_v512",
        "radii": [
            1.0,
            0.94,
            0.88,
            0.81,
            0.75,
            0.69,
            0.62,
            0.56,
            0.5,
            0.44,
            0.38,
            0.31,
            0.25,
            0.19,
            0.12,
            0.06
        ],
        "model_id": "HS 481",
        "material": "clay, original",
        "count_of_vertices": "1237930",
        "count_of_faces": "2475856",
        "bounding_box_in_cm": [
            5.4,
            3.7,
            2.1
        ],
        "area_in_cm2": "56.35",
        "volume_dx_in_cm3": "26.17",
        "volume_dy_in_cm3": "26.17",
        "volume_dz_in_cm3": "26.17",
        "processing_began_on": "Tue Dec 18 00:08:30 2018",
        "processing_finished_on": "Tue Dec 18 01:44:20 2018",
        "processing_wall_time_in_s": "5749"
    },
    "from_ply_filename": {
        "filename": "/export/data/vNGG/tmp/Hilprecht_Sammlung/04_MSII_filtered/HS_ALL_MSII_PLY/HS_481_GMOCF_r1.50_n4_v512.ply",
        "hs_number": "HS 481",
        "radius_in_mm": "1.50",
        "count_of_radii": 16,
        "rastersize": 512
    },
    "from_hilprecht3d": {
        "hs_number": "HS 0481",
        "tablet_url": "https://hilprecht.mpiwg-berlin.mpg.de/object3d/31774",
        "bibliography": "1933: TMH 2-3, 37"
    },
    "from_gigamesh_info_program": {
        "filename": "HS_481_GMOCF_r1.50_n4_v512",
        "model_id": "HS 481",
        "model_material": "clay, original",
        "vertices_total": "1237930",
        "vertices_nan": "0",
        "vertices_solo": "0",
        "vertices_polyline": "0",
        "vertices_border": "0",
        "vertices_nonmanifold": "0",
        "vertices_on_inverted_edge": "0",
        "vertices_part_of_zero_face": "0",
        "vertices_synthetic": "0",
        "vertices_manual": "0",
        "vertices_circle_center": "0",
        "vertices_selected": "0",
        "vertices_funcval_finite": "1237930",
        "vertices_funcval_local_min": "26108",
        "vertices_funcval_local_max": "12891",
        "faces_total": "2475856",
        "faces_solo": "0",
        "faces_border": "0",
        "faces_border_dangling": "0",
        "faces_manifold": "2475856",
        "faces_nonmanifold": "0",
        "faces_sticky": "0",
        "faces_zeroarea": "0",
        "faces_inverted": "0",
        "faces_with_synth_vertices": "0",
        "boundingbox_min_x": "-26.8033",
        "boundingbox_min_y": "0",
        "boundingbox_min_z": "-10.7483",
        "boundingbox_max_x": "26.8033",
        "boundingbox_max_y": "37.225",
        "boundingbox_max_z": "10.7483",
        "boundingbox_width": "5.4",
        "boundingbox_height": "3.7",
        "boundingbox_thick": "2.1",
        "total_area": "56.35",
        "total_volume_dx": "26168.5",
        "total_volume_dy": "26168.5",
        "total_volume_dz": "26168.5"
    }
}