{
    "from_gigamesh_info_file": {
        "filename": "HS_540_GMOCF_r1.50_n4_v512.info.txt",
        "hs_number": "HS 540",
        "radius_in_mm": "1.5",
        "count_of_radii": "16",
        "rastersize": "512^3",
        "input_filename": "HS_540_GMOCF.ply",
        "output_filename": "HS_540_GMOCF_r1.50_n4_v512",
        "radii": [
            1.0,
            0.94,
            0.88,
            0.81,
            0.75,
            0.69,
            0.62,
            0.56,
            0.5,
            0.44,
            0.38,
            0.31,
            0.25,
            0.19,
            0.12,
            0.06
        ],
        "model_id": "HS 540",
        "material": "clay, original",
        "count_of_vertices": "976936",
        "count_of_faces": "1953868",
        "bounding_box_in_cm": [
            4.3,
            3.5,
            1.9
        ],
        "area_in_cm2": "43.15",
        "volume_dx_in_cm3": "17.15",
        "volume_dy_in_cm3": "17.15",
        "volume_dz_in_cm3": "17.15",
        "processing_began_on": "Tue Dec 18 03:01:22 2018",
        "processing_finished_on": "Tue Dec 18 03:13:54 2018",
        "processing_wall_time_in_s": "751"
    },
    "from_ply_filename": {
        "filename": "/export/data/vNGG/tmp/Hilprecht_Sammlung/04_MSII_filtered/HS_ALL_MSII_PLY/HS_540_GMOCF_r1.50_n4_v512.ply",
        "hs_number": "HS 540",
        "radius_in_mm": "1.50",
        "count_of_radii": 16,
        "rastersize": 512
    },
    "from_hilprecht3d": {
        "hs_number": "HS 0540",
        "tablet_url": "https://hilprecht.mpiwg-berlin.mpg.de/object3d/31825",
        "bibliography": "1933: TMH 2-3, 96"
    },
    "from_gigamesh_info_program": {
        "filename": "HS_540_GMOCF_r1.50_n4_v512",
        "model_id": "HS 540",
        "model_material": "clay, original",
        "vertices_total": "976936",
        "vertices_nan": "0",
        "vertices_solo": "0",
        "vertices_polyline": "0",
        "vertices_border": "0",
        "vertices_nonmanifold": "0",
        "vertices_on_inverted_edge": "0",
        "vertices_part_of_zero_face": "0",
        "vertices_synthetic": "1",
        "vertices_manual": "0",
        "vertices_circle_center": "0",
        "vertices_selected": "1",
        "vertices_funcval_finite": "976936",
        "vertices_funcval_local_min": "19213",
        "vertices_funcval_local_max": "8774",
        "faces_total": "1953868",
        "faces_solo": "0",
        "faces_border": "0",
        "faces_border_dangling": "0",
        "faces_manifold": "1953868",
        "faces_nonmanifold": "0",
        "faces_sticky": "0",
        "faces_zeroarea": "0",
        "faces_inverted": "0",
        "faces_with_synth_vertices": "0",
        "boundingbox_min_x": "-21.5976",
        "boundingbox_min_y": "0",
        "boundingbox_min_z": "-9.5501",
        "boundingbox_max_x": "21.5976",
        "boundingbox_max_y": "34.7334",
        "boundingbox_max_z": "9.5501",
        "boundingbox_width": "4.3",
        "boundingbox_height": "3.5",
        "boundingbox_thick": "1.9",
        "total_area": "43.15",
        "total_volume_dx": "17149.3",
        "total_volume_dy": "17149.3",
        "total_volume_dz": "17149.3"
    }
}