{
    "from_gigamesh_info_file": {
        "filename": "HS_527_GMOCF_r1.50_n4_v512.info.txt",
        "hs_number": "HS 527",
        "radius_in_mm": "1.5",
        "count_of_radii": "16",
        "rastersize": "512^3",
        "input_filename": "HS_527_GMOCF.ply",
        "output_filename": "HS_527_GMOCF_r1.50_n4_v512",
        "radii": [
            1.0,
            0.94,
            0.88,
            0.81,
            0.75,
            0.69,
            0.62,
            0.56,
            0.5,
            0.44,
            0.38,
            0.31,
            0.25,
            0.19,
            0.12,
            0.06
        ],
        "model_id": "HS 527",
        "material": "clay, original",
        "count_of_vertices": "988266",
        "count_of_faces": "1976528",
        "bounding_box_in_cm": [
            4.3,
            3.6,
            1.9
        ],
        "area_in_cm2": "43.77",
        "volume_dx_in_cm3": "17.67",
        "volume_dy_in_cm3": "17.67",
        "volume_dz_in_cm3": "17.67",
        "processing_began_on": "Tue Dec 18 02:19:18 2018",
        "processing_finished_on": "Tue Dec 18 02:29:07 2018",
        "processing_wall_time_in_s": "587"
    },
    "from_ply_filename": {
        "filename": "/export/data/vNGG/tmp/Hilprecht_Sammlung/04_MSII_filtered/HS_ALL_MSII_PLY/HS_527_GMOCF_r1.50_n4_v512.ply",
        "hs_number": "HS 527",
        "radius_in_mm": "1.50",
        "count_of_radii": 16,
        "rastersize": 512
    },
    "from_hilprecht3d": {
        "hs_number": "HS 0527",
        "tablet_url": "https://hilprecht.mpiwg-berlin.mpg.de/object3d/31813",
        "bibliography": "1933: TMH 2-3, 83"
    },
    "from_gigamesh_info_program": {
        "filename": "HS_527_GMOCF_r1.50_n4_v512",
        "model_id": "HS 527",
        "model_material": "clay, original",
        "vertices_total": "988266",
        "vertices_nan": "0",
        "vertices_solo": "0",
        "vertices_polyline": "0",
        "vertices_border": "0",
        "vertices_nonmanifold": "0",
        "vertices_on_inverted_edge": "0",
        "vertices_part_of_zero_face": "0",
        "vertices_synthetic": "0",
        "vertices_manual": "0",
        "vertices_circle_center": "0",
        "vertices_selected": "0",
        "vertices_funcval_finite": "988266",
        "vertices_funcval_local_min": "20577",
        "vertices_funcval_local_max": "7682",
        "faces_total": "1976528",
        "faces_solo": "0",
        "faces_border": "0",
        "faces_border_dangling": "0",
        "faces_manifold": "1976528",
        "faces_nonmanifold": "0",
        "faces_sticky": "0",
        "faces_zeroarea": "0",
        "faces_inverted": "0",
        "faces_with_synth_vertices": "0",
        "boundingbox_min_x": "-21.5049",
        "boundingbox_min_y": "0",
        "boundingbox_min_z": "-9.3726",
        "boundingbox_max_x": "21.5049",
        "boundingbox_max_y": "36.4789",
        "boundingbox_max_z": "9.3726",
        "boundingbox_width": "4.3",
        "boundingbox_height": "3.6",
        "boundingbox_thick": "1.9",
        "total_area": "43.77",
        "total_volume_dx": "17672",
        "total_volume_dy": "17672",
        "total_volume_dz": "17672"
    }
}