{
    "from_gigamesh_info_file": {
        "filename": "HS_596_GMOCF_r1.50_n4_v512.info.txt",
        "hs_number": "HS 596",
        "radius_in_mm": "1.5",
        "count_of_radii": "16",
        "rastersize": "512^3",
        "input_filename": "HS_596_GMOCF.ply",
        "output_filename": "HS_596_GMOCF_r1.50_n4_v512",
        "radii": [
            1.0,
            0.94,
            0.88,
            0.81,
            0.75,
            0.69,
            0.62,
            0.56,
            0.5,
            0.44,
            0.38,
            0.31,
            0.25,
            0.19,
            0.12,
            0.06
        ],
        "model_id": "HS 596",
        "material": "clay, original",
        "count_of_vertices": "1653662",
        "count_of_faces": "3307320",
        "bounding_box_in_cm": [
            5.2,
            4.2,
            2.3
        ],
        "area_in_cm2": "65.63",
        "volume_dx_in_cm3": "30.30",
        "volume_dy_in_cm3": "30.30",
        "volume_dz_in_cm3": "30.30",
        "processing_began_on": "Tue Dec 18 06:41:33 2018",
        "processing_finished_on": "Tue Dec 18 06:58:59 2018",
        "processing_wall_time_in_s": "1044"
    },
    "from_ply_filename": {
        "filename": "/export/data/vNGG/tmp/Hilprecht_Sammlung/04_MSII_filtered/HS_ALL_MSII_PLY/HS_596_GMOCF_r1.50_n4_v512.ply",
        "hs_number": "HS 596",
        "radius_in_mm": "1.50",
        "count_of_radii": 16,
        "rastersize": 512
    },
    "from_hilprecht3d": {
        "hs_number": "HS 0596",
        "tablet_url": "https://hilprecht.mpiwg-berlin.mpg.de/object3d/31875",
        "bibliography": "1933: TMH 2-3, 152"
    },
    "from_gigamesh_info_program": {
        "filename": "HS_596_GMOCF_r1.50_n4_v512",
        "model_id": "HS 596",
        "model_material": "clay, original",
        "vertices_total": "1653662",
        "vertices_nan": "0",
        "vertices_solo": "0",
        "vertices_polyline": "0",
        "vertices_border": "0",
        "vertices_nonmanifold": "0",
        "vertices_on_inverted_edge": "0",
        "vertices_part_of_zero_face": "0",
        "vertices_synthetic": "71",
        "vertices_manual": "0",
        "vertices_circle_center": "0",
        "vertices_selected": "0",
        "vertices_funcval_finite": "1653662",
        "vertices_funcval_local_min": "29181",
        "vertices_funcval_local_max": "11329",
        "faces_total": "3307320",
        "faces_solo": "0",
        "faces_border": "0",
        "faces_border_dangling": "0",
        "faces_manifold": "3307320",
        "faces_nonmanifold": "0",
        "faces_sticky": "0",
        "faces_zeroarea": "0",
        "faces_inverted": "0",
        "faces_with_synth_vertices": "90",
        "boundingbox_min_x": "-25.8404",
        "boundingbox_min_y": "0",
        "boundingbox_min_z": "-11.3384",
        "boundingbox_max_x": "25.8404",
        "boundingbox_max_y": "42.0189",
        "boundingbox_max_z": "11.3384",
        "boundingbox_width": "5.2",
        "boundingbox_height": "4.2",
        "boundingbox_thick": "2.3",
        "total_area": "65.63",
        "total_volume_dx": "30295.7",
        "total_volume_dy": "30295.7",
        "total_volume_dz": "30295.7"
    }
}