{
    "from_gigamesh_info_file": {
        "filename": "HS_571_GMOCF_r1.50_n4_v512.info.txt",
        "hs_number": "HS 571",
        "radius_in_mm": "1.5",
        "count_of_radii": "16",
        "rastersize": "512^3",
        "input_filename": "HS_571_GMOCF.ply",
        "output_filename": "HS_571_GMOCF_r1.50_n4_v512",
        "radii": [
            1.0,
            0.94,
            0.88,
            0.81,
            0.75,
            0.69,
            0.62,
            0.56,
            0.5,
            0.44,
            0.38,
            0.31,
            0.25,
            0.19,
            0.12,
            0.06
        ],
        "model_id": "HS 571",
        "material": "clay, original",
        "count_of_vertices": "1345681",
        "count_of_faces": "2691358",
        "bounding_box_in_cm": [
            5.4,
            4.1,
            2.1
        ],
        "area_in_cm2": "66.88",
        "volume_dx_in_cm3": "32.16",
        "volume_dy_in_cm3": "32.16",
        "volume_dz_in_cm3": "32.16",
        "processing_began_on": "Tue Dec 18 04:51:23 2018",
        "processing_finished_on": "Tue Dec 18 05:04:39 2018",
        "processing_wall_time_in_s": "795"
    },
    "from_ply_filename": {
        "filename": "/export/data/vNGG/tmp/Hilprecht_Sammlung/04_MSII_filtered/HS_ALL_MSII_PLY/HS_571_GMOCF_r1.50_n4_v512.ply",
        "hs_number": "HS 571",
        "radius_in_mm": "1.50",
        "count_of_radii": 16,
        "rastersize": 512
    },
    "from_hilprecht3d": {
        "hs_number": "HS 0571",
        "tablet_url": "https://hilprecht.mpiwg-berlin.mpg.de/object3d/31856",
        "bibliography": "1933: TMH 2-3, 127"
    },
    "from_gigamesh_info_program": {
        "filename": "HS_571_GMOCF_r1.50_n4_v512",
        "model_id": "HS 571",
        "model_material": "clay, original",
        "vertices_total": "1345681",
        "vertices_nan": "0",
        "vertices_solo": "0",
        "vertices_polyline": "0",
        "vertices_border": "0",
        "vertices_nonmanifold": "0",
        "vertices_on_inverted_edge": "0",
        "vertices_part_of_zero_face": "0",
        "vertices_synthetic": "0",
        "vertices_manual": "0",
        "vertices_circle_center": "0",
        "vertices_selected": "0",
        "vertices_funcval_finite": "1345681",
        "vertices_funcval_local_min": "28792",
        "vertices_funcval_local_max": "13196",
        "faces_total": "2691358",
        "faces_solo": "0",
        "faces_border": "0",
        "faces_border_dangling": "0",
        "faces_manifold": "2691358",
        "faces_nonmanifold": "0",
        "faces_sticky": "0",
        "faces_zeroarea": "0",
        "faces_inverted": "0",
        "faces_with_synth_vertices": "0",
        "boundingbox_min_x": "-26.8156",
        "boundingbox_min_y": "0",
        "boundingbox_min_z": "-10.6392",
        "boundingbox_max_x": "26.8156",
        "boundingbox_max_y": "41.4955",
        "boundingbox_max_z": "10.6392",
        "boundingbox_width": "5.4",
        "boundingbox_height": "4.1",
        "boundingbox_thick": "2.1",
        "total_area": "66.88",
        "total_volume_dx": "32163.8",
        "total_volume_dy": "32163.8",
        "total_volume_dz": "32163.8"
    }
}