{
    "from_gigamesh_info_file": {
        "filename": "HS_562_GMOCF_r1.50_n4_v512.info.txt",
        "hs_number": "HS 562",
        "radius_in_mm": "1.5",
        "count_of_radii": "16",
        "rastersize": "512^3",
        "input_filename": "HS_562_GMOCF.ply",
        "output_filename": "HS_562_GMOCF_r1.50_n4_v512",
        "radii": [
            1.0,
            0.94,
            0.88,
            0.81,
            0.75,
            0.69,
            0.62,
            0.56,
            0.5,
            0.44,
            0.38,
            0.31,
            0.25,
            0.19,
            0.12,
            0.06
        ],
        "model_id": "HS 562",
        "material": "clay, original",
        "count_of_vertices": "1123573",
        "count_of_faces": "2247142",
        "bounding_box_in_cm": [
            4.6,
            3.8,
            1.9
        ],
        "area_in_cm2": "50.00",
        "volume_dx_in_cm3": "20.09",
        "volume_dy_in_cm3": "20.09",
        "volume_dz_in_cm3": "20.09",
        "processing_began_on": "Tue Dec 18 04:19:31 2018",
        "processing_finished_on": "Tue Dec 18 04:30:47 2018",
        "processing_wall_time_in_s": "674"
    },
    "from_ply_filename": {
        "filename": "/export/data/vNGG/tmp/Hilprecht_Sammlung/04_MSII_filtered/HS_ALL_MSII_PLY/HS_562_GMOCF_r1.50_n4_v512.ply",
        "hs_number": "HS 562",
        "radius_in_mm": "1.50",
        "count_of_radii": 16,
        "rastersize": 512
    },
    "from_hilprecht3d": {
        "hs_number": "HS 0562",
        "tablet_url": "https://hilprecht.mpiwg-berlin.mpg.de/object3d/31846",
        "bibliography": "1933: TMH 2-3, 118"
    },
    "from_gigamesh_info_program": {
        "filename": "HS_562_GMOCF_r1.50_n4_v512",
        "model_id": "HS 562",
        "model_material": "clay, original",
        "vertices_total": "1123573",
        "vertices_nan": "0",
        "vertices_solo": "0",
        "vertices_polyline": "0",
        "vertices_border": "0",
        "vertices_nonmanifold": "0",
        "vertices_on_inverted_edge": "0",
        "vertices_part_of_zero_face": "0",
        "vertices_synthetic": "0",
        "vertices_manual": "0",
        "vertices_circle_center": "0",
        "vertices_selected": "0",
        "vertices_funcval_finite": "1123573",
        "vertices_funcval_local_min": "20821",
        "vertices_funcval_local_max": "7221",
        "faces_total": "2247142",
        "faces_solo": "0",
        "faces_border": "0",
        "faces_border_dangling": "0",
        "faces_manifold": "2247142",
        "faces_nonmanifold": "0",
        "faces_sticky": "0",
        "faces_zeroarea": "0",
        "faces_inverted": "0",
        "faces_with_synth_vertices": "0",
        "boundingbox_min_x": "-23.2101",
        "boundingbox_min_y": "0",
        "boundingbox_min_z": "-9.5543",
        "boundingbox_max_x": "23.2101",
        "boundingbox_max_y": "38.3614",
        "boundingbox_max_z": "9.5543",
        "boundingbox_width": "4.6",
        "boundingbox_height": "3.8",
        "boundingbox_thick": "1.9",
        "total_area": "50",
        "total_volume_dx": "20092.5",
        "total_volume_dy": "20092.5",
        "total_volume_dz": "20092.5"
    }
}