{
    "from_gigamesh_info_file": {
        "filename": "HS_663_GMOCF_r1.50_n4_v512.info.txt",
        "hs_number": "HS 663",
        "radius_in_mm": "1.5",
        "count_of_radii": "16",
        "rastersize": "512^3",
        "input_filename": "HS_663_GMOCF.ply",
        "output_filename": "HS_663_GMOCF_r1.50_n4_v512",
        "radii": [
            1.0,
            0.94,
            0.88,
            0.81,
            0.75,
            0.69,
            0.62,
            0.56,
            0.5,
            0.44,
            0.38,
            0.31,
            0.25,
            0.19,
            0.12,
            0.06
        ],
        "model_id": "HS 663",
        "material": "clay, original",
        "count_of_vertices": "1153378",
        "count_of_faces": "2306752",
        "bounding_box_in_cm": [
            5.1,
            3.6,
            1.7
        ],
        "area_in_cm2": "48.25",
        "volume_dx_in_cm3": "18.72",
        "volume_dy_in_cm3": "18.72",
        "volume_dz_in_cm3": "18.72",
        "processing_began_on": "Tue Dec 18 10:57:29 2018",
        "processing_finished_on": "Tue Dec 18 11:15:25 2018",
        "processing_wall_time_in_s": "1075"
    },
    "from_ply_filename": {
        "filename": "/export/data/vNGG/tmp/Hilprecht_Sammlung/04_MSII_filtered/HS_ALL_MSII_PLY/HS_663_GMOCF_r1.50_n4_v512.ply",
        "hs_number": "HS 663",
        "radius_in_mm": "1.50",
        "count_of_radii": 16,
        "rastersize": 512
    },
    "from_hilprecht3d": {
        "hs_number": "HS 0663",
        "tablet_url": "https://hilprecht.mpiwg-berlin.mpg.de/object3d/31922",
        "bibliography": "1933: TMH 2-3, 219"
    },
    "from_gigamesh_info_program": {
        "filename": "HS_663_GMOCF_r1.50_n4_v512",
        "model_id": "HS 663",
        "model_material": "clay, original",
        "vertices_total": "1153378",
        "vertices_nan": "0",
        "vertices_solo": "0",
        "vertices_polyline": "0",
        "vertices_border": "0",
        "vertices_nonmanifold": "0",
        "vertices_on_inverted_edge": "0",
        "vertices_part_of_zero_face": "0",
        "vertices_synthetic": "0",
        "vertices_manual": "0",
        "vertices_circle_center": "0",
        "vertices_selected": "0",
        "vertices_funcval_finite": "1153378",
        "vertices_funcval_local_min": "22888",
        "vertices_funcval_local_max": "10594",
        "faces_total": "2306752",
        "faces_solo": "0",
        "faces_border": "0",
        "faces_border_dangling": "0",
        "faces_manifold": "2306752",
        "faces_nonmanifold": "0",
        "faces_sticky": "0",
        "faces_zeroarea": "0",
        "faces_inverted": "0",
        "faces_with_synth_vertices": "0",
        "boundingbox_min_x": "-25.5557",
        "boundingbox_min_y": "0",
        "boundingbox_min_z": "-8.2802",
        "boundingbox_max_x": "25.5557",
        "boundingbox_max_y": "36.4696",
        "boundingbox_max_z": "8.2802",
        "boundingbox_width": "5.1",
        "boundingbox_height": "3.6",
        "boundingbox_thick": "1.7",
        "total_area": "48.25",
        "total_volume_dx": "18722.6",
        "total_volume_dy": "18722.6",
        "total_volume_dz": "18722.6"
    }
}