{
    "from_gigamesh_info_file": {
        "filename": "HS_634_GMOCF_r1.50_n4_v512.info.txt",
        "hs_number": "HS 634",
        "radius_in_mm": "1.5",
        "count_of_radii": "16",
        "rastersize": "512^3",
        "input_filename": "HS_634_GMOCF.ply",
        "output_filename": "HS_634_GMOCF_r1.50_n4_v512",
        "radii": [
            1.0,
            0.94,
            0.88,
            0.81,
            0.75,
            0.69,
            0.62,
            0.56,
            0.5,
            0.44,
            0.38,
            0.31,
            0.25,
            0.19,
            0.12,
            0.06
        ],
        "model_id": "HS 634",
        "material": "clay, original",
        "count_of_vertices": "2863359",
        "count_of_faces": "5726714",
        "bounding_box_in_cm": [
            7.5,
            5.7,
            2.9
        ],
        "area_in_cm2": "133.55",
        "volume_dx_in_cm3": "84.69",
        "volume_dy_in_cm3": "84.69",
        "volume_dz_in_cm3": "84.69",
        "processing_began_on": "Tue Dec 18 09:04:02 2018",
        "processing_finished_on": "Tue Dec 18 09:30:08 2018",
        "processing_wall_time_in_s": "1566"
    },
    "from_ply_filename": {
        "filename": "/export/data/vNGG/tmp/Hilprecht_Sammlung/04_MSII_filtered/HS_ALL_MSII_PLY/HS_634_GMOCF_r1.50_n4_v512.ply",
        "hs_number": "HS 634",
        "radius_in_mm": "1.50",
        "count_of_radii": 16,
        "rastersize": 512
    },
    "from_hilprecht3d": {
        "hs_number": "HS 0634",
        "tablet_url": "https://hilprecht.mpiwg-berlin.mpg.de/object3d/31901",
        "bibliography": "1933: TMH 2-3, 190"
    },
    "from_gigamesh_info_program": {
        "filename": "HS_634_GMOCF_r1.50_n4_v512",
        "model_id": "HS 634",
        "model_material": "clay, original",
        "vertices_total": "2863359",
        "vertices_nan": "0",
        "vertices_solo": "0",
        "vertices_polyline": "0",
        "vertices_border": "0",
        "vertices_nonmanifold": "0",
        "vertices_on_inverted_edge": "0",
        "vertices_part_of_zero_face": "0",
        "vertices_synthetic": "2",
        "vertices_manual": "0",
        "vertices_circle_center": "0",
        "vertices_selected": "2",
        "vertices_funcval_finite": "2863359",
        "vertices_funcval_local_min": "56646",
        "vertices_funcval_local_max": "22895",
        "faces_total": "5726714",
        "faces_solo": "0",
        "faces_border": "0",
        "faces_border_dangling": "0",
        "faces_manifold": "5726714",
        "faces_nonmanifold": "0",
        "faces_sticky": "0",
        "faces_zeroarea": "0",
        "faces_inverted": "0",
        "faces_with_synth_vertices": "0",
        "boundingbox_min_x": "-37.4368",
        "boundingbox_min_y": "0",
        "boundingbox_min_z": "-14.4726",
        "boundingbox_max_x": "37.4368",
        "boundingbox_max_y": "57.4221",
        "boundingbox_max_z": "14.4726",
        "boundingbox_width": "7.5",
        "boundingbox_height": "5.7",
        "boundingbox_thick": "2.9",
        "total_area": "133.55",
        "total_volume_dx": "84689.8",
        "total_volume_dy": "84689.8",
        "total_volume_dz": "84689.8"
    }
}