{
    "from_gigamesh_info_file": {
        "filename": "HS_648_GMOCF_r1.50_n4_v512.info.txt",
        "hs_number": "HS 648",
        "radius_in_mm": "1.5",
        "count_of_radii": "16",
        "rastersize": "512^3",
        "input_filename": "HS_648_GMOCF.ply",
        "output_filename": "HS_648_GMOCF_r1.50_n4_v512",
        "radii": [
            1.0,
            0.94,
            0.88,
            0.81,
            0.75,
            0.69,
            0.62,
            0.56,
            0.5,
            0.44,
            0.38,
            0.31,
            0.25,
            0.19,
            0.12,
            0.06
        ],
        "model_id": "HS 648",
        "material": "clay, original",
        "count_of_vertices": "4092910",
        "count_of_faces": "8185816",
        "bounding_box_in_cm": [
            8.2,
            6.9,
            3.0
        ],
        "area_in_cm2": "181.81",
        "volume_dx_in_cm3": "122.33",
        "volume_dy_in_cm3": "122.33",
        "volume_dz_in_cm3": "122.33",
        "processing_began_on": "Tue Dec 18 09:58:46 2018",
        "processing_finished_on": "Tue Dec 18 10:36:57 2018",
        "processing_wall_time_in_s": "2289"
    },
    "from_ply_filename": {
        "filename": "/export/data/vNGG/tmp/Hilprecht_Sammlung/04_MSII_filtered/HS_ALL_MSII_PLY/HS_648_GMOCF_r1.50_n4_v512.ply",
        "hs_number": "HS 648",
        "radius_in_mm": "1.50",
        "count_of_radii": 16,
        "rastersize": 512
    },
    "from_hilprecht3d": {
        "hs_number": "HS 0648",
        "tablet_url": "https://hilprecht.mpiwg-berlin.mpg.de/object3d/31911",
        "bibliography": "1933: TMH 2-3, 204"
    },
    "from_gigamesh_info_program": {
        "filename": "HS_648_GMOCF_r1.50_n4_v512",
        "model_id": "HS 648",
        "model_material": "clay, original",
        "vertices_total": "4092910",
        "vertices_nan": "0",
        "vertices_solo": "0",
        "vertices_polyline": "0",
        "vertices_border": "0",
        "vertices_nonmanifold": "0",
        "vertices_on_inverted_edge": "0",
        "vertices_part_of_zero_face": "0",
        "vertices_synthetic": "2",
        "vertices_manual": "0",
        "vertices_circle_center": "0",
        "vertices_selected": "0",
        "vertices_funcval_finite": "4092910",
        "vertices_funcval_local_min": "87528",
        "vertices_funcval_local_max": "42359",
        "faces_total": "8185816",
        "faces_solo": "0",
        "faces_border": "0",
        "faces_border_dangling": "0",
        "faces_manifold": "8185816",
        "faces_nonmanifold": "0",
        "faces_sticky": "0",
        "faces_zeroarea": "0",
        "faces_inverted": "0",
        "faces_with_synth_vertices": "0",
        "boundingbox_min_x": "-41.1247",
        "boundingbox_min_y": "0",
        "boundingbox_min_z": "-14.944",
        "boundingbox_max_x": "41.1247",
        "boundingbox_max_y": "68.5008",
        "boundingbox_max_z": "14.944",
        "boundingbox_width": "8.2",
        "boundingbox_height": "6.9",
        "boundingbox_thick": "3",
        "total_area": "181.81",
        "total_volume_dx": "122327",
        "total_volume_dy": "122327",
        "total_volume_dz": "122327"
    }
}