{
    "from_gigamesh_info_file": {
        "filename": "HS_635_GMOCF_r1.50_n4_v512.info.txt",
        "hs_number": "HS 635",
        "radius_in_mm": "1.5",
        "count_of_radii": "16",
        "rastersize": "512^3",
        "input_filename": "HS_635_GMOCF.ply",
        "output_filename": "HS_635_GMOCF_r1.50_n4_v512",
        "radii": [
            1.0,
            0.94,
            0.88,
            0.81,
            0.75,
            0.69,
            0.62,
            0.56,
            0.5,
            0.44,
            0.38,
            0.31,
            0.25,
            0.19,
            0.12,
            0.06
        ],
        "model_id": "HS 635",
        "material": "clay, original",
        "count_of_vertices": "3029117",
        "count_of_faces": "6058230",
        "bounding_box_in_cm": [
            7.6,
            6.0,
            2.8
        ],
        "area_in_cm2": "146.15",
        "volume_dx_in_cm3": "89.65",
        "volume_dy_in_cm3": "89.65",
        "volume_dz_in_cm3": "89.65",
        "processing_began_on": "Tue Dec 18 09:14:57 2018",
        "processing_finished_on": "Tue Dec 18 09:58:03 2018",
        "processing_wall_time_in_s": "2584"
    },
    "from_ply_filename": {
        "filename": "/export/data/vNGG/tmp/Hilprecht_Sammlung/04_MSII_filtered/HS_ALL_MSII_PLY/HS_635_GMOCF_r1.50_n4_v512.ply",
        "hs_number": "HS 635",
        "radius_in_mm": "1.50",
        "count_of_radii": 16,
        "rastersize": 512
    },
    "from_hilprecht3d": {
        "hs_number": "HS 0635",
        "tablet_url": "https://hilprecht.mpiwg-berlin.mpg.de/object3d/31902",
        "bibliography": "1933: TMH 2-3, 191"
    },
    "from_gigamesh_info_program": {
        "filename": "HS_635_GMOCF_r1.50_n4_v512",
        "model_id": "HS 635",
        "model_material": "clay, original",
        "vertices_total": "3029117",
        "vertices_nan": "0",
        "vertices_solo": "0",
        "vertices_polyline": "0",
        "vertices_border": "0",
        "vertices_nonmanifold": "0",
        "vertices_on_inverted_edge": "0",
        "vertices_part_of_zero_face": "0",
        "vertices_synthetic": "0",
        "vertices_manual": "0",
        "vertices_circle_center": "0",
        "vertices_selected": "0",
        "vertices_funcval_finite": "3029117",
        "vertices_funcval_local_min": "57992",
        "vertices_funcval_local_max": "22383",
        "faces_total": "6058230",
        "faces_solo": "0",
        "faces_border": "0",
        "faces_border_dangling": "0",
        "faces_manifold": "6058230",
        "faces_nonmanifold": "0",
        "faces_sticky": "0",
        "faces_zeroarea": "0",
        "faces_inverted": "0",
        "faces_with_synth_vertices": "0",
        "boundingbox_min_x": "-38.1223",
        "boundingbox_min_y": "0",
        "boundingbox_min_z": "-13.8817",
        "boundingbox_max_x": "38.1223",
        "boundingbox_max_y": "60.3389",
        "boundingbox_max_z": "13.8817",
        "boundingbox_width": "7.6",
        "boundingbox_height": "6",
        "boundingbox_thick": "2.8",
        "total_area": "146.15",
        "total_volume_dx": "89647.8",
        "total_volume_dy": "89647.8",
        "total_volume_dz": "89647.8"
    }
}