{
    "from_gigamesh_info_file": {
        "filename": "HS_751_GMOCF_r1.50_n4_v512.info.txt",
        "hs_number": "HS 751",
        "radius_in_mm": "1.5",
        "count_of_radii": "16",
        "rastersize": "512^3",
        "input_filename": "HS_751_GMOCF.ply",
        "output_filename": "HS_751_GMOCF_r1.50_n4_v512",
        "radii": [
            1.0,
            0.94,
            0.88,
            0.81,
            0.75,
            0.69,
            0.62,
            0.56,
            0.5,
            0.44,
            0.38,
            0.31,
            0.25,
            0.19,
            0.12,
            0.06
        ],
        "model_id": "HS 751",
        "material": "clay, original",
        "count_of_vertices": "1510892",
        "count_of_faces": "3021780",
        "bounding_box_in_cm": [
            5.1,
            5.9,
            1.9
        ],
        "area_in_cm2": "74.69",
        "volume_dx_in_cm3": "35.31",
        "volume_dy_in_cm3": "35.31",
        "volume_dz_in_cm3": "35.31",
        "processing_began_on": "Tue Dec 18 13:05:46 2018",
        "processing_finished_on": "Tue Dec 18 14:57:14 2018",
        "processing_wall_time_in_s": "6686"
    },
    "from_ply_filename": {
        "filename": "/export/data/vNGG/tmp/Hilprecht_Sammlung/04_MSII_filtered/HS_ALL_MSII_PLY/HS_751_GMOCF_r1.50_n4_v512.ply",
        "hs_number": "HS 751",
        "radius_in_mm": "1.50",
        "count_of_radii": 16,
        "rastersize": 512
    },
    "from_hilprecht3d": {
        "hs_number": "HS 0751",
        "tablet_url": "https://hilprecht.mpiwg-berlin.mpg.de/object3d/31952",
        "bibliography": "1935: TMH 5, 001. \u2013 1975: ECTJ 001",
        "cdli_number": "20415"
    },
    "from_cdli_search_view": {
        "archival_view": "https://cdli.ucla.edu/search/archival_view.php?ObjectID=P020415",
        "primary_publication": "TMH 05, 001",
        "author": "Pohl, Alfred",
        "publication_date": "1935",
        "secondary_publication": "A. Westenholz, ECTJ 1",
        "collection": "Hilprecht Collection, University of Jena, Germany",
        "museum_number": "HS 0751",
        "accession_number": "",
        "provenience": "Nippur (mod. Nuffar)",
        "excavation_number": "",
        "period": "ED IIIb (ca. 2500-2340 BC)",
        "dates_referenced": "00.00.00.00",
        "object_type": "tablet",
        "remarks": "",
        "material": "clay",
        "language": "Sumerian",
        "genre": "Administrative",
        "sub_genre": "",
        "cdli_comments": "",
        "catalogue_source": "20040921 krebernik_tmh5",
        "atf_source": "cdlistaff",
        "translation": "no translation",
        "ucla_library_ark": "21198/zz001t3vpd",
        "composite_number": "",
        "seal_number": "",
        "cdli_number": "P020415"
    },
    "from_cdli_archival_view": {
        "primary_publication": "TMH 05, 001",
        "author": "Pohl, Alfred",
        "publication_date": "1935",
        "secondary_publications": "A. Westenholz, ECTJ 1",
        "citation": "",
        "author_remarks": "",
        "published_collation": "",
        "cdli_number": "P020415",
        "ucla_library_ark": "21198/zz001t3vpd",
        "cdli_comments": "",
        "catalogue": "20040921 krebernik_tmh5",
        "transliteration_remarks": "cdlistaff",
        "translation_remarks": "no translation",
        "owner": "Hilprecht Collection, University of Jena, Germany",
        "museum_number": "HS 0751",
        "accession_number": "",
        "acquisition_history": "",
        "genre": "Administrative",
        "sub_genre": "",
        "sub_genre_remarks": "---",
        "composite_number": "",
        "language": "Sumerian",
        "material": "clay",
        "object_remarks": "",
        "measurements_in_mm": "59 x 51 x 19.5",
        "object_preservation": "",
        "surface_preservation": "",
        "condition_description": "",
        "join_information": "",
        "seal_number": "",
        "seal_information": "",
        "provenience": "Nippur (mod. Nuffar)",
        "excavation_number": "",
        "findspot_square": "",
        "elevation": "",
        "stratigraphic_level": "",
        "findspot_remarks": "",
        "period": "ED IIIb (ca. 2500-2340 BC)",
        "period_remarks": "",
        "date_of_origin": "00.00.00.00",
        "dates_referenced": "00.00.00.00",
        "alternative_years": "",
        "accounting_period": "",
        "textual_content": "@Tablet\n@obverse \ncolumn 1 \n1. 1(asz@c) ur-{d}{sze3}szer7-da \n2. dumu ur-lugal-ra \n3. 1(asz@c) lu:gal-kar \n4. dumu ur-{d}iszkur \n5. 1(asz@c) lu2-he2-gal2 \n6. dumu ur-sa6-ga \n7. 1(asz@c) a-ul4-gal \ncolumn 2 \n1. dumu AN-lu2-mah \n2. 1(asz@c) ur-{d}inanna \n3. dumu e2-gissu-bi \n4. 1(asz@c) {d}inanna-ur-sag \n5. dumu szesz-ama-na \n6. 1(asz@c) e2-ur2-be6-du10 \n7. dumu [x x x] \n@reverse \ncolumn 1 \n1. 1(asz@c) usz-bum \n2. dumu-gi7-ra \n3. 1(asz@c) lu:gal-ug3-ga2 \n4. dumu {d}inanna-ur-sag \n5. 1(asz@c) dumu a-kiszi17-gal ",
        "lineart_url": "https://cdli.ucla.edu/dl/tn_lineart/P020415_l.jpg",
        "photo_url": "https://cdli.ucla.edu/dl/tn_photo/P020415.jpg"
    },
    "from_gigamesh_info_program": {
        "filename": "HS_751_GMOCF_r1.50_n4_v512",
        "model_id": "HS 751",
        "model_material": "clay, original",
        "vertices_total": "1510892",
        "vertices_nan": "0",
        "vertices_solo": "0",
        "vertices_polyline": "0",
        "vertices_border": "0",
        "vertices_nonmanifold": "0",
        "vertices_on_inverted_edge": "0",
        "vertices_part_of_zero_face": "0",
        "vertices_synthetic": "0",
        "vertices_manual": "0",
        "vertices_circle_center": "0",
        "vertices_selected": "0",
        "vertices_funcval_finite": "1510892",
        "vertices_funcval_local_min": "31434",
        "vertices_funcval_local_max": "14301",
        "faces_total": "3021780",
        "faces_solo": "0",
        "faces_border": "0",
        "faces_border_dangling": "0",
        "faces_manifold": "3021780",
        "faces_nonmanifold": "0",
        "faces_sticky": "0",
        "faces_zeroarea": "0",
        "faces_inverted": "0",
        "faces_with_synth_vertices": "0",
        "boundingbox_min_x": "-25.5979",
        "boundingbox_min_y": "0",
        "boundingbox_min_z": "-9.6542",
        "boundingbox_max_x": "25.5979",
        "boundingbox_max_y": "59.0108",
        "boundingbox_max_z": "9.6542",
        "boundingbox_width": "5.1",
        "boundingbox_height": "5.9",
        "boundingbox_thick": "1.9",
        "total_area": "74.69",
        "total_volume_dx": "35306.9",
        "total_volume_dy": "35306.9",
        "total_volume_dz": "35306.9"
    }
}