{
    "from_gigamesh_info_file": {
        "filename": "HS_752_GMOCF_r1.50_n4_v512.info.txt",
        "hs_number": "HS 752",
        "radius_in_mm": "1.5",
        "count_of_radii": "16",
        "rastersize": "512^3",
        "input_filename": "HS_752_GMOCF.ply",
        "output_filename": "HS_752_GMOCF_r1.50_n4_v512",
        "radii": [
            1.0,
            0.94,
            0.88,
            0.81,
            0.75,
            0.69,
            0.62,
            0.56,
            0.5,
            0.44,
            0.38,
            0.31,
            0.25,
            0.19,
            0.12,
            0.06
        ],
        "model_id": "HS 752",
        "material": "clay, original",
        "count_of_vertices": "846272",
        "count_of_faces": "1692540",
        "bounding_box_in_cm": [
            3.9,
            3.7,
            2.1
        ],
        "area_in_cm2": "40.22",
        "volume_dx_in_cm3": "17.93",
        "volume_dy_in_cm3": "17.93",
        "volume_dz_in_cm3": "17.93",
        "processing_began_on": "Tue Dec 18 13:10:16 2018",
        "processing_finished_on": "Tue Dec 18 13:24:08 2018",
        "processing_wall_time_in_s": "831"
    },
    "from_ply_filename": {
        "filename": "/export/data/vNGG/tmp/Hilprecht_Sammlung/04_MSII_filtered/HS_ALL_MSII_PLY/HS_752_GMOCF_r1.50_n4_v512.ply",
        "hs_number": "HS 752",
        "radius_in_mm": "1.50",
        "count_of_radii": 16,
        "rastersize": 512
    },
    "from_hilprecht3d": {
        "hs_number": "HS 0752",
        "tablet_url": "https://hilprecht.mpiwg-berlin.mpg.de/object3d/31953",
        "bibliography": "1935: TMH 5, 002. \u2013 1975: ECTJ 002",
        "cdli_number": "20416"
    },
    "from_cdli_search_view": {
        "archival_view": "https://cdli.ucla.edu/search/archival_view.php?ObjectID=P020416",
        "primary_publication": "TMH 05, 002",
        "author": "Pohl, Alfred",
        "publication_date": "1935",
        "secondary_publication": "A. Westenholz, ECTJ 2",
        "collection": "Hilprecht Collection, University of Jena, Germany",
        "museum_number": "HS 0752",
        "accession_number": "",
        "provenience": "Nippur (mod. Nuffar)",
        "excavation_number": "",
        "period": "ED IIIb (ca. 2500-2340 BC)",
        "dates_referenced": "00.00.00.00",
        "object_type": "tablet",
        "remarks": "",
        "material": "clay",
        "language": "Sumerian",
        "genre": "Administrative",
        "sub_genre": "",
        "cdli_comments": "20190622 cdliadmin: P513716 was a modern forgery, modeled on P020416, offered and sold through eBay, though with indication &quot;replica&quot;",
        "catalogue_source": "20040921 krebernik_tmh5",
        "atf_source": "cdlistaff",
        "translation": "no translation",
        "ucla_library_ark": "21198/zz001t3vqx",
        "composite_number": "",
        "seal_number": "",
        "cdli_number": "P020416"
    },
    "from_cdli_archival_view": {
        "primary_publication": "TMH 05, 002",
        "author": "Pohl, Alfred",
        "publication_date": "1935",
        "secondary_publications": "A. Westenholz, ECTJ 2",
        "citation": "",
        "author_remarks": "",
        "published_collation": "",
        "cdli_number": "P020416",
        "ucla_library_ark": "21198/zz001t3vqx",
        "cdli_comments": "20190622 cdliadmin: P513716 was a modern forgery, modeled on P020416, offered and sold through eBay, though with indication \"replica\"",
        "catalogue": "20040921 krebernik_tmh5",
        "transliteration_remarks": "cdlistaff",
        "translation_remarks": "no translation",
        "owner": "Hilprecht Collection, University of Jena, Germany",
        "museum_number": "HS 0752",
        "accession_number": "",
        "acquisition_history": "",
        "genre": "Administrative",
        "sub_genre": "",
        "sub_genre_remarks": "---",
        "composite_number": "",
        "language": "Sumerian",
        "material": "clay",
        "object_remarks": "",
        "measurements_in_mm": "37 x 39 x 21",
        "object_preservation": "",
        "surface_preservation": "",
        "condition_description": "",
        "join_information": "",
        "seal_number": "",
        "seal_information": "",
        "provenience": "Nippur (mod. Nuffar)",
        "excavation_number": "",
        "findspot_square": "",
        "elevation": "",
        "stratigraphic_level": "",
        "findspot_remarks": "",
        "period": "ED IIIb (ca. 2500-2340 BC)",
        "period_remarks": "",
        "date_of_origin": "00.00.00.00",
        "dates_referenced": "00.00.00.00",
        "alternative_years": "",
        "accounting_period": "",
        "textual_content": "@Tablet\n@obverse \ncolumn 1 \n1. 2(asz@c) tug2#?-du8  \n2. 1(asz@c) bahar2 \n3. 2(asz@c) a-ne-ne \n4. 1(asz@c) szu-sahar?  \n5. 1(asz@c) la-ni \ncolumn 2 \n1. sipa \n2. 5(asz@c) sipa ansze \n3. 1(asz@c) szesz-pa3-da \n4. 2(asz@c) sipa ansze \n5. 1(asz@c) {d}en-lil2-sa6-ga \n# reading with copy, but ECTJ reads: -al6-sa6\n@reverse \ncolumn 1 \n1. [n] sipa ansze \n2. UD?-UD  \n3. 2(asz@c) sipa ansze \n4. 1(asz@c) il2 \n5. 1(asz@c) lu2-tir \n$ blank space \ncolumn 2 \n$ blank space ",
        "lineart_url": "https://cdli.ucla.edu/dl/tn_lineart/P020416_l.jpg",
        "photo_url": "https://cdli.ucla.edu/dl/tn_photo/P020416.jpg"
    },
    "from_gigamesh_info_program": {
        "filename": "HS_752_GMOCF_r1.50_n4_v512",
        "model_id": "HS 752",
        "model_material": "clay, original",
        "vertices_total": "846272",
        "vertices_nan": "0",
        "vertices_solo": "0",
        "vertices_polyline": "0",
        "vertices_border": "0",
        "vertices_nonmanifold": "0",
        "vertices_on_inverted_edge": "0",
        "vertices_part_of_zero_face": "0",
        "vertices_synthetic": "0",
        "vertices_manual": "0",
        "vertices_circle_center": "0",
        "vertices_selected": "0",
        "vertices_funcval_finite": "846272",
        "vertices_funcval_local_min": "18804",
        "vertices_funcval_local_max": "9022",
        "faces_total": "1692540",
        "faces_solo": "0",
        "faces_border": "0",
        "faces_border_dangling": "0",
        "faces_manifold": "1692540",
        "faces_nonmanifold": "0",
        "faces_sticky": "0",
        "faces_zeroarea": "0",
        "faces_inverted": "0",
        "faces_with_synth_vertices": "0",
        "boundingbox_min_x": "-19.6403",
        "boundingbox_min_y": "0",
        "boundingbox_min_z": "-10.5993",
        "boundingbox_max_x": "19.6403",
        "boundingbox_max_y": "37.4843",
        "boundingbox_max_z": "10.5993",
        "boundingbox_width": "3.9",
        "boundingbox_height": "3.7",
        "boundingbox_thick": "2.1",
        "total_area": "40.22",
        "total_volume_dx": "17933.1",
        "total_volume_dy": "17933.1",
        "total_volume_dz": "17933.1"
    }
}