{
    "from_gigamesh_info_file": {
        "filename": "HS_863_GMOCF_r1.50_n4_v512.info.txt",
        "hs_number": "HS 863",
        "radius_in_mm": "1.5",
        "count_of_radii": "16",
        "rastersize": "512^3",
        "input_filename": "HS_863_GMOCF.ply",
        "output_filename": "HS_863_GMOCF_r1.50_n4_v512",
        "radii": [
            1.0,
            0.94,
            0.88,
            0.81,
            0.75,
            0.69,
            0.62,
            0.56,
            0.5,
            0.44,
            0.38,
            0.31,
            0.25,
            0.19,
            0.12,
            0.06
        ],
        "model_id": "HS 863",
        "material": "clay, original",
        "count_of_vertices": "832481",
        "count_of_faces": "1664958",
        "bounding_box_in_cm": [
            3.5,
            4.0,
            2.2
        ],
        "area_in_cm2": "39.32",
        "volume_dx_in_cm3": "17.82",
        "volume_dy_in_cm3": "17.82",
        "volume_dz_in_cm3": "17.82",
        "processing_began_on": "Tue Dec 18 19:36:01 2018",
        "processing_finished_on": "Tue Dec 18 19:51:39 2018",
        "processing_wall_time_in_s": "936"
    },
    "from_ply_filename": {
        "filename": "/export/data/vNGG/tmp/Hilprecht_Sammlung/04_MSII_filtered/HS_ALL_MSII_PLY/HS_863_GMOCF_r1.50_n4_v512.ply",
        "hs_number": "HS 863",
        "radius_in_mm": "1.50",
        "count_of_radii": 16,
        "rastersize": 512
    },
    "from_hilprecht3d": {
        "hs_number": "HS 0863",
        "tablet_url": "https://hilprecht.mpiwg-berlin.mpg.de/object3d/32035",
        "bibliography": "1935: TMH 5, 113. \u2013 1975: ECTJ 113",
        "cdli_number": "20527"
    },
    "from_cdli_search_view": {
        "archival_view": "https://cdli.ucla.edu/search/archival_view.php?ObjectID=P020527",
        "primary_publication": "TMH 05, 113",
        "author": "Pohl, Alfred",
        "publication_date": "1935",
        "secondary_publication": "A. Westenholz, ECTJ 113",
        "collection": "Hilprecht Collection, University of Jena, Germany",
        "museum_number": "HS 0863",
        "accession_number": "",
        "provenience": "Nippur (mod. Nuffar)",
        "excavation_number": "",
        "period": "ED IIIb (ca. 2500-2340 BC)",
        "dates_referenced": "",
        "object_type": "tablet",
        "remarks": "",
        "material": "clay",
        "language": "Sumerian",
        "genre": "Administrative",
        "sub_genre": "",
        "cdli_comments": "",
        "catalogue_source": "20040921 krebernik_tmh5",
        "atf_source": "cdlistaff",
        "translation": "no translation",
        "ucla_library_ark": "21198/zz001t4s33",
        "composite_number": "",
        "seal_number": "",
        "cdli_number": "P020527"
    },
    "from_cdli_archival_view": {
        "primary_publication": "TMH 05, 113",
        "author": "Pohl, Alfred",
        "publication_date": "1935",
        "secondary_publications": "A. Westenholz, ECTJ 113",
        "citation": "",
        "author_remarks": "",
        "published_collation": "",
        "cdli_number": "P020527",
        "ucla_library_ark": "21198/zz001t4s33",
        "cdli_comments": "",
        "catalogue": "20040921 krebernik_tmh5",
        "transliteration_remarks": "cdlistaff",
        "translation_remarks": "no translation",
        "owner": "Hilprecht Collection, University of Jena, Germany",
        "museum_number": "HS 0863",
        "accession_number": "",
        "acquisition_history": "",
        "genre": "Administrative",
        "sub_genre": "",
        "sub_genre_remarks": "---",
        "composite_number": "",
        "language": "Sumerian",
        "material": "clay",
        "object_remarks": "",
        "measurements_in_mm": "39.5 x 37.5 x 23",
        "object_preservation": "",
        "surface_preservation": "",
        "condition_description": "",
        "join_information": "",
        "seal_number": "",
        "seal_information": "",
        "provenience": "Nippur (mod. Nuffar)",
        "excavation_number": "",
        "findspot_square": "",
        "elevation": "",
        "stratigraphic_level": "",
        "findspot_remarks": "",
        "period": "ED IIIb (ca. 2500-2340 BC)",
        "period_remarks": "",
        "date_of_origin": "",
        "dates_referenced": "",
        "alternative_years": "",
        "accounting_period": "",
        "textual_content": "@Tablet\n@obverse \n1. 2(u@c) siki ma-na \n2. ur-{d}en-lil2 \n3. 2(u@c) eb \n4. 1(u@c) na-mu-dib \n@reverse\n1. 1(u@c) nibru{ki}-da-lu2 \n2. 1(u@c) lugal-sza3 \n3. 1(u@c) igi-{d}en-lil2-sze3 \n4. nig2-ba szu ba-ti ",
        "lineart_url": "https://cdli.ucla.edu/dl/tn_lineart/P020527_l.jpg",
        "photo_url": "https://cdli.ucla.edu/dl/tn_photo/P020527.jpg"
    },
    "from_gigamesh_info_program": {
        "filename": "HS_863_GMOCF_r1.50_n4_v512",
        "model_id": "HS 863",
        "model_material": "clay, original",
        "vertices_total": "832481",
        "vertices_nan": "0",
        "vertices_solo": "0",
        "vertices_polyline": "0",
        "vertices_border": "0",
        "vertices_nonmanifold": "0",
        "vertices_on_inverted_edge": "0",
        "vertices_part_of_zero_face": "0",
        "vertices_synthetic": "0",
        "vertices_manual": "0",
        "vertices_circle_center": "0",
        "vertices_selected": "0",
        "vertices_funcval_finite": "832481",
        "vertices_funcval_local_min": "17913",
        "vertices_funcval_local_max": "8666",
        "faces_total": "1664958",
        "faces_solo": "0",
        "faces_border": "0",
        "faces_border_dangling": "0",
        "faces_manifold": "1664958",
        "faces_nonmanifold": "0",
        "faces_sticky": "0",
        "faces_zeroarea": "0",
        "faces_inverted": "0",
        "faces_with_synth_vertices": "0",
        "boundingbox_min_x": "-17.7386",
        "boundingbox_min_y": "0",
        "boundingbox_min_z": "-11.1001",
        "boundingbox_max_x": "17.7386",
        "boundingbox_max_y": "39.7102",
        "boundingbox_max_z": "11.1001",
        "boundingbox_width": "3.5",
        "boundingbox_height": "4",
        "boundingbox_thick": "2.2",
        "total_area": "39.32",
        "total_volume_dx": "17819",
        "total_volume_dy": "17819",
        "total_volume_dz": "17819"
    }
}