{
    "from_gigamesh_info_file": {
        "filename": "HS_850_GMOCF_r1.50_n4_v512.info.txt",
        "hs_number": "HS 850",
        "radius_in_mm": "1.5",
        "count_of_radii": "16",
        "rastersize": "512^3",
        "input_filename": "HS_850_GMOCF.ply",
        "output_filename": "HS_850_GMOCF_r1.50_n4_v512",
        "radii": [
            1.0,
            0.94,
            0.88,
            0.81,
            0.75,
            0.69,
            0.62,
            0.56,
            0.5,
            0.44,
            0.38,
            0.31,
            0.25,
            0.19,
            0.12,
            0.06
        ],
        "model_id": "HS 850",
        "material": "clay, original",
        "count_of_vertices": "893459",
        "count_of_faces": "1786914",
        "bounding_box_in_cm": [
            3.6,
            4.4,
            2.1
        ],
        "area_in_cm2": "44.99",
        "volume_dx_in_cm3": "20.65",
        "volume_dy_in_cm3": "20.65",
        "volume_dz_in_cm3": "20.65",
        "processing_began_on": "Tue Dec 18 18:53:42 2018",
        "processing_finished_on": "Tue Dec 18 19:02:50 2018",
        "processing_wall_time_in_s": "546"
    },
    "from_ply_filename": {
        "filename": "/export/data/vNGG/tmp/Hilprecht_Sammlung/04_MSII_filtered/HS_ALL_MSII_PLY/HS_850_GMOCF_r1.50_n4_v512.ply",
        "hs_number": "HS 850",
        "radius_in_mm": "1.50",
        "count_of_radii": 16,
        "rastersize": 512
    },
    "from_hilprecht3d": {
        "hs_number": "HS 0850",
        "tablet_url": "https://hilprecht.mpiwg-berlin.mpg.de/object3d/32023",
        "bibliography": "1935: TMH 5, 100. \u2013 1975: ECTJ 100",
        "cdli_number": "20514"
    },
    "from_cdli_search_view": {
        "archival_view": "https://cdli.ucla.edu/search/archival_view.php?ObjectID=P020514",
        "primary_publication": "TMH 05, 100",
        "author": "Pohl, Alfred",
        "publication_date": "1935",
        "secondary_publication": "A. Westenholz, ECTJ 100",
        "collection": "Hilprecht Collection, University of Jena, Germany",
        "museum_number": "HS 0850",
        "accession_number": "",
        "provenience": "Nippur (mod. Nuffar)",
        "excavation_number": "",
        "period": "ED IIIb (ca. 2500-2340 BC)",
        "dates_referenced": "",
        "object_type": "tablet",
        "remarks": "",
        "material": "clay",
        "language": "Sumerian",
        "genre": "Administrative",
        "sub_genre": "",
        "cdli_comments": "",
        "catalogue_source": "20040921 krebernik_tmh5",
        "atf_source": "cdlistaff",
        "translation": "no translation",
        "ucla_library_ark": "21198/zz001t4ps0",
        "composite_number": "",
        "seal_number": "",
        "cdli_number": "P020514"
    },
    "from_cdli_archival_view": {
        "primary_publication": "TMH 05, 100",
        "author": "Pohl, Alfred",
        "publication_date": "1935",
        "secondary_publications": "A. Westenholz, ECTJ 100",
        "citation": "",
        "author_remarks": "",
        "published_collation": "",
        "cdli_number": "P020514",
        "ucla_library_ark": "21198/zz001t4ps0",
        "cdli_comments": "",
        "catalogue": "20040921 krebernik_tmh5",
        "transliteration_remarks": "cdlistaff",
        "translation_remarks": "no translation",
        "owner": "Hilprecht Collection, University of Jena, Germany",
        "museum_number": "HS 0850",
        "accession_number": "",
        "acquisition_history": "",
        "genre": "Administrative",
        "sub_genre": "",
        "sub_genre_remarks": "---",
        "composite_number": "",
        "language": "Sumerian",
        "material": "clay",
        "object_remarks": "",
        "measurements_in_mm": "44 x 36.5 x 21.5",
        "object_preservation": "",
        "surface_preservation": "",
        "condition_description": "",
        "join_information": "",
        "seal_number": "",
        "seal_information": "",
        "provenience": "Nippur (mod. Nuffar)",
        "excavation_number": "",
        "findspot_square": "",
        "elevation": "",
        "stratigraphic_level": "",
        "findspot_remarks": "",
        "period": "ED IIIb (ca. 2500-2340 BC)",
        "period_remarks": "",
        "date_of_origin": "",
        "dates_referenced": "",
        "alternative_years": "",
        "accounting_period": "",
        "textual_content": "@Tablet\n@obverse \n1. 1(gesz2@c) la2 3(asz@c) 2/3(asz@c) sza-na-be6 ma-na suluhu2 \n2. ki lugal-tesz2-mu-sze3 \n3. ur-{d}li9-si4 \n4. i3-de6 \n5. iti {gesz}apin-du8-a \n6. mu ASZ2 NA \n7. al-hul-a ",
        "lineart_url": "https://cdli.ucla.edu/dl/tn_lineart/P020514_l.jpg",
        "photo_url": "https://cdli.ucla.edu/dl/tn_photo/P020514.jpg"
    },
    "from_gigamesh_info_program": {
        "filename": "HS_850_GMOCF_r1.50_n4_v512",
        "model_id": "HS 850",
        "model_material": "clay, original",
        "vertices_total": "893459",
        "vertices_nan": "0",
        "vertices_solo": "0",
        "vertices_polyline": "0",
        "vertices_border": "0",
        "vertices_nonmanifold": "0",
        "vertices_on_inverted_edge": "0",
        "vertices_part_of_zero_face": "0",
        "vertices_synthetic": "0",
        "vertices_manual": "0",
        "vertices_circle_center": "0",
        "vertices_selected": "0",
        "vertices_funcval_finite": "893459",
        "vertices_funcval_local_min": "19455",
        "vertices_funcval_local_max": "10042",
        "faces_total": "1786914",
        "faces_solo": "0",
        "faces_border": "0",
        "faces_border_dangling": "0",
        "faces_manifold": "1786914",
        "faces_nonmanifold": "0",
        "faces_sticky": "0",
        "faces_zeroarea": "0",
        "faces_inverted": "0",
        "faces_with_synth_vertices": "0",
        "boundingbox_min_x": "-18.2379",
        "boundingbox_min_y": "0",
        "boundingbox_min_z": "-10.7037",
        "boundingbox_max_x": "18.2379",
        "boundingbox_max_y": "44.3942",
        "boundingbox_max_z": "10.7037",
        "boundingbox_width": "3.6",
        "boundingbox_height": "4.4",
        "boundingbox_thick": "2.1",
        "total_area": "44.99",
        "total_volume_dx": "20649.8",
        "total_volume_dy": "20649.8",
        "total_volume_dz": "20649.8"
    }
}