{
    "from_gigamesh_info_file": {
        "filename": "HS_895_GMOCF_r1.50_n4_v512.info.txt",
        "hs_number": "HS 895",
        "radius_in_mm": "1.5",
        "count_of_radii": "16",
        "rastersize": "512^3",
        "input_filename": "HS_895_GMOCF.ply",
        "output_filename": "HS_895_GMOCF_r1.50_n4_v512",
        "radii": [
            1.0,
            0.94,
            0.88,
            0.81,
            0.75,
            0.69,
            0.62,
            0.56,
            0.5,
            0.44,
            0.38,
            0.31,
            0.25,
            0.19,
            0.12,
            0.06
        ],
        "model_id": "HS 895",
        "material": "clay, original",
        "count_of_vertices": "439248",
        "count_of_faces": "878492",
        "bounding_box_in_cm": [
            2.7,
            2.9,
            1.7
        ],
        "area_in_cm2": "20.83",
        "volume_dx_in_cm3": "7.60",
        "volume_dy_in_cm3": "7.60",
        "volume_dz_in_cm3": "7.60",
        "processing_began_on": "Tue Dec 18 21:34:35 2018",
        "processing_finished_on": "Tue Dec 18 21:43:29 2018",
        "processing_wall_time_in_s": "532"
    },
    "from_ply_filename": {
        "filename": "/export/data/vNGG/tmp/Hilprecht_Sammlung/04_MSII_filtered/HS_ALL_MSII_PLY/HS_895_GMOCF_r1.50_n4_v512.ply",
        "hs_number": "HS 895",
        "radius_in_mm": "1.50",
        "count_of_radii": 16,
        "rastersize": 512
    },
    "from_hilprecht3d": {
        "hs_number": "HS 0895",
        "tablet_url": "https://hilprecht.mpiwg-berlin.mpg.de/object3d/32066",
        "bibliography": "1935: TMH 5, 145. \u2013 1975: ECTJ 145",
        "cdli_number": "20559"
    },
    "from_cdli_search_view": {
        "archival_view": "https://cdli.ucla.edu/search/archival_view.php?ObjectID=P020559",
        "primary_publication": "TMH 05, 145",
        "author": "Pohl, Alfred",
        "publication_date": "1935",
        "secondary_publication": "A. Westenholz, ECTJ 145",
        "collection": "Hilprecht Collection, University of Jena, Germany",
        "museum_number": "HS 0895",
        "accession_number": "",
        "provenience": "Nippur (mod. Nuffar)",
        "excavation_number": "",
        "period": "ED IIIb (ca. 2500-2340 BC)",
        "dates_referenced": "",
        "object_type": "tablet",
        "remarks": "",
        "material": "clay",
        "language": "Sumerian",
        "genre": "Administrative",
        "sub_genre": "",
        "cdli_comments": "",
        "catalogue_source": "20040921 krebernik_tmh5",
        "atf_source": "cdlistaff",
        "translation": "no translation",
        "ucla_library_ark": "21198/zz001tbm0t",
        "composite_number": "",
        "seal_number": "",
        "cdli_number": "P020559"
    },
    "from_cdli_archival_view": {
        "primary_publication": "TMH 05, 145",
        "author": "Pohl, Alfred",
        "publication_date": "1935",
        "secondary_publications": "A. Westenholz, ECTJ 145",
        "citation": "",
        "author_remarks": "",
        "published_collation": "",
        "cdli_number": "P020559",
        "ucla_library_ark": "21198/zz001tbm0t",
        "cdli_comments": "",
        "catalogue": "20040921 krebernik_tmh5",
        "transliteration_remarks": "cdlistaff",
        "translation_remarks": "no translation",
        "owner": "Hilprecht Collection, University of Jena, Germany",
        "museum_number": "HS 0895",
        "accession_number": "",
        "acquisition_history": "",
        "genre": "Administrative",
        "sub_genre": "",
        "sub_genre_remarks": "---",
        "composite_number": "",
        "language": "Sumerian",
        "material": "clay",
        "object_remarks": "",
        "measurements_in_mm": "28 x 27 x 17.5",
        "object_preservation": "",
        "surface_preservation": "",
        "condition_description": "",
        "join_information": "",
        "seal_number": "",
        "seal_information": "",
        "provenience": "Nippur (mod. Nuffar)",
        "excavation_number": "",
        "findspot_square": "",
        "elevation": "",
        "stratigraphic_level": "",
        "findspot_remarks": "",
        "period": "ED IIIb (ca. 2500-2340 BC)",
        "period_remarks": "",
        "date_of_origin": "",
        "dates_referenced": "",
        "alternative_years": "",
        "accounting_period": "",
        "textual_content": "@Tablet\n@obverse \n1. 1(u@c) {gesz}ur3 \n2. il2 szitim-ra \n3. e2 {d}nin-urta-sze3 \n4. an-na-szum2 ",
        "lineart_url": "https://cdli.ucla.edu/dl/tn_lineart/P020559_l.jpg",
        "photo_url": "https://cdli.ucla.edu/dl/tn_photo/P020559.jpg"
    },
    "from_gigamesh_info_program": {
        "filename": "HS_895_GMOCF_r1.50_n4_v512",
        "model_id": "HS 895",
        "model_material": "clay, original",
        "vertices_total": "439248",
        "vertices_nan": "0",
        "vertices_solo": "0",
        "vertices_polyline": "0",
        "vertices_border": "0",
        "vertices_nonmanifold": "0",
        "vertices_on_inverted_edge": "0",
        "vertices_part_of_zero_face": "0",
        "vertices_synthetic": "0",
        "vertices_manual": "0",
        "vertices_circle_center": "0",
        "vertices_selected": "0",
        "vertices_funcval_finite": "439248",
        "vertices_funcval_local_min": "9253",
        "vertices_funcval_local_max": "5698",
        "faces_total": "878492",
        "faces_solo": "0",
        "faces_border": "0",
        "faces_border_dangling": "0",
        "faces_manifold": "878492",
        "faces_nonmanifold": "0",
        "faces_sticky": "0",
        "faces_zeroarea": "0",
        "faces_inverted": "0",
        "faces_with_synth_vertices": "0",
        "boundingbox_min_x": "-13.526",
        "boundingbox_min_y": "0",
        "boundingbox_min_z": "-8.5989",
        "boundingbox_max_x": "13.526",
        "boundingbox_max_y": "28.55",
        "boundingbox_max_z": "8.5989",
        "boundingbox_width": "2.7",
        "boundingbox_height": "2.9",
        "boundingbox_thick": "1.7",
        "total_area": "20.83",
        "total_volume_dx": "7599.82",
        "total_volume_dy": "7599.82",
        "total_volume_dz": "7599.82"
    }
}