{
    "from_gigamesh_info_file": {
        "filename": "HS_847_GMOCF_r1.50_n4_v512.info.txt",
        "hs_number": "HS 847",
        "radius_in_mm": "1.5",
        "count_of_radii": "16",
        "rastersize": "512^3",
        "input_filename": "HS_847_GMOCF.ply",
        "output_filename": "HS_847_GMOCF_r1.50_n4_v512",
        "radii": [
            1.0,
            0.94,
            0.88,
            0.81,
            0.75,
            0.69,
            0.62,
            0.56,
            0.5,
            0.44,
            0.38,
            0.31,
            0.25,
            0.19,
            0.12,
            0.06
        ],
        "model_id": "HS 847",
        "material": "clay, original",
        "count_of_vertices": "1928704",
        "count_of_faces": "3857404",
        "bounding_box_in_cm": [
            5.1,
            5.1,
            2.5
        ],
        "area_in_cm2": "71.96",
        "volume_dx_in_cm3": "35.99",
        "volume_dy_in_cm3": "35.99",
        "volume_dz_in_cm3": "35.99",
        "processing_began_on": "Tue Dec 18 18:45:54 2018",
        "processing_finished_on": "Tue Dec 18 19:07:44 2018",
        "processing_wall_time_in_s": "1309"
    },
    "from_ply_filename": {
        "filename": "/export/data/vNGG/tmp/Hilprecht_Sammlung/04_MSII_filtered/HS_ALL_MSII_PLY/HS_847_GMOCF_r1.50_n4_v512.ply",
        "hs_number": "HS 847",
        "radius_in_mm": "1.50",
        "count_of_radii": 16,
        "rastersize": 512
    },
    "from_hilprecht3d": {
        "hs_number": "HS 0847",
        "tablet_url": "https://hilprecht.mpiwg-berlin.mpg.de/object3d/32020",
        "bibliography": "1935: TMH 5, 097. \u2013 1975: ECTJ 97",
        "cdli_number": "20511"
    },
    "from_cdli_search_view": {
        "archival_view": "https://cdli.ucla.edu/search/archival_view.php?ObjectID=P020511",
        "primary_publication": "TMH 05, 097",
        "author": "Pohl, Alfred",
        "publication_date": "1935",
        "secondary_publication": "A. Westenholz, ECTJ 97",
        "collection": "Hilprecht Collection, University of Jena, Germany",
        "museum_number": "HS 0847",
        "accession_number": "",
        "provenience": "Nippur (mod. Nuffar)",
        "excavation_number": "",
        "period": "ED IIIb (ca. 2500-2340 BC)",
        "dates_referenced": "",
        "object_type": "tablet",
        "remarks": "",
        "material": "clay",
        "language": "Sumerian",
        "genre": "Administrative",
        "sub_genre": "",
        "cdli_comments": "",
        "catalogue_source": "20040921 krebernik_tmh5",
        "atf_source": "cdlistaff",
        "translation": "no translation",
        "ucla_library_ark": "21198/zz001t4ppf",
        "composite_number": "",
        "seal_number": "",
        "cdli_number": "P020511"
    },
    "from_cdli_archival_view": {
        "primary_publication": "TMH 05, 097",
        "author": "Pohl, Alfred",
        "publication_date": "1935",
        "secondary_publications": "A. Westenholz, ECTJ 97",
        "citation": "",
        "author_remarks": "",
        "published_collation": "",
        "cdli_number": "P020511",
        "ucla_library_ark": "21198/zz001t4ppf",
        "cdli_comments": "",
        "catalogue": "20040921 krebernik_tmh5",
        "transliteration_remarks": "cdlistaff",
        "translation_remarks": "no translation",
        "owner": "Hilprecht Collection, University of Jena, Germany",
        "museum_number": "HS 0847",
        "accession_number": "",
        "acquisition_history": "",
        "genre": "Administrative",
        "sub_genre": "",
        "sub_genre_remarks": "---",
        "composite_number": "",
        "language": "Sumerian",
        "material": "clay",
        "object_remarks": "",
        "measurements_in_mm": "51 x 51 x 26",
        "object_preservation": "",
        "surface_preservation": "",
        "condition_description": "",
        "join_information": "",
        "seal_number": "",
        "seal_information": "",
        "provenience": "Nippur (mod. Nuffar)",
        "excavation_number": "",
        "findspot_square": "",
        "elevation": "",
        "stratigraphic_level": "",
        "findspot_remarks": "",
        "period": "ED IIIb (ca. 2500-2340 BC)",
        "period_remarks": "",
        "date_of_origin": "",
        "dates_referenced": "",
        "alternative_years": "",
        "accounting_period": "",
        "textual_content": "@Tablet\n@obverse \ncolumn 1 \n1. [x] 5(asz@c) ziz2 lid2-ga \n2. sa2-du11 \n3. gurusz-ne-kam \n4. ur-tur \ncolumn 2 \n1. [...] \n2. iti 6(disz@t)-[kam?] \n3. SAR-bil2# [x] \n4. ki isz-me#-i3-lum-ta \ncolumn 3 \n$ 2 lines missing ",
        "lineart_url": "https://cdli.ucla.edu/dl/tn_lineart/P020511_l.jpg",
        "photo_url": "https://cdli.ucla.edu/dl/tn_photo/P020511.jpg"
    },
    "from_gigamesh_info_program": {
        "filename": "HS_847_GMOCF_r1.50_n4_v512",
        "model_id": "HS 847",
        "model_material": "clay, original",
        "vertices_total": "1928704",
        "vertices_nan": "0",
        "vertices_solo": "0",
        "vertices_polyline": "0",
        "vertices_border": "0",
        "vertices_nonmanifold": "0",
        "vertices_on_inverted_edge": "0",
        "vertices_part_of_zero_face": "0",
        "vertices_synthetic": "1216",
        "vertices_manual": "0",
        "vertices_circle_center": "0",
        "vertices_selected": "0",
        "vertices_funcval_finite": "1928704",
        "vertices_funcval_local_min": "43168",
        "vertices_funcval_local_max": "22690",
        "faces_total": "3857404",
        "faces_solo": "0",
        "faces_border": "0",
        "faces_border_dangling": "0",
        "faces_manifold": "3857404",
        "faces_nonmanifold": "0",
        "faces_sticky": "0",
        "faces_zeroarea": "0",
        "faces_inverted": "0",
        "faces_with_synth_vertices": "1868",
        "boundingbox_min_x": "-25.2693",
        "boundingbox_min_y": "0",
        "boundingbox_min_z": "-12.5813",
        "boundingbox_max_x": "25.2693",
        "boundingbox_max_y": "51.2658",
        "boundingbox_max_z": "12.5813",
        "boundingbox_width": "5.1",
        "boundingbox_height": "5.1",
        "boundingbox_thick": "2.5",
        "total_area": "71.96",
        "total_volume_dx": "35991.1",
        "total_volume_dy": "35991.1",
        "total_volume_dz": "35991.1"
    }
}