{
    "from_gigamesh_info_file": {
        "filename": "HS_871_GMOCF_r1.50_n4_v512.info.txt",
        "hs_number": "HS 871",
        "radius_in_mm": "1.5",
        "count_of_radii": "16",
        "rastersize": "512^3",
        "input_filename": "HS_871_GMOCF.ply",
        "output_filename": "HS_871_GMOCF_r1.50_n4_v512",
        "radii": [
            1.0,
            0.94,
            0.88,
            0.81,
            0.75,
            0.69,
            0.62,
            0.56,
            0.5,
            0.44,
            0.38,
            0.31,
            0.25,
            0.19,
            0.12,
            0.06
        ],
        "model_id": "HS 871",
        "material": "clay, original",
        "count_of_vertices": "579185",
        "count_of_faces": "1158366",
        "bounding_box_in_cm": [
            2.9,
            3.2,
            1.7
        ],
        "area_in_cm2": "23.74",
        "volume_dx_in_cm3": "7.18",
        "volume_dy_in_cm3": "7.18",
        "volume_dz_in_cm3": "7.18",
        "processing_began_on": "Tue Dec 18 20:01:43 2018",
        "processing_finished_on": "Tue Dec 18 20:07:44 2018",
        "processing_wall_time_in_s": "358"
    },
    "from_ply_filename": {
        "filename": "/export/data/vNGG/tmp/Hilprecht_Sammlung/04_MSII_filtered/HS_ALL_MSII_PLY/HS_871_GMOCF_r1.50_n4_v512.ply",
        "hs_number": "HS 871",
        "radius_in_mm": "1.50",
        "count_of_radii": 16,
        "rastersize": 512
    },
    "from_hilprecht3d": {
        "hs_number": "HS 0871",
        "tablet_url": "https://hilprecht.mpiwg-berlin.mpg.de/object3d/32043",
        "bibliography": "1935: TMH 5, 121. \u2013 1975: ECTJ 121",
        "cdli_number": "20535"
    },
    "from_cdli_search_view": {
        "archival_view": "https://cdli.ucla.edu/search/archival_view.php?ObjectID=P020535",
        "primary_publication": "TMH 05, 121",
        "author": "Pohl, Alfred",
        "publication_date": "1935",
        "secondary_publication": "A. Westenholz, ECTJ 121",
        "collection": "Hilprecht Collection, University of Jena, Germany",
        "museum_number": "HS 0871",
        "accession_number": "",
        "provenience": "Nippur (mod. Nuffar)",
        "excavation_number": "",
        "period": "ED IIIb (ca. 2500-2340 BC)",
        "dates_referenced": "",
        "object_type": "tablet",
        "remarks": "",
        "material": "clay",
        "language": "Sumerian",
        "genre": "Administrative",
        "sub_genre": "",
        "cdli_comments": "",
        "catalogue_source": "20040921 krebernik_tmh5",
        "atf_source": "cdlistaff",
        "translation": "no translation",
        "ucla_library_ark": "21198/zz001t4sc7",
        "composite_number": "",
        "seal_number": "",
        "cdli_number": "P020535"
    },
    "from_cdli_archival_view": {
        "primary_publication": "TMH 05, 121",
        "author": "Pohl, Alfred",
        "publication_date": "1935",
        "secondary_publications": "A. Westenholz, ECTJ 121",
        "citation": "",
        "author_remarks": "",
        "published_collation": "",
        "cdli_number": "P020535",
        "ucla_library_ark": "21198/zz001t4sc7",
        "cdli_comments": "",
        "catalogue": "20040921 krebernik_tmh5",
        "transliteration_remarks": "cdlistaff",
        "translation_remarks": "no translation",
        "owner": "Hilprecht Collection, University of Jena, Germany",
        "museum_number": "HS 0871",
        "accession_number": "",
        "acquisition_history": "",
        "genre": "Administrative",
        "sub_genre": "",
        "sub_genre_remarks": "---",
        "composite_number": "",
        "language": "Sumerian",
        "material": "clay",
        "object_remarks": "",
        "measurements_in_mm": "32 x 28.5 x 15.5",
        "object_preservation": "",
        "surface_preservation": "",
        "condition_description": "",
        "join_information": "",
        "seal_number": "",
        "seal_information": "",
        "provenience": "Nippur (mod. Nuffar)",
        "excavation_number": "",
        "findspot_square": "",
        "elevation": "",
        "stratigraphic_level": "",
        "findspot_remarks": "",
        "period": "ED IIIb (ca. 2500-2340 BC)",
        "period_remarks": "",
        "date_of_origin": "",
        "dates_referenced": "",
        "alternative_years": "",
        "accounting_period": "",
        "textual_content": "@Tablet\n@obverse \n1. 7(gesz2@c) 2(u@c) 3(asz@c) sze gur \n2. sze gesz ra \n3. GAN2#? bi-nu \n$ several lines missing ",
        "lineart_url": "https://cdli.ucla.edu/dl/tn_lineart/P020535_l.jpg",
        "photo_url": "https://cdli.ucla.edu/dl/tn_photo/P020535.jpg"
    },
    "from_gigamesh_info_program": {
        "filename": "HS_871_GMOCF_r1.50_n4_v512",
        "model_id": "HS 871",
        "model_material": "clay, original",
        "vertices_total": "579185",
        "vertices_nan": "0",
        "vertices_solo": "0",
        "vertices_polyline": "0",
        "vertices_border": "0",
        "vertices_nonmanifold": "0",
        "vertices_on_inverted_edge": "0",
        "vertices_part_of_zero_face": "0",
        "vertices_synthetic": "0",
        "vertices_manual": "0",
        "vertices_circle_center": "0",
        "vertices_selected": "0",
        "vertices_funcval_finite": "579185",
        "vertices_funcval_local_min": "11186",
        "vertices_funcval_local_max": "5582",
        "faces_total": "1158366",
        "faces_solo": "0",
        "faces_border": "0",
        "faces_border_dangling": "0",
        "faces_manifold": "1158366",
        "faces_nonmanifold": "0",
        "faces_sticky": "0",
        "faces_zeroarea": "0",
        "faces_inverted": "0",
        "faces_with_synth_vertices": "0",
        "boundingbox_min_x": "-14.5523",
        "boundingbox_min_y": "0",
        "boundingbox_min_z": "-8.6381",
        "boundingbox_max_x": "14.5523",
        "boundingbox_max_y": "32.0761",
        "boundingbox_max_z": "8.6381",
        "boundingbox_width": "2.9",
        "boundingbox_height": "3.2",
        "boundingbox_thick": "1.7",
        "total_area": "23.74",
        "total_volume_dx": "7180.62",
        "total_volume_dy": "7180.62",
        "total_volume_dz": "7180.62"
    }
}