{
    "from_gigamesh_info_file": {
        "filename": "HS_819_GMOCF_r1.50_n4_v512.info.txt",
        "hs_number": "HS 819",
        "radius_in_mm": "1.5",
        "count_of_radii": "16",
        "rastersize": "512^3",
        "input_filename": "HS_819_GMOCF.ply",
        "output_filename": "HS_819_GMOCF_r1.50_n4_v512",
        "radii": [
            1.0,
            0.94,
            0.88,
            0.81,
            0.75,
            0.69,
            0.62,
            0.56,
            0.5,
            0.44,
            0.38,
            0.31,
            0.25,
            0.19,
            0.12,
            0.06
        ],
        "model_id": "HS 819",
        "material": "clay, original",
        "count_of_vertices": "1557591",
        "count_of_faces": "3115178",
        "bounding_box_in_cm": [
            5.4,
            5.7,
            1.8
        ],
        "area_in_cm2": "69.90",
        "volume_dx_in_cm3": "32.73",
        "volume_dy_in_cm3": "32.73",
        "volume_dz_in_cm3": "32.73",
        "processing_began_on": "Tue Dec 18 16:13:22 2018",
        "processing_finished_on": "Tue Dec 18 16:28:23 2018",
        "processing_wall_time_in_s": "897"
    },
    "from_ply_filename": {
        "filename": "/export/data/vNGG/tmp/Hilprecht_Sammlung/04_MSII_filtered/HS_ALL_MSII_PLY/HS_819_GMOCF_r1.50_n4_v512.ply",
        "hs_number": "HS 819",
        "radius_in_mm": "1.50",
        "count_of_radii": 16,
        "rastersize": 512
    },
    "from_hilprecht3d": {
        "hs_number": "HS 0819",
        "tablet_url": "https://hilprecht.mpiwg-berlin.mpg.de/object3d/31994",
        "bibliography": "1935: TMH 5, 069. \u2013 1975: ECTJ 69",
        "cdli_number": "20483"
    },
    "from_cdli_search_view": {
        "archival_view": "https://cdli.ucla.edu/search/archival_view.php?ObjectID=P020483",
        "primary_publication": "TMH 05, 069",
        "author": "Pohl, Alfred",
        "publication_date": "1935",
        "secondary_publication": "A. Westenholz, ECTJ 69",
        "collection": "Hilprecht Collection, University of Jena, Germany",
        "museum_number": "HS 0819",
        "accession_number": "",
        "provenience": "Nippur (mod. Nuffar)",
        "excavation_number": "",
        "period": "ED IIIb (ca. 2500-2340 BC)",
        "dates_referenced": "",
        "object_type": "tablet",
        "remarks": "",
        "material": "clay",
        "language": "Sumerian",
        "genre": "Administrative",
        "sub_genre": "",
        "cdli_comments": "",
        "catalogue_source": "20040921 krebernik_tmh5",
        "atf_source": "cdlistaff",
        "translation": "no translation",
        "ucla_library_ark": "21198/zz001sqkcj",
        "composite_number": "",
        "seal_number": "",
        "cdli_number": "P020483"
    },
    "from_cdli_archival_view": {
        "primary_publication": "TMH 05, 069",
        "author": "Pohl, Alfred",
        "publication_date": "1935",
        "secondary_publications": "A. Westenholz, ECTJ 69",
        "citation": "",
        "author_remarks": "",
        "published_collation": "",
        "cdli_number": "P020483",
        "ucla_library_ark": "21198/zz001sqkcj",
        "cdli_comments": "",
        "catalogue": "20040921 krebernik_tmh5",
        "transliteration_remarks": "cdlistaff",
        "translation_remarks": "no translation",
        "owner": "Hilprecht Collection, University of Jena, Germany",
        "museum_number": "HS 0819",
        "accession_number": "",
        "acquisition_history": "",
        "genre": "Administrative",
        "sub_genre": "",
        "sub_genre_remarks": "---",
        "composite_number": "",
        "language": "Sumerian",
        "material": "clay",
        "object_remarks": "",
        "measurements_in_mm": "56 x 54.5 x 18.5",
        "object_preservation": "",
        "surface_preservation": "",
        "condition_description": "",
        "join_information": "",
        "seal_number": "",
        "seal_information": "",
        "provenience": "Nippur (mod. Nuffar)",
        "excavation_number": "",
        "findspot_square": "",
        "elevation": "",
        "stratigraphic_level": "",
        "findspot_remarks": "",
        "period": "ED IIIb (ca. 2500-2340 BC)",
        "period_remarks": "",
        "date_of_origin": "",
        "dates_referenced": "",
        "alternative_years": "",
        "accounting_period": "",
        "textual_content": "@Tablet\n@obverse \ncolumn 1 \n1. 1(bur3@c) 1(esze3@c) GAN2 \n2. ba-za \n3. 1(esze3@c) GAN2 sukkal AN \n4. 1(esze3@c) dumu lu:gal-{d}i7-mu \n5. 2(bur3@c) 2(esze3@c) GAN2 ki-szum \ncolumn 2 \n1. sze-be6 1(u@c) lid2-ga \n2. 1(bur3@c) 1(esze3@c) szuku \n3. lugal-sza3 \n4. dumu lugal-lu2 \n5. GAN2 {d}nin-isin2-[kam] ",
        "lineart_url": "https://cdli.ucla.edu/dl/tn_lineart/P020483_l.jpg",
        "photo_url": "https://cdli.ucla.edu/dl/tn_photo/P020483.jpg"
    },
    "from_gigamesh_info_program": {
        "filename": "HS_819_GMOCF_r1.50_n4_v512",
        "model_id": "HS 819",
        "model_material": "clay, original",
        "vertices_total": "1557591",
        "vertices_nan": "0",
        "vertices_solo": "0",
        "vertices_polyline": "0",
        "vertices_border": "0",
        "vertices_nonmanifold": "0",
        "vertices_on_inverted_edge": "0",
        "vertices_part_of_zero_face": "0",
        "vertices_synthetic": "1",
        "vertices_manual": "0",
        "vertices_circle_center": "0",
        "vertices_selected": "1",
        "vertices_funcval_finite": "1557591",
        "vertices_funcval_local_min": "40194",
        "vertices_funcval_local_max": "22475",
        "faces_total": "3115178",
        "faces_solo": "0",
        "faces_border": "0",
        "faces_border_dangling": "0",
        "faces_manifold": "3115178",
        "faces_nonmanifold": "0",
        "faces_sticky": "0",
        "faces_zeroarea": "0",
        "faces_inverted": "0",
        "faces_with_synth_vertices": "0",
        "boundingbox_min_x": "-27.2428",
        "boundingbox_min_y": "0",
        "boundingbox_min_z": "-9.2089",
        "boundingbox_max_x": "27.2428",
        "boundingbox_max_y": "56.5979",
        "boundingbox_max_z": "9.2089",
        "boundingbox_width": "5.4",
        "boundingbox_height": "5.7",
        "boundingbox_thick": "1.8",
        "total_area": "69.9",
        "total_volume_dx": "32725.8",
        "total_volume_dy": "32725.8",
        "total_volume_dz": "32725.8"
    }
}