{
    "from_gigamesh_info_file": {
        "filename": "HS_841_GMOCF_r1.50_n4_v512.info.txt",
        "hs_number": "HS 841",
        "radius_in_mm": "1.5",
        "count_of_radii": "16",
        "rastersize": "512^3",
        "input_filename": "HS_841_GMOCF.ply",
        "output_filename": "HS_841_GMOCF_r1.50_n4_v512",
        "radii": [
            1.0,
            0.94,
            0.88,
            0.81,
            0.75,
            0.69,
            0.62,
            0.56,
            0.5,
            0.44,
            0.38,
            0.31,
            0.25,
            0.19,
            0.12,
            0.06
        ],
        "model_id": "HS 841",
        "material": "clay, original",
        "count_of_vertices": "1086013",
        "count_of_faces": "2172022",
        "bounding_box_in_cm": [
            4.3,
            4.4,
            2.3
        ],
        "area_in_cm2": "47.87",
        "volume_dx_in_cm3": "21.81",
        "volume_dy_in_cm3": "21.81",
        "volume_dz_in_cm3": "21.81",
        "processing_began_on": "Tue Dec 18 18:29:24 2018",
        "processing_finished_on": "Tue Dec 18 18:40:22 2018",
        "processing_wall_time_in_s": "656"
    },
    "from_ply_filename": {
        "filename": "/export/data/vNGG/tmp/Hilprecht_Sammlung/04_MSII_filtered/HS_ALL_MSII_PLY/HS_841_GMOCF_r1.50_n4_v512.ply",
        "hs_number": "HS 841",
        "radius_in_mm": "1.50",
        "count_of_radii": 16,
        "rastersize": 512
    },
    "from_hilprecht3d": {
        "hs_number": "HS 0841",
        "tablet_url": "https://hilprecht.mpiwg-berlin.mpg.de/object3d/32014",
        "bibliography": "1935: TMH 5, 091. \u2013 1975: ECTJ 91",
        "cdli_number": "20505"
    },
    "from_cdli_search_view": {
        "archival_view": "https://cdli.ucla.edu/search/archival_view.php?ObjectID=P020505",
        "primary_publication": "TMH 05, 091",
        "author": "Pohl, Alfred",
        "publication_date": "1935",
        "secondary_publication": "A. Westenholz, ECTJ 91",
        "collection": "Hilprecht Collection, University of Jena, Germany",
        "museum_number": "HS 0841",
        "accession_number": "",
        "provenience": "Nippur (mod. Nuffar)",
        "excavation_number": "",
        "period": "ED IIIb (ca. 2500-2340 BC)",
        "dates_referenced": "",
        "object_type": "tablet",
        "remarks": "",
        "material": "clay",
        "language": "Sumerian",
        "genre": "Administrative",
        "sub_genre": "",
        "cdli_comments": "",
        "catalogue_source": "20040921 krebernik_tmh5",
        "atf_source": "cdlistaff",
        "translation": "no translation",
        "ucla_library_ark": "21198/zz001sqnxs",
        "composite_number": "",
        "seal_number": "",
        "cdli_number": "P020505"
    },
    "from_cdli_archival_view": {
        "primary_publication": "TMH 05, 091",
        "author": "Pohl, Alfred",
        "publication_date": "1935",
        "secondary_publications": "A. Westenholz, ECTJ 91",
        "citation": "",
        "author_remarks": "",
        "published_collation": "",
        "cdli_number": "P020505",
        "ucla_library_ark": "21198/zz001sqnxs",
        "cdli_comments": "",
        "catalogue": "20040921 krebernik_tmh5",
        "transliteration_remarks": "cdlistaff",
        "translation_remarks": "no translation",
        "owner": "Hilprecht Collection, University of Jena, Germany",
        "museum_number": "HS 0841",
        "accession_number": "",
        "acquisition_history": "",
        "genre": "Administrative",
        "sub_genre": "",
        "sub_genre_remarks": "---",
        "composite_number": "",
        "language": "Sumerian",
        "material": "clay",
        "object_remarks": "",
        "measurements_in_mm": "44.5 x 43.5 x 24",
        "object_preservation": "",
        "surface_preservation": "",
        "condition_description": "",
        "join_information": "",
        "seal_number": "",
        "seal_information": "",
        "provenience": "Nippur (mod. Nuffar)",
        "excavation_number": "",
        "findspot_square": "",
        "elevation": "",
        "stratigraphic_level": "",
        "findspot_remarks": "",
        "period": "ED IIIb (ca. 2500-2340 BC)",
        "period_remarks": "",
        "date_of_origin": "",
        "dates_referenced": "",
        "alternative_years": "",
        "accounting_period": "",
        "textual_content": "@Tablet\n@obverse \ncolumn 1 \n1. 1(gesz'u@c) 2(gesz2@c) 4(u@c) masz2 kun-x \n2. 2(gesz2@c) 3(u@c) masz2 sila4 da-da \n3. 2(gesz2@c) 3(u@c) masz2 nag \ncolumn 2 \n1. sila4 nag \n2. 1(gesz2@c) ninni5 gu2 \n3. 1(gesz2@c) gu-gada ma-na \n4. 4(u@c) tug2 aktum \ncolumn 3 \n1. 4(u@c) gada tug2 \n2. ki dub-sar-ta \n3. e2-gal an-DU ",
        "lineart_url": "https://cdli.ucla.edu/dl/tn_lineart/P020505_l.jpg",
        "photo_url": "https://cdli.ucla.edu/dl/tn_photo/P020505.jpg"
    },
    "from_gigamesh_info_program": {
        "filename": "HS_841_GMOCF_r1.50_n4_v512",
        "model_id": "HS 841",
        "model_material": "clay, original",
        "vertices_total": "1086013",
        "vertices_nan": "0",
        "vertices_solo": "0",
        "vertices_polyline": "0",
        "vertices_border": "0",
        "vertices_nonmanifold": "0",
        "vertices_on_inverted_edge": "0",
        "vertices_part_of_zero_face": "0",
        "vertices_synthetic": "53",
        "vertices_manual": "0",
        "vertices_circle_center": "0",
        "vertices_selected": "0",
        "vertices_funcval_finite": "1086013",
        "vertices_funcval_local_min": "22359",
        "vertices_funcval_local_max": "13063",
        "faces_total": "2172022",
        "faces_solo": "0",
        "faces_border": "0",
        "faces_border_dangling": "0",
        "faces_manifold": "2172022",
        "faces_nonmanifold": "0",
        "faces_sticky": "0",
        "faces_zeroarea": "0",
        "faces_inverted": "0",
        "faces_with_synth_vertices": "35",
        "boundingbox_min_x": "-21.6197",
        "boundingbox_min_y": "0",
        "boundingbox_min_z": "-11.2518",
        "boundingbox_max_x": "21.6197",
        "boundingbox_max_y": "44.2894",
        "boundingbox_max_z": "11.2518",
        "boundingbox_width": "4.3",
        "boundingbox_height": "4.4",
        "boundingbox_thick": "2.3",
        "total_area": "47.87",
        "total_volume_dx": "21814.5",
        "total_volume_dy": "21814.5",
        "total_volume_dz": "21814.5"
    }
}