Filename;Model Id;Model Material;Web-Reference;Total number of vertices;Vertices not-a-number;Vertex normal vector length normal;Vertices solo;Vertices of polylines;Border vertices;Vertices non-manifold;Vertices singular;Vertices along an inverted edge;Vertices part of a zero area face;Vertices synthetic;Vertices manually added;Vertices circle center;Vertices selected;Vertices with finite function value;Vertices with local function value minimum;Vertices with local function value maximum;Total number of faces;Solo faces;Border faces;Faces with three border vertices;Border faces bridge tri-connection;Bridge border faces;Dangling border faces;Manifold faces;Non-manifold faces;Sticky faces;Faces with zero area;Inverted Faces;Selected Faces;Faces with synthetic vertices;Connected components;Minimum x coordinate;Minimum y coordinate;Minimum z coordinate;Maximum x coordinate;Maximum y coordinate;Maximum z coordinate;Bounding box width;Bounding box height;Bounding box thickness;Total area;Total volume (dx);Total volume (dy);Total volume (dz);Connected components
CMS-II6-no161_HM-101_2020-02-05_GMCFO_r1.00_n4_v256.volume;CMS-II6-161-101 S075 S050 050220;impression, plasticine;;879403;0;4073;0;0;4759;0;0;0;0;4073;0;0;0;879403;25766;32393;1754045;0;4759;0;0;0;0;1754045;0;0;0;0;0;7133;1;-19.264100;0.000000;-2.427700;19.264100;27.607000;2.427700;3.900000;2.800000;0.500000;11.950000;-699.801817;-425.165523;620.667992;
CMS-II6-no161_HM-101_2020-02-05;CMS-II6-161-101 S075 S050 050220;impression, plasticine;;879403;0;4073;0;0;4759;0;0;0;0;4073;0;0;0;879403;0;0;1754045;0;4759;0;0;0;0;1754045;0;0;0;0;0;7133;1;-19.264100;0.000000;-2.427700;19.264100;27.607000;2.427700;3.900000;2.800000;0.500000;11.950000;-699.801817;-425.165523;620.667992;
CMS-II6-no259_HM-628_2020-02-11_GMCFO_r1.00_n4_v256.volume;CMS-II6-259-628 S075 S050 110220;impression, clay;;844751;0;1345;0;0;3963;0;0;0;0;1345;0;0;0;844751;18599;25341;1685537;0;3963;0;0;0;0;1685537;0;0;0;0;0;1851;1;-13.131600;0.000000;-2.293400;13.131600;27.189000;2.293400;2.600000;2.700000;0.500000;8.050000;-599.772062;-790.425808;267.387632;
CMS-II6-no259_HM-628_2020-02-11;CMS-II6-259-628 S075 S050 110220;impression, clay;;844751;0;1345;0;0;3963;0;0;0;0;1345;0;0;0;844751;0;0;1685537;0;3963;0;0;0;0;1685537;0;0;0;0;0;1851;1;-13.131600;0.000000;-2.293400;13.131600;27.189000;2.293400;2.600000;2.700000;0.500000;8.050000;-599.772062;-790.425808;267.387632;
CMS-II6-no259_HM-629_2020-02-11_GMCFO_r1.00_n4_v256.volume;CMS-II6-259-629 S075 S050 110220;impression, plasticine;;523219;0;0;0;0;3171;0;0;0;0;290;0;0;0;523219;14697;18181;1043265;0;3171;0;0;0;0;1043265;0;0;0;0;0;403;1;-14.567400;0.000000;-2.815700;14.567400;29.025000;2.815700;2.900000;2.900000;0.600000;9.170000;-967.723318;-784.940768;802.957982;
CMS-II6-no259_HM-629_2020-02-11;CMS-II6-259-629 S075 S050 110220;impression, plasticine;;523219;0;0;0;0;3171;0;0;0;0;290;0;0;0;523219;0;0;1043265;0;3171;0;0;0;0;1043265;0;0;0;0;0;403;1;-14.567400;0.000000;-2.815700;14.567400;29.025000;2.815700;2.900000;2.900000;0.600000;9.170000;-967.723318;-784.940768;802.957982;
CMS-II6-no43_HM-497_2020-02-05_GMCFO_r1.00_n4_v256.volume;CMS II.6 no. 43, HMs 497;impression, plasticine;;1031507;0;0;0;0;4151;0;0;0;0;7686;0;0;0;1031507;24182;32697;2058861;0;4151;3;0;3;0;2058861;0;0;0;0;0;12852;1;-15.953000;0.000000;-2.334300;15.953000;27.928700;2.334300;3.200000;2.800000;0.500000;10.120000;-627.553884;-976.917595;237.146936;
CMS-II6-no43_HM-497_2020-02-05;CMS II.6 no. 43, HMs 497;impression, plasticine;;1031507;0;0;0;0;4151;0;0;0;0;7686;0;0;0;1031507;0;0;2058861;0;4151;3;0;3;0;2058861;0;0;0;0;0;12852;1;-15.953000;0.000000;-2.334300;15.953000;27.928700;2.334300;3.200000;2.800000;0.500000;10.120000;-627.553884;-976.917595;237.146936;
CMS-II6-no43_HM-498_2020-02-11_GMCFO_r1.00_n4_v256.volume;CMS-II6-43-498 S075 S050 110220;impression, plasticine;;833154;0;1347;0;0;4370;0;0;0;0;1347;0;0;0;833154;23548;30774;1661936;0;4370;3;0;3;0;1661936;0;0;0;0;0;2195;1;-17.111600;0.000000;-2.864600;17.111600;28.249300;2.864600;3.400000;2.800000;0.600000;10.520000;-1544.118795;-1096.719833;260.816627;
CMS-II6-no43_HM-498_2020-02-11;CMS-II6-43-498 S075 S050 110220;impression, plasticine;;833154;0;1347;0;0;4370;0;0;0;0;1347;0;0;0;833154;0;0;1661936;0;4370;3;0;3;0;1661936;0;0;0;0;0;2195;1;-17.111600;0.000000;-2.864600;17.111600;28.249300;2.864600;3.400000;2.800000;0.600000;10.520000;-1544.118795;-1096.719833;260.816627;
CMS-II6-no43_HM-499_2020-02-11_GMCFO_r1.00_n4_v256.volume;CMS-II6-43-499 S075 S050 110220;impression, plasticine;;809192;0;1906;0;0;3946;0;0;0;0;1906;0;0;0;809192;21823;27692;1614436;0;3946;0;0;0;0;1614436;0;0;0;0;0;3099;1;-16.431200;0.000000;-2.889900;16.431200;27.413400;2.889900;3.300000;2.700000;0.600000;10.110000;-899.049510;-511.925220;578.346804;
CMS-II6-no43_HM-499_2020-02-11;CMS-II6-43-499 S075 S050 110220;impression, plasticine;;809192;0;1906;0;0;3946;0;0;0;0;1906;0;0;0;809192;0;0;1614436;0;3946;0;0;0;0;1614436;0;0;0;0;0;3099;1;-16.431200;0.000000;-2.889900;16.431200;27.413400;2.889900;3.300000;2.700000;0.600000;10.110000;-899.049510;-511.925220;578.346804;
CMS-II7-no39_HM-1051_2020-02-05_GMCFO_r1.00_n4_v256.volume;CMS-II7-39-1051 S075 S050 050220;impression, plasticine;;1486302;0;1543;0;0;6499;0;0;0;0;1543;0;0;0;1486302;41725;56182;2966103;0;6499;0;0;0;0;2966103;0;0;0;0;0;2133;1;-22.414700;0.000000;-1.817200;22.414700;34.536700;1.817200;4.500000;3.500000;0.400000;16.630000;-164.298688;452.109646;641.026578;
CMS-II7-no39_HM-1051_2020-02-05;CMS-II7-39-1051 S075 S050 050220;impression, plasticine;;1486302;0;1543;0;0;6499;0;0;0;0;1543;0;0;0;1486302;0;0;2966103;0;6499;0;0;0;0;2966103;0;0;0;0;0;2133;1;-22.414700;0.000000;-1.817200;22.414700;34.536700;1.817200;4.500000;3.500000;0.400000;16.630000;-164.298688;452.109646;641.026578;
CMS-II6-no162_HM-102_2020-01-14_GMCFO_r1.00_n4_v256.volume;;;;903941;0;903941;0;0;8472;0;3;0;0;0;0;0;0;903941;24787;31955;1799695;0;8329;296;9;141;146;1799695;0;0;0;0;0;0;1;-19.219300;-17.363600;-2.922000;23.265200;16.039300;3.661400;4.200000;3.300000;0.700000;15.050000;-1707.660422;-1556.274508;811.191843;
CMS-II6-no162_HM-102_2020-01-14;;;;903941;0;903941;0;0;8472;0;3;0;0;0;0;0;0;903941;0;0;1799695;0;8329;296;9;141;146;1799695;0;0;0;0;0;0;1;-19.219300;-17.363600;-2.922000;23.265200;16.039300;3.661400;4.200000;3.300000;0.700000;15.050000;-1707.660422;-1556.274508;811.191843;
CMS-II6-no255_HM-612_2020-01-14_GMCFO_r1.00_n4_v256.volume;;;;790951;0;790951;0;0;6110;0;8;0;0;0;0;0;0;790951;20193;28370;1576040;3;5969;245;6;93;143;1576040;0;0;0;0;0;0;1;-12.015000;-10.136500;-3.372500;15.746400;12.596100;2.770900;2.800000;2.300000;0.600000;7.420000;-656.326091;-847.498085;-51.248341;
CMS-II6-no255_HM-612_2020-01-14;;;;790951;0;790951;0;0;6110;0;8;0;0;0;0;0;0;790951;0;0;1576040;3;5969;245;6;93;143;1576040;0;0;0;0;0;0;1;-12.015000;-10.136500;-3.372500;15.746400;12.596100;2.770900;2.800000;2.300000;0.600000;7.420000;-656.326091;-847.498085;-51.248341;
CMS-II6-no44_RMP-71974_2020-01-14_GMCFO_r1.00_n4_v256.volume;;;;796159;0;796159;0;0;8523;0;0;0;0;0;0;0;0;796159;23003;29406;1584073;0;8342;334;10;143;181;1584073;0;0;0;0;0;0;1;-18.473900;-18.195100;-5.040500;16.791500;10.467800;2.434100;3.500000;2.900000;0.700000;11.270000;-400.722193;-515.395209;-1065.924642;
CMS-II6-no44_RMP-71974_2020-01-14;;;;796159;0;796159;0;0;8523;0;0;0;0;0;0;0;0;796159;0;0;1584073;0;8342;334;10;143;181;1584073;0;0;0;0;0;0;1;-18.473900;-18.195100;-5.040500;16.791500;10.467800;2.434100;3.500000;2.900000;0.700000;11.270000;-400.722193;-515.395209;-1065.924642;
CMS-II6-no19_HM-516_2020-01-15_GMCFO_r1.00_n4_v256.volume;;;;753666;0;753666;0;0;5651;0;3;0;0;0;0;0;0;753666;20701;27377;1501782;1;5544;204;7;88;108;1501782;0;0;0;0;0;0;2;-16.253900;-15.320700;-9.345000;17.813800;7.762700;6.438800;3.400000;2.300000;1.600000;9.060000;259.345971;-1650.204872;-805.224465;
CMS-II6-no19_HM-516_2020-01-15;;;;753666;0;753666;0;0;5651;0;3;0;0;0;0;0;0;753666;0;0;1501782;1;5544;204;7;88;108;1501782;0;0;0;0;0;0;2;-16.253900;-15.320700;-9.345000;17.813800;7.762700;6.438800;3.400000;2.300000;1.600000;9.060000;259.345971;-1650.204872;-805.224465;
CMS-II6-no19_HM-591_2020-01-15_GMCFO_r1.00_n4_v256.volume;;;;655850;0;655850;0;0;4839;0;2;0;0;0;0;0;0;655850;16178;18817;1306910;1;4770;98;0;27;70;1306910;0;0;0;0;0;0;1;-16.725000;-13.471200;-4.185200;16.707600;12.475100;4.063600;3.300000;2.600000;0.800000;9.960000;-716.949205;-501.675552;-293.097226;
CMS-II6-no19_HM-591_2020-01-15;;;;655850;0;655850;0;0;4839;0;2;0;0;0;0;0;0;655850;0;0;1306910;1;4770;98;0;27;70;1306910;0;0;0;0;0;0;1;-16.725000;-13.471200;-4.185200;16.707600;12.475100;4.063600;3.300000;2.600000;0.800000;9.960000;-716.949205;-501.675552;-293.097226;
CMS-II6-no260_HM-632_2020-01-15_GMCFO_r1.00_n4_v256.volume;;;;789878;0;789878;0;0;5685;0;0;0;0;0;0;0;0;789878;25659;31821;1574135;0;5601;129;1;44;84;1574135;0;0;0;0;0;0;1;-21.487400;-18.955300;-6.193200;19.866600;12.026100;5.415800;4.100000;3.100000;1.200000;14.420000;-849.405898;-2262.703928;-99.476438;
CMS-II6-no260_HM-632_2020-01-15;;;;789878;0;789878;0;0;5685;0;0;0;0;0;0;0;0;789878;0;0;1574135;0;5601;129;1;44;84;1574135;0;0;0;0;0;0;1;-21.487400;-18.955300;-6.193200;19.866600;12.026100;5.415800;4.100000;3.100000;1.200000;14.420000;-849.405898;-2262.703928;-99.476438;
CMS-II6-no260_HM-634_2020-01-15_GMCFO_r1.00_n4_v256.volume;;;;739861;0;739861;0;0;5014;0;0;0;0;0;0;0;0;739861;23124;29184;1474788;0;4958;85;0;29;56;1474788;0;0;0;0;0;0;1;-17.934600;-18.360000;-3.801000;20.126900;12.645000;6.310700;3.800000;3.100000;1.000000;12.750000;-984.081711;-2013.640899;437.004208;
CMS-II6-no260_HM-634_2020-01-15;;;;739861;0;739861;0;0;5014;0;0;0;0;0;0;0;0;739861;0;0;1474788;0;4958;85;0;29;56;1474788;0;0;0;0;0;0;1;-17.934600;-18.360000;-3.801000;20.126900;12.645000;6.310700;3.800000;3.100000;1.000000;12.750000;-984.081711;-2013.640899;437.004208;
CMS-II6-no260_HM-635_2020-01-15_GMCFO_r1.00_n4_v256.volume;;;;526304;0;526304;0;0;4046;0;0;0;0;0;0;0;0;526304;16307;20767;1048600;0;4011;64;2;27;35;1048600;0;0;0;0;0;0;1;-19.095000;-13.376600;-8.856500;16.875000;9.945200;3.957200;3.600000;2.300000;1.300000;8.780000;-808.487585;-1165.806363;-2139.668769;
CMS-II6-no260_HM-635_2020-01-15;;;;526304;0;526304;0;0;4046;0;0;0;0;0;0;0;0;526304;0;0;1048600;0;4011;64;2;27;35;1048600;0;0;0;0;0;0;1;-19.095000;-13.376600;-8.856500;16.875000;9.945200;3.957200;3.600000;2.300000;1.300000;8.780000;-808.487585;-1165.806363;-2139.668769;
CMS-VS3-no391_1A-Cast_2020-10-27;CMS-VS-3-391-1A-Cast S075 1356 271020;cast, silicon;;638144;0;0;0;0;3615;0;0;0;0;5001;0;0;0;638144;0;0;1272675;0;3615;9;0;9;0;1272675;0;0;0;0;0;8496;1;-14.389100;0.000000;-2.094800;14.389100;23.771500;2.094800;2.900000;2.400000;0.400000;5.980000;412.817063;792.043276;310.962896;
CMS-VS3-no391_1A-Cast_2020-10-27_r1.00_n4_v256.volume;CMS-VS-3-391-1A-Cast S075 1356 271020;cast, silicon;;638144;0;0;0;0;3615;0;0;0;0;5001;0;0;0;638144;14840;19752;1272675;0;3615;9;0;9;0;1272675;0;0;0;0;0;8496;1;-14.389100;0.000000;-2.094800;14.389100;23.771500;2.094800;2.900000;2.400000;0.400000;5.980000;412.817063;792.043276;310.962896;
CMS-VS3-no391_1A-Imp_2020-10-27;CMS-VS-3-391-1A-Imp S075 1356 271020;impression, plasticine;;568510;0;0;0;0;3999;0;0;0;0;5749;0;0;0;568510;0;0;1133031;0;3999;0;0;0;0;1133031;0;0;0;0;0;9801;1;-14.615800;0.000000;-2.825100;14.615800;22.665200;2.825100;2.900000;2.300000;0.600000;7.220000;944.101298;299.407251;504.060845;
CMS-VS3-no391_1A-Imp_2020-10-27_r1.00_n4_v256.volume;CMS-VS-3-391-1A-Imp S075 1356 271020;impression, plasticine;;568510;0;0;0;0;3999;0;0;0;0;5749;0;0;0;568510;14827;15845;1133031;0;3999;0;0;0;0;1133031;0;0;0;0;0;9801;1;-14.615800;0.000000;-2.825100;14.615800;22.665200;2.825100;2.900000;2.300000;0.600000;7.220000;944.101298;299.407251;504.060845;
CMS-VS3-no391_2A-Cast_2020-10-27;CMS-VS-3-391-2A-Cast S075 1356 271020;cast, silicon;;344338;0;0;0;0;3519;0;0;0;0;4337;0;0;0;344338;0;0;685163;0;3519;10;0;10;0;685163;0;0;0;0;0;7088;1;-8.814100;0.000000;-1.715400;8.814100;18.607700;1.715400;1.800000;1.900000;0.300000;3.180000;153.249678;-8.624590;74.552632;
CMS-VS3-no391_2A-Cast_2020-10-27_r1.00_n4_v256.volume;CMS-VS-3-391-2A-Cast S075 1356 271020;cast, silicon;;344338;0;0;0;0;3519;0;0;0;0;4337;0;0;0;344338;8517;11009;685163;0;3519;10;0;10;0;685163;0;0;0;0;0;7088;1;-8.814100;0.000000;-1.715400;8.814100;18.607700;1.715400;1.800000;1.900000;0.300000;3.180000;153.249678;-8.624590;74.552632;
CMS-VS3-no391_2A-Imp_2020-10-27;CMS-VS-3-391-2A-Imp S075 1356 271020;impression, plasticine;;634294;0;0;0;0;3602;0;0;0;0;3562;0;0;0;634294;0;0;1264996;0;3602;0;0;0;0;1264996;0;0;0;0;0;5244;1;-11.796600;0.000000;-5.136100;11.796600;24.171000;5.136100;2.400000;2.400000;1.000000;9.620000;3048.928374;3849.385402;1678.581022;
CMS-VS3-no391_2A-Imp_2020-10-27_r1.00_n4_v256.volume;CMS-VS-3-391-2A-Imp S075 1356 271020;impression, plasticine;;634294;0;0;0;0;3602;0;0;0;0;3562;0;0;0;634294;19806;22008;1264996;0;3602;0;0;0;0;1264996;0;0;0;0;0;5244;1;-11.796600;0.000000;-5.136100;11.796600;24.171000;5.136100;2.400000;2.400000;1.000000;9.620000;3048.928374;3849.385402;1678.581022;
CMS-VS3-no391_3A-Cast_2020-10-27;CMS-VS-3-391-3A-Cast S075 1356 271020;cast, silicon;;851649;0;0;0;0;4107;0;0;0;0;8080;0;0;0;851649;0;0;1699189;0;4107;2;0;2;0;1699189;0;0;0;0;0;12661;1;-15.478500;0.000000;-2.688500;15.478500;23.543900;2.688500;3.100000;2.400000;0.500000;7.540000;378.345143;811.268698;48.220037;
CMS-VS3-no391_3A-Cast_2020-10-27_r1.00_n4_v256.volume;CMS-VS-3-391-3A-Cast S075 1356 271020;cast, silicon;;851649;0;0;0;0;4107;0;0;0;0;8080;0;0;0;851649;19255;23958;1699189;0;4107;2;0;2;0;1699189;0;0;0;0;0;12661;1;-15.478500;0.000000;-2.688500;15.478500;23.543900;2.688500;3.100000;2.400000;0.500000;7.540000;378.345143;811.268698;48.220037;
CMS-VS3-no391_3A-Imp_2020_10_27;CMS-VS-3-391-3A-Imp;impression, plasticine;;678599;0;0;0;0;3645;0;0;0;0;12860;0;0;0;678599;0;0;1353551;0;3645;5;0;5;0;1353551;0;0;0;0;0;22865;1;-15.853200;0.000000;-2.445400;15.853200;23.695900;2.445400;3.200000;2.400000;0.500000;7.460000;549.950365;585.621333;178.861592;
CMS-VS3-no391_3A-Imp_2020_10_27_r1.00_n4_v256.volume;CMS-VS-3-391-3A-Imp;impression, plasticine;;678599;0;0;0;0;3645;0;0;0;0;12860;0;0;0;678599;15327;16263;1353551;0;3645;5;0;5;0;1353551;0;0;0;0;0;22865;1;-15.853200;0.000000;-2.445400;15.853200;23.695900;2.445400;3.200000;2.400000;0.500000;7.460000;549.950365;585.621333;178.861592;
CMS-II6-no15_HM-526-1_2020-01-14_GMCFO_r1.00_n4_v256.volume;CMS-II-6-15-HMs-526-1 S075 S050 250121;impression, plasticine;;1222829;0;50056;0;0;4934;0;0;0;0;50056;0;0;0;1222829;37236;42796;2440722;0;4934;0;0;0;0;2440722;0;0;0;0;0;92756;1;-18.503600;0.000000;-5.827700;18.503600;29.053900;5.827700;3.700000;2.900000;1.200000;21.560000;7355.804954;7517.491139;3066.185765;
CMS-II6-no15_HM-526-1_2020-01-14;CMS-II-6-15-HMs-526-1 S075 S050 250121;impression, plasticine;;1222829;0;50056;0;0;4934;0;0;0;0;50056;0;0;0;1222829;0;0;2440722;0;4934;0;0;0;0;2440722;0;0;0;0;0;92756;1;-18.503600;0.000000;-5.827700;18.503600;29.053900;5.827700;3.700000;2.900000;1.200000;21.560000;7355.804954;7517.491139;3066.185765;
CMS-II6-no15_HM-526-2_2020-12-16_GMCFO_r1.00_n4_v256.volume;CMS-II.6, no. 15, HMs 526/2;impressiomn, plasticine;;676378;0;0;0;0;7019;0;0;0;0;3385;0;0;0;676378;21575;24865;1345735;0;7019;2;0;2;0;1345735;0;0;0;0;0;5306;1;-16.203700;0.000000;-3.737300;16.203700;26.864900;3.737300;3.200000;2.700000;0.700000;11.660000;3212.417944;1602.260735;1867.001406;
CMS-II6-no15_HM-526-2_2020-12-16;CMS-II.6, no. 15, HMs 526/2;impressiomn, plasticine;;676378;0;0;0;0;7019;0;0;0;0;3385;0;0;0;676378;0;0;1345735;0;7019;2;0;2;0;1345735;0;0;0;0;0;5306;1;-16.203700;0.000000;-3.737300;16.203700;26.864900;3.737300;3.200000;2.700000;0.700000;11.660000;3212.417944;1602.260735;1867.001406;
CMS-II6-no15_HM-526-3_2020-12-16_GMCFO_r1.00_n4_v256.volume;CM II.6 no. 15, HMs 526/3;impression, plasticine;;739417;0;0;0;0;6204;0;0;0;0;19991;0;0;0;739417;23191;24409;1472640;0;6204;7;0;7;0;1472640;0;0;0;0;0;35850;1;-12.818300;0.000000;-3.440500;12.818300;27.962100;3.440500;2.600000;2.800000;0.700000;12.270000;2982.422201;2684.202187;1463.703740;
CMS-II6-no15_HM-526-3_2020-12-16;CM II.6 no. 15, HMs 526/3;impression, plasticine;;739417;0;0;0;0;6204;0;0;0;0;19991;0;0;0;739417;0;0;1472640;0;6204;7;0;7;0;1472640;0;0;0;0;0;35850;1;-12.818300;0.000000;-3.440500;12.818300;27.962100;3.440500;2.600000;2.800000;0.700000;12.270000;2982.422201;2684.202187;1463.703740;
CMS-II6-no15_HM-595_2020-12-16_GMCFO_r1.00_n4_v256.volume;CMS II.6 no. 15, HMs 595;impression, plasticine;;859918;0;0;0;0;7317;0;0;0;0;9849;0;0;0;859918;22488;29250;1712525;0;7317;2;0;2;0;1712525;0;0;0;0;0;15575;1;-14.139700;0.000000;-3.401700;14.139700;24.709100;3.401700;2.800000;2.500000;0.700000;10.440000;1876.385840;953.954039;1583.166221;
CMS-II6-no15_HM-595_2020-12-16;CMS II.6 no. 15, HMs 595;impression, plasticine;;859918;0;0;0;0;7317;0;0;0;0;9849;0;0;0;859918;0;0;1712525;0;7317;2;0;2;0;1712525;0;0;0;0;0;15575;1;-14.139700;0.000000;-3.401700;14.139700;24.709100;3.401700;2.800000;2.500000;0.700000;10.440000;1876.385840;953.954039;1583.166221;
CMS-II6-no15_HM-596_2021-01-25_GMCFO_r1.00_n4_v256.volume;CMS-II-6-15-HMs-596 S075 S050 250121;impression, plasticine;;1179478;0;23054;0;0;5273;0;0;0;0;23054;0;0;0;1179478;34248;39144;2353681;0;5273;4;0;4;0;2353681;0;0;0;0;0;39207;1;-18.164500;0.000000;-5.054100;18.164500;29.168200;5.054100;3.600000;2.900000;1.000000;21.110000;7218.792720;7923.049933;3167.840893;
CMS-II6-no15_HM-596_2021-01-25;CMS-II-6-15-HMs-596 S075 S050 250121;impression, plasticine;;1179478;0;23054;0;0;5273;0;0;0;0;23054;0;0;0;1179478;0;0;2353681;0;5273;4;0;4;0;2353681;0;0;0;0;0;39207;1;-18.164500;0.000000;-5.054100;18.164500;29.168200;5.054100;3.600000;2.900000;1.000000;21.110000;7218.792720;7923.049933;3167.840893;
CMS-II8-no279_HM-1275_2021-01-25_GMCFO_r1.00_n4_v256.volume;CMS-II-8-279-HMs-1275 S075 S050 250121;impression, plasticine;;1400787;0;49134;0;0;8913;0;0;0;0;49134;0;0;0;1400787;40531;52218;2792671;0;8913;9;0;9;0;2792671;0;0;0;0;0;88594;1;-16.272800;0.000000;-4.052000;16.271700;30.547000;4.173900;3.300000;3.100000;0.800000;16.690000;5067.661216;5319.635029;2699.256125;
CMS-II8-no279_HM-1275_2021-01-25;CMS-II-8-279-HMs-1275 S075 S050 250121;impression, plasticine;;1400787;0;49134;0;0;8913;0;0;0;0;49134;0;0;0;1400787;0;0;2792671;0;8913;9;0;9;0;2792671;0;0;0;0;0;88594;1;-16.272800;0.000000;-4.052000;16.271700;30.547000;4.173900;3.300000;3.100000;0.800000;16.690000;5067.661216;5319.635029;2699.256125;
CMS-II8-no279_HM-369_2021-01-25_GMCFO_r1.00_n4_v256.volume;CMS-II-8-279-HMs-369 S075 S050 250121;impression, plasticine;;320319;0;1421;0;0;2710;0;0;0;0;1421;0;0;0;320319;7279;9121;637926;0;2710;0;0;0;0;637926;0;0;0;0;0;2227;1;-9.022000;0.000000;-1.575600;9.022000;14.287400;1.575600;1.800000;1.400000;0.300000;3.080000;63.187714;96.144768;10.858871;
CMS-II8-no279_HM-369_2021-01-25;CMS-II-8-279-HMs-369 S075 S050 250121;impression, plasticine;;320319;0;1421;0;0;2710;0;0;0;0;1421;0;0;0;320319;0;0;637926;0;2710;0;0;0;0;637926;0;0;0;0;0;2227;1;-9.022000;0.000000;-1.575600;9.022000;14.287400;1.575600;1.800000;1.400000;0.300000;3.080000;63.187714;96.144768;10.858871;
CMS-II6-no101_HM-452-25_2019-05-18_GMCFO_r1.00_n4_v256.volume.FTVecCol.Legacy;CMS-II6-101-452-25 S075 1356 180519;impression, plasticine;;806766;0;806766;0;0;3915;0;0;0;0;0;0;0;0;806766;21190;27828;1609621;0;3915;0;0;0;0;1609621;0;0;0;0;0;0;1;-15.679600;0.000000;-2.457100;15.679600;26.776600;2.457100;3.100000;2.700000;0.500000;9.840000;-428.272640;-1002.058030;503.251717;
CMS-II6-no101_HM-452-25_2019-05-18_GMCFO_r1.00_n4_v256.volume;CMS-II6-101-452-25 S075 1356 180519;impression, plasticine;;806766;0;0;0;0;3915;0;0;0;0;0;0;0;0;806766;21190;27828;1609621;0;3915;0;0;0;0;1609621;0;0;0;0;0;0;1;-15.679600;0.000000;-2.457100;15.679600;26.776600;2.457100;3.100000;2.700000;0.500000;9.840000;-428.272640;-1002.058030;503.251717;
CMS-II6-no101_HM-452-25_2019-05-18;;;;806820;0;806820;0;0;3963;7;2;3;0;0;0;0;0;806820;0;0;1609681;0;3923;52;1;13;38;1609675;6;4;0;6;0;0;1;-15.472000;-14.868100;-4.009900;15.893100;11.205000;4.307600;3.100000;2.600000;0.800000;9.840000;-429.023530;-606.784386;-147.930139;
CMS-II6-no101_HM-452-30_2019-05-18_GMCFO_r1.00_n4_v256.volume.FTVecCol.Legacy;CMS-II6-101-452-30 S075 1356 180519001;impression, plasticine;;595261;0;595261;0;0;2862;0;0;0;0;0;0;0;0;595261;17926;22357;1187658;0;2860;2;0;0;2;1187658;0;0;0;0;0;0;1;-14.365800;0.000000;-3.202800;14.365800;26.305400;3.202800;2.900000;2.600000;0.600000;8.550000;-418.513735;-819.727323;613.360631;
CMS-II6-no101_HM-452-30_2019-05-18_GMCFO_r1.00_n4_v256.volume;CMS-II6-101-452-30 S075 1356 180519001;impression, plasticine;;595261;0;0;0;0;2862;0;0;0;0;0;0;0;0;595261;17926;22357;1187658;0;2860;2;0;0;2;1187658;0;0;0;0;0;0;1;-14.365800;0.000000;-3.202800;14.365800;26.305400;3.202800;2.900000;2.600000;0.600000;8.550000;-418.513735;-819.727323;613.360631;
CMS-II6-no101_HM-452-30_2019-05-18;;;;595435;0;595435;0;0;3033;0;0;0;0;0;0;0;0;595435;0;0;1187835;0;2883;170;0;20;150;1187835;0;0;0;0;0;0;1;-16.096700;-11.387400;-4.335000;12.052400;14.431100;4.738100;2.800000;2.600000;0.900000;8.550000;-501.934232;-998.743655;336.895422;
CMS-II6-no101_HM-452-32_2019-05-22_GMCFO_r1.00_n4_v256.volume.FTVecCol.Legacy;CMS-II6-101-452-32 S075 1356 220519;impression, plasticine;;461271;0;461271;0;0;2940;0;0;0;0;0;0;0;0;461271;13277;16857;919612;0;2940;0;0;0;0;919612;0;0;0;0;0;0;1;-14.169800;0.000000;-2.602500;14.169800;24.318100;2.602500;2.800000;2.400000;0.500000;7.630000;-479.446507;-535.014030;809.911834;
CMS-II6-no101_HM-452-32_2019-05-22_GMCFO_r1.00_n4_v256.volume;CMS-II6-101-452-32 S075 1356 220519;impression, plasticine;;461271;0;0;0;0;2940;0;0;0;0;0;0;0;0;461271;13277;16857;919612;0;2940;0;0;0;0;919612;0;0;0;0;0;0;1;-14.169800;0.000000;-2.602500;14.169800;24.318100;2.602500;2.800000;2.400000;0.500000;7.630000;-479.446507;-535.014030;809.911834;
CMS-II6-no101_HM-452-32_2019-05-22;;;;461523;0;461523;0;0;2954;0;0;0;0;0;0;0;0;461523;0;0;920098;0;2942;14;0;2;12;920098;0;0;0;0;0;0;2;-14.205000;-12.498900;-2.225200;14.295000;11.355000;5.133000;2.900000;2.400000;0.700000;7.630000;-455.939328;-564.572979;1242.252550;
CMS-II6-no101_HM-452-5_2019-05-08_GMCFO_r1.00_n4_v256.volume.FTVecCol.Legacy;CMS-II6-101-452-5 S075 1356 080519;impression, plasticine;;766279;0;766279;0;0;3166;0;0;0;0;0;0;0;0;766279;21863;28076;1529390;0;3166;0;0;0;0;1529390;0;0;0;0;0;0;1;-14.171400;0.000000;-5.723000;14.171400;25.572900;5.723000;2.800000;2.600000;1.100000;10.710000;-929.096716;-1492.222934;1499.608243;
CMS-II6-no101_HM-452-5_2019-05-08_GMCFO_r1.00_n4_v256.volume;CMS-II6-101-452-5 S075 1356 080519;impression, plasticine;;766279;0;0;0;0;3166;0;0;0;0;0;0;0;0;766279;21863;28076;1529390;0;3166;0;0;0;0;1529390;0;0;0;0;0;0;1;-14.171400;0.000000;-5.723000;14.171400;25.572900;5.723000;2.800000;2.600000;1.100000;10.710000;-929.096716;-1492.222934;1499.608243;
CMS-II6-no101_HM-452-5_2019-05-08;;;;766593;0;766593;0;0;3477;0;0;0;0;0;0;0;0;766593;0;0;1529706;0;3230;308;3;61;244;1529706;0;2;0;0;0;0;2;-13.199400;-13.682700;-9.915000;12.369400;13.910600;1.805800;2.600000;2.800000;1.200000;10.720000;1896.380855;-980.961666;-771.244161;
CMS-II6-no101_HM-71967_2019-06-06_GMCFO_r1.00_n4_v256.volume.FTVecCol.Legacy;CMS II6 HMs 17967 S075 1356 060619;impression, plasticine;;512827;0;512827;0;0;3283;0;0;0;0;0;0;0;0;512827;16415;19684;1022369;0;3283;0;0;0;0;1022369;0;0;0;0;0;0;1;-15.062400;0.000000;-2.741000;15.062400;23.918500;2.741000;3.000000;2.400000;0.500000;8.440000;-377.522519;-239.556054;659.206889;
CMS-II6-no101_HM-71967_2019-06-06_GMCFO_r1.00_n4_v256.volume;CMS II6 HMs 17967 S075 1356 060619;impression, plasticine;;512827;0;0;0;0;3283;0;0;0;0;0;0;0;0;512827;16415;19684;1022369;0;3283;0;0;0;0;1022369;0;0;0;0;0;0;1;-15.062400;0.000000;-2.741000;15.062400;23.918500;2.741000;3.000000;2.400000;0.500000;8.440000;-377.522519;-239.556054;659.206889;
CMS-II6-no101_HM-71967_2019-06-06;;;;512889;0;512889;0;0;3345;0;0;0;0;0;0;0;0;512889;0;0;1022431;0;3301;62;1;17;44;1022431;0;0;0;0;0;0;1;-18.717400;-13.306200;-5.994200;11.004300;10.605600;2.272500;3.000000;2.400000;0.800000;8.440000;52.116808;-98.142633;-1537.488266;
CMS-II6-no11_HM-441-18_2019-11-08_GMCFO_r1.00_n4_v256.volume.FTVecCol.Legacy;CMS-II6-011-441-18 S075 S050 081119;impression, plasticine;;2510097;0;2510097;0;0;5518;0;0;0;0;0;0;0;0;2510097;34978;34856;5014678;0;5518;10;0;10;0;5014678;0;0;0;0;0;0;1;-17.382600;0.000000;-4.856800;17.354500;27.720000;4.856800;3.500000;2.800000;1.000000;19.890000;6439.572724;6266.025006;3036.212766;
CMS-II6-no11_HM-441-18_2019-11-08_GMCFO_r1.00_n4_v256.volume;CMS-II6-011-441-18 S075 S050 081119;impression, plasticine;;2510097;0;8949;0;0;5518;0;0;0;0;8949;0;0;0;2510097;34978;34856;5014678;0;5518;10;0;10;0;5014678;0;0;0;0;0;14360;1;-17.382600;0.000000;-4.856800;17.354500;27.720000;4.856800;3.500000;2.800000;1.000000;19.890000;6439.572724;6266.025006;3036.212766;
CMS-II6-no11_HM-441-18_2019-11-08;;;;2501843;0;2501843;0;0;11849;0;7;0;0;0;0;0;0;2501843;0;0;4992288;1;11567;478;9;181;287;4992288;0;0;0;0;0;0;1;-9.271100;-19.306100;-14.843300;22.669700;15.676500;15.667000;3.200000;3.500000;3.100000;19.830000;2251.302181;5456.195335;4891.978542;
CMS-II6-no11_HM-441-20_2019-11-08_GMCFO_r1.00_n4_v256.volume.FTVecCol.Legacy;CMS-II6-011-441-20 S075 S050 081119;impression, plasticine;;1106823;0;1106823;0;0;4963;0;0;0;0;0;0;0;0;1106823;24272;23750;2208689;0;4963;3;0;3;0;2208689;0;0;0;0;0;0;1;-17.113100;0.000000;-3.524800;17.113100;27.613300;3.524800;3.400000;2.800000;0.700000;14.960000;3489.755872;4020.172728;1030.870800;
CMS-II6-no11_HM-441-20_2019-11-08_GMCFO_r1.00_n4_v256.volume;CMS-II6-011-441-20 S075 S050 081119;impression, plasticine;;1106823;0;3098;0;0;4963;0;0;0;0;3098;0;0;0;1106823;24272;23750;2208689;0;4963;3;0;3;0;2208689;0;0;0;0;0;4904;1;-17.113100;0.000000;-3.524800;17.113100;27.613300;3.524800;3.400000;2.800000;0.700000;14.960000;3489.755872;4020.172728;1030.870800;
CMS-II6-no11_HM-441-20_2019-11-08;;;;1104840;0;1104840;0;0;7213;0;15;0;0;0;0;0;0;1104840;0;0;2202598;5;7140;144;4;57;78;2202598;0;0;0;0;0;0;3;-13.508000;-13.554300;-0.347900;15.410300;21.390200;10.299500;2.900000;3.500000;1.100000;14.930000;3639.906727;3904.713157;5829.619110;
CMS-II6-no11_HM-441-5_2019-11-08_GMCFO_r1.00_n4_v256.volume.FTVecCol.Legacy;CMS-II6-011-441-05 S075 S050 081119;impression, plasticine;;2366778;0;2366778;0;0;6486;0;0;0;0;0;0;0;0;2366778;35238;32720;4727092;0;6486;1;0;1;0;4727092;0;0;0;0;0;0;1;-18.830000;0.000000;-4.927100;18.830000;29.268000;4.927100;3.800000;2.900000;1.000000;21.090000;6512.528125;5825.510981;1970.085538;
CMS-II6-no11_HM-441-5_2019-11-08_GMCFO_r1.00_n4_v256.volume;CMS-II6-011-441-05 S075 S050 081119;impression, plasticine;;2366778;0;0;0;0;6486;0;0;0;0;9214;0;0;0;2366778;35238;32720;4727092;0;6486;1;0;1;0;4727092;0;0;0;0;0;15260;1;-18.830000;0.000000;-4.927100;18.830000;29.268000;4.927100;3.800000;2.900000;1.000000;21.090000;6512.528125;5825.510981;1970.085538;
CMS-II6-no11_HM-441-5_2019-11-08;;;;2358474;0;2358474;0;0;12542;0;9;0;0;0;0;0;0;2358474;0;0;4704939;0;12322;410;9;172;229;4704939;0;0;0;0;0;0;1;-19.323000;-14.509000;-10.562900;19.627100;13.941900;12.675000;3.900000;2.800000;2.300000;21.020000;6452.098415;4860.721291;5128.561023;
CMS-II6-no11_HM-441-6_2019-11-08_GMCFO_r1.00_n4_v256.volume.FTVecCol.Legacy;CMS-II6-011-441-06 S075 S050 081119;impression, plasticine;;2436837;0;2436837;0;0;7695;0;0;0;0;0;0;0;0;2436837;34767;34412;4865977;0;7695;34;0;34;0;4865977;0;0;0;0;0;0;1;-18.184400;0.000000;-5.151800;18.184400;28.030500;5.151800;3.600000;2.800000;1.000000;20.740000;7167.788484;7657.094405;2878.551960;
CMS-II6-no11_HM-441-6_2019-11-08_GMCFO_r1.00_n4_v256.volume;CMS-II6-011-441-06 S075 S050 081119;impression, plasticine;;2436837;0;6493;0;0;7695;0;0;0;0;6493;0;0;0;2436837;34767;34412;4865977;0;7695;34;0;34;0;4865977;0;0;0;0;0;9582;1;-18.184400;0.000000;-5.151800;18.184400;28.030500;5.151800;3.600000;2.800000;1.000000;20.740000;7167.788484;7657.094405;2878.551960;
CMS-II6-no11_HM-441-6_2019-11-08;;;;2431457;0;2431457;0;0;14511;0;7;0;0;0;0;0;0;2431457;0;0;4848910;0;13881;1112;16;459;637;4848910;0;0;0;0;0;0;1;-17.194100;-14.716800;-14.833000;19.364200;12.037400;10.032300;3.700000;2.700000;2.500000;20.690000;7111.796473;4823.392566;2943.574246;
CMS-II6-no11_HM-443-13_2019-11-08_GMCFO_r1.00_n4_v256.volume.FTVecCol.Legacy;CMS-II6-011-443-13 S075 S050 081119;impression, plasticine;;1308976;0;1308976;0;0;6380;0;0;0;0;0;0;0;0;1308976;25470;25846;2611574;0;6380;3;0;3;0;2611574;0;0;0;0;0;0;1;-15.763100;0.000000;-4.488700;15.763100;23.670900;4.488700;3.200000;2.400000;0.900000;15.380000;4042.939198;4390.326780;1810.089067;
CMS-II6-no11_HM-443-13_2019-11-08_GMCFO_r1.00_n4_v256.volume;CMS-II6-011-443-13 S075 S050 081119;impression, plasticine;;1308976;0;8152;0;0;6380;0;0;0;0;8152;0;0;0;1308976;25470;25846;2611574;0;6380;3;0;3;0;2611574;0;0;0;0;0;13784;1;-15.763100;0.000000;-4.488700;15.763100;23.670900;4.488700;3.200000;2.400000;0.900000;15.380000;4042.939198;4390.326780;1810.089067;
CMS-II6-no11_HM-443-13_2019-11-08;;;;1301854;0;1301854;0;0;9929;0;6;0;0;0;0;0;0;1301854;0;0;2593927;2;9868;116;1;50;63;2593927;0;0;0;0;0;0;4;-11.162700;-17.795200;-8.664100;12.502800;13.006500;10.838500;2.400000;3.100000;2.000000;15.260000;4557.244029;2891.268235;2912.713948;
CMS-II6-no11_HM-Disk-78_2019-11-08_GMCFO_r1.00_n4_v256.volume.FTVecCol.Legacy;CMS-II6-011-DIS-78 S075 S050 081119;impression, plasticine;;3019998;0;3019998;0;0;6886;0;0;0;0;0;0;0;0;3019998;40964;39426;6033116;0;6886;4;0;4;0;6033116;0;0;0;0;0;0;1;-15.220800;0.000000;-5.655100;15.220800;44.677700;5.655100;3.000000;4.500000;1.100000;26.120000;11097.190526;6333.198692;4771.057026;
CMS-II6-no11_HM-Disk-78_2019-11-08_GMCFO_r1.00_n4_v256.volume;CMS-II6-011-DIS-78 S075 S050 081119;impression, plasticine;;3019998;0;4924;0;0;6886;0;0;0;0;4924;0;0;0;3019998;40964;39426;6033116;0;6886;4;0;4;0;6033116;0;0;0;0;0;7685;1;-15.220800;0.000000;-5.655100;15.220800;44.677700;5.655100;3.000000;4.500000;1.100000;26.120000;11097.190526;6333.198692;4771.057026;
CMS-II6-no11_HM-Disk-78_2019-11-08;;;;3015443;0;3015443;0;0;11225;0;11;0;0;0;0;0;0;3015443;0;0;6020055;1;11044;418;9;217;191;6020055;0;0;0;0;0;0;2;-14.475600;-21.257500;-8.948600;16.303400;23.730100;3.768800;3.100000;4.500000;1.300000;26.060000;11113.410569;8454.897675;2781.342328;
CMS-II6-no20_HM-434-1_2019-06-19_GMCFO_r1.00_n4_v256.volume.FTVecCol.Legacy;CMS-II6-020-434-1 S075 1356 190619;impression, plasticine;;604258;0;604258;0;0;4853;0;0;0;0;0;0;0;0;604258;18241;23099;1203661;0;4853;1;0;1;0;1203661;0;0;0;0;0;0;1;-17.726500;0.000000;-3.027400;17.726500;25.924400;3.027400;3.500000;2.600000;0.600000;10.540000;-237.607777;229.949879;930.244959;
CMS-II6-no20_HM-434-1_2019-06-19_GMCFO_r1.00_n4_v256.volume;CMS-II6-020-434-1 S075 1356 190619;impression, plasticine;;604258;0;0;0;0;4853;0;0;0;0;3685;0;0;0;604258;18241;23099;1203661;0;4853;1;0;1;0;1203661;0;0;0;0;0;6363;1;-17.726500;0.000000;-3.027400;17.726500;25.924400;3.027400;3.500000;2.600000;0.600000;10.540000;-237.607777;229.949879;930.244959;
CMS-II6-no20_HM-434-1_2019-06-19;;;;600971;0;600971;0;0;6557;0;0;0;0;0;0;0;0;600971;0;0;1195471;0;6455;165;2;61;102;1195471;0;0;0;0;0;0;2;-18.572200;-15.992500;-3.288800;17.428200;11.489200;9.106900;3.600000;2.700000;1.200000;10.510000;-226.687142;27.367795;619.873613;
CMS-II6-no20_HM-434-2_2019-11-06_GMCFO_r1.00_n4_v256.volume.FTVecCol.Legacy;CMS-II6-020-434-2 S075 S050 061119;impression, plasticine;;1320567;0;1320567;0;0;4393;0;0;0;0;0;0;0;0;1320567;29017;28368;2636739;0;4393;0;0;0;0;2636739;0;0;0;0;0;0;1;-18.093900;0.000000;-4.339900;18.093900;23.764600;4.339900;3.600000;2.400000;0.900000;17.280000;4971.911171;5062.852559;2019.478179;
CMS-II6-no20_HM-434-2_2019-11-06_GMCFO_r1.00_n4_v256.volume;CMS-II6-020-434-2 S075 S050 061119;impression, plasticine;;1320567;0;0;0;0;4393;0;0;0;0;15047;0;0;0;1320567;29017;28368;2636739;0;4393;0;0;0;0;2636739;0;0;0;0;0;26839;1;-18.093900;0.000000;-4.339900;18.093900;23.764600;4.339900;3.600000;2.400000;0.900000;17.280000;4971.911171;5062.852559;2019.478179;
CMS-II6-no20_HM-434-2_2019-11-06;;;;1306078;0;1306078;0;0;8888;0;23;0;0;0;0;0;0;1306078;0;0;2603432;5;8540;482;3;112;362;2603432;0;0;0;0;0;0;1;-17.965700;-15.253600;-9.325400;20.763900;5.180100;18.350100;3.900000;2.000000;2.800000;17.150000;4951.407035;-305.357914;6136.035207;
CMS-II6-no20_HM-434-28_2019-11-06_GMCFO_r1.00_n4_v256.volume.FTVecCol.Legacy;CMS-II6-020-434-28 S075 S050 061119;impression, plasticine;;929640;0;929640;0;0;5393;0;0;0;0;0;0;0;0;929640;19643;18654;1853885;0;5393;0;0;0;0;1853885;0;0;0;0;0;0;1;-17.382600;0.000000;-3.893600;17.382600;23.716000;3.893600;3.500000;2.400000;0.800000;11.100000;1405.873985;-124.979048;1711.292868;
CMS-II6-no20_HM-434-28_2019-11-06_GMCFO_r1.00_n4_v256.volume;CMS-II6-020-434-28 S075 S050 061119;impression, plasticine;;929640;0;3431;0;0;5393;0;0;0;0;3431;0;0;0;929640;19643;18654;1853885;0;5393;0;0;0;0;1853885;0;0;0;0;0;5773;1;-17.382600;0.000000;-3.893600;17.382600;23.716000;3.893600;3.500000;2.400000;0.800000;11.100000;1405.873985;-124.979048;1711.292868;
CMS-II6-no20_HM-434-28_2019-11-06;;;;926563;0;926563;0;0;7125;0;18;0;0;0;0;0;0;926563;0;0;1846119;2;7087;91;1;36;52;1846119;0;0;0;0;0;0;2;-11.327000;-22.608700;-6.525400;11.699700;12.119200;9.933200;2.300000;3.500000;1.600000;11.070000;1180.318350;618.481264;2431.609927;
CMS-II6-no20_HM-434-4_2019-11-06_GMCFO_r1.00_n4_v256.volume.FTVecCol.Legacy;CMS-II6-020-434-4 S075 S050 061119;impression, plasticine;;1093364;0;1093364;0;0;6642;0;0;0;0;0;0;0;0;1093364;24516;22949;2180084;0;6642;5;0;5;0;2180084;0;0;0;0;0;0;1;-18.828200;0.000000;-3.789900;18.828200;24.254200;3.789900;3.800000;2.400000;0.800000;14.780000;3628.139385;1349.083386;1934.498342;
CMS-II6-no20_HM-434-4_2019-11-06_GMCFO_r1.00_n4_v256.volume;CMS-II6-020-434-4 S075 S050 061119;impression, plasticine;;1093364;0;0;0;0;6642;0;0;0;0;9483;0;0;0;1093364;24516;22949;2180084;0;6642;5;0;5;0;2180084;0;0;0;0;0;16406;1;-18.828200;0.000000;-3.789900;18.828200;24.254200;3.789900;3.800000;2.400000;0.800000;14.780000;3628.139385;1349.083386;1934.498342;
CMS-II6-no20_HM-434-4_2019-11-06;;;;1084587;0;1084587;0;0;10151;0;19;0;0;0;0;0;0;1084587;0;0;2159161;6;9978;249;1;61;181;2159161;0;0;0;0;0;0;2;-13.965900;-19.307300;-16.519000;13.706700;17.652500;4.196500;2.800000;3.700000;2.100000;14.660000;3106.789570;2880.107982;-3006.554126;
CMS-II6-no20_HM-434-5_2019-11-06_GMCFO_r1.00_n4_v256.volume.FTVecCol.Legacy;CMS-II6-020-434-5 S075 S050 061119;impression, plasticine;;1111616;0;1111616;0;0;5656;0;0;0;0;0;0;0;0;1111616;23769;23187;2217578;0;5656;2;0;2;0;2217578;0;0;0;0;0;0;1;-16.703400;0.000000;-4.041600;16.703400;25.441700;4.041600;3.300000;2.500000;0.800000;14.690000;3828.003401;4164.629964;1496.084770;
CMS-II6-no20_HM-434-5_2019-11-06_GMCFO_r1.00_n4_v256.volume;CMS-II6-020-434-5 S075 S050 061119;impression, plasticine;;1111616;0;0;0;0;5656;0;0;0;0;10345;0;0;0;1111616;23769;23187;2217578;0;5656;2;0;2;0;2217578;0;0;0;0;0;18218;1;-16.703400;0.000000;-4.041600;16.703400;25.441700;4.041600;3.300000;2.500000;0.800000;14.690000;3828.003401;4164.629964;1496.084770;
CMS-II6-no20_HM-434-5_2019-11-06;;;;1101536;0;1101536;0;0;8859;0;17;0;0;0;0;0;0;1101536;0;0;2194349;4;8810;98;2;33;59;2194349;0;0;0;0;0;0;1;-11.860100;-21.739100;-7.156700;15.055300;11.843600;10.724400;2.700000;3.400000;1.800000;14.530000;3907.227376;2253.811749;3477.492129;
CMS-II6-no20_HM-434-7_2019-11-06_GMCFO_r1.00_n4_v256.volume.FTVecCol.Legacy;CMS-II6-020-434-7 S075 S050 061119;impression, plasticine;;1185751;0;1185751;0;0;6493;0;0;0;0;0;0;0;0;1185751;28638;28014;2365007;0;6493;0;0;0;0;2365007;0;0;0;0;0;0;1;-17.808800;0.000000;-4.731700;17.808800;26.708000;4.731700;3.600000;2.700000;0.900000;17.900000;5509.102112;5133.933951;2661.366318;
CMS-II6-no20_HM-434-7_2019-11-06_GMCFO_r1.00_n4_v256.volume;CMS-II6-020-434-7 S075 S050 061119;impression, plasticine;;1185751;0;20834;0;0;6493;0;0;0;0;20834;0;0;0;1185751;28638;28014;2365007;0;6493;0;0;0;0;2365007;0;0;0;0;0;36790;1;-17.808800;0.000000;-4.731700;17.808800;26.708000;4.731700;3.600000;2.700000;0.900000;17.900000;5509.102112;5133.933951;2661.366318;
CMS-II6-no20_HM-434-7_2019-11-06;;;;1165312;0;1165312;0;0;12517;0;11;0;0;0;0;0;0;1165312;0;0;2318340;3;12427;144;0;46;95;2318340;0;0;0;0;0;0;2;-17.455600;-20.811100;-3.315000;18.397600;7.203300;13.478200;3.600000;2.800000;1.700000;17.640000;5240.903856;3228.154614;7422.131423;
CMS-II6-no70_AAPM-10-615_2019-05-08_GMCFO_r1.00_n4_v256.volume.FTVecCol.Legacy;CMS-II6-070-AAPM-10-615 S075 1356 080519;impression, plasticine;;600565;0;600565;0;0;5532;0;0;0;0;0;0;0;0;600565;18904;22243;1195596;0;5532;0;0;0;0;1195596;0;0;0;0;0;0;1;-26.622800;0.000000;-1.583900;26.622800;30.525300;1.583900;5.300000;3.100000;0.300000;16.960000;329.920310;-409.687650;490.001572;
CMS-II6-no70_AAPM-10-615_2019-05-08_GMCFO_r1.00_n4_v256.volume;CMS-II6-070-AAPM-10-615 S075 1356 080519;impression, plasticine;;600565;0;0;0;0;5532;0;0;0;0;0;0;0;0;600565;18904;22243;1195596;0;5532;0;0;0;0;1195596;0;0;0;0;0;0;1;-26.622800;0.000000;-1.583900;26.622800;30.525300;1.583900;5.300000;3.100000;0.300000;16.960000;329.920310;-409.687650;490.001572;
CMS-II6-no70_AAPM-10-615_2019-05-08;;;;600620;0;600620;0;0;5587;0;0;0;0;0;0;0;0;600620;0;0;1195651;0;5545;55;0;13;42;1195651;0;0;0;0;0;0;1;-25.848000;-14.659300;-5.764200;27.363200;16.787700;3.014900;5.300000;3.100000;0.900000;16.960000;213.459760;-463.964898;-1566.012220;
CMS-II6-no70_HM-455-10_2019-05-18_GMCFO_r1.00_n4_v256.volume.FTVecCol.Legacy;CMS-II6-070-455-10 S075 1356 180519002;impression, plasticine;;694922;0;694922;0;0;3656;0;0;0;0;0;0;0;0;694922;19561;26342;1386190;0;3656;1;0;1;0;1386190;0;0;0;0;0;0;1;-16.793400;0.000000;-5.683000;16.793400;22.077800;5.683000;3.400000;2.200000;1.100000;9.930000;-942.326870;-1434.380590;2024.896573;
CMS-II6-no70_HM-455-10_2019-05-18_GMCFO_r1.00_n4_v256.volume;CMS-II6-070-455-10 S075 1356 180519002;impression, plasticine;;694922;0;0;0;0;3656;0;0;0;0;0;0;0;0;694922;19561;26342;1386190;0;3656;1;0;1;0;1386190;0;0;0;0;0;0;1;-16.793400;0.000000;-5.683000;16.793400;22.077800;5.683000;3.400000;2.200000;1.100000;9.930000;-942.326870;-1434.380590;2024.896573;
CMS-II6-no70_HM-455-10_2019-05-18;;;;695159;0;695159;0;0;3882;0;1;0;0;0;0;0;0;695159;0;0;1386436;0;3671;236;1;24;211;1386436;0;0;0;0;0;0;1;-17.775700;-10.795300;-7.789400;16.137900;11.713300;6.243300;3.400000;2.300000;1.400000;9.940000;-945.998121;1035.581370;1590.932208;
CMS-II6-no70_HM-455-15_2019-05-08_GMCFO_r1.00_n4_v256.volume.FTVecCol.Legacy;CMS-II6-070-455-15 S075 1356 080519;impression, plasticine;;565981;0;565981;0;0;5129;0;0;0;0;0;0;0;0;565981;16563;19827;1126831;0;5128;1;0;0;1;1126831;0;0;0;0;0;0;1;-18.719700;0.000000;-5.781700;18.719700;26.611400;5.781700;3.700000;2.700000;1.200000;13.150000;4242.126532;-832.248564;3594.936849;
CMS-II6-no70_HM-455-15_2019-05-08_GMCFO_r1.00_n4_v256.volume;CMS-II6-070-455-15 S075 1356 080519;impression, plasticine;;565981;0;0;0;0;5129;0;0;0;0;0;0;0;0;565981;16563;19827;1126831;0;5128;1;0;0;1;1126831;0;0;0;0;0;0;1;-18.719700;0.000000;-5.781700;18.719700;26.611400;5.781700;3.700000;2.700000;1.200000;13.150000;4242.126532;-832.248564;3594.936849;
CMS-II6-no70_HM-455-15_2019-05-08;;;;566064;0;566064;0;0;5208;0;0;0;0;0;0;0;0;566064;0;0;1126918;0;5154;73;1;18;54;1126918;0;0;0;0;0;0;1;-16.755600;-16.003000;-12.745700;22.574100;11.935500;2.469300;3.900000;2.800000;1.500000;13.150000;4646.091224;-679.058761;-2747.201652;
CMS-II6-no70_HM-455-3_2019-05-08_GMCFO_r1.00_n4_v256.volume.FTVecCol.Legacy;CMS-II6-070-455-3 S075 1356 080519;impression, plasticine;;660776;0;660776;0;0;4803;0;0;0;0;0;0;0;0;660776;21056;26785;1316747;0;4803;0;0;0;0;1316747;0;0;0;0;0;0;1;-14.964700;0.000000;-7.598200;14.964700;22.532900;7.598200;3.000000;2.300000;1.500000;11.260000;-767.910516;-2397.252248;2293.198469;
CMS-II6-no70_HM-455-3_2019-05-08_GMCFO_r1.00_n4_v256.volume;CMS-II6-070-455-3 S075 1356 080519;impression, plasticine;;660776;0;0;0;0;4803;0;0;0;0;0;0;0;0;660776;21056;26785;1316747;0;4803;0;0;0;0;1316747;0;0;0;0;0;0;1;-14.964700;0.000000;-7.598200;14.964700;22.532900;7.598200;3.000000;2.300000;1.500000;11.260000;-767.910516;-2397.252248;2293.198469;
CMS-II6-no70_HM-455-3_2019-05-08;;;;660859;0;660859;0;0;4881;0;0;0;0;0;0;0;0;660859;0;0;1316835;0;4827;78;0;24;54;1316835;0;0;0;0;0;0;1;-15.711600;-10.660300;-15.285000;16.028900;11.055700;4.590500;3.200000;2.200000;2.000000;11.260000;-737.649404;2004.929923;-617.735893;
CMS-II6-no70_HM-455-5_2019-05-18_GMCFO_r1.00_n4_v256.volume.FTVecCol.Legacy;CMS-II6-070-455-5 S075 1356 180519;impression, plasticine;;561006;0;561006;0;0;4186;0;0;0;0;0;0;0;0;561006;16450;21276;1117824;0;4186;0;0;0;0;1117824;0;0;0;0;0;0;1;-17.284500;0.000000;-3.723000;17.284500;23.522000;3.723000;3.500000;2.400000;0.700000;9.840000;-1037.996438;-1158.324274;869.936973;
CMS-II6-no70_HM-455-5_2019-05-18_GMCFO_r1.00_n4_v256.volume;CMS-II6-070-455-5 S075 1356 180519;impression, plasticine;;561006;0;0;0;0;4186;0;0;0;0;0;0;0;0;561006;16450;21276;1117824;0;4186;0;0;0;0;1117824;0;0;0;0;0;0;1;-17.284500;0.000000;-3.723000;17.284500;23.522000;3.723000;3.500000;2.400000;0.700000;9.840000;-1037.996438;-1158.324274;869.936973;
CMS-II6-no70_HM-455-5_2019-05-18;;;;561101;0;561101;0;0;4274;0;0;0;0;0;0;0;0;561101;0;0;1117926;0;4218;77;0;21;56;1117926;0;0;0;0;0;0;1;-15.340300;-9.451900;-5.824900;20.121600;12.167400;9.812700;3.500000;2.200000;1.600000;9.840000;-997.040801;-1938.287270;800.886481;
CMS-II6-no70_HM-456-5_2019-05-07_GMCFO_r1.00_n4_v256.volume.FTVecCol.Legacy;CMS-II6-070 S075 1356 070519;impression, plasticine;;807910;0;807910;0;0;4897;0;0;0;0;0;0;0;0;807910;24877;33509;1610925;0;4897;0;0;0;0;1610925;0;0;0;0;0;0;1;-20.710500;0.000000;-2.711000;20.710500;31.599700;2.711000;4.100000;3.200000;0.500000;14.140000;-399.014919;-681.117167;1046.232169;
CMS-II6-no70_HM-456-5_2019-05-07_GMCFO_r1.00_n4_v256.volume;CMS-II6-070 S075 1356 070519;impression, plasticine;;807910;0;807910;0;0;4897;0;0;0;0;0;0;0;0;807910;24877;33509;1610925;0;4897;0;0;0;0;1610925;0;0;0;0;0;0;1;-20.710500;0.000000;-2.711000;20.710500;31.599700;2.711000;4.100000;3.200000;0.500000;14.140000;-399.014919;-681.117167;1046.232169;
CMS-II6-no70_HM-456-5_2019-05-07;;;;807976;0;807976;0;0;4963;0;0;0;0;0;0;0;0;807976;0;0;1610991;0;4913;66;0;16;50;1610991;0;0;0;0;0;0;1;-22.102600;-15.149500;-2.624900;18.795000;16.365100;5.622200;4.100000;3.200000;0.800000;14.140000;-83.003178;-899.485024;1714.655190;
